{
  "pages": [
    [
      [
        "ระเบียบกรมการจัดหางาน",
        "ว่าด้วยการจัดส่งคนหางานเพื่อไปทำงานในต่างประเทศ",
        "โดยกรมการจัดหางานตามมาตรา ๕๐ แห่งพระราชบัญญัติ",
        "จัดหางานและคุ้มครองคนหางาน พ.ศ. ๒๕๒๘",
        "พ.ศ. ๒๕๔๖"
      ]
    ],
    []
  ],
  "metadata": {
    "date_backmatter": "2546-01-17",
    "date_modified": "2546-02-11",
    "date_original": "2546-02-11",
    "editors": [
      {
        "name": "ศุภสรณ์/อภิสิทธิ์",
        "role": "จัดทำ",
        "date": "2560-06-02"
      },
      {
        "name": "โชติกานต์",
        "role": "ปรับปรุง",
        "date": "2560-06-02"
      }
    ],
    "tag": "a819-2g-2546-a0002"
  }
}