{
  "pages": [
    [
      [
        "พระราชบัญญัติ",
        "จัดหางานและคุ้มครองคนหางาน",
        "พ.ศ. ๒๕๒๘",
        "",
        "",
        "ภูมิพลอดุลยเดช ป.ร.",
        "ให้ไว้ ณ วันที่ ๑๗ สิงหาคม พ.ศ. ๒๕๒๘",
        "เป็นปีที่ ๔๐ ในรัชกาลปัจจุบัน"
      ]
    ],
    []
  ],
  "metadata": {
    "date_header": "2528-08-17",
    "date_modified": "2545-10-08",
    "date_original": "2528-09-01",
    "doctype": "พระราชบัญญัติ",
    "editors": [
      {
        "name": "ธนพันธ์",
        "role": "แก้ไข",
        "date": "2556-03-29"
      },
      {
        "name": "พลัฐวัษ",
        "role": "ตรวจ",
        "date": "2556-03-29"
      }
    ],
    "tag": "a819-20-2545-a0001",
    "title": "จัดหางานและคุ้มครองคนหางาน"
  }
}