{
  "pages": [
    [
      [
        "คำสั่งกรมพัฒนาฝีมือแรงงาน",
        "ที่ ๔๙๓/๒๕๓๖",
        "เรื่อง มอบอำนาจให้ร้องทุกข์เพื่อดำเนินคดีอาญาผู้กระทำความผิด"
      ]
    ],
    []
  ],
  "metadata": {
    "date_backmatter": "2536-07-23",
    "date_modified": "2536-08-19",
    "date_original": "2536-08-19",
    "editors": [
      {
        "name": "วิภา",
        "role": "ผู้จัดทำ",
        "date": "2555-02-06"
      }
    ],
    "tag": "a819-2f-2536-001"
  }
}