{
  "pages": [
    [
      [
        "ประกาศกระทรวงแรงงาน",
        "เรื่อง กำหนดด่านตรวจคนหางาน"
      ]
    ],
    []
  ],
  "metadata": {
    "date_backmatter": "2549-09-27",
    "date_modified": "2559-06-21",
    "date_original": "2549-11-09",
    "doctype": "ประกาศ",
    "editors": [
      {
        "name": "วิภา",
        "role": "ผู้จัดทำ",
        "date": "2550-03-09"
      },
      {
        "name": "ปุณิกา",
        "role": "เพิ่มเติม",
        "date": "2558-04-23"
      },
      {
        "name": "นุสรา",
        "role": "ผู้ตรวจ",
        "date": "1558-06-18"
      },
      {
        "name": "ปุณิกา",
        "role": "เพิ่มเติม",
        "date": "2559-06-29"
      }
    ],
    "tag": "a819-2e-9998-update"
  }
}