{
  "pages": [
    [
      [
        "ระเบียบกรมพัฒนาฝีมือแรงงาน",
        "ว่าด้วยการขอและการออกใบแทนใบอนุญาตดำเนินการทดสอบฝีมือคนหางาน",
        "พ.ศ. ๒๕๓๗"
      ]
    ],
    []
  ],
  "metadata": {
    "date_backmatter": "2537-09-28",
    "date_modified": "2537-09-29",
    "date_original": "2537-09-29",
    "editors": [
      {
        "name": "พรพิมล",
        "role": "พิมพ์",
        "date": "2544-07-24"
      },
      {
        "name": "โชติกานต์",
        "role": "ปรับปรุง",
        "date": "2560-06-02"
      }
    ],
    "tag": "a819-2g-2537-003"
  }
}