{
  "pages": [
    [
      [
        "กฎกระทรวง",
        "ฉบับที่ ๗ (พ.ศ. ๒๕๑๑)",
        "ออกตามความในพระราชบัญญัติจัดหางาน",
        "และคุ้มครองคนหางาน",
        "พ.ศ. ๒๕๑๑"
      ]
    ],
    []
  ],
  "metadata": {
    "date_backmatter": "2511-08-02",
    "date_modified": "2511-08-06",
    "date_original": "2511-08-06",
    "doctype": "กฎกระทรวง",
    "editors": [
      {
        "name": "โชติกานต์",
        "role": "จัดทำ",
        "date": "2560-05-18"
      },
      {
        "name": "โชติกานต์",
        "role": "ปรับปรุง",
        "date": "2560-05-23"
      }
    ],
    "tag": "a819-2b-2511-a007"
  }
}