{
  "pages": [
    [
      [
        "ประกาศกรมสวัสดิการและคุ้มครองแรงงาน",
        "เรื่อง คุณสมบัติและลักษณะต้องห้ามของผู้สมัครเข้ารับการเลือกตั้งเป็นผู้แทนฝ่ายนายจ้าง",
        "และผู้แทนฝ่ายลูกจ้างในคณะกรรมการไตรภาคี พ.ศ. ๒๕๕๓"
      ]
    ],
    []
  ],
  "metadata": {
    "date_backmatter": "2553-06-15",
    "date_modified": "2553-06-16",
    "date_original": "2553-06-16",
    "doctype": "ประกาศ",
    "editors": [
      {
        "name": "วิภา",
        "role": "ผู้จัดทำ",
        "date": "2555-03-09"
      }
    ],
    "tag": "a819-2e-2553-a0001"
  }
}