{
  "pages": [
    [
      [
        "ประกาศกระทรวงแรงงาน",
        "เรื่อง กำหนดด่านตรวจคนหางาน"
      ]
    ],
    []
  ],
  "metadata": {
    "date_backmatter": "2549-09-27",
    "date_modified": "2550-09-20",
    "date_original": "2549-11-09",
    "doctype": "ประกาศ",
    "editors": [
      {
        "name": "วิภา",
        "role": "ผู้จัดทำ",
        "date": "2555-03-09"
      }
    ],
    "tag": "a819-2e-2550-a0005"
  }
}