{
  "pages": [
    [
      [
        "กฎกระทรวง",
        "ฉบับที่ ๔ (พ.ศ. ๒๕๒๙)",
        "ออกตามความในพระราชบัญญัติจัดหางานและคุ้มครองคนหางาน",
        "พ.ศ. ๒๕๒๘"
      ]
    ],
    []
  ],
  "metadata": {
    "date_backmatter": "2529-02-18",
    "date_modified": "2538-09-22",
    "date_original": "2529-02-28",
    "doctype": "กฎกระทรวง",
    "editors": [
      {
        "name": "วิภา",
        "role": "ผู้จัดทำ",
        "date": "2555-03-13"
      },
      {
        "name": "จุฑามาศ",
        "role": "ปรับปรุง",
        "date": "2558-11-19"
      }
    ],
    "tag": "a819-2b-9997-update"
  }
}