{
  "pages": [
    [
      [
        "ประกาศกรมแรงงาน",
        "เรื่อง กำหนดแบบสัญญาจัดหางาน"
      ]
    ],
    []
  ],
  "metadata": {
    "date_backmatter": "2534-12-20",
    "date_modified": "2535-02-13",
    "date_original": "2535-02-13",
    "doctype": "ประกาศ",
    "editors": [
      {
        "name": "วิมล",
        "role": "ผู้จัดทำ",
        "date": "2555-03-08"
      }
    ],
    "tag": "a819-2e-2535-001"
  }
}