{
  "pages": [
    [
      [
        "ข้อกำหนด",
        "ฉบับที่ ๓ (พ.ศ. ๒๔๙๗)",
        "ออกตามความในพระราชบัญญัติจัดระเบียบกิจการแพปลา",
        "พ.ศ. ๒๔๙๖",
        "ว่าด้วยการประกอบกิจการแพปลา ประเภทสินค้า",
        "สัตว์น้ำสด (สัตว์น้ำน้ำจืด)"
      ]
    ],
    []
  ],
  "metadata": {
    "date_backmatter": "2497-11-06",
    "date_modified": "2497-11-09",
    "date_original": "2497-11-09",
    "editors": [
      {
        "name": "จุฑามาศ",
        "role": "ปรับปรุง",
        "date": "2556-03-08"
      },
      {
        "name": "วิชพงษ์",
        "role": "ตรวจ",
        "date": "2556-03-12"
      }
    ],
    "tag": "a811-2h-2497-a0001"
  }
}