{
  "pages": [
    [
      [
        "ข้อกำหนด",
        "ฉบับที่ ๒๐ (พ.ศ. ๒๕๑๖)",
        "ออกตามความในพระราชบัญญัติจัดระเบียบ",
        "กิจการแพปลา พ.ศ. ๒๔๙๖",
        "ว่าด้วยกำหนดวิธีการขายทอดตลาดหรือขายโดยวิธีอื่น",
        "ซึ่งสินค้าสัตว์น้ำ กำหนดหน่วยของน้ำหนักสินค้าสัตว์น้ำ",
        "การทำบัญชีและเอกสารเป็นภาษาไทยในสะพานปลา"
      ]
    ],
    []
  ],
  "metadata": {
    "date_backmatter": "2516-09-21",
    "date_modified": "2516-10-11",
    "date_original": "2516-10-11",
    "editors": [
      {
        "name": "จุฑามาศ",
        "role": "ปรับปรุง",
        "date": "2556-03-11"
      },
      {
        "name": "วิชพงษ์",
        "role": "ตรวจ",
        "date": "2556-03-12"
      }
    ],
    "tag": "a811-2h-2516-a002"
  }
}