{
  "pages": [
    [
      [
        "ประกาศกระทรวงการคลัง",
        "เรื่อง กำหนดหลักเกณฑ์และวิธีการในการจัดทำแผนการกู้เงินและการบริหารหนี้เงินกู้",
        "และการรายงานการกู้เงินและสถานะหนี้เงินกู้คงค้างของหน่วยงานของรัฐ"
      ]
    ],
    []
  ],
  "metadata": {
    "date_backmatter": "2561-06-28",
    "date_modified": "2561-07-06",
    "date_original": "2561-07-06",
    "doctype": "ประกาศ",
    "editors": [
      {
        "name": "พัชรภรณ์",
        "role": "จัดทำ",
        "date": "2561-10-29"
      }
    ],
    "tag": "c783-2e-2561-a0007"
  }
}