{
  "pages": [
    [
      [
        "คำสั่งกระทรวงมหาดไทย",
        "ที่ ๑๐๘๓/๒๕๕๘",
        "เรื่อง แต่งตั้งคณะกรรมการเปรียบเทียบตามพระราชบัญญัติการทวงถามหนี้ พ.ศ. ๒๕๕๘"
      ]
    ],
    []
  ],
  "metadata": {
    "date_backmatter": "2558-11-19",
    "date_modified": "2559-02-18",
    "date_original": "2559-02-18",
    "editors": [
      {
        "name": "ปริยานุช",
        "role": "จัดทำ",
        "date": "2559-02-23"
      },
      {
        "name": "กัญฑรัตน์",
        "role": "ตรวจ",
        "date": "2559-02-29"
      }
    ],
    "tag": "a1148-2f-2559-a0003"
  }
}