{
  "pages": [
    [
      [
        "กฎกระทรวง",
        "ฉบับที่ ๙ (พ.ศ. ๒๕๑๑)",
        "ออกตามความในพระราชบัญญัติควบคุมยาง",
        "พุทธศักราช ๒๔๘๑"
      ]
    ],
    []
  ],
  "metadata": {
    "date_backmatter": "2511-12-20",
    "date_modified": "2536-09-17",
    "date_original": "2511-12-31",
    "doctype": "กฎกระทรวง",
    "editors": [
      {
        "name": "ประดิชญา",
        "role": "ผู้จัดทำ",
        "date": "2555-11-22"
      },
      {
        "name": "วิชพงษ์",
        "role": "ผู้ตรวจ",
        "date": "2555-11-29"
      }
    ],
    "tag": "a480-2b-9998-update"
  }
}