{
  "pages": [
    [
      [
        "ประกาศกระทรวงเกษตรและสหกรณ์",
        "เรื่อง การกำหนดมาตรฐานยางและวิธีการมัดยางและการบรรจุหีบห่อยางเพื่อการส่งออก"
      ]
    ],
    []
  ],
  "metadata": {
    "date_backmatter": "2548-08-24",
    "date_modified": "2548-09-27",
    "date_original": "2548-09-27",
    "doctype": "ประกาศ",
    "editors": [
      {
        "name": "ประดิชญา",
        "role": "ผู้จัดทำ",
        "date": "2555-11-22"
      },
      {
        "name": "วิชพงษ์",
        "role": "ผู้ตรวจ",
        "date": "2555-11-29"
      }
    ],
    "tag": "a480-2e-2548-a0001"
  }
}