{
  "pages": [
    [
      [
        "ประกาศกรมวิชาการเกษตร",
        "เรื่อง หลักเกณฑ์ วิธีการและเงื่อนไขการขอรับใบอนุญาต",
        "และการขอรับหนังสือสำคัญตามพระราชบัญญัติควบคุมยาง พ.ศ. ๒๕๔๒",
        "โดยวิธีการทางอิเล็กทรอนิกส์ พ.ศ. ๒๕๕๙"
      ]
    ],
    []
  ],
  "metadata": {
    "date_backmatter": "2559-06-14",
    "date_modified": "2559-11-22",
    "date_original": "2559-11-22",
    "doctype": "ประกาศ",
    "editors": [
      {
        "name": "ปริยานุช",
        "role": "จัดทำ",
        "date": "2559-11-25"
      },
      {
        "name": "ชนิกา",
        "role": "ตรวจ",
        "date": "2559-11-30"
      }
    ],
    "tag": "a480-2e-2559-a0001"
  }
}