{
  "pages": [
    [
      [
        "ข้อบังคับสภาทนายความ",
        "ว่าด้วยบัตรประจำตัวสมาชิกสภาทนายความ",
        "พ.ศ. ๒๕๕๕"
      ]
    ],
    []
  ],
  "metadata": {
    "date_backmatter": "2555-01-04",
    "date_modified": "2555-03-26",
    "date_original": "2555-03-26",
    "editors": [
      {
        "name": "ปริยานุช",
        "role": "ผู้จัดทำ",
        "date": "2555-04-02"
      },
      {
        "name": "ชาญ",
        "role": "ผู้ตรวจ",
        "date": "2555-04-10"
      }
    ],
    "tag": "b701-2i-2555-a0001"
  }
}