{
  "pages": [
    [
      [
        "ข้อบังคับสภาทนายความ",
        "ว่าด้วยการฝึกอบรมวิชาว่าความ",
        "พ.ศ. ๒๕๒๙"
      ]
    ],
    []
  ],
  "metadata": {
    "date_backmatter": "2529-06-19",
    "date_modified": "2529-06-19",
    "date_original": "2529-06-19",
    "editors": [
      {
        "name": "มณฑิตา",
        "role": "ผู้จัดทำ",
        "date": "2553-11-02"
      },
      {
        "name": "นฤดล",
        "role": "ผู้ตรวจ",
        "date": "2554-01-21"
      }
    ],
    "tag": "b701-2i-2529-006"
  }
}