{
  "pages": [
    [
      [
        "ข้อบังคับสภาทนายความ",
        "ว่าด้วยใบอนุญาตให้เป็นทนายความ (ฉบับที่ ๓)",
        "พ.ศ. ๒๕๓๒"
      ]
    ],
    []
  ],
  "metadata": {
    "date_backmatter": "2532-08-22",
    "date_modified": "2532-09-07",
    "date_original": "2532-09-07",
    "editors": [
      {
        "name": "ดลธี",
        "role": "พิมพ์",
        "date": "2553-11-02"
      },
      {
        "name": "มณฑิตา",
        "role": "ผู้จัดทำ",
        "date": "2553-11-03"
      },
      {
        "name": "นฤดล",
        "role": "ผู้ตรวจ",
        "date": "2553-01-21"
      }
    ],
    "tag": "b701-2i-2532-a0001"
  }
}