{
  "pages": [
    [
      [
        "ข้อบังคับสภาทนายความ",
        "ว่าด้วยใบอนุญาตให้เป็นทนายความ",
        "พ.ศ. ๒๕๒๙"
      ]
    ],
    []
  ],
  "metadata": {
    "date_backmatter": "2529-03-20",
    "date_modified": "2529-07-31",
    "date_original": "2529-03-20",
    "editors": [
      {
        "name": "มณฑิตา",
        "role": "ผู้จัดทำ",
        "date": "2553-10-28"
      },
      {
        "name": "นฤดล",
        "role": "ผู้ตรวจ",
        "date": "2553-01-21"
      }
    ],
    "tag": "b701-2i-2529-014"
  }
}