{
  "pages": [
    [
      [
        "ข้อบังคับสภาทนายความ",
        "ว่าด้วยการประชุมใหญ่ของสภาทนายความ",
        "พ.ศ. ๒๕๓๐"
      ]
    ],
    []
  ],
  "metadata": {
    "date_backmatter": "2530-04-03",
    "date_modified": "2530-04-29",
    "date_original": "2530-04-29",
    "editors": [
      {
        "name": "มณฑิตา",
        "role": "ผู้จัดทำ",
        "date": "2553-10-28"
      },
      {
        "name": "นฤดล",
        "role": "ผู้ตรวจ",
        "date": "2553-01-11"
      }
    ],
    "tag": "b701-2i-2530-003"
  }
}