{
  "pages": [
    [
      [
        "พระราชบัญญัติ",
        "ทนายความ",
        "พ.ศ. ๒๕๒๘",
        "",
        "",
        "ภูมิพลอดุลยเดช ป.ร.",
        "ให้ไว้ ณ วันที่ ๑๐ กันยายน พ.ศ. ๒๕๒๘",
        "เป็นปีที่ ๔๐ ในรัชกาลปัจจุบัน"
      ]
    ],
    []
  ],
  "metadata": {
    "date_header": "2528-09-10",
    "date_modified": "2528-09-19",
    "date_original": "2528-09-19",
    "doctype": "พระราชบัญญัติ",
    "editors": [
      {
        "name": "อมรรัตน์",
        "role": "แก้ไข",
        "date": "2553-03-29"
      },
      {
        "name": "วศิน",
        "role": "ตรวจ",
        "date": "2553-03-29"
      },
      {
        "name": "สุกัญญา",
        "role": "ผู้จัดทำ",
        "date": "2554-03-14"
      }
    ],
    "tag": "b701-20-2528-001",
    "title": "ทนายความ"
  }
}