{
  "pages": [
    [
      [
        "ข้อบังคับสภาทนายความ",
        "ว่าด้วยการพนักงานสภาทนายความ",
        "พ.ศ. ๒๕๓๐"
      ]
    ],
    []
  ],
  "metadata": {
    "date_backmatter": "2530-12-18",
    "date_modified": "2530-12-30",
    "date_original": "2530-12-30",
    "editors": [
      {
        "name": "มณฑิตา",
        "role": "ผู้จัดทำ",
        "date": "2553-10-28"
      },
      {
        "name": "นฤดล",
        "role": "ผู้ตรวจ",
        "date": "2554-01-21"
      }
    ],
    "tag": "b701-2i-2530-005"
  }
}