{
  "pages": [
    [
      [
        "ข้อบังคับสภาทนายความ",
        "ว่าด้วยสถาบันวิชาชีพกฎหมายชั้นสูง",
        "พ.ศ. ๒๕๔๒"
      ]
    ],
    []
  ],
  "metadata": {
    "date_backmatter": "2542-05-16",
    "date_modified": "2542-06-15",
    "date_original": "2542-06-15",
    "editors": [
      {
        "name": "ดลธี",
        "role": "ผู้จัดทำ",
        "date": "2553-11-02"
      },
      {
        "name": "นฤดล",
        "role": "ผู้ตรวจ",
        "date": "2554-01-11"
      }
    ],
    "tag": "b701-2i-2542-a0001"
  }
}