{
  "pages": [
    [
      [
        "ข้อบังคับสภาทนายความ",
        "ว่าด้วยการฝึกอบรมวิชาว่าความ",
        "(ฉบับที่ ๒) พ.ศ. ๒๕๕๒"
      ]
    ],
    []
  ],
  "metadata": {
    "date_backmatter": "2552-01-30",
    "date_modified": "2552-04-08",
    "date_original": "2552-04-08",
    "editors": [
      {
        "name": "มณฑิตา",
        "role": "ผู้จัดทำ",
        "date": "2553-11-01"
      },
      {
        "name": "นฤดล",
        "role": "ผู้ตรวจ",
        "date": "2554-01-21"
      }
    ],
    "tag": "b701-2i-2552-a0003"
  }
}