{
  "pages": [
    [
      [
        "ข้อบังคับสภาทนายความ",
        "ว่าด้วยการฝึกหัดงานในสำนักงานทนายความ พ.ศ. ๒๕๓๕"
      ]
    ],
    []
  ],
  "metadata": {
    "date_backmatter": "2535-08-13",
    "date_modified": "2550-12-28",
    "date_original": "2535-10-16",
    "editors": [
      {
        "name": "มณฑิตา",
        "role": "ผู้จัดทำ",
        "date": "2553-11-08"
      },
      {
        "name": "นฤดล",
        "role": "ผู้ตรวจ",
        "date": "2554-01-11"
      }
    ],
    "tag": "b701-2i-9993-update"
  }
}