{
  "pages": [
    [
      [
        "ข้อบังคับการรถไฟฟ้าขนส่งมวลชนแห่งประเทศไทย",
        "ว่าด้วยอัตราค่าบริการจอดรถยนต์และวิธีการจัดเก็บค่าบริการจอดรถยนต์",
        "รถไฟฟ้ามหานคร สายฉลองรัชธรรม",
        "พ.ศ. ๒๕๕๙"
      ]
    ],
    []
  ],
  "metadata": {
    "date_backmatter": "2559-07-06",
    "date_modified": "2559-07-06",
    "date_original": "2559-07-06",
    "editors": [
      {
        "name": "ปริยานุช",
        "role": "จัดทำ",
        "date": "2559-07-11"
      },
      {
        "name": "กัญฑรัตน์",
        "role": "ตรวจ",
        "date": "2559-07-29"
      }
    ],
    "tag": "a1107-2i-2559-a0003"
  }
}