{
  "pages": [
    [
      [
        "ประกาศสำนักนายกรัฐมนตรี",
        "เรื่อง กำหนดให้การเวนคืนอสังหาริมทรัพย์ ในท้องที่เขตจตุจักร",
        "เขตบางซื่อ เขตห้วยขวาง เขตดินแดง เขตราชเทวี",
        "เขตป้อมปราบศัตรูพ่าย เขตปทุมวัน เขตสัมพันธวงศ์",
        "เขตบางรัก เขตสาทร และเขตคลองเตย กรุงเทพมหานคร",
        "เป็นกรณีที่มีความจำเป็นโดยเร่งด่วน"
      ]
    ],
    []
  ],
  "metadata": {
    "date_backmatter": "2547-10-18",
    "date_modified": "2547-10-29",
    "date_original": "2547-10-29",
    "doctype": "ประกาศ",
    "editors": [
      {
        "name": "ญาณี",
        "role": "พิมพ์",
        "date": "2548-03-23"
      },
      {
        "name": "พัชรินทร์/ฐิติพงษ์",
        "role": "ตรวจ",
        "date": "2548-04-22"
      },
      {
        "name": "ภัทรวีร์",
        "role": "ปรับปรุง",
        "date": "2560-08-31"
      }
    ],
    "tag": "a1107-2e-2547-a0001"
  }
}