{
  "pages": [
    [
      [
        "พระราชกฤษฎีกา",
        "กำหนดเขตที่ดินในบริเวณที่ที่จะเวนคืน",
        "ในท้องที่เขตจตุจักร เขตบางซื่อ เขตราชเทวี เขตห้วยขวาง",
        "และเขตคลองเตย กรุงเทพมหานคร",
        "พ.ศ. ๒๕๔๓",
        "----------------",
        "ภูมิพลอดุลยเดช ป.ร.",
        "ให้ไว้ ณ วันที่ ๕ ธันวาคม พ.ศ. ๒๕๔๓",
        "เป็นปีที่ ๕๕ ในรัชกาลปัจจุบัน"
      ]
    ],
    []
  ],
  "metadata": {
    "date_backmatter": "2545-05-01",
    "date_gz_old": "2543-12-06",
    "date_header": "2543-12-05",
    "doctype": "พระราชกฤษฎีกา",
    "editors": [],
    "tag": "a1107-2a-2543-a0001",
    "title": "กำหนดเขตที่ดินในบริเวณที่ที่จะเวนคืนในท้องที่เขตจตุจักร เขตบางซื่อ เขตราชเทวี เขตห้วยขวางและเขตคลองเตย กรุงเทพมหานครพ.ศ. ๒๕๔๓----------------ภูมิพลอดุลยเดช ป.ร.ให้ไว้ ณ วันที่ ๕ ธันวาคม"
  }
}