{
  "pages": [
    [
      [
        "กฎกระทรวง",
        "กำหนดหลักเกณฑ์ว่าด้วยความปลอดภัยในชีวิต",
        "ร่างกายและทรัพย์สิน การรักษาความสงบเรียบร้อย",
        "ความสะอาดและความเป็นระเบียบเรียบร้อย",
        "ภายในเขตระบบรถไฟฟ้า",
        "พ.ศ. ๒๕๔๗"
      ]
    ],
    []
  ],
  "metadata": {
    "date_backmatter": "2547-06-25",
    "date_modified": "2547-06-29",
    "date_original": "2547-06-29",
    "doctype": "กฎกระทรวง",
    "editors": [
      {
        "name": "ศุภชัย",
        "role": "พิมพ์",
        "date": "2547-08-25"
      },
      {
        "name": "นวพร/สุนันทา",
        "role": "ตรวจ",
        "date": "2547-09-02"
      },
      {
        "name": "ภัทรวีร์",
        "role": "ปรับปรุง",
        "date": "2560-08-31"
      }
    ],
    "tag": "a1107-2b-2547-a0001"
  }
}