{
  "pages": [
    [
      [
        "กฎกระทรวง",
        "กำหนดหลักเกณฑ์ วิธีการและเงื่อนไขการขออนุญาตและการอนุญาต",
        "ผลิต นำเข้า ส่งออก จำหน่ายหรือมีไว้ในครอบครองซึ่งยาเสพติดให้โทษในประเภท ๑",
        "พ.ศ. ๒๕๔๘"
      ]
    ],
    []
  ],
  "metadata": {
    "date_backmatter": "2548-11-14",
    "date_modified": "2548-12-22",
    "date_original": "2548-12-22",
    "doctype": "กฎกระทรวง",
    "editors": [
      {
        "name": "ชัชสรัญ",
        "role": "ผู้จัดทำ",
        "date": "2548-12-26"
      },
      {
        "name": "ธนวัชร",
        "role": "ปรับปรุง",
        "date": "2560-07-14"
      }
    ],
    "tag": "c207-2b-2548-a0001"
  }
}