{
  "pages": [
    [
      [
        "กฎกระทรวง",
        "ฉบับที่ ๒ (พ.ศ. ๒๕๒๒)",
        "ออกตามความในพระราชบัญญัติยาเสพติดให้โทษ",
        "พ.ศ. ๒๕๒๒"
      ]
    ],
    []
  ],
  "metadata": {
    "date_backmatter": "2522-11-19",
    "date_modified": "2522-12-14",
    "date_original": "2522-12-14",
    "doctype": "กฎกระทรวง",
    "editors": [
      {
        "name": "สุกัญญา",
        "role": "ผู้จัดทำ",
        "date": "2552-04-22"
      },
      {
        "name": "ก้องเกียรติ",
        "role": "ผู้จัดทำ",
        "date": "2552-04-30"
      }
    ],
    "tag": "c207-2b-2522-002"
  }
}