{
  "pages": [
    [
      [
        "ประกาศคณะกรรมการควบคุมยาเสพติดให้โทษ",
        "เรื่อง หลักเกณฑ์และวิธีการในการตรวจวิเคราะห์",
        "เพื่อหาปริมาณสารเตตราไฮโดรแคนนาบินอล (Tetrahydrocannabinol, THC) ในเฮมพ์",
        "พ.ศ. ๒๕๖๐"
      ]
    ],
    []
  ],
  "metadata": {
    "date_backmatter": "2560-12-20",
    "date_modified": "2560-12-29",
    "date_original": "2560-12-29",
    "doctype": "ประกาศ",
    "editors": [
      {
        "name": "ปวันวิทย์/อัญชลี",
        "role": "จัดทำ",
        "date": "2561-01-08"
      }
    ],
    "tag": "c207-2e-2560-a0021"
  }
}