{
  "pages": [
    [
      [
        "ประกาศสำนักงานคณะกรรมการอาหารและยา",
        "เรื่อง กำหนดระยะเวลาผ่อนผันการแก้ไขหรือส่งเอกสารเพิ่มเติมสำหรับ",
        "คำขอขึ้นทะเบียน คำขอต่ออายุ และคำขอแก้ไขรายการทะเบียนตำรับ",
        "ยาเสพติดให้โทษในประเภท ๓ และทะเบียนวัตถุตำรับที่มีวัตถุออกฤทธิ์",
        "ในประเภท ๓ หรือประเภท ๔"
      ]
    ],
    []
  ],
  "metadata": {
    "date_backmatter": "2557-04-17",
    "date_modified": "2557-05-16",
    "date_original": "2557-05-16",
    "doctype": "ประกาศ",
    "editors": [
      {
        "name": "ปริยานุช",
        "role": "ผู้จัดทำ",
        "date": "2557-05-26"
      },
      {
        "name": "จุฑามาศ",
        "role": "ผู้ตรวจ",
        "date": "2557-06-03"
      }
    ],
    "tag": "c207-2e-2557-a0003"
  }
}