{
  "pages": [
    [
      [
        "ประกาศกระทรวงสาธารณสุข",
        "(ฉบับที่ ๑๕๘) พ.ศ. ๒๕๔๒",
        "เรื่อง ระบุชื่อและประเภทยาเสพติดให้โทษ",
        "ตามพระราชบัญญัติยาเสพติดให้โทษ พ.ศ. ๒๕๒๒",
        "(เพิ่มเติมฉบับที่ ๓)"
      ]
    ],
    []
  ],
  "metadata": {
    "date_backmatter": "2542-08-08",
    "date_modified": "2542-10-07",
    "date_original": "2542-10-07",
    "doctype": "ประกาศ",
    "editors": [
      {
        "name": "พรพิมล",
        "role": "พิมพ์",
        "date": "2544-07-30"
      },
      {
        "name": "ปณตภร",
        "role": "ปรับปรุง",
        "date": "2556-06-12"
      }
    ],
    "tag": "c207-2e-2542-a007"
  }
}