{
  "pages": [
    [
      [
        "ประกาศกระทรวงสาธารณสุข",
        "เรื่อง กำหนดชนิดและจำนวนยาเสพติดให้โทษในประเภท ๒ ที่จะต้องใช้ในทางการแพทย์",
        "และทางวิทยาศาสตร์ทั่วราชอาณาจักร ประจำปี พ.ศ. ๒๕๕๘"
      ]
    ],
    []
  ],
  "metadata": {
    "date_backmatter": "2557-12-18",
    "date_modified": "2557-12-29",
    "date_original": "2557-12-29",
    "doctype": "ประกาศ",
    "editors": [
      {
        "name": "ปริยานุช",
        "role": "ผู้จัดทำ",
        "date": "2558-01-08"
      },
      {
        "name": "วิศนี",
        "role": "ผู้ตรวจ",
        "date": "2558-01-19"
      }
    ],
    "tag": "c207-2e-2557-a0006"
  }
}