{
  "pages": [
    [
      [
        "ประกาศสำนักงานคณะกรรมการอาหารและยา",
        "เรื่อง กำหนดแบบสำหรับการอนุญาตและการรายงานผลการดำเนินการ",
        "เกี่ยวกับยาเสพติดให้โทษในประเภท ๑"
      ]
    ],
    []
  ],
  "metadata": {
    "date_backmatter": "2549-02-28",
    "date_modified": "2549-03-23",
    "date_original": "2549-03-23",
    "doctype": "ประกาศ",
    "editors": [
      {
        "name": "ชัชสรัญ",
        "role": "ผู้จัดทำ",
        "date": "2549-03-31"
      },
      {
        "name": "ธนวัชร",
        "role": "ปรังปรุง",
        "date": "2560-06-13"
      }
    ],
    "tag": "c207-2e-2549-a0002"
  }
}