{
  "pages": [
    [
      [
        "ประกาศสำนักงานคณะกรรมการอาหารและยา",
        "เรื่อง กำหนดเอกสารหรือหลักฐานอื่นประกอบการยื่นคำขออนุญาตโฆษณายาเสพติดให้โทษ",
        "และโฆษณาเกี่ยวกับการบำบัดรักษาผู้ติดยาเสพติดให้โทษ"
      ]
    ],
    []
  ],
  "metadata": {
    "date_backmatter": "2553-10-12",
    "date_modified": "2553-10-29",
    "date_original": "2553-10-29",
    "doctype": "ประกาศ",
    "editors": [
      {
        "name": "ปริยานุช",
        "role": "ผู้จัดทำ",
        "date": "2553-11-03"
      },
      {
        "name": "ณัฐวดี",
        "role": "ตรวจ",
        "date": "2553-11-03"
      },
      {
        "name": "ธนวัชร",
        "role": "ปรับปรุง",
        "date": "2560-06-09"
      }
    ],
    "tag": "c207-2e-2553-a0008"
  }
}