{
  "pages": [
    [
      [
        "ประกาศกระทรวงสาธารณสุข",
        "เรื่อง จัดตั้งสถานพยาบาล ประเภทสถานพยาบาลที่เป็นของรัฐ รัฐวิสาหกิจ หน่วยงานอื่นของรัฐ",
        "พ.ศ. ๒๕๕๕"
      ]
    ],
    []
  ],
  "metadata": {
    "date_backmatter": "2555-07-13",
    "date_modified": "2560-03-14",
    "date_original": "2555-07-26",
    "doctype": "ประกาศ",
    "editors": [
      {
        "name": "ปริญสินีย์",
        "role": "จัดทำ",
        "date": "2558-04-01"
      },
      {
        "name": "วริญา",
        "role": "เพิ่มเติม",
        "date": "2558-08-26"
      },
      {
        "name": "ปุณิกา",
        "role": "เพิ่มเติม",
        "date": "2559-11-07"
      },
      {
        "name": "ปัญญา",
        "role": "ตรวจ",
        "date": "2559-11-23"
      },
      {
        "name": "ชวัลพร",
        "role": "เพิ่มเติม",
        "date": "2560-04-24"
      }
    ],
    "tag": "c207-2e-2560-a0014"
  }
}