{
  "pages": [
    [
      [
        "ประกาศกระทรวงสาธารณสุข",
        "(ฉบับที่ ๑๗๓) พ.ศ. ๒๕๔๕",
        "เรื่อง กำหนดชนิดและจำนวนยาเสพติดให้โทษที่จะต้องใช้",
        "ในทางการแพทย์และวิทยาศาสตร์ทั่วราชอาณาจักร",
        "ประจำปี พ.ศ. ๒๕๔๕"
      ]
    ],
    []
  ],
  "metadata": {
    "date_backmatter": "2545-04-02",
    "date_modified": "2545-05-01",
    "date_original": "2545-05-01",
    "doctype": "ประกาศ",
    "editors": [
      {
        "name": "สุกัญญา",
        "role": "ผู้จัดทำ",
        "date": "2552-04-22"
      },
      {
        "name": "ก้องเกียรติ",
        "role": "ผู้จัดทำ",
        "date": "2552-04-30"
      },
      {
        "name": "ธนวัชร",
        "role": "ปรับปรุง",
        "date": "2560-06-20"
      }
    ],
    "tag": "c207-2e-2545-a0001"
  }
}