{
  "pages": [
    [
      [
        "ประกาศกระทรวงสาธารณสุข",
        "(ฉบับที่ ๑๙๗) พ.ศ. ๒๕๔๙",
        "เรื่อง กำหนดหลักเกณฑ์และวิธีการในการกำหนดปริมาณยาเสพติดให้โทษในประเภท ๒",
        "ที่ผู้อนุญาตจะอนุญาตให้จำหน่ายหรือมีไว้ในครอบครอง"
      ]
    ],
    []
  ],
  "metadata": {
    "date_backmatter": "2549-03-31",
    "date_modified": "2558-08-21",
    "date_original": "2549-05-10",
    "doctype": "ประกาศ",
    "editors": [
      {
        "name": "วริญา",
        "role": "ผู้จัดทำ",
        "date": "2558-08-26"
      }
    ],
    "tag": "c207-2e-9996-update"
  }
}