{
  "pages": [
    [
      [
        "ประกาศคณะกรรมการควบคุมยาเสพติดให้โทษ",
        "เรื่อง กำหนดหลักเกณฑ์และวิธีการในการรับเข้าบำบัดรักษาในสถานพยาบาล"
      ]
    ],
    []
  ],
  "metadata": {
    "date_backmatter": "2549-05-25",
    "date_modified": "2549-06-22",
    "date_original": "2549-06-22",
    "doctype": "ประกาศ",
    "editors": [
      {
        "name": "นันทนา",
        "role": "ผู้จัดทำ",
        "date": "2549-06-26"
      },
      {
        "name": "ธนวัชร",
        "role": "ผู้ปรับปรุง",
        "date": "2560-06-13"
      }
    ],
    "tag": "c207-2e-2549-a0004"
  }
}