{
  "pages": [
    [
      [
        "พระราชบัญญัติ",
        "ยาเสพติดให้โทษ",
        "พ.ศ. ๒๕๒๒",
        "",
        "",
        "ภูมิพลอดุลยเดช ป.ร.",
        "ให้ไว้ ณ วันที่ ๒๒ เมษายน พ.ศ. ๒๕๒๒",
        "เป็นปีที่ ๓๔ ในรัชกาลปัจจุบัน"
      ]
    ],
    []
  ],
  "metadata": {
    "date_header": "2522-04-22",
    "date_modified": "2562-02-18",
    "date_original": "2522-04-27",
    "doctype": "พระราชบัญญัติ",
    "editors": [
      {
        "name": "วศิน",
        "role": "แก้ไข",
        "date": "2553-10-08"
      },
      {
        "name": "นุสรา",
        "role": "ปรับปรุง",
        "date": "2560-01-16"
      },
      {
        "name": "พิไลภรณ์",
        "role": "เพิ่มเติม",
        "date": "2562-02-21"
      },
      {
        "name": "วิชพงษ์",
        "role": "ตรวจ",
        "date": "2562-02-21"
      }
    ],
    "tag": "c207-20-9999-update",
    "title": "ยาเสพติดให้โทษ"
  }
}