{
  "pages": [
    [
      [
        "ประกาศกระทรวงสาธารณสุข",
        "เรื่อง จัดตั้งสถานพยาบาล",
        "ประเภทสถานฟื้นฟูสมรรถภาพ (ฉบับที่ ๒)",
        "พ.ศ. ๒๕๕๗"
      ]
    ],
    []
  ],
  "metadata": {
    "date_backmatter": "2557-03-27",
    "date_modified": "2557-04-21",
    "date_original": "2557-04-21",
    "doctype": "ประกาศ",
    "editors": [
      {
        "name": "ปริยานุช",
        "role": "ผู้จัดทำ",
        "date": "2557-04-23"
      },
      {
        "name": "จุฑามาศ",
        "role": "ผู้ตรวจ",
        "date": "2557-04-24"
      }
    ],
    "tag": "c207-2e-2557-a0002"
  }
}