{
  "pages": [
    [
      [
        "ประกาศกระทรวงสาธารณสุข",
        "(ฉบับที่ ๑๖๙) พ.ศ. ๒๕๔๔",
        "เรื่อง กำหนดชนิดและจำนวนยาเสพติดให้โทษที่จะต้องใช้ในทางการแพทย์",
        "และวิทยาศาสตร์ทั่วราชอาณาจักรประจำปี พ.ศ. ๒๕๔๔"
      ]
    ],
    []
  ],
  "metadata": {
    "date_backmatter": "2544-01-11",
    "date_gz_old": "2544-02-08",
    "doctype": "ประกาศ",
    "editors": [
      {
        "name": "อัมพิกา",
        "role": "แก้ไข"
      }
    ],
    "tag": "c207-2e-2544-a003"
  }
}