{
  "pages": [
    [
      [
        "กฎกระทรวง",
        "กำหนดหลักเกณฑ์ วิธีการ และเงื่อนไข",
        "การขออนุญาตและการออกใบอนุญาตโฆษณายาเสพติดให้โทษ",
        "และโฆษณาเกี่ยวกับการบำบัดรักษาผู้ติดยาเสพติดให้โทษ",
        "พ.ศ. ๒๕๕๓"
      ]
    ],
    []
  ],
  "metadata": {
    "date_backmatter": "2553-08-31",
    "date_modified": "2553-09-07",
    "date_original": "2553-09-07",
    "doctype": "กฎกระทรวง",
    "editors": [
      {
        "name": "ปริยานุช",
        "role": "ผู้จัดทำ",
        "date": "2553-09-13"
      },
      {
        "name": "นันท์นภัสร์",
        "role": "ตรวจ",
        "date": "2553-09-13"
      },
      {
        "name": "ธนวัชร",
        "role": "ปรับปรุง",
        "date": "2560-07-13"
      }
    ],
    "tag": "c207-2b-2553-a0003"
  }
}