{
  "pages": [
    [
      [
        "พระราชบัญญัติ",
        "ยาเสพติดให้โทษ (ฉบับที่ ๓)",
        "พ.ศ. ๒๕๓๐",
        "",
        "",
        "ภูมิพลอดุลยเดช ป.ร.",
        "ให้ไว้ ณ วันที่ ๒๓ ธันวาคม พ.ศ. ๒๕๓๐",
        "เป็นปีที่ ๔๒ ในรัชกาลปัจจุบัน"
      ]
    ],
    []
  ],
  "metadata": {
    "date_header": "2530-12-23",
    "date_modified": "2530-12-28",
    "date_original": "2530-12-28",
    "doctype": "พระราชบัญญัติ",
    "editors": [
      {
        "name": "นุสรา",
        "role": "ปรับปรุง",
        "date": "2560-01-16"
      }
    ],
    "tag": "c207-20-2530-003",
    "title": "ยาเสพติดให้โทษ (ฉบับที่ ๓)"
  }
}