{
  "pages": [
    [
      [
        "ประกาศกระทรวงสาธารณสุข",
        "เรื่อง จัดตั้งสถานพยาบาล",
        "ประเภทสถานพยาบาลตามกฎหมายว่าด้วยสถานพยาบาล (ฉบับที่ ๒)",
        "พ.ศ. ๒๕๕๗"
      ]
    ],
    []
  ],
  "metadata": {
    "date_backmatter": "2557-12-23",
    "date_modified": "2558-01-20",
    "date_original": "2558-01-20",
    "doctype": "ประกาศ",
    "editors": [
      {
        "name": "ปริยานุช",
        "role": "ผู้จัดทำ",
        "date": "2558-02-24"
      }
    ],
    "tag": "c207-2e-2558-a0002"
  }
}