{
  "pages": [
    [
      [
        "ประกาศสำนักงานคณะกรรมการอาหารและยา",
        "เรื่อง กำหนดเอกสารหรือหลักฐานอื่นประกอบการยื่นคำขอรับหนังสือสำคัญแสดงการอนุญาตผลิต",
        "จำหน่าย หรือมีไว้ในครอบครองซึ่งยาเสพติดให้โทษในประเภท ๕ เฉพาะเฮมพ์"
      ]
    ],
    []
  ],
  "metadata": {
    "date_backmatter": "2560-11-01",
    "date_modified": "2560-12-19",
    "date_original": "2560-12-19",
    "doctype": "ประกาศ",
    "editors": [
      {
        "name": "พรวิภา/ภวรรณตรี",
        "role": "จัดทำ",
        "date": "2561-01-09"
      }
    ],
    "tag": "c207-2e-2560-a0019"
  }
}