{
  "pages": [
    [
      [
        "กฎกระทรวง",
        "กำหนดเขตพัฒนาการท่องเที่ยวฝั่งทะเลตะวันตก เขตพัฒนาการท่องเที่ยว",
        "ฝั่งทะเลตะวันออก เขตพัฒนาการท่องเที่ยวอันดามัน เขตพัฒนาการท่องเที่ยวอารยธรรมล้านนา",
        "และเขตพัฒนาการท่องเที่ยวอารยธรรมอีสานใต้",
        "พ.ศ. ๒๕๕๘"
      ]
    ],
    []
  ],
  "metadata": {
    "date_backmatter": "2558-03-23",
    "date_modified": "2558-03-27",
    "date_original": "2558-03-27",
    "doctype": "กฎกระทรวง",
    "editors": [
      {
        "name": "ปริยานุช",
        "role": "ผู้จัดทำ",
        "date": "2558-03-30"
      },
      {
        "name": "ปริญสินีย์",
        "role": "ผู้ตรวจ",
        "date": "2558-03-30"
      }
    ],
    "tag": "b908-2b-2558-a0001"
  }
}