{
  "pages": [
    [
      [
        "ประกาศคณะกรรมการกิจการกระจายเสียง กิจการโทรทัศน์",
        "และกิจการโทรคมนาคมแห่งชาติ",
        "เรื่อง การแต่งตั้งพนักงานเจ้าหน้าที่และการมอบหมายให้ปฏิบัติการแทน",
        "คณะกรรมการกิจการกระจายเสียง กิจการโทรทัศน์ และกิจการโทรคมนาคมแห่งชาติ",
        "ในการกำกับดูแลการประกอบกิจการกระจายเสียงและกิจการโทรทัศน์"
      ]
    ],
    []
  ],
  "metadata": {
    "date_backmatter": "2555-04-26",
    "date_modified": "2555-05-14",
    "date_original": "2555-05-14",
    "doctype": "ประกาศ",
    "editors": [
      {
        "name": "ปริยานุช",
        "role": "ผู้จัดทำ",
        "date": "2555-05-17"
      },
      {
        "name": "ปณตภร",
        "role": "ผู้ตรวจ",
        "date": "2555-05-22"
      }
    ],
    "tag": "a1129-2e-2555-a0001"
  }
}