{
  "pages": [
    [
      [
        "ประกาศคณะกรรมการกิจการกระจายเสียง กิจการโทรทัศน์",
        "และกิจการโทรคมนาคมแห่งชาติ",
        "เรื่อง ค่าธรรมเนียมใบอนุญาตประกอบกิจการกระจายเสียง หรือกิจการโทรทัศน์",
        "พ.ศ. ๒๕๕๕"
      ]
    ],
    []
  ],
  "metadata": {
    "date_backmatter": "2555-10-31",
    "date_modified": "2559-11-24",
    "date_original": "2555-11-12",
    "doctype": "ประกาศ",
    "editors": [
      {
        "name": "ชนิกา",
        "role": "จัดทำ",
        "date": "2559-12-09"
      },
      {
        "name": "ชุติมา",
        "role": "ปรับปรุง",
        "date": "2561-01-22"
      }
    ],
    "tag": "a1129-2e-9995-update"
  }
}