{
  "pages": [
    [
      [
        "ประกาศคณะกรรมการกิจการกระจายเสียง กิจการโทรทัศน์",
        "และกิจการโทรคมนาคมแห่งชาติ",
        "เรื่อง หลักเกณฑ์รายการโทรทัศน์สำคัญที่ให้เผยแพร่ได้เฉพาะในบริการโทรทัศน์ที่เป็นการทั่วไป",
        "พ.ศ. ๒๕๕๕"
      ]
    ],
    []
  ],
  "metadata": {
    "date_backmatter": "2555-12-11",
    "date_modified": "2556-01-04",
    "date_original": "2556-01-04",
    "doctype": "ประกาศ",
    "editors": [
      {
        "name": "โชติกานต์",
        "role": "ผู้จัดทำ",
        "date": "2556-01-23"
      },
      {
        "name": "ชาญ",
        "role": "ผู้ตรวจ",
        "date": "2556-01-23"
      }
    ],
    "tag": "a1129-2e-2556-a0001"
  }
}