{
  "pages": [
    [
      [
        "ประกาศคณะกรรมการกิจการโทรคมนาคมแห่งชาติ",
        "เรื่อง ค่าธรรมเนียมใบอนุญาตการประกอบกิจการที่ไม่ใช้คลื่นความถี่ชั่วคราว",
        "(กิจการโทรทัศน์ที่มีการบอกรับสมาชิก) ระดับท้องถิ่น"
      ]
    ],
    []
  ],
  "metadata": {
    "date_backmatter": "2553-07-19",
    "date_modified": "2553-08-31",
    "date_original": "2553-08-31",
    "doctype": "ประกาศ",
    "editors": [
      {
        "name": "นภาพร",
        "role": "ผู้จัดทำ",
        "date": "2556-05-22"
      },
      {
        "name": "วิชพงษ์",
        "role": "ตรวจ",
        "date": "2556-05-31"
      }
    ],
    "tag": "a1129-2e-2553-a0001"
  }
}