{
  "pages": [
    [
      [
        "ประกาศคณะกรรมการกิจการกระจายเสียง กิจการโทรทัศน์",
        "และกิจการโทรคมนาคมแห่งชาติ",
        "เรื่อง หลักเกณฑ์และวิธีการรวบรวมข้อเท็จจริงเกี่ยวกับการกระทำความผิด",
        "ในกิจการกระจายเสียงและกิจการโทรทัศน์ที่มีโทษทางปกครอง",
        "พ.ศ. ๒๕๕๖"
      ]
    ],
    []
  ],
  "metadata": {
    "date_backmatter": "2556-01-03",
    "date_modified": "2556-01-25",
    "date_original": "2556-01-25",
    "doctype": "ประกาศ",
    "editors": [
      {
        "name": "ปริยานุช",
        "role": "ผู้จัดทำ",
        "date": "2556-02-01"
      },
      {
        "name": "โชติกานต์",
        "role": "ผู้ตรวจ",
        "date": "2556-03-12"
      },
      {
        "name": "ชุติมา",
        "role": "ปรับปรุง",
        "date": "2561-01-22"
      }
    ],
    "tag": "a1129-2e-2556-a0003"
  }
}