{
  "pages": [
    [
      [
        "ประกาศกระทรวงมหาดไทย",
        "เรื่อง มอบหมายอำนาจในการอนุญาตตามพระราชบัญญัติ",
        "คุ้มครองความลับในราชการ พุทธศักราช ๒๔๘๓"
      ]
    ],
    []
  ],
  "metadata": {
    "date_backmatter": "2515-09-04",
    "date_modified": "2515-09-19",
    "date_original": "2515-09-19",
    "doctype": "ประกาศ",
    "editors": [
      {
        "name": "สุนันทา",
        "role": "ผู้จัดทำ",
        "date": "2552-11-12"
      },
      {
        "name": "กวินทราดา",
        "role": "ผู้ตรวจ",
        "date": "2553-12-22"
      }
    ],
    "tag": "a433-2e-2515-a0001"
  }
}