{
  "pages": [
    [
      [
        "ประกาศมหาวิทยาลัยแม่ฟ้าหลวง",
        "เรื่อง การแบ่งส่วนงาน พ.ศ. ๒๕๔๖ (ฉบับที่ ๒)"
      ]
    ],
    []
  ],
  "metadata": {
    "date_backmatter": "2547-01-16",
    "date_modified": "2547-02-04",
    "date_original": "2547-02-04",
    "doctype": "ประกาศ",
    "editors": [
      {
        "name": "มณฑิตา",
        "role": "ผู้จัดทำ",
        "date": "2553-12-08"
      },
      {
        "name": "วิภา",
        "role": "ผู้ตรวจ",
        "date": "2554-05-25"
      }
    ],
    "tag": "c132-2e-2547-a0001"
  }
}