{
  "pages": [
    [
      [
        "ประกาศมหาวิทยาลัยแม่ฟ้าหลวง",
        "เรื่อง การแบ่งส่วนงาน (ฉบับที่ ๑๑)",
        "พ.ศ. ๒๕๕๘"
      ]
    ],
    []
  ],
  "metadata": {
    "date_backmatter": "2558-11-19",
    "date_modified": "2559-02-02",
    "date_original": "2559-02-02",
    "doctype": "ประกาศ",
    "editors": [
      {
        "name": "ปริยานุช",
        "role": "จัดทำ",
        "date": "2559-02-08"
      },
      {
        "name": "ปุณิกา",
        "role": "ตรวจ",
        "date": "2559-02-08"
      }
    ],
    "tag": "c132-2e-2559-a0001"
  }
}