{
  "pages": [
    [
      [
        "ข้อกำหนดมหาวิทยาลัยแม่ฟ้าหลวง",
        "ว่าด้วยการจัดตั้งส่วนงาน",
        "พ.ศ. ๒๕๔๔"
      ]
    ],
    []
  ],
  "metadata": {
    "date_backmatter": "2544-12-18",
    "date_modified": "2545-03-07",
    "date_original": "2545-03-07",
    "editors": [
      {
        "name": "มณฑิตา",
        "role": "ผู้จัดทำ",
        "date": "2553-12-02"
      },
      {
        "name": "วิภา",
        "role": "ตรวจ",
        "date": "2554-05-25"
      }
    ],
    "tag": "c132-2h-2545-a0001"
  }
}