{
  "pages": [
    [
      [
        "ข้อกำหนดมหาวิทยาลัยแม่ฟ้าหลวง",
        "ว่าด้วยการจัดตั้งส่วนงาน (ฉบับที่ ๒)",
        "พ.ศ. ๒๕๔๖"
      ]
    ],
    []
  ],
  "metadata": {
    "date_backmatter": "2546-02-20",
    "date_modified": "2546-03-27",
    "date_original": "2546-03-27",
    "editors": [
      {
        "name": "ดลธี",
        "role": "พิมพ์",
        "date": "2553-12-07"
      },
      {
        "name": "มณฑิตา",
        "role": "ผู้จัดทำ",
        "date": "2553-12-08"
      },
      {
        "name": "วิภา",
        "role": "ผู้ตรวจ",
        "date": "2554-05-25"
      }
    ],
    "tag": "c132-2h-2546-a0003"
  }
}