{
  "pages": [
    [
      [
        "ประกาศมหาวิทยาลัยแม่ฟ้าหลวง",
        "เรื่อง การแบ่งส่วนงาน",
        "พ.ศ. ๒๕๔๔"
      ]
    ],
    []
  ],
  "metadata": {
    "date_backmatter": "2544-12-18",
    "date_modified": "2557-06-18",
    "date_original": "2545-03-07",
    "doctype": "ประกาศ",
    "editors": [
      {
        "name": "ณัฐพร",
        "role": "จัดทำ",
        "date": "2557-03-04"
      },
      {
        "name": "กฤษดายุทธ",
        "role": "เพิ่มเติม",
        "date": "2557-07-08"
      }
    ],
    "tag": "c132-2e-2557-a0003"
  }
}