{
  "pages": [
    [
      [
        "ข้อกำหนด",
        "เกี่ยวกับการจัดสรรที่ดินเพื่อการอุตสาหกรรมจังหวัดกาฬสินธุ์",
        "พ.ศ. ๒๕๕๒"
      ]
    ],
    []
  ],
  "metadata": {
    "date_backmatter": "2552-03-05",
    "date_modified": "2552-05-13",
    "date_original": "2552-05-13",
    "editors": [
      {
        "name": "ปริยานุช",
        "role": "จัดทำ",
        "date": "2552-05-21"
      },
      {
        "name": "ศิรวัชร์",
        "role": "ปรับปรุง",
        "date": "2559-07-21"
      }
    ],
    "tag": "a1105-2h-2552-a0113"
  }
}