{
  "pages": [
    [
      [
        "ข้อกำหนดเกี่ยวกับการจัดสรรที่ดิน",
        "เพื่อการอุตสาหกรรมจังหวัดนนทบุรี",
        "พ.ศ. ๒๕๕๘"
      ]
    ],
    []
  ],
  "metadata": {
    "date_backmatter": "2558-03-26",
    "date_modified": "2558-05-07",
    "date_original": "2558-05-07",
    "editors": [
      {
        "name": "ปริยานุช",
        "role": "ผู้จัดทำ",
        "date": "2558-05-11"
      },
      {
        "name": "วิศนี",
        "role": "ผู้ตรวจ",
        "date": "2558-05-14"
      }
    ],
    "tag": "a1105-2h-2558-a0001"
  }
}