{
  "pages": [
    [
      [
        "ข้อกำหนด",
        "เกี่ยวกับการจัดสรรที่ดินเพื่อเกษตรกรรมจังหวัดยโสธร",
        "พ.ศ. ๒๕๕๑"
      ]
    ],
    []
  ],
  "metadata": {
    "date_backmatter": "2551-09-01",
    "date_modified": "2551-09-29",
    "date_original": "2551-09-29",
    "editors": [
      {
        "name": "ปริยานุช",
        "role": "จัดทำ",
        "date": "2551-10-02"
      },
      {
        "name": "ศิรวัชร์",
        "role": "ปรับปรุง",
        "date": "2559-07-06"
      }
    ],
    "tag": "a1105-2h-2551-a0029"
  }
}