{
  "pages": [
    [
      [
        "ระเบียบคณะกรรมการจัดสรรที่ดินจังหวัดกำแพงเพชร",
        "ว่าด้วยการระงับการจดทะเบียนสิทธิและนิติกรรมในที่ดินจัดสรร",
        "พ.ศ. ๒๕๕๘"
      ]
    ],
    []
  ],
  "metadata": {
    "date_backmatter": "2558-07-22",
    "date_modified": "2558-09-08",
    "date_original": "2558-09-08",
    "editors": [
      {
        "name": "ปริยานุช",
        "role": "จัดทำ",
        "date": "2558-09-17"
      },
      {
        "name": "ปุณิกา",
        "role": "ตรวจ",
        "date": "2558-10-09"
      },
      {
        "name": "ศิรวัชร์",
        "role": "ปรับปรุง",
        "date": "2559-05-10"
      }
    ],
    "tag": "a1105-2g-2558-a0022"
  }
}