{
  "pages": [
    [
      [
        "ระเบียบคณะกรรมการจัดสรรที่ดินจังหวัดประจวบคีรีขันธ์",
        "ว่าด้วยการกำหนดอัตราค่าปรับกรณีที่ชำระเงินค่าบำรุงรักษา",
        "และการจัดการสาธารณูปโภคล่าช้ากว่าเวลาที่กำหนด",
        "พ.ศ. ๒๕๕๘"
      ]
    ],
    []
  ],
  "metadata": {
    "date_backmatter": "2558-06-08",
    "date_modified": "2558-06-25",
    "date_original": "2558-06-25",
    "editors": [
      {
        "name": "ปริยานุช",
        "role": "ผู้จัดทำ",
        "date": "2558-06-30"
      },
      {
        "name": "ปริญสินีย์",
        "role": "ผู้ตรวจ",
        "date": "2558-06-30"
      }
    ],
    "tag": "a1105-2g-2558-a0007"
  }
}