{
  "pages": [
    [
      [
        "กฎกระทรวง",
        "ว่าด้วยการขอจดทะเบียนจัดตั้ง การบริหาร การควบ",
        "และการยกเลิกนิติบุคคลหมู่บ้านจัดสรร",
        "พ.ศ. ๒๕๔๕"
      ]
    ],
    []
  ],
  "metadata": {
    "date_backmatter": "2545-06-06",
    "date_modified": "2545-06-17",
    "date_original": "2545-06-17",
    "doctype": "กฎกระทรวง",
    "editors": [
      {
        "name": "ชไมพร",
        "role": "แก้ไข",
        "date": "2545-08-01"
      },
      {
        "name": "ศิรวัชร์",
        "role": "ปรับปรุง",
        "date": "2559-04-19"
      }
    ],
    "tag": "a1105-2b-2545-a0001"
  }
}