{
  "pages": [
    [
      [
        "ระเบียบคณะกรรมการจัดสรรที่ดินกลาง",
        "ว่าด้วยการโอนสาธารณูปโภคให้แก่นิติบุคคลหมู่บ้านจัดสรรหรือนิติบุคคลตามกฎหมายอื่น",
        "และการขออนุมัติดำเนินการเพื่อการบำรุงรักษาสาธารณูปโภค หรือดำเนินการจดทะเบียน",
        "โอนทรัพย์สินให้เป็นสาธารณประโยชน์",
        "พ.ศ. ๒๕๕๙"
      ]
    ],
    []
  ],
  "metadata": {
    "date_backmatter": "2559-05-27",
    "date_modified": "2559-06-30",
    "date_original": "2559-06-30",
    "editors": [
      {
        "name": "วิศนี/ปริยานุช",
        "role": "จัดทำ",
        "date": "2559-07-04"
      },
      {
        "name": "นุสรา",
        "role": "ตรวจ",
        "date": "2559-08-15"
      }
    ],
    "tag": "a1105-2g-2559-a0007"
  }
}