{
  "pages": [
    [
      [
        "ข้อกำหนด",
        "เกี่ยวกับการจัดสรรที่ดินเพื่อเกษตรกรรมจังหวัดชลบุรี",
        "พ.ศ. ๒๕๕๐"
      ]
    ],
    []
  ],
  "metadata": {
    "date_backmatter": "2550-05-22",
    "date_modified": "2550-06-18",
    "date_original": "2550-06-18",
    "editors": [
      {
        "name": "โสรศ",
        "role": "จัดทำ",
        "date": "2550-06-29"
      },
      {
        "name": "ศิรวัชร์",
        "role": "ปรับปรุง",
        "date": "2559-06-08"
      }
    ],
    "tag": "a1105-2h-2550-a0019"
  }
}