{
  "pages": [
    [
      [
        "ข้อกำหนดเกี่ยวกับการจัดสรรที่ดินจังหวัดระยอง",
        "(ฉบับที่ ๒)",
        "พ.ศ. ๒๕๔๙"
      ]
    ],
    []
  ],
  "metadata": {
    "date_backmatter": "2549-10-13",
    "date_modified": "2549-11-08",
    "date_original": "2549-11-08",
    "editors": [
      {
        "name": "วัชศักดิ์",
        "role": "จัดทำ",
        "date": "2549-11-16"
      },
      {
        "name": "ศิรวัชร์",
        "role": "ปรับปรุง",
        "date": "2559-05-26"
      }
    ],
    "tag": "a1105-2h-2549-a0004"
  }
}