{
  "pages": [
    [
      [
        "ข้อกำหนด",
        "เกี่ยวกับการจัดสรรที่ดินจังหวัดชุมพร (ฉบับที่ ๒)",
        "พ.ศ. ๒๕๕๐"
      ]
    ],
    []
  ],
  "metadata": {
    "date_backmatter": "2550-07-18",
    "date_modified": "2550-09-25",
    "date_original": "2550-09-25",
    "editors": [
      {
        "name": "วัชศักดิ์",
        "role": "จัดทำ",
        "date": "2550-10-10"
      },
      {
        "name": "ศิรวัชร์",
        "role": "ปรับปรุง",
        "date": "2559-06-20"
      }
    ],
    "tag": "a1105-2h-2550-a0035"
  }
}