{
  "pages": [
    [
      [
        "ข้อกำหนด",
        "เกี่ยวกับการจัดสรรที่ดินจังหวัดหนองบัวลำภู",
        "(ฉบับที่ ๓) พ.ศ. ๒๕๖๑"
      ]
    ],
    []
  ],
  "metadata": {
    "date_backmatter": "2561-02-15",
    "date_modified": "2561-03-15",
    "date_original": "2561-03-15",
    "editors": [
      {
        "name": "ปวันวิทย์",
        "role": "จัดทำ",
        "date": "2561-04-27"
      }
    ],
    "tag": "a1105-2h-2561-a0006"
  }
}