{
  "pages": [
    [
      [
        "ข้อกำหนด",
        "เกี่ยวกับการจัดสรรที่ดินเพื่อการอุตสาหกรรมจังหวัดพิจิตร",
        "พ.ศ. ๒๕๕๑"
      ]
    ],
    []
  ],
  "metadata": {
    "date_backmatter": "2551-09-24",
    "date_modified": "2551-11-24",
    "date_original": "2551-11-24",
    "editors": [
      {
        "name": "วัชศักดิ์",
        "role": "จัดทำ",
        "date": "2551-11-27"
      },
      {
        "name": "ศิรวัชร์",
        "role": "ปรับปรุง",
        "date": "2559-07-11"
      }
    ],
    "tag": "a1105-2h-2551-a0040"
  }
}