{
  "pages": [
    [
      [
        "ข้อกำหนด",
        "เกี่ยวกับการจัดสรรที่ดินจังหวัดนครนายก",
        "พ.ศ. ๒๕๔๔"
      ]
    ],
    []
  ],
  "metadata": {
    "date_backmatter": "2544-12-12",
    "date_modified": "2545-01-10",
    "date_original": "2545-01-10",
    "editors": [
      {
        "name": "ศิรวัชร์",
        "role": "จัดทำ",
        "date": "2559-06-27"
      }
    ],
    "tag": "a1105-2h-2545-a006"
  }
}