{
  "pages": [
    [
      [
        "ข้อกำหนด",
        "เกี่ยวกับการจัดสรรที่ดินเพื่อเกษตรกรรมจังหวัดประจวบคีรีขันธ์",
        "พ.ศ. ๒๕๕๒"
      ]
    ],
    []
  ],
  "metadata": {
    "date_backmatter": "2552-08-19",
    "date_modified": "2552-10-19",
    "date_original": "2552-10-19",
    "editors": [
      {
        "name": "ปริยานุช",
        "role": "จัดทำ",
        "date": "2552-10-29"
      },
      {
        "name": "นันท์นภัสร์",
        "role": "ตรวจ",
        "date": "2552-10-29"
      },
      {
        "name": "ศิรวัชร์",
        "role": "ปรับปรุง",
        "date": "2559-08-01"
      }
    ],
    "tag": "a1105-2h-2552-a0138"
  }
}