{
  "pages": [
    [
      [
        "ประกาศคณะกรรมการจัดสรรที่ดินกลาง",
        "เรื่อง กำหนดนโยบายการจัดสรรที่ดินเพื่อที่อยู่อาศัยและพาณิชยกรรม"
      ]
    ],
    []
  ],
  "metadata": {
    "date_backmatter": "2544-01-25",
    "date_modified": "2560-02-16",
    "date_original": "2544-06-29",
    "doctype": "ประกาศ",
    "editors": [
      {
        "name": "ปรียนันท์",
        "role": "แก้ไข",
        "date": "2545-01-10"
      },
      {
        "name": "ศิรวัชร์",
        "role": "ปรับปรุง",
        "date": "2559-04-20"
      },
      {
        "name": "วริญา",
        "role": "ปรับปรุง",
        "date": "2560-03-08"
      }
    ],
    "tag": "a1105-2e-9999-update"
  }
}