{
  "pages": [
    [
      [
        "ข้อกำหนด",
        "เกี่ยวกับการจัดสรรที่ดินจังหวัดบุรีรัมย์",
        "พ.ศ. ๒๕๔๖"
      ]
    ],
    []
  ],
  "metadata": {
    "date_backmatter": "2546-04-22",
    "date_modified": "2560-10-05",
    "date_original": "2546-05-29",
    "editors": [
      {
        "name": "สุภาพร",
        "role": "พิมพ์",
        "date": "2546-10-06"
      },
      {
        "name": "สุภาพร",
        "role": "แก้ไข",
        "date": "2546-10-29"
      },
      {
        "name": "สราวุฒิ/พัชรินทร์",
        "role": "ตรวจ",
        "date": "2546-10-31"
      },
      {
        "name": "ศิรวัชร์",
        "role": "ปรับปรุง",
        "date": "2559-05-16"
      },
      {
        "name": "พัชรภรณ์",
        "role": "เพิ่มเติม",
        "date": "2560-11-16"
      }
    ],
    "tag": "a1105-2h-2560-a0015"
  }
}