{
  "pages": [
    [
      [
        "ข้อกำหนด",
        "เกี่ยวกับการจัดสรรที่ดินจังหวัดพังงา (ฉบับที่ ๒)",
        "พ.ศ. ๒๕๕๐"
      ]
    ],
    []
  ],
  "metadata": {
    "date_backmatter": "2550-07-10",
    "date_modified": "2550-08-23",
    "date_original": "2550-08-23",
    "editors": [
      {
        "name": "วัชศักดิ์",
        "role": "ผู้จัดทำ",
        "date": "2550-08-30"
      },
      {
        "name": "วริญา",
        "role": "ปรับปรุง",
        "date": "2559-01-26"
      }
    ],
    "tag": "a1105-2h-2550-a0028"
  }
}