{
  "pages": [
    [
      [
        "ข้อกำหนด",
        "เกี่ยวกับการจัดสรรที่ดินเพื่อเกษตรกรรมจังหวัดสิงห์บุรี",
        "พ.ศ. ๒๕๕๒"
      ]
    ],
    []
  ],
  "metadata": {
    "date_backmatter": "2552-06-01",
    "date_modified": "2552-06-23",
    "date_original": "2552-06-23",
    "editors": [
      {
        "name": "ปริยานุช",
        "role": "จัดทำ",
        "date": "2552-07-01"
      },
      {
        "name": "ศิรวัชร์",
        "role": "ปรับปรุง",
        "date": "2559-07-27"
      }
    ],
    "tag": "a1105-2h-2552-a0129"
  }
}