{
  "pages": [
    [
      [
        "ข้อกำหนด",
        "เกี่ยวกับการจัดสรรที่ดินเพื่อการเกษตรกรรมจังหวัดกาญจนบุรี",
        "พ.ศ. ๒๕๕๐"
      ]
    ],
    []
  ],
  "metadata": {
    "date_backmatter": "2550-11-13",
    "date_modified": "2551-02-22",
    "date_original": "2551-02-22",
    "editors": [
      {
        "name": "วัชศักดิ์",
        "role": "จัดทำ",
        "date": "2551-02-26"
      },
      {
        "name": "ศิรวัชร์",
        "role": "ปรับปรุง",
        "date": "2559-06-27"
      }
    ],
    "tag": "a1105-2h-2551-a0005"
  }
}