{
  "pages": [
    [
      [
        "ข้อกำหนด",
        "เกี่ยวกับการจัดสรรที่ดินจังหวัดราชบุรี",
        "พ.ศ. ๒๕๔๖"
      ]
    ],
    []
  ],
  "metadata": {
    "date_backmatter": "2546-06-30",
    "date_modified": "2546-10-13",
    "date_original": "2546-10-13",
    "editors": [
      {
        "name": "พรพิมล",
        "role": "พิมพ์",
        "date": "2547-02-17"
      },
      {
        "name": "ทรงยศ/ศุภสรณ์",
        "role": "ตรวจ",
        "date": "2547-02-23"
      },
      {
        "name": "ศิรวัชร์",
        "role": "ปรับปรุง",
        "date": "2559-05-18"
      }
    ],
    "tag": "a1105-2h-2546-a0012"
  }
}