{
  "pages": [
    [
      [
        "ระเบียบคณะกรรมการจัดสรรที่ดินจังหวัดประจวบคีรีขันธ์",
        "ว่าด้วยการระงับการจดทะเบียนสิทธิและนิติกรรมในที่ดินจัดสรร",
        "พ.ศ. ๒๕๕๘"
      ]
    ],
    []
  ],
  "metadata": {
    "date_backmatter": "2558-06-08",
    "date_modified": "2558-06-25",
    "date_original": "2558-06-25",
    "editors": [
      {
        "name": "ปริยานุช",
        "role": "จัดทำ",
        "date": "2558-06-30"
      },
      {
        "name": "ปริญสินีย์",
        "role": "ตรวจ",
        "date": "2558-06-30"
      },
      {
        "name": "ศิรวัชร์",
        "role": "ปรับปรุง",
        "date": "2559-04-29"
      }
    ],
    "tag": "a1105-2g-2558-a0008"
  }
}