{
  "pages": [
    [
      [
        "ข้อกำหนด",
        "เกี่ยวกับการจัดสรรที่ดินเพื่ออุตสาหกรรมจังหวัดปราจีนบุรี",
        "พ.ศ. ๒๕๕๐"
      ]
    ],
    []
  ],
  "metadata": {
    "date_backmatter": "2550-08-24",
    "date_modified": "2550-09-25",
    "date_original": "2550-09-25",
    "editors": [
      {
        "name": "ปริยานุช",
        "role": "จัดทำ",
        "date": "2550-10-09"
      },
      {
        "name": "ศิรวัชร์",
        "role": "ปรับปรุง",
        "date": "2559-06-22"
      }
    ],
    "tag": "a1105-2h-2550-a0041"
  }
}