{
  "pages": [
    [
      [
        "ข้อกำหนด",
        "เกี่ยวกับการจัดสรรที่ดินจังหวัดนครนายก",
        "(ฉบับที่ ๒) พ.ศ. ๒๕๕๐"
      ]
    ],
    []
  ],
  "metadata": {
    "date_backmatter": "2550-08-29",
    "date_modified": "2551-01-02",
    "date_original": "2551-01-02",
    "editors": [
      {
        "name": "วัชศักดิ์",
        "role": "จัดทำ",
        "date": "2551-01-23"
      },
      {
        "name": "ศิรวัชร์",
        "role": "ปรับปรุง",
        "date": "2559-06-24"
      }
    ],
    "tag": "a1105-2h-2551-a0003"
  }
}