{
  "pages": [
    [
      [
        "ข้อกำหนด",
        "เกี่ยวกับการจัดสรรที่ดินจังหวัดปราจีนบุรี",
        "พ.ศ. ๒๕๔๕"
      ]
    ],
    []
  ],
  "metadata": {
    "date_backmatter": "2545-08-17",
    "date_modified": "2545-10-15",
    "date_original": "2545-10-15",
    "editors": [
      {
        "name": "ศิรวัชร์",
        "role": "จัดทำ",
        "date": "2559-06-22"
      }
    ],
    "tag": "a1105-2h-2545-a013"
  }
}