{
  "pages": [
    [
      [
        "ข้อกำหนด",
        "เกี่ยวกับการจัดสรรที่ดินเพื่อเกษตรกรรมจังหวัดตาก",
        "พ.ศ. ๒๕๕๔"
      ]
    ],
    []
  ],
  "metadata": {
    "date_backmatter": "2554-01-24",
    "date_modified": "2554-03-15",
    "date_original": "2554-03-15",
    "editors": [
      {
        "name": "ปริยานุช",
        "role": "จัดทำ",
        "date": "2554-03-29"
      },
      {
        "name": "ณัฐวดี",
        "role": "ตรวจ",
        "date": "2554-03-29"
      },
      {
        "name": "ศิรวัชร์",
        "role": "ปรับปรุง",
        "date": "2559-08-04"
      }
    ],
    "tag": "a1105-2h-2554-a0001"
  }
}