{
  "pages": [
    [
      [
        "ข้อกำหนด",
        "เกี่ยวกับการจัดสรรที่ดินเพื่อที่อยู่อาศัยและพาณิชยกรรมกรุงเทพมหานคร",
        "พ.ศ. ๒๕๕๐"
      ]
    ],
    []
  ],
  "metadata": {
    "date_backmatter": "2550-02-02",
    "date_modified": "2557-07-23",
    "date_original": "2550-02-23",
    "editors": [
      {
        "name": "จุฑามาศ",
        "role": "ผู้จัดทำ",
        "date": "2557-08-05"
      }
    ],
    "tag": "a1105-2h-2557-a0006"
  }
}