{
  "pages": [
    [
      [
        "พระราชบัญญัติ",
        "การบริหารส่วนงานภายในของสถาบันอุดมศึกษา",
        "พ.ศ. ๒๕๕๐",
        "",
        "",
        "ภูมิพลอดุลยเดช ป.ร.",
        "ให้ไว้ ณ วันที่ ๑๓ กันยายน พ.ศ. ๒๕๕๐",
        "เป็นปีที่ ๖๒ ในรัชกาลปัจจุบัน"
      ]
    ],
    []
  ],
  "metadata": {
    "date_header": "2550-09-13",
    "date_modified": "2550-09-27",
    "date_original": "2550-09-27",
    "doctype": "พระราชบัญญัติ",
    "editors": [
      {
        "name": "ปัทมา",
        "role": "แก้ไข",
        "date": "2553-03-05"
      },
      {
        "name": "วศิน",
        "role": "ตรวจ",
        "date": "2553-03-05"
      },
      {
        "name": "ภัทรวีร์",
        "role": "ปรับปรุง",
        "date": "2560-12-07"
      }
    ],
    "tag": "a1122-20-2550-a0001",
    "title": "การบริหารส่วนงานภายในของสถาบันอุดมศึกษา"
  }
}