{
  "pages": [
    [
      [
        "พระราชบัญญัติว่าด้วยวินัยทหาร",
        "พุทธศักราช ๒๔๗๖",
        "",
        "",
        "ประชาธิปก ป.ร."
      ]
    ],
    []
  ],
  "metadata": {
    "date_backmatter": "2476-08-12",
    "date_modified": "2478-04-07",
    "date_original": "2476-08-20",
    "doctype": "พระราชบัญญัติ",
    "editors": [
      {
        "name": "วศิน",
        "role": "แก้ไข",
        "date": "2556-11-18"
      }
    ],
    "tag": "c721-20-2478-002u",
    "title": "วินัยทหาร"
  }
}