{
  "pages": [
    [
      [
        "พระราชกฤษฎีกา",
        "กำหนดวันเปิดทำการศาลจังหวัดนาทวี",
        "พ.ศ. ๒๕๕๐",
        "",
        "",
        "ภูมิพลอดุลยเดช ป.ร.",
        "ให้ไว้ ณ วันที่ ๒๙ มีนาคม พ.ศ. ๒๕๕๐",
        "เป็นปีที่ ๖๒ ในรัชกาลปัจจุบัน"
      ]
    ],
    []
  ],
  "metadata": {
    "date_header": "2550-03-29",
    "date_modified": "2550-03-30",
    "date_original": "2550-03-30",
    "doctype": "พระราชกฤษฎีกา",
    "editors": [
      {
        "name": "โสรศ",
        "role": "ผู้จัดทำ",
        "date": "2550-04-04"
      }
    ],
    "tag": "c768-2a-2550-a0003",
    "title": "กำหนดวันเปิดทำการศาลจังหวัดนาทวี"
  }
}