{
  "pages": [
    [
      [
        "พระราชบัญญัติ",
        "จัดตั้งศาลจังหวัดที่อำเภอภูเขียว จังหวัดชัยภูมิ (ฉบับที่ ๒)",
        "พ.ศ. ๒๕๐๓",
        "",
        "",
        "ในพระปรมาภิไธย",
        "พระบาทสมเด็จพระปรมินทรมหาภูมิพลอดุลยเดช",
        "สังวาลย์",
        "ผู้สำเร็จราชการแทนพระองค์",
        "ให้ไว้ ณ วันที่ ๑๖ กุมภาพันธ์ พ.ศ. ๒๕๐๓",
        "เป็นปีที่ ๑๕ ในรัชกาลปัจจุบัน"
      ]
    ],
    []
  ],
  "metadata": {
    "date_header": "2503-02-16",
    "date_modified": "2503-02-23",
    "date_original": "2503-02-23",
    "doctype": "พระราชบัญญัติ",
    "editors": [
      {
        "name": "วงศ์ชนก",
        "role": "พิมพ์",
        "date": "2552-06-03"
      },
      {
        "name": "วสุ สรรกำเนิด",
        "role": "ผู้ปรับปรุง",
        "date": "2552-07-24"
      }
    ],
    "tag": "c768-20-2503-a0001",
    "title": "จัดตั้งศาลจังหวัดที่อำเภอภูเขียว จังหวัดชัยภูมิ (ฉบับที่ ๒)"
  }
}