{
  "pages": [
    [
      [
        "พระราชบัญญัติ",
        "จัดตั้งศาลจังหวัดที่อำเภอสีคิ้ว จังหวัดนครราชสีมา",
        "พ.ศ. ๒๕๒๕",
        "",
        "",
        "ภูมิพลอดุลยเดช ป.ร.",
        "ให้ไว้ ณ วันที่ ๑๙ สิงหาคม พ.ศ. ๒๕๒๕",
        "เป็นปีที่ ๓๗ ในรัชกาลปัจจุบัน"
      ]
    ],
    []
  ],
  "metadata": {
    "date_header": "2525-08-19",
    "date_modified": "2525-09-01",
    "date_original": "2525-09-01",
    "doctype": "พระราชบัญญัติ",
    "editors": [
      {
        "name": "ดวงเพ็ญ",
        "role": "พิมพ์",
        "date": "2552-07-10"
      },
      {
        "name": "วสุ สรรกำเนิด",
        "role": "ผู้ปรับปรุง",
        "date": "2552-07-29"
      }
    ],
    "tag": "c768-20-2525-a0002",
    "title": "จัดตั้งศาลจังหวัดที่อำเภอสีคิ้ว จังหวัดนครราชสีมา"
  }
}