{
  "pages": [
    [
      [
        "ข้อบังคับสภาทหารผ่านศึก",
        "ว่าด้วยการเงิน",
        "(ฉบับที่ ๓)",
        "พ.ศ. ๒๕๔๑"
      ]
    ],
    []
  ],
  "metadata": {
    "date_backmatter": "2541-05-23",
    "date_gz_old": "2541-07-02",
    "editors": [
      {
        "name": "พรพิมล",
        "role": "แก้ไข",
        "date": "2545-06-27"
      }
    ],
    "tag": "cd03-2i-2541-a0001"
  }
}