{
  "pages": [
    [
      [
        "ข้อบังคับสภาทหารผ่านศึก",
        "ว่าด้วยการบริหารงานและดำเนินกิจการขององค์การสงเคราะห์ทหารผ่านศึก",
        "(ฉบับที่ 9)",
        "พ.ศ. 2539"
      ]
    ],
    []
  ],
  "metadata": {
    "date_backmatter": "2539-05-23",
    "editors": [],
    "tag": "cd03-2i-2539-009"
  }
}