{
  "pages": [
    [
      [
        "ข้อบังคับสภาทหารผ่านศึก",
        "ว่าด้วยการอนุญาตและการควบคุมบุคคลหรือนิติบุคคลที่ใช้ชื่อหรือถ้อยคำ",
        "เกี่ยวเนื่องกับกิจการขององค์การสงเคราะห์ทหารผ่านศึก",
        "(ฉบับที่ ๒)",
        "พ.ศ. ๒๕๒๑"
      ]
    ],
    []
  ],
  "metadata": {
    "date_backmatter": "2521-10-14",
    "date_modified": "2521-11-17",
    "date_original": "2521-11-17",
    "editors": [
      {
        "name": "ปณตภร",
        "role": "ปรับปรุง",
        "date": "2556-06-19"
      }
    ],
    "tag": "cd03-2i-2521-002"
  }
}