{
  "pages": [
    [
      [
        "ข้อบังคับสภาทหารผ่านศึก",
        "ว่าด้วยการอนุญาตและการควบคุมบุคคลหรือนิติบุคคล",
        "ที่ใช้ชื่อหรือถ้อยคำเกี่ยวเนื่องกับกิจการขององค์การ",
        "สงเคราะห์ทหารผ่านศึก",
        "พ.ศ. ๒๕๑๑"
      ]
    ],
    []
  ],
  "metadata": {
    "date_backmatter": "2511-09-10",
    "date_modified": "2555-07-20",
    "date_original": "2511-09-24",
    "editors": [
      {
        "name": "ปณตภร",
        "role": "ผู้จัดทำ",
        "date": "2556-06-19"
      }
    ],
    "tag": "cd03-2i-2555-a0004"
  }
}