{
  "pages": [
    [
      [
        "ข้อบังคับสภาทหารผ่านศึก",
        "ว่าด้วยการสงเคราะห์ทหารผ่านศึก ครอบครัวทหารผ่านศึก",
        "และทหารนอกประจำการ",
        "(ฉบับที่ ๒๓)",
        "พ.ศ. ๒๕๓๓"
      ]
    ],
    []
  ],
  "metadata": {
    "date_backmatter": "2533-08-04",
    "date_modified": "2533-08-21",
    "date_original": "2533-08-21",
    "editors": [
      {
        "name": "โชติกานต์",
        "role": "ผู้จัดทำ",
        "date": "2556-11-11"
      }
    ],
    "tag": "cd03-2i-2533-023"
  }
}