{
  "pages": [
    [
      [
        "ข้อบังคับสภาทหารผ่านศึก",
        "ว่าด้วยเหรียญและเข็มองค์การสงเคราะห์ทหารผ่านศึก (ฉบับที่ ๔)",
        "พ.ศ. ๒๕๖๐"
      ]
    ],
    []
  ],
  "metadata": {
    "date_backmatter": "2560-11-26",
    "date_modified": "2560-12-20",
    "date_original": "2560-12-20",
    "editors": [
      {
        "name": "พรวิภา/ภวรรณตรี",
        "role": "จัดทำ",
        "date": "2561-01-04"
      }
    ],
    "tag": "cd03-2i-2560-a0005"
  }
}