{
  "pages": [
    [
      [
        "ข้อบังคับสภาทหารผ่านศึก",
        "ว่าด้วยการสงเคราะห์ทหารผ่านศึก ครอบครัวทหารผ่านศึก",
        "และทหารนอกประจำการ",
        "(ฉบับที่ ๒) พ.ศ. ๒๕๒๓"
      ]
    ],
    []
  ],
  "metadata": {
    "date_backmatter": "2523-05-22",
    "date_modified": "2523-06-24",
    "date_original": "2523-06-24",
    "editors": [
      {
        "name": "โชติกานต์",
        "role": "ผู้จัดทำ",
        "date": "2556-11-06"
      }
    ],
    "tag": "cd03-2i-2523-005"
  }
}