{
  "pages": [
    [
      [
        "พระราชบัญญัติ",
        "องค์การสงเคราะห์ทหารผ่านศึก (ฉบับที่ ๒)",
        "พ.ศ. ๒๕๖๐",
        "",
        "",
        "สมเด็จพระเจ้าอยู่หัวมหาวชิราลงกรณ บดินทรเทพยวรางกูร",
        "ให้ไว้ ณ วันที่ ๒ กุมภาพันธ์ พ.ศ. ๒๕๖๐",
        "เป็นปีที่ ๒ ในรัชกาลปัจจุบัน"
      ]
    ],
    []
  ],
  "metadata": {
    "date_header": "2560-02-02",
    "date_modified": "2560-02-03",
    "date_original": "2560-02-03",
    "doctype": "พระราชบัญญัติ",
    "editors": [
      {
        "name": "ปุณิกา/ปริยานุช",
        "role": "จัดทำ",
        "date": "2560-02-06"
      },
      {
        "name": "พจนา",
        "role": "ตรวจ",
        "date": "2560-02-06"
      }
    ],
    "tag": "cd03-20-2560-a0001",
    "title": "องค์การสงเคราะห์ทหารผ่านศึก (ฉบับที่ ๒)"
  }
}