{
  "pages": [
    [
      [
        "ข้อบังคับสภาทหารผ่านศึก",
        "ว่าด้วยการสงเคราะห์ผู้ปฏิบัติงานและครอบครัว",
        "(ฉบับที่ ๔)",
        "พ.ศ. ๒๕๓๐"
      ]
    ],
    []
  ],
  "metadata": {
    "date_backmatter": "2530-12-11",
    "date_modified": "2530-12-25",
    "date_original": "2530-12-25",
    "editors": [
      {
        "name": "ปุณิกา",
        "role": "ผู้จัดทำ",
        "date": "2558-10-30"
      }
    ],
    "tag": "cd03-2i-2530-005"
  }
}