{
  "pages": [
    [
      [
        "ข้อบังคับสภาทหารผ่านศึก",
        "ว่าด้วยการบริหารงานและดำเนินกิจการ",
        "ขององค์การสงเคราะห์ทหารผ่านศึก",
        "พ.ศ. ๒๕๔๔"
      ]
    ],
    []
  ],
  "metadata": {
    "date_backmatter": "2544-09-25",
    "date_modified": "2558-07-21",
    "date_original": "2544-09-26",
    "editors": [
      {
        "name": "กฤษดายุทธ",
        "role": "ผู้จัดทำ",
        "date": "2558-03-23"
      },
      {
        "name": "วริญา",
        "role": "เพิ่มเติม",
        "date": "2558-08-05"
      }
    ],
    "tag": "cd03-2i-2558-a0012"
  }
}