{
  "pages": [
    [
      [
        "ข้อบังคับสภาทหารผ่านศึก",
        "ว่าด้วยพนักงานองค์การสงเคราะห์ทหารผ่านศึก",
        "(ฉบับที่ ๕)",
        "พ.ศ. ๒๕๔๔"
      ]
    ],
    []
  ],
  "metadata": {
    "date_backmatter": "2544-07-16",
    "date_gz_old": "2544-07-25",
    "editors": [
      {
        "name": "ภคินี",
        "role": "แก้ไข",
        "date": "2545-05-10"
      }
    ],
    "tag": "cd03-2i-2544-a002"
  }
}