{
  "pages": [
    [
      [
        "ข้อบังคับสภาทหารผ่านศึก",
        "ว่าด้วยการสงเคราะห์ทหารผ่านศึก ครอบครัวทหารผ่านศึก",
        "และทหารนอกประจำการ (ฉบับที่ ๖๐)",
        "พ.ศ. ๒๕๔๙"
      ]
    ],
    []
  ],
  "metadata": {
    "date_backmatter": "2549-06-30",
    "date_modified": "2549-07-17",
    "date_original": "2549-07-17",
    "editors": [
      {
        "name": "นันทนา",
        "role": "ผู้จัดทำ",
        "date": "2549-07-27"
      },
      {
        "name": "โชติกานต์",
        "role": "ปรับปรุง",
        "date": "2557-04-24"
      }
    ],
    "tag": "cd03-2i-2549-a0004"
  }
}