{
  "pages": [
    [
      [
        "ข้อบังคับสภาทหารผ่านศึก",
        "ว่าด้วยการสงเคราะห์ทหารผ่านศึก ครอบครัวทหารผ่านศึก",
        "และทหารนอกประจำการ",
        "(ฉบับที่ ๑๘)",
        "พ.ศ. ๒๕๓๑"
      ]
    ],
    []
  ],
  "metadata": {
    "date_backmatter": "2531-07-14",
    "date_modified": "2531-08-01",
    "date_original": "2531-08-01",
    "editors": [
      {
        "name": "โชติกานต์",
        "role": "ผู้จัดทำ",
        "date": "2556-11-11"
      }
    ],
    "tag": "cd03-2i-2531-018"
  }
}