{
  "pages": [
    [
      [
        "ข้อบังคับสภาทหารผ่านศึก",
        "ว่าด้วยบำเหน็จของพนักงานองค์การสงเคราะห์ทหารผ่านศึก (ฉบับที่ 2) พ.ศ.2535"
      ]
    ],
    []
  ],
  "metadata": {
    "date_backmatter": "2535-08-12",
    "editors": [],
    "tag": "cd03-2i-2535-002"
  }
}