{
  "pages": [
    [
      [
        "ข้อบังคับสภาทหารผ่านศึก",
        "ว่าด้วยการสงเคราะห์ทหารผ่านศึก ครอบครัวทหารผ่านศึก",
        "และทหารนอกประจำการ (ฉบับที่ ๘๐)",
        "พ.ศ. ๒๕๕๙"
      ]
    ],
    []
  ],
  "metadata": {
    "date_backmatter": "2559-07-27",
    "date_modified": "2559-08-22",
    "date_original": "2559-08-22",
    "editors": [
      {
        "name": "วริญา/ปริยานุช",
        "role": "จัดทำ",
        "date": "2559-08-23"
      },
      {
        "name": "นุสรา",
        "role": "ตรวจ",
        "date": "2559-11-10"
      }
    ],
    "tag": "cd03-2i-2559-a0001"
  }
}