{
  "pages": [
    [
      [
        "ข้อบังคับสภาทหารผ่านศึก",
        "ว่าด้วยการเงิน",
        "พ.ศ.2515"
      ]
    ],
    []
  ],
  "metadata": {
    "date_backmatter": "2515-08-08",
    "editors": [],
    "tag": "cd03-2i-2515-001"
  }
}