{
  "pages": [
    [
      [
        "ข้อบังคับสภาทหารผ่านศึก",
        "ว่าด้วยการสงเคราะห์ทหารผ่านศึก ครอบครัวทหารผ่านศึก",
        "และทหารนอกประจำการ",
        "พ.ศ. ๒๕๒๒"
      ]
    ],
    []
  ],
  "metadata": {
    "date_backmatter": "2522-03-10",
    "date_modified": "2550-08-15",
    "date_original": "2522-05-29",
    "editors": [
      {
        "name": "ปณตภร",
        "role": "ผู้จัดทำ",
        "date": "2557-05-29"
      }
    ],
    "tag": "cd03-2i-2550-a0005"
  }
}