{
  "pages": [
    [
      [
        "กฎกระทรวง",
        "กำหนดค่าธรรมเนียมจดทะเบียนสิทธิและนิติกรรมเครื่องจักร",
        "กับสถาบันการเงินตามแผนพัฒนาระบบสถาบันการเงิน ระยะที่ ๒",
        "พ.ศ. ๒๕๕๖"
      ]
    ],
    []
  ],
  "metadata": {
    "date_backmatter": "2556-10-08",
    "date_modified": "2556-10-18",
    "date_original": "2556-10-18",
    "doctype": "กฎกระทรวง",
    "editors": [
      {
        "name": "ปริยานุช",
        "role": "ผู้จัดทำ",
        "date": "2556-10-21"
      },
      {
        "name": "ปณตภร",
        "role": "ผู้ตรวจ",
        "date": "2556-10-22"
      }
    ],
    "tag": "a802-2b-2556-a0001"
  }
}