{
  "pages": [
    [
      [
        "พระราชกฤษฎีกา",
        "ให้ใช้พระราชบัญญัติภาษีโรงเรือนและที่ดิน",
        "พุทธศักราช ๒๔๗๕ ในเขตเทศบาลเมืองลพบุรี จังหวัดลพบุรี ที่เปลี่ยนแปลงใหม่ พุทธศักราช ๒๔๘๗",
        "",
        "",
        "ในพระปรมาภิไธยสมเด็จพระเจ้าอยู่หัวอานันทมหิดล",
        "ผู้สำเร็จราชการแทนพระองค์",
        "(ตามประกาศประธานสภาผู้แทนราษฎร",
        "ลงวันที่ ๑ สิงหาคม พุทธศักราช ๒๔๘๗)",
        "ปรีดี พนมยงค์",
        "ตราไว้ ณ วันที่ ๕ ธันวาคม พุทธศักราช ๒๔๘๗",
        "เป็นปีที่ ๑๑ ในรัชกาลปัจจุบัน"
      ]
    ],
    []
  ],
  "metadata": {
    "date_header": "2487-08-01",
    "date_modified": "2487-12-19",
    "date_original": "2487-12-19",
    "doctype": "พระราชกฤษฎีกา",
    "editors": [
      {
        "name": "สุนันทา",
        "role": "ตรวจ",
        "date": "2552-01-19"
      },
      {
        "name": "นฤดล",
        "role": "ตรวจ",
        "date": "2553-03-29"
      }
    ],
    "tag": "c005-2a-2487-004",
    "title": "ให้ใช้พระราชบัญญัติภาษีโรงเรือนและที่ดินพุทธศักราช ๒๔๗๕ ในเขตเทศบาลเมืองลพบุรี จังหวัดลพบุรี ที่เปลี่ยนแปลงใหม่"
  }
}