{
  "pages": [
    [
      [
        "พระราชบัญญัติ",
        "ภาษีโรงเรือนและที่ดิน",
        "พุทธศักราช ๒๔๗๕"
      ]
    ],
    []
  ],
  "metadata": {
    "date_backmatter": "2475-04-19",
    "date_modified": "2475-04-20",
    "date_original": "2475-04-20",
    "editors": [
      {
        "name": "สัญชัย",
        "role": "ผู้จัดทำ",
        "date": "2552-01-06"
      },
      {
        "name": "สุกัญญา",
        "role": "ผู้จัดทำ",
        "date": "2554-03-17"
      }
    ],
    "tag": "c005-20-2475-001"
  }
}