{
  "pages": [
    [
      [
        "ประกาศของคณะปฏิวัติ",
        "ฉบับที่ ๒๐๙"
      ]
    ],
    []
  ],
  "metadata": {
    "date_backmatter": "2515-09-16",
    "date_modified": "2515-09-19",
    "date_original": "2515-09-19",
    "doctype": "ประกาศ",
    "editors": [
      {
        "name": "สรัลพร",
        "role": "พิมพ์",
        "date": "2551-04-11"
      },
      {
        "name": "ฐิติพงษ์",
        "role": "ตรวจ",
        "date": "2551-04-17"
      }
    ],
    "tag": "c005-2l-2515-a0001"
  }
}