{
  "pages": [
    [
      [
        "ระเบียบกระทรวงวัฒนธรรม",
        "ว่าด้วยหลักเกณฑ์และวิธีการจ่ายเบี้ยประชุมและประโยชน์ตอบแทนอื่นของกรรมการ",
        "และอนุกรรมการตามพระราชบัญญัติส่งเสริมศิลปะร่วมสมัย พ.ศ. ๒๕๕๑ พ.ศ. ๒๕๕๔ ฉบับที่ ๒",
        "พ.ศ. ๒๕๕๙"
      ]
    ],
    []
  ],
  "metadata": {
    "date_backmatter": "2559-08-30",
    "date_modified": "2559-10-05",
    "date_original": "2559-10-05",
    "editors": [
      {
        "name": "ปุณิกา/ปริยานุช",
        "role": "จัดทำ",
        "date": "2559-10-11"
      }
    ],
    "tag": "ca81-2g-2559-a0001"
  }
}