{
  "pages": [
    [
      [
        "ระเบียบกระทรวงวัฒนธรรม",
        "ว่าด้วยหลักเกณฑ์และวิธีการจ่ายเบี้ยประชุมและประโยชน์ตอบแทนอื่นของกรรมการ",
        "และอนุกรรมการตามพระราชบัญญัติส่งเสริมศิลปะร่วมสมัย พ.ศ. ๒๕๕๑",
        "พ.ศ. ๒๕๕๔"
      ]
    ],
    []
  ],
  "metadata": {
    "date_backmatter": "2554-02-09",
    "date_modified": "2554-04-07",
    "date_original": "2554-04-07",
    "editors": [
      {
        "name": "ปริยานุช",
        "role": "ผู้จัดทำ",
        "date": "2554-04-25"
      },
      {
        "name": "ณัฐวดี",
        "role": "ตรวจ",
        "date": "2554-04-25"
      }
    ],
    "tag": "ca81-2g-2554-a0001"
  }
}