{
  "pages": [
    [
      [
        "ประกาศคณะกรรมการส่งเสริมกิจการฮัจย์แห่งประเทศไทย",
        "เรื่อง กำหนดทุนจดทะเบียนหรือทุนของหุ้นส่วนทุกคนรวมกัน สำหรับนิติบุคคลที่ขอรับใบอนุญาต",
        "เป็นผู้ประกอบกิจการการรับจัดบริการขนส่งในกิจการฮัจย์ตามมาตรา ๕ (๑) และการจัดบริการอื่น",
        "ที่เกี่ยวกับกิจการฮัจย์ตามมาตรา ๕ (๒) แห่งพระราชบัญญัติส่งเสริมกิจการฮัจย์ พ.ศ. ๒๕๒๔"
      ]
    ],
    []
  ],
  "metadata": {
    "date_backmatter": "2553-01-27",
    "date_modified": "2553-02-05",
    "date_original": "2553-02-05",
    "doctype": "ประกาศ",
    "editors": [
      {
        "name": "คุณากร",
        "role": "ผู้จัดทำ",
        "date": "2554-04-26"
      },
      {
        "name": "ปริญสินีย์",
        "role": "ผู้ตรวจ",
        "date": "2544-05-24"
      }
    ],
    "tag": "ca39-2e-2553-a0002"
  }
}