{
  "pages": [
    [
      [
        "พระราชบัญญัติ",
        "ส่งเสริมกิจการฮัจย์ (ฉบับที่ ๒)",
        "พ.ศ. ๒๕๓๒",
        "",
        "",
        "ภูมิพลอดุลยเดช ป.ร.",
        "ให้ไว้ ณ วันที่ ๑๓ สิงหาคม พ.ศ. ๒๕๓๒",
        "เป็นปีที่ ๔๔ ในรัชกาลปัจจุบัน"
      ]
    ],
    []
  ],
  "metadata": {
    "date_header": "2532-08-13",
    "date_modified": "2532-08-18",
    "date_original": "2532-08-18",
    "doctype": "พระราชบัญญัติ",
    "editors": [
      {
        "name": "วชิระ",
        "role": "ปรับปรุง",
        "date": "2552-05-26"
      },
      {
        "name": "ภีรภัทร",
        "role": "ปรับปรุง",
        "date": "2553-12-20"
      }
    ],
    "tag": "ca39-20-2532-002",
    "title": "ส่งเสริมกิจการฮัจย์ (ฉบับที่ ๒)"
  }
}