{
  "pages": [
    [
      [
        "พระราชกฤษฎีกา",
        "กำหนดเขตที่ดินในบริเวณที่ที่จะเวนคืน",
        "ในท้องที่ตำบลละหาร อำเภอปลวกแดง จังหวัดระยอง",
        "พ.ศ. ๒๕๔๖",
        "",
        "",
        "ภูมิพลอดุลยเดช ป.ร.",
        "ให้ไว้ ณ วันที่ ๑๓ มิถุนายน พ.ศ. ๒๕๔๖",
        "เป็นปีที่ ๕๘ ในรัชกาลปัจจุบัน"
      ]
    ],
    []
  ],
  "metadata": {
    "date_header": "2546-06-13",
    "date_modified": "2546-06-19",
    "date_original": "2546-06-19",
    "doctype": "พระราชกฤษฎีกา",
    "editors": [
      {
        "name": "สุภาพร",
        "role": "พิมพ์",
        "date": "2546-08-21"
      },
      {
        "name": "สุภาพร",
        "role": "แก้ไข",
        "date": "2546-08-27"
      },
      {
        "name": "วิมล",
        "role": "ปรับปรุง",
        "date": "2557-09-08"
      }
    ],
    "tag": "a114-2a-2546-a0009",
    "title": "กำหนดเขตที่ดินในบริเวณที่ที่จะเวนคืนในท้องที่ตำบลละหาร อำเภอปลวกแดง จังหวัดระยอง"
  }
}