{
  "pages": [
    [
      [
        "กฎกระทรวง",
        "กำหนดให้ทางน้ำชลประทานคลองรังสิตประยูรศักดิ์",
        "เป็นทางน้ำชลประทานที่จะเรียกเก็บค่าชลประทาน",
        "พ.ศ. ๒๕๖๐"
      ]
    ],
    []
  ],
  "metadata": {
    "date_backmatter": "2560-07-25",
    "date_modified": "2560-09-14",
    "date_original": "2560-09-14",
    "doctype": "กฎกระทรวง",
    "editors": [
      {
        "name": "ปวันวิทย์/ภวรรณตรี",
        "role": "จัดทำ",
        "date": "2560-09-14"
      }
    ],
    "tag": "a114-2b-2560-a0005"
  }
}