{
  "pages": [
    [
      [
        "พระราชกฤษฎีกา",
        "กำหนดเขตที่ดินในบริเวณที่ที่จะเวนคืน",
        "ในท้องที่ตำบลวังหลวง อำเภอเสลภูมิ จังหวัดร้อยเอ็ด",
        "พ.ศ. ๒๕๔๙",
        "",
        "",
        "ภูมิพลอดุลยเดช ป.ร.",
        "ให้ไว้ ณ วันที่ ๑๐ พฤษภาคม พ.ศ. ๒๕๔๙",
        "เป็นปีที่ ๖๑ ในรัชกาลปัจจุบัน"
      ]
    ],
    []
  ],
  "metadata": {
    "date_header": "2549-05-10",
    "date_modified": "2549-05-25",
    "date_original": "2549-05-25",
    "doctype": "พระราชกฤษฎีกา",
    "editors": [
      {
        "name": "พัชรินทร์",
        "role": "ผู้จัดทำ",
        "date": "2549-05-31"
      },
      {
        "name": "วิมล",
        "role": "ปรับปรุง",
        "date": "2557-09-09"
      }
    ],
    "tag": "a114-2a-2549-a0003",
    "title": "กำหนดเขตที่ดินในบริเวณที่ที่จะเวนคืนในท้องที่ตำบลวังหลวง อำเภอเสลภูมิ จังหวัดร้อยเอ็ด"
  }
}