{
  "pages": [
    [
      [
        "กฎกระทรวง",
        "ฉบับที่ ๔๓ (พ.ศ.๒๕๔๐)",
        "ออกตามความในพระราชบัญญัติการชลประทานหลวง",
        "พุทธศักราช ๒๔๘๕"
      ]
    ],
    []
  ],
  "metadata": {
    "date_backmatter": "2540-10-07",
    "date_modified": "2540-11-07",
    "date_original": "2540-11-07",
    "doctype": "กฎกระทรวง",
    "editors": [],
    "tag": "a114-2b-2540-043"
  }
}