{
  "pages": [
    [
      [
        "ประกาศกระทรวงเกษตรและสหกรณ์",
        "เรื่อง กำหนดทางน้ำชลประทานตามพระราชบัญญัติการชลประทานหลวง",
        "พุทธศักราช ๒๔๘๕"
      ]
    ],
    []
  ],
  "metadata": {
    "date_backmatter": "2547-01-14",
    "date_modified": "2547-05-17",
    "date_original": null,
    "doctype": "ประกาศ",
    "editors": [
      {
        "name": "มยุรี",
        "role": "พิมพ์",
        "date": "2547-08-31"
      },
      {
        "name": "ธัญกมล/ศุภสรณ์",
        "role": "ตรวจ",
        "date": "2547-09-10"
      },
      {
        "name": "วิมล",
        "role": "ปรับปรุง",
        "date": "2557-10-29"
      }
    ],
    "tag": "a114-2e-2547-a0004"
  }
}