{
  "pages": [
    [
      [
        "กฎกระทรวง",
        "กำหนดให้ทางน้ำชลประทานในเขตโครงการส่งน้ำและบำรุงรักษาแม่แฝก - แม่งัด",
        "เป็นทางน้ำชลประทานที่จะเรียกเก็บค่าชลประทาน",
        "พ.ศ. ๒๕๕๐"
      ]
    ],
    []
  ],
  "metadata": {
    "date_backmatter": "2550-11-22",
    "date_modified": "2550-12-14",
    "date_original": "2550-12-14",
    "doctype": "กฎกระทรวง",
    "editors": [
      {
        "name": "ปริยานุช",
        "role": "ผู้จัดทำ",
        "date": "2551-01-10"
      },
      {
        "name": "วิมล",
        "role": "ปรับปรุง",
        "date": "2557-10-10"
      }
    ],
    "tag": "a114-2b-2550-a0014"
  }
}