{
  "pages": [
    [
      [
        "พระราชกฤษฎีกา",
        "กำหนดเขตที่ดินในบริเวณที่ที่จะเวนคืน",
        "ในท้องที่ตำบลท่าข้าม ตำบลเขาดิน ตำบลบางผึ้ง อำเภอบางปะกง จังหวัดฉะเชิงเทรา",
        "และตำบลบางหัก อำเภอพานทอง จังหวัดชลบุรี",
        "พ.ศ. ๒๕๕๐",
        "",
        "",
        "ภูมิพลอดุลยเดช ป.ร.",
        "ให้ไว้ ณ วันที่ ๒๐ มิถุนายน พ.ศ. ๒๕๕๐",
        "เป็นปีที่ ๖๒ ในรัชกาลปัจจุบัน"
      ]
    ],
    []
  ],
  "metadata": {
    "date_header": "2550-06-20",
    "date_modified": "2550-07-06",
    "date_original": "2550-07-06",
    "doctype": "พระราชกฤษฎีกา",
    "editors": [
      {
        "name": "วัชศักดิ์",
        "role": "ผู้จัดทำ",
        "date": "2550-07-17"
      },
      {
        "name": "วิมล",
        "role": "ปรับบปรุง",
        "date": "2557-09-09"
      }
    ],
    "tag": "a114-2a-2550-a0005",
    "title": "กำหนดเขตที่ดินในบริเวณที่ที่จะเวนคืนในท้องที่ตำบลท่าข้าม ตำบลเขาดิน ตำบลบางผึ้ง อำเภอบางปะกง จังหวัดฉะเชิงเทราและตำบลบางหัก อำเภอพานทอง จังหวัดชลบุรี"
  }
}