{
  "pages": [
    [
      [
        "พระราชกฤษฎีกา",
        "กำหนดเขตที่ดินในบริเวณที่ที่จะเวนคืน",
        "ในท้องที่ตำบลนาขาม อำเภอเรณูนคร จังหวัดนครพนม",
        "พ.ศ. ๒๕๕๐",
        "",
        "",
        "ภูมิพลอดุลยเดช ป.ร.",
        "ให้ไว้ ณ วันที่ ๑๘ สิงหาคม พ.ศ. ๒๕๕๐",
        "เป็นปีที่ ๖๒ ในรัชกาลปัจจุบัน"
      ]
    ],
    []
  ],
  "metadata": {
    "date_header": "2550-08-18",
    "date_modified": "2550-08-24",
    "date_original": "2550-08-24",
    "doctype": "พระราชกฤษฎีกา",
    "editors": [
      {
        "name": "วัชศักดิ์",
        "role": "ผู้จัดทำ",
        "date": "2550-08-30"
      },
      {
        "name": "วิมล",
        "role": "ปรับปรุง",
        "date": "2557-09-09"
      }
    ],
    "tag": "a114-2a-2550-a0007",
    "title": "กำหนดเขตที่ดินในบริเวณที่ที่จะเวนคืนในท้องที่ตำบลนาขาม อำเภอเรณูนคร จังหวัดนครพนม"
  }
}