{
  "pages": [
    [
      [
        "กฎกระทรวง",
        "กำหนดให้ทางน้ำชลประทานอ่างเก็บน้ำประแสร์",
        "เป็นทางน้ำชลประทานที่จะเรียกเก็บค่าชลประทาน",
        "พ.ศ. ๒๕๕๓"
      ]
    ],
    []
  ],
  "metadata": {
    "date_backmatter": "2553-11-15",
    "date_modified": "2553-11-25",
    "date_original": "2553-11-25",
    "doctype": "กฎกระทรวง",
    "editors": [
      {
        "name": "ปริยานุช",
        "role": "ผู้จัดทำ",
        "date": "2553-11-30"
      },
      {
        "name": "ณัฐวดี",
        "role": "ตรวจ",
        "date": "2553-11-30"
      }
    ],
    "tag": "a114-2b-2553-a0008"
  }
}