{
  "pages": [
    [
      [
        "กฎกระทรวง",
        "กำหนดให้ทางน้ำชลประทานอ่างเก็บน้ำห้วยทรายสว่าง",
        "เป็นทางน้ำชลประทานที่จะเรียกเก็บค่าชลประทาน",
        "พ.ศ. ๒๕๖๐"
      ]
    ],
    []
  ],
  "metadata": {
    "date_backmatter": "2560-09-15",
    "date_modified": "2560-10-16",
    "date_original": "2560-10-16",
    "doctype": "กฎกระทรวง",
    "editors": [
      {
        "name": "ปวันวิทย์/อัญชลี",
        "role": "จัดทำ",
        "date": "2560-10-18"
      },
      {
        "name": "นุสรา",
        "role": "ตรวจ",
        "date": "2560-09-01"
      }
    ],
    "tag": "a114-2b-2560-a0011"
  }
}