{
  "pages": [
    [
      [
        "พระราชกฤษฎีกา",
        "กำหนดเขตที่ดินในบริเวณที่ที่จะเวนคืน",
        "ในท้องที่ตำบลลำแก่น อำเภอท้ายเหมือง จังหวัดพังงา",
        "พ.ศ. ๒๕๕๐",
        "",
        "",
        "ภูมิพลอดุลยเดช ป.ร.",
        "ให้ไว้ ณ วันที่ ๙ ตุลาคม พ.ศ. ๒๕๕๐",
        "เป็นปีที่ ๖๒ ในรัชกาลปัจจุบัน"
      ]
    ],
    []
  ],
  "metadata": {
    "date_header": "2550-10-09",
    "date_modified": "2550-11-01",
    "date_original": "2550-11-01",
    "doctype": "พระราชกฤษฎีกา",
    "editors": [
      {
        "name": "วัชศักดิ์",
        "role": "ผู้จัดทำ",
        "date": "2550-11-22"
      },
      {
        "name": "วิมล",
        "role": "ปรับปรุง",
        "date": "2557-09-09"
      }
    ],
    "tag": "a114-2a-2550-a0009",
    "title": "กำหนดเขตที่ดินในบริเวณที่ที่จะเวนคืนในท้องที่ตำบลลำแก่น อำเภอท้ายเหมือง จังหวัดพังงา"
  }
}