{
  "pages": [
    [
      [
        "ประกาศกระทรวงเกษตรและสหกรณ์",
        "เรื่อง กำหนดทางน้ำชลประทานตามพระราชบัญญัติการชลประทานหลวง พุทธศักราช ๒๔๘๕",
        "(ฉบับที่ ๓/๒๕๕๐)"
      ]
    ],
    []
  ],
  "metadata": {
    "date_backmatter": "2550-09-13",
    "date_modified": "2551-01-08",
    "date_original": "2551-01-08",
    "doctype": "ประกาศ",
    "editors": [
      {
        "name": "ปริยานุช",
        "role": "ผู้จัดทำ",
        "date": "2551-01-22"
      },
      {
        "name": "วิมล",
        "role": "ปรับปรุง",
        "date": "2557-11-04"
      }
    ],
    "tag": "a114-2e-2551-a0003"
  }
}