{
  "pages": [
    [
      [
        "ประกาศกระทรวงเกษตรและสหกรณ์",
        "เรื่อง กำหนดทางน้ำชลประทานตามพระราชบัญญัติการชลประทานหลวง พุทธศักราช ๒๔๘๕",
        "(ฉบับที่ ๑๕/๒๕๕๙)"
      ]
    ],
    []
  ],
  "metadata": {
    "date_backmatter": "2559-08-29",
    "date_modified": "2559-11-18",
    "date_original": "2559-11-18",
    "doctype": "ประกาศ",
    "editors": [
      {
        "name": "ปริยานุช",
        "role": "จัดทำ",
        "date": "2559-11-22"
      },
      {
        "name": "วิศนี",
        "role": "ตรวจ",
        "date": "2559-11-22"
      }
    ],
    "tag": "a114-2e-2559-a0024"
  }
}