{
  "pages": [
    [
      [
        "ประกาศกระทรวงเกษตรและสหกรณ์",
        "เรื่อง กำหนดทางน้ำชลประทานตามพระราชบัญญัติการชลประทานหลวง พุทธศักราช ๒๔๘๕",
        "(ฉบับที่ ๑/๒๕๕๕)"
      ]
    ],
    []
  ],
  "metadata": {
    "date_backmatter": "2555-01-19",
    "date_modified": "2555-04-05",
    "date_original": "2555-04-05",
    "doctype": "ประกาศ",
    "editors": [
      {
        "name": "ปริยานุช",
        "role": "ผู้จัดทำ",
        "date": "2555-04-11"
      },
      {
        "name": "ปณตภร",
        "role": "ผู้ตรวจ",
        "date": "2555-04-19"
      }
    ],
    "tag": "a114-2e-2555-a0004"
  }
}