{
  "pages": [
    [
      [
        "กฎกระทรวง",
        "กำหนดให้ทางน้ำชลประทานอ่างเก็บน้ำบางทรายนวล",
        "เป็นทางน้ำชลประทานที่จะเรียกเก็บค่าชลประทาน",
        "พ.ศ. ๒๕๔๕"
      ]
    ],
    []
  ],
  "metadata": {
    "date_backmatter": "2545-07-16",
    "date_modified": "2545-07-23",
    "date_original": "2545-07-23",
    "doctype": "กฎกระทรวง",
    "editors": [
      {
        "name": "วิมล",
        "role": "ผู้จัดทำ",
        "date": "2557-10-07"
      }
    ],
    "tag": "a114-2b-2545-a005"
  }
}