{
  "pages": [
    [
      [
        "พระราชกฤษฎีกา",
        "กำหนดเขตที่ดินในบริเวณที่ที่จะเวนคืน",
        "ในท้องที่ตำบลวังจิก อำเภอโพธิ์ประทับช้าง จังหวัดพิจิตร",
        "พ.ศ. ๒๕๖๑",
        "",
        "",
        "สมเด็จพระเจ้าอยู่หัวมหาวชิราลงกรณ บดินทรเทพยวรางกูร",
        "ให้ไว้ ณ วันที่ ๒๕ กรกฎาคม พ.ศ. ๒๕๖๑",
        "เป็นปีที่ ๓ ในรัชกาลปัจจุบัน"
      ]
    ],
    []
  ],
  "metadata": {
    "date_header": "2561-07-25",
    "date_modified": "2561-07-27",
    "date_original": "2561-07-27",
    "doctype": "พระราชกฤษฎีกา",
    "editors": [
      {
        "name": "วิวรรธน์",
        "role": "จัดทำ",
        "date": "2561-08-01"
      },
      {
        "name": "นุสรา",
        "role": "ตรวจ",
        "date": "2561-10-19"
      }
    ],
    "tag": "a114-2a-2561-a0004",
    "title": "กำหนดเขตที่ดินในบริเวณที่ที่จะเวนคืนในท้องที่ตำบลวังจิก อำเภอโพธิ์ประทับช้าง จังหวัดพิจิตร"
  }
}