{
  "pages": [
    [
      [
        "ประกาศสำนักนายกรัฐมนตรี",
        "เรื่อง กำหนดให้การเวนคืนอสังหาริมทรัพย์ในท้องที่ตำบลหินตั้ง",
        "ตำบลศรีนาวา ตำบลบ้านใหญ่ อำเภอเมืองนครนายก",
        "และตำบลเกาะหวาย ตำบลเกาะโพธิ์ อำเภอปากพลี",
        "จังหวัดนครนายก เป็นกรณีที่มีความจำเป็นโดยเร่งด่วน"
      ]
    ],
    []
  ],
  "metadata": {
    "date_backmatter": "2547-09-10",
    "date_modified": "2547-09-22",
    "date_original": "2547-09-22",
    "doctype": "ประกาศ",
    "editors": [
      {
        "name": "สุภาพร",
        "role": "พิมพ์",
        "date": "2548-02-03"
      },
      {
        "name": "ธัญกมล/ศุภสรณ์",
        "role": "ตรวจ",
        "date": "2548-02-16"
      },
      {
        "name": "วิมล",
        "role": "ปรับปรุง",
        "date": "2557-10-29"
      }
    ],
    "tag": "a114-2e-2547-a0007"
  }
}