{
  "pages": [
    [
      [
        "กฎกระทรวง",
        "กำหนดให้ทางน้ำชลประทานแม่น้ำนครนายก",
        "เป็นทางน้ำชลประทานที่จะเรียกเก็บค่าชลประทาน",
        "พ.ศ. ๒๕๕๙"
      ]
    ],
    []
  ],
  "metadata": {
    "date_backmatter": "2559-07-29",
    "date_modified": "2559-09-07",
    "date_original": "2559-09-07",
    "doctype": "กฎกระทรวง",
    "editors": [
      {
        "name": "วิศนี/ปริยานุช",
        "role": "จัดทำ",
        "date": "2559-09-09"
      }
    ],
    "tag": "a114-2b-2559-a0009"
  }
}