{
  "pages": [
    [
      [
        "ประกาศสำนักนายกรัฐมนตรี",
        "เรื่อง กำหนดให้การเวนคืนอสังหาริมทรัพย์ในท้องที่ตำบลคันโช้ง ตำบลบ้านยาง ตำบลท่างาม",
        "ตำบลวัดโบสถ์ ตำบลท้อแท้ อำเภอวัดโบสถ์ ตำบลทับยายเชียง ตำบลหอกลอง",
        "อำเภอพรหมพิราม ตำบลบ้านกลาง ตำบลวังทอง ตำบลวังพิกุล ตำบลแม่ระกา อำเภอวังทอง",
        "และตำบลบ้านป่า ตำบลมะขามสูง ตำบลปากโทก ตำบลหัวรอ ตำบลดอนทอง ตำบลสมอแข",
        "ตำบลอรัญญิก ตำบลในเมือง ตำบลบึงพระ อำเภอเมืองพิษณุโลก จังหวัดพิษณุโลก",
        "เป็นกรณีที่มีความจำเป็นโดยเร่งด่วน"
      ]
    ],
    []
  ],
  "metadata": {
    "date_backmatter": "2548-02-08",
    "date_modified": "2548-02-21",
    "date_original": "2548-02-21",
    "doctype": "ประกาศ",
    "editors": [
      {
        "name": "ศุภสรณ์",
        "role": "ผู้จัดทำ",
        "date": "2548-06-15"
      },
      {
        "name": "วิมล",
        "role": "ปรับปรุง",
        "date": "2557-10-31"
      }
    ],
    "tag": "a114-2e-2548-a0004"
  }
}