{
  "pages": [
    [
      [
        "พระราชกฤษฎีกา",
        "กำหนดเขตที่ดินในบริเวณที่ที่จะเวนคืน",
        "ในท้องที่ตำบลโพธิไพศาล อำเภอกุสุมาลย์ จังหวัดสกลนคร",
        "ตำบลโพนจาน อำเภอโพนสวรรค์ และตำบลวังตามัว อำเภอเมืองนครพนม จังหวัดนครพนม",
        "พ.ศ. ๒๕๔๖",
        "",
        "",
        "",
        "ภูมิพลอดุลยเดช ป.ร.",
        "ให้ไว้ ณ วันที่ ๑๑ มีนาคม พ.ศ. ๒๕๔๖",
        "เป็นปีที่ ๕๘ ในรัชกาลปัจจุบัน"
      ]
    ],
    []
  ],
  "metadata": {
    "date_header": "2546-03-11",
    "date_modified": "2546-03-14",
    "date_original": "2546-03-14",
    "doctype": "พระราชกฤษฎีกา",
    "editors": [
      {
        "name": "สุภาพร",
        "role": "พิมพ์",
        "date": "2546-05-23"
      },
      {
        "name": "ทรงยศ",
        "role": "สราวุฒิ จัดทำ",
        "date": "2546-05-23"
      },
      {
        "name": "วิมล",
        "role": "ปรับปรุง",
        "date": "2557-09-05"
      }
    ],
    "tag": "a114-2a-2546-a0001",
    "title": "กำหนดเขตที่ดินในบริเวณที่ที่จะเวนคืนในท้องที่ตำบลโพธิไพศาล อำเภอกุสุมาลย์ จังหวัดสกลนครตำบลโพนจาน อำเภอโพนสวรรค์ และตำบลวังตามัว อำเภอเมืองนครพนม จังหวัดนครพนม"
  }
}