{
  "pages": [
    [
      [
        "ประกาศกระทรวงเกษตรและสหกรณ์",
        "เรื่อง กำหนดทางน้ำชลประทานตามพระราชบัญญัติการชลประทานหลวง พุทธศักราช ๒๔๘๕",
        "(ฉบับที่ ๔/๒๕๕๒)"
      ]
    ],
    []
  ],
  "metadata": {
    "date_backmatter": "2552-10-08",
    "date_modified": "2553-01-22",
    "date_original": "2553-01-22",
    "doctype": "ประกาศ",
    "editors": [
      {
        "name": "ปริยานุช",
        "role": "ผู้จัดทำ",
        "date": "2553-01-29"
      },
      {
        "name": "นันท์นภัสร์",
        "role": "ตรวจ",
        "date": "2553-01-29"
      },
      {
        "name": "วิมล",
        "role": "ปรับปรุง",
        "date": "2557-11-10"
      }
    ],
    "tag": "a114-2e-2553-a0001"
  }
}