{
  "pages": [
    [
      [
        "ประกาศกระทรวงเกษตรและสหกรณ์",
        "เรื่อง รายงานการรับจ่ายเงินทุนหมุนเวียนเพื่อการชลประทาน"
      ]
    ],
    []
  ],
  "metadata": {
    "date_backmatter": "2556-12-13",
    "date_modified": "2557-01-23",
    "date_original": "2557-01-23",
    "doctype": "ประกาศ",
    "editors": [
      {
        "name": "ปริยานุช",
        "role": "ผู้จัดทำ",
        "date": "2557-01-29"
      },
      {
        "name": "จุฑามาศ",
        "role": "ผู้ตรวจ",
        "date": "2557-02-19"
      }
    ],
    "tag": "a114-2e-2557-a0001"
  }
}