{
  "pages": [
    [
      [
        "ประกาศกระทรวงเกษตรและสหกรณ์",
        "เรื่อง กำหนดทางน้ำชลประทานตามพระราชบัญญัติการชลประทานหลวง พุทธศักราช ๒๔๘๕",
        "(ฉบับที่ ๘/๒๕๕๑)"
      ]
    ],
    []
  ],
  "metadata": {
    "date_backmatter": "2551-06-30",
    "date_modified": "2552-01-06",
    "date_original": "2552-01-06",
    "doctype": "ประกาศ",
    "editors": [
      {
        "name": "วัชศักดิ์",
        "role": "ผู้จัดทำ",
        "date": "2552-01-13"
      },
      {
        "name": "วิมล",
        "role": "ปรับปรุง",
        "date": "2557-11-07"
      }
    ],
    "tag": "a114-2e-2552-a0003"
  }
}