{
  "pages": [
    [
      [
        "กฎกระทรวง",
        "กำหนดให้ทางน้ำชลประทานอ่างเก็บน้ำห้วยทา",
        "เป็นทางน้ำชลประทานที่จะเรียกเก็บค่าชลประทาน",
        "พ.ศ. ๒๕๕๑"
      ]
    ],
    []
  ],
  "metadata": {
    "date_backmatter": "2551-07-10",
    "date_modified": "2551-08-08",
    "date_original": "2551-08-08",
    "doctype": "กฎกระทรวง",
    "editors": [
      {
        "name": "ปริยานุช",
        "role": "ผู้จัดทำ",
        "date": "2551-08-11"
      },
      {
        "name": "วิมล",
        "role": "ปรับปรุง",
        "date": "2557-10-15"
      }
    ],
    "tag": "a114-2b-2551-a0017"
  }
}