{
  "pages": [
    [
      [
        "กฎกระทรวง",
        "กำหนดให้ทางน้ำชลประทานในเขตโครงการท่าลาด",
        "เป็นทางน้ำชลประทานที่จะเรียกเก็บค่าชลประทาน",
        "พ.ศ. ๒๕๕๓"
      ]
    ],
    []
  ],
  "metadata": {
    "date_backmatter": "2553-06-21",
    "date_modified": "2553-07-29",
    "date_original": "2553-07-29",
    "doctype": "กฎกระทรวง",
    "editors": [
      {
        "name": "ปริยานุช",
        "role": "ผู้จัดทำ",
        "date": "2553-08-02"
      },
      {
        "name": "ณัฐวดี",
        "role": "ตรวจ",
        "date": "2553-08-02"
      },
      {
        "name": "วิมล",
        "role": "ปรับปรุง",
        "date": "2557-10-16"
      }
    ],
    "tag": "a114-2b-2553-a0001"
  }
}