{
  "pages": [
    [
      [
        "กฎกระทรวง",
        "กำหนดให้ทางน้ำชลประทานในเขตโครงการส่งน้ำและบำรุงรักษาเขื่อนเจ้าพระยา",
        "เป็นทางน้ำชลประทานที่จะเรียกเก็บค่าชลประทาน",
        "พ.ศ. ๒๕๕๔"
      ]
    ],
    []
  ],
  "metadata": {
    "date_backmatter": "2554-09-12",
    "date_modified": "2554-09-30",
    "date_original": "2554-09-30",
    "doctype": "กฎกระทรวง",
    "editors": [
      {
        "name": "ปริยานุช",
        "role": "ผู้จัดทำ",
        "date": "2554-10-07"
      },
      {
        "name": "ปณตภร",
        "role": "ผู้ตรวจ",
        "date": "2554-10-07"
      }
    ],
    "tag": "a114-2b-2554-a0002"
  }
}