{
  "pages": [
    [
      [
        "ประกาศกระทรวงเกษตรและสหกรณ์",
        "เรื่อง กำหนดทางน้ำชลประทานตามพระราชบัญญัติการชลประทานหลวง พุทธศักราช ๒๔๘๕",
        "(ฉบับที่ ๗/๒๕๕๙)"
      ]
    ],
    []
  ],
  "metadata": {
    "date_backmatter": "2559-05-24",
    "date_modified": "2559-08-08",
    "date_original": "2559-08-08",
    "doctype": "ประกาศ",
    "editors": [
      {
        "name": "กัญฑรัตน์/ปริยานุช",
        "role": "จัดทำ",
        "date": "2559-08-16"
      }
    ],
    "tag": "a114-2e-2559-a0014"
  }
}