{
  "pages": [
    [
      [
        "ประกาศกระทรวงเกษตรและสหกรณ์",
        "เรื่อง กำหนดทางน้ำชลประทาน",
        "ตามพระราชบัญญัติการชลประทานหลวง",
        "พุทธศักราช ๒๔๘๕",
        "(ฉบับที่ ๑/๒๕๔๙)"
      ]
    ],
    []
  ],
  "metadata": {
    "date_backmatter": "2549-08-17",
    "date_modified": "2549-11-02",
    "date_original": "2549-11-02",
    "doctype": "ประกาศ",
    "editors": [
      {
        "name": "โสรศ",
        "role": "ผู้จัดทำ",
        "date": "2549-11-14"
      },
      {
        "name": "วิมล",
        "role": "ปรับปรุง",
        "date": "2557-11-03"
      }
    ],
    "tag": "a114-2e-2549-a0005"
  }
}