{
  "pages": [
    [
      [
        "ประกาศสำนักนายกรัฐมนตรี",
        "เรื่อง กำหนดให้การเวนคืนอสังหาริมทรัพย์ในท้องที่ตำบลท่าพญา",
        "และตำบลขนาบนาก อำเภอปากพนัง จังหวัดนครศรีธรรมราช",
        "เป็นกรณีที่มีความจำเป็นโดยเร่งด่วน"
      ]
    ],
    []
  ],
  "metadata": {
    "date_backmatter": "2542-06-10",
    "date_modified": "2442-07-06",
    "date_original": "2442-07-06",
    "doctype": "ประกาศ",
    "editors": [
      {
        "name": "วิมล",
        "role": "ปรับปรุง",
        "date": "2557-10-27"
      }
    ],
    "tag": "a114-2e-2542-a0001"
  }
}