{
  "pages": [
    [
      [
        "ประกาศกระทรวงเกษตรและสหกรณ์",
        "เรื่อง กำหนดทางน้ำชลประทานตามพระราชบัญญัติการชลประทานหลวง พุทธศักราช ๒๔๘๕",
        "(ฉบับที่ ๘/๒๕๕๕)"
      ]
    ],
    []
  ],
  "metadata": {
    "date_backmatter": "2555-08-17",
    "date_modified": "2555-09-20",
    "date_original": "2555-09-20",
    "doctype": "ประกาศ",
    "editors": [
      {
        "name": "ปริยานุช",
        "role": "ผู้จัดทำ",
        "date": "2555-09-25"
      },
      {
        "name": "ปณตภร",
        "role": "ผู้ตรวจ",
        "date": "2555-10-02"
      }
    ],
    "tag": "a114-2e-2555-a0012"
  }
}