{
  "pages": [
    [
      [
        "ประกาศกระทรวงเกษตรและสหกรณ์",
        "เรื่อง กำหนดทางน้ำชลประทานตามพระราชบัญญัติการชลประทานหลวง พุทธศักราช ๒๔๘๕",
        "(ฉบับที่ ๑๑/๒๕๕๖)"
      ]
    ],
    []
  ],
  "metadata": {
    "date_backmatter": "2556-10-02",
    "date_modified": "2556-12-20",
    "date_original": "2556-12-20",
    "doctype": "ประกาศ",
    "editors": [
      {
        "name": "ปริยานุช",
        "role": "ผู้จัดทำ",
        "date": "2556-12-24"
      },
      {
        "name": "อังศุมาลี",
        "role": "ผู้ตรวจ",
        "date": "2556-12-24"
      }
    ],
    "tag": "a114-2e-2556-a0019"
  }
}