{
  "pages": [
    [
      [
        "ระเบียบผู้ตรวจการแผ่นดินของรัฐสภา",
        "ว่าด้วยเครื่องแบบและการแต่งกายของผู้ตรวจการแผ่นดินของรัฐสภา",
        "พนักงานและลูกจ้างสำนักงานผู้ตรวจการแผ่นดินของรัฐสภา",
        "พ.ศ. ๒๕๔๓"
      ]
    ],
    []
  ],
  "metadata": {
    "date_backmatter": "2543-12-19",
    "date_modified": "2544-01-10",
    "date_original": "2544-01-10",
    "editors": [
      {
        "name": "ปณตภร",
        "role": "ผู้จัดทำ",
        "date": "2554-05-09"
      },
      {
        "name": "กวินทราดา",
        "role": "ผู้ตรวจ",
        "date": "2554-05-09"
      }
    ],
    "tag": "bb41-2g-2544-a0002"
  }
}