{
  "pages": [
    [
      [
        "ประกาศกระทรวงมหาดไทย",
        "เรื่อง กำหนดเขตท้องที่จังหวัดสำหรับการออกบัตรประจำตัว",
        "ประชาชนด้วยระบบคอมพิวเตอร์",
        "(ฉบับที่ ๘)"
      ]
    ],
    []
  ],
  "metadata": {
    "date_backmatter": "2547-02-13",
    "date_modified": "2547-03-25",
    "date_original": "2547-03-25",
    "doctype": "ประกาศ",
    "editors": [
      {
        "name": "มัตติกา",
        "role": "พิมพ์",
        "date": "2547-07-01"
      },
      {
        "name": "พัชรินทร์/สุมลรัตน์",
        "role": "ตรวจ",
        "date": "2547-07-28"
      },
      {
        "name": "ปฐมพร",
        "role": "ปรับปรุง",
        "date": "2550-02-19"
      },
      {
        "name": "พิมลกร",
        "role": "ปรับปรุง",
        "date": "2557-03-04"
      }
    ],
    "tag": "ba04-2e-2547-a0001"
  }
}