{
  "pages": [
    [
      [
        "พระราชบัญญัติ",
        "บัตรประจำตัวประชาชน",
        "พ.ศ. ๒๕๒๖",
        "",
        "",
        "ภูมิพลอดุลยเดช ป.ร.",
        "ให้ไว้ ณ วันที่ ๒๙ มีนาคม พ.ศ. ๒๕๒๖",
        "เป็นปีที่ ๓๘ ในรัชกาลปัจจุบัน"
      ]
    ],
    []
  ],
  "metadata": {
    "date_header": "2526-03-29",
    "date_modified": "2526-04-20",
    "date_original": "2526-04-20",
    "doctype": "พระราชบัญญัติ",
    "editors": [
      {
        "name": "วศิน",
        "role": "ผู้จัดทำ",
        "date": "2552-01-09"
      },
      {
        "name": "วิมล",
        "role": "ปรับปรุง",
        "date": "2556-11-18"
      },
      {
        "name": "ณัฐพร",
        "role": "ตรวจ",
        "date": "2556-12-13"
      }
    ],
    "tag": "ba04-20-2526-001",
    "title": "บัตรประจำตัวประชาชน"
  }
}