{
  "pages": [
    [
      [
        "ประกาศกระทรวงมหาดไทย",
        "เรื่อง กำหนดเวลาการขอมีบัตรประจำตัวประชาชน"
      ]
    ],
    []
  ],
  "metadata": {
    "date_backmatter": "2527-01-30",
    "date_modified": "2527-02-21",
    "date_original": "2527-02-21",
    "doctype": "ประกาศ",
    "editors": [
      {
        "name": "ปฐมพร",
        "role": "จัดทำ",
        "date": "2550-02-19"
      },
      {
        "name": "พิมลกร",
        "role": "ปรับปรุง",
        "date": "2557-03-03"
      }
    ],
    "tag": "ba04-2e-2527-002"
  }
}