{
  "pages": [
    [
      [
        "ประกาศกระทรวงมหาดไทย",
        "เรื่อง กำหนดเขตท้องที่จังหวัดสำหรับการออกบัตรประจำตัวประชาชน",
        "ด้วยระบบคอมพิวเตอร์",
        "(ฉบับที่ ๗)"
      ]
    ],
    []
  ],
  "metadata": {
    "date_backmatter": "2546-03-31",
    "date_modified": "2546-05-08",
    "date_original": "2546-05-08",
    "doctype": "ประกาศ",
    "editors": [
      {
        "name": "อัมภิญา",
        "role": "พิมพ์",
        "date": "2551-04-02"
      },
      {
        "name": "พิมลกร",
        "role": "ปรับปรุง",
        "date": "2557-03-04"
      }
    ],
    "tag": "ba04-2e-2546-a0002"
  }
}