{
  "pages": [
    [
      [
        "พระราชบัญญัติ",
        "มหาวิทยาลัยกาฬสินธุ์",
        "พ.ศ. ๒๕๕๘",
        "",
        "",
        "ภูมิพลอดุลยเดช ป.ร.",
        "ให้ไว้ ณ วันที่ ๑๔ สิงหาคม พ.ศ. ๒๕๕๘",
        "เป็นปีที่ ๗๐ ในรัชกาลปัจจุบัน"
      ]
    ],
    []
  ],
  "metadata": {
    "date_header": "2558-08-14",
    "date_modified": "2558-09-08",
    "date_original": "2558-09-08",
    "doctype": "พระราชบัญญัติ",
    "editors": [
      {
        "name": "ปริยานุช,ปุณิกา",
        "role": "ผู้จัดทำ",
        "date": "2558-09-09"
      },
      {
        "name": "ปัญญา",
        "role": "ผู้ตรวจ",
        "date": "2558-09-09"
      }
    ],
    "tag": "c145-20-2558-a0001",
    "title": "มหาวิทยาลัยกาฬสินธุ์"
  }
}