{
  "pages": [
    [
      [
        "ข้อบังคับมหาวิทยาลัยกาฬสินธุ์",
        "ว่าด้วยเครื่องแบบ เครื่องหมายและเครื่องแต่งกายนักศึกษา",
        "พ.ศ. ๒๕๖๐"
      ]
    ],
    []
  ],
  "metadata": {
    "date_backmatter": "2560-06-09",
    "date_modified": "2560-10-05",
    "date_original": "2560-10-05",
    "editors": [
      {
        "name": "พัชรภรณ์/อัญชลี",
        "role": "จัดทำ",
        "date": "2560-10-06"
      }
    ],
    "tag": "c145-2i-2560-a0001"
  }
}