{
  "pages": [
    [
      [
        "ประกาศคณะกรรมการกลางปันส่วนน้ำมันเชื้อเพลิง",
        "ระเบียบการอนุญาตให้ซื้อและให้ขายน้ำมันเชื้อเพลิง",
        "ชนิดที่มีการปันส่วน สำหรับหน่วยส่วนภูมิภาค"
      ]
    ],
    []
  ],
  "metadata": {
    "date_backmatter": "2484-04-07",
    "date_gz_old": "2484-04-07",
    "doctype": "ประกาศ",
    "editors": [
      {
        "name": "อัมพิกา",
        "role": "แก้ไข",
        "date": "2544-08-22"
      }
    ],
    "tag": "bb25-2e-2484-a0001"
  }
}