{
  "pages": [
    [
      [
        "ประกาศคณะกรรมการว่าด้วยฉลาก",
        "ฉบับที่ ๔ (พ.ศ. ๒๕๔๓)",
        "เรื่อง ให้ข้าวสารบรรจุถุงเป็นสินค้าที่ควบคุมฉลาก"
      ]
    ],
    []
  ],
  "metadata": {
    "date_backmatter": "2543-07-28",
    "date_modified": "2543-08-29",
    "date_original": "2543-08-29",
    "doctype": "ประกาศ",
    "editors": [
      {
        "name": "วิภา",
        "role": "ผู้จัดทำ",
        "date": "2553-12-21"
      },
      {
        "name": "พัสสน",
        "role": "ผู้ตรวจ",
        "date": "2554-01-24"
      }
    ],
    "tag": "a434-2e-2543-a0004"
  }
}