{
  "pages": [
    [
      [
        "ประกาศคณะกรรมการว่าด้วยสัญญา",
        "เรื่อง ให้ธุรกิจการรับจ้างก่อสร้างอาคารเพื่อการอยู่อาศัยเป็นธุรกิจที่ควบคุมสัญญา",
        "พ.ศ. ๒๕๕๙"
      ]
    ],
    []
  ],
  "metadata": {
    "date_backmatter": "2559-06-16",
    "date_modified": "2559-11-14",
    "date_original": "2559-11-14",
    "doctype": "ประกาศ",
    "editors": [
      {
        "name": "ปริยานุช",
        "role": "จัดทำ",
        "date": "2559-11-21"
      },
      {
        "name": "วิศนี",
        "role": "ตรวจ",
        "date": "2559-11-21"
      }
    ],
    "tag": "a434-2e-2559-a0005"
  }
}