{
  "pages": [
    [
      [
        "ประกาศคณะกรรมการว่าด้วยฉลาก",
        "ฉบับที่ ๒๑ (พ.ศ. ๒๕๔๙)",
        "เรื่อง ให้เครื่องทำน้ำเย็นเป็นสินค้าที่ควบคุมฉลาก"
      ]
    ],
    []
  ],
  "metadata": {
    "date_backmatter": "2549-03-13",
    "date_modified": "2549-04-03",
    "date_original": "2549-04-03",
    "doctype": "ประกาศ",
    "editors": [
      {
        "name": "วิภา",
        "role": "ผู้จัดทำ",
        "date": "2553-12-23"
      },
      {
        "name": "พัสสน",
        "role": "ผู้ตรวจ",
        "date": "2554-01-26"
      },
      {
        "name": "ชุติมา",
        "role": "ปรับปรุง",
        "date": "2560-05-17"
      }
    ],
    "tag": "a434-2e-2549-a0002"
  }
}