{
  "pages": [
    [
      [
        "ประกาศคณะกรรมการว่าด้วยฉลาก",
        "ฉบับที่ ๑๙ (พ.ศ. ๒๕๒๘)",
        "เรื่อง กำหนดอุปกรณ์ที่ใช้ในการเตรียมหรือการบริโภคอาหาร",
        "เป็นสินค้าที่ควบคุมฉลาก"
      ]
    ],
    []
  ],
  "metadata": {
    "date_backmatter": "2528-04-23",
    "date_modified": "2528-06-06",
    "date_original": null,
    "doctype": "ประกาศ",
    "editors": [
      {
        "name": "มณฑิตา",
        "role": "ผู้จัดทำ",
        "date": "2553-12-17"
      },
      {
        "name": "พัสสน",
        "role": "ผู้ตรวจ",
        "date": "2554-01-20"
      }
    ],
    "tag": "a434-2e-2528-a0003"
  }
}