{
  "pages": [
    [
      [
        "ประกาศคณะกรรมการว่าด้วยฉลาก",
        "ฉบับที่ ๑๗ (พ.ศ. ๒๕๒๗)",
        "เรื่อง กำหนดยางรถยนต์เป็นสินค้าที่ควบคุมฉลาก"
      ]
    ],
    []
  ],
  "metadata": {
    "date_backmatter": "2527-11-26",
    "date_modified": "2528-01-15",
    "date_original": null,
    "doctype": "ประกาศ",
    "editors": [
      {
        "name": "มณฑิตา",
        "role": "ผู้จัดทำ",
        "date": "2553-12-17"
      },
      {
        "name": "พัสสน",
        "role": "ผู้ตรวจ",
        "date": "2554-01-20"
      }
    ],
    "tag": "a434-2e-2528-a0001"
  }
}