{
  "pages": [
    [
      [
        "ประกาศคณะกรรมการว่าด้วยฉลาก",
        "ฉบับที่ ๓๖ (พ.ศ. ๒๕๓๐)",
        "เรื่อง กำหนดสินค้าที่มีทินเนอร์เป็นสินค้าที่ควบคุมฉลาก"
      ]
    ],
    []
  ],
  "metadata": {
    "date_backmatter": "2530-05-19",
    "date_modified": "2530-03-11",
    "date_original": "2530-03-11",
    "doctype": "ประกาศ",
    "editors": [
      {
        "name": "มณฑิตา",
        "role": "ผู้จัดทำ",
        "date": "2553-12-17"
      },
      {
        "name": "พัสสน",
        "role": "ผู้ตรวจ",
        "date": "2554-01-20"
      }
    ],
    "tag": "a434-2e-2530-a0005"
  }
}