{
  "pages": [
    [
      [
        "ประกาศคณะกรรมการว่าด้วยฉลาก",
        "ฉบับที่ ๓๕ (พ.ศ. ๒๕๓๐)",
        "เรื่อง กำหนดเครื่องรับโทรทัศน์เป็นสินค้าที่ควบคุมฉลาก"
      ]
    ],
    []
  ],
  "metadata": {
    "date_backmatter": "2530-01-20",
    "date_modified": "2530-03-04",
    "date_original": "2530-03-04",
    "doctype": "ประกาศ",
    "editors": [
      {
        "name": "มณฑิตา",
        "role": "ผู้จัดทำ",
        "date": "2553-12-17"
      },
      {
        "name": "พัสสน",
        "role": "ผู้ตรวจ",
        "date": "2554-01-20"
      },
      {
        "name": "ชุติมา",
        "role": "ปรับปรุง",
        "date": "2560-05-17"
      }
    ],
    "tag": "a434-2e-2530-a0004"
  }
}