{
  "pages": [
    [
      [
        "ระเบียบสำนักงานคณะกรรมการคุ้มครองผู้บริโภค",
        "ว่าด้วยการเข้าไปในสถานที่หรือยานพาหนะใด ๆ ของผู้ประกอบธุรกิจ",
        "ตามพระราชบัญญัติคุ้มครองผู้บริโภค พ.ศ. ๒๕๒๒ พ.ศ. ๒๕๖๐"
      ]
    ],
    []
  ],
  "metadata": {
    "date_backmatter": "2560-07-13",
    "date_modified": "2560-08-23",
    "date_original": "2560-08-23",
    "editors": [
      {
        "name": "ชวัลพร/อัญชลี",
        "role": "จัดทำ",
        "date": "2560-08-25"
      },
      {
        "name": "นุสรา",
        "role": "ตรวจ",
        "date": "2561-01-23"
      }
    ],
    "tag": "a434-2g-2560-a0001"
  }
}