{
  "pages": [
    [
      [
        "ประกาศคณะกรรมการว่าด้วยฉลาก",
        "ฉบับที่ ๒๖ (พ.ศ. ๒๕๒๙)",
        "เรื่อง กำหนดทินเนอร์เป็นสินค้าที่ควบคุมฉลาก"
      ]
    ],
    []
  ],
  "metadata": {
    "date_backmatter": "2529-01-27",
    "date_modified": "2535-09-08",
    "date_original": "2535-09-08",
    "doctype": "ประกาศ",
    "editors": [
      {
        "name": "มณฑิตา",
        "role": "ผู้จัดทำ",
        "date": "2553-12-23"
      },
      {
        "name": "พัสสน",
        "role": "ผู้ตรวจ",
        "date": "2554-01-19"
      },
      {
        "name": "ชุติมา",
        "role": "ปรับปรุง",
        "date": "2560-05-17"
      }
    ],
    "tag": "a434-2e-9996-update"
  }
}