{
  "pages": [
    [
      [
        "ประกาศสำนักงานคณะกรรมการอาหารและยา",
        "เรื่อง ยกเลิกประกาศสำนักงานคณะกรรมการอาหารและยาที่กำหนดให้",
        "เครื่องดื่มที่มีส่วนผสมของแอลกอฮอล์เป็นสินค้าที่ควบคุมฉลาก ลงวันที่ ๑๗ ตุลาคม พ.ศ. ๒๕๔๙"
      ]
    ],
    []
  ],
  "metadata": {
    "date_backmatter": "2550-04-30",
    "date_header": "2549-10-17",
    "date_modified": "2550-05-30",
    "date_original": "2550-05-30",
    "doctype": "ประกาศ",
    "editors": [],
    "tag": "a434-2e-2550-a0006"
  }
}