{
  "pages": [
    [
      [
        "ประกาศคณะกรรมการว่าด้วยฉลาก",
        "ฉบับที่ ๑๖ (พ.ศ. ๒๕๒๗)",
        "เรื่อง กำหนดของเล่นสำหรับเด็กเป็นสินค้าที่ควบคุมฉลาก"
      ]
    ],
    []
  ],
  "metadata": {
    "date_backmatter": "2527-10-18",
    "date_modified": "2527-12-04",
    "date_original": null,
    "doctype": "ประกาศ",
    "editors": [
      {
        "name": "มณฑิตา",
        "role": "ผู้จัดทำ",
        "date": "2553-12-17"
      },
      {
        "name": "พัสสน",
        "role": "ผู้ตรวจ",
        "date": "2554-01-20"
      }
    ],
    "tag": "a434-2e-2527-a0002"
  }
}