{
  "pages": [
    [
      [
        "ประกาศคณะกรรมการว่าด้วยฉลาก",
        "ฉบับที่ ๕๖ (พ.ศ. ๒๕๓๕)",
        "เรื่อง กำหนดเครื่องซักผ้าไฟฟ้าเป็นสินค้าที่ควบคุมฉลาก"
      ]
    ],
    []
  ],
  "metadata": {
    "date_backmatter": "2535-07-10",
    "date_modified": "2535-08-11",
    "date_original": "2535-08-11",
    "doctype": "ประกาศ",
    "editors": [
      {
        "name": "วรวิมล",
        "role": "ผู้จัดทำ",
        "date": "2553-12-22"
      },
      {
        "name": "กวินทราดา",
        "role": "ผู้ตรวจ",
        "date": "2554-01-21"
      },
      {
        "name": "ชุติมา",
        "role": "ปรับปรุง",
        "date": "2560-05-17"
      }
    ],
    "tag": "a434-2e-2535-a0001"
  }
}