{
  "pages": [
    [
      [
        "คำสั่งคณะกรรมการคุ้มครองผู้บริโภค",
        "ที่ ๒/๒๕๖๑",
        "เรื่อง มอบหมายให้พนักงานเจ้าหน้าที่ดำเนินการเปรียบเทียบความผิด",
        "ที่เกิดขึ้นในกรุงเทพมหานคร กรณีฝ่าฝืนมาตรา ๕ (๔) แห่งพระราชบัญญัติคุ้มครองผู้บริโภค",
        "พ.ศ. ๒๕๒๒"
      ]
    ],
    []
  ],
  "metadata": {
    "date_backmatter": "2561-02-01",
    "date_modified": "2561-03-15",
    "date_original": "2561-03-15",
    "editors": [
      {
        "name": "ปวันวิทย์",
        "role": "จัดทำ",
        "date": "2561-04-27"
      }
    ],
    "tag": "a434-2f-2561-a0002"
  }
}