{
  "pages": [
    [
      [
        "ประกาศคณะกรรมการว่าด้วยฉลาก",
        "ฉบับที่ ๓๒ (พ.ศ. ๒๕๕๔)",
        "เรื่อง ให้ปืนอัดลมเบาที่จำลองเลียนแบบอาวุธปืนจริงเป็นสินค้าที่ควบคุมฉลาก"
      ]
    ],
    []
  ],
  "metadata": {
    "date_backmatter": "2554-03-08",
    "date_modified": "2554-03-31",
    "date_original": "2554-03-31",
    "doctype": "ประกาศ",
    "editors": [
      {
        "name": "ปริยานุช",
        "role": "ผู้จัดทำ",
        "date": "2554-04-20"
      },
      {
        "name": "ณัฐวดี",
        "role": "ตรวจ",
        "date": "2554-04-20"
      }
    ],
    "tag": "a434-2e-2554-a0002"
  }
}