{
  "pages": [
    [
      [
        "ประกาศคณะกรรมการว่าด้วยฉลาก",
        "เรื่อง ลักษณะของฉลากสินค้าที่ควบคุมฉลาก",
        "(ฉบับที่ ๒) พ.ศ. ๒๕๔๒"
      ]
    ],
    []
  ],
  "metadata": {
    "date_backmatter": "2542-08-13",
    "date_modified": "2542-08-20",
    "date_original": "2542-08-20",
    "doctype": "ประกาศ",
    "editors": [
      {
        "name": "วิภา",
        "role": "ผู้จัดทำ",
        "date": "2553-12-21"
      },
      {
        "name": "พัสสน",
        "role": "ผู้ตรวจ",
        "date": "2554-01-24"
      }
    ],
    "tag": "a434-2e-2542-a0003"
  }
}