{
  "pages": [
    [
      [
        "พระราชบัญญัติ",
        "คุ้มครองผู้บริโภค",
        "พ.ศ. ๒๕๒๒",
        "",
        "",
        "ภูมิพลอดุลยเดช ป.ร.",
        "ให้ไว้ ณ วันที่ ๓๐ เมษายน พ.ศ. ๒๕๒๒",
        "เป็นปีที่ ๓๔ ในรัชกาลปัจจุบัน"
      ]
    ],
    []
  ],
  "metadata": {
    "date_header": "2522-04-30",
    "date_modified": "2541-03-24",
    "date_original": "2522-05-04",
    "doctype": "พระราชบัญญัติ",
    "editors": [
      {
        "name": "ฐิติพร",
        "role": "จัดทำ",
        "date": "2556-11-06"
      },
      {
        "name": "ปณตภร",
        "role": "ตรวจ",
        "date": "2556-11-11"
      }
    ],
    "tag": "a434-20-2541-a0002",
    "title": "คุ้มครองผู้บริโภค"
  }
}