{
  "pages": [
    [
      [
        "พระราชบัญญัติ",
        "โรงแรม",
        "พ.ศ. ๒๕๔๗",
        "",
        "",
        "ภูมิพลอดุลยเดช ป.ร.",
        "ให้ไว้ ณ วันที่ ๓๐ ตุลาคม พ.ศ. ๒๕๔๗",
        "เป็นปีที่ ๕๙ ในรัชกาลปัจจุบัน"
      ]
    ],
    []
  ],
  "metadata": {
    "date_header": "2547-10-30",
    "date_modified": "2547-11-12",
    "date_original": "2547-11-12",
    "doctype": "พระราชบัญญัติ",
    "editors": [
      {
        "name": "ภิรมย์พร",
        "role": "แก้ไข",
        "date": "2556-06-24"
      },
      {
        "name": "วศิน",
        "role": "ตรวจ",
        "date": "2556-06-24"
      }
    ],
    "tag": "c349-20-2547-a0001",
    "title": "โรงแรม"
  }
}