{
  "pages": [
    [
      [
        "ประกาศคณะกรรมการส่งเสริมและกำกับธุรกิจโรงแรม",
        "เรื่อง การพิจารณารับรองหลักสูตรการฝึกอบรมวิชาการบริหารจัดการโรงแรม"
      ]
    ],
    []
  ],
  "metadata": {
    "date_backmatter": "2558-01-26",
    "date_modified": "2558-04-02",
    "date_original": "2558-04-02",
    "doctype": "ประกาศ",
    "editors": [
      {
        "name": "ปริยานุช",
        "role": "ผู้จัดทำ",
        "date": "2558-04-03"
      },
      {
        "name": "วิศนี",
        "role": "ผู้ตรวจ",
        "date": "2558-04-27"
      }
    ],
    "tag": "c349-2e-2558-a0001"
  }
}