{
  "pages": [
    [
      [
        "คำสั่งกระทรวงมหาดไทย",
        "ที่ ๔๖๓/๒๕๔๕",
        "เรื่อง การปฏิบัติตามพระราชบัญญัติโรงแรม พุทธศักราช ๒๔๗๘"
      ]
    ],
    []
  ],
  "metadata": {
    "date_backmatter": "2545-12-18",
    "date_modified": "2551-03-17",
    "date_original": "2551-03-17",
    "editors": [
      {
        "name": "อุษมล",
        "role": "ผู้จัดทำ",
        "date": "2555-05-21"
      },
      {
        "name": "วิชพงษ์",
        "role": "ผู้ตรวจ",
        "date": "2555-06-08"
      }
    ],
    "tag": "c349-2f-2551-a0004"
  }
}