{
  "pages": [
    [
      [
        "ประกาศกระทรวงมหาดไทย",
        "เรื่อง กำหนดบัตรทะเบียนผู้พักและทะเบียนผู้พักตามพระราชบัญญัติโรงแรม",
        "พ.ศ. ๒๕๔๗"
      ]
    ],
    []
  ],
  "metadata": {
    "date_backmatter": "2558-11-10",
    "date_modified": "2558-11-18",
    "date_original": "2558-11-18",
    "doctype": "ประกาศ",
    "editors": [
      {
        "name": "ปริยานุช",
        "role": "จัดทำ",
        "date": "2558-11-20"
      },
      {
        "name": "วิศนี",
        "role": "ตรวจ",
        "date": "2558-12-17"
      }
    ],
    "tag": "c349-2e-2558-a0002"
  }
}