{
  "pages": [
    [
      [
        "กฎกระทรวง",
        "กำหนดค่าธรรมเนียม หลักเกณฑ์ และวิธีการชำระค่าธรรมเนียม",
        "สำหรับการประกอบธุรกิจโรงแรม",
        "พ.ศ. ๒๕๕๑"
      ]
    ],
    []
  ],
  "metadata": {
    "date_backmatter": "2551-05-14",
    "date_modified": "2558-08-14",
    "date_original": "2551-06-06",
    "doctype": "กฎกระทรวง",
    "editors": [
      {
        "name": "ปุณิกา",
        "role": "ผู้จัดทำ",
        "date": "2558-09-02"
      },
      {
        "name": "ปัญญา",
        "role": "ตรวจ",
        "date": "2558-09-02"
      }
    ],
    "tag": "c349-2b-9999-update"
  }
}