{
  "pages": [
    [
      [
        "ประกาศสถาบันเทคโนโลยีพระจอมเกล้าเจ้าคุณทหารลาดกระบัง",
        "เรื่อง การจัดตั้งส่วนงานในสถาบันเทคโนโลยีพระจอมเกล้าเจ้าคุณทหารลาดกระบัง",
        "(ฉบับที่ ๙) พ.ศ. ๒๕๕๙"
      ]
    ],
    []
  ],
  "metadata": {
    "date_backmatter": "2559-07-05",
    "date_modified": "2559-08-11",
    "date_original": "2559-08-11",
    "doctype": "ประกาศ",
    "editors": [
      {
        "name": "กัญฑรัตน์/ปริยานุช",
        "role": "จัดทำ",
        "date": "2559-08-17"
      }
    ],
    "tag": "ca82-2e-2559-a0005"
  }
}