{
  "pages": [
    [
      [
        "ประกาศสถาบันเทคโนโลยีพระจอมเกล้าเจ้าคุณทหารลาดกระบัง",
        "เรื่อง การจัดตั้งส่วนงานในสถาบันเทคโนโลยีพระจอมเกล้าเจ้าคุณทหารลาดกระบัง",
        "พ.ศ. ๒๕๕๑"
      ]
    ],
    []
  ],
  "metadata": {
    "date_backmatter": "2551-06-02",
    "date_modified": "2559-01-14",
    "date_original": "2551-07-14",
    "doctype": "ประกาศ",
    "editors": [
      {
        "name": "กัญฑรัตน์",
        "role": "เพิ่มเติม",
        "date": "2559-02-10"
      },
      {
        "name": "นุสรา",
        "role": "ตรวจ",
        "date": "2559-02-18"
      }
    ],
    "tag": "ca82-2e-2559-a0003"
  }
}