{
  "pages": [
    [
      [
        "ประกาศสถาบันเทคโนโลยีพระจอมเกล้าเจ้าคุณทหารลาดกระบัง",
        "เรื่อง การจัดตั้งส่วนงานในสถาบันเทคโนโลยีพระจอมเกล้าเจ้าคุณทหารลาดกระบัง",
        "(ฉบับที่ ๑๐) พ.ศ. ๒๕๖๐"
      ]
    ],
    []
  ],
  "metadata": {
    "date_backmatter": "2560-02-06",
    "date_modified": "2560-03-13",
    "date_original": "2560-03-13",
    "doctype": "ประกาศ",
    "editors": [
      {
        "name": "ปริยานุช",
        "role": "จัดทำ",
        "date": "2560-03-17"
      },
      {
        "name": "ชวัลพร",
        "role": "ตรวจ",
        "date": "2560-03-28"
      }
    ],
    "tag": "ca82-2e-2560-a0001"
  }
}