{
  "pages": [
    [
      [
        "ประกาศสถาบันเทคโนโลยีพระจอมเกล้าเจ้าคุณทหารลาดกระบัง",
        "เรื่อง การจัดตั้งส่วนงานในสถาบันเทคโนโลยีพระจอมเกล้าเจ้าคุณทหารลาดกระบัง (ฉบับที่ ๘)",
        "พ.ศ. ๒๕๕๙"
      ]
    ],
    []
  ],
  "metadata": {
    "date_backmatter": "2559-05-04",
    "date_modified": "2559-06-14",
    "date_original": "2559-06-14",
    "doctype": "ประกาศ",
    "editors": [
      {
        "name": "วริญา/ปริยานุช",
        "role": "จัดทำ",
        "date": "2559-06-21"
      }
    ],
    "tag": "ca82-2e-2559-a0004"
  }
}