{
  "pages": [
    [
      [
        "ประกาศสถาบันเทคโนโลยีพระจอมเกล้าเจ้าคุณทหารลาดกระบัง",
        "เรื่อง การจัดตั้งส่วนงานในสถาบันเทคโนโลยีพระจอมเกล้าเจ้าคุณทหารลาดกระบัง",
        "(ฉบับที่ ๑๑) พ.ศ. ๒๕๖๐"
      ]
    ],
    []
  ],
  "metadata": {
    "date_backmatter": "2560-07-18",
    "date_modified": "2560-09-01",
    "date_original": "2560-09-01",
    "doctype": "ประกาศ",
    "editors": [
      {
        "name": "ปุณิกา/ภวรรณตรี",
        "role": "จัดทำ",
        "date": "2560-09-06"
      }
    ],
    "tag": "ca82-2e-2560-a0003"
  }
}