{
  "pages": [
    [
      [
        "ประกาศคณะกรรมการป้องกันการทารุณกรรมและการจัดสวัสดิภาพสัตว์",
        "เรื่อง การอุทธรณ์ และการพิจารณาวินิจฉัยอุทธรณ์",
        "พ.ศ. ๒๕๖๑"
      ]
    ],
    []
  ],
  "metadata": {
    "date_backmatter": "2561-05-11",
    "date_modified": "2561-07-04",
    "date_original": "2561-07-04",
    "doctype": "ประกาศ",
    "editors": [
      {
        "name": "พัชรภรณ์",
        "role": "จัดทำ",
        "date": "2561-10-24"
      }
    ],
    "tag": "bb53-2e-2561-a0002"
  }
}