{
  "pages": [
    [
      [
        "ประกาศกระทรวงสาธารณสุข",
        "เรื่อง หลักเกณฑ์และวิธีการในการแสดงเครื่องหมายของเขตสูบบุหรี่และเขตปลอดบุหรี่",
        "พ.ศ. ๒๕๕๑"
      ]
    ],
    []
  ],
  "metadata": {
    "date_backmatter": "2551-01-23",
    "date_modified": "2551-02-28",
    "date_original": "2551-02-28",
    "doctype": "ประกาศ",
    "editors": [
      {
        "name": "ปริยานุช",
        "role": "ผู้จัดทำ",
        "date": "2551-03-04"
      },
      {
        "name": "รัศม์วรรณวลัย",
        "role": "ตรวจ",
        "date": "2552-02-12"
      }
    ],
    "tag": "a465-2e-2551-a0001"
  }
}