{
  "pages": [
    [
      [
        "ประกาศกระทรวงสาธารณสุข",
        "(ฉบับที่ ๑๑) พ.ศ. ๒๕๔๖",
        "เรื่อง บัตรประจำตัวพนักงานเจ้าหน้าที่ ตามพระราชบัญญัติ",
        "คุ้มครองสุขภาพของผู้ไม่สูบบุหรี่ พ.ศ. ๒๕๓๕"
      ]
    ],
    []
  ],
  "metadata": {
    "date_backmatter": "2546-03-31",
    "date_modified": "2546-06-30",
    "date_original": "2546-06-30",
    "doctype": "ประกาศ",
    "editors": [
      {
        "name": "วัชศักดิ์",
        "role": "ผู้จัดทำ",
        "date": "2552-02-18"
      },
      {
        "name": "รัศม์วรรณวลัย",
        "role": "ตรวจ",
        "date": "2552-02-19"
      }
    ],
    "tag": "a465-2e-2546-a0002"
  }
}