{
  "pages": [
    [
      [
        "กฎกระทรวง",
        "(พ.ศ. ๒๕๔๓)",
        "ออกตามความในพระราชบัญญัติการเช่าอสังหาริมทรัพย์เพื่อพาณิชยกรรม",
        "และอุตสาหกรรม พ.ศ. ๒๕๔๒"
      ]
    ],
    []
  ],
  "metadata": {
    "date_backmatter": "2543-08-22",
    "date_modified": "2543-08-28",
    "date_original": "2543-08-28",
    "doctype": "กฎกระทรวง",
    "editors": [
      {
        "name": "มณฑิตา",
        "role": "ผู้จัดทำ",
        "date": "2555-07-03"
      },
      {
        "name": "วิชพงษ์",
        "role": "ผู้ตรวจ",
        "date": "2555-07-17"
      }
    ],
    "tag": "a195-2b-2543-a0001"
  }
}