{
  "pages": [
    [
      [
        "พระราชบัญญัติ",
        "ระเบียบข้าราชการพลเรือนในสถาบันอุดมศึกษา (ฉบับที่ ๓)",
        "พ.ศ. ๒๕๕๙",
        "",
        "",
        "ภูมิพลอดุลยเดช ป.ร.",
        "ให้ไว้ ณ วันที่ ๑๓ มิถุนายน พ.ศ. ๒๕๕๙",
        "เป็นปีที่ ๗๑ ในรัชกาลปัจจุบัน"
      ]
    ],
    []
  ],
  "metadata": {
    "date_header": "2559-06-13",
    "date_modified": "2559-06-21",
    "date_original": "2559-06-21",
    "doctype": "พระราชบัญญัติ",
    "editors": [
      {
        "name": "ปุณิกา/ปริยานุช",
        "role": "จัดทำ",
        "date": "2559-06-22"
      },
      {
        "name": "พจนา",
        "role": "ตรวจ",
        "date": "2559-06-24"
      }
    ],
    "tag": "c347-20-2559-a0001",
    "title": "ระเบียบข้าราชการพลเรือนในสถาบันอุดมศึกษา (ฉบับที่ ๓)"
  }
}