{
  "pages": [
    [
      [
        "กฎ ก.พ.อ.",
        "ว่าด้วยโรคที่มีลักษณะต้องห้ามเป็นข้าราชการพลเรือนในสถาบันอุดมศึกษา",
        "พ.ศ. ๒๕๔๙"
      ]
    ],
    []
  ],
  "metadata": {
    "date_backmatter": "2549-12-04",
    "date_modified": "2550-01-08",
    "date_original": "2550-01-08",
    "editors": [
      {
        "name": "ปริญสินีย์",
        "role": "ผู้จัดทำ",
        "date": "2554-02-02"
      },
      {
        "name": "คุณากร",
        "role": "ผู้ตรวจ",
        "date": "2554-08-18"
      }
    ],
    "tag": "c347-2c-2550-a0001"
  }
}