{
  "pages": [
    [
      [
        "ประกาศ ก.พ.อ.",
        "เรื่อง การกำหนดชื่อสาขาวิชาสำหรับการเสนอขอกำหนดตำแหน่งทางวิชาการ",
        "และการเทียบเคียงสาขาวิชาที่เคยกำหนดไปแล้ว",
        "พ.ศ. ๒๕๖๑"
      ]
    ],
    []
  ],
  "metadata": {
    "date_backmatter": "2561-06-05",
    "date_modified": "2561-06-15",
    "date_original": "2561-06-15",
    "doctype": "ประกาศ",
    "editors": [
      {
        "name": "วิวรรธน์",
        "role": "จัดทำ",
        "date": "2561-06-20"
      }
    ],
    "tag": "c347-2e-2561-a0002"
  }
}