{
  "pages": [
    [
      [
        "ข้อบังคับสภามหาวิทยาลัยราชภัฏสวนสุนันทา",
        "ว่าด้วยจรรยาบรรณข้าราชการพลเรือนในสถาบันอุดมศึกษาของมหาวิทยาลัย",
        "พ.ศ. ๒๕๕๑"
      ]
    ],
    []
  ],
  "metadata": {
    "date_backmatter": "2550-05-08",
    "date_modified": "2551-05-27",
    "date_original": "2551-05-27",
    "editors": [
      {
        "name": "ปริญสินีย์",
        "role": "ผู้จัดทำ",
        "date": "2554-02-03"
      },
      {
        "name": "คุณากร",
        "role": "ผู้ตรวจ",
        "date": "2554-08-18"
      }
    ],
    "tag": "c347-2i-2549-a0005"
  }
}