{
  "pages": [
    [
      [
        "ประกาศ ก.พ.อ.",
        "เรื่อง หลักเกณฑ์และวิธีการพิจารณาแต่งตั้งบุคคลให้ดำรงตำแหน่งผู้ช่วยศาสตราจารย์",
        "รองศาสตราจารย์ และศาสตราจารย์ (ฉบับที่ ๕)",
        "พ.ศ. ๒๕๕๒"
      ]
    ],
    []
  ],
  "metadata": {
    "date_backmatter": "2552-02-17",
    "date_modified": "2552-03-25",
    "date_original": "2552-03-25",
    "doctype": "ประกาศ",
    "editors": [
      {
        "name": "ปริญสินีย์",
        "role": "ผู้จัดทำ",
        "date": "2554-02-02"
      },
      {
        "name": "คุณากร",
        "role": "ผู้ตรวจ",
        "date": "2554-08-18"
      }
    ],
    "tag": "c347-2e-2552-a0005"
  }
}