{
  "pages": [
    [
      [
        "ประกาศของคณะปฏิวัติ",
        "ฉบับที่ ๖๙"
      ]
    ],
    []
  ],
  "metadata": {
    "date_backmatter": "2515-02-03",
    "date_modified": "2515-02-04",
    "date_original": "2515-02-04",
    "doctype": "ประกาศ",
    "editors": [
      {
        "name": "วศิน",
        "role": "ผู้จัดทำ",
        "date": "2552-01-12"
      },
      {
        "name": "หยก",
        "role": "ปรับปรุง",
        "date": "2556-12-23"
      },
      {
        "name": "ชาญ",
        "role": "ตรวจ",
        "date": "2556-12-23"
      }
    ],
    "tag": "ba07-20-2515-001"
  }
}