{
  "pages": [
    [
      [
        "พระราชบัญญัติ",
        "บำเหน็จบำนาญข้าราชการ (ฉบับที่ ๒)",
        "พ.ศ. ๒๔๙๔",
        "",
        "",
        "ภูมิพลอดุลยเดช ป.ร.",
        "ให้ไว้ ณ วันที่ ๓๐ ธันวาคม พ.ศ. ๒๔๙๔",
        "เป็นปีที่ ๖ ในรัชกาลปัจจุบัน"
      ]
    ],
    []
  ],
  "metadata": {
    "date_header": "2494-12-30",
    "date_modified": "2494-12-31",
    "date_original": "2494-12-31",
    "doctype": "พระราชบัญญัติ",
    "editors": [
      {
        "name": "วศิน",
        "role": "ผู้จัดทำ",
        "date": "2551-12-25"
      },
      {
        "name": "หยก",
        "role": "ปรับปรุง",
        "date": "2556-12-20"
      },
      {
        "name": "ชาญ",
        "role": "ตรวจ",
        "date": "2556-12-20"
      }
    ],
    "tag": "ba07-20-2494-002",
    "title": "บำเหน็จบำนาญข้าราชการ (ฉบับที่ ๒)"
  }
}