{
  "pages": [
    [
      [
        "พระราชบัญญัติ",
        "บำเหน็จบำนาญข้าราชการ (ฉบับที่ ๒๓)",
        "พ.ศ. ๒๕๕๑",
        "",
        "",
        "ภูมิพลอดุลยเดช ป.ร.",
        "ให้ไว้ ณ วันที่ ๒๓ มกราคม พ.ศ. ๒๕๕๑",
        "เป็นปีที่ ๖๓ ในรัชกาลปัจจุบัน"
      ]
    ],
    []
  ],
  "metadata": {
    "date_header": "2551-01-23",
    "date_modified": "2551-01-25",
    "date_original": "2551-01-25",
    "doctype": "พระราชบัญญัติ",
    "editors": [
      {
        "name": "วศิน",
        "role": "ผู้จัดทำ",
        "date": "2551-12-30"
      },
      {
        "name": "หยก",
        "role": "ปรับปรุง",
        "date": "2556-12-23"
      },
      {
        "name": "ชาญ",
        "role": "ตรวจ",
        "date": "2556-12-23"
      }
    ],
    "tag": "ba07-20-2551-a0001",
    "title": "บำเหน็จบำนาญข้าราชการ (ฉบับที่ ๒๓)"
  }
}