{
  "pages": [
    [
      [
        "กฎกระทรวง",
        "กำหนดอัตราและวิธีการรับบำเหน็จดำรงชีพ",
        "พ.ศ. ๒๕๔๖"
      ]
    ],
    []
  ],
  "metadata": {
    "date_backmatter": "2546-12-09",
    "date_modified": "2546-12-16",
    "date_original": "2546-12-16",
    "doctype": "กฎกระทรวง",
    "editors": [
      {
        "name": "สุนันทา",
        "role": "ผู้จัดทำ",
        "date": "2553-03-01"
      },
      {
        "name": "กวินทราดา",
        "role": "ตรวจ",
        "date": "2553-11-24"
      },
      {
        "name": "คุณากร",
        "role": "ปรับปรุง",
        "date": "2556-08-28"
      }
    ],
    "tag": "ba07-2b-2546-a0001"
  }
}