{
  "pages": [
    [
      [
        "พระราชบัญญัติ",
        "บำเหน็จบำนาญข้าราชการ",
        "พ.ศ. ๒๔๙๔",
        "",
        "",
        "ในพระปรมาภิไธย",
        "พระบาทสมเด็จพระปรมินทรมหาภูมิพลอดุลยเดช",
        "ธานีนิวัต กรมหมื่นพิทยลาภพฤฒิยากร",
        "ผู้สำเร็จราชการแทนพระองค์",
        "ให้ไว้ ณ วันที่ ๑๐ เมษายน พ.ศ. ๒๔๙๔",
        "เป็นปีที่ ๖ ในรัชกาลปัจจุบัน"
      ]
    ],
    []
  ],
  "metadata": {
    "date_header": "2494-04-10",
    "date_modified": "2554-03-28",
    "date_original": "2494-04-11",
    "doctype": "พระราชบัญญัติ",
    "editors": [
      {
        "name": "วศิน",
        "role": "ผู้จัดทำ",
        "date": "2551-12-25"
      },
      {
        "name": "หยก",
        "role": "ปรับปรุง",
        "date": "2556-12-23"
      },
      {
        "name": "ชาญ",
        "role": "ตรวจ",
        "date": "2556-12-23"
      }
    ],
    "tag": "ba07-20-2554-a0002",
    "title": "บำเหน็จบำนาญข้าราชการ"
  }
}