{
  "pages": [
    [
      [
        "พระราชบัญญัติ",
        "บำเหน็จบำนาญข้าราชการ (ฉบับที่ ๑๑)",
        "พ.ศ. ๒๕๑๘",
        "",
        "",
        "ภูมิพลอดุลยเดช ป.ร.",
        "ให้ไว้ ณ วันที่ ๗ กุมภาพันธ์ พ.ศ. ๒๕๑๘",
        "เป็นปีที่ ๓๐ ในรัชกาลปัจจุบัน"
      ]
    ],
    []
  ],
  "metadata": {
    "date_header": "2518-02-07",
    "date_modified": "2518-02-14",
    "date_original": "2518-02-14",
    "doctype": "พระราชบัญญัติ",
    "editors": [
      {
        "name": "วศิน",
        "role": "ผู้จัดทำ",
        "date": "2551-12-26"
      },
      {
        "name": "หยก",
        "role": "ปรับปรุง",
        "date": "2556-12-23"
      },
      {
        "name": "ชาญ",
        "role": "ตรวจ",
        "date": "2556-12-23"
      }
    ],
    "tag": "ba07-20-2518-011",
    "title": "บำเหน็จบำนาญข้าราชการ (ฉบับที่ ๑๑)"
  }
}