{
  "pages": [
    [
      [
        "พระราชบัญญัติ",
        "บำเหน็จบำนาญข้าราชการ (ฉบับที่ ๔)",
        "พ.ศ. ๒๔๙๙",
        "",
        "",
        "ภูมิพลอดุลยเดช ป.ร.",
        "ให้ไว้ ณ วันที่ ๑๘ กันยายน พ.ศ. ๒๔๙๙",
        "เป็นปีที่ ๑๑ ในรัชกาลปัจจุบัน"
      ]
    ],
    []
  ],
  "metadata": {
    "date_header": "2499-09-18",
    "date_modified": "2499-09-27",
    "date_original": "2499-09-27",
    "doctype": "พระราชบัญญัติ",
    "editors": [
      {
        "name": "วศิน",
        "role": "ผู้จัดทำ",
        "date": "2551-12-25"
      },
      {
        "name": "หยก",
        "role": "ปรับปรุง",
        "date": "2556-12-20"
      },
      {
        "name": "ชาญ",
        "role": "ตรวจ",
        "date": "2556-12-20"
      }
    ],
    "tag": "ba07-20-2499-004",
    "title": "บำเหน็จบำนาญข้าราชการ (ฉบับที่ ๔)"
  }
}