{
  "pages": [
    [
      [
        "ระเบียบคณะกรรมการตรวจเงินแผ่นดิน",
        "ว่าด้วยวินัยทางงบประมาณและการคลัง",
        "พ.ศ. ๒๕๔๔"
      ]
    ],
    []
  ],
  "metadata": {
    "date_backmatter": "2544-08-09",
    "date_modified": "2544-08-21",
    "date_original": "2544-08-21",
    "editors": [
      {
        "name": "อุษมล",
        "role": "จัดทำ",
        "date": "2557-11-18"
      },
      {
        "name": "จุฑามาศ",
        "role": "ปรับปรุง",
        "date": "2560-01-16"
      }
    ],
    "tag": "bb44-2g-2544-a004"
  }
}