{
  "pages": [
    [
      [
        "ประกาศคณะกรรมการตรวจเงินแผ่นดิน",
        "เรื่อง หลักเกณฑ์และวิธีการประเมินผลการปฏิบัติงานของสำนักงานการตรวจเงินแผ่นดิน",
        "โดยผู้ประเมินอิสระ"
      ]
    ],
    []
  ],
  "metadata": {
    "date_backmatter": "2561-05-15",
    "date_modified": "2561-06-08",
    "date_original": "2561-06-08",
    "doctype": "ประกาศ",
    "editors": [
      {
        "name": "ปวันวิทย์",
        "role": "จัดทำ",
        "date": "2561-07-02"
      }
    ],
    "tag": "bb44-2e-2561-a0003"
  }
}