{
  "pages": [
    [
      [
        "ประกาศคณะกรรมการตรวจเงินแผ่นดิน",
        "เรื่อง หลักเกณฑ์ในการพิจารณาดำเนินการตามเงื่อนไขแห่งพระราชบัญญัติล้างมลทิน",
        "ในวโรกาสที่พระบาทสมเด็จพระปรมินทรมหาภูมิพลอดุลยเดชมีพระชนมพรรษา ๘๐ พรรษา พ.ศ. ๒๕๕๐",
        "กรณีผู้ที่จะได้รับการล้างมลทินในเรื่องความผิดวินัยทางงบประมาณและการคลัง"
      ]
    ],
    []
  ],
  "metadata": {
    "date_backmatter": "2559-01-14",
    "date_modified": "2559-03-31",
    "date_original": "2559-03-31",
    "doctype": "ประกาศ",
    "editors": [
      {
        "name": null,
        "role": null,
        "date": "2559-04-01"
      },
      {
        "name": "ชวัลพร",
        "role": "ตรวจ",
        "date": "2559-04-01"
      }
    ],
    "tag": "bb44-2e-2559-a0001"
  }
}