{
  "pages": [
    [
      [
        "ประกาศคณะปฏิรูปการปกครองในระบอบประชาธิปไตย",
        "อันมีพระมหากษัตริย์ทรงเป็นประมุข",
        "ฉบับที่ ๑๒",
        "เรื่อง ให้พระราชบัญญัติประกอบรัฐธรรมนูญบางฉบับมีผลใช้บังคับต่อไป"
      ]
    ],
    []
  ],
  "metadata": {
    "date_backmatter": "2549-09-20",
    "date_modified": "2549-09-24",
    "date_original": "2549-09-24",
    "doctype": "ประกาศ",
    "editors": [
      {
        "name": "สุกัญญา",
        "role": "จัดทำ",
        "date": "2554-04-25"
      },
      {
        "name": "ณัฐพร",
        "role": "ตรวจ",
        "date": "2554-04-25"
      },
      {
        "name": "จุฑามาศ",
        "role": "ปรับปรุง",
        "date": "2560-01-05"
      }
    ],
    "tag": "bb44-20-2549-a0001"
  }
}