{
  "pages": [
    [
      [
        "ระเบียบคณะกรรมการตรวจเงินแผ่นดิน",
        "ว่าด้วยหลักเกณฑ์การเบิกจ่ายค่าใช้บริการสัญญาณโทรศัพท์เคลื่อนที่",
        "ของข้าราชการสำนักงานการตรวจเงินแผ่นดิน (ฉบับที่ ๒)",
        "พ.ศ. ๒๕๕๖"
      ]
    ],
    []
  ],
  "metadata": {
    "date_backmatter": "2556-09-30",
    "date_modified": "2556-10-09",
    "date_original": "2556-10-09",
    "editors": [
      {
        "name": "ปริยานุช",
        "role": "ผู้จัดทำ",
        "date": "2556-10-10"
      },
      {
        "name": "ชาญ",
        "role": "ผู้ตรวจ",
        "date": "2556-10-14"
      }
    ],
    "tag": "bb44-2g-2556-a0002"
  }
}