{
  "pages": [
    [
      [
        "ระเบียบคณะกรรมการตรวจเงินแผ่นดิน",
        "ว่าด้วยการแต่งตั้งคณะกรรมการวินัยทางงบประมาณและการคลัง",
        "พ.ศ. ๒๕๔๓"
      ]
    ],
    []
  ],
  "metadata": {
    "date_backmatter": "2543-05-09",
    "date_modified": "2543-05-11",
    "date_original": "2543-05-11",
    "editors": [
      {
        "name": "จุฑามาศ",
        "role": "ปรับปรุง",
        "date": "2560-01-12"
      }
    ],
    "tag": "bb44-2g-2543-a002"
  }
}