{
  "pages": [
    [
      [
        "ระเบียบคณะกรรมการตรวจเงินแผ่นดิน",
        "ว่าด้วยการปฏิบัติหน้าที่ของผู้ตรวจสอบภายใน",
        "พ.ศ. ๒๕๔๖"
      ]
    ],
    []
  ],
  "metadata": {
    "date_backmatter": "2546-02-28",
    "date_modified": "2546-03-24",
    "date_original": "2546-03-24",
    "editors": [
      {
        "name": "มณฑาทิพย์",
        "role": "พิมพ์",
        "date": "2546-05-22"
      },
      {
        "name": "สุมลรัตน์",
        "role": "อรรถชัย แก้ไข",
        "date": "2546-05-28"
      },
      {
        "name": "จุฑามาศ",
        "role": "ปรับปรุง",
        "date": "2560-01-18"
      }
    ],
    "tag": "bb44-2g-2546-a0003"
  }
}