{
  "pages": [
    [
      [
        "ระเบียบคณะกรรมการตรวจเงินแผ่นดิน",
        "ว่าด้วยการแต่งตั้งคณะกรรมการวินัยทางงบประมาณและการคลัง",
        "พ.ศ. ๒๕๔๓"
      ]
    ],
    []
  ],
  "metadata": {
    "date_backmatter": "2543-05-09",
    "date_modified": "2547-04-02",
    "date_original": "2543-05-11",
    "editors": [
      {
        "name": "สัญชัย",
        "role": "จัดทำ",
        "date": "2550-02-07"
      },
      {
        "name": "จุฑามาศ",
        "role": "ปรับปรุง",
        "date": "2560-01-24"
      }
    ],
    "tag": "bb44-2g-9994-update"
  }
}