{
  "pages": [
    [
      [
        "พระราชกฤษฎีกา",
        "แก้ไขบทบัญญัติให้สอดคล้องกับการโอน",
        "อำนาจหน้าที่ของส่วนราชการให้เป็นไปตามพระราชบัญญัติปรับปรุงกระทรวง",
        "ทบวง กรม พ.ศ. ๒๕๔๕ (ฉบับที่ ๒)",
        "พ.ศ. ๒๕๕๐",
        "",
        "",
        "ภูมิพลอดุลยเดช ป.ร.",
        "ให้ไว้ ณ วันที่ ๖ มิถุนายน พ.ศ. ๒๕๕๐",
        "เป็นปีที่ ๖๒ ในรัชกาลปัจจุบัน"
      ]
    ],
    []
  ],
  "metadata": {
    "date_header": "2550-06-06",
    "date_modified": "2550-06-18",
    "date_original": "2550-06-18",
    "doctype": "พระราชกฤษฎีกา",
    "editors": [
      {
        "name": "กองกฎหมายไทย",
        "role": "ปรับปรุง",
        "date": "2559-06-00"
      },
      {
        "name": "ศิรวัชร์",
        "role": "ปรับปรุง",
        "date": "2561-07-17"
      }
    ],
    "tag": "bb33-2a-2550-a0003",
    "title": "แก้ไขบทบัญญัติให้สอดคล้องกับการโอนอำนาจหน้าที่ของส่วนราชการให้เป็นไปตามพระราชบัญญัติปรับปรุงกระทรวงทบวง กรม พ.ศ. ๒๕๔๕ (ฉบับที่ ๒)"
  }
}