{
  "pages": [
    [
      [
        "ประกาศกรมทางหลวงชนบท",
        "เรื่อง มาตรฐานและลักษณะของทางหลวงและงานทาง",
        "รวมทั้งกำหนดเขตทางหลวง ที่จอดรถ ระยะแนวต้นไม้",
        "และเสาพาดสายเกี่ยวกับทางหลวงชนบท",
        "พ.ศ. ๒๕๔๙"
      ]
    ],
    []
  ],
  "metadata": {
    "date_backmatter": "2549-02-24",
    "date_modified": "2549-03-30",
    "date_original": "2549-03-30",
    "doctype": "ประกาศ",
    "editors": [
      {
        "name": "นันทนา",
        "role": "จัดทำ",
        "date": "2549-04-05"
      },
      {
        "name": "ศิรวัชร์",
        "role": "ปรับปรุง",
        "date": "2561-07-23"
      }
    ],
    "tag": "bb33-2e-2549-a0001"
  }
}