{
  "pages": [
    [
      [
        "พระราชบัญญัติ",
        "ปรับปรุงกระทรวง ทบวง กรม",
        "พ.ศ. ๒๕๔๕",
        "",
        "",
        "ภูมิพลอดุลยเดช ป.ร.",
        "ให้ไว้ ณ วันที่ ๒ ตุลาคม พ.ศ. ๒๕๔๕",
        "เป็นปีที่ ๕๗ ในรัชกาลปัจจุบัน"
      ]
    ],
    []
  ],
  "metadata": {
    "date_header": "2545-10-02",
    "date_modified": "2559-04-29",
    "date_original": "2545-10-02",
    "doctype": "พระราชบัญญัติ",
    "editors": [
      {
        "name": "กองกฎหมายไทย",
        "role": "ปรับปรุง",
        "date": "2558-04-29"
      },
      {
        "name": "ปริญสินีย์",
        "role": "เพิ่มเติม",
        "date": "2558-10-02"
      },
      {
        "name": "วิชพงษ์",
        "role": "ตรวจ",
        "date": "2558-10-05"
      },
      {
        "name": "กัญฑรัตน์",
        "role": "เพิ่มเติม",
        "date": "2558-11-10"
      },
      {
        "name": "ปัญญา",
        "role": "ตรวจ",
        "date": "2558-11-10"
      },
      {
        "name": "กัญฑรัตน์",
        "role": "เพิ่มเติม",
        "date": "2559-05-03"
      }
    ],
    "tag": "bb33-20-2559-a0003",
    "title": "ปรับปรุงกระทรวง ทบวง กรม"
  }
}