{
  "pages": [
    [
      [
        "ระเบียบกระทรวงสาธารณสุข",
        "ว่าด้วยการช่วยเหลือในการรักษาพยาบาล (ฉบับที่ ๒)",
        "พ.ศ. ๒๕๔๗"
      ]
    ],
    []
  ],
  "metadata": {
    "date_backmatter": "2547-08-10",
    "date_modified": "2547-08-27",
    "date_original": "2547-08-27",
    "editors": [
      {
        "name": "นุสรา",
        "role": "ปรับปรุง",
        "date": "2559-01-20"
      }
    ],
    "tag": "bb33-2g-2547-a0002"
  }
}