{
  "pages": [
    [
      [
        "พระราชบัญญัติ",
        "ปรับปรุงกระทรวง ทบวง กรม (ฉบับที่ ๗)",
        "พ.ศ. ๒๕๕๒",
        "",
        "",
        "ภูมิพลอดุลยเดช ป.ร.",
        "ให้ไว้ ณ วันที่ ๒๖ พฤศจิกายน พ.ศ. ๒๕๕๒",
        "เป็นปีที่ ๖๔ ในรัชกาลปัจจุบัน"
      ]
    ],
    []
  ],
  "metadata": {
    "date_header": "2552-11-26",
    "date_modified": "2552-12-03",
    "date_original": "2552-12-03",
    "doctype": "พระราชบัญญัติ",
    "editors": [
      {
        "name": "ปริยานุช",
        "role": "ผู้จัดทำ",
        "date": "2552-12-09"
      },
      {
        "name": "นันท์นภัสร์",
        "role": "ตรวจ",
        "date": "2552-12-09"
      },
      {
        "name": "นภาพร",
        "role": "ปรับปรุง",
        "date": "2556-11-18"
      },
      {
        "name": "ณัฐพร",
        "role": "ตรวจ",
        "date": "2557-01-03"
      }
    ],
    "tag": "bb33-20-2552-a0003",
    "title": "ปรับปรุงกระทรวง ทบวง กรม (ฉบับที่ ๗)"
  }
}