{
  "pages": [
    [
      [
        "พระราชกฤษฎีกา",
        "จัดวางระเบียบราชการสำนักงานและกรม",
        "ในกระทรวงการต่างประเทศ",
        "พุทธศักราช ๒๔๗๖",
        "",
        "",
        "นริศรานุวัดติวงศ์",
        "ผู้สำเร็จราชการแทนพระองค์",
        "(ตามพระราชกฤษฎีกาลงวันที่ ๑๑ มกราคม พ.ศ. ๒๔๗๖)"
      ]
    ],
    []
  ],
  "metadata": {
    "date_backmatter": "2476-01-29",
    "date_header": "2476-01-11",
    "date_modified": "2476-01-30",
    "date_original": "2476-01-30",
    "doctype": "พระราชกฤษฎีกา",
    "editors": [
      {
        "name": "ฐาปนี",
        "role": "แก้ไข",
        "date": "2545-12-16"
      },
      {
        "name": "ศิรวัชร์",
        "role": "ปรับปรุง",
        "date": "2561-07-19"
      }
    ],
    "tag": "bb33-2a-2476-a0007",
    "title": "จัดวางระเบียบราชการสำนักงานและกรมในกระทรวงการต่างประเทศ"
  }
}