{
  "pages": [
    [
      [
        "ระเบียบกระทรวงสาธารณสุข",
        "ว่าด้วยการช่วยเหลือในการรักษาพยาบาล (ฉบับที่ ๖)",
        "พ.ศ. ๒๕๕๘"
      ]
    ],
    []
  ],
  "metadata": {
    "date_backmatter": "2558-09-07",
    "date_modified": "2558-09-22",
    "date_original": "2558-09-22",
    "editors": [
      {
        "name": "ปริยานุช",
        "role": "จัดทำ",
        "date": "2558-09-23"
      },
      {
        "name": "วริญา",
        "role": "ตรวจ",
        "date": "2558-09-23"
      }
    ],
    "tag": "bb33-2g-2558-a0001"
  }
}