{
  "pages": [
    [
      [
        "ประกาศกระทรวงศึกษาธิการ",
        "เรื่อง จัดตั้งวิทยาเขต สังกัดสถาบันเทคโนโลยีราชมงคล"
      ]
    ],
    []
  ],
  "metadata": {
    "date_backmatter": "2540-11-26",
    "date_modified": "2540-12-23",
    "date_original": "2540-12-23",
    "doctype": "ประกาศ",
    "editors": [
      {
        "name": "อัมพิกา",
        "role": "แก้ไข",
        "date": "2545-06-25"
      },
      {
        "name": "ศิรวัชร์",
        "role": "ปรับปรุง",
        "date": "2561-07-25"
      }
    ],
    "tag": "bb33-2e-2540-a0001"
  }
}