{
  "pages": [
    [
      [
        "พระราชกฤษฎีกา",
        "จัดวางระเบียบราชการสำนักงานและกรม",
        "ในกระทรวงเกษตราธิการ",
        "พุทธศักราช ๒๔๗๘",
        "",
        "",
        "ในพระปรมาภิไธยพระมหากษัตริย์",
        "คณะผู้สำเร็จราชการแทนพระองค์",
        "อนุวัตน์จาตุรนต์",
        "อาทิตย์ทิพอาภา",
        "เจ้าพระยายมราช",
        "ตราไว้ ณ วันที่ ๓ พฤษภาคม พุทธศักราช ๒๔๗๘",
        "เป็นปีที่ ๒ ในรัชกาลปัจจุบัน"
      ]
    ],
    []
  ],
  "metadata": {
    "date_header": "2478-05-03",
    "date_modified": "2478-05-12",
    "date_original": "2478-05-12",
    "doctype": "พระราชกฤษฎีกา",
    "editors": [
      {
        "name": "จารุวรรณ",
        "role": "แก้ไข",
        "date": "2545-12-12"
      },
      {
        "name": "ศิรวัชร์",
        "role": "ปรับปรุง",
        "date": "2561-07-18"
      }
    ],
    "tag": "bb33-2a-2478-a0003",
    "title": "จัดวางระเบียบราชการสำนักงานและกรมในกระทรวงเกษตราธิการ"
  }
}