{
  "pages": [
    [
      [
        "พระราชกฤษฎีกา",
        "โอนกิจการบริหารและอำนาจหน้าที่ของส่วนราชการ",
        "ให้เป็นไปตามพระราชบัญญัติปรับปรุงกระทรวง ทบวง กรม พ.ศ. ๒๕๔๕",
        "พ.ศ. ๒๕๔๕",
        "",
        "",
        "ภูมิพลอดุลยเดช ป.ร.",
        "ให้ไว้ ณ วันที่ ๖ ตุลาคม พ.ศ. ๒๕๔๕",
        "เป็นปีที่ ๕๗ ในรัชกาลปัจจุบัน"
      ]
    ],
    []
  ],
  "metadata": {
    "date_header": "2545-10-06",
    "date_modified": "2545-10-08",
    "date_original": "2545-10-08",
    "doctype": "พระราชกฤษฎีกา",
    "editors": [
      {
        "name": "พรพิมล",
        "role": "แก้ไข",
        "date": "2545-11-14"
      },
      {
        "name": "ศิรวัชร์",
        "role": "ปรับปรุง",
        "date": "2561-07-17"
      }
    ],
    "tag": "bb33-2a-2545-a0003",
    "title": "โอนกิจการบริหารและอำนาจหน้าที่ของส่วนราชการให้เป็นไปตามพระราชบัญญัติปรับปรุงกระทรวง ทบวง กรม พ.ศ. ๒๕๔๕"
  }
}