{
  "pages": [
    [
      [
        "คำสั่งหัวหน้าคณะรักษาความสงบแห่งชาติ",
        "ที่ ๔๖/๒๕๖๐",
        "เรื่อง การจัดตั้งสำนักงานบริหารจัดการทรัพยากรน้ำแห่งชาติ"
      ]
    ],
    []
  ],
  "metadata": {
    "date_backmatter": "2560-10-25",
    "date_modified": "2560-10-25",
    "date_original": "2560-10-25",
    "editors": [
      {
        "name": "พิมพ์มาดา/ภวรรณตรี",
        "role": "จัดทำ",
        "date": "2560-10-30"
      },
      {
        "name": "วิชพงษ์",
        "role": "ตรวจ",
        "date": "2560-10-31"
      },
      {
        "name": "ศิรวัชร์",
        "role": "ปรับปรุง",
        "date": "2561-07-09"
      }
    ],
    "tag": "bb33-2f-2560-a0001"
  }
}