{
  "pages": [
    [
      [
        "ประกาศคณะกรรมการการเลือกตั้ง",
        "เรื่อง เปลี่ยนแปลงแก้ไขเขตเลือกตั้งสมาชิกสภาเทศบาลในจังหวัดบุรีรัมย์"
      ]
    ],
    []
  ],
  "metadata": {
    "date_backmatter": "2549-01-27",
    "date_modified": "2549-02-10",
    "date_original": "2549-02-10",
    "doctype": "ประกาศ",
    "editors": [
      {
        "name": "นันทนา",
        "role": "ผู้จัดทำ",
        "date": "2549-02-20"
      }
    ],
    "tag": "a1111-2e-2549-a0016"
  }
}