{
  "pages": [
    [
      [
        "ประกาศคณะกรรมการการเลือกตั้ง",
        "เรื่อง การแบ่งเขตเลือกตั้งสมาชิกสภาเทศบาลในจังหวัดเชียงใหม่"
      ]
    ],
    []
  ],
  "metadata": {
    "date_backmatter": "2548-12-19",
    "date_modified": "2548-12-29",
    "date_original": "2548-12-29",
    "doctype": "ประกาศ",
    "editors": [
      {
        "name": "ชัชสรัญ",
        "role": "ผู้จัดทำ",
        "date": "2549-01-09"
      }
    ],
    "tag": "a1111-2e-2548-a0103"
  }
}