{
  "pages": [
    [
      [
        "ประกาศคณะกรรมการการเลือกตั้ง",
        "เรื่อง การแบ่งเขตเลือกตั้งสมาชิกสภาเทศบาลในจังหวัดนครราชสีมา"
      ]
    ],
    []
  ],
  "metadata": {
    "date_backmatter": "2555-02-23",
    "date_modified": "2555-03-06",
    "date_original": "2555-03-06",
    "doctype": "ประกาศ",
    "editors": [
      {
        "name": "ปริยานุช",
        "role": "ผู้จัดทำ",
        "date": "2555-03-09"
      },
      {
        "name": "ชาญ",
        "role": "ผู้ตรวจ",
        "date": "2555-03-16"
      }
    ],
    "tag": "a1111-2e-2555-a0022"
  }
}