{
  "pages": [
    [
      [
        "ประกาศคณะกรรมการการเลือกตั้ง",
        "เรื่อง แก้ไขเพิ่มเติมท้องที่ที่ประกอบเป็นเขตเลือกตั้งสมาชิกสภาองค์การบริหารส่วนจังหวัดตาก"
      ]
    ],
    []
  ],
  "metadata": {
    "date_backmatter": "2551-05-08",
    "date_modified": "2551-06-06",
    "date_original": "2551-06-06",
    "doctype": "ประกาศ",
    "editors": [
      {
        "name": "พัชรินทร์",
        "role": "ผู้จัดทำ",
        "date": "2551-06-06"
      }
    ],
    "tag": "a1111-2e-2551-a0076"
  }
}