{
  "pages": [
    [
      [
        "ประกาศคณะกรรมการการเลือกตั้ง",
        "เรื่อง การแบ่งเขตเลือกตั้งสมาชิกสภาเทศบาลในจังหวัดอุตรดิตถ์"
      ]
    ],
    []
  ],
  "metadata": {
    "date_backmatter": "2551-05-30",
    "date_modified": "2551-07-09",
    "date_original": "2551-07-09",
    "doctype": "ประกาศ",
    "editors": [
      {
        "name": "วัชศักดิ์",
        "role": "ผู้จัดทำ",
        "date": "2551-07-10"
      }
    ],
    "tag": "a1111-2e-2551-a0092"
  }
}