{
  "pages": [
    [
      [
        "ประกาศคณะกรรมการการเลือกตั้ง",
        "เรื่อง การแบ่งเขตเลือกตั้งสมาชิกสภาเทศบาลในจังหวัดลำปาง"
      ]
    ],
    []
  ],
  "metadata": {
    "date_backmatter": "2555-10-03",
    "date_modified": "2555-10-19",
    "date_original": "2555-10-19",
    "doctype": "ประกาศ",
    "editors": [
      {
        "name": "ปริยานุช",
        "role": "ผู้จัดทำ",
        "date": "2555-10-24"
      },
      {
        "name": "ณัฐพร",
        "role": "ผู้ตรวจ",
        "date": "2555-10-24"
      }
    ],
    "tag": "a1111-2e-2555-a0211"
  }
}