{
  "pages": [
    [
      [
        "ประกาศคณะกรรมการการเลือกตั้ง",
        "เรื่อง การแบ่งเขตเลือกตั้งสมาชิกสภาเทศบาลในจังหวัดลำปาง"
      ]
    ],
    []
  ],
  "metadata": {
    "date_backmatter": "2551-11-12",
    "date_modified": "2551-01-12",
    "date_original": "2551-01-12",
    "doctype": "ประกาศ",
    "editors": [
      {
        "name": "วัชศักดิ์",
        "role": "ผู้จัดทำ",
        "date": "2552-01-13"
      }
    ],
    "tag": "a1111-2e-2552-a0007"
  }
}