{
  "pages": [
    [
      [
        "ประกาศคณะกรรมการการเลือกตั้ง",
        "เรื่อง ให้ย่นหรือขยายระยะเวลาหรืองดเว้นการดำเนินการเกี่ยวกับการเลือกตั้ง",
        "กรณีคณะกรรมการการเลือกตั้งสั่งให้มีการเลือกตั้งใหม่"
      ]
    ],
    []
  ],
  "metadata": {
    "date_backmatter": "2556-11-06",
    "date_modified": "2556-11-08",
    "date_original": "2556-11-08",
    "doctype": "ประกาศ",
    "editors": [
      {
        "name": "ปริยานุช",
        "role": "จัดทำ",
        "date": "2556-11-12"
      },
      {
        "name": "ชาญ",
        "role": "ตรวจ",
        "date": "2556-11-19"
      },
      {
        "name": "ศิรวัชร์",
        "role": "ปรับปรุง",
        "date": "2559-10-06"
      }
    ],
    "tag": "a1111-2e-2556-a0161"
  }
}