{
  "pages": [
    [
      [
        "ประกาศคณะกรรมการการเลือกตั้ง",
        "เรื่อง การแบ่งเขตเลือกตั้งสมาชิกสภาเทศบาลในจังหวัดบุรีรัมย์"
      ]
    ],
    []
  ],
  "metadata": {
    "date_modified": "2556-04-26",
    "date_original": "2556-04-26",
    "doctype": "ประกาศ",
    "editors": [
      {
        "name": "ปริยานุช",
        "role": "ผู้จัดทำ",
        "date": "2556-04-29"
      },
      {
        "name": "ชาญ",
        "role": "ผู้ตรวจ",
        "date": "2556-05-03"
      }
    ],
    "tag": "a1111-2e-2556-a0034"
  }
}