{
  "pages": [
    [
      [
        "ประกาศคณะกรรมการการเลือกตั้ง",
        "เรื่อง ให้ขยายระยะเวลาวันเลือกตั้งขององค์กรปกครองส่วนท้องถิ่น",
        "(ฉบับที่ ๒)"
      ]
    ],
    []
  ],
  "metadata": {
    "date_backmatter": "2549-09-26",
    "date_modified": "2549-10-01",
    "date_original": "2549-10-01",
    "doctype": "ประกาศ",
    "editors": [
      {
        "name": "นันทนา",
        "role": "ผู้จัดทำ",
        "date": "2549-10-05"
      }
    ],
    "tag": "a1111-2e-2549-a0072"
  }
}