{
  "pages": [
    [
      [
        "ประกาศคณะกรรมการการเลือกตั้ง",
        "เรื่อง การแบ่งเขตเลือกตั้งสมาชิกสภาเทศบาลในจังหวัดนครราชสีมา"
      ]
    ],
    []
  ],
  "metadata": {
    "date_backmatter": "2550-10-19",
    "date_modified": "2550-11-19",
    "date_original": "2550-11-19",
    "doctype": "ประกาศ",
    "editors": [
      {
        "name": "วัชศักดิ์",
        "role": "ผู้จัดทำ",
        "date": "2550-11-27"
      }
    ],
    "tag": "a1111-2e-2550-a0073"
  }
}