{
  "pages": [
    [
      [
        "ประกาศคณะกรรมการการเลือกตั้ง",
        "เรื่อง การแบ่งเขตเลือกตั้งสมาชิกสภาเทศบาลในจังหวัดจันทบุรี"
      ]
    ],
    []
  ],
  "metadata": {
    "date_backmatter": "2550-04-12",
    "date_modified": "2550-05-04",
    "date_original": "2550-05-04",
    "doctype": "ประกาศ",
    "editors": [
      {
        "name": "โสรศ",
        "role": "ผู้จัดทำ",
        "date": "2550-05-15"
      }
    ],
    "tag": "a1111-2e-2550-a0027"
  }
}