{
  "pages": [
    [
      [
        "ประกาศคณะกรรมการการเลือกตั้ง",
        "เรื่อง การแบ่งเขตเลือกตั้งสมาชิกสภาเทศบาลในจังหวัดลพบุรี"
      ]
    ],
    []
  ],
  "metadata": {
    "date_backmatter": "2546-03-31",
    "date_gz_old": "2546-04-17",
    "doctype": "ประกาศ",
    "editors": [],
    "tag": "a1111-2e-2546-a0040"
  }
}