{
  "pages": [
    [
      [
        "ประกาศคณะกรรมการการเลือกตั้ง",
        "เรื่อง การแบ่งเขตเลือกตั้งสมาชิกสภาเทศบาลในจังหวัดมหาสารคาม"
      ]
    ],
    []
  ],
  "metadata": {
    "date_backmatter": "2551-09-02",
    "date_modified": "2551-10-24",
    "date_original": "2551-10-24",
    "doctype": "ประกาศ",
    "editors": [
      {
        "name": "วัชศักดิ์",
        "role": "ผู้จัดทำ",
        "date": "2551-10-27"
      }
    ],
    "tag": "a1111-2e-2551-a0159"
  }
}