{
  "pages": [
    [
      [
        "ประกาศคณะกรรมการการเลือกตั้ง",
        "เรื่อง การแบ่งเขตเลือกตั้งสมาชิกสภาเทศบาลในจังหวัดชลบุรี"
      ]
    ],
    []
  ],
  "metadata": {
    "date_backmatter": "2548-10-21",
    "date_modified": "2548-11-04",
    "date_original": "2548-11-04",
    "doctype": "ประกาศ",
    "editors": [
      {
        "name": "พชร",
        "role": "ผู้จัดทำ",
        "date": "2548-11-11"
      }
    ],
    "tag": "a1111-2e-2548-a0095"
  }
}