{
  "pages": [
    [
      [
        "ประกาศคณะกรรมการการเลือกตั้ง",
        "เรื่อง การแบ่งเขตเลือกตั้งสมาชิกสภาเทศบาลในจังหวัดอุตรดิตถ์"
      ]
    ],
    []
  ],
  "metadata": {
    "date_backmatter": "2555-12-20",
    "date_modified": "2556-01-04",
    "date_original": "2556-01-04",
    "doctype": "ประกาศ",
    "editors": [
      {
        "name": "ปริยานุช",
        "role": "ผู้จัดทำ",
        "date": "2556-01-08"
      },
      {
        "name": "ชาญ",
        "role": "ผู้ตรวจ",
        "date": "2556-01-15"
      }
    ],
    "tag": "a1111-2e-2556-a0002"
  }
}