{
  "pages": [
    [
      [
        "ประกาศคณะกรรมการการเลือกตั้ง",
        "เรื่อง การแบ่งเขตเลือกตั้งสมาชิกสภาเทศบาลในจังหวัดเพชรบูรณ์"
      ]
    ],
    []
  ],
  "metadata": {
    "date_backmatter": "2556-10-02",
    "date_modified": "2556-10-17",
    "date_original": "2556-10-17",
    "doctype": "ประกาศ",
    "editors": [
      {
        "name": "ปริยานุช",
        "role": "ผู้จัดทำ",
        "date": "2556-10-18"
      },
      {
        "name": "ปณตภร",
        "role": "ผู้ตรวจ",
        "date": "2556-10-21"
      }
    ],
    "tag": "a1111-2e-2556-a0119"
  }
}