{
  "pages": [
    [
      [
        "ประกาศคณะกรรมการการเลือกตั้ง",
        "เรื่อง การแบ่งเขตเลือกตั้งสมาชิกสภาเทศบาลในจังหวัดอุดรธานี"
      ]
    ],
    []
  ],
  "metadata": {
    "date_backmatter": "2551-07-29",
    "date_modified": "2551-08-22",
    "date_original": "2551-08-22",
    "doctype": "ประกาศ",
    "editors": [
      {
        "name": "ปริยานุช",
        "role": "ผู้จัดทำ",
        "date": "2551-08-25"
      }
    ],
    "tag": "a1111-2e-2551-a0119"
  }
}