{
  "pages": [
    [
      [
        "ประกาศคณะกรรมการการเลือกตั้ง",
        "เรื่อง การแบ่งเขตเลือกตั้งสมาชิกสภาเทศบาลในจังหวัดสมุทรปราการ"
      ]
    ],
    []
  ],
  "metadata": {
    "date_backmatter": "2554-11-16",
    "date_modified": "2554-12-08",
    "date_original": "2554-12-08",
    "doctype": "ประกาศ",
    "editors": [
      {
        "name": "ปริยานุช",
        "role": "ผู้จัดทำ",
        "date": "2554-12-13"
      },
      {
        "name": "ณัฐพร",
        "role": "ผู้ตรวจ",
        "date": "2554-12-13"
      }
    ],
    "tag": "a1111-2e-2554-a0033"
  }
}