{
  "pages": [
    [
      [
        "ประกาศคณะกรรมการการเลือกตั้ง",
        "เรื่อง การแบ่งเขตเลือกตั้งสมาชิกสภาเทศบาลในจังหวัดพิจิตร"
      ]
    ],
    []
  ],
  "metadata": {
    "date_backmatter": "2552-06-16",
    "date_modified": "2552-07-17",
    "date_original": "2552-07-17",
    "doctype": "ประกาศ",
    "editors": [
      {
        "name": "ปริยานุช",
        "role": "ผู้จัดทำ",
        "date": "2552-07-20"
      }
    ],
    "tag": "a1111-2e-2552-a0032"
  }
}