{
  "pages": [
    [
      [
        "ประกาศคณะกรรมการการเลือกตั้ง",
        "เรื่อง เปลี่ยนแปลงแก้ไขเขตเลือกตั้งสมาชิกสภาเทศบาลในจังหวัดเชียงราย"
      ]
    ],
    []
  ],
  "metadata": {
    "date_backmatter": "2549-10-11",
    "date_modified": "2549-10-25",
    "date_original": "2549-10-25",
    "doctype": "ประกาศ",
    "editors": [
      {
        "name": "โสรศ",
        "role": "ผู้จัดทำ",
        "date": "2549-11-03"
      }
    ],
    "tag": "a1111-2e-2549-a0075"
  }
}