{
  "pages": [
    [
      [
        "ประกาศคณะกรรมการการเลือกตั้ง",
        "เรื่อง การแบ่งเขตเลือกตั้งสมาชิกสภาเทศบาลในจังหวัดร้อยเอ็ด"
      ]
    ],
    []
  ],
  "metadata": {
    "date_backmatter": "2551-03-25",
    "date_modified": "2551-04-23",
    "date_original": "2551-04-23",
    "doctype": "ประกาศ",
    "editors": [
      {
        "name": "พัชรินทร์",
        "role": "ผู้จัดทำ",
        "date": "2551-04-25"
      }
    ],
    "tag": "a1111-2e-2551-a0036"
  }
}