{
  "pages": [
    [
      [
        "ประกาศคณะกรรมการการเลือกตั้ง",
        "เรื่อง การแบ่งเขตเลือกตั้งสมาชิกสภาเทศบาลในจังหวัดภูเก็ต"
      ]
    ],
    []
  ],
  "metadata": {
    "date_backmatter": "2555-02-09",
    "date_modified": "2555-02-21",
    "date_original": "2555-02-21",
    "doctype": "ประกาศ",
    "editors": [
      {
        "name": "ปริยานุช",
        "role": "ผู้จัดทำ",
        "date": "2555-02-22"
      },
      {
        "name": "ปณตภร",
        "role": "ผู้ตรวจ",
        "date": "2555-02-23"
      }
    ],
    "tag": "a1111-2e-2555-a0020"
  }
}