{
  "pages": [
    [
      [
        "ประกาศคณะกรรมการการเลือกตั้ง",
        "เรื่อง การแบ่งเขตเลือกตั้งสมาชิกสภาเทศบาลในจังหวัดร้อยเอ็ด"
      ]
    ],
    []
  ],
  "metadata": {
    "date_backmatter": "2557-01-15",
    "date_modified": "2557-01-27",
    "date_original": "2557-01-27",
    "doctype": "ประกาศ",
    "editors": [
      {
        "name": "ปริยานุช",
        "role": "ผู้จัดทำ",
        "date": "2557-02-03"
      },
      {
        "name": "ชาญ",
        "role": "ผู้ตรวจ",
        "date": "2557-02-20"
      }
    ],
    "tag": "a1111-2e-2557-a0024"
  }
}