{
  "pages": [
    [
      [
        "ประกาศคณะกรรมการการเลือกตั้ง",
        "เรื่อง ให้ย่นหรือขยายระยะเวลาหรืองดเว้นการดำเนินการเกี่ยวกับการเลือกตั้ง"
      ]
    ],
    []
  ],
  "metadata": {
    "date_backmatter": "2554-08-25",
    "date_modified": "2554-09-02",
    "date_original": "2554-09-02",
    "doctype": "ประกาศ",
    "editors": [
      {
        "name": "ปริยานุช",
        "role": "ผู้จัดทำ",
        "date": "2554-09-06"
      },
      {
        "name": "ณัฐวดี",
        "role": "ตรวจ",
        "date": "2554-09-06"
      }
    ],
    "tag": "a1111-2e-2554-a0019"
  }
}