{
  "pages": [
    [
      [
        "ประกาศคณะกรรมการการเลือกตั้ง",
        "เรื่อง การแบ่งเขตเลือกตั้งสมาชิกสภาเทศบาลในจังหวัดชลบุรี"
      ]
    ],
    []
  ],
  "metadata": {
    "date_backmatter": "2550-10-30",
    "date_modified": "2550-11-26",
    "date_original": "2550-11-26",
    "doctype": "ประกาศ",
    "editors": [
      {
        "name": "ปริยานุช",
        "role": "ผู้จัดทำ",
        "date": "2550-12-12"
      }
    ],
    "tag": "a1111-2e-2550-a0093"
  }
}