{
  "pages": [
    [
      [
        "ประกาศคณะกรรมการการเลือกตั้ง",
        "เรื่อง การจัดทำบัญชีรายชื่อผู้มีสิทธิเลือกตั้งสมาชิกสภาผู้แทนราษฎรเพิ่มเติม",
        "ในกรณีผู้มีสิทธิเลือกตั้งที่เคยมีชื่ออยู่ในทะเบียนบ้านในเขตเลือกตั้งเป็นเวลาติดต่อกัน",
        "ไม่น้อยกว่าเก้าสิบวันแล้วต่อมาผู้นั้นได้แจ้งย้ายออกจากเขตเลือกตั้งเดิมไปอยู่ในเขต",
        "เลือกตั้งใหม่ไม่ถึงเก้าสิบวันนับถึงวันเลือกตั้งทำให้ไม่มีชื่อในบัญชีผู้มีสิทธิเลือกตั้งในเขตเลือกตั้งเดิม",
        "หรือในเขตเลือกตั้งใหม่ หรือกรณีนายทะเบียนตรวจสอบพบว่ามีรายชื่อผู้มีสิทธิเลือกตั้งตกหล่น",
        "ไม่ตรงกับข้อเท็จจริงโดยให้ถือว่าเป็นบัญชีรายชื่อผู้มีสิทธิเลือกตั้ง (ส.ส. ๑๑) ตามพระราชบัญญัติ",
        "ประกอบรัฐธรรมนูญว่าด้วยการเลือกตั้งสมาชิกสภาผู้แทนราษฎรและสมาชิกวุฒิสภา",
        "พ.ศ. ๒๕๔๑ มาตรา ๒๔ และข้อกำหนดคณะกรรมการการเลือกตั้งว่าด้วยแนวทาง",
        "การจัดทำบัญชีรายชื่อผู้มีสิทธิเลือกตั้งสมาชิกสภาผู้แทนราษฎร ลงวันที่ ๒๐ สิงหาคม ๒๕๔๑"
      ]
    ],
    []
  ],
  "metadata": {
    "date_backmatter": "2548-02-03",
    "date_header": "2541-08-20",
    "date_modified": "2548-02-22",
    "date_original": "2548-02-22",
    "doctype": "ประกาศ",
    "editors": [
      {
        "name": "ศิรวัชร์",
        "role": "ปรับปรุง",
        "date": "2559-09-28"
      }
    ],
    "tag": "a1111-2e-2548-a0011"
  }
}