{
  "pages": [
    [
      [
        "ประกาศคณะกรรมการการเลือกตั้ง",
        "เรื่อง การแบ่งเขตเลือกตั้งสมาชิกสภาเทศบาลในจังหวัดพิษณุโลก"
      ]
    ],
    []
  ],
  "metadata": {
    "date_backmatter": "2546-03-31",
    "date_gz_old": "2546-04-17",
    "doctype": "ประกาศ",
    "editors": [
      {
        "name": "พรพิมล",
        "role": "พิมพ์",
        "date": "2546-05-27"
      },
      {
        "name": "ปาจรีย์/นิลวรรณ",
        "role": "จัดทำ",
        "date": "2546-05-29"
      }
    ],
    "tag": "a1111-2e-2546-a0038"
  }
}