{
  "pages": [
    [
      [
        "ประกาศคณะกรรมการการเลือกตั้ง",
        "เรื่อง การแบ่งเขตเลือกตั้งสมาชิกสภาเทศบาลตำบลหนองจอก",
        "อำเภอท่ายาง จังหวัดเพชรบุรี"
      ]
    ],
    []
  ],
  "metadata": {
    "date_backmatter": "2552-05-27",
    "date_modified": "2552-06-11",
    "date_original": "2552-06-11",
    "doctype": "ประกาศ",
    "editors": [
      {
        "name": "ปริยานุช",
        "role": "ผู้จัดทำ",
        "date": "2552-06-15"
      }
    ],
    "tag": "a1111-2e-2552-a0026"
  }
}