{
  "pages": [
    [
      [
        "ประกาศคณะกรรมการการเลือกตั้ง",
        "เรื่อง การแบ่งเขตเลือกตั้งสมาชิกสภาเทศบาลในจังหวัดสระแก้ว"
      ]
    ],
    []
  ],
  "metadata": {
    "date_backmatter": "2550-09-04",
    "date_modified": "2550-09-14",
    "date_original": "2550-09-14",
    "doctype": "ประกาศ",
    "editors": [
      {
        "name": "ปริยานุช",
        "role": "ผู้จัดทำ",
        "date": "2550-09-26"
      }
    ],
    "tag": "a1111-2e-2550-a0053"
  }
}