{
  "pages": [
    [
      [
        "ประกาศคณะกรรมการการเลือกตั้ง",
        "เรื่อง การแบ่งเขตเลือกตั้งสมาชิกสภาเทศบาลในจังหวัดศรีสะเกษ"
      ]
    ],
    []
  ],
  "metadata": {
    "date_backmatter": "2552-12-24",
    "date_modified": "2553-02-26",
    "date_original": "2553-02-26",
    "doctype": "ประกาศ",
    "editors": [
      {
        "name": "ปริยานุช",
        "role": "ผู้จัดทำ",
        "date": "2553-03-08"
      },
      {
        "name": "นันท์นภัสร์",
        "role": "ตรวจ",
        "date": "2553-03-08"
      }
    ],
    "tag": "a1111-2e-2553-a0032"
  }
}