{
  "pages": [
    [
      [
        "ประกาศคณะกรรมการการเลือกตั้ง",
        "เรื่อง การแบ่งเขตเลือกตั้งสมาชิกสภาเทศบาลในจังหวัดสมุทรสงคราม"
      ]
    ],
    []
  ],
  "metadata": {
    "date_backmatter": "2557-03-25",
    "date_modified": "2557-03-28",
    "date_original": "2557-03-28",
    "doctype": "ประกาศ",
    "editors": [
      {
        "name": "ปริยานุช",
        "role": "ผู้จัดทำ",
        "date": "2557-03-31"
      },
      {
        "name": "ชาญ",
        "role": "ผู้ตรวจ",
        "date": "2557-04-17"
      }
    ],
    "tag": "a1111-2e-2557-a0046"
  }
}