{
  "pages": [
    [
      [
        "ประกาศคณะกรรมการการเลือกตั้ง",
        "เรื่อง การแบ่งเขตเลือกตั้งสมาชิกสภาเทศบาลในจังหวัดเชียงใหม่"
      ]
    ],
    []
  ],
  "metadata": {
    "date_backmatter": "2555-05-31",
    "date_modified": "2555-06-08",
    "date_original": "2555-06-08",
    "doctype": "ประกาศ",
    "editors": [
      {
        "name": "ปริยานุช",
        "role": "ผู้จัดทำ",
        "date": "2555-06-11"
      },
      {
        "name": "ปณตภร",
        "role": "ผู้ตรวจ",
        "date": "2555-06-13"
      }
    ],
    "tag": "a1111-2e-2555-a0075"
  }
}