{
  "pages": [
    [
      [
        "ประกาศคณะกรรมการการเลือกตั้ง",
        "เรื่อง มอบอำนาจให้คณะกรรมการการเลือกตั้งประจำจังหวัดดำเนินการรับคำร้อง",
        "และวินิจฉัยสิทธิสมัครรับเลือกตั้งสมาชิกสภาท้องถิ่นหรือผู้บริหารท้องถิ่น",
        "พ.ศ. ๒๕๕๒"
      ]
    ],
    []
  ],
  "metadata": {
    "date_backmatter": "2552-04-28",
    "date_modified": "2552-05-13",
    "date_original": "2552-05-13",
    "doctype": "ประกาศ",
    "editors": [
      {
        "name": "ปริยานุช",
        "role": "จัดทำ",
        "date": "2552-05-19"
      },
      {
        "name": "ศิรวัชร์",
        "role": "ปรับปรุง",
        "date": "2559-10-06"
      }
    ],
    "tag": "a1111-2e-2552-a0025"
  }
}