{
  "pages": [
    [
      [
        "ประกาศคณะกรรมการการเลือกตั้ง",
        "เรื่อง การแบ่งเขตเลือกตั้งสมาชิกสภาเทศบาลในจังหวัดพิษณุโลก"
      ]
    ],
    []
  ],
  "metadata": {
    "date_backmatter": "2554-12-20",
    "date_modified": "2555-01-06",
    "date_original": "2555-01-06",
    "doctype": "ประกาศ",
    "editors": [
      {
        "name": "ปริยานุช",
        "role": "ผู้จัดทำ",
        "date": "2555-01-09"
      },
      {
        "name": "ชาญ",
        "role": "ผู้ตรวจ",
        "date": "2555-01-10"
      }
    ],
    "tag": "a1111-2e-2555-a0002"
  }
}