{
  "pages": [
    [
      [
        "ประกาศคณะกรรมการการเลือกตั้ง",
        "เรื่อง การแบ่งเขตเลือกตั้งสมาชิกสภาองค์การบริหารส่วนจังหวัดสุราษฎร์ธานี"
      ]
    ],
    []
  ],
  "metadata": {
    "date_backmatter": "2555-05-14",
    "date_modified": "2555-05-18",
    "date_original": "2555-05-18",
    "doctype": "ประกาศ",
    "editors": [
      {
        "name": "ปริยานุช",
        "role": "ผู้จัดทำ",
        "date": "2555-05-21"
      },
      {
        "name": "ปณตภร",
        "role": "ผู้ตรวจ",
        "date": "2555-05-22"
      }
    ],
    "tag": "a1111-2e-2555-a0049"
  }
}