{
  "pages": [
    [
      [
        "ประกาศคณะกรรมการการเลือกตั้ง",
        "เรื่อง การแบ่งเขตเลือกตั้งสมาชิกสภาเทศบาลในจังหวัดมหาสารคาม"
      ]
    ],
    []
  ],
  "metadata": {
    "date_backmatter": "2555-06-21",
    "date_modified": "2555-06-29",
    "date_original": "2555-06-29",
    "doctype": "ประกาศ",
    "editors": [
      {
        "name": "ปริยานุช",
        "role": "ผู้จัดทำ",
        "date": "2555-07-02"
      },
      {
        "name": "ปณตภร",
        "role": "ผู้ตรวจ",
        "date": "2555-07-03"
      }
    ],
    "tag": "a1111-2e-2555-a0093"
  }
}