{
  "pages": [
    [
      [
        "ประกาศคณะกรรมการการเลือกตั้ง",
        "เรื่อง การแบ่งเขตเลือกตั้งสมาชิกสภาเทศบาลในจังหวัดสกลนคร"
      ]
    ],
    []
  ],
  "metadata": {
    "date_backmatter": "2556-10-29",
    "date_modified": "2556-11-13",
    "date_original": "2556-11-13",
    "doctype": "ประกาศ",
    "editors": [
      {
        "name": "ปริยานุช",
        "role": "ผู้จัดทำ",
        "date": "2556-11-15"
      },
      {
        "name": "โชติกานต์",
        "role": "ผู้ตรวจ",
        "date": "2556-11-19"
      }
    ],
    "tag": "a1111-2e-2556-a0165"
  }
}