{
  "pages": [
    [
      [
        "ประกาศคณะกรรมการการเลือกตั้ง",
        "เรื่อง การแบ่งเขตเลือกตั้งสมาชิกสภาเทศบาลในจังหวัดนนทบุรี"
      ]
    ],
    []
  ],
  "metadata": {
    "date_backmatter": "2554-12-01",
    "date_modified": "2554-12-16",
    "date_original": "2554-12-16",
    "doctype": "ประกาศ",
    "editors": [
      {
        "name": "ปริยานุช",
        "role": "ผู้จัดทำ",
        "date": "2554-12-19"
      },
      {
        "name": "ชาญ",
        "role": "ผู้ตรวจ",
        "date": "2554-12-19"
      }
    ],
    "tag": "a1111-2e-2554-a0037"
  }
}