{
  "pages": [
    [
      [
        "ระเบียบคณะกรรมการการเลือกตั้ง",
        "ว่าด้วยหลักเกณฑ์และวิธีการนับคะแนนเลือกตั้งใหม่ในการเลือกตั้ง",
        "สมาชิกสภาท้องถิ่นหรือผู้บริหารท้องถิ่น",
        "พ.ศ. ๒๕๕๔"
      ]
    ],
    []
  ],
  "metadata": {
    "date_backmatter": "2554-11-08",
    "date_modified": "2554-11-11",
    "date_original": "2554-11-11",
    "editors": [
      {
        "name": "ปริยานุช",
        "role": "ผู้จัดทำ",
        "date": "2554-11-14"
      },
      {
        "name": "ปณตภร",
        "role": "ผู้ตรวจ",
        "date": "2554-11-14"
      }
    ],
    "tag": "a1111-2g-2554-a0007"
  }
}