{
  "pages": [
    [
      [
        "ประกาศคณะกรรมการการเลือกตั้ง",
        "เรื่อง การแบ่งเขตเลือกตั้งสมาชิกสภาเทศบาลในจังหวัดกาฬสินธุ์"
      ]
    ],
    []
  ],
  "metadata": {
    "date_backmatter": "2546-03-31",
    "date_gz_old": "2546-04-17",
    "doctype": "ประกาศ",
    "editors": [
      {
        "name": null,
        "role": null,
        "date": "2546-06-13"
      }
    ],
    "tag": "a1111-2e-2546-a0026"
  }
}