{
  "pages": [
    [
      [
        "ประกาศคณะกรรมการการเลือกตั้ง",
        "เรื่อง การแบ่งเขตเลือกตั้งสมาชิกสภาเทศบาลในจังหวัดสุพรรณบุรี"
      ]
    ],
    []
  ],
  "metadata": {
    "date_backmatter": "2551-06-25",
    "date_modified": "2551-07-30",
    "date_original": "2551-07-30",
    "doctype": "ประกาศ",
    "editors": [
      {
        "name": "ปริยานุช",
        "role": "ผู้จัดทำ",
        "date": "2551-07-31"
      }
    ],
    "tag": "a1111-2e-2551-a0103"
  }
}