{
  "pages": [
    [
      [
        "ประกาศคณะกรรมการการเลือกตั้ง",
        "เรื่อง การแบ่งเขตเลือกตั้งสมาชิกสภาเทศบาลในจังหวัดพระนครศรีอยุธยา"
      ]
    ],
    []
  ],
  "metadata": {
    "date_backmatter": "2555-01-18",
    "date_modified": "2555-01-27",
    "date_original": "2555-01-27",
    "doctype": "ประกาศ",
    "editors": [
      {
        "name": "ปริยานุช",
        "role": "ผู้จัดทำ",
        "date": "2555-01-30"
      },
      {
        "name": "ชาญ",
        "role": "ผู้ตรวจ",
        "date": "2555-01-31"
      }
    ],
    "tag": "a1111-2e-2555-a0008"
  }
}