{
  "pages": [
    [
      [
        "ประกาศคณะกรรมการการเลือกตั้ง",
        "เรื่อง การแบ่งเขตเลือกตั้งสมาชิกสภาองค์การบริหารส่วนจังหวัดลพบุรี"
      ]
    ],
    []
  ],
  "metadata": {
    "date_backmatter": "2555-08-30",
    "date_modified": "2555-09-12",
    "date_original": "2555-09-12",
    "doctype": "ประกาศ",
    "editors": [
      {
        "name": "ปริยานุช",
        "role": "ผู้จัดทำ",
        "date": "2555-09-13"
      },
      {
        "name": "ชาญ",
        "role": "ผู้ตรวจ",
        "date": "2555-09-14"
      }
    ],
    "tag": "a1111-2e-2555-a0166"
  }
}