{
  "pages": [
    [
      [
        "ประกาศคณะกรรมการการเลือกตั้ง",
        "เรื่อง การแบ่งเขตเลือกตั้งสมาชิกสภาองค์การบริหารส่วนจังหวัดตรัง"
      ]
    ],
    []
  ],
  "metadata": {
    "date_backmatter": "2551-05-07",
    "date_modified": "2551-06-05",
    "date_original": "2551-06-05",
    "doctype": "ประกาศ",
    "editors": [
      {
        "name": "พัชรินทร์",
        "role": "ผู้จัดทำ",
        "date": "2551-06-05"
      }
    ],
    "tag": "a1111-2e-2551-a0073"
  }
}