{
  "pages": [
    [
      [
        "ประกาศคณะกรรมการการเลือกตั้ง",
        "เรื่อง การแบ่งเขตเลือกตั้งสมาชิกสภาองค์การบริหารส่วนจังหวัดประจวบคีรีขันธ์"
      ]
    ],
    []
  ],
  "metadata": {
    "date_backmatter": "2551-03-13",
    "date_modified": "2551-04-11",
    "date_original": "2551-04-11",
    "doctype": "ประกาศ",
    "editors": [
      {
        "name": "พัชรินทร์",
        "role": "ผู้จัดทำ",
        "date": "2551-04-17"
      }
    ],
    "tag": "a1111-2e-2551-a0032"
  }
}