{
  "pages": [
    [
      [
        "ประกาศคณะกรรมการการเลือกตั้ง",
        "เรื่อง การแบ่งเขตเลือกตั้งสมาชิกสภาเทศบาลในจังหวัดพิษณุโลก"
      ]
    ],
    []
  ],
  "metadata": {
    "date_backmatter": "2555-10-17",
    "date_modified": "2555-11-02",
    "date_original": "2555-11-02",
    "doctype": "ประกาศ",
    "editors": [
      {
        "name": "ปริยานุช",
        "role": "ผู้จัดทำ",
        "date": "2555-11-05"
      },
      {
        "name": "ปณตภร",
        "role": "ผู้ตรวจ",
        "date": "2555-11-09"
      }
    ],
    "tag": "a1111-2e-2555-a0226"
  }
}