{
  "pages": [
    [
      [
        "ประกาศคณะกรรมการการเลือกตั้ง",
        "เรื่อง การแบ่งเขตเลือกตั้งสมาชิกสภาเทศบาลในจังหวัดตาก"
      ]
    ],
    []
  ],
  "metadata": {
    "date_backmatter": "2552-05-26",
    "date_modified": "2552-06-19",
    "date_original": "2552-06-19",
    "doctype": "ประกาศ",
    "editors": [
      {
        "name": "ปริยานุช",
        "role": "ผู้จัดทำ",
        "date": "2552-06-23"
      }
    ],
    "tag": "a1111-2e-2552-a0027"
  }
}