{
  "pages": [
    [
      [
        "คำสั่งกรุงเทพมหานคร",
        "ที่ ๓๒๙/๒๕๕๐",
        "เรื่อง มอบอำนาจการกำหนดสถานที่สำหรับปิดประกาศโฆษณาหาเสียงเลือกตั้งสมาชิก",
        "สภากรุงเทพมหานคร เขตจตุจักร เขตเลือกตั้งที่ ๒ ใหม่ ให้ผู้อำนวยการเขตปฏิบัติราชการแทน"
      ]
    ],
    []
  ],
  "metadata": {
    "date_backmatter": "2550-01-30",
    "date_modified": "2550-02-12",
    "date_original": "2550-02-12",
    "editors": [
      {
        "name": "โสรศ",
        "role": "จัดทำ",
        "date": "2550-02-15"
      },
      {
        "name": "ศิรวัชร์",
        "role": "ปรับปรุง",
        "date": "2559-10-10"
      }
    ],
    "tag": "a1111-2f-2550-a0001"
  }
}