{
  "pages": [
    [
      [
        "ประกาศคณะกรรมการการเลือกตั้ง",
        "เรื่อง การแบ่งเขตเลือกตั้งสมาชิกสภาเทศบาลในจังหวัดกาฬสินธุ์"
      ]
    ],
    []
  ],
  "metadata": {
    "date_backmatter": "2556-11-26",
    "date_modified": "2556-12-03",
    "date_original": "2556-12-03",
    "doctype": "ประกาศ",
    "editors": [
      {
        "name": "ปริยานุช",
        "role": "ผู้จัดทำ",
        "date": "2556-12-04"
      },
      {
        "name": "ชาญ",
        "role": "ผู้ตรวจ",
        "date": "2556-12-24"
      }
    ],
    "tag": "a1111-2e-2556-a0183"
  }
}