{
  "pages": [
    [
      [
        "ประกาศคณะกรรมการการเลือกตั้ง",
        "เรื่อง การแบ่งเขตเลือกตั้งสมาชิกสภาเทศบาลในจังหวัดฉะเชิงเทรา"
      ]
    ],
    []
  ],
  "metadata": {
    "date_backmatter": "2555-03-27",
    "date_modified": "2555-04-11",
    "date_original": "2555-04-11",
    "doctype": "ประกาศ",
    "editors": [
      {
        "name": "ปริยานุช",
        "role": "ผู้จัดทำ",
        "date": "2555-04-18"
      },
      {
        "name": "ณัฐพร",
        "role": "ผู้ตรวจ",
        "date": "2555-04-18"
      }
    ],
    "tag": "a1111-2e-2555-a0031"
  }
}