{
  "pages": [
    [
      [
        "ประกาศคณะกรรมการการเลือกตั้ง",
        "เรื่อง การแบ่งเขตเลือกตั้งสมาชิกสภาเทศบาลในจังหวัดชัยนาท"
      ]
    ],
    []
  ],
  "metadata": {
    "date_backmatter": "2556-11-05",
    "date_modified": "2556-11-20",
    "date_original": "2556-11-20",
    "doctype": "ประกาศ",
    "editors": [
      {
        "name": "ปริยานุช",
        "role": "ผู้จัดทำ",
        "date": "2556-11-21"
      },
      {
        "name": "ณัฐพร",
        "role": "ผู้ตรวจ",
        "date": "2556-11-21"
      }
    ],
    "tag": "a1111-2e-2556-a0175"
  }
}