{
  "pages": [
    [
      [
        "ประกาศคณะกรรมการการเลือกตั้ง",
        "เรื่อง การแบ่งเขตเลือกตั้งสมาชิกสภาเทศบาลในจังหวัดจันทบุรี"
      ]
    ],
    []
  ],
  "metadata": {
    "date_backmatter": "2556-10-01",
    "date_modified": "2556-10-11",
    "date_original": "2556-10-11",
    "doctype": "ประกาศ",
    "editors": [
      {
        "name": "ปริยานุช",
        "role": "ผู้จัดทำ",
        "date": "2556-10-14"
      },
      {
        "name": "ชาญ",
        "role": "ผู้ตรวจ",
        "date": "2556-10-18"
      }
    ],
    "tag": "a1111-2e-2556-a0118"
  }
}