{
  "pages": [
    [
      [
        "ประกาศคณะกรรมการการเลือกตั้ง",
        "เรื่อง การแบ่งเขตเลือกตั้งสมาชิกสภาเทศบาลในจังหวัดเพชรบูรณ์"
      ]
    ],
    []
  ],
  "metadata": {
    "date_backmatter": "2550-02-22",
    "date_modified": "2550-03-18",
    "date_original": "2550-03-18",
    "doctype": "ประกาศ",
    "editors": [
      {
        "name": "โสรศ",
        "role": "ผู้จัดทำ",
        "date": "2550-03-27"
      }
    ],
    "tag": "a1111-2e-2550-a0017"
  }
}