{
  "pages": [
    [
      [
        "ประกาศคณะกรรมการการเลือกตั้ง",
        "เรื่อง เปลี่ยนแปลงเขตเลือกตั้งสมาชิกสภาเทศบาลในจังหวัดนนทบุรี"
      ]
    ],
    []
  ],
  "metadata": {
    "date_backmatter": "2548-05-19",
    "date_modified": "2548-06-27",
    "date_original": "2548-06-27",
    "doctype": "ประกาศ",
    "editors": [],
    "tag": "a1111-2e-2548-a0020"
  }
}