{
  "pages": [
    [
      [
        "ประกาศคณะกรรมการการเลือกตั้ง",
        "เรื่อง การแบ่งเขตเลือกตั้งสมาชิกสภาเทศบาลในจังหวัดสมุทรปราการ"
      ]
    ],
    []
  ],
  "metadata": {
    "date_backmatter": "2557-05-07",
    "date_modified": "2557-05-15",
    "date_original": "2557-05-15",
    "doctype": "ประกาศ",
    "editors": [
      {
        "name": "ปริยานุช",
        "role": "ผู้จัดทำ",
        "date": "2557-05-26"
      },
      {
        "name": "จุฑามาศ",
        "role": "ผู้ตรวจ",
        "date": "2557-06-02"
      }
    ],
    "tag": "a1111-2e-2557-a0053"
  }
}