{
  "pages": [
    [
      [
        "ประกาศคณะกรรมการการเลือกตั้ง",
        "เรื่อง การแบ่งเขตเลือกตั้งสมาชิกสภาเทศบาลในจังหวัดสระบุรี"
      ]
    ],
    []
  ],
  "metadata": {
    "date_backmatter": "2549-11-24",
    "date_modified": "2549-12-08",
    "date_original": "2549-12-08",
    "doctype": "ประกาศ",
    "editors": [
      {
        "name": "โสรศ",
        "role": "ผู้จัดทำ",
        "date": "2549-12-12"
      }
    ],
    "tag": "a1111-2e-2549-a0094"
  }
}