{
  "pages": [
    [
      [
        "ประกาศคณะกรรมการการเลือกตั้ง",
        "เรื่อง การเปลี่ยนแปลงเขตเลือกตั้งสมาชิกสภาเทศบาลในจังหวัดสมุทรสาคร"
      ]
    ],
    []
  ],
  "metadata": {
    "date_backmatter": "2549-11-13",
    "date_modified": "2549-11-27",
    "date_original": "2549-11-27",
    "doctype": "ประกาศ",
    "editors": [
      {
        "name": "โสรศ",
        "role": "ผู้จัดทำ",
        "date": "2549-12-06"
      }
    ],
    "tag": "a1111-2e-2549-a0092"
  }
}