{
  "pages": [
    [
      [
        "ประกาศคณะกรรมการการเลือกตั้ง",
        "เรื่อง การแบ่งเขตเลือกตั้งสมาชิกสภาเทศบาลในจังหวัดปทุมธานี"
      ]
    ],
    []
  ],
  "metadata": {
    "date_backmatter": "2551-04-24",
    "date_modified": "2551-05-13",
    "date_original": "2551-05-13",
    "doctype": "ประกาศ",
    "editors": [
      {
        "name": "พัชรินทร์",
        "role": "ผู้จัดทำ",
        "date": "2551-05-16"
      }
    ],
    "tag": "a1111-2e-2551-a0057"
  }
}