{
  "pages": [
    [
      [
        "ประกาศคณะกรรมการการเลือกตั้ง",
        "เรื่อง การแบ่งเขตเลือกตั้งสมาชิกสภาเทศบาลในจังหวัดอุตรดิตถ์"
      ]
    ],
    []
  ],
  "metadata": {
    "date_backmatter": "2556-12-12",
    "date_modified": "2556-12-24",
    "date_original": "2556-12-24",
    "doctype": "ประกาศ",
    "editors": [
      {
        "name": "ปริยานุช",
        "role": "ผู้จัดทำ",
        "date": "2557-01-06"
      },
      {
        "name": "เอกฤทธิ์",
        "role": "ผู้ตรวจ",
        "date": "2557-02-10"
      }
    ],
    "tag": "a1111-2e-2556-a0199"
  }
}