{
  "pages": [
    [
      [
        "ประกาศคณะกรรมการการเลือกตั้ง",
        "เรื่อง การแบ่งเขตเลือกตั้งสมาชิกสภาองค์การบริหารส่วนจังหวัดแพร่"
      ]
    ],
    []
  ],
  "metadata": {
    "date_backmatter": "2555-07-12",
    "date_modified": "2555-07-30",
    "date_original": "2555-07-30",
    "doctype": "ประกาศ",
    "editors": [
      {
        "name": "ปริยานุช",
        "role": "ผู้จัดทำ",
        "date": "2555-08-06"
      },
      {
        "name": "ชาญ",
        "role": "ผู้ตรวจ",
        "date": "2555-08-07"
      }
    ],
    "tag": "a1111-2e-2555-a0126"
  }
}