{
  "pages": [
    [
      [
        "ประกาศคณะกรรมการการเลือกตั้ง",
        "เรื่อง การแบ่งเขตเลือกตั้งสมาชิกสภาเทศบาลในจังหวัดนครปฐม"
      ]
    ],
    []
  ],
  "metadata": {
    "date_backmatter": "2554-03-08",
    "date_modified": "2554-03-24",
    "date_original": "2554-03-24",
    "doctype": "ประกาศ",
    "editors": [
      {
        "name": "ปริยานุช",
        "role": "ผู้จัดทำ",
        "date": "2554-03-25"
      },
      {
        "name": "ณัฐวดี",
        "role": "ตรวจ",
        "date": "2554-03-25"
      }
    ],
    "tag": "a1111-2e-2554-a0007"
  }
}