{
  "pages": [
    [
      [
        "ประกาศคณะกรรมการการเลือกตั้ง",
        "เรื่อง การแบ่งเขตเลือกตั้งสมาชิกสภาเทศบาลในจังหวัดชลบุรี"
      ]
    ],
    []
  ],
  "metadata": {
    "date_backmatter": "2553-09-22",
    "date_modified": "2553-11-03",
    "date_original": "2553-11-03",
    "doctype": "ประกาศ",
    "editors": [
      {
        "name": "ปริยานุช",
        "role": "ผู้จัดทำ",
        "date": "2553-11-05"
      },
      {
        "name": "ณัฐวดี",
        "role": "ตรวจ",
        "date": "2553-11-05"
      }
    ],
    "tag": "a1111-2e-2553-a0125"
  }
}