{
  "pages": [
    [
      [
        "ประกาศคณะกรรมการการเลือกตั้ง",
        "เรื่อง การแบ่งเขตเลือกตั้งสมาชิกสภาเทศบาลในจังหวัดนครศรีธรรมราช"
      ]
    ],
    []
  ],
  "metadata": {
    "date_backmatter": "2556-09-02",
    "date_modified": "2556-09-06",
    "date_original": "2556-09-06",
    "doctype": "ประกาศ",
    "editors": [
      {
        "name": "ปริยานุช",
        "role": "ผู้จัดทำ",
        "date": "2556-09-10"
      },
      {
        "name": "เอกฤทธิ์",
        "role": "ผู้ตรวจ",
        "date": "2556-09-10"
      }
    ],
    "tag": "a1111-2e-2556-a0094"
  }
}