{
  "pages": [
    [
      [
        "ประกาศคณะกรรมการการเลือกตั้ง",
        "เรื่อง การแบ่งเขตเลือกตั้งสมาชิกสภาเทศบาลในจังหวัดพระนครศรีอยุธยา"
      ]
    ],
    []
  ],
  "metadata": {
    "date_backmatter": "2550-05-02",
    "date_modified": "2550-05-25",
    "date_original": "2550-05-25",
    "doctype": "ประกาศ",
    "editors": [
      {
        "name": "โสรศ",
        "role": "ผู้จัดทำ",
        "date": "2550-06-04"
      }
    ],
    "tag": "a1111-2e-2550-a0031"
  }
}