{
  "pages": [
    [
      [
        "ประกาศคณะกรรมการการเลือกตั้ง",
        "เรื่อง การแบ่งเขตเลือกตั้งสมาชิกสภาเทศบาลในจังหวัดเชียงราย"
      ]
    ],
    []
  ],
  "metadata": {
    "date_backmatter": "2557-05-27",
    "date_modified": "2557-06-05",
    "date_original": "2557-06-05",
    "doctype": "ประกาศ",
    "editors": [
      {
        "name": "ปริยานุช",
        "role": "ผู้จัดทำ",
        "date": "2557-06-11"
      },
      {
        "name": "นุสรา",
        "role": "ผู้ตรวจ",
        "date": "2557-08-14"
      }
    ],
    "tag": "a1111-2e-2557-a0060"
  }
}