{
  "pages": [
    [
      [
        "ประกาศกระทรวงการคลัง",
        "เรื่อง การเปลี่ยนแปลงอัตราดอกเบี้ยเงินกู้สำหรับโครงการตามแผนปฏิบัติการ",
        "ไทยเข้มแข็ง ๒๕๕๕ ในปีงบประมาณ พ.ศ. ๒๕๕๓ ครั้งที่ ๓ วงเงินที่ ๒",
        "งวดที่สอง วันที่ ๒๙ มิถุนายน ๒๕๕๔"
      ]
    ],
    []
  ],
  "metadata": {
    "date_backmatter": "2553-12-27",
    "date_header": "2554-06-29",
    "date_modified": "2554-01-28",
    "date_original": "2554-01-28",
    "doctype": "ประกาศ",
    "editors": [
      {
        "name": "ปริยานุช",
        "role": "ผู้จัดทำ",
        "date": "2554-02-09"
      },
      {
        "name": "ณัฐวดี",
        "role": "ตรวจ",
        "date": "2554-02-09"
      }
    ],
    "tag": "cb34-2e-2554-a0003"
  }
}