{
  "pages": [
    [
      [
        "ประกาศกระทรวงการคลัง",
        "เรื่อง การจำหน่ายพันธบัตรรัฐบาลเพื่อการปรับโครงสร้างหนี้",
        "(พ.ร.ก. ให้อำนาจกระทรวงการคลังกู้เงินฯ พ.ศ. ๒๕๕๒)",
        "ในปีงบประมาณ พ.ศ. ๒๕๕๕ ครั้งที่ ๑"
      ]
    ],
    []
  ],
  "metadata": {
    "date_backmatter": "2555-01-19",
    "date_modified": "2555-02-06",
    "date_original": "2555-02-06",
    "doctype": "ประกาศ",
    "editors": [
      {
        "name": "ปริยานุช",
        "role": "ผู้จัดทำ",
        "date": "2555-02-11"
      },
      {
        "name": "ณัฐพร",
        "role": "ผู้ตรวจ",
        "date": "2555-02-11"
      }
    ],
    "tag": "cb34-2e-2555-a0001"
  }
}