{
  "pages": [
    [
      [
        "ประกาศกระทรวงการคลัง",
        "เรื่อง การกู้เงินสำหรับโครงการตามแผนปฏิบัติการไทยเข้มแข็ง ๒๕๕๕",
        "ในปีงบประมาณ พ.ศ. ๒๕๕๓ ครั้งที่ ๑"
      ]
    ],
    []
  ],
  "metadata": {
    "date_backmatter": "2552-12-11",
    "date_modified": "2552-12-30",
    "date_original": "2552-12-30",
    "doctype": "ประกาศ",
    "editors": [
      {
        "name": "ปริยานุช",
        "role": "ผู้จัดทำ",
        "date": "2553-01-11"
      },
      {
        "name": "นันท์นภัสร์",
        "role": "ตรวจ",
        "date": "2553-01-11"
      },
      {
        "name": "ปิติวรรณ",
        "role": "ปรับปรุง",
        "date": "2561-09-03"
      }
    ],
    "tag": "cb34-2e-2552-a0002"
  }
}