{
  "pages": [
    [
      [
        "ประกาศกระทรวงการคลัง",
        "เรื่อง ผลการออกพันธบัตรรัฐบาลเพื่อการปรับโครงสร้างหนี้",
        "(พ.ร.ก. ให้อำนาจกระทรวงการคลังกู้เงินฯ พ.ศ. ๒๕๕๒)",
        "ในปีงบประมาณ พ.ศ. ๒๕๕๕ ครั้งที่ ๕"
      ]
    ],
    []
  ],
  "metadata": {
    "date_backmatter": "2555-08-22",
    "date_modified": "2555-09-01",
    "date_original": "2555-09-01",
    "doctype": "ประกาศ",
    "editors": [
      {
        "name": "ปริยานุช",
        "role": "ผู้จัดทำ",
        "date": "2555-09-04"
      },
      {
        "name": "ปณตภร",
        "role": "ผู้ตรวจ",
        "date": "2555-09-13"
      }
    ],
    "tag": "cb34-2e-2555-a0021"
  }
}