{
  "pages": [
    [
      [
        "ประกาศกระทรวงการคลัง",
        "เรื่อง การกู้เงินสำหรับโครงการตามแผนปฏิบัติการไทยเข้มแข็ง ๒๕๕๕",
        "ในปีงบประมาณ พ.ศ. ๒๕๕๓ ครั้งที่ ๓ วงเงินที่ ๑ จำนวน ๔๐,๐๐๐ ล้านบาท"
      ]
    ],
    []
  ],
  "metadata": {
    "date_backmatter": "2553-06-02",
    "date_modified": "2553-06-23",
    "date_original": "2553-06-23",
    "doctype": "ประกาศ",
    "editors": [
      {
        "name": "ปริยานุช",
        "role": "ผู้จัดทำ",
        "date": "2553-07-01"
      },
      {
        "name": "นันท์นภัสร์",
        "role": "ตรวจ",
        "date": "2553-07-01"
      },
      {
        "name": "ปิติวรรณ",
        "role": "ปรับปรุง",
        "date": "2561-09-03"
      }
    ],
    "tag": "cb34-2e-2553-a0002"
  }
}