{
  "pages": [
    [
      [
        "ข้อบังคับสภากายภาพบำบัด",
        "ว่าด้วยการเลือก และการเลือกตั้งกรรมการ",
        "พ.ศ. ๒๕๔๘"
      ]
    ],
    []
  ],
  "metadata": {
    "date_backmatter": "2548-02-24",
    "editors": [
      {
        "name": "พัชรินทร์",
        "role": "จัดทำ",
        "date": "2548-06-08"
      },
      {
        "name": "ศิรวัชร์",
        "role": "ปรับปรุง",
        "date": "2560-12-07"
      }
    ],
    "tag": "c766-2i-2548-a0001"
  }
}