{
  "pages": [
    [
      [
        "ข้อบังคับสภากายภาพบำบัด",
        "ว่าด้วยโรคซึ่งต้องห้ามมิให้เป็นสมาชิก",
        "พ.ศ. ๒๕๔๙"
      ]
    ],
    []
  ],
  "metadata": {
    "date_backmatter": "2549-05-03",
    "date_modified": "2549-06-08",
    "date_original": "2549-06-08",
    "editors": [
      {
        "name": "นันทนา",
        "role": "จัดทำ",
        "date": "2549-06-19"
      },
      {
        "name": "ศิรวัชร์",
        "role": "ปรับปรุง",
        "date": "2560-12-07"
      }
    ],
    "tag": "c766-2i-2549-a0004"
  }
}