{
  "pages": [
    [
      [
        "ข้อบังคับสภากายภาพบำบัด",
        "ว่าด้วยหลักเกณฑ์การสอบความรู้เพื่อขอขึ้นทะเบียนและรับใบอนุญาต",
        "เป็นผู้ประกอบวิชาชีพกายภาพบำบัด",
        "พ.ศ. ๒๕๔๙"
      ]
    ],
    []
  ],
  "metadata": {
    "date_backmatter": "2549-03-20",
    "date_modified": "2549-04-13",
    "date_original": "2549-04-13",
    "editors": [
      {
        "name": "นันทนา",
        "role": "จัดทำ",
        "date": "2549-04-20"
      },
      {
        "name": "ศิรวัชร์",
        "role": "ปรับปรุง",
        "date": "2560-12-07"
      }
    ],
    "tag": "c766-2i-2549-a0001"
  }
}