{
  "pages": [
    [
      [
        "ข้อบังคับสภากายภาพบำบัด",
        "ว่าด้วยการรับรองปริญญาในวิชาชีพกายภาพบำบัด",
        "ของสถาบันต่าง ๆ เพื่อประโยชน์ในการสมัครเป็นสมาชิก",
        "พ.ศ. ๒๕๕๖"
      ]
    ],
    []
  ],
  "metadata": {
    "date_backmatter": "2556-03-18",
    "date_modified": "2556-04-11",
    "date_original": "2556-04-11",
    "editors": [
      {
        "name": "ปริยานุช",
        "role": "จัดทำ",
        "date": "2556-04-17"
      },
      {
        "name": "อุษมล",
        "role": "ตรวจ",
        "date": "2556-04-19"
      },
      {
        "name": "ศิรวัชร์",
        "role": "ปรับปรุง",
        "date": "2560-12-06"
      }
    ],
    "tag": "c766-2i-2556-a0001"
  }
}