{
  "pages": [
    [
      [
        "ระเบียบคณะกรรมการพลังงานปรมาณูเพื่อสันติ",
        "ว่าด้วย วิธีการรักษาความมั่นคงปลอดภัยของวัสดุพลอยได้",
        "พ.ศ. ๒๕๕๔"
      ]
    ],
    []
  ],
  "metadata": {
    "date_backmatter": "2554-12-23",
    "date_modified": "2555-03-26",
    "date_original": "2555-03-26",
    "editors": [
      {
        "name": "ปริยานุช",
        "role": "ผู้จัดทำ",
        "date": "2555-04-02"
      },
      {
        "name": "ชาญ",
        "role": "ผู้ตรวจ",
        "date": "2555-04-10"
      }
    ],
    "tag": "be04-2g-2555-a0004"
  }
}