{
  "pages": [
    [
      [
        "พระราชบัญญัติ",
        "บำเหน็จบำนาญข้าราชการส่วนท้องถิ่น",
        "พ.ศ. ๒๕๐๐",
        "",
        "",
        "ภูมิพลอดุลยเดช ป.ร.",
        "ให้ไว้ ณ วันที่ ๑๙ พฤศจิกายน พ.ศ. ๒๕๐๐",
        "เป็นปีที่ ๑๒ ในรัชกาลปัจจุบัน"
      ]
    ],
    []
  ],
  "metadata": {
    "date_header": "2500-11-19",
    "date_modified": "2508-12-31",
    "date_original": "2500-11-19",
    "doctype": "พระราชบัญญัติ",
    "editors": [
      {
        "name": "วศิน",
        "role": "แก้ไข",
        "date": "2556-11-26"
      }
    ],
    "tag": "ba09-20-2508-002u",
    "title": "บำเหน็จบำนาญข้าราชการส่วนท้องถิ่น"
  }
}