{
  "pages": [
    [
      [
        "ประกาศคณะกรรมการคุ้มครองข้อมูลเครดิต",
        "เรื่อง กำหนดให้บริษัทบริหารสินทรัพย์ เป็นสถาบันการเงิน"
      ]
    ],
    []
  ],
  "metadata": {
    "date_backmatter": "2547-01-20",
    "date_modified": "2551-01-24",
    "date_original": "2551-01-24",
    "doctype": "ประกาศ",
    "editors": [
      {
        "name": "วฤษาย์",
        "role": "ผู้จัดทำ",
        "date": "2552-10-21"
      }
    ],
    "tag": "a1112-2e-2551-a0008"
  }
}