{
  "pages": [
    [
      [
        "ประกาศคณะกรรมการคุ้มครองข้อมูลเครดิต",
        "เรื่อง หลักเกณฑ์และวิธีการอุทธรณ์ข้อโต้แย้งตามมาตรา ๒๗"
      ]
    ],
    []
  ],
  "metadata": {
    "date_backmatter": "2558-01-09",
    "date_modified": "2560-12-13",
    "date_original": "2558-01-16",
    "doctype": "ประกาศ",
    "editors": [
      {
        "name": "พัชรภรณ์",
        "role": "ผู้จัดทำ",
        "date": "2561-02-22"
      },
      {
        "name": "นุสรา",
        "role": "ตรวจ",
        "date": "2561-11-07"
      }
    ],
    "tag": "a1112-2e-9995-update"
  }
}