{
  "pages": [
    [
      [
        "ประกาศคณะกรรมการคุ้มครองข้อมูลเครดิต",
        "เรื่อง อายุข้อมูลในการประมวลผลข้อมูล การประมวลผลข้อมูลของบริษัทข้อมูลเครดิต",
        "และการส่งข้อมูลของสมาชิก"
      ]
    ],
    []
  ],
  "metadata": {
    "date_backmatter": "2557-09-05",
    "date_modified": "2560-04-04",
    "date_original": "2557-09-19",
    "doctype": "ประกาศ",
    "editors": [
      {
        "name": "พรวิภา",
        "role": "เพิ่มเติม",
        "date": "2560-04-29"
      },
      {
        "name": "นุสรา",
        "role": "ตรวจ",
        "date": "2560-05-30"
      }
    ],
    "tag": "a1112-2e-9999-update"
  }
}