{
  "pages": [
    [
      [
        "ประกาศคณะกรรมการคุ้มครองข้อมูลเครดิต",
        "เรื่อง การเปิดเผยหรือให้ข้อมูลแก่สมาชิกหรือผู้ใช้บริการ",
        "และการให้ความยินยอมของเจ้าของข้อมูล",
        "(ฉบับที่ ๒)"
      ]
    ],
    []
  ],
  "metadata": {
    "date_backmatter": "2558-09-01",
    "date_modified": "2558-09-16",
    "date_original": "2558-09-16",
    "doctype": "ประกาศ",
    "editors": [
      {
        "name": "ปริยานุช",
        "role": "ผู้จัดทำ",
        "date": "2558-09-21"
      },
      {
        "name": "ปัญจพร",
        "role": "ผู้ตรวจ",
        "date": "2558-09-21"
      }
    ],
    "tag": "a1112-2e-2558-a0003"
  }
}