{
  "pages": [
    [
      [
        "คำสั่งกรมพัฒนาธุรกิจการค้า",
        "ที่ ๓๙/๒๕๔๖",
        "เรื่อง การจดทะเบียนบริษัทที่ประกอบธุรกิจข้อมูลเครดิต"
      ]
    ],
    []
  ],
  "metadata": {
    "date_backmatter": "2546-03-05",
    "date_modified": "2546-05-01",
    "date_original": "2546-05-01",
    "editors": [
      {
        "name": "จุฑามาศ",
        "role": "จัดทำ",
        "date": "2559-10-05"
      }
    ],
    "tag": "a1112-2f-2546-a0001"
  }
}