{
  "pages": [
    [
      [
        "ประกาศคณะกรรมการคุ้มครองข้อมูลเครดิต",
        "เรื่อง อายุข้อมูลในการประมวลผลข้อมูลเพื่อการจัดทำคะแนนเครดิตหรือรายงานเชิงสถิติ",
        "และการกำหนดหลักเกณฑ์และเงื่อนไขเกี่ยวกับการประมวลผลของบริษัทข้อมูลเครดิต"
      ]
    ],
    []
  ],
  "metadata": {
    "date_backmatter": "2559-11-08",
    "date_modified": "2560-09-18",
    "date_original": "2559-12-01",
    "doctype": "ประกาศ",
    "editors": [
      {
        "name": "พิมพ์มาดา",
        "role": "จัดทำ",
        "date": "2560-11-06"
      },
      {
        "name": "นุสรา",
        "role": "ตรวจ",
        "date": "2561-04-30"
      }
    ],
    "tag": "a1112-2e-9997-update"
  }
}