{
  "pages": [
    [
      [
        "ระเบียบกรมสรรพสามิต",
        "ว่าด้วยการเปรียบเทียบคดี พ.ศ. ๒๕๔๐ (ฉบับที่ ๒)",
        "พ.ศ. ๒๕๕๐"
      ]
    ],
    []
  ],
  "metadata": {
    "date_backmatter": "2550-06-27",
    "date_modified": "2550-08-29",
    "date_original": "2550-08-29",
    "editors": [
      {
        "name": "ปริยานุช",
        "role": "ผู้จัดทำ",
        "date": "2550-09-13"
      }
    ],
    "tag": "ca35-2g-2550-a0002"
  }
}