{
  "pages": [
    [
      [
        "ประกาศกรมสรรพสามิต",
        "เรื่อง กำหนดราคาขายสุรา เป็นเกณฑ์คำนวณมูลค่าเพื่อเสียภาษี",
        "(ฉบับที่ ๔๕) พ.ศ. ๒๕๔๒"
      ]
    ],
    []
  ],
  "metadata": {
    "date_backmatter": "2542-06-01",
    "date_gz_old": "2542-07-01",
    "doctype": "ประกาศ",
    "editors": [
      {
        "name": "อัมพิกา",
        "role": "แก้ไข",
        "date": "2545-05-28"
      }
    ],
    "tag": "ca35-2e-2542-a002"
  }
}