{
  "pages": [
    [
      [
        "ประกาศกรมสรรพสามิต",
        "เรื่อง หลักเกณฑ์ วิธีการ และเงื่อนไขการอนุญาต",
        "ให้ทำและขายสุรากลั่นชุมชน",
        "พ.ศ. ๒๕๔๖",
        "(ฉบับที่ ๒)"
      ]
    ],
    []
  ],
  "metadata": {
    "date_backmatter": "2546-12-11",
    "date_modified": "2547-03-04",
    "date_original": "2547-03-04",
    "doctype": "ประกาศ",
    "editors": [
      {
        "name": "อุษมล",
        "role": "ผู้จัดทำ",
        "date": "2556-05-22"
      },
      {
        "name": "ณัฐพร",
        "role": "ผู้ตรวจ",
        "date": "2556-05-22"
      }
    ],
    "tag": "ca35-2e-2547-a0001"
  }
}