{
  "pages": [
    [
      [
        "กฎกระทรวง",
        "กำหนดวิธีการและเงื่อนไขในการขอและการยกเว้นภาษีสุรา",
        "การเก็บ และการขนสุรา สำหรับสุราที่ส่งออกไปนอกราชอาณาจักร",
        "พ.ศ. ๒๕๕๕"
      ]
    ],
    []
  ],
  "metadata": {
    "date_backmatter": "2555-10-25",
    "date_modified": "2555-11-09",
    "date_original": "2555-11-09",
    "doctype": "กฎกระทรวง",
    "editors": [
      {
        "name": "ปริยานุช",
        "role": "ผู้จัดทำ",
        "date": "2555-11-12"
      },
      {
        "name": "ณัฐพร",
        "role": "ผู้ตรวจ",
        "date": "2555-11-12"
      }
    ],
    "tag": "ca35-2b-2555-a0003"
  }
}