{
  "pages": [
    [
      [
        "ระเบียบกรมสรรพสามิต",
        "ว่าด้วยการใช้สุราทำสินค้า",
        "พ.ศ. 2528"
      ]
    ],
    []
  ],
  "metadata": {
    "date_backmatter": "2528-12-03",
    "editors": [],
    "tag": "ca35-2g-2529-001"
  }
}