{
  "pages": [
    [
      [
        "กฎกระทรวง",
        "ฉบับที่ ๘๙ (พ.ศ. ๒๕๒๘)",
        "ออกตามความในพระราชบัญญัติสุรา พ.ศ. ๒๔๙๓"
      ]
    ],
    []
  ],
  "metadata": {
    "date_backmatter": "2528-04-05",
    "date_gz_old": "2528-04-05",
    "doctype": "กฎกระทรวง",
    "editors": [
      {
        "name": "พรพิมล/พิมพ์",
        "role": "แก้ไข",
        "date": "2545-10-08"
      }
    ],
    "tag": "ca35-2b-2528-a002"
  }
}