{
  "pages": [
    [
      [
        "ประกาศกรมสรรพสามิต",
        "เรื่อง แต่งตั้งเจ้าพนักงานสรรพสามิต พนักงานเจ้าหน้าที่และเจ้าพนักงาน",
        "ตามกฎหมายว่าด้วยสุรา ยาสูบ และไพ่ (ฉบับที่ ๓)",
        "พ.ศ. ๒๕๕๑"
      ]
    ],
    []
  ],
  "metadata": {
    "date_backmatter": "2551-01-31",
    "date_modified": "2551-02-18",
    "date_original": "2551-02-18",
    "doctype": "ประกาศ",
    "editors": [
      {
        "name": "ปริยานุช",
        "role": "ผู้จัดทำ",
        "date": "2551-02-26"
      }
    ],
    "tag": "ca35-2e-2551-a0003"
  }
}