{
  "pages": [
    [
      [
        "กฎกระทรวง",
        "ฉบับที่ ๑๑๙ (พ.ศ. ๒๕๔๔)",
        "ออกตามความในพระราชบัญญัติสุรา",
        "พ.ศ. ๒๔๙๓"
      ]
    ],
    []
  ],
  "metadata": {
    "date_backmatter": "2544-10-24",
    "date_gz_old": "2544-11-05",
    "doctype": "กฎกระทรวง",
    "editors": [
      {
        "name": "พรพิมล/พิมพ์",
        "role": "แก้ไข",
        "date": "2545-05-24"
      }
    ],
    "tag": "ca35-2b-2544-a002"
  }
}