{
  "pages": [
    [
      [
        "กฎกระทรวง",
        "ฉบับที่ ๖๕ (พ.ศ. ๒๕๑๙)",
        "ออกตามความในพระราชบัญญัติสุรา",
        "พ.ศ. ๒๔๙๓"
      ]
    ],
    []
  ],
  "metadata": {
    "date_backmatter": "2519-12-24",
    "date_gz_old": "2519-12-29",
    "doctype": "กฎกระทรวง",
    "editors": [],
    "tag": "ca35-2b-2519-065"
  }
}