{
  "pages": [
    [
      [
        "ประกาศกรมสรรพสามิต",
        "เรื่อง การใช้เครื่องหมายรับรองคุณภาพสุรา",
        "พ.ศ. ๒๕๔๙"
      ]
    ],
    []
  ],
  "metadata": {
    "date_backmatter": "2549-09-27",
    "date_modified": "2549-11-02",
    "date_original": "2549-11-02",
    "doctype": "ประกาศ",
    "editors": [
      {
        "name": "โสรศ",
        "role": "ผู้จัดทำ",
        "date": "2549-11-13"
      }
    ],
    "tag": "ca35-2e-2549-a0004"
  }
}