{
  "pages": [
    [
      [
        "กฎกระทรวง",
        "กำหนดอัตราภาษีสุราในเขตพื้นที่ประสบธรณีพิบัติ",
        "พ.ศ. ๒๕๔๘"
      ]
    ],
    []
  ],
  "metadata": {
    "date_backmatter": "2547-12-26",
    "date_modified": "2548-08-30",
    "date_original": "2548-08-30",
    "doctype": "กฎกระทรวง",
    "editors": [
      {
        "name": "ชัชสรัญ",
        "role": "ผู้จัดทำ",
        "date": "2548-09-06"
      }
    ],
    "tag": "ca35-2b-2548-a0001"
  }
}