{
  "pages": [
    [
      [
        "ประกาศกรมสรรพสามิต",
        "เรื่อง การออกใบอนุญาตขายสุรา ยาเส้น เส้น ยาสูบ และไพ่ ประจำปีเป็นการล่วงหน้า"
      ]
    ],
    []
  ],
  "metadata": {
    "date_backmatter": "2557-11-11",
    "date_modified": "2558-01-08",
    "date_original": "2558-01-08",
    "doctype": "ประกาศ",
    "editors": [
      {
        "name": "ปริยานุช",
        "role": "ผู้จัดทำ",
        "date": "2558-01-16"
      },
      {
        "name": "วันทิตา",
        "role": "ผู้ตรวจ",
        "date": "2558-02-05"
      }
    ],
    "tag": "ca35-2e-2558-a0001"
  }
}