{
  "pages": [
    [
      [
        "ประกาศของคณะปฏิวัติ",
        "ฉบับที่ ๓๒๗"
      ]
    ],
    []
  ],
  "metadata": {
    "date_backmatter": "2515-12-13",
    "date_modified": "2515-12-13",
    "date_original": "2515-12-13",
    "doctype": "ประกาศ",
    "editors": [
      {
        "name": "วชิระ",
        "role": "ปรับปรุง",
        "date": "2552-05-26"
      },
      {
        "name": "ดำรง",
        "role": "ปรับปรุง",
        "date": "2555-10-26"
      }
    ],
    "tag": "ca35-20-2515-a004"
  }
}