{
  "pages": [
    [
      [
        "กฎกระทรวง",
        "ฉบับที่ ๖๖ (พ.ศ. ๒๕๒๑)",
        "ออกตามความในพระราชบัญญัติสุรา",
        "พ.ศ. ๒๔๙๓"
      ]
    ],
    []
  ],
  "metadata": {
    "date_backmatter": "2521-03-08",
    "date_gz_old": "2521-03-09",
    "doctype": "กฎกระทรวง",
    "editors": [
      {
        "name": "จารุวรรณ",
        "role": "พิมพ์",
        "date": "2545-10-08"
      }
    ],
    "tag": "ca35-2b-2521-a0001"
  }
}