{
  "pages": [
    [
      [
        "กฎกระทรวง",
        "ฉบับที่ ๗๖ (พ.ศ. ๒๕๒๔)",
        "ออกตามความในพระราชบัญญัติสุรา",
        "พ.ศ. ๒๔๙๓"
      ]
    ],
    []
  ],
  "metadata": {
    "date_backmatter": "2524-04-28",
    "date_gz_old": "2524-04-29",
    "doctype": "กฎกระทรวง",
    "editors": [],
    "tag": "ca35-2b-2524-076"
  }
}