{
  "pages": [
    [
      [
        "ประกาศกรมสรรพสามิต",
        "เรื่อง กำหนดมูลค่าของสุราที่ทำในราชอาณาจักร",
        "เพื่อถือเป็นเกณฑ์ในการคำนวณภาษี",
        "พ.ศ. ๒๕๕๒"
      ]
    ],
    []
  ],
  "metadata": {
    "date_backmatter": "2552-05-07",
    "date_modified": "2552-05-29",
    "date_original": "2552-05-29",
    "doctype": "ประกาศ",
    "editors": [
      {
        "name": "ปริยานุช",
        "role": "ผู้จัดทำ",
        "date": "2552-06-02"
      }
    ],
    "tag": "ca35-2e-2552-a0002"
  }
}