{
  "pages": [
    [
      [
        "กฎกระทรวง",
        "ฉบับที่ ๙๑ (พ.ศ. ๒๕๒๘)",
        "ออกตามความในพระราชบัญญัติสุรา",
        "พ.ศ. ๒๔๙๓"
      ]
    ],
    []
  ],
  "metadata": {
    "date_backmatter": "2528-04-05",
    "date_gz_old": "2528-04-05",
    "doctype": "กฎกระทรวง",
    "editors": [],
    "tag": "ca35-2b-2528-091"
  }
}