{
  "pages": [
    [
      [
        "กฎกระทรวง",
        "ฉบับที่ ๕๐ (พ.ศ. ๒๕๑๕)",
        "ออกตามความในพระราชบัญญัติสุรา พ.ศ. ๒๔๙๓"
      ]
    ],
    []
  ],
  "metadata": {
    "date_backmatter": "2515-07-16",
    "date_gz_old": "2515-07-18",
    "doctype": "กฎกระทรวง",
    "editors": [
      {
        "name": "ฐาปนี",
        "role": "แก้ไข",
        "date": "2545-11-01"
      }
    ],
    "tag": "ca35-2b-2515-a0001"
  }
}