{
  "pages": [
    [
      [
        "ประกาศกรมสรรพสามิต",
        "เรื่อง หลักเกณฑ์ วิธีการ และเงื่อนไขการอนุญาต",
        "ให้ทำและขายสุรากลั่นชุมชน",
        "พ.ศ. ๒๕๕๕",
        "(ฉบับที่ ๖)"
      ]
    ],
    []
  ],
  "metadata": {
    "date_backmatter": "2555-12-21",
    "date_modified": "2556-02-14",
    "date_original": "2556-02-14",
    "doctype": "ประกาศ",
    "editors": [
      {
        "name": "ปริยานุช",
        "role": "ผู้จัดทำ",
        "date": "2556-02-15"
      },
      {
        "name": "อุษมล",
        "role": "ผู้ตรวจ",
        "date": "2556-02-22"
      }
    ],
    "tag": "ca35-2e-2556-a0001"
  }
}