{
  "pages": [
    [
      [
        "ข้อบังคับมหาวิทยาลัยเทคโนโลยีราชมงคลพระนคร",
        "ว่าด้วยการศึกษาระดับปริญญาตรี",
        "พ.ศ. ๒๕๕๐"
      ]
    ],
    []
  ],
  "metadata": {
    "date_backmatter": "2550-03-08",
    "date_modified": "2550-07-09",
    "date_original": "2550-07-09",
    "editors": [
      {
        "name": "มณฑิตา",
        "role": "ผู้จัดทำ",
        "date": "2554-02-15"
      },
      {
        "name": "วิภา",
        "role": "ตรวจ",
        "date": "2554-06-13"
      }
    ],
    "tag": "c136-2i-2550-a0003"
  }
}