{
  "pages": [
    [
      [
        "ข้อบังคับมหาวิทยาลัยเทคโนโลยีราชมงคลธัญบุรี",
        "ว่าด้วยสภาวิชาการ",
        "พ.ศ. ๒๕๔๙"
      ]
    ],
    []
  ],
  "metadata": {
    "date_backmatter": "2549-08-11",
    "date_modified": "2549-10-17",
    "date_original": "2549-10-17",
    "editors": [
      {
        "name": "มณฑิตา",
        "role": "ผู้จัดทำ",
        "date": "2554-02-15"
      },
      {
        "name": "วิภา",
        "role": "ตรวจ",
        "date": "2554-06-13"
      }
    ],
    "tag": "c136-2i-2549-a0017"
  }
}