{
  "pages": [
    [
      [
        "ระเบียบมหาวิทยาลัยเทคโนโลยีราชมงคลศรีวิชัย",
        "ว่าด้วยการเก็บเงินค่าบำรุงการศึกษา ค่าลงทะเบียน และค่าธรรมเนียมการศึกษาระดับปริญญาตรี",
        "พ.ศ. ๒๕๔๙"
      ]
    ],
    []
  ],
  "metadata": {
    "date_backmatter": "2549-11-27",
    "date_modified": "2551-12-10",
    "date_original": "2551-12-10",
    "editors": [
      {
        "name": "มณฑิตา",
        "role": "ผู้จัดทำ",
        "date": "2554-02-15"
      },
      {
        "name": "วิภา",
        "role": "ตรวจ",
        "date": "2554-06-17"
      }
    ],
    "tag": "c136-2g-9997-update"
  }
}