{
  "pages": [
    [
      [
        "ประกาศมหาวิทยาลัยเทคโนโลยีราชมงคลศรีวิชัย",
        "เรื่อง อัตราการเก็บเงินค่าสนับสนุนการจัดการศึกษา ค่าบำรุงการศึกษา ค่าลงทะเบียน",
        "และค่าธรรมเนียมการศึกษา ในการจัดการศึกษาระดับปริญญาตรี ภาคสมทบ",
        "(ฉบับที่ ๒)",
        "พ.ศ. ๒๕๔๙"
      ]
    ],
    []
  ],
  "metadata": {
    "date_backmatter": "2549-06-28",
    "date_modified": "2549-12-27",
    "date_original": "2549-12-27",
    "doctype": "ประกาศ",
    "editors": [
      {
        "name": "มณฑิตา",
        "role": "ผู้จัดทำ",
        "date": "2554-02-14"
      }
    ],
    "tag": "c136-2e-2549-a0010"
  }
}