{
  "pages": [
    [
      [
        "กฎกระทรวง",
        "จัดตั้งส่วนราชการในมหาวิทยาลัยเทคโนโลยีราชมงคลสุวรรณภูมิ",
        "กระทรวงศึกษาธิการ",
        "พ.ศ. ๒๕๔๙"
      ]
    ],
    []
  ],
  "metadata": {
    "date_backmatter": "2549-11-14",
    "date_modified": "2550-09-14",
    "date_original": "2549-11-27",
    "doctype": "กฎกระทรวง",
    "editors": [
      {
        "name": "มณฑิตา",
        "role": "ผู้จัดทำ",
        "date": "2554-02-11"
      },
      {
        "name": "วิภา",
        "role": "ตรวจ",
        "date": "2554-06-14"
      }
    ],
    "tag": "c136-2b-9997-update"
  }
}