{
  "pages": [
    [
      [
        "ประกาศมหาวิทยาลัยเทคโนโลยีราชมงคลรัตนโกสินทร์",
        "(ฉบับที่ ๒) พ.ศ. ๒๕๔๙",
        "เรื่อง อัตราค่าบำรุงการศึกษา ค่าลงทะเบียน และค่าธรรมเนียมการศึกษา",
        "ในการจัดการศึกษาระดับปริญญาตรี"
      ]
    ],
    []
  ],
  "metadata": {
    "date_backmatter": "2549-07-26",
    "date_modified": "2550-01-19",
    "date_original": "2550-01-19",
    "doctype": "ประกาศ",
    "editors": [
      {
        "name": "มณฑิตา",
        "role": "ผู้จัดทำ",
        "date": "2554-02-14"
      },
      {
        "name": "วิภา",
        "role": "ตรวจ",
        "date": "2554-06-09"
      }
    ],
    "tag": "c136-2e-2550-a0002"
  }
}