{
  "pages": [
    [
      [
        "ประกาศมหาวิทยาลัยเทคโนโลยีราชมงคลพระนคร",
        "เรื่อง อัตราการเก็บเงินรายรับในการจัดการศึกษา",
        "หลักสูตรบริหารธุรกิจมหาบัณฑิต (ภาคสมทบ)"
      ]
    ],
    []
  ],
  "metadata": {
    "date_backmatter": "2549-05-25",
    "date_modified": "2549-08-31",
    "date_original": "2549-08-31",
    "doctype": "ประกาศ",
    "editors": [
      {
        "name": "มณฑิตา",
        "role": "ผู้จัดทำ",
        "date": "2554-02-14"
      },
      {
        "name": "วิภา",
        "role": "ตรวจ",
        "date": "2554-06-09"
      }
    ],
    "tag": "c136-2e-2549-a0007"
  }
}