{
  "pages": [
    [
      [
        "พระราชกฤษฎีกา",
        "ว่าด้วยปริญญาในสาขาวิชา อักษรย่อสำหรับสาขาวิชา ครุยวิทยฐานะ เข็มวิทยฐานะ",
        "และครุยประจำตำแหน่งของมหาวิทยาลัยเทคโนโลยีราชมงคลรัตนโกสินทร์",
        "พ.ศ. ๒๕๕๑",
        "",
        "",
        "ภูมิพลอดุลยเดช ป.ร.",
        "ให้ไว้ ณ วันที่ ๒๗ ธันวาคม พ.ศ. ๒๕๕๑",
        "เป็นปีที่ ๖๓ ในรัชกาลปัจจุบัน"
      ]
    ],
    []
  ],
  "metadata": {
    "date_header": "2551-12-27",
    "date_modified": "2555-01-19",
    "date_original": "2551-12-31",
    "doctype": "พระราชกฤษฎีกา",
    "editors": [
      {
        "name": "มณฑิตา",
        "role": "ผู้จัดทำ",
        "date": "2554-02-11"
      },
      {
        "name": "วิภา",
        "role": "ตรวจ",
        "date": "2554-06-07"
      },
      {
        "name": "ณัฐพร",
        "role": "ปรับปรุง",
        "date": "2555-04-24"
      }
    ],
    "tag": "c136-2a-9994-update",
    "title": "ว่าด้วยปริญญาในสาขาวิชา อักษรย่อสำหรับสาขาวิชา ครุยวิทยฐานะ เข็มวิทยฐานะและครุยประจำตำแหน่งของมหาวิทยาลัยเทคโนโลยีราชมงคลรัตนโกสินทร์"
  }
}