{
  "pages": [
    [
      [
        "ประกาศกระทรวงศึกษาธิการ",
        "เรื่อง การแบ่งส่วนราชการในมหาวิทยาลัยเทคโนโลยีราชมงคลรัตนโกสินทร์",
        "(ฉบับที่ ๓) พ.ศ. ๒๕๖๐"
      ]
    ],
    []
  ],
  "metadata": {
    "date_backmatter": "2560-03-01",
    "date_modified": "2560-03-28",
    "date_original": "2560-03-28",
    "doctype": "ประกาศ",
    "editors": [
      {
        "name": "ภวรรณตรี",
        "role": "จัดทำ",
        "date": "2560-03-29"
      },
      {
        "name": "ปุณิกา",
        "role": "ตรวจ",
        "date": "2560-03-29"
      }
    ],
    "tag": "c136-2e-2560-a0001"
  }
}