{
  "pages": [
    [
      [
        "ระเบียบมหาวิทยาลัยเทคโนโลยีราชมงคลพระนคร",
        "ว่าด้วยการรับ - จ่ายเงินเพื่อจัดการศึกษาหลักสูตรครุศาสตร์อุตสาหกรรมมหาบัณฑิต (ภาคสมทบ)",
        "ในโครงการความร่วมมือระหว่างมหาวิทยาลัยเทคโนโลยีราชมงคลพระนคร",
        "กับมหาวิทยาลัยเทคโนโลยีพระจอมเกล้าธนบุรี",
        "พ.ศ. ๒๕๕๐"
      ]
    ],
    []
  ],
  "metadata": {
    "date_backmatter": "2550-02-20",
    "date_modified": "2550-07-09",
    "date_original": "2550-07-09",
    "editors": [
      {
        "name": "มณฑิตา",
        "role": "ผู้จัดทำ",
        "date": "2554-02-15"
      }
    ],
    "tag": "c136-2g-2550-a0008"
  }
}