{
  "pages": [
    [
      [
        "ข้อบังคับมหาวิทยาลัยเทคโนโลยีราชมงคลกรุงเทพ",
        "ว่าด้วยตราสัญลักษณ์มหาวิทยาลัยเทคโนโลยีราชมงคลกรุงเทพ",
        "พ.ศ. ๒๕๔๘"
      ]
    ],
    []
  ],
  "metadata": {
    "date_backmatter": "2548-04-21",
    "date_modified": "2548-06-22",
    "date_original": "2548-06-22",
    "editors": [
      {
        "name": "มณฑิตา",
        "role": "ผู้จัดทำ",
        "date": "2554-02-15"
      },
      {
        "name": "วิภา",
        "role": "ตรวจ",
        "date": "2554-06-10"
      }
    ],
    "tag": "c136-2i-2548-a0002"
  }
}