{
  "pages": [
    [
      [
        "ประกาศมหาวิทยาลัยเทคโนโลยีราชมงคลรัตนโกสินทร์",
        "เรื่อง อัตราค่าบำรุงการศึกษา ค่าลงทะเบียน และค่าธรรมเนียมการศึกษา",
        "ในการจัดการศึกษาหลักสูตรบริหารธุรกิจมหาบัณฑิต (ภาคสมทบ)",
        "พ.ศ. ๒๕๕๐"
      ]
    ],
    []
  ],
  "metadata": {
    "date_backmatter": "2550-02-14",
    "date_modified": "2550-05-18",
    "date_original": "2550-05-18",
    "doctype": "ประกาศ",
    "editors": [
      {
        "name": "มณฑิตา",
        "role": "ผู้จัดทำ",
        "date": "2554-02-14"
      },
      {
        "name": "วิภา",
        "role": "ตรวจ",
        "date": "2554-06-09"
      }
    ],
    "tag": "c136-2e-2550-a0004"
  }
}