{
  "pages": [
    [
      [
        "ระเบียบมหาวิทยาลัยเทคโนโลยีราชมงคลธัญบุรี",
        "ว่าด้วยการรับ - จ่ายเงินเพื่อจัดการศึกษาระดับศึกษาศาสตรมหาบัณฑิต (ภาคสมทบ)",
        "พ.ศ. ๒๕๔๘"
      ]
    ],
    []
  ],
  "metadata": {
    "date_backmatter": "2548-11-14",
    "date_modified": "2550-07-02",
    "date_original": "2550-07-02",
    "editors": [
      {
        "name": "มณฑิตา",
        "role": "ผู้จัดทำ",
        "date": "2554-02-15"
      },
      {
        "name": "วิภา",
        "role": "ตรวจ",
        "date": "2554-06-17"
      }
    ],
    "tag": "c136-2g-9998-update"
  }
}