{
  "pages": [
    [
      [
        "พระราชบัญญัติ",
        "จัดตั้งศาลปกครองนครสวรรค์",
        "พ.ศ. ๒๕๕๕",
        "",
        "",
        "ภูมิพลอดุลยเดช ป.ร.",
        "ให้ไว้ ณ วันที่ ๓๐ มีนาคม พ.ศ. ๒๕๕๕",
        "เป็นปีที่ ๖๗ ในรัชกาลปัจจุบัน"
      ]
    ],
    []
  ],
  "metadata": {
    "date_header": "2555-03-30",
    "date_modified": "2555-04-12",
    "date_original": "2555-04-12",
    "doctype": "พระราชบัญญัติ",
    "editors": [
      {
        "name": "ปริยานุช",
        "role": "ผู้จัดทำ",
        "date": "2555-04-18"
      },
      {
        "name": "ณัฐพร",
        "role": "ผู้ตรวจ",
        "date": "2555-04-18"
      }
    ],
    "tag": "a834-20-2555-a0003",
    "title": "จัดตั้งศาลปกครองนครสวรรค์"
  }
}