{
  "pages": [
    [
      [
        "ประกาศกระทรวงมหาดไทย",
        "เรื่อง กำหนดบริเวณห้ามก่อสร้าง ดัดแปลง หรือเปลี่ยนการใช้อาคารบางชนิดหรือบางประเภท",
        "ในท้องที่ตำบลบ้านเดื่อ ตำบลสีกาย ตำบลหินโงม ตำบลหาดคำ ตำบลในเมือง ตำบลโพธิ์ชัย",
        "ตำบลมีชัย ตำบลหนองกอมเกาะ ตำบลค่ายบกหวาน ตำบลเวียงคุก ตำบลพระธาตุบังพวน",
        "ตำบลโพนสว่าง อำเภอเมืองหนองคาย และตำบลสระใคร อำเภอสระใคร จังหวัดหนองคาย"
      ]
    ],
    []
  ],
  "metadata": {
    "date_backmatter": "2560-03-02",
    "date_modified": "2560-05-02",
    "date_original": "2560-05-02",
    "doctype": "ประกาศ",
    "editors": [
      {
        "name": "ปุณิกา/ภวรรณตรี",
        "role": "จัดทำ",
        "date": "2560-05-05"
      },
      {
        "name": "นุสรา",
        "role": "ตรวจ",
        "date": "2560-07-21"
      }
    ],
    "tag": "a4caaa02-2e-2560-a0031"
  }
}