{
  "pages": [
    [
      [
        "คำสั่งหัวหน้าคณะรักษาความสงบแห่งชาติ",
        "ที่ ๗๗/๒๕๕๙",
        "เรื่อง การเพิ่มประสิทธิภาพในกระบวนการพิจารณาอนุญาตผลิตภัณฑ์สุขภาพ"
      ]
    ],
    []
  ],
  "metadata": {
    "date_backmatter": "2559-12-27",
    "date_modified": "2559-12-28",
    "date_original": "2559-12-28",
    "editors": [
      {
        "name": "ชนิกา/ปริยานุช",
        "role": "จัดทำ",
        "date": "2560-01-04"
      }
    ],
    "tag": "a4caaa02-2f-2559-a0006"
  }
}