{
  "pages": [
    [
      [
        "คำสั่งหัวหน้าคณะรักษาความสงบแห่งชาติ",
        "ที่ ๕๒/๒๕๕๙",
        "เรื่อง ประกาศรายชื่อเจ้าหน้าที่ของรัฐที่อยู่ระหว่างการถูกตรวจสอบเพิ่มเติม ครั้งที่ ๗"
      ]
    ],
    []
  ],
  "metadata": {
    "date_backmatter": "2559-09-02",
    "date_modified": "2559-09-02",
    "date_original": "2559-09-02",
    "editors": [
      {
        "name": "ปริยานุช",
        "role": "จัดทำ",
        "date": "2559-09-05"
      },
      {
        "name": "ปุณิกา",
        "role": "ตรวจ",
        "date": "2559-10-05"
      }
    ],
    "tag": "a4caaa02-20-2559-a0059"
  }
}