{
  "pages": [
    [
      [
        "คำสั่งคณะรักษาความสงบแห่งชาติ",
        "ที่ ๕๖/๒๕๕๗",
        "เรื่อง แต่งตั้งคณะกรรมการกองทุนเพื่อส่งเสริมการอนุรักษ์พลังงาน"
      ]
    ],
    []
  ],
  "metadata": {
    "date_backmatter": "2557-06-06",
    "date_modified": "2557-06-13",
    "date_original": "2557-06-13",
    "editors": [
      {
        "name": "ปริยานุช",
        "role": "ผู้จัดทำ",
        "date": "2557-06-18"
      },
      {
        "name": "ปริญสินีย์",
        "role": "ผู้ตรวจ",
        "date": "2557-06-18"
      }
    ],
    "tag": "a4caaa02-20-2557-a0056"
  }
}