{
  "pages": [
    [
      [
        "คำสั่งหัวหน้าคณะรักษาความสงบแห่งชาติ",
        "ที่ ๗/๒๕๕๙",
        "เรื่อง การกำหนดตำแหน่งของข้าราชการตำรวจซึ่งมีอำนาจหน้าที่ในการสอบสวน"
      ]
    ],
    []
  ],
  "metadata": {
    "date_backmatter": "2559-02-05",
    "date_modified": "2559-02-05",
    "date_original": "2559-02-05",
    "editors": [
      {
        "name": "ปุณิกา/ปริยานุช",
        "role": "จัดทำ",
        "date": "2559-02-08"
      },
      {
        "name": "พจนา",
        "role": "ตรวจ",
        "date": "2559-02-08"
      }
    ],
    "tag": "a4caaa02-20-2559-a0010"
  }
}