{
  "pages": [
    [
      [
        "คำสั่งหัวหน้าคณะรักษาความสงบแห่งชาติ",
        "ที่ ๓๔/๒๕๖๐",
        "เรื่อง การเปลี่ยนแปลงองค์ประกอบของคณะกรรมการส่งเสริมการลงทุน",
        "ตามประกาศคณะรักษาความสงบแห่งชาติ ที่ ๑๐๕/๒๕๕๗"
      ]
    ],
    []
  ],
  "metadata": {
    "date_backmatter": "2560-07-12",
    "date_modified": "2560-07-12",
    "date_original": "2560-07-12",
    "editors": [
      {
        "name": "พิมพ์มาดา/อัญชลี",
        "role": "จัดทำ",
        "date": "2560-07-14"
      }
    ],
    "tag": "a4caaa02-2f-2560-a0003"
  }
}