{
  "pages": [
    [
      [
        "คำสั่งคณะรักษาความสงบแห่งชาติ",
        "ที่ ๘๕/๒๕๕๗",
        "เรื่อง แต่งตั้งคณะกรรมการกำหนดนโยบายและการบริหารจัดการทรัพยากรน้ำ"
      ]
    ],
    []
  ],
  "metadata": {
    "date_backmatter": "2557-07-03",
    "date_modified": "2557-07-15",
    "date_original": "2557-07-15",
    "editors": [
      {
        "name": "ปริยานุช",
        "role": "ผู้จัดทำ",
        "date": "2557-07-18"
      },
      {
        "name": "วันทิตา",
        "role": "ผู้ตรวจ",
        "date": "2557-08-03"
      }
    ],
    "tag": "a4caaa02-20-2557-a0085"
  }
}