{
  "pages": [
    [
      [
        "ประกาศจังหวัดกาญจนบุรี",
        "เรื่อง หลักเกณฑ์ในการพิจารณาอนุญาต และมาตรการป้องกันและรักษาความปลอดภัยและ",
        "การดูแลรักษาความสงบเรียบร้อยของประชาชนในการจุดและปล่อยหรือกระทำการอย่างใดเพื่อให้บั้งไฟ",
        "พลุ ตะไล โคมลอย โคมไฟ โคมควัน หรือวัตถุอื่นใดที่คล้ายคลึงกัน ขึ้นไปสู่อากาศ"
      ]
    ],
    []
  ],
  "metadata": {
    "date_backmatter": "2559-09-30",
    "date_modified": "2559-11-11",
    "date_original": "2559-11-11",
    "doctype": "ประกาศ",
    "editors": [
      {
        "name": "ปริยานุช",
        "role": "จัดทำ",
        "date": "2559-11-15"
      },
      {
        "name": "ปุณิกา",
        "role": "ตรวจ",
        "date": "2559-11-15"
      }
    ],
    "tag": "a4caaa02-2e-2559-a0089"
  }
}