{
  "pages": [
    [
      [
        "คำสั่งคณะรักษาความสงบแห่งชาติ",
        "ที่ ๑๗๕/๒๕๕๗",
        "เรื่อง แต่งตั้งคณะอนุกรรมการพิจารณาระบายข้าว"
      ]
    ],
    []
  ],
  "metadata": {
    "date_backmatter": "2557-06-06",
    "date_modified": "2557-08-29",
    "date_original": "2557-08-29",
    "editors": [
      {
        "name": "ปริยานุช",
        "role": "ผู้จัดทำ",
        "date": "2557-09-10"
      },
      {
        "name": "ภีราพร",
        "role": "ผู้ตรวจ",
        "date": "2557-10-13"
      }
    ],
    "tag": "a4caaa02-20-2557-a0175"
  }
}