{
  "pages": [
    [
      [
        "ประกาศศูนย์บัญชาการแก้ไขปัญหาการทำการประมงผิดกฎหมาย",
        "เรื่อง แต่งตั้งพนักงานเจ้าหน้าที่ (ฉบับที่ ๒)",
        "พ.ศ. ๒๕๕๘"
      ]
    ],
    []
  ],
  "metadata": {
    "date_backmatter": "2558-07-28",
    "date_modified": "2558-07-29",
    "date_original": "2558-07-29",
    "doctype": "ประกาศ",
    "editors": [
      {
        "name": "ปริยานุช",
        "role": "ผู้จัดทำ",
        "date": "2558-08-03"
      },
      {
        "name": "นุสรา",
        "role": "ผู้ตรวจ",
        "date": "2558-08-29"
      }
    ],
    "tag": "a4caaa02-2e-2558-a0011"
  }
}