{
  "pages": [
    [
      [
        "คำสั่งหัวหน้าคณะรักษาความสงบแห่งชาติ",
        "ที่ ๑๖/๒๕๕๙",
        "เรื่อง การประมูลคลื่นความถี่เพื่อกิจการโทรคมนาคม",
        "",
        "",
        "จากกรณีที่ได้มีการจัดการประมูลคลื่นความถี่ย่าน ๙๐๐ MHz ตามประกาศคณะกรรมการกิจการกระจายเสียง กิจการโทรทัศน์ และกิจการโทรคมนาคมแห่งชาติ เรื่อง หลักเกณฑ์และวิธีการอนุญาตให้ใช้คลื่นความถี่สำหรับกิจการโทรคมนาคม ย่าน ๘๙๕ - ๙๑๕ MHz/๙๔๐ - ๙๖๐ MHz ลงวันที่ ๑๘ กันยายน พ.ศ. ๒๕๕๘ ที่ผ่านมา ได้ปรากฏข้อเท็จจริงที่ผู้ชนะการประมูลไม่ดำเนินการตามข้อกำหนดในการอนุญาตให้ถูกต้องครบถ้วนภายในระยะเวลาที่กำหนด ส่งผลกระทบเสียหายต่อรัฐและการให้บริการโทรคมนาคมในช่วงคลื่นความถี่ดังกล่าวแก่ประชาชนเป็นอย่างมาก ดังนั้น เพื่อเป็นการเยียวยาและป้องกันความเสียหาย รวมทั้งเพื่อให้การประมูลคลื่นความถี่เพื่อกิจการโทรคมนาคมดังกล่าวที่ต้องดำเนินการขึ้นใหม่เป็นไปด้วยความโปร่งใส รวดเร็ว เป็นธรรม คุ้มครองผลประโยชน์ของประชาชนและรัฐเป็นหลัก ตลอดจนเพื่อเป็นการให้ประชาชนเข้าถึงบริการด้านโทรคมนาคมอย่างทั่วถึงและเท่าเทียมกัน มีการใช้ประโยชน์คลื่นความถี่อันเป็นทรัพยากรสื่อสารของชาติเพื่อประโยชน์สาธารณะ และเป็นการสนับสนุนนโยบายของรัฐบาลที่มุ่งปฏิรูปและพัฒนาเศรษฐกิจดิจิทัลในการขับเคลื่อนเศรษฐกิจของประเทศ"
      ]
    ],
    []
  ],
  "metadata": {
    "date_backmatter": "2559-04-12",
    "date_header": "2558-09-18",
    "date_modified": "2559-04-12",
    "date_original": "2559-04-12",
    "editors": [
      {
        "name": "ปริยานุช",
        "role": "จัดทำ",
        "date": "2559-04-27"
      },
      {
        "name": "ปุณิกา",
        "role": "ตรวจ",
        "date": "2559-04-29"
      }
    ],
    "tag": "a4caaa02-20-2559-a0023"
  }
}