{
  "pages": [
    [
      [
        "ประกาศจังหวัดสระบุรี",
        "เรื่อง มาตรการป้องกันและการรักษาความปลอดภัยและการดูแลรักษาความสงบเรียบร้อยของประชาชน",
        "ในการจุดและปล่อยโคมลอย โคมไฟ โคมควัน หรือวัตถุอื่นใดที่คล้ายคลึงกัน ขึ้นไปสู่อากาศ"
      ]
    ],
    []
  ],
  "metadata": {
    "date_backmatter": "2559-09-07",
    "date_modified": "2559-10-04",
    "date_original": "2559-10-04",
    "doctype": "ประกาศ",
    "editors": [
      {
        "name": "ปุณิกา/ปริยานุช",
        "role": "จัดทำ",
        "date": "2559-10-06"
      }
    ],
    "tag": "a4caaa02-2e-2559-a0040"
  }
}