{
  "pages": [
    [
      [
        "ประกาศจังหวัดกาฬสินธุ์",
        "เรื่อง มาตรการป้องกันและการรักษาความปลอดภัยและการดูแลรักษาความสงบเรียบร้อยของประชาชน",
        "ในการจุดและปล่อย หรือกระทำการอย่างใดเพื่อให้บั้งไฟ ตะไล หรือวัตถุอื่นใดที่คล้ายคลึงกัน",
        "ขึ้นไปสู่อากาศ"
      ]
    ],
    []
  ],
  "metadata": {
    "date_backmatter": "2560-03-03",
    "date_modified": "2560-04-10",
    "date_original": "2560-04-10",
    "doctype": "ประกาศ",
    "editors": [
      {
        "name": "ภวรรณตรี",
        "role": "จัดทำ",
        "date": "2560-04-18"
      },
      {
        "name": "พิมพ์มาดา",
        "role": "ตรวจ",
        "date": "2560-05-08"
      }
    ],
    "tag": "a4caaa02-2e-2560-a0026"
  }
}