{
  "pages": [
    [
      [
        "ประกาศจังหวัดสกลนคร",
        "เรื่อง มาตรการป้องกันและการรักษาความปลอดภัยและการดูแลรักษาความสงบเรียบร้อยของประชาชน",
        "ในการจุดและปล่อยพลุ หรือวัตถุอื่นใดที่คล้ายคลึงกับพลุ ขึ้นไปสู่อากาศ"
      ]
    ],
    []
  ],
  "metadata": {
    "date_backmatter": "2559-08-03",
    "date_modified": "2559-09-08",
    "date_original": "2559-09-08",
    "doctype": "ประกาศ",
    "editors": [
      {
        "name": "วิศนี/ปริยานุช",
        "role": "จัดทำ",
        "date": "2559-09-14"
      }
    ],
    "tag": "a4caaa02-2e-2559-a0025"
  }
}