{
  "pages": [
    [
      [
        "ประกาศจังหวัดเพชรบูรณ์",
        "เรื่อง มาตรการป้องกันและการรักษาความปลอดภัยและการดูแลรักษาความสงบเรียบร้อยของประชาชน",
        "ในการจุดและปล่อยหรือกระทำการอย่างใดเพื่อให้ บั้งไฟ ตะไล หรือวัตถุอื่นใดที่คล้ายคลึงกัน",
        "ขึ้นไปสู่อากาศ"
      ]
    ],
    []
  ],
  "metadata": {
    "date_backmatter": "2559-12-14",
    "date_modified": "2560-01-10",
    "date_original": "2560-01-10",
    "doctype": "ประกาศ",
    "editors": [
      {
        "name": "วริญา/ปริยานุช",
        "role": "จัดทำ",
        "date": "2560-01-12"
      },
      {
        "name": "นุสรา",
        "role": "ตรวจ",
        "date": "2560-03-13"
      }
    ],
    "tag": "a4caaa02-2e-2560-a0001"
  }
}