{
  "pages": [
    [
      [
        "ประกาศจังหวัดสิงห์บุรี",
        "เรื่อง มาตรการป้องกันและการรักษาความปลอดภัยและการดูแลรักษาความสงบเรียบร้อยของประชาชน",
        "ในการจุดและปล่อยพลุ ตะไล หรือวัตถุอื่นใดที่คล้ายคลึงกัน ขึ้นไปสู่อากาศ"
      ]
    ],
    []
  ],
  "metadata": {
    "date_backmatter": "2559-07-29",
    "date_modified": "2559-09-19",
    "date_original": "2559-09-19",
    "doctype": "ประกาศ",
    "editors": [
      {
        "name": "ชวัลพร/ปริยานุช",
        "role": "จัดทำ",
        "date": "2559-09-20"
      },
      {
        "name": "นุสรา",
        "role": "ตรวจ",
        "date": "2559-12-01"
      }
    ],
    "tag": "a4caaa02-2e-2559-a0031"
  }
}