{
  "pages": [
    [
      [
        "คำสั่งหัวหน้าคณะรักษาความสงบแห่งชาติ",
        "ที่ ๔๗/๒๕๕๙",
        "เรื่อง การดำเนินการตามคำสั่งหัวหน้าคณะรักษาความสงบแห่งชาติ ที่ ๓๓/๒๕๕๙"
      ]
    ],
    []
  ],
  "metadata": {
    "date_backmatter": "2559-08-18",
    "date_modified": "2559-08-18",
    "date_original": "2559-08-18",
    "editors": [
      {
        "name": "ปริยานุช",
        "role": "จัดทำ",
        "date": "2559-08-23"
      },
      {
        "name": "ชวัลพร",
        "role": "ตรวจ",
        "date": "2559-08-23"
      }
    ],
    "tag": "a4caaa02-20-2559-a0054"
  }
}