{
  "pages": [
    [
      [
        "คำสั่งหัวหน้าคณะรักษาความสงบแห่งชาติ",
        "ที่ ๓๘/๒๕๕๘",
        "เรื่อง แก้ไขเพิ่มเติมคำสั่งหัวหน้าคณะรักษาความสงบแห่งชาติ ที่ ๓๗/๒๕๕๘"
      ]
    ],
    []
  ],
  "metadata": {
    "date_backmatter": "2558-10-18",
    "date_modified": "2558-10-18",
    "date_original": "2558-10-18",
    "editors": [
      {
        "name": "ปริยานุช",
        "role": "จัดทำ",
        "date": "2558-10-20"
      },
      {
        "name": "วริญา",
        "role": "ตรวจ",
        "date": "2558-10-20"
      }
    ],
    "tag": "a4caaa02-20-2558-a0047"
  }
}