{
  "pages": [
    [
      [
        "คำสั่งหัวหน้าคณะรักษาความสงบแห่งชาติ",
        "ที่ ๕๘/๒๕๕๙",
        "เรื่อง การรับบริการสาธารณสุขของคนพิการ",
        "ตามกฎหมายว่าด้วยหลักประกันสุขภาพแห่งชาติและกฎหมายว่าด้วยการประกันสังคม"
      ]
    ],
    []
  ],
  "metadata": {
    "date_backmatter": "2559-09-14",
    "date_modified": "2560-10-25",
    "date_original": "2559-09-15",
    "editors": [
      {
        "name": "พิมพ์มาดา",
        "role": "จัดทำ",
        "date": "2560-10-30"
      },
      {
        "name": "วิชพงษ์",
        "role": "ตรวจ",
        "date": "2560-10-31"
      }
    ],
    "tag": "a4caaa02-20-9979-update"
  }
}