{
  "pages": [
    [
      [
        "คำสั่งหัวหน้าคณะรักษาความสงบแห่งชาติ",
        "ที่ ๗๑/๒๕๕๙",
        "เรื่อง การยกเลิกกฎหมายว่าด้วยสภาที่ปรึกษาเศรษฐกิจและสังคมแห่งชาติ",
        "กฎหมายว่าด้วยสภาพัฒนาการเมือง และกฎหมายว่าด้วยคณะกรรมการปฏิรูปกฎหมาย"
      ]
    ],
    []
  ],
  "metadata": {
    "date_backmatter": "2559-12-13",
    "date_modified": "2559-12-13",
    "date_original": "2559-12-13",
    "editors": [
      {
        "name": "ปุณิกา/ปริยานุช",
        "role": "จัดทำ",
        "date": "2559-12-15"
      },
      {
        "name": "นุสรา",
        "role": "ตรวจ",
        "date": "2559-12-21"
      }
    ],
    "tag": "a4caaa02-20-2559-a0081"
  }
}