{
  "pages": [
    [
      [
        "คำสั่งหัวหน้าคณะรักษาความสงบแห่งชาติ",
        "ที่ ๓๖/๒๕๕๙",
        "เรื่อง มาตรการในการแก้ไขปัญหาการครอบครองที่ดิน",
        "ในเขตปฏิรูปที่ดินเพื่อเกษตรกรรมโดยมิชอบกฎหมาย"
      ]
    ],
    []
  ],
  "metadata": {
    "date_backmatter": "2559-07-05",
    "date_modified": "2559-07-05",
    "date_original": "2559-07-05",
    "editors": [
      {
        "name": "กัญฑรัตน์/ปริยานุช",
        "role": "จัดทำ",
        "date": "2559-08-05"
      },
      {
        "name": "วิชพงษ์",
        "role": "ตรวจ",
        "date": "2559-08-15"
      }
    ],
    "tag": "a4caaa02-20-2559-a0043"
  }
}