{
  "pages": [
    [
      [
        "ประกาศจังหวัดแพร่",
        "เรื่อง มาตรการป้องกันและการรักษาความปลอดภัยและการดูแลรักษาความสงบเรียบร้อยของประชาชนในการจุดและปล่อย “โคมลอย โคมไฟ โคมควัน” หรือวัตถุอื่นใดที่คล้ายคลึงกัน ขึ้นไปสู่อากาศ"
      ]
    ],
    []
  ],
  "metadata": {
    "date_backmatter": "2560-05-25",
    "date_modified": "2560-07-03",
    "date_original": "2560-07-03",
    "doctype": "ประกาศ",
    "editors": [
      {
        "name": "ภวรรณตรี",
        "role": "จัดทำ",
        "date": "2560-07-11"
      },
      {
        "name": "พรวิภา",
        "role": "ตรวจ",
        "date": "2560-08-01"
      }
    ],
    "tag": "a4caaa02-2e-2560-a0043"
  }
}