{
  "pages": [
    [
      [
        "ประกาศจังหวัดอุดรธานี",
        "เรื่อง มาตรการป้องกันและการรักษาความปลอดภัยและการดูแลรักษาความสงบเรียบร้อยของประชาชน",
        "ในการจุดและปล่อย หรือกระทำการอย่างใดเพื่อให้บั้งไฟ ตะไล หรือวัตถุอื่นใดที่คล้ายคลึงกัน ขึ้นไปสู่อากาศ"
      ]
    ],
    []
  ],
  "metadata": {
    "date_backmatter": "2559-07-07",
    "date_modified": "2559-08-03",
    "date_original": "2559-08-03",
    "doctype": "ประกาศ",
    "editors": [
      {
        "name": "ปริยานุช",
        "role": "จัดทำ",
        "date": "2559-08-15"
      },
      {
        "name": "วิศนี",
        "role": "ตรวจ",
        "date": "2559-08-22"
      }
    ],
    "tag": "a4caaa02-2e-2559-a0008"
  }
}