{
  "pages": [
    [
      [
        "คำสั่งคณะรักษาความสงบแห่งชาติ",
        "ที่ ๙๒/๒๕๕๗",
        "เรื่อง การแต่งตั้งข้าราชการให้ดำรงตำแหน่ง"
      ]
    ],
    []
  ],
  "metadata": {
    "date_backmatter": "2557-07-16",
    "date_modified": "2557-07-23",
    "date_original": "2557-07-23",
    "editors": [
      {
        "name": "ปริยานุช",
        "role": "ผู้จัดทำ",
        "date": "2557-07-28"
      },
      {
        "name": "จุฑามาศ",
        "role": "ผู้ตรวจ",
        "date": "2557-08-01"
      }
    ],
    "tag": "a4caaa02-20-2557-a0092"
  }
}