{
  "pages": [
    [
      [
        "คำสั่งหัวหน้าคณะรักษาความสงบแห่งชาติ",
        "ที่ ๓/๒๕๖๐",
        "เรื่อง การขับเคลื่อนการปฏิรูปประเทศ ยุทธศาสตร์ชาติ และการสร้างความสามัคคีปรองดอง"
      ]
    ],
    []
  ],
  "metadata": {
    "date_backmatter": "2560-01-17",
    "date_modified": "2560-04-03",
    "date_original": "2560-01-17",
    "editors": [
      {
        "name": "นุสรา",
        "role": "ปรับปรุง",
        "date": "2560-04-25"
      }
    ],
    "tag": "a4caaa02-20-9983-update"
  }
}