{
  "pages": [
    [
      [
        "คำสั่งหัวหน้าคณะรักษาความสงบแห่งชาติ",
        "ที่ ๓๑/๒๕๕๙",
        "เรื่อง การแก้ไขเพิ่มเติมกฎหมายว่าด้วยป่าไม้"
      ]
    ],
    []
  ],
  "metadata": {
    "date_backmatter": "2559-06-21",
    "date_modified": "2559-06-21",
    "date_original": "2559-06-21",
    "editors": [
      {
        "name": "ปุณิกา/ปริยานุช",
        "role": "จัดทำ",
        "date": "2559-06-22"
      }
    ],
    "tag": "a4caaa02-20-2559-a0038"
  }
}