{
  "pages": [
    [
      [
        "คำสั่งหัวหน้าคณะรักษาความสงบแห่งชาติ",
        "ที่ ๒๘/๒๕๕๙",
        "เรื่อง ให้จัดการศึกษาขั้นพื้นฐาน ๑๕ ปี โดยไม่เก็บค่าใช้จ่าย"
      ]
    ],
    []
  ],
  "metadata": {
    "date_backmatter": "2559-06-15",
    "date_modified": "2559-06-15",
    "date_original": "2559-06-15",
    "editors": [
      {
        "name": "วริญา/ปริยานุช",
        "role": "จัดทำ",
        "date": "2559-06-16"
      }
    ],
    "tag": "a4caaa02-20-2559-a0035"
  }
}