{
  "pages": [
    [
      [
        "คำสั่งคณะรักษาความสงบแห่งชาติ",
        "ที่ ๒/๒๕๕๘",
        "เรื่อง แต่งตั้งคณะกรรมการขับเคลื่อนยุทธศาสตร์ของคณะรักษาความสงบแห่งชาติ"
      ]
    ],
    []
  ],
  "metadata": {
    "date_backmatter": "2558-01-09",
    "date_modified": "2558-01-14",
    "date_original": "2558-01-14",
    "editors": [
      {
        "name": "ปริยานุช",
        "role": "ผู้จัดทำ",
        "date": "2558-01-19"
      },
      {
        "name": "นุสรา",
        "role": "ผู้ตรวจ",
        "date": "2558-02-09"
      }
    ],
    "tag": "a4caaa02-20-2558-a0003"
  }
}