{
  "pages": [
    [
      [
        "ประกาศจังหวัดตรัง",
        "เรื่อง มาตรการป้องกันและการรักษาความปลอดภัยและการดูแลรักษาความสงบเรียบร้อยของประชาชน",
        "ในการจุดและปล่อยโคมลอย โคมไฟ โคมควัน หรือวัตถุอื่นใดที่คล้ายคลึงกัน ขึ้นไปสู่อากาศ"
      ]
    ],
    []
  ],
  "metadata": {
    "date_backmatter": "2559-09-30",
    "date_modified": "2559-11-11",
    "date_original": "2559-11-11",
    "doctype": "ประกาศ",
    "editors": [
      {
        "name": "ปริยานุช",
        "role": "จัดทำ",
        "date": "2559-11-15"
      },
      {
        "name": "ปุณิกา",
        "role": "ตรวจ",
        "date": "2559-11-15"
      }
    ],
    "tag": "a4caaa02-2e-2559-a0101"
  }
}