{
  "pages": [
    [
      [
        "คำสั่งหัวหน้าคณะรักษาความสงบแห่งชาติ",
        "ที่ ๕๕/๒๕๕๙",
        "เรื่อง การดำเนินการเกี่ยวกับคดีบางประเภทที่อยู่ในอำนาจศาลทหาร"
      ]
    ],
    []
  ],
  "metadata": {
    "date_backmatter": "2559-09-12",
    "date_modified": "2559-09-12",
    "date_original": "2559-09-12",
    "editors": [
      {
        "name": "ปริยานุช",
        "role": "จัดทำ",
        "date": "2559-09-19"
      },
      {
        "name": "กัญฑรัตน์",
        "role": "ตรวจ",
        "date": "2559-09-19"
      }
    ],
    "tag": "a4caaa02-20-2559-a0062"
  }
}