{
  "pages": [
    [
      [
        "คำสั่งหัวหน้าคณะรักษาความสงบแห่งชาติ",
        "ที่ ๑/๒๕๕๗",
        "เรื่อง การได้มาซึ่งสมาชิกสภาท้องถิ่นหรือผู้บริหารท้องถิ่นเป็นการชั่วคราว"
      ]
    ],
    []
  ],
  "metadata": {
    "date_backmatter": "2557-12-25",
    "date_modified": "2558-01-05",
    "date_original": "2558-01-05",
    "editors": [
      {
        "name": "ปริยานุช",
        "role": "ผู้จัดทำ",
        "date": "2558-01-09"
      },
      {
        "name": "วันทิตา",
        "role": "ผู้ตรวจ",
        "date": "2558-02-05"
      }
    ],
    "tag": "a4caaa02-20-2557-a0181"
  }
}