{
  "pages": [
    [
      [
        "คำสั่งคณะรักษาความสงบแห่งชาติ",
        "ที่ ๑/๒๕๕๗",
        "เรื่อง ให้บุคคลมารายงานตัว"
      ]
    ],
    []
  ],
  "metadata": {
    "date_backmatter": "2557-05-22",
    "date_modified": "2557-05-26",
    "date_original": "2557-05-26",
    "editors": [
      {
        "name": "ปริยานุช",
        "role": "ผู้จัดทำ",
        "date": "2557-05-29"
      },
      {
        "name": "พจนา",
        "role": "ผู้ตรวจ",
        "date": "2557-06-30"
      }
    ],
    "tag": "a4caaa02-20-2557-a0001"
  }
}