{
  "pages": [
    [
      [
        "คำสั่งหัวหน้าคณะรักษาความสงบแห่งชาติ",
        "ที่ ๑๖/๒๕๕๘",
        "เรื่อง มาตรการแก้ปัญหาเจ้าหน้าที่ของรัฐที่อยู่ระหว่างการถูกตรวจสอบ",
        "และการกำหนดกรอบอัตรากำลังชั่วคราว"
      ]
    ],
    []
  ],
  "metadata": {
    "date_backmatter": "2558-05-15",
    "date_modified": "2558-05-15",
    "date_original": "2558-05-15",
    "editors": [
      {
        "name": "ปริยานุช",
        "role": "ผู้จัดทำ",
        "date": "2558-05-18"
      },
      {
        "name": "วิชพงษ์",
        "role": "ผู้ตรวจ",
        "date": "2558-05-20"
      }
    ],
    "tag": "a4caaa02-20-2558-a0020"
  }
}