{
  "pages": [
    [
      [
        "ประกาศคณะกรรมการนโยบายการพัฒนาระเบียงเศรษฐกิจพิเศษภาคตะวันออก",
        "เรื่อง กำหนดเขตส่งเสริม : นิคมอุตสาหกรรมอมตะนคร (โครงการ ๒)"
      ]
    ],
    []
  ],
  "metadata": {
    "date_backmatter": "2561-03-26",
    "date_modified": "2561-05-07",
    "date_original": "2561-05-07",
    "doctype": "ประกาศ",
    "editors": [
      {
        "name": "พิมพ์มาดา",
        "role": "จัดทำ",
        "date": "2561-06-14"
      },
      {
        "name": "วิชพงษ์",
        "role": "ตรวจ",
        "date": "2561-06-29"
      }
    ],
    "tag": "a4caaa02-2e-2561-a0022"
  }
}