{
  "pages": [
    [
      [
        "ประกาศจังหวัดยโสธร",
        "เรื่อง มาตรการป้องกันและการรักษาความปลอดภัยและการดูแลรักษาความสงบเรียบร้อย",
        "ของประชาชนในการจุดและปล่อย หรือกระทำการอย่างใดเพื่อให้บั้งไฟ ตะไล หรือ",
        "วัตถุอื่นใดที่คล้ายคลึงกัน ขึ้นไปสู่อากาศ (ฉบับที่ ๒)",
        "พ.ศ. ๒๕๖๑"
      ]
    ],
    []
  ],
  "metadata": {
    "date_backmatter": "2561-03-21",
    "date_modified": "2561-04-04",
    "date_original": "2561-04-04",
    "doctype": "ประกาศ",
    "editors": [
      {
        "name": "ปุณิกา",
        "role": "จัดทำ",
        "date": "2561-07-31"
      }
    ],
    "tag": "a4caaa02-2e-2561-a0038"
  }
}