{
  "pages": [
    [
      [
        "คำสั่งหัวหน้าคณะรักษาความสงบแห่งชาติ",
        "ที่ ๑๐/๒๕๕๘",
        "เรื่อง การแก้ไขปัญหาการทำการประมงผิดกฎหมาย ขาดการรายงาน และไร้การควบคุม",
        "",
        "",
        "จากการที่ประเทศไทยได้รับการประกาศเตือนจากสหภาพยุโรปถึงการจัดให้มีมาตรการในการป้องกัน ยับยั้ง และขจัดการทำการประมงผิดกฎหมาย ขาดการรายงาน และไร้การควบคุม (Illegal, Unreported and Unregulated Fishing : IUU Fishing) ซึ่งหากไม่มีการแก้ปัญหาอย่างจริงจังโดยเร่งด่วนภายในหกเดือนอาจมีผลกระทบต่อการส่งออกสินค้าสัตว์น้ำของประเทศไทยในอนาคตและความมั่นคงของประเทศไทยในภาพรวม ดังนั้น เพื่อให้สามารถเร่งดำเนินการแก้ปัญหาให้การทำการประมงสามารถดำเนินการได้อย่างยั่งยืนและเป็นระบบ และยกระดับมาตรฐานการประมงของประเทศไทยให้สอดคล้องกับมาตรฐานสากล รวมทั้งเพื่อบรรเทาความเดือดร้อนของผู้ประกอบการประมง อุตสาหกรรมต่อเนื่อง และผู้มีส่วนได้ส่วนเสีย หากมิได้มีการป้องกันและแก้ไขโดยเร่งด่วน จะมีผลกระทบต่อความมั่นคงทางเศรษฐกิจของประเทศได้ เพื่อดำเนินการป้องกันและแก้ไขปัญหาดังกล่าว อาศัยอำนาจตามความในมาตรา ๔๔ ของรัฐธรรมนูญแห่งราชอาณาจักรไทย (ฉบับชั่วคราว) พุทธศักราช ๒๕๕๗ หัวหน้าคณะรักษาความสงบแห่งชาติ โดยความเห็นชอบของคณะรักษาความสงบแห่งชาติจึงมีคำสั่ง ดังต่อไปนี้"
      ]
    ],
    []
  ],
  "metadata": {
    "date_backmatter": "2558-04-29",
    "date_modified": "2560-04-04",
    "date_original": "2558-04-29",
    "editors": [
      {
        "name": "นุสรา",
        "role": "ปรับปรุง",
        "date": "2560-04-25"
      }
    ],
    "tag": "a4caaa02-20-9982-update"
  }
}