{
  "pages": [
    [
      [
        "คำสั่งคณะรักษาความสงบแห่งชาติ",
        "ที่ ๓๔/๒๕๕๗",
        "เรื่อง ให้บุคคลมารายงานตัวเพิ่มเติม"
      ]
    ],
    []
  ],
  "metadata": {
    "date_backmatter": "2557-05-29",
    "date_modified": "2557-06-02",
    "date_original": "2557-06-02",
    "editors": [
      {
        "name": "ปริยานุช",
        "role": "ผู้จัดทำ",
        "date": "2557-06-03"
      },
      {
        "name": "นุสรา",
        "role": "ผู้ตรวจ",
        "date": "2557-06-05"
      }
    ],
    "tag": "a4caaa02-20-2557-a0034"
  }
}