{
  "pages": [
    [
      [
        "คำสั่งคณะรักษาความสงบแห่งชาติ",
        "ที่ ๒๔/๒๕๕๗",
        "เรื่อง ห้ามให้มีการเล่นการพนันที่ผิดกฎหมาย"
      ]
    ],
    []
  ],
  "metadata": {
    "date_backmatter": "2557-05-26",
    "date_modified": "2557-05-30",
    "date_original": "2557-05-30",
    "editors": [
      {
        "name": "ปริยานุช",
        "role": "ผู้จัดทำ",
        "date": "2557-06-02"
      },
      {
        "name": "พจนา",
        "role": "ผู้ตรวจ",
        "date": "2557-07-02"
      }
    ],
    "tag": "a4caaa02-20-2557-a0024"
  }
}