{
  "pages": [
    [
      [
        "ประกาศจังหวัดตาก",
        "เรื่อง มาตรการป้องกันและการรักษาความปลอดภัยและการดูแลรักษาความสงบเรียบร้อยของประชาชน",
        "ในการจุดและปล่อยพลุ หรือวัตถุอื่นใดที่คล้ายคลึงกับพลุ ขึ้นไปสู่อากาศ"
      ]
    ],
    []
  ],
  "metadata": {
    "date_backmatter": "2559-12-14",
    "date_modified": "2560-01-23",
    "date_original": "2560-01-23",
    "doctype": "ประกาศ",
    "editors": [
      {
        "name": "พรวิภา/ปริยานุช",
        "role": "จัดทำ",
        "date": "2560-01-27"
      },
      {
        "name": "ปริญสินีย์",
        "role": "ตรวจ",
        "date": "2560-02-20"
      }
    ],
    "tag": "a4caaa02-2e-2560-a0006"
  }
}