{
  "pages": [
    [
      [
        "ประกาศกระทรวงสาธารณสุข",
        "เรื่อง อัตราค่าขึ้นบัญชีสูงสุดที่จะจัดเก็บจากผู้เชี่ยวชาญ องค์กรผู้เชี่ยวชาญ หน่วยงานของรัฐ",
        "หรือองค์กรเอกชนทั้งในประเทศและต่างประเทศ ที่ทำหน้าที่ในการประเมินเอกสารทางวิชาการ",
        "การตรวจวิเคราะห์ การตรวจสถานประกอบการ หรือการตรวจสอบผลิตภัณฑ์ยา",
        "พ.ศ. ๒๕๖๐"
      ]
    ],
    []
  ],
  "metadata": {
    "date_backmatter": "2560-06-09",
    "date_modified": "2560-08-04",
    "date_original": "2560-08-04",
    "doctype": "ประกาศ",
    "editors": [
      {
        "name": "พรวิภา/ภวรรณตรี",
        "role": "จัดทำ",
        "date": "2560-08-08"
      }
    ],
    "tag": "a4caaa02-2e-2560-a0055"
  }
}