{
  "pages": [
    [
      [
        "คำสั่งหัวหน้าคณะรักษาความสงบแห่งชาติ",
        "ที่ ๒/๒๕๖๑",
        "เรื่อง การจัดสรรภารกิจและบุคลากรของสำนักงานทรัพยากรน้ำแห่งชาติ"
      ]
    ],
    []
  ],
  "metadata": {
    "date_backmatter": "2561-01-22",
    "date_modified": "2561-01-22",
    "date_original": "2561-01-22",
    "editors": [
      {
        "name": "พรวิภา",
        "role": "จัดทำ",
        "date": "2561-01-21"
      }
    ],
    "tag": "a4caaa02-20-2561-a0002"
  }
}