{
  "pages": [
    [
      [
        "คำสั่งหัวหน้าคณะรักษาความสงบแห่งชาติ",
        "ที่ ๒/๒๕๕๙",
        "เรื่อง การแก้ไขปัญหาการปฏิบัติหน้าที่ของคณะกรรมการกองทุนสนับสนุนการสร้างเสริมสุขภาพ",
        "เป็นการชั่วคราว"
      ]
    ],
    []
  ],
  "metadata": {
    "date_backmatter": "2559-01-18",
    "date_modified": "2559-01-18",
    "date_original": "2559-01-18",
    "editors": [
      {
        "name": "ปริยานุช",
        "role": "จัดทำ",
        "date": "2559-01-21"
      },
      {
        "name": "วริญา",
        "role": "ตรวจ",
        "date": "2559-01-22"
      }
    ],
    "tag": "a4caaa02-20-2559-a0005"
  }
}