{
  "pages": [
    [
      [
        "คำสั่งคณะรักษาความสงบแห่งชาติ",
        "ที่ ๑๓/๒๕๕๗",
        "เรื่อง ให้บุคคลมารายงานตัวเพิ่มเติม"
      ]
    ],
    []
  ],
  "metadata": {
    "date_backmatter": "2557-05-24",
    "date_modified": "2557-05-28",
    "date_original": "2557-05-28",
    "editors": [
      {
        "name": "ปริยานุช",
        "role": "ผู้จัดทำ",
        "date": "2557-05-29"
      },
      {
        "name": "พจนา",
        "role": "ผู้ตรวจ",
        "date": "2557-07-01"
      }
    ],
    "tag": "a4caaa02-20-2557-a0013"
  }
}