{
  "pages": [
    [
      [
        "คำสั่งคณะรักษาความสงบแห่งชาติ",
        "ที่ ๕๒/๒๕๕๗",
        "เรื่อง ให้บุคคลมารายงานตัวเพิ่มเติม"
      ]
    ],
    []
  ],
  "metadata": {
    "date_backmatter": "2557-06-08",
    "date_modified": "2557-06-12",
    "date_original": "2557-06-12",
    "editors": [
      {
        "name": "ปริยานุช",
        "role": "ผู้จัดทำ",
        "date": "2557-06-18"
      },
      {
        "name": "ปริญสินีย์",
        "role": "ผู้ตรวจ",
        "date": "2557-06-18"
      }
    ],
    "tag": "a4caaa02-20-2557-a0052"
  }
}