{
  "pages": [
    [
      [
        "คำสั่งกรมเจ้าท่า",
        "ที่ ๙๐๖/๒๕๕๙",
        "เรื่อง มอบหมายอำนาจให้พนักงานสอบสวนดำเนินการเปรียบเทียบและกำหนดหลักเกณฑ์และเงื่อนไข",
        "ในการเปรียบเทียบตามคำสั่งหัวหน้าคณะรักษาความสงบแห่งชาติ"
      ]
    ],
    []
  ],
  "metadata": {
    "date_backmatter": "2559-10-17",
    "date_modified": "2559-11-18",
    "date_original": "2559-11-18",
    "editors": [
      {
        "name": "ปริยานุช",
        "role": "จัดทำ",
        "date": "2559-11-22"
      },
      {
        "name": "วิศนี",
        "role": "ตรวจ",
        "date": "2559-11-22"
      }
    ],
    "tag": "a4caaa02-2f-2559-a0005"
  }
}