{
  "pages": [
    [
      [
        "ระเบียบสภาเกษตรกรแห่งชาติ",
        "ว่าด้วยหลักเกณฑ์ วิธีการและเงื่อนไขการเลือกตั้งสมาชิกสภาเกษตรกรจังหวัด",
        "และสมาชิกสภาเกษตรกรแห่งชาติ พ.ศ. ๒๕๕๙"
      ]
    ],
    []
  ],
  "metadata": {
    "date_backmatter": "2559-01-14",
    "date_modified": "2559-02-04",
    "date_original": "2559-02-04",
    "editors": [
      {
        "name": "ปริยานุช",
        "role": "จัดทำ",
        "date": "2559-02-08"
      },
      {
        "name": "ปุณิกา",
        "role": "ตรวจ",
        "date": "2559-02-08"
      },
      {
        "name": "ชุติมา",
        "role": "ปรับปรุง",
        "date": "2561-03-06"
      }
    ],
    "tag": "ca84-2g-2559-a0001"
  }
}