{
  "pages": [
    [
      [
        "ประกาศกระทรวงเกษตรและสหกรณ์",
        "เรื่อง หลักเกณฑ์ วิธีการและเงื่อนไขการรับขึ้นทะเบียนองค์กรเกษตรกร"
      ]
    ],
    []
  ],
  "metadata": {
    "date_backmatter": "2553-12-16",
    "date_modified": "2553-12-24",
    "date_original": "2553-12-24",
    "doctype": "ประกาศ",
    "editors": [
      {
        "name": "ปริยานุช",
        "role": "ผู้จัดทำ",
        "date": "2553-12-28"
      },
      {
        "name": "ณัฐวดี",
        "role": "ตรวจ",
        "date": "2553-12-28"
      }
    ],
    "tag": "ca84-2e-2553-a0002"
  }
}