{
  "pages": [
    [
      [
        "ประกาศสำนักงานปลัดกระทรวงเกษตรและสหกรณ์",
        "เรื่อง หลักเกณฑ์ วิธีการและเงื่อนไขการจัดพิมพ์บัญชีรายชื่อเกษตรกรผู้มีสิทธิเลือกตั้ง",
        "สมาชิกสภาเกษตรกรจังหวัดชุดแรก"
      ]
    ],
    []
  ],
  "metadata": {
    "date_backmatter": "2553-12-29",
    "date_modified": "2554-01-14",
    "date_original": "2554-01-14",
    "doctype": "ประกาศ",
    "editors": [
      {
        "name": "ปริยานุช",
        "role": "ผู้จัดทำ",
        "date": "2554-01-25"
      },
      {
        "name": "ณัฐวดี",
        "role": "ตรวจ",
        "date": "2554-01-25"
      },
      {
        "name": "ชุติมา",
        "role": "ปรับปรุง",
        "date": "2561-02-28"
      }
    ],
    "tag": "ca84-2e-2554-a0002"
  }
}