{
  "pages": [
    [
      [
        "พระราชบัญญัติ",
        "เครื่องราชอิสสริยาภรณ์จุลจอมเกล้า",
        "พุทธศักราช ๒๔๘๔",
        "",
        "",
        "ในพระปรมาภิไธยสมเด็จพระเจ้าอยู่หัวอานันทมหิดล",
        "คณะผู้สำเร็จราชการแทนพระองค์",
        "(ตามประกาศประธานสภาผู้แทนราษฏร",
        "ลงวันที่ ๔ สิงหาคม พุทธศักราช ๒๔๘๐)",
        "อาทิตย์ ทิพอาภา",
        "พล.อ. พิชเยนทรโยธิน",
        "ตราไว้ ณ วันที่ ๒๔ ตุลาคม พุทธศักราช ๒๔๘๔",
        "เป็นปีที่ ๘ ในรัชกาลปัจจุบัน"
      ]
    ],
    []
  ],
  "metadata": {
    "date_header": "2480-08-04",
    "date_modified": "2484-11-12",
    "date_original": "2484-11-12",
    "doctype": "พระราชบัญญัติ",
    "editors": [
      {
        "name": "สัญชัย",
        "role": "ผู้จัดทำ",
        "date": "2552-09-07"
      },
      {
        "name": "วิมล",
        "role": "ปรับปรุง",
        "date": "2556-11-11"
      },
      {
        "name": "ณัฐพร",
        "role": "ตรวจ",
        "date": "2556-12-20"
      }
    ],
    "tag": "a499-20-2484-a0001",
    "title": "เครื่องราชอิสสริยาภรณ์จุลจอมเกล้า"
  }
}