{
  "pages": [
    [
      [
        "กฎกระทรวง",
        "ฉบับที่ ๑๑ (พ.ศ. ๒๕๓๔)",
        "ออกตามความในพระราชบัญญัติระเบียบข้าราชการทหาร",
        "พ.ศ. ๒๕๒๑"
      ]
    ],
    []
  ],
  "metadata": {
    "date_backmatter": "2532-01-01",
    "date_modified": "2534-12-05",
    "date_original": "2534-12-05",
    "doctype": "กฎกระทรวง",
    "editors": [
      {
        "name": "นันทพล",
        "role": "ปรับปรุง",
        "date": "2550-03-21"
      }
    ],
    "tag": "c336-2b-2534-011"
  }
}