{
  "pages": [
    [
      [
        "พระราชบัญญัติ",
        "ระเบียบข้าราชการทหาร",
        "พ.ศ. ๒๕๒๑",
        "",
        "",
        "ภูมิพลอดุลยเดช ป.ร.",
        "ให้ไว้ ณ วันที่ ๑๕ เมษายน พ.ศ. ๒๕๒๑",
        "เป็นปีที่ ๓๓ ในรัชกาลปัจจุบัน"
      ]
    ],
    []
  ],
  "metadata": {
    "date_header": "2521-04-15",
    "date_modified": "2556-04-23",
    "date_original": "2521-04-20",
    "doctype": "พระราชบัญญัติ",
    "editors": [
      {
        "name": "ปณตภร",
        "role": "ผู้จัดทำ",
        "date": "2557-04-02"
      }
    ],
    "tag": "c336-20-2556-a0003",
    "title": "ระเบียบข้าราชการทหาร"
  }
}