{
  "pages": [
    [
      [
        "พระราชบัญญัติ",
        "ระเบียบข้าราชการทหาร (ฉบับที่ ๑๐)",
        "พ.ศ. ๒๕๕๘",
        "",
        "",
        "ภูมิพลอดุลยเดช ป.ร.",
        "ให้ไว้ ณ วันที่ ๑๘ พฤษภาคม พ.ศ. ๒๕๕๘",
        "เป็นปีที่ ๗๐ ในรัชกาลปัจจุบัน"
      ]
    ],
    []
  ],
  "metadata": {
    "date_header": "2558-05-18",
    "date_modified": "2558-05-21",
    "date_original": "2558-05-21",
    "doctype": "พระราชบัญญัติ",
    "editors": [
      {
        "name": "ปริยานุช",
        "role": "ผู้จัดทำ",
        "date": "2558-05-22"
      },
      {
        "name": "วริญา",
        "role": "ผู้ตรวจ",
        "date": "2558-05-25"
      }
    ],
    "tag": "c336-20-2558-a0001",
    "title": "ระเบียบข้าราชการทหาร (ฉบับที่ ๑๐)"
  }
}