{
  "pages": [
    [
      [
        "พระราชบัญญัติ",
        "ระเบียบข้าราชการทหาร (ฉบับที่ ๓)",
        "พ.ศ. ๒๕๓๑",
        "",
        "",
        "ภูมิพลอดุลยเดช ป.ร.",
        "ให้ไว้ ณ วันที่ ๕ พฤศจิกายน พ.ศ. ๒๕๓๑",
        "เป็นปีที่ ๔๓ ในรัชกาลปัจจุบัน"
      ]
    ],
    []
  ],
  "metadata": {
    "date_header": "2531-11-05",
    "date_modified": "2531-11-07",
    "date_original": "2531-11-07",
    "doctype": "พระราชบัญญัติ",
    "editors": [
      {
        "name": "สัญชัย",
        "role": "จัดทำ",
        "date": "2552-05-19"
      },
      {
        "name": "ฐิติพร",
        "role": "ปรับปรุง",
        "date": "2556-11-29"
      },
      {
        "name": "ปณตภร",
        "role": "ตรวจ",
        "date": "2557-04-02"
      }
    ],
    "tag": "c336-20-2531-003",
    "title": "ระเบียบข้าราชการทหาร (ฉบับที่ ๓)"
  }
}