{
  "pages": [
    [
      [
        "กฎกระทรวง",
        "กำหนดหลักเกณฑ์และวิธีการบรรจุบุคคลเข้ารับราชการ",
        "เป็นข้าราชการทหารและการให้ได้รับเงินเดือน",
        "พ.ศ. ๒๕๕๕"
      ]
    ],
    []
  ],
  "metadata": {
    "date_backmatter": "2555-06-08",
    "date_modified": "2557-05-01",
    "date_original": "2555-06-08",
    "doctype": "กฎกระทรวง",
    "editors": [
      {
        "name": "ปณตภร",
        "role": "ผู้จัดทำ",
        "date": "2557-06-11"
      }
    ],
    "tag": "c336-2b-9998-update"
  }
}