{
  "pages": [
    [
      [
        "ประกาศกระทรวงการคลัง",
        "เรื่อง กำหนดคุณสมบัติสารละลายประเภทไฮโดรคาร์บอน (Hydrocarbon Solvent)",
        "พ.ศ. ๒๕๕๒"
      ]
    ],
    []
  ],
  "metadata": {
    "date_backmatter": "2552-09-21",
    "date_modified": "2552-12-21",
    "date_original": "2552-12-21",
    "doctype": "ประกาศ",
    "editors": [
      {
        "name": "ปริยานุช",
        "role": "ผู้จัดทำ",
        "date": "2553-01-07"
      },
      {
        "name": "นันท์นภัสร์",
        "role": "ตรวจ",
        "date": "2553-01-07"
      }
    ],
    "tag": "c007-2e-2552-a0148"
  }
}