{
  "pages": [
    [
      [
        "ประกาศกระทรวงการคลัง",
        "เรื่อง กำหนดหลักเกณฑ์และเงื่อนไขการเลื่อนหรือขยายกำหนดเวลา",
        "ตามพระราชบัญญัติภาษีสรรพสามิต",
        "พ.ศ. ๒๕๖๐"
      ]
    ],
    []
  ],
  "metadata": {
    "date_backmatter": "2560-09-16",
    "date_modified": "2560-09-16",
    "date_original": "2560-09-16",
    "doctype": "ประกาศ",
    "editors": [
      {
        "name": "ปวันวิทย์/ภวรรณตรี",
        "role": "จัดทำ",
        "date": "2560-09-27"
      }
    ],
    "tag": "c007-2e-2560-a0105"
  }
}