{
  "pages": [
    [
      [
        "ประกาศกรมสรรพสามิต",
        "เรื่อง ลักษณะเครื่องหมายแสดงการเสียภาษีจดทะเบียน",
        "(ฉบับที่ ๘๒/๒๕๕๖)"
      ]
    ],
    []
  ],
  "metadata": {
    "date_backmatter": "2556-08-09",
    "date_modified": "2557-01-02",
    "date_original": "2557-01-02",
    "doctype": "ประกาศ",
    "editors": [
      {
        "name": "ปริยานุช",
        "role": "ผู้จัดทำ",
        "date": "2557-03-04"
      },
      {
        "name": "ชาญ",
        "role": "ผู้ตรวจ",
        "date": "2557-03-12"
      }
    ],
    "tag": "c007-2e-2557-a0025"
  }
}