{
  "pages": [
    [
      [
        "ประกาศกระทรวงการคลัง",
        "เรื่อง กำหนดองค์การสาธารณกุศล ตามมาตรา ๑๐๒ (๑) (๒)",
        "แห่งพระราชบัญญัติภาษีสรรพสามิต พ.ศ. ๒๕๒๗ และมาตรา ๑๐๒ ทวิ (๑) (๒)",
        "แห่งพระราชบัญญัติภาษีสรรพสามิต พ.ศ. ๒๕๒๗ ซึ่งแก้ไขเพิ่มเติมโดย",
        "พระราชบัญญัติภาษีสรรพสามิต (ฉบับที่ ๒)",
        "พ.ศ. ๒๕๓๔"
      ]
    ],
    []
  ],
  "metadata": {
    "date_backmatter": "2549-03-28",
    "date_modified": "2557-12-30",
    "date_original": "2549-04-27",
    "doctype": "ประกาศ",
    "editors": [
      {
        "name": "ปณตภร",
        "role": "ผู้จัดทำ",
        "date": "2557-04-17"
      },
      {
        "name": "กฤษดายุทธ",
        "role": "เพิ่มเติม",
        "date": "2557-08-13"
      },
      {
        "name": "วิศนี",
        "role": "เพิ่มเติม",
        "date": "2558-01-20"
      }
    ],
    "tag": "c007-2e-2557-a0274"
  }
}