{
  "pages": [
    [
      [
        "ประกาศกรมสรรพสามิต",
        "เรื่อง การกำหนดหลักเกณฑ์ วิธีการ และเงื่อนไขในการแจ้งราคาขายปลีกแนะนำ",
        "และราคาค่าบริการ พ.ศ. ๒๕๖๐ (ฉบับที่ ๒)"
      ]
    ],
    []
  ],
  "metadata": {
    "date_backmatter": "2561-02-27",
    "date_modified": "2561-05-24",
    "date_original": "2561-05-24",
    "doctype": "ประกาศ",
    "editors": [
      {
        "name": "พัชรภรณ์",
        "role": "จัดทำ",
        "date": "2561-06-28"
      }
    ],
    "tag": "c007-2e-2561-a0112"
  }
}