{
  "pages": [
    [
      [
        "ประกาศกระทรวงการคลัง",
        "เรื่อง ขยายกำหนดเวลาการปฏิบัติตามพระราชบัญญัติภาษีสรรพสามิต",
        "พ.ศ. ๒๕๒๗"
      ]
    ],
    []
  ],
  "metadata": {
    "date_backmatter": "2559-09-29",
    "date_modified": "2559-10-27",
    "date_original": "2559-10-27",
    "doctype": "ประกาศ",
    "editors": [
      {
        "name": "ปริยานุช",
        "role": "จัดทำ",
        "date": "2559-11-02"
      },
      {
        "name": "ชวัลพร",
        "role": "ตรวจ",
        "date": "2559-11-15"
      }
    ],
    "tag": "c007-2e-2559-a0211"
  }
}