{
  "pages": [
    [
      [
        "ประกาศกระทรวงการคลัง",
        "เรื่อง กำหนดสินค้าที่ผู้ประกอบอุตสาหกรรมอาจขอชำระภาษี",
        "ภายในวันที่สิบห้าของเดือนถัดจากเดือนที่นำสินค้าออกจาก",
        "โรงอุตสาหกรรมหรือคลังสินค้าทัณฑ์บนโดยมีหลักประกัน"
      ]
    ],
    []
  ],
  "metadata": {
    "date_backmatter": "2534-12-30",
    "date_gz_old": "2535-01-01",
    "doctype": "ประกาศ",
    "editors": [
      {
        "name": "พุทธชาด",
        "role": "แก้ไข",
        "date": "2545-09-19"
      }
    ],
    "tag": "c007-2e-2535-a003"
  }
}