{
  "pages": [
    [
      [
        "ประกาศกรมสรรพสามิต",
        "เรื่อง ลักษณะเครื่องหมายแสดงการเสียภาษีจดทะเบียน",
        "(ฉบับที่ ๒๖/๒๕๕๐)"
      ]
    ],
    []
  ],
  "metadata": {
    "date_backmatter": "2550-08-14",
    "date_modified": "2550-10-04",
    "date_original": "2550-10-04",
    "doctype": "ประกาศ",
    "editors": [
      {
        "name": "ปริยานุช",
        "role": "ผู้จัดทำ",
        "date": "2550-10-16"
      }
    ],
    "tag": "c007-2e-2550-a0067"
  }
}