{
  "pages": [
    [
      [
        "ประกาศกรมสรรพสามิต",
        "เรื่อง กำหนดมูลค่าน้ำมันเตาที่ผลิตในราชอาณาจักร",
        "เพื่อถือเป็นเกณฑ์ในการคำนวณภาษี",
        "(ฉบับที่ ๙/๒๕๕๘)"
      ]
    ],
    []
  ],
  "metadata": {
    "date_backmatter": "2558-02-27",
    "date_modified": "2558-04-16",
    "date_original": "2558-04-16",
    "doctype": "ประกาศ",
    "editors": [
      {
        "name": "ปริยานุช",
        "role": "ผู้จัดทำ",
        "date": "2558-04-17"
      },
      {
        "name": "วริญา",
        "role": "ผู้ตรวจ",
        "date": "2558-04-22"
      }
    ],
    "tag": "c007-2e-2558-a0061"
  }
}