{
  "pages": [
    [
      [
        "ประกาศกรมสรรพสามิต",
        "เรื่อง ลักษณะเครื่องหมายแสดงการเสียภาษีจดทะเบียน",
        "(ฉบับที่ ๗๑/๒๕๕๑)"
      ]
    ],
    []
  ],
  "metadata": {
    "date_backmatter": "2551-08-26",
    "date_modified": "2552-02-26",
    "date_original": "2552-02-26",
    "doctype": "ประกาศ",
    "editors": [
      {
        "name": "ปริยานุช",
        "role": "ผู้จัดทำ",
        "date": "2552-03-04"
      }
    ],
    "tag": "c007-2e-2552-a0033"
  }
}