{
  "pages": [
    [
      [
        "ประกาศกรมสรรพสามิต",
        "เรื่อง ลักษณะเครื่องหมายแสดงการเสียภาษีจดทะเบียน",
        "(ฉบับที่ ๕๖/๒๕๕๒)"
      ]
    ],
    []
  ],
  "metadata": {
    "date_backmatter": "2552-12-18",
    "date_modified": "2553-02-18",
    "date_original": "2553-02-18",
    "doctype": "ประกาศ",
    "editors": [
      {
        "name": "ปริยานุช",
        "role": "ผู้จัดทำ",
        "date": "2553-02-24"
      },
      {
        "name": "นันท์นภัสร์",
        "role": "ตรวจ",
        "date": "2553-02-24"
      }
    ],
    "tag": "c007-2e-2553-a0026"
  }
}