{
  "pages": [
    [
      [
        "กฎกระทรวง",
        "กำหนดการใช้แสตมป์สรรพสามิตและเครื่องหมายแสดงการเสียภาษี",
        "เพื่อให้ปรากฏว่าได้เสียภาษีแล้ว",
        "พ.ศ. ๒๕๖๐"
      ]
    ],
    []
  ],
  "metadata": {
    "date_backmatter": "2560-09-12",
    "date_modified": "2560-09-16",
    "date_original": "2560-09-16",
    "doctype": "กฎกระทรวง",
    "editors": [
      {
        "name": "ปวันวิทย์/ภวรรณตรี",
        "role": "จัดทำ",
        "date": "2560-09-20"
      }
    ],
    "tag": "c007-2b-2560-a0005"
  }
}