{
  "pages": [
    [
      [
        "กฎกระทรวง",
        "ฉบับที่ ๓๒ (พ.ศ. ๒๕๔๒)",
        "ออกตามความในพระราชบัญญัติภาษีสรรพสามิต พ.ศ. ๒๕๒๗",
        "ว่าด้วยการยกเว้นหรือคืนภาษีหรือลดอัตราภาษีสำหรับสินค้าที่ส่งออก",
        "นอกราชอาณาจักร และการขอรับคืนหรือยกเว้นภาษีสำหรับสินค้าที่ผู้ประกอบ",
        "อุตสาหกรรมมีสิทธิได้รับคืนหรือยกเว้นภาษี"
      ]
    ],
    []
  ],
  "metadata": {
    "date_backmatter": "2542-02-02",
    "date_gz_old": "2542-02-09",
    "doctype": "กฎกระทรวง",
    "editors": [],
    "tag": "c007-2b-2542-a0001"
  }
}