{
  "pages": [
    [
      [
        "ประกาศกรมสรรพสามิต",
        "เรื่อง ลักษณะเครื่องหมายแสดงการเสียภาษีจดทะเบียน",
        "(ฉบับที่ ๓/๒๕๕๑)"
      ]
    ],
    []
  ],
  "metadata": {
    "date_backmatter": "2551-03-26",
    "date_modified": "2551-05-29",
    "date_original": "2551-05-29",
    "doctype": "ประกาศ",
    "editors": [
      {
        "name": "วัชศักดิ์",
        "role": "ผู้จัดทำ",
        "date": "2551-06-03"
      }
    ],
    "tag": "c007-2e-2551-a0018"
  }
}