{
  "pages": [
    [
      [
        "ประกาศกรมสรรพสามิต",
        "เรื่อง ลักษณะเครื่องหมายแสดงการเสียภาษีจดทะเบียน",
        "(ฉบับที่ ๑๘/๒๕๕๒)"
      ]
    ],
    []
  ],
  "metadata": {
    "date_backmatter": "2552-04-29",
    "date_modified": "2552-06-25",
    "date_original": "2552-06-25",
    "doctype": "ประกาศ",
    "editors": [
      {
        "name": "ปริยานุช",
        "role": "ผู้จัดทำ",
        "date": "2552-07-02"
      }
    ],
    "tag": "c007-2e-2552-a0097"
  }
}