{
  "pages": [
    [
      [
        "ประกาศกรมสรรพสามิต",
        "เรื่อง ลักษณะเครื่องหมายแสดงการเสียภาษีจดทะเบียน",
        "(ฉบับที่ ๒๔/๒๕๕๐)"
      ]
    ],
    []
  ],
  "metadata": {
    "date_backmatter": "2550-07-16",
    "date_modified": "2550-09-06",
    "date_original": "2550-09-06",
    "doctype": "ประกาศ",
    "editors": [
      {
        "name": "ปริยานุช",
        "role": "ผู้จัดทำ",
        "date": "2550-09-20"
      }
    ],
    "tag": "c007-2e-2550-a0061"
  }
}