{
  "pages": [
    [
      [
        "ประกาศกรมสรรพสามิต",
        "เรื่อง กำหนดมูลค่าน้ำมันเตาที่ผลิตในราชอาณาจักร",
        "เพื่อถือเป็นเกณฑ์ในการคำนวณภาษี",
        "(ฉบับที่ ๔๔/๒๕๕๖)"
      ]
    ],
    []
  ],
  "metadata": {
    "date_backmatter": "2556-10-29",
    "date_modified": "2556-12-12",
    "date_original": "2556-12-12",
    "doctype": "ประกาศ",
    "editors": [
      {
        "name": "ปริยานุช",
        "role": "ผู้จัดทำ",
        "date": "2556-12-12"
      },
      {
        "name": "จุฑามาศ",
        "role": "ผู้ตรวจ",
        "date": "2556-12-24"
      }
    ],
    "tag": "c007-2e-2556-a0153"
  }
}