{
  "pages": [
    [
      [
        "ประกาศกระทรวงการคลัง",
        "เรื่อง กำหนดองค์การสาธารณกุศล ตามมาตรา ๑๐๒ (๑) (๒)",
        "แห่งพระราชบัญญัติภาษีสรรพสามิต พ.ศ. ๒๕๒๗ และมาตรา ๑๐๒ ทวิ (๑) (๒)",
        "แห่งพระราชบัญญัติภาษีสรรพสามิต พ.ศ. ๒๕๒๗ ซึ่งแก้ไขเพิ่มเติมโดย",
        "พระราชบัญญัติภาษีสรรพสามิต (ฉบับที่ ๒)",
        "พ.ศ. ๒๕๓๔",
        "(ฉบับที่ ๓)"
      ]
    ],
    []
  ],
  "metadata": {
    "date_backmatter": "2549-08-01",
    "date_modified": "2549-09-14",
    "date_original": "2549-09-14",
    "doctype": "ประกาศ",
    "editors": [
      {
        "name": "นันทนา",
        "role": "ผู้จัดทำ",
        "date": "2549-09-26"
      },
      {
        "name": "อุษมล",
        "role": "ปรับปรุง",
        "date": "2557-04-11"
      }
    ],
    "tag": "c007-2e-2549-a0079"
  }
}