{
  "pages": [
    [
      [
        "กฎกระทรวง",
        "กำหนดหลักเกณฑ์ วิธีการ และเงื่อนไขในการยกเว้นภาษีสำหรับสินค้า",
        "ที่นำมาใช้เป็นวัตถุดิบหรือส่วนประกอบในการผลิตสินค้า",
        "พ.ศ. ๒๕๔๕"
      ]
    ],
    []
  ],
  "metadata": {
    "date_backmatter": "2545-06-05",
    "date_gz_old": "2545-06-24",
    "doctype": "กฎกระทรวง",
    "editors": [
      {
        "name": "จารุวรรณ",
        "role": "แก้ไข",
        "date": "2545-07-30"
      }
    ],
    "tag": "c007-2b-2545-a0001"
  }
}