{
  "pages": [
    [
      [
        "ประกาศกรมสรรพสามิต",
        "เรื่อง กำหนดมาตรฐานแรงแอลกอฮอล์หรือคุณลักษณะทางเคมี วัตถุเจือปนอาหาร",
        "หรือสารปนเปื้อนของสุราที่มีลักษณะเสื่อมคุณภาพจนใช้การไม่ได้"
      ]
    ],
    []
  ],
  "metadata": {
    "date_backmatter": "2560-09-16",
    "date_modified": "2561-05-24",
    "date_original": "2561-05-24",
    "doctype": "ประกาศ",
    "editors": [
      {
        "name": "พัชรภรณ์",
        "role": "จัดทำ",
        "date": "2561-10-01"
      }
    ],
    "tag": "c007-2e-2561-a0028"
  }
}