{
  "pages": [
    [
      [
        "ประกาศกรมสรรพสามิต",
        "เรื่อง หลักเกณฑ์ วิธีการ และเงื่อนไข การยกเว้นภาษี",
        "เฉพาะส่วนที่เป็นมูลค่าของรถยนต์กระบะหรือสิ่งใดๆ",
        "ตามที่กำหนดในกฎกระทรวงก่อนการดัดแปลง",
        "(ฉบับที่ ๓)"
      ]
    ],
    []
  ],
  "metadata": {
    "date_backmatter": "2543-09-11",
    "date_gz_old": "2543-10-11",
    "doctype": "ประกาศ",
    "editors": [
      {
        "name": "ปรียนันท์",
        "role": "แก้ไข"
      },
      {
        "name": "๑/๕",
        "role": "๔๕"
      }
    ],
    "tag": "c007-2e-2543-a015"
  }
}