{
  "pages": [
    [
      [
        "ประกาศกรมสรรพสามิต",
        "เรื่อง ลักษณะเครื่องหมายแสดงการเสียภาษีจดทะเบียน",
        "(ฉบับที่ ๕/๒๕๕๕)"
      ]
    ],
    []
  ],
  "metadata": {
    "date_backmatter": "2555-03-21",
    "date_modified": "2555-07-26",
    "date_original": "2555-07-26",
    "doctype": "ประกาศ",
    "editors": [
      {
        "name": "ปริยานุช",
        "role": "ผู้จัดทำ",
        "date": "2555-07-30"
      },
      {
        "name": "ณัฐพร",
        "role": "ผู้ตรวจ",
        "date": "2555-07-30"
      }
    ],
    "tag": "c007-2e-2555-a0053"
  }
}