{
  "pages": [
    [
      [
        "ประกาศกระทรวงการคลัง",
        "เรื่อง ลดอัตราภาษีสรรพสามิต",
        "(ฉบับที่ ๑๓๗)"
      ]
    ],
    []
  ],
  "metadata": {
    "date_backmatter": "2560-01-24",
    "date_modified": "2560-01-24",
    "date_original": "2560-01-24",
    "doctype": "ประกาศ",
    "editors": [
      {
        "name": "พรวิภา/ปริยานุช",
        "role": "จัดทำ",
        "date": "2560-01-26"
      }
    ],
    "tag": "c007-2e-2560-a0010"
  }
}