{
  "pages": [
    [
      [
        "ประกาศกรมสรรพสามิต",
        "เรื่อง กำหนดรายละเอียดสิ่งที่นำไปดัดแปลงให้เป็น",
        "รถยนต์นั่งหรือรถยนต์โดยสารที่มีที่นั่งไม่เกิน ๑๐ คน",
        "(ฉบับที่ ๓)"
      ]
    ],
    []
  ],
  "metadata": {
    "date_backmatter": "2543-09-11",
    "date_gz_old": "2543-10-11",
    "doctype": "ประกาศ",
    "editors": [
      {
        "name": "ปรียนันท์",
        "role": "แก้ไข"
      },
      {
        "name": "๑/๕",
        "role": "๔๕"
      }
    ],
    "tag": "c007-2e-2543-a010"
  }
}