{
  "pages": [
    [
      [
        "ประกาศกระทรวงการคลัง",
        "เรื่อง กำหนดสินค้าที่ผู้ประกอบอุตสาหกรรมอาจขอชำระภาษีภายในวันที่สิบห้าของเดือนถัดจากเดือน",
        "ที่นำสินค้าออกจากโรงอุตสาหกรรมหรือคลังสินค้าทัณฑ์บนโดยมีหลักประกัน"
      ]
    ],
    []
  ],
  "metadata": {
    "date_backmatter": "2560-09-16",
    "date_modified": "2560-09-16",
    "date_original": "2560-09-16",
    "doctype": "ประกาศ",
    "editors": [
      {
        "name": "ปวันวิทย์/ภวรรณตรี",
        "role": "จัดทำ",
        "date": "2560-09-27"
      }
    ],
    "tag": "c007-2e-2560-a0107"
  }
}