{
  "pages": [
    [
      [
        "ประกาศกรมสรรพสามิต",
        "เรื่อง หลักเกณฑ์ วิธีการ และเงื่อนไขการขอรับคืนภาษีสำหรับแบตเตอรี่",
        "ที่พิสูจน์ได้ว่าเสียหายหรือเสื่อมคุณภาพจนใช้การไม่ได้"
      ]
    ],
    []
  ],
  "metadata": {
    "date_backmatter": "2559-03-11",
    "date_modified": "2559-04-08",
    "date_original": "2559-04-08",
    "doctype": "ประกาศ",
    "editors": [
      {
        "name": "วริญา/ปริยานุช",
        "role": "จัดทำ",
        "date": "2559-04-11"
      },
      {
        "name": "นุสรา",
        "role": "ตรวจ",
        "date": "2559-05-16"
      }
    ],
    "tag": "c007-2e-2559-a0054"
  }
}