{
  "pages": [
    [
      [
        "ประกาศกรมสรรพสามิต",
        "เรื่อง ยกเลิกลักษณะเครื่องหมายแสดงการเสียภาษีจดทะเบียน",
        "(ฉบับที่ ๑/๒๕๕๓)"
      ]
    ],
    []
  ],
  "metadata": {
    "date_backmatter": "2553-05-03",
    "date_modified": "2553-09-23",
    "date_original": "2553-09-23",
    "doctype": "ประกาศ",
    "editors": [
      {
        "name": "ปริยานุช",
        "role": "ผู้จัดทำ",
        "date": "2553-09-29"
      },
      {
        "name": "นันท์นภัสร์",
        "role": "ตรวจ",
        "date": "2553-09-29"
      }
    ],
    "tag": "c007-2e-2553-a0114"
  }
}