{
  "pages": [
    [
      [
        "ประกาศกรมสรรพสามิต",
        "เรื่อง กำหนดสถานที่ยื่นแบบรายการภาษีและชำระภาษีสรรพสามิต",
        "(ฉบับที่ ๓)"
      ]
    ],
    []
  ],
  "metadata": {
    "date_backmatter": "2559-05-31",
    "date_modified": "2560-08-16",
    "date_original": "2559-07-14",
    "doctype": "ประกาศ",
    "editors": [
      {
        "name": "พิมพ์มาดา",
        "role": "จัดทำ",
        "date": "2560-08-31"
      }
    ],
    "tag": "c007-2e-9989-update"
  }
}