{
  "pages": [
    [
      [
        "ประกาศกรมสรรพสามิต",
        "เรื่อง ลักษณะเครื่องหมายแสดงการเสียภาษีจดทะเบียน",
        "(ฉบับที่ ๒๗/๒๕๕๓)"
      ]
    ],
    []
  ],
  "metadata": {
    "date_backmatter": "2553-03-19",
    "date_modified": "2553-09-09",
    "date_original": "2553-09-09",
    "doctype": "ประกาศ",
    "editors": [
      {
        "name": "ปริยานุช",
        "role": "ผู้จัดทำ",
        "date": "2553-09-15"
      },
      {
        "name": "นันท์นภัสร์",
        "role": "ตรวจ",
        "date": "2553-09-15"
      }
    ],
    "tag": "c007-2e-2553-a0099"
  }
}