{
  "pages": [
    [
      [
        "ประกาศกรมสรรพสามิต",
        "เรื่อง กำหนดรหัสสินค้าสรรพสามิตสำหรับระบบแลกเปลี่ยนข้อมูลอิเล็กทรอนิกส์",
        "(ELECTRONIC DATA INTERCHANGE)",
        "(ฉบับที่ ๓๗)"
      ]
    ],
    []
  ],
  "metadata": {
    "date_backmatter": "2557-08-28",
    "date_modified": "2557-10-02",
    "date_original": "2557-10-02",
    "doctype": "ประกาศ",
    "editors": [
      {
        "name": "ปริยานุช",
        "role": "ผู้จัดทำ",
        "date": "2557-10-06"
      },
      {
        "name": "ปริญสินีย์",
        "role": "ผู้ตรวจ",
        "date": "2557-10-06"
      }
    ],
    "tag": "c007-2e-2557-a0201"
  }
}