{
  "pages": [
    [
      [
        "ระเบียบกรมสรรพสามิต",
        "ว่าด้วยการยกเว้นหรือคืนภาษีหรือลดอัตราภาษีสำหรับสินค้าที่ส่งออกนอกราชอาณาจักร",
        "หรือนำเข้าไปในเขตปลอดอากรตามมาตรา ๑๐๐ และการขอรับคืนหรือยกเว้นภาษีสำหรับสินค้าที่",
        "ผู้ประกอบอุตสาหกรรมมีสิทธิได้รับคืนหรือยกเว้นภาษีตามมาตรา ๑๐๒ (ฉบับที่ ๓)",
        "พ.ศ. ๒๕๕๓"
      ]
    ],
    []
  ],
  "metadata": {
    "date_backmatter": "2553-07-23",
    "date_modified": "2553-08-24",
    "date_original": "2553-08-24",
    "editors": [
      {
        "name": "ปริยานุช",
        "role": "ผู้จัดทำ",
        "date": "2553-09-06"
      },
      {
        "name": "ณัฐวดี",
        "role": "ตรวจ",
        "date": "2553-09-06"
      }
    ],
    "tag": "c007-2g-2553-a0005"
  }
}