{
  "pages": [
    [
      [
        "ประกาศกรมสรรพสามิต",
        "เรื่อง หลักเกณฑ์ วิธีการ และเงื่อนไข ผ่อนผันการแจ้งราคาขายปลีกแนะนำ",
        "และโครงสร้างราคาขายปลีกแนะนำ การจดทะเบียนสรรพสามิต และการจัดทำบัญชีรับจ่ายสินค้าที่นำเข้ามา",
        "ในราชอาณาจักร สำหรับสินค้าที่นำติดตัวเข้ามา หรือนำสินค้าเข้ามาเพื่อเป็นตัวอย่างสินค้าหรือนำเข้า",
        "มาโดยมิใช่เพื่อการค้า"
      ]
    ],
    []
  ],
  "metadata": {
    "date_backmatter": "2560-09-16",
    "date_modified": "2561-05-24",
    "date_original": "2561-05-24",
    "doctype": "ประกาศ",
    "editors": [
      {
        "name": "พัชรภรณ์",
        "role": "จัดทำ",
        "date": "2561-10-05"
      }
    ],
    "tag": "c007-2e-2561-a0092"
  }
}