{
  "pages": [
    [
      [
        "ประกาศกระทรวงการคลัง",
        "เรื่อง กำหนดองค์การสาธารณกุศล ตามมาตรา ๑๐๒ (๑) (๒)",
        "แห่งพระราชบัญญัติภาษีสรรพสามิต พ.ศ. ๒๕๒๗ และมาตรา ๑๐๒ ทวิ (๑) (๒)",
        "แห่งพระราชบัญญัติภาษีสรรพสามิต พ.ศ. ๒๕๒๗ ซึ่งแก้ไขเพิ่มเติมโดย",
        "พระราชบัญญัติภาษีสรรพสามิต (ฉบับที่ ๒)",
        "พ.ศ. ๒๕๓๔",
        "(ฉบับที่ ๕)"
      ]
    ],
    []
  ],
  "metadata": {
    "date_backmatter": "2550-05-28",
    "date_modified": "2550-08-16",
    "date_original": "2550-08-16",
    "doctype": "ประกาศ",
    "editors": [
      {
        "name": "โสรศ",
        "role": "ผู้จัดทำ",
        "date": "2550-08-22"
      },
      {
        "name": "อุษมล",
        "role": "ปรับปรุง",
        "date": "2557-04-11"
      }
    ],
    "tag": "c007-2e-2550-a0053"
  }
}