{
  "pages": [
    [
      [
        "ประกาศกรมสรรพสามิต",
        "เรื่อง หลักเกณฑ์และวิธีการเกี่ยวกับการชำระภาษีรถยนต์ที่นำไปแสดงหรือเก็บไว้ใน",
        "สถานแสดงรถยนต์เพื่อขายที่ความรับผิดในอันจะต้องเสียภาษีเกิดขึ้น",
        "พร้อมกับความรับผิดในการเสียภาษีมูลค่าเพิ่ม"
      ]
    ],
    []
  ],
  "metadata": {
    "date_backmatter": "2560-09-16",
    "date_modified": "2561-05-24",
    "date_original": "2561-05-24",
    "doctype": "ประกาศ",
    "editors": [
      {
        "name": "พัชรภรณ์",
        "role": "จัดทำ",
        "date": "2561-10-04"
      }
    ],
    "tag": "c007-2e-2561-a0050"
  }
}