{
  "pages": [
    [
      [
        "ประกาศกระทรวงการคลัง",
        "เรื่อง ลดอัตราภาษีสรรพสามิต",
        "(ฉบับที่ ๑๐๒)"
      ]
    ],
    []
  ],
  "metadata": {
    "date_backmatter": "2555-10-26",
    "date_modified": "2555-10-31",
    "date_original": "2555-10-31",
    "doctype": "ประกาศ",
    "editors": [
      {
        "name": "ปริยานุช",
        "role": "ผู้จัดทำ",
        "date": "2555-11-05"
      },
      {
        "name": "ปณตภร",
        "role": "ผู้ตรวจ",
        "date": "2555-11-15"
      }
    ],
    "tag": "c007-2e-2555-a0094"
  }
}