{
  "pages": [
    [
      [
        "ประกาศกระทรวงการคลัง",
        "เรื่อง ยกเว้นภาษีสรรพสามิต",
        "(ฉบับที่ ๑๓๕)"
      ]
    ],
    []
  ],
  "metadata": {
    "date_backmatter": "2559-07-07",
    "date_modified": "2559-07-15",
    "date_original": "2559-07-15",
    "doctype": "ประกาศ",
    "editors": [
      {
        "name": "ชวัลพร/ปริยานุช",
        "role": "จัดทำ",
        "date": "2559-07-22"
      }
    ],
    "tag": "c007-2e-2559-a0143"
  }
}