{
  "pages": [
    [
      [
        "ประกาศกรมสรรพสามิต",
        "เรื่อง การอนุญาตขายยาสูบ"
      ]
    ],
    []
  ],
  "metadata": {
    "date_backmatter": "2560-09-27",
    "date_modified": "2561-05-24",
    "date_original": "2561-05-24",
    "doctype": "ประกาศ",
    "editors": [
      {
        "name": "พัชรภรณ์",
        "role": "จัดทำ",
        "date": "2561-10-04"
      }
    ],
    "tag": "c007-2e-2561-a0102"
  }
}