{
  "pages": [
    [
      [
        "ประกาศกระทรวงการคลัง",
        "เรื่อง หลักเกณฑ์การพิจารณาประกาศกำหนดเป็นองค์การสาธารณกุศล",
        "ตามพระราชบัญญัติภาษีสรรพสามิต พ.ศ. ๒๕๒๗"
      ]
    ],
    []
  ],
  "metadata": {
    "date_backmatter": "2528-05-23",
    "date_gz_old": "2528-05-30",
    "doctype": "ประกาศ",
    "editors": [
      {
        "name": "พรพิมล/พิมพ์",
        "role": "แก้ไข",
        "date": "2545-09-27"
      }
    ],
    "tag": "c007-2e-2528-a0001"
  }
}