{
  "pages": [
    [
      [
        "ประกาศกรมสรรพสามิต",
        "เรื่อง หลักเกณฑ์ วิธีการ และเงื่อนไข ในการยกเว้นภาษี",
        "สำหรับน้ำมันและผลิตภัณฑ์น้ำมันที่นำไปใช้เป็นวัตถุดิบในการผลิต",
        "ผลิตภัณฑ์อุตสาหกรรมเคมีปิโตรเลียม",
        "และอุตสาหกรรมตัวสารละลาย (โซลเว้นท์)"
      ]
    ],
    []
  ],
  "metadata": {
    "date_backmatter": "2535-01-01",
    "date_gz_old": "2535-01-01",
    "doctype": "ประกาศ",
    "editors": [
      {
        "name": "จารุวรรณ",
        "role": "แก้ไข",
        "date": "2545-09-13"
      }
    ],
    "tag": "c007-2e-2535-a0001"
  }
}