{
  "pages": [
    [
      [
        "ประกาศกระทรวงการคลัง",
        "เรื่อง ลดอัตราภาษีสรรพสามิต",
        "(ฉบับที่ ๑๒๗)"
      ]
    ],
    []
  ],
  "metadata": {
    "date_backmatter": "2557-10-16",
    "date_modified": "2557-10-22",
    "date_original": "2557-10-22",
    "doctype": "ประกาศ",
    "editors": [
      {
        "name": "ปริยานุช",
        "role": "ผู้จัดทำ",
        "date": "2557-10-27"
      },
      {
        "name": "ปริญสินีย์",
        "role": "ผู้ตรวจ",
        "date": "2557-10-27"
      }
    ],
    "tag": "c007-2e-2557-a0204"
  }
}