{
  "pages": [
    [
      [
        "ประกาศกรมสรรพสามิต",
        "เรื่อง ลักษณะเครื่องหมายแสดงการเสียภาษีจดทะเบียน",
        "(ฉบับที่ ๖๖/๒๕๕๖)"
      ]
    ],
    []
  ],
  "metadata": {
    "date_backmatter": "2556-07-08",
    "date_modified": "2556-12-12",
    "date_original": "2556-12-12",
    "doctype": "ประกาศ",
    "editors": [
      {
        "name": "ปริยานุช",
        "role": "ผู้จัดทำ",
        "date": "2556-12-16"
      },
      {
        "name": "จุฑามาศ",
        "role": "ผู้ตรวจ",
        "date": "2556-12-20"
      }
    ],
    "tag": "c007-2e-2556-a0154"
  }
}