{
  "pages": [
    [
      [
        "ประกาศกรมสรรพสามิต",
        "เรื่อง หลักเกณฑ์ และเงื่อนไขในการยกเว้นภาษีสำหรับแก้วเลดคริสตัลและแก้วคริสตัลอื่น ๆ",
        "ที่นำไปใช้เป็นวัตถุดิบ หรือส่วนประกอบในการผลิตสินค้าหรือสิ่งของอื่น"
      ]
    ],
    []
  ],
  "metadata": {
    "date_backmatter": "2553-06-25",
    "date_modified": "2553-09-03",
    "date_original": "2553-09-03",
    "doctype": "ประกาศ",
    "editors": [
      {
        "name": "ปริยานุช",
        "role": "ผู้จัดทำ",
        "date": "2553-09-15"
      },
      {
        "name": "นันท์นภัสร์",
        "role": "ตรวจ",
        "date": "2553-09-15"
      }
    ],
    "tag": "c007-2e-2553-a0072"
  }
}