{
  "pages": [
    [
      [
        "กฎกระทรวง",
        "ฉบับที่ ๓๐ (พ.ศ. ๒๕๔๐)",
        "ออกตามความในพระราชบัญญัติภาษีสรรพสามิต พ.ศ. ๒๕๒๗",
        "ว่าด้วยสินค้าที่ผู้ประกอบอุตสาหกรรมจะขอลดหย่อนภาษีได้"
      ]
    ],
    []
  ],
  "metadata": {
    "date_backmatter": "2540-08-15",
    "date_gz_old": "2540-08-27",
    "doctype": "กฎกระทรวง",
    "editors": [],
    "tag": "c007-2b-2540-030"
  }
}