{
  "pages": [
    [
      [
        "ประกาศกรมสรรพสามิต",
        "เรื่อง หลักเกณฑ์ วิธีการ และเงื่อนไข ว่าด้วยการลดหย่อนภาษี",
        "สำหรับสินค้าที่ผลิตขึ้นจากสินค้าที่เสียภาษีสรรพสามิตแล้ว"
      ]
    ],
    []
  ],
  "metadata": {
    "date_backmatter": "2538-01-09",
    "date_gz_old": "2538-02-28",
    "doctype": "ประกาศ",
    "editors": [
      {
        "name": "ธิดาวรรณ",
        "role": "แก้ไข",
        "date": "2545-09-05"
      }
    ],
    "tag": "c007-2e-2538-a008"
  }
}