{
  "pages": [
    [
      [
        "ระเบียบกรมสรรพสามิต",
        "ว่าด้วยการใช้ระบบมาตรวัดและระบบคอมพิวเตอร์สื่อสารทางไกล",
        "ในการบริหารการจัดเก็บภาษีโรงอุตสาหกรรมเครื่องดื่ม",
        "พ.ศ. ๒๕๖๐"
      ]
    ],
    []
  ],
  "metadata": {
    "date_backmatter": "2560-09-16",
    "date_modified": "2561-05-24",
    "date_original": "2561-05-24",
    "editors": [
      {
        "name": "พัชรภรณ์",
        "role": "จัดทำ",
        "date": "2561-08-28"
      }
    ],
    "tag": "c007-2g-2561-a0004"
  }
}