{
  "pages": [
    [
      [
        "ประกาศกรมสรรพสามิต",
        "เรื่อง กำหนดรหัสสินค้าสรรพสามิตสำหรับระบบแลกเปลี่ยนข้อมูลอิเล็กทรอนิกส์",
        "(ELECTRONIC DATA INTERCHANGE)",
        "(ฉบับที่ ๒๓)"
      ]
    ],
    []
  ],
  "metadata": {
    "date_backmatter": "2550-12-25",
    "date_modified": "2551-02-28",
    "date_original": "2551-02-28",
    "doctype": "ประกาศ",
    "editors": [
      {
        "name": "ปริยานุช",
        "role": "ผู้จัดทำ",
        "date": "2551-03-04"
      }
    ],
    "tag": "c007-2e-2551-a0003"
  }
}