{
  "pages": [
    [
      [
        "ประกาศกรมสรรพสามิต",
        "เรื่อง ลักษณะเครื่องหมายแสดงการเสียภาษีจดทะเบียน",
        "(ฉบับที่ ๑๖๙/๒๕๕๖)"
      ]
    ],
    []
  ],
  "metadata": {
    "date_backmatter": "2556-12-23",
    "date_modified": "2557-06-05",
    "date_original": "2557-06-05",
    "doctype": "ประกาศ",
    "editors": [
      {
        "name": "ปริยานุช",
        "role": "ผู้จัดทำ",
        "date": "2557-06-12"
      },
      {
        "name": "นุสรา",
        "role": "ผู้ตรวจ",
        "date": "2557-08-13"
      }
    ],
    "tag": "c007-2e-2557-a0135"
  }
}