{
  "pages": [
    [
      [
        "ประกาศกระทรวงการคลัง",
        "เรื่อง ลดอัตราและยกเว้นภาษีสรรพสามิต",
        "(ฉบับที่ ๔๒)"
      ]
    ],
    []
  ],
  "metadata": {
    "date_backmatter": "2540-05-21",
    "date_gz_old": "2540-05-22",
    "doctype": "ประกาศ",
    "editors": [
      {
        "name": "ละออง",
        "role": "พิมพ์",
        "date": "2544-07-31"
      }
    ],
    "tag": "c007-2e-2540-42"
  }
}