{
  "pages": [
    [
      [
        "ประกาศกระทรวงการคลัง",
        "เรื่อง ลดอัตราภาษีสรรพสามิต",
        "(ฉบับที่ ๑๒๕)"
      ]
    ],
    []
  ],
  "metadata": {
    "date_backmatter": "2557-07-30",
    "date_modified": "2557-07-31",
    "date_original": "2557-07-31",
    "doctype": "ประกาศ",
    "editors": [
      {
        "name": "ปริยานุช",
        "role": "ผู้จัดทำ",
        "date": "2557-08-04"
      },
      {
        "name": "นุสรา",
        "role": "ผู้ตรวจ",
        "date": "2557-11-13"
      }
    ],
    "tag": "c007-2e-2557-a0220"
  }
}