{
  "pages": [
    [
      [
        "ประกาศกระทรวงการคลัง",
        "เรื่อง ขยายกำหนดเวลาชำระภาษีสรรพสามิต",
        "(ฉบับที่ ๗)"
      ]
    ],
    []
  ],
  "metadata": {
    "date_backmatter": "2548-01-05",
    "date_modified": "2548-02-10",
    "date_original": "2548-02-10",
    "doctype": "ประกาศ",
    "editors": [
      {
        "name": "วชิระ",
        "role": "จัดทำ",
        "date": "2548-06-10"
      }
    ],
    "tag": "c007-2e-2548-a0024"
  }
}