{
  "pages": [
    [
      [
        "ระเบียบกรมสรรพสามิต",
        "ว่าด้วยการควบคุมการใช้ และการปิดแสตมป์",
        "สรรพสามิตสำหรับเครื่องปรับอากาศ",
        "พ.ศ. ๒๕๔๗"
      ]
    ],
    []
  ],
  "metadata": {
    "date_backmatter": "2547-11-25",
    "date_modified": "2547-12-30",
    "date_original": "2547-12-30",
    "editors": [
      {
        "name": "ศุภชัย",
        "role": "พิมพ์",
        "date": "2548-06-13"
      },
      {
        "name": "พุทธพัท/สุนันทา",
        "role": "ตรวจ",
        "date": "2548-06-29"
      }
    ],
    "tag": "c007-2g-2547-a0009"
  }
}