{
  "pages": [
    [
      [
        "ประกาศกรมสรรพสามิต",
        "เรื่อง ลักษณะเครื่องหมายแสดงการเสียภาษีจดทะเบียน",
        "(ฉบับที่ ๓๘/๒๕๕๔)"
      ]
    ],
    []
  ],
  "metadata": {
    "date_backmatter": "2554-09-28",
    "date_modified": "2554-12-29",
    "date_original": "2554-12-29",
    "doctype": "ประกาศ",
    "editors": [
      {
        "name": "ปริยานุช",
        "role": "ผู้จัดทำ",
        "date": "2555-01-11"
      },
      {
        "name": "ณัฐพร",
        "role": "ผู้ตรวจ",
        "date": "2555-01-11"
      }
    ],
    "tag": "c007-2e-2554-a0135"
  }
}