{
  "pages": [
    [
      [
        "ประกาศกรมสรรพสามิต",
        "เรื่อง กำหนดมูลค่าน้ำมันเตาที่ผลิตในราชอาณาจักร",
        "เพื่อถือเป็นเกณฑ์ในการคำนวณภาษี",
        "(ฉบับที่ ๓๐/๒๕๕๗)"
      ]
    ],
    []
  ],
  "metadata": {
    "date_backmatter": "2557-07-24",
    "date_modified": "2557-09-04",
    "date_original": "2557-09-04",
    "doctype": "ประกาศ",
    "editors": [
      {
        "name": "ปริยานุช",
        "role": "ผู้จัดทำ",
        "date": "2557-09-26"
      },
      {
        "name": "จุฑามาศ",
        "role": "ผู้ตรวจ",
        "date": "2557-10-14"
      }
    ],
    "tag": "c007-2e-2557-a0196"
  }
}