{
  "pages": [
    [
      [
        "ประกาศกรมสรรพสามิต",
        "เรื่อง หลักเกณฑ์ วิธีการ และเงื่อนไขการยกเว้นหรือคืนภาษีสำหรับสินค้าที่ส่งออกนอกราชอาณาจักร",
        "หรือนำเข้าไปในเขตปลอดอากรและสินค้าที่ผู้ประกอบอุตสาหกรรมหรือผู้นำเข้ามีสิทธิได้รับคืน",
        "หรือยกเว้นภาษี"
      ]
    ],
    []
  ],
  "metadata": {
    "date_backmatter": "2560-09-16",
    "date_modified": "2561-05-24",
    "date_original": "2561-05-24",
    "doctype": "ประกาศ",
    "editors": [
      {
        "name": "พัชรภรณ์",
        "role": "จัดทำ",
        "date": "2561-10-01"
      }
    ],
    "tag": "c007-2e-2561-a0031"
  }
}