{
  "pages": [
    [
      [
        "ประกาศกรมสรรพสามิต",
        "เรื่อง ลักษณะเครื่องหมายแสดงการเสียภาษีจดทะเบียน",
        "(ฉบับที่ ๔๐/๒๕๔๙)"
      ]
    ],
    []
  ],
  "metadata": {
    "date_backmatter": "2549-12-12",
    "date_modified": "2550-01-18",
    "date_original": "2550-01-18",
    "doctype": "ประกาศ",
    "editors": [
      {
        "name": "โสรศ",
        "role": "ผู้จัดทำ",
        "date": "2550-01-31"
      }
    ],
    "tag": "c007-2e-2550-a0004"
  }
}