{
  "pages": [
    [
      [
        "ประกาศกรมสรรพสามิต",
        "เรื่อง ลักษณะเครื่องหมายแสดงการเสียภาษีจดทะเบียน",
        "(ฉบับที่ ๑๓/๒๕๕๐)"
      ]
    ],
    []
  ],
  "metadata": {
    "date_backmatter": "2550-03-29",
    "date_modified": "2550-05-10",
    "date_original": "2550-05-10",
    "doctype": "ประกาศ",
    "editors": [
      {
        "name": "วัชศักดิ์",
        "role": "ผู้จัดทำ",
        "date": "2550-05-17"
      }
    ],
    "tag": "c007-2e-2550-a0036"
  }
}