{
  "pages": [
    [
      [
        "กฎกระทรวง",
        "กำหนดพิกัดอัตราภาษีสรรพสามิต",
        "พ.ศ. ๒๕๖๐"
      ]
    ],
    []
  ],
  "metadata": {
    "date_backmatter": "2560-09-15",
    "date_modified": "2561-06-19",
    "date_original": "2560-09-16",
    "doctype": "กฎกระทรวง",
    "editors": [
      {
        "name": "ปวันวิทย์",
        "role": "จัดทำ",
        "date": "2560-09-25"
      },
      {
        "name": "ปุณิกา",
        "role": "เพิ่มเติม",
        "date": "2561-01-12"
      },
      {
        "name": "ปริญสินีย์",
        "role": "ตรวจ",
        "date": "2561-01-26"
      },
      {
        "name": "พิมพ์มาดา",
        "role": "เพิ่มเติม",
        "date": "2561-08-27"
      }
    ],
    "tag": "c007-2b-9999-update"
  }
}