{
  "pages": [
    [
      [
        "กฎกระทรวง",
        "ฉบับที่ ๒๔ (พ.ศ. ๒๕๓๔)",
        "ออกตามความในพระราชบัญญัติภาษีสรรพสามิต พ.ศ. ๒๕๒๗",
        "ว่าด้วยสินค้าที่ผู้ประกอบอุตสาหกรรมจะขอลดหย่อนภาษีได้"
      ]
    ],
    []
  ],
  "metadata": {
    "date_backmatter": "2534-12-30",
    "date_gz_old": "2535-01-01",
    "doctype": "กฎกระทรวง",
    "editors": [],
    "tag": "c007-2b-2535-024"
  }
}