{
  "pages": [
    [
      [
        "ประกาศกรมสรรพสามิต",
        "เรื่อง กำหนดการใช้ การขีดฆ่า และการปิดแสตมป์สรรพสามิต",
        "สำหรับสินค้ายาสูบ (ฉบับที่ ๒)"
      ]
    ],
    []
  ],
  "metadata": {
    "date_backmatter": "2560-12-26",
    "date_modified": "2561-02-01",
    "date_original": "2561-02-01",
    "doctype": "ประกาศ",
    "editors": [
      {
        "name": "ปวันวิทย์",
        "role": "จัดทำ",
        "date": "2561-02-20"
      }
    ],
    "tag": "c007-2e-2561-a0008"
  }
}