{
  "pages": [
    [
      [
        "ประกาศกรมสรรพสามิต",
        "เรื่อง ลักษณะเครื่องหมายแสดงการเสียภาษีจดทะเบียน",
        "(ฉบับที่ ๙/๒๕๕๒)"
      ]
    ],
    []
  ],
  "metadata": {
    "date_backmatter": "2552-02-03",
    "date_modified": "2552-04-09",
    "date_original": "2552-04-09",
    "doctype": "ประกาศ",
    "editors": [
      {
        "name": "ปริยานุช",
        "role": "ผู้จัดทำ",
        "date": "2552-04-24"
      }
    ],
    "tag": "c007-2e-2552-a0070"
  }
}