{
  "pages": [
    [
      [
        "ประกาศกรมสรรพสามิต",
        "เรื่อง กำหนดรหัสสินค้าสรรพสามิตสำหรับระบบแลกเปลี่ยนข้อมูลอิเล็กทรอนิกส์",
        "(ELECTRONIC DATA INTERCHANGE)",
        "(ฉบับที่ ๔๒)"
      ]
    ],
    []
  ],
  "metadata": {
    "date_backmatter": "2558-12-18",
    "date_modified": "2558-12-25",
    "date_original": "2558-12-25",
    "doctype": "ประกาศ",
    "editors": [
      {
        "name": "ปริยานุช",
        "role": "จัดทำ",
        "date": "2558-12-29"
      },
      {
        "name": "วริญา",
        "role": "ตรวจ",
        "date": "2559-01-07"
      }
    ],
    "tag": "c007-2e-2558-a0161"
  }
}