{
  "pages": [
    [
      [
        "ระเบียบกรมสรรพสามิต",
        "ว่าด้วยการควบคุมโรงงานผลิตเครื่องหมายแสดงการเสียภาษีจดทะเบียน",
        "พ.ศ. ๒๕๔๕"
      ]
    ],
    []
  ],
  "metadata": {
    "date_backmatter": "2545-07-16",
    "date_gz_old": "2545-08-14",
    "editors": [
      {
        "name": "เพ็ญพร/พิมพ์",
        "role": "แก้ไข",
        "date": "2545-12-12"
      }
    ],
    "tag": "c007-2g-2545-a004"
  }
}