{
  "pages": [
    [
      [
        "ประกาศกรมสรรพสามิต",
        "เรื่อง หลักเกณฑ์ วิธีการ และเงื่อนไขการยกเว้นภาษีสำหรับสารละลายประเภทไฮโดรคาร์บอน",
        "(Hydrocarbon Solvent) ที่นำไปใช้ในอุตสาหกรรมต่างๆ",
        "(ฉบับที่ ๓)"
      ]
    ],
    []
  ],
  "metadata": {
    "date_backmatter": "2551-03-13",
    "date_modified": "2551-04-04",
    "date_original": "2551-04-04",
    "doctype": "ประกาศ",
    "editors": [
      {
        "name": "ปริยานุช",
        "role": "ผู้จัดทำ",
        "date": "2551-04-10"
      }
    ],
    "tag": "c007-2e-2551-a0009"
  }
}