{
  "pages": [
    [
      [
        "ประกาศกรมสรรพสามิต",
        "เรื่อง ลักษณะเครื่องหมายแสดงการเสียภาษีจดทะเบียน",
        "(ฉบับที่ ๖๐/๒๕๕๓)"
      ]
    ],
    []
  ],
  "metadata": {
    "date_backmatter": "2553-08-17",
    "date_modified": "2554-03-03",
    "date_original": "2554-03-03",
    "doctype": "ประกาศ",
    "editors": [
      {
        "name": "ปริยานุช",
        "role": "ผู้จัดทำ",
        "date": "2554-03-14"
      },
      {
        "name": "ณัฐวดี",
        "role": "ตรวจ",
        "date": "2554-03-14"
      }
    ],
    "tag": "c007-2e-2554-a0030"
  }
}