{
  "pages": [
    [
      [
        "ระเบียบกรมสรรพสามิต",
        "ว่าด้วยวิธีการ เงื่อนไข และแนวทางปฏิบัติในการกำหนดอัตราภาษีสุรา",
        "อัตราค่าแสตมป์ยาสูบ และการยกเว้นภาษีสรรพสามิตสำหรับสินค้าที่จำหน่าย",
        "จากคลังสินค้าทัณฑ์บนสำหรับแสดงและขายของที่เก็บในคลังสินค้าทัณฑ์บนนั้น",
        "ตามกฎหมายว่าด้วยศุลกากรที่ตั้งอยู่ในจังหวัดกระบี่ จังหวัดพังงา และจังหวัดภูเก็ต"
      ]
    ],
    []
  ],
  "metadata": {
    "date_backmatter": "2548-09-02",
    "date_modified": "2548-10-20",
    "date_original": "2548-10-20",
    "editors": [
      {
        "name": "ฐิติพงษ์",
        "role": "ผู้จัดทำ",
        "date": "2548-10-28"
      }
    ],
    "tag": "c007-2g-2548-a0001"
  }
}