{
  "pages": [
    [
      [
        "ประกาศกระทรวงการคลัง",
        "เรื่อง กำหนดองค์การสาธารณกุศล ตามมาตรา ๑๐๒ (๑) (๒)",
        "แห่งพระราชบัญญัติภาษีสรรพสามิต พ.ศ. ๒๕๒๗ และมาตรา ๑๐๒ ทวิ (๑) (๒)",
        "แห่งพระราชบัญญัติภาษีสรรพสามิต พ.ศ. ๒๕๒๗ ซึ่งแก้ไขเพิ่มเติมโดย",
        "พระราชบัญญัติภาษีสรรพสามิต (ฉบับที่ ๒) พ.ศ. ๒๕๓๔",
        "(ฉบับที่ ๓๘ )"
      ]
    ],
    []
  ],
  "metadata": {
    "date_backmatter": "2555-11-27",
    "date_modified": "2556-01-04",
    "date_original": "2556-01-04",
    "doctype": "ประกาศ",
    "editors": [
      {
        "name": "โชติกานต์",
        "role": "ผู้จัดทำ",
        "date": "2556-01-23"
      },
      {
        "name": "ชาญ",
        "role": "ผู้ตรวจ",
        "date": "2556-01-23"
      }
    ],
    "tag": "c007-2e-2556-a0002"
  }
}