{
  "pages": [
    [
      [
        "ประกาศกระทรวงการคลัง",
        "เรื่อง ยกเว้นภาษีสรรพสามิต",
        "(ฉบับที่ ๘๘)"
      ]
    ],
    []
  ],
  "metadata": {
    "date_backmatter": "2554-01-26",
    "date_modified": "2554-01-28",
    "date_original": "2554-01-28",
    "doctype": "ประกาศ",
    "editors": [
      {
        "name": "ปริยานุช",
        "role": "ผู้จัดทำ",
        "date": "2554-02-09"
      },
      {
        "name": "ณัฐวดี",
        "role": "ตรวจ",
        "date": "2554-02-09"
      }
    ],
    "tag": "c007-2e-2554-a0007"
  }
}