{
  "pages": [
    [
      [
        "ประกาศกรมสรรพสามิต",
        "เรื่อง ลักษณะเครื่องหมายแสดงการเสียภาษีจดทะเบียน",
        "(ฉบับที่ ๔๙/๒๕๕๕)"
      ]
    ],
    []
  ],
  "metadata": {
    "date_backmatter": "2555-12-06",
    "date_modified": "2556-03-28",
    "date_original": "2556-03-28",
    "doctype": "ประกาศ",
    "editors": [
      {
        "name": "ปริยานุช",
        "role": "ผู้จัดทำ",
        "date": "2556-04-03"
      },
      {
        "name": "อุษมล",
        "role": "ผู้ตรวจ",
        "date": "2556-04-10"
      }
    ],
    "tag": "c007-2e-2556-a0029"
  }
}