{
  "pages": [
    [
      [
        "ประกาศกระทรวงการคลัง",
        "เรื่อง กำหนดองค์การสาธารณกุศล ตามมาตรา ๑๐๒ (๑) (๒) แห่งพระราชบัญญัติ",
        "ภาษีสรรพสามิต พ.ศ. ๒๕๒๗ และมาตรา ๑๐๒ ทวิ (๑) (๒) แห่งพระราชบัญญัติ",
        "ภาษีสรรพสามิต พ.ศ. ๒๕๒๗ ซึ่งแก้ไขเพิ่มเติมโดยพระราชบัญญัติภาษีสรรพสามิต",
        "(ฉบับที่ ๒) พ.ศ. ๒๕๓๔",
        "(ฉบับที่ ๓๔)"
      ]
    ],
    []
  ],
  "metadata": {
    "date_backmatter": "2555-03-30",
    "date_modified": "2555-05-11",
    "date_original": "2555-05-11",
    "doctype": "ประกาศ",
    "editors": [
      {
        "name": "ปริยานุช",
        "role": "ผู้จัดทำ",
        "date": "2555-05-15"
      },
      {
        "name": "ชาญ",
        "role": "ผู้ตรวจ",
        "date": "2555-05-18"
      }
    ],
    "tag": "c007-2e-2555-a0029"
  }
}