{
  "pages": [
    [
      [
        "ประกาศกรมสรรพสามิต",
        "เรื่อง หลักเกณฑ์ และเงื่อนไขของรถยนต์ประหยัดพลังงาน",
        "มาตรฐานสากล ที่ได้รับการลดอัตราภาษีสรรพสามิต"
      ]
    ],
    []
  ],
  "metadata": {
    "date_backmatter": "2558-12-23",
    "date_modified": "2559-06-22",
    "date_original": "2559-06-22",
    "doctype": "ประกาศ",
    "editors": [
      {
        "name": "ปริยานุช",
        "role": "จัดทำ",
        "date": "2559-06-27"
      },
      {
        "name": "ปุณิกา",
        "role": "ตรวจ",
        "date": "2559-06-27"
      }
    ],
    "tag": "c007-2e-2559-a0123"
  }
}