{
  "pages": [
    [
      [
        "ประกาศกรมสรรพสามิต",
        "เรื่อง กำหนดการใช้ การขีดฆ่า และการปิดแสตมป์สรรพสามิตสำหรับสินค้ายาสูบ (ฉบับที่ ๓)"
      ]
    ],
    []
  ],
  "metadata": {
    "date_backmatter": "2561-09-21",
    "date_modified": "2561-10-22",
    "date_original": "2561-10-22",
    "doctype": "ประกาศ",
    "editors": [
      {
        "name": "พิมพ์มาดา",
        "role": "จัดทำ",
        "date": "2562-02-08"
      }
    ],
    "tag": "c007-2e-2561-a0129"
  }
}