{
  "pages": [
    [
      [
        "ประกาศกระทรวงการคลัง",
        "เรื่อง ลดอัตราภาษีสรรพสามิต",
        "(ฉบับที่ ๗๗)"
      ]
    ],
    []
  ],
  "metadata": {
    "date_backmatter": "2548-09-16",
    "date_modified": "2548-09-20",
    "date_original": "2548-09-20",
    "doctype": "ประกาศ",
    "editors": [
      {
        "name": "ชัชสรัญ",
        "role": "ผู้จัดทำ",
        "date": "2548-10-05"
      }
    ],
    "tag": "c007-2e-2548-a0051"
  }
}