{
  "pages": [
    [
      [
        "ประกาศกระทรวงการคลัง",
        "เรื่อง ลดอัตราและยกเว้นภาษีสรรพสามิต",
        "(ฉบับที่ ๔๑)"
      ]
    ],
    []
  ],
  "metadata": {
    "date_backmatter": "2540-05-21",
    "date_gz_old": "2540-05-21",
    "doctype": "ประกาศ",
    "editors": [
      {
        "name": "จารุวรรณ",
        "role": "แก้ไข",
        "date": "2545-07-18"
      }
    ],
    "tag": "c007-2e-2540-a002"
  }
}