{
  "pages": [
    [
      [
        "ประกาศกรมสรรพสามิต",
        "เรื่อง หลักเกณฑ์และเงื่อนไขการยกเว้นภาษีน้ำมันและผลิตภัณฑ์น้ำมันที่นำไปใช้เป็นวัตถุดิบ",
        "หรือส่วนประกอบในการผลิตในโรงอุตสาหกรรมน้ำมันและผลิตภัณฑ์น้ำมัน",
        "(ฉบับที่ ๒)"
      ]
    ],
    []
  ],
  "metadata": {
    "date_modified": "2551-07-25",
    "date_original": "2551-07-25",
    "doctype": "ประกาศ",
    "editors": [
      {
        "name": "วัชศักดิ์",
        "role": "ผู้จัดทำ",
        "date": "2551-07-28"
      }
    ],
    "tag": "c007-2e-2551-a0044"
  }
}