{
  "pages": [
    [
      [
        "ประกาศกระทรวงการคลัง",
        "เรื่อง ลดอัตราภาษีสรรพสามิต",
        "(ฉบับที่ ๑๒๒)"
      ]
    ],
    []
  ],
  "metadata": {
    "date_backmatter": "2557-04-28",
    "date_modified": "2557-04-29",
    "date_original": "2557-04-29",
    "doctype": "ประกาศ",
    "editors": [
      {
        "name": "ปริยานุช",
        "role": "ผู้จัดทำ",
        "date": "2557-04-30"
      },
      {
        "name": "อุษมล",
        "role": "ผู้ตรวจ",
        "date": "2557-05-01"
      }
    ],
    "tag": "c007-2e-2557-a0100"
  }
}