{
  "pages": [
    [
      [
        "ประกาศกรมสรรพสามิต",
        "เรื่อง ลักษณะเครื่องหมายแสดงการเสียภาษีจดทะเบียน",
        "(ฉบับที่ ๑๓/๒๕๔๖)"
      ]
    ],
    []
  ],
  "metadata": {
    "date_backmatter": "2546-05-20",
    "date_modified": "2546-07-10",
    "date_original": "2546-07-10",
    "doctype": "ประกาศ",
    "editors": [
      {
        "name": "สุภาพร",
        "role": "พิมพ์",
        "date": "2546-09-03"
      },
      {
        "name": "สุภาพร",
        "role": "แก้ไข",
        "date": "2546-10-27"
      },
      {
        "name": "สุนันทา/พัชรินทร์",
        "role": "ตรวจ",
        "date": "2546-10-28"
      }
    ],
    "tag": "c007-2e-2546-a0031"
  }
}