{
  "pages": [
    [
      [
        "ประกาศกรมสรรพสามิต",
        "เรื่อง ลักษณะเครื่องหมายแสดงการเสียภาษีจดทะเบียน",
        "(ฉบับที่ ๑๙/๒๕๔๙)"
      ]
    ],
    []
  ],
  "metadata": {
    "date_backmatter": "2549-04-27",
    "date_modified": "2549-06-01",
    "date_original": "2549-06-01",
    "doctype": "ประกาศ",
    "editors": [
      {
        "name": "นันทนา",
        "role": "ผู้จัดทำ",
        "date": "2549-06-07"
      }
    ],
    "tag": "c007-2e-2549-a0047"
  }
}