{
  "pages": [
    [
      [
        "พระราชกฤษฎีกา",
        "ให้ใช้บทบัญญัติมาตรา ๓ แห่งพระราชบัญญัติให้นำวิธีพิจารณาความอาญา",
        "ในศาลแขวงมาใช้บังคับในศาลจังหวัด พ.ศ. ๒๕๒๐ บังคับ",
        "สำหรับคดีที่เกิดขึ้นในบางท้องที่ (ฉบับที่ ๑๖)",
        "พ.ศ. ๒๕๔๔",
        "",
        "",
        "ภูมิพลอดุลยเดช ป.ร.",
        "ให้ไว้ ณ วันที่ ๒๑ เมษายน พ.ศ. ๒๕๔๔",
        "เป็นปีที่ ๕๖ ในรัชกาลปัจจุบัน"
      ]
    ],
    []
  ],
  "metadata": {
    "date_header": "2544-04-21",
    "date_modified": "2544-05-01",
    "date_original": "2544-05-01",
    "doctype": "พระราชกฤษฎีกา",
    "editors": [
      {
        "name": "อุกฤต",
        "role": "ผู้จัดทำ",
        "date": "2553-11-03"
      },
      {
        "name": "เลิศศักดิ์",
        "role": "ผู้ตรวจ",
        "date": "2554-02-01"
      }
    ],
    "tag": "cb01-2a-2544-a0001",
    "title": "ให้ใช้บทบัญญัติมาตรา ๓ แห่งพระราชบัญญัติให้นำวิธีพิจารณาความอาญาในศาลแขวงมาใช้บังคับในศาลจังหวัด พ.ศ. ๒๕๒๐ บังคับสำหรับคดีที่เกิดขึ้นในบางท้องที่ (ฉบับที่ ๑๖)"
  }
}