{
  "pages": [
    [
      [
        "พระราชกฤษฎีกา",
        "ให้ใช้บทบัญญัติมาตรา ๓ แห่งพระราชบัญญัติให้นำวิธีพิจารณาความอาญาในศาลแขวง",
        "มาใช้บังคับในศาลจังหวัด พ.ศ. ๒๕๒๐ บังคับสำหรับคดีที่เกิดขึ้นในบางท้องที่",
        "พ.ศ. ๒๕๒๐",
        "",
        "",
        "ภูมิพลอดุลยเดช ป.ร.",
        "ให้ไว้ ณ วันที่ ๓๑ ธันวาคม พ.ศ. ๒๕๒๐",
        "เป็นปีที่ ๓๒ ในรัชกาลปัจจุบัน"
      ]
    ],
    []
  ],
  "metadata": {
    "date_header": "2520-12-31",
    "date_modified": "2544-05-01",
    "date_original": "2523-12-25",
    "doctype": "พระราชกฤษฎีกา",
    "editors": [
      {
        "name": "อุกฤต",
        "role": "ผู้จัดทำ",
        "date": "2553-11-03"
      },
      {
        "name": "เลิศศักดิ์",
        "role": "ผู้ตรวจ",
        "date": "2554-02-01"
      }
    ],
    "tag": "cb01-2a-2544-a0002",
    "title": "ให้ใช้บทบัญญัติมาตรา ๓ แห่งพระราชบัญญัติให้นำวิธีพิจารณาความอาญาในศาลแขวงมาใช้บังคับในศาลจังหวัด พ.ศ. ๒๕๒๐ บังคับสำหรับคดีที่เกิดขึ้นในบางท้องที่"
  }
}