{
  "pages": [
    [
      [
        "ประกาศมหาวิทยาลัยศรีนครินทรวิโรฒ",
        "ฉบับที่ ๔/๒๕๕๙",
        "เรื่อง การจัดตั้งส่วนงานของมหาวิทยาลัยศรีนครินทรวิโรฒ"
      ]
    ],
    []
  ],
  "metadata": {
    "date_backmatter": "2559-07-23",
    "date_modified": "2561-01-26",
    "date_original": "2559-08-22",
    "doctype": "ประกาศ",
    "editors": [
      {
        "name": "พรวิภา",
        "role": "จัดทำ",
        "date": "2560-02-28"
      },
      {
        "name": "ปริญสินีย์",
        "role": "ตรวจ",
        "date": "2560-03-03"
      },
      {
        "name": "ปุณิกา",
        "role": "เพิ่มเติม",
        "date": "2560-11-07"
      },
      {
        "name": "พรวิภา",
        "role": "เพิ่มเติม",
        "date": "2561-04-20"
      },
      {
        "name": "ปริญสินีย์",
        "role": "ตรวจ",
        "date": "2561-05-23"
      }
    ],
    "tag": "c131-2e-9995-update"
  }
}