{
  "pages": [
    [
      [
        "ประกาศมหาวิทยาลัยศรีนครินทรวิโรฒ",
        "ฉบับที่ ๙/๒๕๕๙",
        "เรื่อง การยุบศูนย์วิทยาศาสตรศึกษา และสถาบันวิจัยและพัฒนาการศึกษาพิเศษ"
      ]
    ],
    []
  ],
  "metadata": {
    "date_backmatter": "2559-11-15",
    "date_modified": "2560-01-23",
    "date_original": "2560-01-23",
    "doctype": "ประกาศ",
    "editors": [
      {
        "name": "พรวิภา/ปริยานุช",
        "role": "จัดทำ",
        "date": "2560-01-26"
      },
      {
        "name": "ปริญสินีย์",
        "role": "ตรวจ",
        "date": "2560-02-20"
      }
    ],
    "tag": "c131-2e-2560-a0002"
  }
}