{
  "pages": [
    [
      [
        "ข้อบัญญัติกรุงเทพมหานคร",
        "เรื่อง การพัสดุ (ฉบับที่ ๒)",
        "พ.ศ. ๒๕๔๘"
      ]
    ],
    []
  ],
  "metadata": {
    "date_backmatter": "2548-02-17",
    "date_modified": "2548-04-28",
    "date_original": "2548-04-28",
    "editors": [
      {
        "name": "ฐิติพงษ์",
        "role": "ผู้จัดทำ",
        "date": "2548-06-15"
      }
    ],
    "tag": "c334-2j-2548-a0001"
  }
}