{
  "pages": [
    [
      [
        "ระเบียบกรุงเทพมหานคร",
        "ว่าด้วยการเบิกจ่ายเงินและการส่งเงินสบทบกองทุนประกันสังคม",
        "พ.ศ. ๒๕๓๔"
      ]
    ],
    []
  ],
  "metadata": {
    "date_backmatter": "2534-05-17",
    "date_gz_old": "2534-06-01",
    "editors": [
      {
        "name": "พุทธชาด",
        "role": "แก้ไข",
        "date": "2545-10-02"
      }
    ],
    "tag": "c334-2g-2534-a0001"
  }
}