{
  "pages": [
    [
      [
        "ข้อบัญญัติกรุงเทพมหานคร",
        "เรื่อง สำนักงานตลาด",
        "พ.ศ. ๒๕๓๔"
      ]
    ],
    []
  ],
  "metadata": {
    "date_backmatter": "2534-11-04",
    "date_modified": "2536-12-20",
    "date_original": "2534-11-21",
    "editors": [
      {
        "name": "วชิระ",
        "role": "จัดทำ",
        "date": "2550-02-19"
      }
    ],
    "tag": "c334-2j-9995-update"
  }
}