{
  "pages": [
    [
      [
        "ข้อบัญญัติกรุงเทพมหานคร",
        "เรื่อง เงินสะสม",
        "พ.ศ. 2533"
      ]
    ],
    []
  ],
  "metadata": {
    "date_backmatter": "2533-03-01",
    "editors": [],
    "tag": "c334-2j-2533-a0001"
  }
}