{
  "pages": [
    [
      [
        "ข้อบัญญัติกรุงเทพมหานคร",
        "เรื่อง รถราชการ (ฉบับที่ ๔)",
        "พ.ศ. ๒๕๔๘"
      ]
    ],
    []
  ],
  "metadata": {
    "date_backmatter": "2548-11-22",
    "date_modified": "2548-12-23",
    "date_original": "2548-12-23",
    "editors": [
      {
        "name": "พชร",
        "role": "ผู้จัดทำ",
        "date": "2548-12-28"
      }
    ],
    "tag": "c334-2j-2548-a0009"
  }
}