{
  "pages": [
    [
      [
        "ประกาศกรุงเทพมหานคร",
        "เรื่อง กำหนดที่จอดยานยนตร์และอัตราค่าธรรมเนียมจอดยานยนตร์"
      ]
    ],
    []
  ],
  "metadata": {
    "date_backmatter": "2561-08-28",
    "date_modified": "2561-09-26",
    "date_original": "2561-09-26",
    "doctype": "ประกาศ",
    "editors": [
      {
        "name": "พัชรภรณ์",
        "role": "จัดทำ",
        "date": "2562-02-01"
      }
    ],
    "tag": "c334-2e-2561-a0012"
  }
}