{
  "pages": [
    [
      [
        "ระเบียบกรุงเทพมหานคร",
        "ว่าด้วยการรับเงิน การเบิกจ่ายเงิน การเก็บรักษาเงิน",
        "การนำส่งเงิน และการตรวจเงิน",
        "พ.ศ.๒๕๓๐"
      ]
    ],
    []
  ],
  "metadata": {
    "date_backmatter": "2530-03-27",
    "date_modified": "2548-11-23",
    "date_original": "2530-03-30",
    "editors": [
      {
        "name": "วชิระ",
        "role": "จัดทำ",
        "date": "2550-03-07"
      }
    ],
    "tag": "c334-2g-9998-update"
  }
}