{
  "pages": [
    [
      [
        "ข้อบัญญัติกรุงเทพมหานคร",
        "เรื่อง การพัสดุ",
        "พ.ศ.๒๕๓๘"
      ]
    ],
    []
  ],
  "metadata": {
    "date_backmatter": "2538-06-30",
    "date_gz_old": "2538-08-01",
    "editors": [
      {
        "name": "เพ็ญพร/พิมพ์",
        "role": "แก้ไข",
        "date": "2545-09-13"
      }
    ],
    "tag": "c334-2j-2538-a002"
  }
}