{
  "pages": [
    [
      [
        "คำสั่งกรุงเทพมหานคร",
        "ที่ ๒๑๕๕/๒๕๖๐",
        "เรื่อง มอบอำนาจในการดำเนินการตามพระราชบัญญัติพลังงานนิวเคลียร์เพื่อสันติ พ.ศ. ๒๕๕๙",
        "ให้ข้าราชการกรุงเทพมหานครปฏิบัติราชการแทนผู้ว่าราชการกรุงเทพมหานคร"
      ]
    ],
    []
  ],
  "metadata": {
    "date_backmatter": "2560-07-03",
    "date_modified": "2560-09-19",
    "date_original": "2560-09-19",
    "editors": [
      {
        "name": "พิมพ์มาดา/อัญชลี",
        "role": "จัดทำ",
        "date": "2560-09-21"
      },
      {
        "name": "นุสรา",
        "role": "ตรวจ",
        "date": "2560-09-23"
      }
    ],
    "tag": "c334-2f-2560-a0004"
  }
}