{
  "pages": [
    [
      [
        "ระเบียบกรุงเทพมหานคร",
        "ว่าด้วย การรับเงิน การใช้จ่ายเงิน การเบิกจ่ายเงิน การเก็บรักษา",
        "เงินบำรุงห้องสมุดประชาชนและการคืนเงินค่าประกันหนังสือ",
        "พ.ศ. 2532"
      ]
    ],
    []
  ],
  "metadata": {
    "date_backmatter": "2532-01-24",
    "editors": [],
    "tag": "c334-2g-2532-001"
  }
}