{
  "pages": [
    [
      [
        "ข้อบัญญัติกรุงเทพมหานคร",
        "เรื่อง การจ่ายค่าตอบแทนแก่บุคลากรทางด้านการแพทย์และสาธารณสุข",
        "ในสังกัดกรุงเทพมหานคร (ฉบับที่ ๒) พ.ศ. ๒๕๔๘"
      ]
    ],
    []
  ],
  "metadata": {
    "date_backmatter": "2548-07-29",
    "date_modified": "2548-09-11",
    "date_original": "2548-09-11",
    "editors": [
      {
        "name": "ฐิติพงษ์",
        "role": "ผู้จัดทำ",
        "date": "2548-09-20"
      }
    ],
    "tag": "c334-2j-2548-a0005"
  }
}