{
  "pages": [
    [
      [
        "ข้อบัญญัติกรุงเทพมหานคร",
        "เรื่อง ค่าใช้จ่ายเกี่ยวกับกิจกรรมศูนย์ฝึกกีฬาเยาวชน",
        "พ.ศ. ๒๕๔๙"
      ]
    ],
    []
  ],
  "metadata": {
    "date_backmatter": "2549-02-22",
    "date_modified": "2549-03-20",
    "date_original": "2549-03-20",
    "editors": [
      {
        "name": "นันทนา",
        "role": "ผู้จัดทำ",
        "date": "2549-03-23"
      }
    ],
    "tag": "c334-2j-2549-a0006"
  }
}