{
  "pages": [
    [
      [
        "พระราชกฤษฎีกา",
        "กำหนดเงินเดือน เงินเพิ่ม เงินค่าเบี้ยประชุม และเงินตอบแทนอื่น",
        "ของผู้ว่าราชการกรุงเทพมหานคร ข้าราชการการเมืองอื่นของกรุงเทพมหานคร",
        "และกรรมการที่ผู้ว่าราชการกรุงเทพมหานครแต่งตั้ง (ฉบับที่ ๗)",
        "พ.ศ. ๒๕๔๘",
        "",
        "",
        "ภูมิพลอดุลยเดช ป.ร.",
        "ให้ไว้ ณ วันที่ ๒๖ กันยายน พ.ศ. ๒๕๔๘",
        "เป็นปีที่ ๖๐ ในรัชกาลปัจจุบัน"
      ]
    ],
    []
  ],
  "metadata": {
    "date_backmatter": "2547-03-09",
    "date_header": "2548-09-26",
    "date_modified": "2548-10-14",
    "date_original": "2548-10-14",
    "doctype": "พระราชกฤษฎีกา",
    "editors": [
      {
        "name": "ฐิติพงษ์",
        "role": "ผู้จัดทำ",
        "date": "2548-10-20"
      },
      {
        "name": "ปณตภร",
        "role": "ปรับปรุง",
        "date": "2555-10-05"
      }
    ],
    "tag": "c334-2a-2548-a0002",
    "title": "กำหนดเงินเดือน เงินเพิ่ม เงินค่าเบี้ยประชุม และเงินตอบแทนอื่นของผู้ว่าราชการกรุงเทพมหานคร ข้าราชการการเมืองอื่นของกรุงเทพมหานครและกรรมการที่ผู้ว่าราชการกรุงเทพมหานครแต่งตั้ง (ฉบับที่ ๗)"
  }
}