{
  "pages": [
    [
      [
        "ประกาศกรุงเทพมหานคร",
        "เรื่อง การแบ่งส่วนราชการภายในหน่วยงานและการ",
        "กำหนดอำนาจหน้าที่ของส่วนราชการกรุงเทพมหานคร"
      ]
    ],
    []
  ],
  "metadata": {
    "date_backmatter": "2528-10-31",
    "date_modified": "2557-10-29",
    "date_original": "2528-11-07",
    "doctype": "ประกาศ",
    "editors": [
      {
        "name": "ณัฐพร",
        "role": "จัดทำ",
        "date": "2556-10-14"
      },
      {
        "name": "โชติกานต์",
        "role": "ปรับปรุง",
        "date": "2557-07-15"
      },
      {
        "name": "กฤษดายุทธ",
        "role": "เพิ่มเติม",
        "date": "2557-11-24"
      }
    ],
    "tag": "c334-2e-2557-a0006"
  }
}