{
  "pages": [
    [
      [
        "ประกาศกรุงเทพมหานคร",
        "เรื่อง การแบ่งส่วนราชการภายในหน่วยงานและการกำหนดอำนาจหน้าที่",
        "ของส่วนราชการกรุงเทพมหานคร (ฉบับที่ ๖๙)"
      ]
    ],
    []
  ],
  "metadata": {
    "date_backmatter": "2552-05-21",
    "date_modified": "2552-07-15",
    "date_original": "2552-07-15",
    "doctype": "ประกาศ",
    "editors": [
      {
        "name": "ปริยานุช",
        "role": "ผู้จัดทำ",
        "date": "2552-07-29"
      }
    ],
    "tag": "c334-2e-2552-a0002"
  }
}