{
  "pages": [
    [
      [
        "ประกาศกรุงเทพมหานคร",
        "เรื่อง กำหนดขนาดและชนิดยานยนต์ อัตราค่าธรรมเนียม หลักเกณฑ์ วิธีการและเงื่อนไข",
        "ในการจัดเก็บค่าธรรมเนียมการจอดยานยนต์ในอาคารที่จอดยานยนต์ของกรุงเทพมหานคร",
        "บริเวณตลาดสวนมะลิ ถนนเฉลิมเขตร์ เขตป้อมปราบศัตรูพ่าย"
      ]
    ],
    []
  ],
  "metadata": {
    "date_backmatter": "2561-08-17",
    "date_modified": "2561-09-10",
    "date_original": "2561-09-10",
    "doctype": "ประกาศ",
    "editors": [
      {
        "name": "พิมพ์มาดา",
        "role": "จัดทำ",
        "date": "2561-12-24"
      }
    ],
    "tag": "c334-2e-2561-a0010"
  }
}