{
  "pages": [
    [
      [
        "ข้อบัญญัติกรุงเทพมหานคร",
        "เรื่อง ลูกจ้าง",
        "พ.ศ. ๒๕๓๕"
      ]
    ],
    []
  ],
  "metadata": {
    "date_backmatter": "2535-02-28",
    "date_gz_old": "2535-04-10",
    "editors": [
      {
        "name": null,
        "role": null,
        "date": "2544-09-03"
      }
    ],
    "tag": "c334-2j-2535-a004"
  }
}