{
  "pages": [
    [
      [
        "พระราชกฤษฎีกา",
        "ให้มีการเลือกตั้งผู้ว่าราชการกรุงเทพมหานคร",
        "พ.ศ. ๒๕๔๓",
        "------------",
        "ภูมิพลอดุลยเดช ป.ร.",
        "ให้ไว้ ณ วันที่ ๒๗ พฤษภาคม พ.ศ. ๒๕๔๓",
        "เป็นปีที่ ๕๕ ในรัชกาลปัจจุบัน"
      ]
    ],
    []
  ],
  "metadata": {
    "date_backmatter": "2543-06-01",
    "date_header": "2543-05-27",
    "doctype": "พระราชกฤษฎีกา",
    "editors": [],
    "tag": "c334-2a-2543-a0001",
    "title": "ให้มีการเลือกตั้งผู้ว่าราชการกรุงเทพมหานครพ.ศ. ๒๕๔๓------------ภูมิพลอดุลยเดช ป.ร.ให้ไว้ ณ วันที่ ๒๗ พฤษภาคม"
  }
}