{
  "pages": [
    [
      [
        "ข้อบัญญัติกรุงเทพมหานคร",
        "เรื่อง การจ่ายเงินทุนการศึกษาแก่บุคคล เพื่อศึกษาในระดับปริญญาตรีทางการศึกษา",
        "พ.ศ. ๒๕๕๙"
      ]
    ],
    []
  ],
  "metadata": {
    "date_backmatter": "2559-02-19",
    "date_modified": "2559-03-28",
    "date_original": "2559-03-28",
    "editors": [
      {
        "name": "ปริยานุช",
        "role": "จัดทำ",
        "date": "2559-04-04"
      },
      {
        "name": "ชวัลพร",
        "role": "ตรวจ",
        "date": "2559-04-04"
      }
    ],
    "tag": "c334-2j-2559-a0002"
  }
}