{
  "pages": [
    [
      [
        "ประกาศกรุงเทพมหานคร",
        "เรื่อง การแบ่งส่วนราชการภายในหน่วยงานและการกำหนดอำนาจหน้าที่",
        "ของส่วนราชการกรุงเทพมหานคร",
        "(ฉบับที่ ๖๗)"
      ]
    ],
    []
  ],
  "metadata": {
    "date_backmatter": "2551-08-11",
    "date_modified": "2551-09-15",
    "date_original": "2551-09-15",
    "doctype": "ประกาศ",
    "editors": [
      {
        "name": "วัชศักดิ์",
        "role": "ผู้จ้ดทำ",
        "date": "2551-09-18"
      }
    ],
    "tag": "c334-2e-2551-a0002"
  }
}