{
  "pages": [
    [
      [
        "พระราชกฤษฎีกา",
        "กำหนดเงินเดือน เงินเพิ่ม เงินค่าเบี้ยประชุม และเงินตอบแทนอื่น",
        "ของผู้ว่าราชการกรุงเทพมหานคร ข้าราชการการเมืองอื่นของกรุงเทพมหานคร",
        "และกรรมการที่ผู้ว่าราชการกรุงเทพมหานครแต่งตั้ง",
        "พ.ศ. ๒๕๒๙",
        "",
        "",
        "ภูมิพลอดุลยเดช ป.ร.",
        "ให้ไว้ ณ วันที่ ๒๐ กุมภาพันธ์ พ.ศ. ๒๕๒๙",
        "เป็นปีที่ ๔๑ ในรัชกาลปัจจุบัน"
      ]
    ],
    []
  ],
  "metadata": {
    "date_header": "2529-02-20",
    "date_modified": "2536-04-30",
    "date_original": "2529-02-24",
    "doctype": "พระราชกฤษฎีกา",
    "editors": [
      {
        "name": "ปณตภร",
        "role": "ผู้จัดทำ",
        "date": "2555-10-05"
      }
    ],
    "tag": "c334-2a-2536-a0002",
    "title": "กำหนดเงินเดือน เงินเพิ่ม เงินค่าเบี้ยประชุม และเงินตอบแทนอื่นของผู้ว่าราชการกรุงเทพมหานคร ข้าราชการการเมืองอื่นของกรุงเทพมหานครและกรรมการที่ผู้ว่าราชการกรุงเทพมหานครแต่งตั้ง"
  }
}