{
  "pages": [
    [
      [
        "คำสั่งสำนักอนามัย",
        "ที่ ๗๖๓/๒๕๕๒",
        "เรื่อง มอบอำนาจให้ผู้อำนวยการกอง ผู้อำนวยการศูนย์บริการสาธารณสุข",
        "ปฏิบัติราชการแทนผู้อำนวยการสำนักอนามัย"
      ]
    ],
    []
  ],
  "metadata": {
    "date_backmatter": "2552-05-12",
    "date_modified": "2553-03-26",
    "date_original": "2553-03-26",
    "editors": [
      {
        "name": "ปริยานุช",
        "role": "พิมพ์",
        "date": "2553-04-09"
      },
      {
        "name": "นันท์นภัสร์",
        "role": "ตรวจ",
        "date": "2553-04-09"
      }
    ],
    "tag": "c334-2f-2553-a0002"
  }
}