{
  "pages": [
    [
      [
        "ข้อบัญญัติกรุงเทพมหานคร",
        "เรื่อง งบประมาณรายจ่ายเพิ่มเติม",
        "ประจำปีงบประมาณ พ.ศ. ๒๕๕๒ (ฉบับที่ ๑)"
      ]
    ],
    []
  ],
  "metadata": {
    "date_backmatter": "2552-06-25",
    "date_modified": "2552-07-03",
    "date_original": "2552-07-03",
    "editors": [
      {
        "name": "ปริยานุช",
        "role": "ผู้จัดทำ",
        "date": "2552-07-10"
      }
    ],
    "tag": "c334-2j-2552-a0002"
  }
}