{
  "pages": [
    [
      [
        "ระเบียบกรุงเทพมหานคร",
        "ว่าด้วยเงินสนับสนุนการศึกษาแก่นักเรียนที่ไม่สามารถ",
        "เข้าเรียนในโรงเรียนสังกัดกรุงเทพมหานครได้",
        "พ.ศ. ๒๕๔๓"
      ]
    ],
    []
  ],
  "metadata": {
    "date_backmatter": "2543-05-02",
    "date_gz_old": "2543-06-12",
    "editors": [],
    "tag": "c334-2g-2543-a006"
  }
}