{
  "pages": [
    [
      [
        "ข้อบัญญัติกรุงเทพมหานคร",
        "เรื่อง งบประมาณรายจ่ายเพิ่มเติม",
        "ประจำปีงบประมาณ พ.ศ. ๒๕๔๙ (ฉบับที่ ๒)"
      ]
    ],
    []
  ],
  "metadata": {
    "date_backmatter": "2549-06-23",
    "date_modified": "2549-07-17",
    "date_original": "2549-07-17",
    "editors": [
      {
        "name": "นันทนา",
        "role": "ผู้จัดทำ",
        "date": "2549-07-25"
      }
    ],
    "tag": "c334-2j-2549-a0010"
  }
}