{
  "pages": [
    [
      [
        "ประกาศสำนักงานศาลปกครอง",
        "เรื่อง ศาลปกครองพิพากษาถึงที่สุดให้เพิกถอนกฎ"
      ]
    ],
    []
  ],
  "metadata": {
    "date_backmatter": "2557-02-12",
    "date_modified": "2557-02-20",
    "date_original": "2557-02-20",
    "doctype": "ประกาศ",
    "editors": [
      {
        "name": "ปริยานุช",
        "role": "ผู้จัดทำ",
        "date": "2557-02-25"
      },
      {
        "name": "เอกฤทธิ์",
        "role": "ผู้ตรวจ",
        "date": "2557-03-03"
      }
    ],
    "tag": "c334-2e-2557-a0001"
  }
}