{
  "pages": [
    [
      [
        "ข้อบัญญัติกรุงเทพมหานคร",
        "เรื่อง การควบคุมการเลี้ยงหรือปล่อยสุนัข",
        "พ.ศ. ๒๕๔๘"
      ]
    ],
    []
  ],
  "metadata": {
    "date_backmatter": "2548-11-11",
    "date_modified": "2557-02-20",
    "date_original": "2548-12-07",
    "editors": [
      {
        "name": "ชัชสรัญ",
        "role": "ผู้จัดทำ",
        "date": "2548-12-15"
      },
      {
        "name": "วิชพงษ์",
        "role": "ปรับปรุง",
        "date": "2558-06-22"
      }
    ],
    "tag": "c334-2j-2548-a0008"
  }
}