{
  "pages": [
    [
      [
        "ประกาศผู้อำนวยการทางหลวงเทศบาล",
        "(กรุงเทพมหานคร)",
        "เรื่อง ห้ามยานพาหนะบรรทุกน้ำหนักลงเพลาเกินกว่าที่ได้กำหนด",
        "เดินบนทางหลวงเทศบาลในเขตกรุงเทพมหานคร"
      ]
    ],
    []
  ],
  "metadata": {
    "date_backmatter": "2535-02-25",
    "date_gz_old": "2535-03-12",
    "doctype": "ประกาศ",
    "editors": [
      {
        "name": "พุทธชาด",
        "role": "แก้ไข",
        "date": "2545-09-16"
      }
    ],
    "tag": "c334-2e-2535-a004"
  }
}