{
  "pages": [
    [
      [
        "ประกาศกรุงเทพมหานคร",
        "เรื่อง เปลี่ยนแปลงพื้นที่แขวงบางจาก และตั้งแขวงพระโขนงใต้ เขตพระโขนง"
      ]
    ],
    []
  ],
  "metadata": {
    "date_backmatter": "2560-07-26",
    "date_modified": "2560-08-31",
    "date_original": "2560-08-31",
    "doctype": "ประกาศ",
    "editors": [
      {
        "name": "ปุณิกา/ภวรรณตรี",
        "role": "จัดทำ",
        "date": "2560-09-06"
      }
    ],
    "tag": "c334-2e-2560-a0010"
  }
}