{
  "pages": [
    [
      [
        "พระราชกฤษฎีกา",
        "ให้มีการเลือกตั้งสมาชิกสภากรุงเทพมหานคร",
        "พ.ศ. ๒๕๔๑",
        "-------------",
        "",
        "ภูมิพลอดุลยเดช ป.ร.",
        "ให้ไว้ ณ วันที่ ๓ มีนาคม พ.ศ. ๒๕๔๑",
        "เป็นปีที่ ๕๓ ในรัชกาลปัจจุบัน"
      ]
    ],
    []
  ],
  "metadata": {
    "date_backmatter": "2541-03-05",
    "date_gz_old": "2541-03-04",
    "date_header": "2541-03-03",
    "editors": [],
    "tag": "c334-2a-2541-001"
  }
}