{
  "pages": [
    [
      [
        "ประกาศกรุงเทพมหานคร",
        "เรื่อง การแบ่งส่วนราชการภายในหน่วยงานและการกำหนดอำนาจหน้าที่",
        "ของส่วนราชการกรุงเทพมหานคร (ฉบับที่ ๘๔)"
      ]
    ],
    []
  ],
  "metadata": {
    "date_backmatter": "2556-07-05",
    "date_modified": "2556-07-31",
    "date_original": "2556-07-31",
    "doctype": "ประกาศ",
    "editors": [
      {
        "name": "ปริยานุช",
        "role": "ผู้จัดทำ",
        "date": "2556-08-05"
      },
      {
        "name": "อุษมล",
        "role": "ผู้ตรวจ",
        "date": "2556-08-08"
      }
    ],
    "tag": "c334-2e-2556-a0004"
  }
}