{
  "pages": [
    [
      [
        "ข้อบัญญัติกรุงเทพมหานคร",
        "เรื่อง วิธีการงบประมาณ (ฉบับที่ ๒)",
        "พ.ศ. ๒๕๓๓"
      ]
    ],
    []
  ],
  "metadata": {
    "date_backmatter": "2533-08-28",
    "date_modified": "2533-08-30",
    "date_original": "2533-08-30",
    "editors": [
      {
        "name": "ปณตภร",
        "role": "ปรับปรุง",
        "date": "2555-05-28"
      }
    ],
    "tag": "c334-2j-2533-a003"
  }
}