{
  "pages": [
    [
      [
        "ประกาศกรุงเทพมหานคร",
        "เรื่อง การแบ่งส่วนราชการภายในหน่วยงานและการกำหนดอำนาจหน้าที่",
        "ของส่วนราชการกรุงเทพมหานคร",
        "(ฉบับที่ ๕๙)"
      ]
    ],
    []
  ],
  "metadata": {
    "date_backmatter": "2549-03-01",
    "date_modified": "2549-04-27",
    "date_original": "2549-04-27",
    "doctype": "ประกาศ",
    "editors": [
      {
        "name": "พัชรินทร์",
        "role": "ผู้จัดทำ",
        "date": "2549-05-04"
      }
    ],
    "tag": "c334-2e-2549-a0003"
  }
}