{
  "pages": [
    [
      [
        "ประกาศกรุงเทพมหานคร",
        "เรื่อง เปลี่ยนแปลงพื้นที่แขวงสีกัน และตั้งแขวงดอนเมือง แขวงสนามบิน เขตดอนเมือง"
      ]
    ],
    []
  ],
  "metadata": {
    "date_backmatter": "2552-07-20",
    "date_modified": "2552-09-21",
    "date_original": "2552-09-21",
    "doctype": "ประกาศ",
    "editors": [
      {
        "name": "ปริยานุช",
        "role": "ผู้จัดทำ",
        "date": "2552-09-29"
      }
    ],
    "tag": "c334-2e-2552-a0009"
  }
}