{
  "pages": [
    [
      [
        "ข้อบัญญัติกรุงเทพมหานคร",
        "เรื่อง ค่าใช้จ่ายเกี่ยวกับการสนับสนุนการพัฒนาชุมชน พ.ศ. ๒๕๓๖"
      ]
    ],
    []
  ],
  "metadata": {
    "date_backmatter": "2536-08-06",
    "date_modified": "2539-03-21",
    "date_original": "2536-08-27",
    "editors": [
      {
        "name": "ปณตภร",
        "role": "ผู้จัดทำ",
        "date": "2556-04-25"
      }
    ],
    "tag": "c334-2j-2539-a007"
  }
}