{
  "pages": [
    [
      [
        "ระเบียบกรุงเทพมหานคร",
        "ว่าด้วยเงินบำรุงวิทยาลัยแพทยศาสตร์กรุงเทพมหานคร",
        "พ.ศ. ๒๕๓๘"
      ]
    ],
    []
  ],
  "metadata": {
    "date_backmatter": "2538-05-29",
    "date_gz_old": "2538-06-23",
    "editors": [
      {
        "name": "จารุวรรณ",
        "role": "แก้ไข",
        "date": "2545-08-23"
      }
    ],
    "tag": "c334-2g-2538-a003"
  }
}