{
  "pages": [
    [
      [
        "คำสั่งสำนักการโยธา",
        "ที่ ๙๕/๒๕๕๒",
        "เรื่อง แก้ไขเพิ่มเติมคำสั่งมอบหมายและมอบอำนาจให้ข้าราชการ",
        "ปฏิบัติราชการแทนผู้อำนวยการสำนักการโยธา"
      ]
    ],
    []
  ],
  "metadata": {
    "date_backmatter": "2552-05-27",
    "date_modified": "2552-06-26",
    "date_original": "2552-06-26",
    "editors": [
      {
        "name": "ปริยานุช",
        "role": "ผู้จัดทำ",
        "date": "2552-06-30"
      }
    ],
    "tag": "c334-2f-2552-a0009"
  }
}