{
  "pages": [
    [
      [
        "ข้อบัญญัติกรุงเทพมหานคร",
        "เรื่อง งบประมาณรายจ่ายประจำปีงบประมาณ พ.ศ. ๒๕๕๔"
      ]
    ],
    []
  ],
  "metadata": {
    "date_backmatter": "2553-07-16",
    "date_modified": "2553-07-20",
    "date_original": "2553-07-20",
    "editors": [
      {
        "name": "ปริยานุช",
        "role": "ผู้จัดทำ",
        "date": "2553-07-28"
      },
      {
        "name": "นันท์นภัสร์",
        "role": "ตรวจ",
        "date": "2553-07-28"
      }
    ],
    "tag": "c334-2j-2553-a0005"
  }
}