{
  "pages": [
    [
      [
        "พระราชกฤษฎีกา",
        "กำหนดเงินประจำตำแหน่ง เงินค่าเบี้ยประชุม และเงินตอบแทนอื่น",
        "ของสมาชิกสภากรุงเทพมหานคร สมาชิกสภาเขตของกรุงเทพมหานคร",
        "และกรรมการของสภากรุงเทพมหานคร (ฉบับที่ ๔)",
        "พ.ศ. ๒๕๓๔",
        "",
        "",
        "ภูมิพลอดุลยเดช ป.ร.",
        "ให้ไว้ ณ วันที่ ๒๘ ตุลาคม พ.ศ. ๒๕๓๔",
        "เป็นปีที่ ๔๖ ในรัชกาลปัจจุบัน"
      ]
    ],
    []
  ],
  "metadata": {
    "date_header": "2534-10-28",
    "date_modified": "2534-11-08",
    "date_original": "2534-11-08",
    "doctype": "พระราชกฤษฎีกา",
    "editors": [
      {
        "name": "ปณตภร",
        "role": "ปรับปรุง",
        "date": "2555-10-03"
      }
    ],
    "tag": "c334-2a-2534-a0001",
    "title": "กำหนดเงินประจำตำแหน่ง เงินค่าเบี้ยประชุม และเงินตอบแทนอื่นของสมาชิกสภากรุงเทพมหานคร สมาชิกสภาเขตของกรุงเทพมหานครและกรรมการของสภากรุงเทพมหานคร (ฉบับที่ ๔)"
  }
}