{
  "pages": [
    [
      [
        "ข้อบัญญัติกรุงเทพมหานคร",
        "เรื่อง งบประมาณรายจ่ายประจำปีงบประมาณ พ.ศ. ๒๕๔๙"
      ]
    ],
    []
  ],
  "metadata": {
    "date_backmatter": "2548-09-27",
    "date_modified": "2548-10-07",
    "date_original": "2548-10-07",
    "editors": [
      {
        "name": "ชัชสรัญ",
        "role": "ผู้จัดทำ",
        "date": "2548-10-13"
      }
    ],
    "tag": "c334-2j-2548-a0006"
  }
}