{
  "pages": [
    [
      [
        "ระเบียบกรุงเทพมหานคร",
        "ว่าด้วยกองทุนพัฒนาชุมชนกรุงเทพมหานคร (ฉบับที่ 2)",
        "พ.ศ. 2542"
      ]
    ],
    []
  ],
  "metadata": {
    "date_backmatter": "2542-08-13",
    "editors": [],
    "tag": "c334-2g-2542-a003"
  }
}