{
  "pages": [
    [
      [
        "คำสั่งสำนักการระบายน้ำ",
        "ที่ ๒๖๐/๒๕๕๘",
        "เรื่อง มอบอำนาจให้ผู้อำนวยการสำนักงาน ผู้อำนวยการกองและเลขานุการสำนักการระบายน้ำ",
        "ปฏิบัติราชการแทนผู้อำนวยการสำนักการระบายน้ำ"
      ]
    ],
    []
  ],
  "metadata": {
    "date_backmatter": "2558-07-24",
    "date_modified": "2558-09-05",
    "date_original": "2558-09-05",
    "editors": [
      {
        "name": "ปริยานุช",
        "role": "ผู้จัดทำ",
        "date": "2558-09-10"
      },
      {
        "name": "วิศนี",
        "role": "ผู้ตรวจ",
        "date": "2558-10-07"
      }
    ],
    "tag": "c334-2f-2558-a0004"
  }
}