{
  "pages": [
    [
      [
        "ระเบียบกรุงเทพมหานคร",
        "ว่าด้วยการตรวจราชการของผู้ตรวจราชการกรุงเทพมหานคร",
        "พ.ศ. 2529"
      ]
    ],
    []
  ],
  "metadata": {
    "date_backmatter": "2529-01-15",
    "editors": [],
    "tag": "c334-2g-2529-001"
  }
}