{
  "pages": [
    [
      [
        "ข้อบัญญัติกรุงเทพมหานคร",
        "เรื่อง ค่าใช้จ่ายเกี่ยวกับการพัฒนาทรัพย์สินที่ประชาชนทั่วไปใช้สอยร่วมกัน (ฉบับที่ ๒)",
        "พ.ศ. ๒๕๕๔"
      ]
    ],
    []
  ],
  "metadata": {
    "date_backmatter": "2554-09-13",
    "date_modified": "2554-10-14",
    "date_original": "2554-10-14",
    "editors": [
      {
        "name": "ปริยานุช",
        "role": "ผู้จัดทำ",
        "date": "2554-10-19"
      },
      {
        "name": "ปณตภร",
        "role": "ผู้ตรวจ",
        "date": "2554-10-25"
      }
    ],
    "tag": "c334-2j-2554-a0003"
  }
}