{
  "pages": [
    [
      [
        "คำสั่งกรุงเทพมหานคร",
        "ที่ ๔๒๐๕/๒๕๕๑",
        "เรื่อง มอบอำนาจให้ข้าราชการปฏิบัติราชการแทนผู้ว่าราชการกรุงเทพมหานคร"
      ]
    ],
    []
  ],
  "metadata": {
    "date_backmatter": "2551-11-06",
    "date_modified": "2551-11-26",
    "date_original": "2551-11-26",
    "editors": [
      {
        "name": "วัชศักดิ์",
        "role": "ผู้จัดทำ",
        "date": "2551-12-03"
      }
    ],
    "tag": "c334-2f-2551-a0017"
  }
}