{
  "pages": [
    [
      [
        "ข้อบัญญัติกรุงเทพมหานคร",
        "เรื่อง กำหนดบริเวณห้ามก่อสร้าง ดัดแปลง ใช้หรือเปลี่ยนการใช้อาคารบางชนิดหรือบางประเภทบริเวณโดยรอบสวนหลวง ร.๙ ในท้องที่แขวงหนองบอน แขวงประเวศ เขตพระโขนง กรุงเทพมหานคร พ.ศ. ๒๕๓๒"
      ]
    ],
    []
  ],
  "metadata": {
    "date_backmatter": "2532-03-22",
    "date_modified": "2532-11-23",
    "date_original": "2532-11-23",
    "editors": [
      {
        "name": "นุสรา",
        "role": "ปรับปรุง",
        "date": "2559-11-04"
      }
    ],
    "tag": "c334-2j-2532-a004"
  }
}