{
  "pages": [
    [
      [
        "คำสั่งสำนักป้องกันและบรรเทาสาธารณภัย",
        "ที่ ๔๘/๒๕๖๑",
        "เรื่อง มอบอำนาจให้ข้าราชการปฏิบัติราชการแทน"
      ]
    ],
    []
  ],
  "metadata": {
    "date_backmatter": "2561-03-05",
    "date_modified": "2561-04-24",
    "date_original": "2561-04-24",
    "editors": [
      {
        "name": "ปวันวิทย์",
        "role": "จัดทำ",
        "date": "2561-06-01"
      }
    ],
    "tag": "c334-2f-2561-a0003"
  }
}