{
  "pages": [
    [
      [
        "คำสั่งกรุงเทพมหานคร",
        "ที่ ๓๒๔๓/๒๕๕๑",
        "เรื่อง มอบอำนาจของผู้ว่าราชการกรุงเทพมหานคร",
        "ตามกฎหมายว่าด้วยการควบคุมอาคารให้ข้าราชการกรุงเทพมหานคร",
        "ปฏิบัติราชการแทน"
      ]
    ],
    []
  ],
  "metadata": {
    "date_backmatter": "2551-09-03",
    "date_modified": "2551-09-04",
    "date_original": "2551-09-04",
    "editors": [
      {
        "name": "วัชศักดิ์",
        "role": "ผู้จัดทำ",
        "date": "2551-09-08"
      }
    ],
    "tag": "c334-2f-2551-a0010"
  }
}