{
  "pages": [
    [
      [
        "ระเบียบกรุงเทพมหานคร",
        "ว่าด้วยการพักอาศัยในอาคารสงเคราะห์ข้าราชการและลูกจ้างประจำของกรุงเทพมหานคร",
        "และการใช้จ่ายเงินบำรุงอาคารสงเคราะห์",
        "พ.ศ. ๒๕๓๘"
      ]
    ],
    []
  ],
  "metadata": {
    "date_backmatter": "2538-11-20",
    "date_modified": "2556-10-17",
    "date_original": "2556-10-17",
    "editors": [
      {
        "name": "ปณตภร",
        "role": "ผู้จัดทำ",
        "date": "2556-10-31"
      }
    ],
    "tag": "c334-2g-9969-update"
  }
}