{
  "pages": [
    [
      [
        "ระเบียบกรุงเทพมหานคร",
        "ว่าด้วยเงินกองทุนหลักประกันสุขภาพ (ฉบับที่ ๒)",
        "พ.ศ. ๒๕๕๑"
      ]
    ],
    []
  ],
  "metadata": {
    "date_backmatter": "2551-04-25",
    "date_modified": "2551-06-04",
    "date_original": "2551-06-04",
    "editors": [
      {
        "name": "วัชศักดิ์",
        "role": "ผู้จัดทำ",
        "date": "2551-06-09"
      }
    ],
    "tag": "c334-2g-2551-a0006"
  }
}