{
  "pages": [
    [
      [
        "ระเบียบกรุงเทพมหานคร",
        "ว่าด้วยการดำเนินงานสถานศึกษาฝึกอาชีพกรุงเทพมหานคร",
        "พ.ศ. 2542"
      ]
    ],
    []
  ],
  "metadata": {
    "date_backmatter": "2542-11-08",
    "editors": [],
    "tag": "c334-2g-2542-a011"
  }
}