{
  "pages": [
    [
      [
        "ข้อบัญญัติกรุงเทพมหานคร",
        "เรื่อง กำหนดบริเวณห้ามก่อสร้าง ดัดแปลง ใช้หรือเปลี่ยนการใช้",
        "อาคารบางชนิดหรือบางประเภท บริเวณโดยรอบสวนหลวง ร.๙",
        "ในท้องที่แขวงหนองบอน แขวงประเวศ เขตพระโขนง",
        "กรุงเทพมหานคร (ฉบับที่ ๒)",
        "พ.ศ. ๒๕๔๗"
      ]
    ],
    []
  ],
  "metadata": {
    "date_backmatter": "2547-01-29",
    "date_modified": "2547-03-03",
    "date_original": "2547-03-03",
    "editors": [
      {
        "name": "นุสรา",
        "role": "ปรับปรุง",
        "date": "2559-11-04"
      }
    ],
    "tag": "c334-2j-2547-a0005"
  }
}