{
  "pages": [
    [
      [
        "ระเบียบกรุงเทพมหานคร",
        "ว่าด้วยการปฏิบัติราชการเพื่อประชาชน",
        "พ.ศ. ๒๕๔๓"
      ]
    ],
    []
  ],
  "metadata": {
    "date_backmatter": "2543-12-28",
    "date_gz_old": "2544-02-01",
    "editors": [
      {
        "name": null,
        "role": null,
        "date": "2544-09-04"
      }
    ],
    "tag": "c334-2g-2544-a003"
  }
}