{
  "pages": [
    [
      [
        "คำสั่งกรุงเทพมหานคร",
        "ที่ ๑๔๙๕/๒๕๕๓",
        "เรื่อง มอบอำนาจการกำหนดสถานที่สำหรับปิดประกาศโฆษณาหาเสียงเลือกตั้ง",
        "สมาชิกสภาเขตให้ผู้อำนวยการเขตปฏิบัติราชการแทน"
      ]
    ],
    []
  ],
  "metadata": {
    "date_backmatter": "2553-04-08",
    "date_modified": "2553-05-14",
    "date_original": "2553-05-14",
    "editors": [
      {
        "name": "ปริยานุช",
        "role": "ผู้จัดทำ",
        "date": "2553-06-07"
      },
      {
        "name": "นันท์นภัสร์",
        "role": "ตรวจ",
        "date": "2553-06-07"
      }
    ],
    "tag": "c334-2f-2553-a0008"
  }
}