{
  "pages": [
    [
      [
        "ข้อบัญญัติกรุงเทพมหานคร",
        "เรื่อง การจัดสวัสดิการและการสงเคราะห์",
        "พ.ศ. ๒๕๓๙"
      ]
    ],
    []
  ],
  "metadata": {
    "date_backmatter": "2539-03-29",
    "date_gz_old": "2539-04-23",
    "editors": [
      {
        "name": null,
        "role": null,
        "date": "2544-08-06"
      }
    ],
    "tag": "c334-2j-2539-a002"
  }
}