{
  "pages": [
    [
      [
        "ระเบียบกรุงเทพมหานคร",
        "ว่าด้วยหลักเกณฑ์การใช้จ่ายเงินทุนหมุนเวียนบัตรประกันสุขภาพ",
        "ในกิจการของสถานพยาบาลสังกัดกรุงเทพมหานคร",
        "พ.ศ. ๒๕๓๙"
      ]
    ],
    []
  ],
  "metadata": {
    "date_backmatter": "2539-06-07",
    "date_gz_old": "2539-07-16",
    "editors": [
      {
        "name": "ธิดาวรรณ",
        "role": "แก้ไข",
        "date": "2545-08-20"
      }
    ],
    "tag": "c334-2g-2539-a010"
  }
}