{
  "pages": [
    [
      [
        "ระเบียบกรุงเทพมหานคร",
        "ว่าด้วยเงินบำรุงสถานบริการสาธารณสุข",
        "พ.ศ.2530"
      ]
    ],
    []
  ],
  "metadata": {
    "date_backmatter": "2530-01-07",
    "editors": [],
    "tag": "c334-2g-2530-005"
  }
}