{
  "pages": [
    [
      [
        "พระราชกฤษฎีกา",
        "แบ่งส่วนราชการสำนักงานคณะกรรมการการศึกษาแห่งชาติ",
        "สำนักนายกรัฐมนตรี",
        "พ.ศ. ๒๕๒๙",
        "---------------------------",
        "ภูมิพลอดุลยเดช ป.ร.",
        "ให้ไว้ ณ วันที่ ๘ เมษายน พ.ศ. ๒๕๒๙",
        "เป็นปีที่ ๔๑ ในรัชกาลปัจจุบัน"
      ]
    ],
    []
  ],
  "metadata": {
    "date_backmatter": "2515-09-29",
    "date_header": "2529-04-08",
    "doctype": "พระราชกฤษฎีกา",
    "editors": [
      {
        "name": "ธิดาวรรณ",
        "role": "พิมพ์",
        "date": "2545-09-27"
      }
    ],
    "tag": "c334-2a-2529-a0001",
    "title": "แบ่งส่วนราชการสำนักงานคณะกรรมการการศึกษาแห่งชาติสำนักนายกรัฐมนตรีพ.ศ. ๒๕๒๙---------------------------ภูมิพลอดุลยเดช ป.ร.ให้ไว้ ณ วันที่ ๘ เมษายน"
  }
}