{
  "pages": [
    [
      [
        "ข้อบัญญัติกรุงเทพมหานคร",
        "เรื่อง ค่าตอบแทนแพทย์ ทันตแพทย์ เภสัชกร",
        "และบุคคลากรทางการสาธารณสุข ห้วงเวลา (ฉบับที่ 2)",
        "พ.ศ. 2540"
      ]
    ],
    []
  ],
  "metadata": {
    "date_backmatter": "2540-09-03",
    "editors": [],
    "tag": "c334-2j-2540-a011"
  }
}