{
  "pages": [
    [
      [
        "ประกาศกรุงเทพมหานคร",
        "เรื่อง การแบ่งส่วนราชการภายในหน่วยงานและการกำหนดอำนาจหน้าที่",
        "ของส่วนราชการกรุงเทพมหานคร (ฉบับที่ ๑๕)"
      ]
    ],
    []
  ],
  "metadata": {
    "date_backmatter": "2535-09-24",
    "date_modified": "2535-09-30",
    "date_original": "2535-09-30",
    "doctype": "ประกาศ",
    "editors": [
      {
        "name": "อัมภิญา",
        "role": "พิมพ์",
        "date": "2551-02-06"
      }
    ],
    "tag": "c334-2e-2535-a003"
  }
}