{
  "pages": [
    [
      [
        "คำสั่งกรุงเทพมหานคร",
        "ที่ ๔๔๖๔/๒๕๕๑",
        "เรื่อง มอบอำนาจของผู้ว่าราชการกรุงเทพมหานคร",
        "ให้ข้าราชการกรุงเทพมหานครปฏิบัติราชการแทน"
      ]
    ],
    []
  ],
  "metadata": {
    "date_backmatter": "2551-11-20",
    "date_modified": "2551-11-24",
    "date_original": "2551-11-24",
    "editors": [
      {
        "name": "วัชศักดิ์",
        "role": "ผู้จัดทำ",
        "date": "2551-11-27"
      }
    ],
    "tag": "c334-2f-2551-a0016"
  }
}