{
  "pages": [
    [
      [
        "ระเบียบกรุงเทพมหานคร",
        "ว่าด้วยการเงิน การส่งและการแบ่งผลกำไรสุทธิของการพาณิชย์ของกรุงเทพมหานคร",
        "พ.ศ. ๒๕๔๘"
      ]
    ],
    []
  ],
  "metadata": {
    "date_backmatter": "2548-11-11",
    "date_modified": "2548-12-27",
    "date_original": "2548-12-27",
    "editors": [
      {
        "name": "นันทนา",
        "role": "ผู้จัดทำ",
        "date": "2549-01-09"
      }
    ],
    "tag": "c334-2g-2548-a0015"
  }
}