{
  "pages": [
    [
      [
        "ประกาศกรุงเทพมหานคร",
        "เรื่อง กำหนดราคามาตรฐานค่าก่อสร้างสะพานข้ามคลอง"
      ]
    ],
    []
  ],
  "metadata": {
    "date_backmatter": "2549-01-16",
    "date_modified": "2549-03-16",
    "date_original": "2549-03-16",
    "doctype": "ประกาศ",
    "editors": [
      {
        "name": "นันทนา",
        "role": "ผู้จัดทำ",
        "date": "2549-03-22"
      }
    ],
    "tag": "c334-2e-2549-a0002"
  }
}