{
  "pages": [
    [
      [
        "ข้อบัญญัติกรุงเทพมหานคร",
        "เรื่อง รถราชการ (ฉบับที่ ๓)",
        "พ.ศ. ๒๕๔๒"
      ]
    ],
    []
  ],
  "metadata": {
    "date_backmatter": "2542-07-08",
    "date_gz_old": "2542-08-06",
    "editors": [
      {
        "name": null,
        "role": null,
        "date": "2544-08-06"
      }
    ],
    "tag": "c334-2j-2542-a0001"
  }
}