{
  "pages": [
    [
      [
        "ข้อบัญญัติกรุงเทพมหานคร",
        "เรื่อง การจ่ายเงินสมนาคุณกรรมการสอบสวนวินัยข้าราชการและลูกจ้าง",
        "พ.ศ. 2529"
      ]
    ],
    []
  ],
  "metadata": {
    "date_backmatter": "2529-05-08",
    "editors": [],
    "tag": "c334-2j-2529-a0001"
  }
}