{
  "pages": [
    [
      [
        "ประกาศกรุงเทพมหานคร",
        "เรื่อง การแบ่งส่วนราชการภายในหน่วยงาน และการกำหนด",
        "อำนาจหน้าที่ของส่วนราชการกรุงเทพมหานคร (ฉบับที่ ๑๑)"
      ]
    ],
    []
  ],
  "metadata": {
    "date_backmatter": "2532-11-29",
    "date_gz_old": "2532-12-25",
    "doctype": "ประกาศ",
    "editors": [
      {
        "name": "พุทธชาด",
        "role": "แก้ไข",
        "date": "2545-09-11"
      }
    ],
    "tag": "c334-2e-2532-007"
  }
}