{
  "pages": [
    [
      [
        "ระเบียบกรุงเทพมหานคร",
        "ว่าด้วยวิธีปฏิบัติเกี่ยวกับการตรวจและควบคุมอาคาร",
        "พ.ศ. ๒๕๖๑"
      ]
    ],
    []
  ],
  "metadata": {
    "date_backmatter": "2561-04-11",
    "date_modified": "2561-05-15",
    "date_original": "2561-05-15",
    "editors": [
      {
        "name": "ปุณิกา",
        "role": "จัดทำ",
        "date": "2561-08-23"
      }
    ],
    "tag": "c334-2g-2561-a0002"
  }
}