{
  "pages": [
    [
      [
        "คำสั่งสำนักการคลัง",
        "ที่ ๔๘/๒๕๕๘",
        "เรื่อง มอบอำนาจให้ข้าราชการปฏิบัติราชการแทน"
      ]
    ],
    []
  ],
  "metadata": {
    "date_backmatter": "2558-04-03",
    "date_modified": "2558-04-24",
    "date_original": "2558-04-24",
    "editors": [
      {
        "name": "ปริยานุช",
        "role": "ผู้จัดทำ",
        "date": "2558-04-27"
      },
      {
        "name": "ปริญสินีย์",
        "role": "ผู้ตรวจ",
        "date": "2558-04-27"
      }
    ],
    "tag": "c334-2f-2558-a0002"
  }
}