{
  "pages": [
    [
      [
        "ข้อบัญญัติกรุงเทพมหานคร",
        "เรื่อง ผู้ช่วยดำเนินงานของสมาชิกสภากรุงเทพมหานคร",
        "พ.ศ. ๒๕๔๐"
      ]
    ],
    []
  ],
  "metadata": {
    "date_backmatter": "2540-06-11",
    "date_modified": "2555-12-18",
    "date_original": "2540-07-17",
    "editors": [
      {
        "name": "วชิระ",
        "role": "จัดทำ",
        "date": "2550-02-12"
      },
      {
        "name": "ณัฐพร",
        "role": "ผู้ปรับปรุง",
        "date": "2555-12-27"
      }
    ],
    "tag": "c334-2j-9979-update"
  }
}