{
  "pages": [
    [
      [
        "ระเบียบกรุงเทพมหานคร",
        "ว่าด้วยหลักเกณฑ์ และวิธีปฏิบัติเกี่ยวกับการปรับปรุงเขตเพลิงไหม้",
        "พ.ศ. ๒๕๔๓"
      ]
    ],
    []
  ],
  "metadata": {
    "date_backmatter": "2543-12-28",
    "date_gz_old": "2544-01-29",
    "editors": [],
    "tag": "c334-2g-2544-a002"
  }
}