{
  "pages": [
    [
      [
        "ข้อบัญญัติกรุงเทพมหานคร",
        "เรื่อง การจ่ายเงินสมทบกองทุนสวัสดิการชุมชน",
        "พ.ศ. ๒๕๕๗"
      ]
    ],
    []
  ],
  "metadata": {
    "date_backmatter": "2557-08-28",
    "date_modified": "2557-09-26",
    "date_original": "2557-09-26",
    "editors": [
      {
        "name": "ปริยานุช",
        "role": "ผู้จัดทำ",
        "date": "2557-09-29"
      },
      {
        "name": "จุฑามาศ",
        "role": "ผู้ตรวจ",
        "date": "2557-10-24"
      }
    ],
    "tag": "c334-2j-2557-a0006"
  }
}