{
  "pages": [
    [
      [
        "ประกาศสำนักนายกรัฐมนตรี",
        "เรื่อง แต่งตั้งกรรมการร่างกฎหมาย"
      ]
    ],
    []
  ],
  "metadata": {
    "date_backmatter": "2533-12-21",
    "date_modified": "2533-12-27",
    "date_original": "2533-12-27",
    "doctype": "ประกาศ",
    "editors": [
      {
        "name": "สุกัญญา",
        "role": "พิมพ์",
        "date": "2549-01-24"
      },
      {
        "name": "วีราภรณ์/สัญชัย",
        "role": "ตรวจ",
        "date": "2549-01-25"
      }
    ],
    "tag": "a420-2e-2533-002"
  }
}