{
  "pages": [
    [
      [
        "ระเบียบคณะกรรมการกฤษฎีกา",
        "ว่าด้วย",
        "การรับปรึกษาให้ความเห็นทางกฎหมายของกรรมการกฤษฎีกา",
        "พ.ศ. ๒๕๒๒"
      ]
    ],
    []
  ],
  "metadata": {
    "date_backmatter": "2522-07-13",
    "date_modified": "2542-10-10",
    "date_original": "2522-07-26",
    "editors": [
      {
        "name": "สัญชัย",
        "role": "ปรับปรุง",
        "date": "2549-12-13"
      },
      {
        "name": "ปณตภร",
        "role": "ปรับปรุง",
        "date": "2556-02-06"
      }
    ],
    "tag": "a420-2g-2522-002"
  }
}