{
  "pages": [
    [
      [
        "ประกาศสำนักนายกรัฐมนตรี",
        "เรื่อง แต่งตั้งกรรมการร่างกฎหมาย"
      ]
    ],
    []
  ],
  "metadata": {
    "date_backmatter": "2525-06-08",
    "date_modified": "2525-06-18",
    "date_original": "2525-06-18",
    "doctype": "ประกาศ",
    "editors": [
      {
        "name": "สุกัญญา",
        "role": "พิมพ์",
        "date": "2549-01-25"
      },
      {
        "name": "เชิงชาย/วาทินี",
        "role": "ตรวจ",
        "date": "2549-01-25"
      }
    ],
    "tag": "a420-2e-2525-001"
  }
}