{
  "pages": [
    [
      [
        "พระราชกฤษฎีกา",
        "เบี้ยประชุมของกรรมการกฤษฎีกา",
        "พ.ศ. ๒๕๒๒",
        "",
        "",
        "ภูมิพลอดุลยเดช ป.ร.",
        "ให้ไว้ ณ วันที่ ๘ ธันวาคม พ.ศ. ๒๕๒๒",
        "เป็นปีที่ ๓๔ ในรัชกาลปัจจุบัน"
      ]
    ],
    []
  ],
  "metadata": {
    "date_header": "2522-12-08",
    "date_modified": "2535-02-27",
    "date_original": "2522-12-19",
    "doctype": "พระราชกฤษฎีกา",
    "editors": [
      {
        "name": "เอกฤทธิ์",
        "role": "ผู้จัดทำ",
        "date": "2551-10-20"
      },
      {
        "name": "โชติกานต์",
        "role": "ปรับปรุง",
        "date": "2559-06-20"
      }
    ],
    "tag": "a420-2a-2535-a005",
    "title": "เบี้ยประชุมของกรรมการกฤษฎีกา"
  }
}