{
  "pages": [
    [
      [
        "กฎกระทรวง",
        "กำหนดอัตราค่าธรรมเนียมสำหรับการจัดตั้งสถานรับเลี้ยงเด็ก สถานแรกรับ",
        "สถานสงเคราะห์ สถานคุ้มครองสวัสดิภาพ และสถานพัฒนาและฟื้นฟู",
        "พ.ศ. ๒๕๔๘"
      ]
    ],
    []
  ],
  "metadata": {
    "date_backmatter": "2548-08-11",
    "date_modified": "2548-09-02",
    "date_original": "2548-09-02",
    "doctype": "กฎกระทรวง",
    "editors": [
      {
        "name": "คุณากร",
        "role": "ผู้จัดทำ",
        "date": "2554-12-13"
      }
    ],
    "tag": "a493-2b-2548-a0001"
  }
}