{
  "pages": [
    [
      [
        "กฎกระทรวง",
        "กำหนดแนวทางการพิจารณาว่าการกระทำใดเป็นไปเพื่อประโยชน์สูงสุดของเด็ก",
        "หรือเป็นการเลือกปฏิบัติโดยไม่เป็นธรรมต่อเด็ก",
        "พ.ศ. ๒๕๔๙"
      ]
    ],
    []
  ],
  "metadata": {
    "date_backmatter": "2549-08-08",
    "date_modified": "2549-08-22",
    "date_original": "2549-08-22",
    "doctype": "กฎกระทรวง",
    "editors": [
      {
        "name": "คุณากร",
        "role": "ผู้จัดทำ",
        "date": "2554-12-13"
      },
      {
        "name": "นนทพล",
        "role": "ปรับปรุง",
        "date": "2558-01-16"
      }
    ],
    "tag": "a493-2b-2549-a0004"
  }
}