{
  "pages": [
    [
      [
        "ระเบียบกระทรวงการพัฒนาสังคมและความมั่นคงของมนุษย์",
        "ว่าด้วย วิธีการดำเนินงานของสถานแรกรับ สถานสงเคราะห์",
        "สถานคุ้มครองสวัสดิภาพ และสถานพัฒนาและฟื้นฟู",
        "พ.ศ. ๒๕๔๗"
      ]
    ],
    []
  ],
  "metadata": {
    "date_backmatter": "2547-12-08",
    "date_modified": "2547-12-31",
    "date_original": "2547-12-31",
    "editors": [
      {
        "name": "คุณากร",
        "role": "ผู้จัดทำ",
        "date": "2554-12-14"
      }
    ],
    "tag": "a493-2g-2547-a0002"
  }
}