{
  "pages": [
    [
      [
        "ประกาศคณะกรรมการการแพทย์",
        "ตามพระราชบัญญัติประกันสังคม พ.ศ. ๒๕๓๓",
        "เรื่อง กำหนดหลักเกณฑ์และอัตราการจ่ายประโยชน์ทดแทนเป็นค่าบริการทางการแพทย์",
        "กรณีบำบัดทดแทนไต และกรณีการให้ยา Erythropoietin เป็นการเฉพาะในช่วงเวลา",
        "ที่เกิดอุทกภัย พ.ศ. ๒๕๕๔"
      ]
    ],
    []
  ],
  "metadata": {
    "date_backmatter": "2554-12-16",
    "date_modified": "2555-04-05",
    "date_original": "2555-04-05",
    "doctype": "ประกาศ",
    "editors": [
      {
        "name": "ปริยานุช",
        "role": "ผู้จัดทำ",
        "date": "2555-04-11"
      },
      {
        "name": "ปณตภร",
        "role": "ผู้ตรวจ",
        "date": "2555-04-19"
      }
    ],
    "tag": "bb11-2e-2555-a0004"
  }
}