{
  "pages": [
    [
      [
        "ประกาศกระทรวงแรงงาน",
        "เรื่อง ขยายกำหนดเวลาการยื่นแบบรายการแสดงการส่งเงินสมทบ",
        "และการนำส่งเงินสมทบผ่านระบบอิเล็กทรอนิกส์ (e - Payment)",
        "พ.ศ. ๒๕๖๑"
      ]
    ],
    []
  ],
  "metadata": {
    "date_backmatter": "2561-05-31",
    "date_modified": "2561-06-11",
    "date_original": "2561-06-11",
    "doctype": "ประกาศ",
    "editors": [
      {
        "name": "วิวรรธน์",
        "role": "จัดทำ",
        "date": "2561-06-11"
      }
    ],
    "tag": "bb11-2e-2561-a0020"
  }
}