{
  "pages": [
    [
      [
        "กฎกระทรวง",
        "กำหนดหลักเกณฑ์และวิธีการยื่นอุทธรณ์ตามกฎหมายว่าด้วยการประกันสังคม",
        "พ.ศ. ๒๕๕๐"
      ]
    ],
    []
  ],
  "metadata": {
    "date_backmatter": "2550-09-06",
    "date_modified": "2550-09-19",
    "date_original": "2550-09-19",
    "doctype": "กฎกระทรวง",
    "editors": [
      {
        "name": "อุษมล",
        "role": "ผู้จัดทำ",
        "date": "2554-12-27"
      }
    ],
    "tag": "bb11-2b-2550-a0002"
  }
}