{
  "pages": [
    [
      [
        "พระราชบัญญัติ",
        "ประกันสังคม",
        "พ.ศ. ๒๕๓๓",
        "",
        "",
        "ภูมิพลอดุลยเดช ป.ร.",
        "ให้ไว้ ณ วันที่ ๑๑ สิงหาคม พ.ศ. ๒๕๓๓",
        "เป็นปีที่ ๔๕ ในรัชกาลปัจจุบัน"
      ]
    ],
    []
  ],
  "metadata": {
    "date_header": "2533-08-11",
    "date_modified": "2533-09-01",
    "date_original": "2533-09-01",
    "doctype": "พระราชบัญญัติ",
    "editors": [
      {
        "name": "ปรีดาภรณ์",
        "role": "แก้ไข",
        "date": "2556-01-28"
      },
      {
        "name": "พลัฐวัษ",
        "role": "ตรวจ",
        "date": "2556-01-28"
      }
    ],
    "tag": "bb11-20-2533-001",
    "title": "ประกันสังคม"
  }
}