{
  "pages": [
    [
      [
        "ประกาศสำนักงานประกันสังคม",
        "เรื่อง กำหนดแบบแจ้งการเปลี่ยนแปลงข้อเท็จจริงผู้ประกันตนตามมาตรา ๔๐",
        "พ.ศ. ๒๕๕๘"
      ]
    ],
    []
  ],
  "metadata": {
    "date_backmatter": "2558-11-12",
    "date_modified": "2558-12-24",
    "date_original": "2558-12-24",
    "doctype": "ประกาศ",
    "editors": [
      {
        "name": "ปริยานุช",
        "role": "จัดทำ",
        "date": "2558-12-29"
      },
      {
        "name": "วริญา",
        "role": "ตรวจ",
        "date": "2559-01-07"
      }
    ],
    "tag": "bb11-2e-2558-a0007"
  }
}