{
  "pages": [
    [
      [
        "ประกาศคณะกรรมการการแพทย์ตามพระราชบัญญัติประกันสังคม",
        "เรื่อง หลักเกณฑ์และอัตราสำหรับประโยชน์ทดแทนกรณีผู้ประกันตนที่ติดเชื้อ HIV",
        "และผู้ประกันตนที่เป็นโรคเอดส์"
      ]
    ],
    []
  ],
  "metadata": {
    "date_backmatter": "2549-12-08",
    "date_modified": "2549-12-27",
    "date_original": "2549-12-27",
    "doctype": "ประกาศ",
    "editors": [
      {
        "name": "โสรศ",
        "role": "ผู้จัดทำ",
        "date": "2550-01-08"
      },
      {
        "name": "ปณตภร",
        "role": "ปรับปรุง",
        "date": "2555-04-24"
      }
    ],
    "tag": "bb11-2e-2549-a0013"
  }
}