{
  "pages": [
    [
      [
        "ประกาศคณะกรรมการการแพทย์ตามพระราชบัญญัติประกันสังคม",
        "เรื่อง หลักเกณฑ์ และอัตราค่าฟื้นฟูสมรรถภาพสำหรับประโยชน์ทดแทนในกรณีประสบอันตราย",
        "หรือเจ็บป่วยอันมิใช่เนื่องจากการทำงาน"
      ]
    ],
    []
  ],
  "metadata": {
    "date_backmatter": "2560-06-20",
    "date_modified": "2560-07-19",
    "date_original": "2560-07-19",
    "doctype": "ประกาศ",
    "editors": [
      {
        "name": "ภวรรณตรี",
        "role": "จัดทำ",
        "date": "2560-07-24"
      },
      {
        "name": "ชวัลพร",
        "role": "ตรวจ",
        "date": "2560-07-24"
      }
    ],
    "tag": "bb11-2e-2560-a0015"
  }
}