{
  "pages": [
    [
      [
        "ระเบียบสำนักงานประกันสังคม",
        "ว่าด้วย การเป็นผู้ประกันตนตามมาตรา ๓๙",
        "แห่งพระราชบัญญัติประกันสังคม พ.ศ. ๒๕๓๓",
        "พ.ศ. ๒๕๕๕"
      ]
    ],
    []
  ],
  "metadata": {
    "date_backmatter": "2555-09-17",
    "date_modified": "2555-10-26",
    "date_original": "2555-10-26",
    "editors": [
      {
        "name": "ปริยานุช",
        "role": "ผู้จัดทำ",
        "date": "2555-10-29"
      },
      {
        "name": "ชาญ",
        "role": "ผู้ตรวจ",
        "date": "2555-11-02"
      }
    ],
    "tag": "bb11-2g-2555-a0004"
  }
}