{
  "pages": [
    [
      [
        "พระราชบัญญัติ",
        "ประกันสังคม",
        "พ.ศ. ๒๕๓๓",
        "",
        "",
        "ภูมิพลอดุลยเดช ป.ร.",
        "ให้ไว้ ณ วันที่ ๑๑ สิงหาคม พ.ศ. ๒๕๓๓",
        "เป็นปีที่ ๔๕ ในรัชกาลปัจจุบัน"
      ]
    ],
    []
  ],
  "metadata": {
    "date_header": "2533-08-11",
    "date_modified": "2537-12-30",
    "date_original": "2533-09-01",
    "doctype": "พระราชบัญญัติ",
    "editors": [
      {
        "name": "สัญชัย",
        "role": "ผู้จัดทำ",
        "date": "2552-01-13"
      },
      {
        "name": "ปัญญา",
        "role": "แก้ไข",
        "date": "2552-06-29"
      }
    ],
    "tag": "bb11-20-2537-a0001u",
    "title": "ประกันสังคม"
  }
}