{
  "pages": [
    [
      [
        "ประกาศคณะกรรมการการแพทย์ตามพระราชบัญญัติประกันสังคม",
        "เรื่อง หลักเกณฑ์และอัตราสำหรับประโยชน์ทดแทนในกรณีประสบอันตราย",
        "หรือเจ็บป่วยอันมิใช่เนื่องจากการทำงาน"
      ]
    ],
    []
  ],
  "metadata": {
    "date_backmatter": "2546-12-25",
    "date_modified": "2557-05-30",
    "date_original": "2547-02-27",
    "doctype": "ประกาศ",
    "editors": [
      {
        "name": "ปณตภร",
        "role": "ผู้จัดทำ",
        "date": "2555-04-24"
      },
      {
        "name": "อุษมล",
        "role": "เพิ่มเติม",
        "date": "2556-06-11"
      },
      {
        "name": null,
        "role": null,
        "date": "2556-07-04"
      },
      {
        "name": "ณัฐพร",
        "role": "เพิ่มเติม",
        "date": "2556-10-09"
      },
      {
        "name": "ปณตภร",
        "role": "เพิ่มเติม",
        "date": "2556-10-31"
      },
      {
        "name": "กฤษดายุทธ",
        "role": "เพิ่มเติม",
        "date": "2557-06-20"
      }
    ],
    "tag": "bb11-2e-2557-a0011"
  }
}