{
  "pages": [
    [
      [
        "พระราชกฤษฎีกา",
        "กำหนดหลักเกณฑ์และอัตราการจ่ายเงินสมทบ",
        "ประเภทของประโยชน์ทดแทน ตลอดจนหลักเกณฑ์และเงื่อนไขแห่งสิทธิ",
        "ในการรับประโยชน์ทดแทนของบุคคลซึ่งสมัครเป็นผู้ประกันตน",
        "พ.ศ. ๒๕๕๔",
        "",
        "",
        "ภูมิพลอดุลยเดช ป.ร.",
        "ให้ไว้ ณ วันที่ ๔ พฤษภาคม พ.ศ. ๒๕๕๔",
        "เป็นปีที่ ๖๖ ในรัชกาลปัจจุบัน"
      ]
    ],
    []
  ],
  "metadata": {
    "date_header": "2554-05-04",
    "date_modified": "2554-05-11",
    "date_original": "2554-05-11",
    "doctype": "พระราชกฤษฎีกา",
    "editors": [
      {
        "name": "อุษมล",
        "role": "ผู้จัดทำ",
        "date": "2554-12-27"
      }
    ],
    "tag": "bb11-2a-2554-a0001",
    "title": "กำหนดหลักเกณฑ์และอัตราการจ่ายเงินสมทบประเภทของประโยชน์ทดแทน ตลอดจนหลักเกณฑ์และเงื่อนไขแห่งสิทธิในการรับประโยชน์ทดแทนของบุคคลซึ่งสมัครเป็นผู้ประกันตน"
  }
}