{
  "pages": [
    [
      [
        "พระราชกฤษฎีกา",
        "กำหนดระยะเวลาเริ่มดำเนินการจัดเก็บเงินสมทบ",
        "เพื่อการให้ประโยชน์ทดแทนในกรณีว่างงาน",
        "พ.ศ. ๒๕๔๖",
        "",
        "",
        "ภูมิพลอดุลยเดช ป.ร.",
        "ให้ไว้ ณ วันที่ ๑๖ สิงหาคม พ.ศ. ๒๕๔๖",
        "เป็นปีที่ ๕๘ ในรัชกาลปัจจุบัน"
      ]
    ],
    []
  ],
  "metadata": {
    "date_header": "2546-08-16",
    "date_modified": "2546-08-26",
    "date_original": "2546-08-26",
    "doctype": "พระราชกฤษฎีกา",
    "editors": [
      {
        "name": "อุษมล",
        "role": "ผู้จัดทำ",
        "date": "2554-12-27"
      }
    ],
    "tag": "bb11-2a-2546-a0001",
    "title": "กำหนดระยะเวลาเริ่มดำเนินการจัดเก็บเงินสมทบเพื่อการให้ประโยชน์ทดแทนในกรณีว่างงาน"
  }
}