{
  "pages": [
    [
      [
        "ระเบียบกระทรวงสาธารณสุข",
        "ว่าด้วยบัตรประกันสุขภาพ",
        "พ.ศ. ๒๕๓๘"
      ]
    ],
    []
  ],
  "metadata": {
    "date_backmatter": "2538-05-30",
    "date_modified": "2544-01-22",
    "date_original": "2538-07-11",
    "editors": [
      {
        "name": "อุษมล",
        "role": "ผู้จัดทำ",
        "date": "2555-01-05"
      }
    ],
    "tag": "bb11-2g-2544-a009"
  }
}