{
  "pages": [
    [
      [
        "ประกาศคณะกรรมการการแพทย์ตามพระราชบัญญัติประกันสังคม",
        "เรื่อง หลักเกณฑ์และอัตราสำหรับประโยชน์ทดแทนในกรณีประสบอันตราย",
        "หรือเจ็บป่วยอันมิใช่เนื่องจากการทำงาน"
      ]
    ],
    []
  ],
  "metadata": {
    "date_backmatter": "2559-04-29",
    "date_modified": "2560-03-14",
    "date_original": "2547-02-27",
    "doctype": "ประกาศ",
    "editors": [
      {
        "name": "กัญฑรัตน์",
        "role": "เพิ่มเติม",
        "date": "2559-06-23"
      },
      {
        "name": "นุสรา",
        "role": "ตรวจ",
        "date": "2559-07-11"
      },
      {
        "name": "กัญฑรัตน์",
        "role": "เพิ่มเติม",
        "date": "2559-09-05"
      },
      {
        "name": "ปัญญา",
        "role": "ตรวจ",
        "date": "2559-09-13"
      },
      {
        "name": "ชวัลพร",
        "role": "เพิ่มเติม",
        "date": "2559-11-25"
      },
      {
        "name": "พิมพ์มาดา",
        "role": "เพิ่มเติม",
        "date": "2560-02-13"
      },
      {
        "name": "ชวัลพร",
        "role": "เพิ่มเติม",
        "date": "2560-04-19"
      }
    ],
    "tag": "bb11-2e-2560-a0023"
  }
}