{
  "pages": [
    [
      [
        "พระราชบัญญัติ",
        "ประกันสังคม (ฉบับที่ ๓)",
        "พ.ศ. ๒๕๔๒",
        "",
        "",
        "ภูมิพลอดุลยเดช ป.ร.",
        "ให้ไว้ ณ วันที่ ๒๒ มีนาคม พ.ศ. ๒๕๔๒",
        "เป็นปีที่ ๕๔ ในรัชกาลปัจจุบัน"
      ]
    ],
    []
  ],
  "metadata": {
    "date_header": "2542-03-22",
    "date_modified": "2542-03-31",
    "date_original": "2542-03-31",
    "doctype": "พระราชบัญญัติ",
    "editors": [
      {
        "name": "ปรีดาภรณ์",
        "role": "แก้ไข",
        "date": "2556-01-28"
      },
      {
        "name": "พลัฐวัษ",
        "role": "ตรวจ",
        "date": "2556-01-28"
      }
    ],
    "tag": "bb11-20-2542-a0001",
    "title": "ประกันสังคม (ฉบับที่ ๓)"
  }
}