{
  "pages": [
    [
      [
        "ประกาศคณะกรรมการการแพทย์ตามพระราชบัญญัติ",
        "ประกันสังคม พ.ศ. ๒๕๓๓",
        "เรื่อง หลักเกณฑ์และอัตราสำหรับประโยชน์ทดแทนในกรณีประสบอันตราย",
        "หรือเจ็บป่วยอันมิใช่เนื่องจากการทำงาน"
      ]
    ],
    []
  ],
  "metadata": {
    "date_backmatter": "2551-02-01",
    "date_modified": "2551-03-06",
    "date_original": "2551-03-06",
    "doctype": "ประกาศ",
    "editors": [
      {
        "name": "ปริยานุช",
        "role": "ผู้จัดทำ",
        "date": "2551-03-14"
      }
    ],
    "tag": "bb11-2e-2551-a0004"
  }
}