{
  "pages": [
    [
      [
        "ประกาศสำนักงานประกันสังคม",
        "เรื่อง กำหนดอัตราผลประโยชน์ตอบแทนเงินบำเหน็จชราภาพ",
        "ของผู้ประกันตนตามมาตรา ๓๓ และมาตรา ๓๙",
        "ประจำปี พ.ศ. ๒๕๕๘"
      ]
    ],
    []
  ],
  "metadata": {
    "date_backmatter": "2559-02-09",
    "date_modified": "2559-02-19",
    "date_original": "2559-02-19",
    "doctype": "ประกาศ",
    "editors": [
      {
        "name": "ปริยานุช",
        "role": "จัดทำ",
        "date": "2559-02-23"
      },
      {
        "name": "กัญฑรัตน์",
        "role": "ตรวจ",
        "date": "2559-02-29"
      }
    ],
    "tag": "bb11-2e-2559-a0001"
  }
}