{
  "pages": [
    [
      [
        "ระเบียบ ก.พ.",
        "ว่าด้วยเงินเพิ่มสำหรับตำแหน่งที่มีเหตุพิเศษของข้าราชการพลเรือน",
        "พ.ศ. ๒๕๕๒"
      ]
    ],
    []
  ],
  "metadata": {
    "date_backmatter": "2552-03-17",
    "date_modified": "2560-10-02",
    "date_original": "2552-04-09",
    "editors": [
      {
        "name": "ปณตภร",
        "role": "ผู้จัดทำ",
        "date": "2556-06-12"
      },
      {
        "name": "พัชรภรณ์",
        "role": "เพิ่มเติม",
        "date": "2560-11-15"
      },
      {
        "name": "ปริญสินีย์",
        "role": "ตรวจ",
        "date": "2560-11-27"
      }
    ],
    "tag": "c311-2g-9997-update"
  }
}