{
  "pages": [
    [
      [
        "กฎ ก.พ.",
        "ฉบับที่ ๑๙ (พ.ศ. ๒๕๔๑)",
        "ออกตามความในพระราชบัญญัติระเบียบข้าราชการพลเรือน พ.ศ. ๒๕๓๕",
        "ว่าด้วยการสั่งให้ข้าราชการพลเรือนสามัญรับเงินเดือนในอัตรากำลังทดแทน"
      ]
    ],
    []
  ],
  "metadata": {
    "date_backmatter": "2541-07-11",
    "date_modified": "2546-06-19",
    "date_original": "2541-07-24",
    "editors": [],
    "tag": "c311-2c-2546-a0002"
  }
}