{
  "pages": [
    [
      [
        "ระเบียบสำนักงาน ก.พ.",
        "ว่าด้วยการกำหนดขั้นตอนและระยะเวลาการปฏิบัติราชการเกี่ยวกับ",
        "คำขอยกเว้นในกรณีที่ขาดคุณสมบัติทั่วไป คำขออุทธรณ์คำสั่งลงโทษ",
        "และคำขอร้องทุกข์คำสั่งให้ออกจากราชการ",
        "พ.ศ. ๒๕๔๓"
      ]
    ],
    []
  ],
  "metadata": {
    "date_backmatter": "2543-10-05",
    "date_modified": "2543-11-30",
    "date_original": "2543-11-30",
    "editors": [],
    "tag": "c311-2g-2543-a0001"
  }
}