{
  "pages": [
    [
      [
        "ประกาศคณะกรรมการข้าราชการฝ่ายศาลปกครอง",
        "เรื่อง การให้ข้าราชการฝ่ายศาลปกครองได้รับเงินเดือนและเงินประจำตำแหน่ง"
      ]
    ],
    []
  ],
  "metadata": {
    "date_backmatter": "2552-03-26",
    "date_modified": "2556-10-29",
    "date_original": "2552-05-06",
    "doctype": "ประกาศ",
    "editors": [
      {
        "name": "ปณตภร",
        "role": "ผู้จัดทำ",
        "date": "2555-07-16"
      },
      {
        "name": "เอกฤทธิ์",
        "role": "ผู้ปรับปรุง",
        "date": "2556-12-17"
      }
    ],
    "tag": "c311-2e-9996-update"
  }
}