{
  "pages": [
    [
      [
        "กฎ ก.พ.ค.",
        "ว่าด้วยการอุทธรณ์และการพิจารณาวินิจฉัยอุทธรณ์",
        "พ.ศ. ๒๕๕๑"
      ]
    ],
    []
  ],
  "metadata": {
    "date_backmatter": "2551-12-09",
    "date_modified": "2551-12-11",
    "date_original": "2551-12-11",
    "editors": [],
    "tag": "c311-2c-2551-a0006"
  }
}