{
  "pages": [
    [
      [
        "ประกาศคณะกรรมการข้าราชการฝ่ายศาลปกครอง",
        "เรื่อง หลักเกณฑ์และเงื่อนไขในการรับเงินประจำตำแหน่ง สำหรับตำแหน่งประเภทวิชาการ",
        "สายงานนักวิชาการคอมพิวเตอร์ ระดับชำนาญการ"
      ]
    ],
    []
  ],
  "metadata": {
    "date_backmatter": "2553-02-01",
    "date_modified": "2553-02-22",
    "date_original": "2553-02-22",
    "doctype": "ประกาศ",
    "editors": [],
    "tag": "c311-2e-2553-a0002"
  }
}