{
  "pages": [
    [
      [
        "ประกาศคณะกรรมการข้าราชการศาลยุติธรรม",
        "เรื่อง การจัดทำมาตรฐานกำหนดตำแหน่ง และจัดตำแหน่งข้าราชการศาลยุติธรรม",
        "เข้าประเภทตำแหน่ง สายงาน และระดับตำแหน่งตามมาตรฐานกำหนดตำแหน่ง",
        "(ฉบับที่ ๓)"
      ]
    ],
    []
  ],
  "metadata": {
    "date_backmatter": "2554-09-22",
    "date_modified": "2554-10-21",
    "date_original": "2554-10-21",
    "doctype": "ประกาศ",
    "editors": [
      {
        "name": "ปริยานุช",
        "role": "ผู้จัดทำ",
        "date": "2554-10-25"
      },
      {
        "name": "ปณตภร",
        "role": "ผู้ตรวจ",
        "date": "2554-10-25"
      }
    ],
    "tag": "c311-2e-2554-a0006"
  }
}