{
  "pages": [
    [
      [
        "ระเบียบ ก.พ.",
        "ว่าด้วยการให้เงินเพิ่มสำหรับตำแหน่งที่มีเหตุพิเศษ",
        "ตำแหน่งเจ้าหน้าที่สื่อสารการบิน และตำแหน่งเจ้าหน้าที่ควบคุมจราจรทางอากาศ",
        "พ.ศ. ๒๕๓๖"
      ]
    ],
    []
  ],
  "metadata": {
    "date_backmatter": "2536-02-19",
    "date_modified": "2536-03-04",
    "date_original": "2536-03-04",
    "editors": [],
    "tag": "c311-2g-2536-005"
  }
}