{
  "pages": [
    [
      [
        "ประกาศคณะกรรมการข้าราชการศาลยุติธรรม",
        "เรื่อง การกำหนดเงินเพิ่มสำหรับตำแหน่งที่มีเหตุพิเศษ ตำแหน่งนิติกร"
      ]
    ],
    []
  ],
  "metadata": {
    "date_backmatter": "2554-03-30",
    "date_modified": "2554-04-07",
    "date_original": "2554-04-07",
    "doctype": "ประกาศ",
    "editors": [],
    "tag": "c311-2e-2554-a0002"
  }
}