{
  "pages": [
    [
      [
        "ระเบียบ ก.พ.",
        "ว่าด้วยทุนเล่าเรียนหลวง",
        "พ.ศ. ๒๕๐๘"
      ]
    ],
    []
  ],
  "metadata": {
    "date_backmatter": "2508-02-02",
    "date_modified": "2514-09-28",
    "date_original": "2508-02-23",
    "editors": [],
    "tag": "c311-2g-2514-a0003"
  }
}