{
  "pages": [
    [
      [
        "กฎ ก.พ.",
        "ว่าด้วยหลักเกณฑ์การจัดประเภทตำแหน่งและระดับตำแหน่ง",
        "พ.ศ. ๒๕๕๑"
      ]
    ],
    []
  ],
  "metadata": {
    "date_backmatter": "2551-12-02",
    "date_modified": "2561-03-09",
    "date_original": "2551-12-10",
    "editors": [
      {
        "name": "นุสรา",
        "role": "ปรับปรุง",
        "date": "2561-10-16"
      }
    ],
    "tag": "c311-2c-9981-update"
  }
}