{
  "pages": [
    [
      [
        "กฎ ก.พ.",
        "ว่าด้วยโรค",
        "พ.ศ. ๒๕๕๓"
      ]
    ],
    []
  ],
  "metadata": {
    "date_backmatter": "2553-04-26",
    "date_modified": "2553-05-07",
    "date_original": "2553-05-07",
    "editors": [],
    "tag": "c311-2c-2553-a0004"
  }
}