{
  "pages": [
    [
      [
        "พระราชกฤษฎีกา",
        "กำหนดตำแหน่งข้าราชการพลเรือนสามัญประเภทวิชาชีพเฉพาะ",
        "และประเภทเชี่ยวชาญเฉพาะ (ฉบับที่ ๒)",
        "พ.ศ. ๒๕๔๐",
        "",
        "",
        "ภูมิพลอดุยเดช ป.ร.",
        "ให้ไว้ ณ วันที่ ๑๐ มีนาคม พ.ศ. ๒๕๔๐",
        "เป็นปีที่ ๕๒ ในรัชกาลปัจจุบัน"
      ]
    ],
    []
  ],
  "metadata": {
    "date_header": "2540-03-10",
    "date_modified": "2540-03-19",
    "date_original": "2540-03-19",
    "doctype": "พระราชกฤษฎีกา",
    "editors": [],
    "tag": "c311-2a-2540-002",
    "title": "กำหนดตำแหน่งข้าราชการพลเรือนสามัญประเภทวิชาชีพเฉพาะและประเภทเชี่ยวชาญเฉพาะ (ฉบับที่ ๒)"
  }
}