{
  "pages": [
    [
      [
        "กฎ ก.พ.",
        "ว่าด้วยการให้ข้าราชการพลเรือนสามัญ",
        "ซึ่งมีอายุครบหกสิบปีบริบูรณ์รับราชการต่อไป",
        "พ.ศ. ๒๕๕๒"
      ]
    ],
    []
  ],
  "metadata": {
    "date_backmatter": "2552-09-14",
    "date_modified": "2553-09-09",
    "date_original": "2552-09-17",
    "editors": [],
    "tag": "c311-2c-9986-update"
  }
}