{
  "pages": [
    [
      [
        "กฎ ก.พ.",
        "ว่าด้วยการให้ข้าราชการพลเรือนสามัญได้รับเงินประจำตำแหน่ง",
        "พ.ศ. ๒๕๕๑"
      ]
    ],
    []
  ],
  "metadata": {
    "date_backmatter": "2551-12-02",
    "date_modified": "2558-07-14",
    "date_original": "2551-12-10",
    "editors": [
      {
        "name": "เอกฤทธิ์",
        "role": "ผู้จัดทำ",
        "date": "2556-09-16"
      },
      {
        "name": "วริญา",
        "role": "เพิ่มเติม",
        "date": "2558-06-08"
      },
      {
        "name": "ปัญญา",
        "role": "ตรวจ",
        "date": "2558-06-08"
      },
      {
        "name": "ปัญจพร",
        "role": "เพิ่มเติม",
        "date": "2558-08-07"
      },
      {
        "name": "ปัญญา",
        "role": "ตรวจ",
        "date": "2558-08-07"
      }
    ],
    "tag": "c311-2c-2558-a0006"
  }
}