{
  "pages": [
    [
      [
        "ประกาศกระทรวงมหาดไทย",
        "เรื่อง ให้ใช้พระราชบัญญัติการขุดดินและถมดิน พ.ศ. ๒๕๔๓",
        "บังคับในเขตองค์การบริหารส่วนตำบลกระแชง อำเภอกันทรลักษ์ จังหวัดศรีสะเกษ"
      ]
    ],
    []
  ],
  "metadata": {
    "date_backmatter": "2554-09-16",
    "date_modified": "2554-10-12",
    "date_original": "2554-10-12",
    "doctype": "ประกาศ",
    "editors": [
      {
        "name": "ปริยานุช",
        "role": "ผู้จัดทำ",
        "date": "2554-10-20"
      },
      {
        "name": "ปณตภร",
        "role": "ผู้ตรวจ",
        "date": "2554-10-26"
      }
    ],
    "tag": "a1103-2e-2554-a0006"
  }
}