{
  "pages": [
    [
      [
        "ประกาศกระทรวงมหาดไทย",
        "เรื่อง ให้ใช้พระราชบัญญัติการขุดดินและถมดิน พ.ศ. ๒๕๔๓",
        "บังคับในเขตองค์การบริหารส่วนตำบลบึงศาล อำเภอองครักษ์ จังหวัดนครนายก"
      ]
    ],
    []
  ],
  "metadata": {
    "date_backmatter": "2553-12-27",
    "date_modified": "2554-01-26",
    "date_original": "2554-01-26",
    "doctype": "ประกาศ",
    "editors": [
      {
        "name": "ปริยานุช",
        "role": "ผู้จัดทำ",
        "date": "2554-02-09"
      },
      {
        "name": "ณัฐวดี",
        "role": "ตรวจ",
        "date": "2554-02-09"
      }
    ],
    "tag": "a1103-2e-2554-a0002"
  }
}