{
  "pages": [
    [
      [
        "ประกาศเทศบาลตำบลชัยวารี",
        "เรื่อง กำหนดความลึกหรือพื้นที่ ที่ต้องแจ้งการขุดดินหรือถมดิน"
      ]
    ],
    []
  ],
  "metadata": {
    "date_backmatter": "2555-05-28",
    "date_modified": "2555-08-23",
    "date_original": "2555-08-23",
    "doctype": "ประกาศ",
    "editors": [
      {
        "name": "ปริยานุช",
        "role": "ผู้จัดทำ",
        "date": "2555-08-29"
      },
      {
        "name": "ชาญ",
        "role": "ผู้ตรวจ",
        "date": "2555-09-05"
      }
    ],
    "tag": "a1103-2e-2555-a0001"
  }
}