{
  "pages": [
    [
      [
        "ข้อบัญญัติองค์การบริหารส่วนตำบลหนองแวง",
        "เรื่อง การควบคุมการขุดดินและถมดิน",
        "พ.ศ. ๒๕๔๙"
      ]
    ],
    []
  ],
  "metadata": {
    "date_backmatter": "2549-04-12",
    "date_modified": "2551-04-11",
    "date_original": "2551-04-11",
    "editors": [
      {
        "name": "จุฑามาศ",
        "role": "ปรับปรุง",
        "date": "2559-08-30"
      }
    ],
    "tag": "a1103-2j-9999-update"
  }
}