{
  "pages": [
    [
      [
        "กฎกระทรวง",
        "กำหนดมาตรการป้องกันการพังทลายของดินหรือสิ่งปลูกสร้างในการขุดดินหรือถมดิน",
        "พ.ศ. ๒๕๔๘"
      ]
    ],
    []
  ],
  "metadata": {
    "date_backmatter": "2548-03-04",
    "date_modified": "2548-03-18",
    "date_original": "2548-03-18",
    "doctype": "กฎกระทรวง",
    "editors": [
      {
        "name": "จุฑามาศ",
        "role": "ปรับปรุง",
        "date": "2559-08-30"
      }
    ],
    "tag": "a1103-2b-2548-a0001"
  }
}