{
  "pages": [
    [
      [
        "ข้อบัญญัติองค์การบริหารส่วนตำบลบ้านเกาะ",
        "เรื่อง หลักเกณฑ์การประกันความเสียหายที่เกิดจากการขุดดินและถมดิน",
        "พ.ศ. ๒๕๕๒"
      ]
    ],
    []
  ],
  "metadata": {
    "date_backmatter": "2552-11-30",
    "date_modified": "2553-02-01",
    "date_original": "2553-02-01",
    "editors": [
      {
        "name": "ปริยานุช",
        "role": "จัดทำ",
        "date": "2553-02-11"
      },
      {
        "name": "นันท์นภัสร์",
        "role": "ตรวจ",
        "date": "2553-02-11"
      },
      {
        "name": "รชณัฐ",
        "role": "ปรับปรุง",
        "date": "2559-06-17"
      }
    ],
    "tag": "a1103-2j-2553-a0002"
  }
}