{
  "pages": [
    [
      [
        "ข้อบัญญัติองค์การบริหารส่วนตำบลธงชัยเหนือ",
        "เรื่อง หลักเกณฑ์การประกันความเสียหายที่เกิดจากการขุดดินและถมดิน",
        "พ.ศ. ๒๕๕๗"
      ]
    ],
    []
  ],
  "metadata": {
    "date_backmatter": "2557-05-26",
    "date_modified": "2558-09-18",
    "date_original": "2558-09-18",
    "editors": [
      {
        "name": "ปริยานุช",
        "role": "ผู้จัดทำ",
        "date": "2558-09-21"
      },
      {
        "name": "ปัญจพร",
        "role": "ผู้ตรวจ",
        "date": "2558-09-21"
      }
    ],
    "tag": "a1103-2j-2558-a0009"
  }
}