{
  "pages": [
    [
      [
        "ข้อบัญญัติองค์การบริหารส่วนตำบลฟ้าห่วน",
        "เรื่อง การขุดดินและถมดิน",
        "พ.ศ. ๒๕๕๙"
      ]
    ],
    []
  ],
  "metadata": {
    "date_backmatter": "2559-05-24",
    "date_modified": "2559-12-08",
    "date_original": "2559-12-08",
    "editors": [
      {
        "name": "ปริยานุช",
        "role": "จัดทำ",
        "date": "2559-12-13"
      },
      {
        "name": "วริญา",
        "role": "ตรวจ",
        "date": "2559-12-13"
      }
    ],
    "tag": "a1103-2j-2559-a0003"
  }
}