{
  "pages": [
    [
      [
        "ข้อบัญญัติองค์การบริหารส่วนตำบลสูงเนิน",
        "เรื่อง การขุดดินและถมดิน พ.ศ. ๒๕๕๗"
      ]
    ],
    []
  ],
  "metadata": {
    "date_backmatter": "2557-08-07",
    "date_modified": "2558-07-16",
    "date_original": "2558-07-16",
    "editors": [
      {
        "name": "ปริยานุช",
        "role": "ผู้จัดทำ",
        "date": "2558-07-22"
      },
      {
        "name": "ปัญจพร",
        "role": "ผู้ตรวจ",
        "date": "2558-07-22"
      }
    ],
    "tag": "a1103-2j-2558-a0006"
  }
}