{
  "pages": [
    [
      [
        "ประกาศกระทรวงมหาดไทย",
        "เรื่อง ให้ใช้พระราชบัญญัติการขุดดินและถมดิน พ.ศ. ๒๕๔๓",
        "บังคับในเขตองค์การบริหารส่วนตำบลพุกร่าง อำเภอพระพุทธบาท จังหวัดสระบุรี"
      ]
    ],
    []
  ],
  "metadata": {
    "date_backmatter": "2550-02-15",
    "date_modified": "2550-03-14",
    "date_original": "2550-03-14",
    "doctype": "ประกาศ",
    "editors": [
      {
        "name": "วัชศักดิ์",
        "role": "จัดทำ",
        "date": "2550-03-19"
      },
      {
        "name": "รชณัฐ",
        "role": "ปรับปรุง",
        "date": "2559-06-20"
      }
    ],
    "tag": "a1103-2e-2550-a0003"
  }
}