{
  "pages": [
    [
      [
        "ประกาศกระทรวงมหาดไทย",
        "เรื่อง ให้ใช้พระราชบัญญัติการขุดดินและถมดิน พ.ศ. ๒๕๔๓",
        "บังคับในเขตองค์การบริหารส่วนตำบลทอนหงส์ อำเภอพรหมคีรี จังหวัดนครศรีธรรมราช"
      ]
    ],
    []
  ],
  "metadata": {
    "date_backmatter": "2553-01-11",
    "date_modified": "2553-02-05",
    "date_original": "2553-02-05",
    "doctype": "ประกาศ",
    "editors": [
      {
        "name": "ปริยานุช",
        "role": "จัดทำ",
        "date": "2553-02-17"
      },
      {
        "name": "นันท์นภัสร์",
        "role": "ตรวจ",
        "date": "2553-02-17"
      },
      {
        "name": "รชณัฐ",
        "role": "ปรับปรุง",
        "date": "2559-06-20"
      }
    ],
    "tag": "a1103-2e-2553-a0003"
  }
}