{
  "pages": [
    [
      [
        "ประกาศกระทรวงมหาดไทย",
        "เรื่อง ให้ใช้พระราชบัญญัติการขุดดินและถมดิน พ.ศ. ๒๕๔๓",
        "บังคับในเขตองค์การบริหารส่วนตำบลส้มป่อย อำเภอจัตุรัส จังหวัดชัยภูมิ"
      ]
    ],
    []
  ],
  "metadata": {
    "date_backmatter": "2555-08-28",
    "date_modified": "2555-09-20",
    "date_original": "2555-09-20",
    "doctype": "ประกาศ",
    "editors": [
      {
        "name": "ปริยานุช",
        "role": "ผู้จัดทำ",
        "date": "2555-09-25"
      },
      {
        "name": "ปณตภร",
        "role": "ผู้ตรวจ",
        "date": "2555-10-02"
      }
    ],
    "tag": "a1103-2e-2555-a0002"
  }
}