{
  "pages": [
    [
      [
        "กฎกระทรวง",
        "กำหนดลักษณะเลื่อยโซ่ยนต์และส่วนประกอบของเลื่อยโซ่ยนต์",
        "พ.ศ. ๒๕๕๑"
      ]
    ],
    []
  ],
  "metadata": {
    "date_backmatter": "2551-05-23",
    "date_modified": "2551-06-23",
    "date_original": "2551-06-23",
    "doctype": "กฎกระทรวง",
    "editors": [
      {
        "name": "พัชรินทร์",
        "role": "ผู้จัดทำ",
        "date": "2551-06-24"
      }
    ],
    "tag": "c508-2b-2551-a0004"
  }
}