{
  "pages": [
    [
      [
        "กฎกระทรวง",
        "กำหนดคุณสมบัติของผู้ได้รับใบอนุญาต และหลักเกณฑ์ วิธีการ และเงื่อนไขการขออนุญาต",
        "และการออกใบอนุญาตให้ซ่อมแซมเลื่อยโซ่ยนต์เป็นธุรกิจเพื่อสินจ้าง",
        "พ.ศ. ๒๕๕๑"
      ]
    ],
    []
  ],
  "metadata": {
    "date_backmatter": "2551-05-23",
    "date_modified": "2551-06-23",
    "date_original": "2551-06-23",
    "doctype": "กฎกระทรวง",
    "editors": [
      {
        "name": "พัชรินทร์",
        "role": "ผู้จัดทำ",
        "date": "2551-06-24"
      }
    ],
    "tag": "c508-2b-2551-a0003"
  }
}