{
  "pages": [
    [
      [
        "ประกาศกรมป่าไม้",
        "เรื่อง กำหนดแบบคำขอ แบบใบรับรอง แบบใบอนุญาต แบบหนังสืออนุญาตและแบบบัญชีต่าง ๆ",
        "ตามกฎกระทรวงที่เกี่ยวข้องตามพระราชบัญญัติเลื่อยโซ่ยนต์ พ.ศ. ๒๕๔๕",
        "(ฉบับที่ ๓) พ.ศ. ๒๕๕๗"
      ]
    ],
    []
  ],
  "metadata": {
    "date_backmatter": "2557-02-27",
    "date_modified": "2557-05-14",
    "date_original": "2557-05-14",
    "doctype": "ประกาศ",
    "editors": [
      {
        "name": "ปริยานุช",
        "role": "ผู้จัดทำ",
        "date": "2557-05-26"
      },
      {
        "name": "จุฑามาศ",
        "role": "ผู้ตรวจ",
        "date": "2557-06-03"
      }
    ],
    "tag": "c508-2e-2557-a0001"
  }
}