{
  "pages": [
    [
      [
        "ประกาศคณะกรรมการควบคุมโรงรับจำนำ",
        "เรื่อง การกำหนดที่เก็บทรัพย์จำนำ"
      ]
    ],
    []
  ],
  "metadata": {
    "date_backmatter": "2551-04-01",
    "date_modified": "2551-05-21",
    "date_original": "2551-05-21",
    "doctype": "ประกาศ",
    "editors": [
      {
        "name": "อุษมล",
        "role": "ผู้จัดทำ",
        "date": "2555-05-04"
      },
      {
        "name": "วิชพงษ์",
        "role": "ผู้ตรวจ",
        "date": "2555-05-14"
      }
    ],
    "tag": "c333-2e-2551-a0001"
  }
}