{
  "pages": [
    [
      [
        "กฎกระทรวง",
        "ฉบับที่ ๑ (พ.ศ. ๒๕๐๖)",
        "ออกตามความในพระราชบัญญัติโรงรับจำนำ",
        "พ.ศ. ๒๕๐๕"
      ]
    ],
    []
  ],
  "metadata": {
    "date_backmatter": "2506-01-01",
    "date_modified": "2520-03-25",
    "date_original": "2506-01-01",
    "doctype": "กฎกระทรวง",
    "editors": [
      {
        "name": "อุษมล",
        "role": "ผู้จัดทำ",
        "date": "2555-05-04"
      },
      {
        "name": "วิชพงษ์",
        "role": "ผู้ตรวจ",
        "date": "2555-05-14"
      }
    ],
    "tag": "c333-2b-9998-update"
  }
}