{
  "pages": [
    [
      [
        "ประกาศกระทรวงเกษตราธิการ",
        "เรื่อง ให้เหมืองแร่ทองคำบริษัท เดส์ มินส์",
        "ดออร์ เดอ ลิท์ โช จำกัด อยู่ใน",
        "ความครอบครองของรัฐบาล"
      ]
    ],
    []
  ],
  "metadata": {
    "date_backmatter": "2484-01-21",
    "date_modified": "2484-01-23",
    "date_original": "2484-01-23",
    "doctype": "ประกาศ",
    "editors": [
      {
        "name": "ฐิติพร",
        "role": "จัดทำ",
        "date": "2556-03-06"
      },
      {
        "name": "วิชพงษ์",
        "role": "ตรวจ",
        "date": "2556-03-19"
      }
    ],
    "tag": "a476-2e-2484-001"
  }
}