{
  "pages": [
    [
      [
        "พระราชบัญญัติ",
        "จัดตั้งศาลแพ่งกรุงเทพใต้และศาลอาญากรุงเทพใต้",
        "พ.ศ. ๒๕๓๒",
        "",
        "",
        "ภูมิพลอดุลยเดช ป.ร.",
        "ให้ไว้ ณ วันที่ ๔ สิงหาคม พ.ศ. ๒๕๓๒",
        "เป็นปีที่ ๔๔ ในรัชกาลปัจจุบัน"
      ]
    ],
    []
  ],
  "metadata": {
    "date_header": "2532-08-04",
    "date_modified": "2532-08-11",
    "date_original": "2532-08-11",
    "doctype": "พระราชบัญญัติ",
    "editors": [
      {
        "name": "โสรศ",
        "role": "ผู้จัดทำ",
        "date": "2550-08-01"
      },
      {
        "name": "วศิน",
        "role": "แก้ไข",
        "date": "2552-04-22"
      }
    ],
    "tag": "a830-20-2532-a0001",
    "title": "จัดตั้งศาลแพ่งกรุงเทพใต้และศาลอาญากรุงเทพใต้"
  }
}