{
  "pages": [
    [
      [
        "ระเบียบคณะกรรมการป้องกันและปราบปรามการทุจริตแห่งชาติ",
        "ว่าด้วยเงินค่าตอบแทนพิเศษของข้าราชการสำนักงานคณะกรรมการป้องกัน",
        "และปราบปรามการทุจริตแห่งชาติ (ฉบับที่ ๓)",
        "พ.ศ. ๒๕๕๒"
      ]
    ],
    []
  ],
  "metadata": {
    "date_backmatter": "2552-01-22",
    "date_modified": "2552-01-23",
    "date_original": "2552-01-23",
    "editors": [
      {
        "name": "ปริยานุช",
        "role": "ผู้จัดทำ",
        "date": "2552-01-26"
      },
      {
        "name": "ปณตภร",
        "role": "ปรับปรุง",
        "date": "2555-03-08"
      }
    ],
    "tag": "bb43-2g-2552-a0001"
  }
}