{
  "pages": [
    [
      [
        "ระเบียบคณะกรรมการป้องกันและปราบปรามการทุจริตแห่งชาติ",
        "ว่าด้วยการส่งเสริมและสนับสนุนให้ประชาชนหรือกลุ่มบุคคลมีส่วนร่วม",
        "ในการป้องกันและปราบปรามการทุจริต",
        "พ.ศ. ๒๕๕๓"
      ]
    ],
    []
  ],
  "metadata": {
    "date_backmatter": "2553-12-13",
    "date_modified": "2553-12-29",
    "date_original": "2553-12-29",
    "editors": [
      {
        "name": "ปริยานุช",
        "role": "ผู้จัดทำ",
        "date": "2554-01-05"
      },
      {
        "name": "ณัฐวดี",
        "role": "ตรวจ",
        "date": "2554-01-05"
      }
    ],
    "tag": "bb43-2g-2553-a0003"
  }
}