{
  "pages": [
    [
      [
        "ระเบียบคณะกรรมการป้องกันและปราบปรามการทุจริตแห่งชาติ",
        "ว่าด้วยเงินค่าตอบแทนพิเศษของข้าราชการสำนักงานคณะกรรมการ",
        "ป้องกันและปราบปรามการทุจริตแห่งชาติ",
        "พ.ศ. ๒๕๔๓"
      ]
    ],
    []
  ],
  "metadata": {
    "date_backmatter": "2543-06-23",
    "date_modified": "2551-06-06",
    "date_original": "2543-06-30",
    "editors": [
      {
        "name": "ปณตภร",
        "role": "ผู้จัดทำ",
        "date": "2555-03-08"
      }
    ],
    "tag": "bb43-2g-2551-a0012"
  }
}