{
  "pages": [
    [
      [
        "ระเบียบคณะกรรมการป้องกันและปราบปรามการทุจริตแห่งชาติ",
        "ว่าด้วยค่าใช้จ่ายในการเดินทางของอดีตผู้ปฏิบัติงานตามพระราชบัญญัติประกอบรัฐธรรมนูญ",
        "ว่าด้วยการป้องกันและปราบปรามการทุจริตและกฎหมายอื่นที่เกี่ยวข้อง",
        "พ.ศ. ๒๕๕๗"
      ]
    ],
    []
  ],
  "metadata": {
    "date_backmatter": "2557-11-26",
    "date_modified": "2557-12-22",
    "date_original": "2557-12-22",
    "editors": [
      {
        "name": "ปริยานุช",
        "role": "ผู้จัดทำ",
        "date": "2558-01-05"
      },
      {
        "name": "วันทิตา",
        "role": "ผู้ตรวจ",
        "date": "2558-01-15"
      }
    ],
    "tag": "bb43-2g-2557-a0016"
  }
}