{
  "pages": [
    [
      [
        "ระเบียบคณะกรรมการป้องกันและปราบปรามการทุจริตแห่งชาติ",
        "ว่าด้วยการประสานความร่วมมือกับหน่วยงานที่เกี่ยวข้อง",
        "พ.ศ. ๒๕๖๐"
      ]
    ],
    []
  ],
  "metadata": {
    "date_backmatter": "2560-08-24",
    "date_modified": "2560-09-14",
    "date_original": "2560-09-14",
    "editors": [
      {
        "name": "ปวันวิทย์/ภวรรณตรี",
        "role": "จัดทำ",
        "date": "2560-09-27"
      }
    ],
    "tag": "bb43-2g-2560-a0014"
  }
}