{
  "pages": [
    [
      [
        "ประกาศคณะกรรมการป้องกัน",
        "และปราบปรามการทุจริตแห่งชาติ",
        "เรื่อง แบบบัญชีแสดงรายการทรัพย์สินและหนี้สินของเจ้าหน้าที่ของรัฐ"
      ]
    ],
    []
  ],
  "metadata": {
    "date_backmatter": "2542-11-18",
    "date_modified": "2542-12-01",
    "date_original": "2542-12-01",
    "doctype": "ประกาศ",
    "editors": [
      {
        "name": "อัมพิกา",
        "role": "แก้ไข",
        "date": "2545-05-31"
      }
    ],
    "tag": "bb43-2e-2542-a0001"
  }
}