{
  "pages": [
    [
      [
        "ประกาศคณะกรรมการป้องกันและปราบปรามการทุจริตแห่งชาติ",
        "เรื่อง การกำหนดหลักเกณฑ์และเงื่อนไขการบริหารวงเงินงบประมาณ",
        "สำหรับการเลื่อนเงินเดือนข้าราชการสำนักงาน ป.ป.ช.",
        "(ฉบับที่ ๔)",
        "พ.ศ. ๒๕๖๐"
      ]
    ],
    []
  ],
  "metadata": {
    "date_backmatter": "2560-01-30",
    "date_modified": "2560-02-10",
    "date_original": "2560-02-10",
    "doctype": "ประกาศ",
    "editors": [
      {
        "name": "ชวัลพร/ปริยานุช",
        "role": "จัดทำ",
        "date": "2560-02-14"
      },
      {
        "name": "นุสรา",
        "role": "ตรวจ",
        "date": "2560-03-20"
      }
    ],
    "tag": "bb43-2e-2560-a0005"
  }
}