{
  "pages": [
    [
      [
        "ประกาศคณะกรรมการป้องกันและปราบปรามการทุจริตแห่งชาติ",
        "เรื่อง แนวทางการกำหนดมาตรการควบคุมภายในที่เหมาะสมสำหรับนิติบุคคล",
        "ในการป้องกันการให้ทรัพย์สินหรือประโยชน์อื่นใดแก่เจ้าหน้าที่ของรัฐ เจ้าหน้าที่ของรัฐต่างประเทศ",
        "หรือเจ้าหน้าที่ขององค์การระหว่างประเทศ"
      ]
    ],
    []
  ],
  "metadata": {
    "date_backmatter": "2560-11-30",
    "date_modified": "2560-12-15",
    "date_original": "2560-12-15",
    "doctype": "ประกาศ",
    "editors": [
      {
        "name": "พัชรภรณ์/อัญชลี",
        "role": "จัดทำ",
        "date": "2561-12-18"
      },
      {
        "name": "นุสรา",
        "role": "ตรวจ",
        "date": "2560-12-30"
      }
    ],
    "tag": "bb43-2e-2560-a0012"
  }
}