{
  "pages": [
    [
      [
        "ระเบียบคณะกรรมการป้องกันและปราบปรามการทุจริตแห่งชาติ",
        "ว่าด้วยการแต่งตั้งทนายความและการจ่ายเงินรางวัลและค่าใช้จ่ายแก่ทนายความ (ฉบับที่ ๒)",
        "พ.ศ. ๒๕๕๕"
      ]
    ],
    []
  ],
  "metadata": {
    "date_backmatter": "2555-02-28",
    "date_modified": "2555-03-06",
    "date_original": "2555-03-06",
    "editors": [
      {
        "name": "ปริยานุช",
        "role": "ผู้จัดทำ",
        "date": "2555-03-09"
      },
      {
        "name": "ชาญ",
        "role": "ผู้ตรวจ",
        "date": "2555-03-16"
      }
    ],
    "tag": "bb43-2g-2555-a0004"
  }
}