{
  "pages": [
    [
      [
        "ประกาศคณะกรรมการป้องกันและปราบปรามการทุจริตแห่งชาติ",
        "เรื่อง หลักเกณฑ์และวิธีการคัดเลือกข้าราชการสำนักงาน ป.ป.ช.",
        "เพื่อแต่งตั้งให้ดำรงตำแหน่งในสาขากระบวนการยุติธรรม",
        "พ.ศ. ๒๕๕๖"
      ]
    ],
    []
  ],
  "metadata": {
    "date_backmatter": "2556-09-27",
    "date_modified": "2558-02-06",
    "date_original": "2556-10-11",
    "doctype": "ประกาศ",
    "editors": [
      {
        "name": "กฤษดายุทธ",
        "role": "ผู้จัดทำ",
        "date": "2558-03-20"
      }
    ],
    "tag": "bb43-2e-9989-update"
  }
}