{
  "pages": [
    [
      [
        "ประกาศคณะกรรมการป้องกันและปราบปรามการทุจริตแห่งชาติ",
        "เรื่อง การกำหนดหลักเกณฑ์และเงื่อนไขการบริหารวงเงินงบประมาณ",
        "สำหรับการเลื่อนเงินเดือนข้าราชการสำนักงาน ป.ป.ช.",
        "พ.ศ. ๒๕๕๕"
      ]
    ],
    []
  ],
  "metadata": {
    "date_backmatter": "2555-11-02",
    "date_modified": "2560-02-10",
    "date_original": "2555-11-16",
    "doctype": "ประกาศ",
    "editors": [
      {
        "name": "กฤษดายุทธ",
        "role": "ผู้จัดทำ",
        "date": "2558-03-20"
      },
      {
        "name": "ชวัลพร",
        "role": "เพิ่มเติม",
        "date": "2560-03-09"
      },
      {
        "name": "นุสรา",
        "role": "ตรวจ",
        "date": "2560-03-21"
      }
    ],
    "tag": "bb43-2e-9990-update"
  }
}