{
  "pages": [
    [
      [
        "ประกาศคณะกรรมการป้องกันและปราบปรามการทุจริตแห่งชาติ",
        "เรื่อง รายงานผลการตรวจสอบความเปลี่ยนแปลงของทรัพย์สินและหนี้สิน",
        "ของผู้ดำรงตำแหน่งทางการเมือง"
      ]
    ],
    []
  ],
  "metadata": {
    "date_backmatter": "2551-02-13",
    "date_modified": "2551-02-01",
    "date_original": "2551-02-01",
    "doctype": "ประกาศ",
    "editors": [],
    "tag": "bb43-2e-2551-a0001"
  }
}