{
  "pages": [
    [
      [
        "ระเบียบคณะกรรมการป้องกันและปราบปรามการทุจริตแห่งชาติ",
        "ว่าด้วยการบริหารงานบุคคลของสำนักงาน ป.ป.ช.",
        "พ.ศ. ๒๕๕๕"
      ]
    ],
    []
  ],
  "metadata": {
    "date_backmatter": "2555-01-05",
    "date_modified": "2557-05-29",
    "date_original": "2555-01-19",
    "editors": [
      {
        "name": "กฤษดายุทธ",
        "role": "ผู้จัดทำ",
        "date": "2557-06-18"
      }
    ],
    "tag": "bb43-2g-2557-a0018"
  }
}