{
  "pages": [
    [
      [
        "ประกาศคณะกรรมการป้องกันและปราบปรามการทุจริตแห่งชาติ",
        "เรื่อง หลักเกณฑ์และวิธีการลงลายมือชื่อหรือกระทำด้วยวิธีอื่นใดแทนการลงลายมือชื่อ",
        "ประธานกรรมการหรือกรรมการซึ่งประธานกรรมการมอบหมายกำกับไว้ใน",
        "บัญชีแสดงรายการทรัพย์สินและหนี้สิน",
        "พ.ศ. ๒๕๕๔"
      ]
    ],
    []
  ],
  "metadata": {
    "date_backmatter": "2554-07-26",
    "date_modified": "2561-05-23",
    "date_original": "2554-07-28",
    "doctype": "ประกาศ",
    "editors": [
      {
        "name": "พัชรภรณ์",
        "role": "จัดทำ",
        "date": "2561-08-27"
      }
    ],
    "tag": "bb43-2e-9984-update"
  }
}