{
  "pages": [
    [
      [
        "ประกาศคณะกรรมการ ป.ป.ช.",
        "เรื่อง รายงานผลการตรวจสอบความเปลี่ยนแปลงของทรัพย์สินและหนี้สิน",
        "ของผู้ดำรงตำแหน่งทางการเมือง"
      ]
    ],
    []
  ],
  "metadata": {
    "date_backmatter": "2551-01-08",
    "date_modified": "2550-12-29",
    "date_original": "2550-12-29",
    "doctype": "ประกาศ",
    "editors": [],
    "tag": "bb43-2e-2550-a0004"
  }
}