{
  "pages": [
    [
      [
        "ประกาศคณะกรรมการป้องกันและปราบปรามการทุจริตแห่งชาติ",
        "เรื่อง การให้ข้าราชการสำนักงาน ป.ป.ช. ได้รับเงินเดือนและเงินประจำตำแหน่ง",
        "พ.ศ. ๒๕๕๒"
      ]
    ],
    []
  ],
  "metadata": {
    "date_backmatter": "2552-01-22",
    "date_modified": "2560-02-10",
    "date_original": "2552-01-23",
    "doctype": "ประกาศ",
    "editors": [
      {
        "name": "กฤษดายุทธ",
        "role": "ผู้จัดทำ",
        "date": "2558-03-20"
      },
      {
        "name": "ชวัลพร",
        "role": "เพิ่มเติม",
        "date": "2560-03-09"
      },
      {
        "name": "นุสรา",
        "role": "ตรวจ",
        "date": "2560-03-21"
      }
    ],
    "tag": "bb43-2e-9988-update"
  }
}