{
  "pages": [
    [
      [
        "ระเบียบคณะกรรมการป้องกันและปราบปรามการทุจริตแห่งชาติ",
        "ว่าด้วยการงบประมาณ (ฉบับที่ ๒)",
        "พ.ศ. ๒๕๕๑"
      ]
    ],
    []
  ],
  "metadata": {
    "date_backmatter": "2551-10-13",
    "date_modified": "2551-11-03",
    "date_original": "2551-11-03",
    "editors": [
      {
        "name": "ปริยานุช",
        "role": "ผู้จัดทำ",
        "date": "2551-11-05"
      },
      {
        "name": "วิศนี",
        "role": "ปรับปรุง",
        "date": "2558-07-13"
      }
    ],
    "tag": "bb43-2g-2551-a0011"
  }
}