{
  "pages": [
    [
      [
        "ระเบียบคณะกรรมการป้องกันและปราบปรามการทุจริตแห่งชาติ",
        "ว่าด้วยบัตรประจำตัวกรรมการป้องกันและปราบปรามการทุจริตประจำจังหวัด",
        "พ.ศ. ๒๕๕๗"
      ]
    ],
    []
  ],
  "metadata": {
    "date_backmatter": "2557-02-20",
    "date_modified": "2557-03-05",
    "date_original": "2557-03-05",
    "editors": [
      {
        "name": "ปริยานุช",
        "role": "ผู้จัดทำ",
        "date": "2557-03-10"
      },
      {
        "name": "ปณตภร",
        "role": "ผู้ตรวจ",
        "date": "2557-03-11"
      }
    ],
    "tag": "bb43-2g-2557-a0002"
  }
}