{
  "pages": [
    [
      [
        "ประกาศคณะกรรมการ ป.ป.ช.",
        "เรื่อง รายงานผลการตรวจสอบความเปลี่ยนแปลงของทรัพย์สินและหนี้สิน",
        "ของผู้ดำรงตำแหน่งทางการเมือง"
      ]
    ],
    []
  ],
  "metadata": {
    "date_backmatter": "2550-11-20",
    "date_modified": "2551-02-01",
    "date_original": "2551-02-01",
    "doctype": "ประกาศ",
    "editors": [
      {
        "name": "ปริยานุช",
        "role": "ผู้จัดทำ",
        "date": "2551-02-13"
      },
      {
        "name": "ปิติวรรณ",
        "role": "ปรับปรุง",
        "date": "2561-06-29"
      }
    ],
    "tag": "bb43-2e-2551-a0007"
  }
}