{
  "pages": [
    [
      [
        "ประกาศคณะกรรมการป้องกันและปราบปรามการทุจริตแห่งชาติ",
        "เรื่อง รายงานผลการตรวจสอบความเปลี่ยนแปลงของทรัพย์สินและหนี้สิน",
        "ของผู้ดำรงตำแหน่งทางการเมือง"
      ]
    ],
    []
  ],
  "metadata": {
    "date_backmatter": "2551-09-05",
    "date_modified": "2551-12-08",
    "date_original": "2551-12-08",
    "doctype": "ประกาศ",
    "editors": [
      {
        "name": "ปริยานุช",
        "role": "ผู้จัดทำ",
        "date": "2551-12-12"
      },
      {
        "name": "ปิติวรรณ",
        "role": "ปรับปรุง",
        "date": "2561-07-02"
      }
    ],
    "tag": "bb43-2e-2551-a0029"
  }
}