{
  "pages": [
    [
      [
        "ระเบียบคณะกรรมการป้องกันและปราบปราม",
        "การทุจริตแห่งชาติ",
        "ว่าด้วยเงินเพิ่มช่วยค่าครองชีพของลูกจ้างสำนักงาน ป.ป.ช. พ.ศ. ๒๕๔๔"
      ]
    ],
    []
  ],
  "metadata": {
    "date_backmatter": "2544-05-03",
    "date_modified": "2551-06-06",
    "date_original": "2544-05-15",
    "editors": [
      {
        "name": "ณัฐพร",
        "role": "ผู้จัดทำ",
        "date": "2555-10-15"
      }
    ],
    "tag": "bb43-2g-2551-a0013"
  }
}