{
  "pages": [
    [
      [
        "ระเบียบคณะกรรมการป้องกันและปราบปรามการทุจริตแห่งชาติ",
        "ว่าด้วยการบริหารงานทั่วไป การแบ่งส่วนราชการ การบริหารงานบุคคล",
        "การงบประมาณ การเงินและทรัพย์สิน และการดำเนินการอื่น",
        "รวมทั้งการกำหนดตำแหน่ง ระดับ เงินเดือน เงินประจำตำแหน่งของข้าราชการ",
        "และลูกจ้างของสำนักงานคณะกรรมการป้องกันและปราบปรามการทุจริตแห่งชาติ",
        "(ฉบับที่ ๓)",
        "พ.ศ. ๒๕๕๒"
      ]
    ],
    []
  ],
  "metadata": {
    "date_backmatter": "2552-01-13",
    "date_modified": "2552-01-27",
    "date_original": "2552-01-27",
    "editors": [
      {
        "name": "วัชศักดิ์",
        "role": "ผู้จัดทำ",
        "date": "2552-01-28"
      }
    ],
    "tag": "bb43-2g-2552-a0002"
  }
}