{
  "pages": [
    [
      [
        "ประกาศคณะกรรมการป้องกันและปราบปราม",
        "การทุจริตแห่งชาติ",
        "เรื่อง กำหนดตำแหน่งเจ้าหน้าที่ของรัฐที่ต้องห้ามมิให้ดำเนินกิจการ",
        "ตามความในมาตรา ๑๐๐ แห่งพระราชบัญญัติประกอบรัฐธรรมนูญ",
        "ว่าด้วยการป้องกันและปราบปรามการทุจริต",
        "พ.ศ.๒๕๔๒ พ.ศ.๒๕๔๔"
      ]
    ],
    []
  ],
  "metadata": {
    "date_backmatter": "2544-02-15",
    "date_modified": "2544-02-28",
    "date_original": "2544-02-28",
    "doctype": "ประกาศ",
    "editors": [
      {
        "name": "ภคินี",
        "role": "แก้ไข",
        "date": "2545-04-30"
      },
      {
        "name": "สุกัญญา",
        "role": "แก้ไข",
        "date": "2551-08-07"
      }
    ],
    "tag": "bb43-2e-2544-a0001"
  }
}