{
  "pages": [
    [
      [
        "ประกาศคณะกรรมการป้องกันและปราบปรามการทุจริตแห่งชาติ",
        "เรื่อง การแบ่งส่วนราชการภายในและอำนาจหน้าที่ของส่วนราชการในสังกัด",
        "สำนักงานคณะกรรมการป้องกันและปราบปรามการทุจริตแห่งชาติ (ฉบับที่ ๘)",
        "พ.ศ. ๒๕๕๘"
      ]
    ],
    []
  ],
  "metadata": {
    "date_backmatter": "2558-03-05",
    "date_modified": "2558-03-13",
    "date_original": "2558-03-13",
    "doctype": "ประกาศ",
    "editors": [
      {
        "name": "ปริยานุช",
        "role": "ผู้จัดทำ",
        "date": "2558-03-16"
      },
      {
        "name": "นุสรา",
        "role": "ผู้ตรวจ",
        "date": "2558-03-24"
      }
    ],
    "tag": "bb43-2e-2558-a0006"
  }
}