{
  "pages": [
    [
      [
        "ประกาศกรมการค้าต่างประเทศ",
        "เรื่อง หลักเกณฑ์ วิธีการ และเงื่อนไขในการออกหนังสือรับรองแสดงการได้รับสิทธิในการยกเว้นภาษี",
        "ศุลกากรสำหรับเหล็กและเหล็กกล้าที่มีโควตาตามความตกลงระหว่างราชอาณาจักรไทยและญี่ปุ่น",
        "สำหรับความเป็นหุ้นส่วนทางเศรษฐกิจ",
        "(ฉบับที่ ๔)",
        "พ.ศ. ๒๕๕๑"
      ]
    ],
    []
  ],
  "metadata": {
    "date_backmatter": "2551-08-15",
    "date_modified": "2552-01-16",
    "date_original": "2552-01-16",
    "doctype": "ประกาศ",
    "editors": [
      {
        "name": "คุณากร",
        "role": "ผู้จัดทำ",
        "date": "2554-09-01"
      }
    ],
    "tag": "a160-2e-2552-a0041"
  }
}