{
  "pages": [
    [
      [
        "ระเบียบกระทรวงพาณิชย์",
        "ว่าด้วยการออกหนังสือรับรองแสดงการได้รับสิทธิชำระภาษี",
        "ตามพันธกรณีตามความตกลงการเกษตรภายใต้องค์การการค้าโลก (WTO)",
        "สำหรับสินค้ากากถั่วเหลืองปี ๒๕๔๘",
        "พ.ศ. ๒๕๔๗"
      ]
    ],
    []
  ],
  "metadata": {
    "date_backmatter": "2547-12-30",
    "date_modified": "2548-01-17",
    "date_original": "2548-01-17",
    "editors": [
      {
        "name": "คุณากร",
        "role": "ผู้จัดทำ",
        "date": "2554-08-25"
      }
    ],
    "tag": "a160-2g-2548-a0008"
  }
}