{
  "pages": [
    [
      [
        "ประกาศกระทรวงพาณิชย์",
        "เรื่อง การส่งออกไปนอกและการนำเข้ามาในราชอาณาจักร",
        "ซึ่งสารโพแทสเซียมเพอร์แมงกาเนต",
        "(Potassium Permanganate) พ.ศ. ๒๕๔๕"
      ]
    ],
    []
  ],
  "metadata": {
    "date_backmatter": "2545-08-28",
    "date_modified": "2545-09-04",
    "date_original": "2545-09-04",
    "doctype": "ประกาศ",
    "editors": [
      {
        "name": "ปริญสินีย์",
        "role": "ผู้จัดทำ",
        "date": "2554-09-05"
      }
    ],
    "tag": "a160-2e-2545-a006"
  }
}