{
  "pages": [
    [
      [
        "ระเบียบกระทรวงพาณิชย์",
        "ว่าด้วยหลักเกณฑ์ วิธีการ และเงื่อนไขในการออกหนังสือรับรองแสดงการได้รับสิทธิในการยกเว้นภาษีทั้งหมด",
        "หรือบางส่วนตามความตกลงหุ้นส่วนเศรษฐกิจที่ใกล้ชิดกันยิ่งขึ้น ไทย - นิวซีแลนด์ สำหรับภาษีในโควตา",
        "สินค้ามันฝรั่ง หอมหัวใหญ่ และเมล็ดพันธุ์หอมหัวใหญ่ ปี ๒๕๕๘ ถึงปี ๒๕๖๐",
        "พ.ศ. ๒๕๕๘"
      ]
    ],
    []
  ],
  "metadata": {
    "date_backmatter": "2558-02-12",
    "date_modified": "2558-03-16",
    "date_original": "2558-03-16",
    "editors": [
      {
        "name": "ปริยานุช",
        "role": "ผู้จัดทำ",
        "date": "2558-03-19"
      },
      {
        "name": "วันทิตา",
        "role": "ผู้ตรวจ",
        "date": "2558-04-29"
      }
    ],
    "tag": "a160-2g-2558-a0020"
  }
}