{
  "pages": [
    [
      [
        "ประกาศกรมการค้าต่างประเทศ",
        "เรื่อง การขอหนังสือรับรองการส่งออกข้าวไปสหภาพยุโรปสำหรับปี ๒๕๕๑",
        "พ.ศ. ๒๕๕๐"
      ]
    ],
    []
  ],
  "metadata": {
    "date_backmatter": "2550-12-28",
    "date_modified": "2551-02-28",
    "date_original": "2551-02-28",
    "doctype": "ประกาศ",
    "editors": [
      {
        "name": "ปริญสินีย์",
        "role": "ผู้จัดทำ",
        "date": "2554-09-09"
      }
    ],
    "tag": "a160-2e-2551-a0010"
  }
}