{
  "pages": [
    [
      [
        "ระเบียบกระทรวงพาณิชย์",
        "ว่าด้วยการออกหนังสือรับรองแสดงการได้รับสิทธิชำระภาษี",
        "ตามพันธกรณีตามความตกลงการเกษตรภายใต้องค์การ",
        "การค้าโลก (WTO) สำหรับสินค้านมผงขาดมันเนย",
        "ปี ๒๕๔๔ (ฉบับที่ ๔)",
        "พ.ศ. ๒๕๔๔"
      ]
    ],
    []
  ],
  "metadata": {
    "date_backmatter": "2544-12-28",
    "date_modified": "2545-02-05",
    "date_original": "2545-02-05",
    "editors": [
      {
        "name": "คุณากร",
        "role": "ผู้จัดทำ",
        "date": "2554-08-19"
      }
    ],
    "tag": "a160-2g-2545-a0001"
  }
}