{
  "pages": [
    [
      [
        "ประกาศกระทรวงพาณิชย์",
        "ว่าด้วยการกำหนดมาตรการจัดระเบียบในการส่งน้ำมันดีเซลหมุนเร็ว",
        "ออกไปนอกราชอาณาจักร (ฉบับที่ ๘๕)",
        "พ.ศ. ๒๕๔๑"
      ]
    ],
    []
  ],
  "metadata": {
    "date_backmatter": "2541-09-08",
    "date_modified": "2541-09-14",
    "date_original": "2541-09-14",
    "doctype": "ประกาศ",
    "editors": [
      {
        "name": "ปริญสินีย์",
        "role": "ผู้จัดทำ",
        "date": "2554-09-01"
      }
    ],
    "tag": "a160-2e-2541-a006"
  }
}