{
  "pages": [
    [
      [
        "ประกาศกรมการค้าต่างประเทศ",
        "เรื่อง ผลการจัดสรรปริมาณการนำเข้าเหล็กและเหล็กกล้าที่จะออกหนังสือรับรองแสดงการได้รับสิทธิ",
        "ในการยกเว้นภาษีศุลกากรสำหรับเหล็กและเหล็กกล้าที่มีโควตาตามความตกลงระหว่างราชอาณาจักรไทยและญี่ปุ่น สำหรับความเป็นหุ้นส่วนทางเศรษฐกิจซึ่งนำเข้าในปี ๒๕๕๗",
        "(ฉบับที่ ๓)",
        "พ.ศ. ๒๕๕๗"
      ]
    ],
    []
  ],
  "metadata": {
    "date_backmatter": "2557-07-29",
    "date_modified": "2557-09-04",
    "date_original": "2557-09-04",
    "doctype": "ประกาศ",
    "editors": [
      {
        "name": "ปริยานุช",
        "role": "ผู้จัดทำ",
        "date": "2557-09-25"
      },
      {
        "name": "จุฑามาศ",
        "role": "ผู้ตรวจ",
        "date": "2557-10-14"
      }
    ],
    "tag": "a160-2e-2557-a0042"
  }
}