{
  "pages": [
    [
      [
        "ประกาศกระทรวงพาณิชย์",
        "เรื่อง การนำสินค้าข้าวโพดเลี้ยงสัตว์เข้ามาในราชอาณาจักร",
        "พ.ศ. ๒๕๔๕"
      ]
    ],
    []
  ],
  "metadata": {
    "date_backmatter": "2545-04-02",
    "date_modified": "2545-05-09",
    "date_original": "2545-05-09",
    "doctype": "ประกาศ",
    "editors": [
      {
        "name": "ปิยะธิดา",
        "role": "จัดทำ",
        "date": "2561-02-12"
      }
    ],
    "tag": "a160-2e-2545-a019"
  }
}