{
  "pages": [
    [
      [
        "ประกาศกรมการค้าต่างประเทศ",
        "เรื่อง การจัดสรรปริมาณสินค้าพริกไทยที่จะออกหนังสือรับรอง",
        "แสดงการได้รับสิทธิชำระภาษีในโควตาตามพันธกรณีตามความตกลงการเกษตร",
        "ภายใต้องค์การการค้าโลก (WTO) สำหรับ ปี ๒๕๕๐",
        "พ.ศ. ๒๕๕๐"
      ]
    ],
    []
  ],
  "metadata": {
    "date_backmatter": "2550-05-09",
    "date_modified": "2550-06-13",
    "date_original": "2550-06-13",
    "doctype": "ประกาศ",
    "editors": [
      {
        "name": "ปริญสินีย์",
        "role": "ผู้จัดทำ",
        "date": "2554-09-08"
      }
    ],
    "tag": "a160-2e-2550-a0021"
  }
}