{
  "pages": [
    [
      [
        "ประกาศกระทรวงพาณิชย์",
        "เรื่อง การส่งออกไปนอกและนำเข้ามาในราชอาณาจักรซึ่งสินค้า",
        "พ.ศ. ๒๕๓๕"
      ]
    ],
    []
  ],
  "metadata": {
    "date_backmatter": "2535-02-09",
    "date_modified": "2535-05-01",
    "date_original": "2535-05-01",
    "doctype": "ประกาศ",
    "editors": [
      {
        "name": "ปริญสินีย์",
        "role": "ผู้จัดทำ",
        "date": "2554-08-26"
      }
    ],
    "tag": "a160-2e-2535-a002"
  }
}