{
  "pages": [
    [
      [
        "ประกาศกรมการค้าต่างประเทศ",
        "เรื่อง การขอหนังสือรับรองการส่งออกสินค้าสิ่งทอ",
        "พ.ศ. ๒๕๔๖"
      ]
    ],
    []
  ],
  "metadata": {
    "date_backmatter": "2546-02-10",
    "date_modified": "2546-03-24",
    "date_original": "2546-03-24",
    "doctype": "ประกาศ",
    "editors": [
      {
        "name": "ปริญสินีย์",
        "role": "ผู้จัดทำ",
        "date": "2554-09-05"
      }
    ],
    "tag": "a160-2e-2546-a0011"
  }
}