{
  "pages": [
    [
      [
        "ประกาศกรมการค้าต่างประเทศ",
        "เรื่อง ผลการจัดสรรปริมาณน้ำนมดิบและนมพร้อมดื่มที่จะออกหนังสือรับรองแสดงการได้รับสิทธิ",
        "ในการยกเว้นภาษีทั้งหมดหรือบางส่วนตามความตกลงการค้าเสรีไทย - ออสเตรเลีย",
        "สำหรับภาษีในโควตา ปี ๒๕๕๗",
        "(ฉบับที่ ๒)",
        "พ.ศ. ๒๕๕๗"
      ]
    ],
    []
  ],
  "metadata": {
    "date_backmatter": "2557-03-07",
    "date_modified": "2557-03-21",
    "date_original": "2557-03-21",
    "doctype": "ประกาศ",
    "editors": [
      {
        "name": "ปิยะธิดา",
        "role": "จัดทำ",
        "date": "2561-03-15"
      }
    ],
    "tag": "a160-2e-2557-a0020"
  }
}