{
  "pages": [
    [
      [
        "ประกาศธนาคารแห่งประเทศไทย",
        "เรื่อง ข้อกำหนดเกี่ยวกับการบัญชีของบริษัทเงินทุน",
        "และบริษัทเครดิตฟองซิเอร์ (ฉบับที่ ๒)",
        "พ.ศ. ๒๕๓๘"
      ]
    ],
    []
  ],
  "metadata": {
    "date_backmatter": "2538-12-22",
    "date_gz_old": "2538-12-22",
    "doctype": "ประกาศ",
    "editors": [
      {
        "name": "จารุวรรณ",
        "role": "แก้ไข",
        "date": "2545-08-01"
      }
    ],
    "tag": "a160-2e-2538-a008"
  }
}