{
  "pages": [
    [
      [
        "ประกาศกรมการค้าต่างประเทศ",
        "เรื่อง หลักเกณฑ์ วิธีการ และเงื่อนไขการจัดสรรปริมาณการนำเข้าน้ำนมดิบและนมพร้อมดื่ม",
        "ตามความตกลงการเกษตรภายใต้องค์การการค้าโลก (WTO) สำหรับปี ๒๕๕๐",
        "พ.ศ. ๒๕๕๐"
      ]
    ],
    []
  ],
  "metadata": {
    "date_backmatter": "2550-03-14",
    "date_modified": "2550-04-10",
    "date_original": "2550-04-10",
    "doctype": "ประกาศ",
    "editors": [
      {
        "name": "ปริญสินีย์",
        "role": "ผู้จัดทำ",
        "date": "2554-09-08"
      }
    ],
    "tag": "a160-2e-2550-a0012"
  }
}