{
  "pages": [
    [
      [
        "พระราชกฤษฎีกา",
        "ควบคุมการส่งออกไปนอกราชอาณาจักร",
        "ซึ่งสินค้าบางอย่าง (ฉบับที่ ๒๙)",
        "พ.ศ. ๒๕๐๙",
        "",
        "",
        "ภูมิพลอดุลยเดช ป.ร.",
        "ให้ไว้ ณ วันที่ ๒๑ ธันวาคม พ.ศ. ๒๕๐๙",
        "เป็นปีที่ ๒๑ ในรัชกาลปัจจุบัน"
      ]
    ],
    []
  ],
  "metadata": {
    "date_header": "2509-12-21",
    "date_modified": "2509-12-27",
    "date_original": "2509-12-27",
    "doctype": "พระราชกฤษฎีกา",
    "editors": [
      {
        "name": "สุกัญญา",
        "role": "พิมพ์",
        "date": "2550-05-03"
      },
      {
        "name": "หทัยภัทร",
        "role": "ตรวจ",
        "date": "2550-05-24"
      }
    ],
    "tag": "a160-2a-2509-a0002",
    "title": "ควบคุมการส่งออกไปนอกราชอาณาจักรซึ่งสินค้าบางอย่าง (ฉบับที่ ๒๙)"
  }
}