{
  "pages": [
    [
      [
        "ประกาศกรมการค้าต่างประเทศ",
        "เรื่อง หลักเกณฑ์ วิธีการ และเงื่อนไขในการขอและการออกหนังสือรับรองแสดงการได้รับสิทธิ",
        "ในการยกเว้นภาษีทั้งหมดหรือบางส่วน สำหรับกาแฟ ชา น้ำนมดิบและนมพร้อมดื่ม และนมผงขาดมันเนย",
        "ที่นำเข้ามาในราชอาณาจักรตามความตกลงเขตการค้าเสรีอาเซียน",
        "(ฉบับที่ ๕)",
        "พ.ศ. ๒๕๕๙"
      ]
    ],
    []
  ],
  "metadata": {
    "date_backmatter": "2559-11-15",
    "date_modified": "2559-12-02",
    "date_original": "2559-12-02",
    "doctype": "ประกาศ",
    "editors": [
      {
        "name": "ปิยะธิดา",
        "role": "จัดทำ",
        "date": "2561-03-28"
      }
    ],
    "tag": "a160-2e-2559-a0048"
  }
}