{
  "pages": [
    [
      [
        "ประกาศกระทรวงการคลัง",
        "เรื่อง อนุญาตให้นำทองคำเข้ามาในราชอาณาจักร",
        "และส่งออกไปนอกราชอาณาจักรซึ่งทองคำและทองคำขาว (ฉบับที่ ๒)"
      ]
    ],
    []
  ],
  "metadata": {
    "date_backmatter": "2542-08-18",
    "date_modified": "2542-08-20",
    "date_original": "2542-08-20",
    "doctype": "ประกาศ",
    "editors": [
      {
        "name": "ปิยะธิดา",
        "role": "จัดทำ",
        "date": "2561-02-05"
      }
    ],
    "tag": "a160-2e-2542-a019"
  }
}