{
  "pages": [
    [
      [
        "ประกาศกระทรวงพาณิชย์",
        "เรื่อง กำหนดให้อาวุธและยุทโธปกรณ์เป็นสินค้าที่ต้องห้ามส่งออก ห้ามนำเข้า",
        "และห้ามนำผ่านราชอาณาจักร ไปยังกลุ่มตอลิบาน (Taliban)",
        "พ.ศ. ๒๕๖๐"
      ]
    ],
    []
  ],
  "metadata": {
    "date_backmatter": "2560-02-14",
    "date_modified": "2560-02-23",
    "date_original": "2560-02-23",
    "doctype": "ประกาศ",
    "editors": [
      {
        "name": "พิมพ์มาดา/ปริยานุช",
        "role": "จัดทำ",
        "date": "2560-02-27"
      },
      {
        "name": "ปริญสินีย์",
        "role": "ตรวจ",
        "date": "2560-04-04"
      }
    ],
    "tag": "a160-2e-2560-a0011"
  }
}