{
  "pages": [
    [
      [
        "ระเบียบกระทรวงพาณิชย์",
        "ว่าด้วยการบริหารการส่งออกด้ายและผ้าผืน",
        "ไปยังประเทศที่มีข้อตกลงกับประเทศไทย",
        "(ฉบับที่ ๗)",
        "พ.ศ. ๒๕๔๖"
      ]
    ],
    []
  ],
  "metadata": {
    "date_backmatter": "2546-02-03",
    "date_modified": "2546-03-13",
    "date_original": "2546-03-13",
    "editors": [
      {
        "name": "คุณากร",
        "role": "ผู้จัดทำ",
        "date": "2554-08-22"
      }
    ],
    "tag": "a160-2g-2546-a0003"
  }
}