{
  "pages": [
    [
      [
        "ประกาศกระทรวงพาณิชย์",
        "เรื่อง กำหนดให้สินค้าที่ใช้ได้สองทางเป็นสินค้าที่ต้องขออนุญาต",
        "และกำหนดสินค้าที่ต้องปฏิบัติตามมาตรการจัดระเบียบ",
        "ในการส่งออกไปนอกราชอาณาจักร",
        "พ.ศ. ๒๕๕๘"
      ]
    ],
    []
  ],
  "metadata": {
    "date_backmatter": "2558-09-22",
    "date_modified": "2558-10-16",
    "date_original": "2558-10-16",
    "doctype": "ประกาศ",
    "editors": [
      {
        "name": "ปริยานุช",
        "role": "ผู้จัดทำ",
        "date": "2558-10-19"
      },
      {
        "name": "ปุณิกา",
        "role": "ผู้ตรวจ",
        "date": "2558-11-05"
      }
    ],
    "tag": "a160-2e-2558-a0045"
  }
}