{
  "pages": [
    [
      [
        "ประกาศกรมการค้าต่างประเทศ",
        "เรื่อง การออกหนังสือรับรองถิ่นกำเนิดสินค้าตามความตกลงเพื่อจัดตั้ง",
        "เขตการค้าเสรีอาเซียน - ออสเตรเลีย - นิวซีแลนด์",
        "พ.ศ. ๒๕๕๓"
      ]
    ],
    []
  ],
  "metadata": {
    "date_backmatter": "2553-03-02",
    "date_modified": "2553-04-23",
    "date_original": "2553-04-23",
    "doctype": "ประกาศ",
    "editors": [
      {
        "name": "ปริญสินีย์",
        "role": "ผู้จัดทำ",
        "date": "2554-09-12"
      }
    ],
    "tag": "a160-2e-2553-a0018"
  }
}