{
  "pages": [
    [
      [
        "ประกาศกรมการค้าต่างประเทศ",
        "เรื่อง การตรวจสอบปริมาณผลิตภัณฑ์มันสำปะหลัง",
        "สำหรับการขออนุญาตส่งออกไปนอกราชอาณาจักร ปี ๒๕๕๘",
        "พ.ศ. ๒๕๕๗"
      ]
    ],
    []
  ],
  "metadata": {
    "date_backmatter": "2557-12-15",
    "date_modified": "2558-01-12",
    "date_original": "2558-01-12",
    "doctype": "ประกาศ",
    "editors": [
      {
        "name": "ปริยานุช",
        "role": "ผู้จัดทำ",
        "date": "2558-01-19"
      },
      {
        "name": "นุสรา",
        "role": "ผู้ตรวจ",
        "date": "2558-02-09"
      }
    ],
    "tag": "a160-2e-2558-a0001"
  }
}