{
  "pages": [
    [
      [
        "ระเบียบกระทรวงพาณิชย์",
        "ว่าด้วยการออกหนังสือรับรองแสดงการได้รับสิทธิชำระภาษี",
        "ตามพันธกรณีตามความตกลงการเกษตรภายใต้องค์การ",
        "การค้าโลก (WTO) สำหรับสินค้านมผงขาดมันเนย ปี ๒๕๔๗",
        "(ฉบับที่ ๒)",
        "พ.ศ. ๒๕๔๗"
      ]
    ],
    []
  ],
  "metadata": {
    "date_backmatter": "2547-11-09",
    "date_modified": "2547-11-19",
    "date_original": "2547-11-19",
    "editors": [],
    "tag": "a160-2g-2547-a0006"
  }
}