{
  "pages": [
    [
      [
        "ประกาศกรมการค้าต่างประเทศ",
        "เรื่อง ผลการจัดสรรปริมาณข้าวเพื่อการออกหนังสือรับรองการส่งออก",
        "ไปสหภาพยุโรปสำหรับปี ๒๕๕๔",
        "(ฉบับที่ ๒)",
        "พ.ศ. ๒๕๕๔"
      ]
    ],
    []
  ],
  "metadata": {
    "date_backmatter": "2554-01-27",
    "date_modified": "2554-03-15",
    "date_original": "2554-03-15",
    "doctype": "ประกาศ",
    "editors": [
      {
        "name": "ปริญสินีย์",
        "role": "ผู้จัดทำ",
        "date": "2554-09-13"
      }
    ],
    "tag": "a160-2e-2554-a0014"
  }
}