{
  "pages": [
    [
      [
        "ประกาศกระทรวงพาณิชย์",
        "เรื่อง การส่งสินค้าออกไปนอกราชอาณาจักร",
        "(ฉบับที่ ๕๖) พ.ศ. ๒๕๒๑"
      ]
    ],
    []
  ],
  "metadata": {
    "date_backmatter": "2521-10-13",
    "date_modified": "2521-10-19",
    "date_original": "2521-10-19",
    "doctype": "ประกาศ",
    "editors": [
      {
        "name": "ปริญสินีย์",
        "role": "ผู้จัดทำ",
        "date": "2554-06-29"
      }
    ],
    "tag": "a160-2e-2521-a008"
  }
}