{
  "pages": [
    [
      [
        "ประกาศกระทรวงพาณิชย์",
        "ว่าด้วยการส่งสินค้าออกไปนอกราชอาณาจักร",
        "(ฉบับที่ ๘๙)",
        "พ.ศ. ๒๕๔๑"
      ]
    ],
    []
  ],
  "metadata": {
    "date_backmatter": "2541-12-23",
    "date_modified": "2541-12-28",
    "date_original": "2541-12-28",
    "doctype": "ประกาศ",
    "editors": [
      {
        "name": "ปริญสินีย์",
        "role": "ผู้จัดทำ",
        "date": "2554-09-01"
      }
    ],
    "tag": "a160-2e-2541-a010"
  }
}