{
  "pages": [
    [
      [
        "ประกาศกรมการค้าต่างประเทศ",
        "เรื่อง ปริมาณสินค้านมผงขาดมันเนยที่จะจัดสรรเพื่อออกหนังสือรับรอง",
        "แสดงการได้รับสิทธิชำระภาษีตามพันธกรณีตามความตกลงการเกษตรภายใต้",
        "องค์การการค้าโลก (WTO) ประจำปี ๒๕๔๖",
        "พ.ศ. ๒๕๔๖ ครั้งที่ ๒ (เพิ่มเติม)"
      ]
    ],
    []
  ],
  "metadata": {
    "date_modified": "2546-06-09",
    "date_original": "2546-06-09",
    "doctype": "ประกาศ",
    "editors": [
      {
        "name": "ปริญสินีย์",
        "role": "ผู้จัดทำ",
        "date": "2554-09-05"
      }
    ],
    "tag": "a160-2e-2546-a0022"
  }
}