{
  "pages": [
    [
      [
        "ประกาศกระทรวงพาณิชย์",
        "เรื่อง กำหนดสินค้าต้องห้ามส่งออก นำเข้า และนำผ่าน",
        "ตามข้อมติคณะมนตรีความมั่นคงแห่งสหประชาชาติ",
        "กรณีสาธารณรัฐประชาธิปไตยประชาชนเกาหลี",
        "พ.ศ. ๒๕๖๑"
      ]
    ],
    []
  ],
  "metadata": {
    "date_backmatter": "2561-03-07",
    "date_modified": "2561-03-13",
    "date_original": "2561-03-13",
    "doctype": "ประกาศ",
    "editors": [
      {
        "name": "ปวันวิทย์",
        "role": "จัดทำ",
        "date": "2561-04-25"
      }
    ],
    "tag": "a160-2e-2561-a0011"
  }
}