{
  "pages": [
    [
      [
        "คำสั่งกระทรวงพาณิชย์",
        "ที่ ๕๓๙/๒๕๕๖",
        "เรื่อง มอบอำนาจในการพิจารณาอนุญาตให้นำเครื่องจักรที่สามารถใช้เพื่อประโยชน์",
        "ในการละเมิดลิขสิทธิ์เทปเพลง วีดีโอเทป และแผ่นซีดี เข้ามาในราชอาณาจักร"
      ]
    ],
    []
  ],
  "metadata": {
    "date_backmatter": "2556-09-26",
    "date_modified": "2556-10-31",
    "date_original": "2556-10-31",
    "editors": [
      {
        "name": "ปริยานุช",
        "role": "ผู้จัดทำ",
        "date": "2556-11-04"
      },
      {
        "name": "อุษมล",
        "role": "ผู้ตรวจ",
        "date": "2556-11-06"
      }
    ],
    "tag": "a160-2f-2556-a0001"
  }
}