{
  "pages": [
    [
      [
        "ระเบียบกระทรวงพาณิชย์",
        "ว่าด้วยการออกหนังสือรับรองแสดงการได้รับสิทธิชำระภาษีตามพันธกรณี",
        "ตามความตกลงการเกษตรภายใต้องค์การการค้าโลก (WTO)",
        "สำหรับสินค้ามะพร้าว ปี ๒๕๔๔",
        "พ.ศ.๒๕๔๓"
      ]
    ],
    []
  ],
  "metadata": {
    "date_backmatter": "2543-12-14",
    "date_modified": "2544-01-05",
    "date_original": "2544-01-05",
    "editors": [
      {
        "name": "คุณากร",
        "role": "ผู้จัดทำ",
        "date": "2554-08-19"
      }
    ],
    "tag": "a160-2g-2544-a006"
  }
}