{
  "pages": [
    [
      [
        "ประกาศกรมการค้าต่างประเทศ",
        "เรื่อง ผลการจัดสรรปริมาณมันฝรั่ง เมล็ดกาแฟ ชา และกาแฟสำเร็จรูป ที่จะออกหนังสือรับรอง",
        "แสดงการได้รับสิทธิในการยกเว้นภาษีทั้งหมดหรือบางส่วนตามความตกลงการค้าเสรี ไทย - ออสเตรเลีย",
        "สำหรับภาษีในโควตา ปี ๒๕๖๑ (ฉบับที่ ๒)",
        "พ.ศ. ๒๕๖๑"
      ]
    ],
    []
  ],
  "metadata": {
    "date_backmatter": "2561-08-22",
    "date_modified": "2561-09-12",
    "date_original": "2561-09-12",
    "doctype": "ประกาศ",
    "editors": [
      {
        "name": "พิมพ์มาดา",
        "role": "จัดทำ",
        "date": "2561-12-27"
      }
    ],
    "tag": "a160-2e-2561-a0019"
  }
}