{
  "pages": [
    [
      [
        "ระเบียบกระทรวงพาณิชย์",
        "ว่าด้วยหลักเกณฑ์ วิธีการ และเงื่อนไขในการออกหนังสือรับรองแสดงการได้รับสิทธิชำระภาษีในโควตา",
        "ตามพันธกรณีตามความตกลงการเกษตรภายใต้องค์การการค้าโลก (WTO) สำหรับสินค้าข้าว ปี ๒๕๖๑",
        "พ.ศ. ๒๕๖๐"
      ]
    ],
    []
  ],
  "metadata": {
    "date_backmatter": "2560-12-14",
    "date_modified": "2560-12-29",
    "date_original": "2560-12-29",
    "editors": [
      {
        "name": "ปวันวิทย์/อัญชลี",
        "role": "จัดทำ",
        "date": "2561-01-08"
      }
    ],
    "tag": "a160-2g-2560-a0025"
  }
}