{
  "pages": [
    [
      [
        "ระเบียบกระทรวงพาณิชย์",
        "ว่าด้วยหลักเกณฑ์ วิธีการ และเงื่อนไขในการออกหนังสือรับรองแสดงการได้รับสิทธิในการยกเว้นภาษีทั้งหมด",
        "หรือบางส่วนตามความตกลงหุ้นส่วนเศรษฐกิจที่ใกล้ชิดกันยิ่งขึ้น ไทย - นิวซีแลนด์ สำหรับภาษีในโควตา",
        "สินค้านมและครีม และเครื่องดื่มประเภทนมปรุงแต่ง ปี ๒๕๖๐ ถึงปี ๒๕๖๒",
        "พ.ศ. ๒๕๖๐"
      ]
    ],
    []
  ],
  "metadata": {
    "date_backmatter": "2560-01-10",
    "date_modified": "2560-01-25",
    "date_original": "2560-01-25",
    "editors": [
      {
        "name": "พรวิภา/ปริยานุช",
        "role": "จัดทำ",
        "date": "2560-01-26"
      },
      {
        "name": "ปริญสินีย์",
        "role": "ตรวจ",
        "date": "2560-03-01"
      }
    ],
    "tag": "a160-2g-2560-a0013"
  }
}