{
  "pages": [
    [
      [
        "ประกาศกรมการค้าต่างประเทศ",
        "เรื่อง หลักเกณฑ์ วิธีการ และเงื่อนไขในการออกหนังสือรับรองแสดงการได้รับสิทธิในการยกเว้นภาษีศุลกากร",
        "สำหรับเหล็กและเหล็กกล้าที่มีโควตาตามความตกลงระหว่างราชอาณาจักรไทยและญี่ปุ่น",
        "สำหรับความเป็นหุ้นส่วนทางเศรษฐกิจซึ่งนำเข้าในปี ๒๕๕๖",
        "พ.ศ. ๒๕๕๕"
      ]
    ],
    []
  ],
  "metadata": {
    "date_backmatter": "2555-12-27",
    "date_modified": "2556-01-29",
    "date_original": "2556-01-29",
    "doctype": "ประกาศ",
    "editors": [
      {
        "name": "ปริยานุช",
        "role": "ผู้จัดทำ",
        "date": "2556-01-31"
      },
      {
        "name": "อุษมล",
        "role": "ผู้ตรวจ",
        "date": "2556-02-07"
      }
    ],
    "tag": "a160-2e-2556-a0007"
  }
}