{
  "pages": [
    [
      [
        "ประกาศกรมการค้าต่างประเทศ",
        "เรื่อง ยกเลิกรายชื่อผู้มีสิทธิขอหนังสือรับรองแสดงการได้รับสิทธิชำระภาษีในโควตาตามพันธกรณี",
        "ตามความตกลงการเกษตรภายใต้องค์การการค้าโลก (WTO) สำหรับสินค้าเมล็ดถั่วเหลือง ปี ๒๕๕๙",
        "พ.ศ. ๒๕๕๙"
      ]
    ],
    []
  ],
  "metadata": {
    "date_backmatter": "2559-02-19",
    "date_modified": "2559-03-17",
    "date_original": "2559-03-17",
    "doctype": "ประกาศ",
    "editors": [
      {
        "name": "ปริยานุช",
        "role": "จัดทำ",
        "date": "2559-03-25"
      },
      {
        "name": "วิศนี",
        "role": "ตรวจ",
        "date": "2559-03-31"
      }
    ],
    "tag": "a160-2e-2559-a0026"
  }
}