{
  "pages": [
    [
      [
        "ระเบียบกระทรวงพาณิชย์",
        "ว่าด้วยหลักเกณฑ์ วิธีการ และเงื่อนไขในการออกหนังสือรับรองแสดงการได้รับสิทธิชำระภาษีในโควตา",
        "ตามพันธกรณีตามความตกลงการเกษตรภายใต้องค์การการค้าโลก (WTO)",
        "สำหรับสินค้ามะพร้าวและมะพร้าวฝอย ปี ๒๕๖๑ ถึงปี ๒๕๖๒",
        "พ.ศ. ๒๕๖๐"
      ]
    ],
    []
  ],
  "metadata": {
    "date_backmatter": "2560-10-30",
    "date_modified": "2560-10-31",
    "date_original": "2560-10-31",
    "editors": [
      {
        "name": "ปุณิกา/อัญชลี",
        "role": "จัดทำ",
        "date": "2560-11-06"
      }
    ],
    "tag": "a160-2g-2560-a0022"
  }
}