{
  "pages": [
    [
      [
        "ระเบียบกระทรวงพาณิชย์",
        "ว่าด้วยหลักเกณฑ์ วิธีการ และเงื่อนไขในการออกหนังสือรับรองแสดงการได้รับสิทธิในการยกเว้นภาษี",
        "ทั้งหมดหรือบางส่วนตามความตกลงการค้าเสรี ไทย-ออสเตรเลีย สำหรับภาษีในโควตา",
        "สินค้ามันฝรั่ง เมล็ดกาแฟ ชา และกาแฟสำเร็จรูป ปี ๒๕๖๑ ถึงปี ๒๕๖๒",
        "พ.ศ. ๒๕๖๑"
      ]
    ],
    []
  ],
  "metadata": {
    "date_backmatter": "2561-02-02",
    "date_modified": "2561-02-05",
    "date_original": "2561-02-05",
    "editors": [
      {
        "name": "ภูมิกิติ",
        "role": "จัดทำ",
        "date": "2561-02-12"
      },
      {
        "name": "นุสรา",
        "role": "ตรวจ",
        "date": "2561-03-16"
      }
    ],
    "tag": "a160-2g-2561-a0013"
  }
}