{
  "pages": [
    [
      [
        "ประกาศกรมการค้าต่างประเทศ",
        "เรื่อง ผลการจัดสรรปริมาณมันฝรั่งที่จะออกหนังสือรับรองแสดงการได้รับสิทธิชำระภาษี",
        "ในโควตาตามพันธกรณีตามความตกลงการเกษตรภายใต้องค์การการค้าโลก (WTO)",
        "สำหรับปี ๒๕๕๓",
        "ครั้งที่ ๒",
        "พ.ศ. ๒๕๕๓"
      ]
    ],
    []
  ],
  "metadata": {
    "date_backmatter": "2553-04-12",
    "date_modified": "2553-05-20",
    "date_original": "2553-05-20",
    "doctype": "ประกาศ",
    "editors": [
      {
        "name": "ปริญสินีย์",
        "role": "ผู้จัดทำ",
        "date": "2554-09-12"
      }
    ],
    "tag": "a160-2e-2553-a0016"
  }
}