{
  "pages": [
    [
      [
        "ประกาศกรมการค้าต่างประเทศ",
        "เรื่อง ผลการจัดสรรปริมาณข้าวเพื่อการออกหนังสือรับรองการส่งออกไปสหภาพยุโรปสำหรับปี ๒๕๕๘",
        "พ.ศ. ๒๕๕๗"
      ]
    ],
    []
  ],
  "metadata": {
    "date_backmatter": "2557-12-25",
    "date_modified": "2558-01-30",
    "date_original": "2558-01-30",
    "doctype": "ประกาศ",
    "editors": [
      {
        "name": "ปริยานุช",
        "role": "ผู้จัดทำ",
        "date": "2558-02-02"
      },
      {
        "name": "วิศนี",
        "role": "ผู้ตรวจ",
        "date": "2558-02-09"
      }
    ],
    "tag": "a160-2e-2558-a0009"
  }
}