{
  "pages": [
    [
      [
        "ประกาศกรมการค้าต่างประเทศ",
        "เรื่อง ผลการจัดสรรปริมาณพริกไทยที่จะออกหนังสือรับรองแสดงการได้รับสิทธิชำระภาษีในโควตา",
        "ตามพันธกรณีตามความตกลงการเกษตรภายใต้องค์การการค้าโลก (WTO) สำหรับปี ๒๕๖๑ (ฉบับที่ ๒)",
        "พ.ศ. ๒๕๖๑"
      ]
    ],
    []
  ],
  "metadata": {
    "date_backmatter": "2561-08-22",
    "date_modified": "2561-09-12",
    "date_original": "2561-09-12",
    "doctype": "ประกาศ",
    "editors": [
      {
        "name": "พิมพ์มาดา",
        "role": "จัดทำ",
        "date": "2561-12-27"
      }
    ],
    "tag": "a160-2e-2561-a0020"
  }
}