{
  "pages": [
    [
      [
        "ระเบียบกระทรวงพาณิชย์",
        "ว่าด้วยหลักเกณฑ์ วิธีการ และเงื่อนไขในการออกหนังสือรับรองแสดงการได้รับสิทธิชำระภาษี",
        "ตามพันธกรณีตามความตกลงการเกษตรภายใต้องค์การการค้าโลก (WTO)",
        "สำหรับสินค้าเมล็ดถั่วเหลือง ปี ๒๕๕๗ ถึงปี ๒๕๕๙",
        "พ.ศ. ๒๕๕๖"
      ]
    ],
    []
  ],
  "metadata": {
    "date_backmatter": "2556-11-29",
    "date_modified": "2556-12-26",
    "date_original": "2556-12-26",
    "editors": [
      {
        "name": "ปริยานุช",
        "role": "ผู้จัดทำ",
        "date": "2557-01-07"
      },
      {
        "name": "โชติกานต์",
        "role": "ผู้ตรวจ",
        "date": "2557-01-07"
      }
    ],
    "tag": "a160-2g-2556-a0025"
  }
}