{
  "pages": [
    [
      [
        "ประกาศกระทรวงพาณิชย์",
        "ว่าด้วยการนำสินค้าเข้ามาในราชอาณาจักร",
        "(ฉบับที่ ๓๗)",
        "พ.ศ. ๒๕๒๗"
      ]
    ],
    []
  ],
  "metadata": {
    "date_backmatter": "2527-08-31",
    "date_modified": "2527-09-11",
    "date_original": "2527-09-11",
    "doctype": "ประกาศ",
    "editors": [
      {
        "name": "ปริญสินีย์",
        "role": "ผู้จัดทำ",
        "date": "2554-08-01"
      }
    ],
    "tag": "a160-2e-2527-a0002"
  }
}