{
  "pages": [
    [
      [
        "ระเบียบกระทรวงพาณิชย์",
        "ว่าด้วยการออกหนังสือรับรองแสดงการได้รับสิทธิในการยกเว้นภาษีทั้งหมดหรือบางส่วน",
        "สำหรับสินค้าที่มีการกำหนดปริมาณการนำเข้า (ในโควตา) ตามความตกลงหุ้นส่วนเศรษฐกิจ",
        "ที่ใกล้ชิดกันยิ่งขึ้นไทย - นิวซีแลนด์ สำหรับปี ๒๕๕๒ (สินค้าเกษตร ๔ รายการ)",
        "พ.ศ. ๒๕๕๒"
      ]
    ],
    []
  ],
  "metadata": {
    "date_backmatter": "2552-03-30",
    "date_modified": "2552-05-15",
    "date_original": "2552-05-15",
    "editors": [
      {
        "name": "คุณากร",
        "role": "ผู้จัดทำ",
        "date": "2554-09-04"
      }
    ],
    "tag": "a160-2g-2552-a0029"
  }
}