{
  "pages": [
    [
      [
        "ประกาศกรมการค้าต่างประเทศ",
        "เรื่อง หลักเกณฑ์ วิธีการ และเงื่อนไขในการขอหนังสือรับรองการส่งออกข้าว",
        "ไปสหภาพยุโรปสำหรับงวดเดือนกันยายนปี ๒๕๕๘",
        "พ.ศ. ๒๕๕๘"
      ]
    ],
    []
  ],
  "metadata": {
    "date_backmatter": "2558-08-17",
    "date_modified": "2558-09-03",
    "date_original": "2558-09-03",
    "doctype": "ประกาศ",
    "editors": [
      {
        "name": "ปริยานุช",
        "role": "ผู้จัดทำ",
        "date": "2558-09-09"
      },
      {
        "name": "วิศนี",
        "role": "ผู้ตรวจ",
        "date": "2558-09-29"
      }
    ],
    "tag": "a160-2e-2558-a0041"
  }
}