{
  "pages": [
    [
      [
        "ประกาศกรมการค้าต่างประเทศ",
        "เรื่อง ผลการจัดสรรปริมาณน้ำนมดิบและนมพร้อมดื่ม และนมผงขาดมันเนยที่จะออกหนังสือรับรอง",
        "แสดงการได้รับสิทธิในการยกเว้นภาษีทั้งหมดหรือบางส่วนตามความตกลงการค้าเสรี",
        "ไทย  ออสเตรเลีย สำหรับภาษีในโควตา ปี ๒๕๕๙",
        "พ.ศ. ๒๕๕๙"
      ]
    ],
    []
  ],
  "metadata": {
    "date_backmatter": "2559-01-12",
    "date_modified": "2559-01-22",
    "date_original": "2559-01-22",
    "doctype": "ประกาศ",
    "editors": [
      {
        "name": "ปริยานุช",
        "role": "จัดทำ",
        "date": "2559-01-25"
      },
      {
        "name": "วริญา",
        "role": "ตรวจ",
        "date": "2559-01-29"
      }
    ],
    "tag": "a160-2e-2559-a0011"
  }
}