{
  "pages": [
    [
      [
        "ประกาศกระทรวงพาณิชย์",
        "เรื่อง การนำหัวมันฝรั่งเข้ามาในราชอาณาจักรภายใต้โครงการยุทธศาสตร์",
        "ความร่วมมือทางเศรษฐกิจอิระวดี - เจ้าพระยา - แม่โขง (ACMECS)",
        "ตั้งแต่ พ.ศ. ๒๕๕๐ ถึง พ.ศ. ๒๕๕๒",
        "พ.ศ. ๒๕๕๐"
      ]
    ],
    []
  ],
  "metadata": {
    "date_backmatter": "2550-09-17",
    "date_modified": "2550-09-25",
    "date_original": "2550-09-25",
    "doctype": "ประกาศ",
    "editors": [
      {
        "name": "ปริญสินีย์",
        "role": "ผู้จัดทำ",
        "date": "2554-09-08"
      }
    ],
    "tag": "a160-2e-2550-a0030"
  }
}