{
  "pages": [
    [
      [
        "ระเบียบกระทรวงพาณิชย์",
        "ว่าด้วยการบริหารการส่งออกเครื่องนุ่งห่มไปยังประเทศ",
        "ที่มีข้อตกลงกับประเทศไทย",
        "(ฉบับที่ ๘)",
        "พ.ศ. ๒๕๔๖"
      ]
    ],
    []
  ],
  "metadata": {
    "date_backmatter": "2546-12-13",
    "date_modified": "2546-12-30",
    "date_original": "2546-12-30",
    "editors": [
      {
        "name": "คุณากร",
        "role": "ผู้จัดทำ",
        "date": "2554-08-23"
      }
    ],
    "tag": "a160-2g-2546-a0031"
  }
}