{
  "pages": [
    [
      [
        "ประกาศกระทรวงพาณิชย์",
        "เรื่อง กำหนดให้ช้างเป็นสินค้าที่ต้องขออนุญาตในการส่งออกไปนอกราชอาณาจักร",
        "พ.ศ. ๒๕๕๕"
      ]
    ],
    []
  ],
  "metadata": {
    "date_backmatter": "2555-04-11",
    "date_modified": "2555-04-30",
    "date_original": "2555-04-30",
    "doctype": "ประกาศ",
    "editors": [
      {
        "name": "ปริยานุช",
        "role": "ผู้จัดทำ",
        "date": "2555-05-02"
      },
      {
        "name": "ณัฐพร",
        "role": "ผู้ตรวจ",
        "date": "2555-05-02"
      }
    ],
    "tag": "a160-2e-2555-a0015"
  }
}