{
  "pages": [
    [
      [
        "ประกาศกระทรวงพาณิชย์",
        "เรื่อง การนำข้าวโพดที่ใช้เป็นวัตถุดิบอาหารสัตว์ และกากถั่วเหลือง",
        "เข้ามาในราชอาณาจักร ภายใต้เขตการค้าเสรีอาเซียน (AFTA)",
        "พ.ศ. ๒๕๔๖"
      ]
    ],
    []
  ],
  "metadata": {
    "date_backmatter": "2546-10-09",
    "date_modified": "2546-10-24",
    "date_original": "2546-10-24",
    "doctype": "ประกาศ",
    "editors": [
      {
        "name": "ปริญสินีย์",
        "role": "ผู้จัดทำ",
        "date": "2554-09-06"
      }
    ],
    "tag": "a160-2e-2546-a0033"
  }
}