{
  "pages": [
    [
      [
        "ประกาศกรมการค้าต่างประเทศ",
        "เรื่อง ผลการจัดสรรปริมาณนมผงขาดมันเนยที่จะออกหนังสือรับรองแสดงการได้รับสิทธิ",
        "ในการยกเว้นภาษีทั้งหมดหรือบางส่วนตามความตกลงการค้าเสรี ไทย - ออสเตรเลีย",
        "สำหรับภาษีในโควตา ปี ๒๕๕๔",
        "(ฉบับที่ ๒)",
        "พ.ศ. ๒๕๕๔"
      ]
    ],
    []
  ],
  "metadata": {
    "date_backmatter": "2554-06-13",
    "date_modified": "2554-08-03",
    "date_original": "2554-08-03",
    "doctype": "ประกาศ",
    "editors": [
      {
        "name": "ปริยานุช",
        "role": "ผู้จัดทำ",
        "date": "2554-08-29"
      },
      {
        "name": "ณัฐวดี",
        "role": "ตรวจ",
        "date": "2554-08-29"
      }
    ],
    "tag": "a160-2e-2554-a0040"
  }
}