{
  "pages": [
    [
      [
        "ประกาศกระทรวงพาณิชย์",
        "เรื่อง กำหนดให้อาวุธและยุทโธปกรณ์เป็นสินค้าที่ต้องห้ามส่งออกและห้ามนำผ่านไปยัง",
        "สาธารณรัฐแอฟริกากลาง (ฉบับที่ ๓)",
        "พ.ศ. ๒๕๖๒"
      ]
    ],
    []
  ],
  "metadata": {
    "date_backmatter": "2562-02-11",
    "date_modified": "2562-02-22",
    "date_original": "2562-02-22",
    "doctype": "ประกาศ",
    "editors": [
      {
        "name": "พิไลภรณ์",
        "role": "จัดทำ",
        "date": "2562-03-18"
      },
      {
        "name": "วิชพงษ์",
        "role": "ตรวจ",
        "date": "2562-03-26"
      }
    ],
    "tag": "a160-2e-2562-a0004"
  }
}