{
  "pages": [
    [
      [
        "ประกาศกระทรวงพาณิชย์",
        "เรื่อง การนำหอมหัวใหญ่และกระเทียมเข้ามาในราชอาณาจักร",
        "ตามความตกลงเขตการค้าเสรีอาเซียน พ.ศ. ๒๕๕๐"
      ]
    ],
    []
  ],
  "metadata": {
    "date_backmatter": "2550-01-03",
    "date_modified": "2550-01-12",
    "date_original": "2550-01-12",
    "doctype": "ประกาศ",
    "editors": [
      {
        "name": "ปริญสินีย์",
        "role": "ผู้จัดทำ",
        "date": "2554-09-08"
      }
    ],
    "tag": "a160-2e-2550-a0001"
  }
}