{
  "pages": [
    [
      [
        "ประกาศกระทรวงพาณิชย์",
        "เรื่อง การนำกาแฟ ชา น้ำนมดิบและนมพร้อมดื่ม และนมผงขาดมันเนย เข้ามาในราชอาณาจักร",
        "ตามความตกลงเขตการค้าเสรีอาเซียน",
        "พ.ศ. ๒๕๕๓"
      ]
    ],
    []
  ],
  "metadata": {
    "date_backmatter": "2553-08-16",
    "date_modified": "2553-08-24",
    "date_original": "2553-08-24",
    "doctype": "ประกาศ",
    "editors": [
      {
        "name": "ปริญสินีย์",
        "role": "ผู้จัดทำ",
        "date": "2554-09-12"
      }
    ],
    "tag": "a160-2e-2553-a0025"
  }
}