{
  "pages": [
    [
      [
        "ประกาศกระทรวงพาณิชย์",
        "เรื่อง ยกเลิกประกาศกระทรวงพาณิชย์บางฉบับที่ไม่เหมาะสมกับกาลปัจจุบัน",
        "พ.ศ. ๒๕๔๘"
      ]
    ],
    []
  ],
  "metadata": {
    "date_backmatter": "2548-12-27",
    "date_modified": "2549-01-06",
    "date_original": "2549-01-06",
    "doctype": "ประกาศ",
    "editors": [
      {
        "name": "ปริญสินีย์",
        "role": "ผู้จัดทำ",
        "date": "2554-09-07"
      }
    ],
    "tag": "a160-2e-2549-a0001"
  }
}