{
  "pages": [
    [
      [
        "พระราชกฤษฎีกา",
        "ควบคุมการนำเข้ามาในราชอาณาจักร",
        "ซึ่งสินค้าบางอย่าง",
        "(ฉบับที่ ๑๑)",
        "พ.ศ. ๒๕๒๐",
        "",
        "",
        "ภูมิพลอดุลยเดช ป.ร.",
        "ให้ไว้ ณ วันที่ ๒๓ มีนาคม พ.ศ. ๒๕๒๐",
        "เป็นปีที่ ๓๒ ในรัชกาลปัจจุบัน"
      ]
    ],
    []
  ],
  "metadata": {
    "date_header": "2520-03-23",
    "date_modified": "2520-03-29",
    "date_original": "2520-03-29",
    "doctype": "พระราชกฤษฎีกา",
    "editors": [
      {
        "name": "สุกัญญา",
        "role": "พิมพ์",
        "date": "2550-05-03"
      },
      {
        "name": "หทัยภัทร",
        "role": "ตรวจ",
        "date": "2550-05-25"
      }
    ],
    "tag": "a160-2a-2520-a0001",
    "title": "ควบคุมการนำเข้ามาในราชอาณาจักรซึ่งสินค้าบางอย่าง(ฉบับที่ ๑๑)"
  }
}