{
  "pages": [
    [
      [
        "ประกาศกรมการค้าต่างประเทศ",
        "เรื่อง ผลการจัดสรรปริมาณนมผงขาดมันเนยที่จะออกหนังสือรับรองแสดงการได้รับสิทธิชำระภาษี",
        "ในโควตาตามพันธกรณีตามความตกลงการเกษตรภายใต้องค์การการค้าโลก (WTO)",
        "สำหรับปี ๒๕๕๓ (ฉบับที่ ๒)",
        "พ.ศ. ๒๕๕๓"
      ]
    ],
    []
  ],
  "metadata": {
    "date_backmatter": "2553-08-04",
    "date_modified": "2553-09-03",
    "date_original": "2553-09-03",
    "doctype": "ประกาศ",
    "editors": [
      {
        "name": "ปริญสินีย์",
        "role": "ผู้จัดทำ",
        "date": "2554-09-12"
      }
    ],
    "tag": "a160-2e-2553-a0031"
  }
}