{
  "pages": [
    [
      [
        "ประกาศกรมการค้าต่างประเทศ",
        "เรื่อง หลักเกณฑ์ วิธีการ และเงื่อนไขในการขอและการออกหนังสือรับรองแสดงการได้รับสิทธิในการ",
        "ยกเว้นภาษีทั้งหมดหรือบางส่วน สำหรับกาแฟ ชา น้ำนมดิบและนมพร้อมดื่ม และนมผงขาดมันเนย",
        "ที่นำเข้ามาในราชอาณาจักรตามความตกลงเขตการค้าเสรีอาเซียน",
        "(ฉบับที่ ๔)",
        "พ.ศ. ๒๕๕๙"
      ]
    ],
    []
  ],
  "metadata": {
    "date_backmatter": "2559-09-19",
    "date_modified": "2559-10-27",
    "date_original": "2559-10-27",
    "doctype": "ประกาศ",
    "editors": [
      {
        "name": "ปริยานุช",
        "role": "จัดทำ",
        "date": "2559-11-02"
      },
      {
        "name": "ชวัลพร",
        "role": "ตรวจ",
        "date": "2559-11-15"
      }
    ],
    "tag": "a160-2e-2559-a0044"
  }
}