{
  "pages": [
    [
      [
        "ประกาศกระทรวงพาณิชย์",
        "เรื่อง ยกเลิกประกาศกระทรวงพาณิชย์เกี่ยวกับการส่งสัตว์ป่า ซากของสัตว์ป่า",
        "สัตว์น้ำ ซากของสัตว์น้ำ และผลิตภัณฑ์จากสัตว์น้ำหรือซากของสัตว์น้ำ",
        "ออกไปนอกราชอาณาจักร",
        "พ.ศ. ๒๕๔๙"
      ]
    ],
    []
  ],
  "metadata": {
    "date_backmatter": "2549-03-17",
    "date_modified": "2549-04-13",
    "date_original": "2549-04-13",
    "doctype": "ประกาศ",
    "editors": [
      {
        "name": "ปริญสินีย์",
        "role": "ผู้จัดทำ",
        "date": "2554-09-07"
      }
    ],
    "tag": "a160-2e-2549-a0019"
  }
}