{
  "pages": [
    [
      [
        "ประกาศกรมการค้าต่างประเทศ",
        "เรื่อง การขอใบอนุญาตส่งข้าวออกไปนอกราชอาณาจักร",
        "ตามพิกัดอัตราศุลกากรระบบฮาร์โมไนซ์ ๒๐๑๗",
        "พ.ศ. ๒๕๖๐"
      ]
    ],
    []
  ],
  "metadata": {
    "date_backmatter": "2560-01-04",
    "date_modified": "2560-02-22",
    "date_original": "2560-02-22",
    "doctype": "ประกาศ",
    "editors": [
      {
        "name": "พิมพ์มาดา/ปริยานุช",
        "role": "จัดทำ",
        "date": "2560-02-27"
      }
    ],
    "tag": "a160-2e-2560-a0009"
  }
}