{
  "pages": [
    [
      [
        "ประกาศกรมการค้าต่างประเทศ",
        "เรื่อง การกำหนดและจัดสรรปริมาณสินค้ามันฝรั่งที่จะออกหนังสือรับรองแสดงการได้รับสิทธิชำระภาษี",
        "ในโควตาตามพันธกรณีตามความตกลงการเกษตรภายใต้องค์การการค้าโลก (WTO)",
        "ครั้งที่ ๑ ประจำปี ๒๕๔๙",
        "พ.ศ. ๒๕๔๙"
      ]
    ],
    []
  ],
  "metadata": {
    "date_backmatter": "2549-07-17",
    "date_modified": "2549-08-25",
    "date_original": "2549-08-25",
    "doctype": "ประกาศ",
    "editors": [
      {
        "name": "ปริญสินีย์",
        "role": "ผู้จัดทำ",
        "date": "2554-09-07"
      }
    ],
    "tag": "a160-2e-2549-a0032"
  }
}