{
  "pages": [
    [
      [
        "ประกาศกระทรวงพาณิชย์",
        "เรื่อง การนำข้าวโพดที่ใช้เป็นวัตถุดิบอาหารสัตว์และกากถั่วเหลือง",
        "เข้ามาในราชอาณาจักรภายใต้เขตการค้าเสรีอาเซียน (AFTA) (ฉบับที่ ๒)",
        "พ.ศ. ๒๕๔๗"
      ]
    ],
    []
  ],
  "metadata": {
    "date_backmatter": "2547-05-28",
    "date_modified": "2547-06-11",
    "date_original": "2547-06-11",
    "doctype": "ประกาศ",
    "editors": [
      {
        "name": "ปิยะธิดา",
        "role": "จัดทำ",
        "date": "2561-03-12"
      }
    ],
    "tag": "a160-2e-2547-a0008"
  }
}