{
  "pages": [
    [
      [
        "ประกาศกระทรวงพาณิชย์",
        "ว่าด้วยการส่งสินค้าออกไปนอกราชอาณาจักร",
        "(ฉบับที่ ๕๕)",
        "พ.ศ. ๒๕๓๔"
      ]
    ],
    []
  ],
  "metadata": {
    "date_backmatter": "2534-07-16",
    "date_modified": "2534-07-18",
    "date_original": "2534-07-18",
    "doctype": "ประกาศ",
    "editors": [
      {
        "name": "ปริญสินีย์",
        "role": "ผู้จัดทำ",
        "date": "2554-08-16"
      }
    ],
    "tag": "a160-2e-2534-055"
  }
}