{
  "pages": [
    [
      [
        "ระเบียบกระทรวงพาณิชย์",
        "ว่าด้วยการกำหนดมาตรการในการนำเข้าและการนำเข้าเพื่อการส่งออก",
        "และหลักเกณฑ์ วิธีการในการออกหนังสือรับรองแสดงการได้รับสิทธิชำระภาษี",
        "ตามพันธกรณีตามความตกลงการเกษตรภายใต้องค์การการค้าโลก (WTO)",
        "สำหรับภาษีนอกโควตาสินค้าน้ำมันปาล์ม และน้ำมันเนื้อในเมล็ดปาล์ม",
        "พ.ศ. ๒๕๔๖"
      ]
    ],
    []
  ],
  "metadata": {
    "date_backmatter": "2546-04-23",
    "date_modified": "2548-03-03",
    "date_original": "2546-04-28",
    "editors": [
      {
        "name": "คุณากร",
        "role": "ผู้จัดทำ",
        "date": "2554-08-25"
      }
    ],
    "tag": "a160-2g-9982-update"
  }
}