{
  "pages": [
    [
      [
        "ประกาศกรมการค้าต่างประเทศ",
        "เรื่อง การจัดสรรปริมาณสินค้าเมล็ดกาแฟ กาแฟสำเร็จรูป และชา",
        "ที่จะออกหนังสือรับรองแสดงการได้รับสิทธิชำระภาษีในโควตาตามพันธกรณี",
        "ตามความตกลงการค้าเสรีไทย - ออสเตรเลีย (TAFTA)",
        "ประจำปี ๒๕๔๙ พ.ศ. ๒๕๔๙"
      ]
    ],
    []
  ],
  "metadata": {
    "date_backmatter": "2549-08-02",
    "date_modified": "2549-09-13",
    "date_original": "2549-09-13",
    "doctype": "ประกาศ",
    "editors": [
      {
        "name": "ปริญสินีย์",
        "role": "ผู้จัดทำ",
        "date": "2554-09-07"
      }
    ],
    "tag": "a160-2e-2549-a0033"
  }
}