{
  "pages": [
    [
      [
        "ระเบียบกระทรวงพาณิชย์",
        "ว่าด้วย การจัดสรรปริมาณข้าวส่งออกภายใต้โควตาภาษีไปสหภาพยุโรป",
        "สำหรับปี ๒๕๔๗",
        "พ.ศ. ๒๕๔๖"
      ]
    ],
    []
  ],
  "metadata": {
    "date_backmatter": "2546-12-09",
    "date_modified": "2547-04-30",
    "date_original": "2546-12-30",
    "editors": [
      {
        "name": "คุณากร",
        "role": "ผู้จัดทำ",
        "date": "2554-08-24"
      }
    ],
    "tag": "a160-2g-9981-update"
  }
}