{
  "pages": [
    [
      [
        "ประกาศกรมการค้าต่างประเทศ",
        "เรื่อง การจัดสรรปริมาณนมผงขาดมันเนยที่จะออกหนังสือรับรองแสดงการได้รับสิทธิชำระภาษีในโควตาตามพันธกรณีตามความตกลงการเกษตรภายใต้องค์การการค้าโลก (WTO) สำหรับปี ๒๕๕๒",
        "พ.ศ. ๒๕๕๒"
      ]
    ],
    []
  ],
  "metadata": {
    "date_backmatter": "2552-01-29",
    "date_modified": "2552-03-02",
    "date_original": "2552-03-02",
    "doctype": "ประกาศ",
    "editors": [
      {
        "name": "ปริญสินีย์",
        "role": "ผู้จัดทำ",
        "date": "2554-09-09"
      }
    ],
    "tag": "a160-2e-2552-a0009"
  }
}