{
  "pages": [
    [
      [
        "ประกาศกรมวิชาการเกษตร",
        "เรื่อง หลักเกณฑ์ วิธีการ และเงื่อนไขในการควบคุมเชื้อจุลินทรีย์ Escherichia coli (E. coli) และ",
        "Salmonella ในผักสดก่อนการส่งออกไปนอกราชอาณาจักร"
      ]
    ],
    []
  ],
  "metadata": {
    "date_backmatter": "2548-08-18",
    "date_modified": "2548-09-16",
    "date_original": "2548-09-16",
    "doctype": "ประกาศ",
    "editors": [
      {
        "name": "ปริญสินีย์",
        "role": "ผู้จัดทำ",
        "date": "2554-09-06"
      }
    ],
    "tag": "a160-2e-2548-a0019"
  }
}