{
  "pages": [
    [
      [
        "ประกาศกรมการค้าต่างประเทศ",
        "เรื่อง หลักเกณฑ์และเงื่อนไขการจัดสรรปริมาณและการออกหนังสือรับรอง",
        "แสดงการได้รับสิทธิชำระภาษีในโควตาตามความตกลงการค้าเสรีไทย  ออสเตรเลีย (TAFTA)",
        "สำหรับสินค้ามันฝรั่ง เมล็ดกาแฟ กาแฟสำเร็จรูป และชา",
        "ประจำปี ๒๕๔๘"
      ]
    ],
    []
  ],
  "metadata": {
    "date_backmatter": "2548-09-27",
    "date_modified": "2548-11-01",
    "date_original": "2548-11-01",
    "doctype": "ประกาศ",
    "editors": [
      {
        "name": "ปริญสินีย์",
        "role": "ผู้จัดทำ",
        "date": "2554-09-06"
      }
    ],
    "tag": "a160-2e-2548-a0023"
  }
}