{
  "pages": [
    [
      [
        "ประกาศกรมวิชาการเกษตร",
        "เรื่อง หลักเกณฑ์ วิธีการ และเงื่อนไข การขอรับรองระบบการผลิต",
        "ในโครงการความปลอดภัยอาหารด้านพืช (Food Safety)"
      ]
    ],
    []
  ],
  "metadata": {
    "date_backmatter": "2551-01-11",
    "date_modified": "2551-04-11",
    "date_original": "2551-04-11",
    "doctype": "ประกาศ",
    "editors": [],
    "tag": "a160-2e-2551-a0016"
  }
}