{
  "pages": [
    [
      [
        "ประกาศกระทรวงพาณิชย์",
        "เรื่อง การนำสินค้าเข้ามาในราชอาณาจักร",
        "ฉบับที่ ๒๒ (พ.ศ. ๒๕๒๕)"
      ]
    ],
    []
  ],
  "metadata": {
    "date_backmatter": "2525-08-09",
    "date_modified": "2526-12-26",
    "date_original": "2525-08-10",
    "doctype": "ประกาศ",
    "editors": [
      {
        "name": "รัศม์วรรณวลัย",
        "role": "ผู้จัดทำ",
        "date": "2551-11-11"
      }
    ],
    "tag": "a160-2e-9972-update"
  }
}