{
  "pages": [
    [
      [
        "ประกาศกรมการค้าต่างประเทศ",
        "เรื่อง หลักเกณฑ์ วิธีการ และเงื่อนไขในการขึ้นทะเบียนและการรับรองถิ่นกำเนิดสินค้าด้วยตนเอง",
        "ตามความตกลงการค้าสินค้าของอาเซียน",
        "(ฉบับที่ ๓) พ.ศ. ๒๕๕๙"
      ]
    ],
    []
  ],
  "metadata": {
    "date_backmatter": "2559-06-20",
    "date_modified": "2559-06-28",
    "date_original": "2559-06-28",
    "doctype": "ประกาศ",
    "editors": [
      {
        "name": "วิศนี/ปริยานุช",
        "role": "จัดทำ",
        "date": "2559-06-29"
      },
      {
        "name": "นุสรา",
        "role": "ตรวจ",
        "date": "2559-08-01"
      }
    ],
    "tag": "a160-2e-2559-a0033"
  }
}