{
  "pages": [
    [
      [
        "ประกาศกรมการค้าต่างประเทศ",
        "เรื่อง ผลการจัดสรรปริมาณการนำเข้าเหล็กและเหล็กกล้าที่จะออกหนังสือรับรองแสดงการได้รับสิทธิ",
        "ในการยกเว้นภาษีศุลกากรสำหรับเหล็กและเหล็กกล้าที่มีโควตา",
        "ตามความตกลงระหว่างราชอาณาจักรไทยและญี่ปุ่น",
        "สำหรับความเป็นหุ้นส่วนทางเศรษฐกิจซึ่งนำเข้าในปี ๒๕๕๖",
        "(ฉบับที่ ๒)",
        "พ.ศ. ๒๕๕๖"
      ]
    ],
    []
  ],
  "metadata": {
    "date_backmatter": "2556-08-01",
    "date_modified": "2556-08-29",
    "date_original": "2556-08-29",
    "doctype": "ประกาศ",
    "editors": [
      {
        "name": "ปริยานุช",
        "role": "ผู้จัดทำ",
        "date": "2556-09-03"
      },
      {
        "name": "อุษมล",
        "role": "ผู้ตรวจ",
        "date": "2556-09-10"
      }
    ],
    "tag": "a160-2e-2556-a0053"
  }
}