{
  "pages": [
    [
      [
        "ระเบียบกระทรวงพาณิชย์",
        "เรื่อง การจัดสรรปริมาณข้าวส่งออกภายใต้โควตาภาษี",
        "ไปสหภาพยุโรปสำหรับปี ๒๕๔๖",
        "พ.ศ. ๒๕๔๖"
      ]
    ],
    []
  ],
  "metadata": {
    "date_backmatter": "2546-02-07",
    "date_modified": "2546-03-24",
    "date_original": "2546-03-24",
    "editors": [
      {
        "name": "คุณากร",
        "role": "ผู้จัดทำ",
        "date": "2554-08-23"
      }
    ],
    "tag": "a160-2g-2546-a0011"
  }
}