{
  "pages": [
    [
      [
        "ประกาศกระทรวงพาณิชย์",
        "เรื่อง กำหนดให้อาวุธและยุทโธปกรณ์เป็นสินค้าที่ต้องห้ามส่งออกและห้ามนำผ่านไปยัง",
        "สาธารณรัฐแอฟริกากลาง (ฉบับที่ ๒)",
        "พ.ศ. ๒๕๖๐"
      ]
    ],
    []
  ],
  "metadata": {
    "date_backmatter": "2560-09-20",
    "date_modified": "2560-09-28",
    "date_original": "2560-09-28",
    "doctype": "ประกาศ",
    "editors": [
      {
        "name": "ภวรรณตรี",
        "role": "จัดทำ",
        "date": "2560-10-12"
      },
      {
        "name": "ปุณิกา",
        "role": "ตรวจ",
        "date": "2560-10-12"
      }
    ],
    "tag": "a160-2e-2560-a0024"
  }
}