{
  "pages": [
    [
      [
        "ประกาศกรมการค้าต่างประเทศ",
        "เรื่อง ผลการจัดสรรปริมาณนมผงขาดมันเนยที่จะออกหนังสือรับรองแสดงการได้รับสิทธิ",
        "ในการยกเว้นภาษีทั้งหมดหรือบางส่วน ตามความตกลงการค้าเสรี",
        "ไทย - ออสเตรเลีย สำหรับภาษีในโควตา ปี ๒๕๕๔",
        "พ.ศ. ๒๕๕๔"
      ]
    ],
    []
  ],
  "metadata": {
    "date_backmatter": "2554-02-09",
    "date_modified": "2554-04-19",
    "date_original": "2554-04-19",
    "doctype": "ประกาศ",
    "editors": [
      {
        "name": "ปริญสินีย์",
        "role": "ผู้จัดทำ",
        "date": "2554-09-13"
      }
    ],
    "tag": "a160-2e-2554-a0021"
  }
}