{
  "pages": [
    [
      [
        "ประกาศกรมการค้าต่างประเทศ",
        "เรื่อง ผลการจัดสรรปริมาณการนำเข้าเหล็กและเหล็กกล้าที่จะออกหนังสือรับรองแสดงการได้รับสิทธิ",
        "ในการยกเว้นภาษีศุลกากรสำหรับเหล็กและเหล็กกล้าที่มีโควตาตามความตกลงระหว่างราชอาณาจักรไทยและญี่ปุ่น",
        "สำหรับความเป็นหุ้นส่วนทางเศรษฐกิจซึ่งนำเข้าในปี ๒๕๕๙",
        "(ฉบับที่ ๒)",
        "พ.ศ. ๒๕๕๙"
      ]
    ],
    []
  ],
  "metadata": {
    "date_backmatter": "2559-02-26",
    "date_modified": "2559-03-18",
    "date_original": "2559-03-18",
    "doctype": "ประกาศ",
    "editors": [
      {
        "name": "ปริยานุช",
        "role": "จัดทำ",
        "date": "2559-04-05"
      },
      {
        "name": "วิศนี",
        "role": "ตรวจ",
        "date": "2559-04-12"
      }
    ],
    "tag": "a160-2e-2559-a0025"
  }
}