{
  "pages": [
    [
      [
        "พระราชบัญญัติ",
        "การส่งออกไปนอกและการนำเข้ามาในราชอาณาจักรซึ่งสินค้า",
        "พ.ศ. ๒๕๒๒",
        "",
        "",
        "ภูมิพลอดุลยเดช ป.ร.",
        "ให้ไว้ ณ วันที่ ๓๐ เมษายน พ.ศ. ๒๕๒๒",
        "เป็นปีที่ ๓๔ ในรัชกาลปัจจุบัน"
      ]
    ],
    []
  ],
  "metadata": {
    "date_header": "2522-04-30",
    "date_modified": "2522-05-09",
    "date_original": "2522-05-09",
    "doctype": "พระราชบัญญัติ",
    "editors": [
      {
        "name": "เนติมา",
        "role": "จัดทำ",
        "date": "2546-04-28"
      },
      {
        "name": "วศิน",
        "role": "แก้ไข",
        "date": "2552-05-12"
      }
    ],
    "tag": "a160-20-2522-001",
    "title": "การส่งออกไปนอกและการนำเข้ามาในราชอาณาจักรซึ่งสินค้า"
  }
}