{
  "pages": [
    [
      [
        "ระเบียบกระทรวงพาณิชย์",
        "ว่าด้วยการจัดสรรปริมาณข้าวเพื่อการออกหนังสือรับรองการส่งออกไปสหภาพยุโรป",
        "สำหรับปี ๒๕๕๒",
        "พ.ศ. ๒๕๕๑"
      ]
    ],
    []
  ],
  "metadata": {
    "date_backmatter": "2551-11-24",
    "date_modified": "2552-02-25",
    "date_original": "2552-02-25",
    "editors": [
      {
        "name": "คุณากร",
        "role": "ผู้จัดทำ",
        "date": "2554-09-02"
      }
    ],
    "tag": "a160-2g-2552-a0006"
  }
}