{
  "pages": [
    [
      [
        "ระเบียบกระทรวงพาณิชย์",
        "ว่าด้วยการออกหนังสือรับรองแสดงการได้รับสิทธิชำระภาษีตามพันธกรณี",
        "ตามความตกลงการเกษตร ภายใต้องค์การการค้าโลก (WTO)",
        "สำหรับสินค้านมผงขาดมันเนย ปี ๒๕๔๗",
        "(ฉบับที่ ๓)",
        "พ.ศ. ๒๕๔๗"
      ]
    ],
    []
  ],
  "metadata": {
    "date_backmatter": "2547-12-21",
    "date_modified": "2547-12-30",
    "date_original": "2547-12-30",
    "editors": [
      {
        "name": "คุณากร",
        "role": "ผู้จัดทำ",
        "date": "2554-08-24"
      }
    ],
    "tag": "a160-2g-2547-a0003"
  }
}