{
  "pages": [
    [
      [
        "ประกาศกระทรวงพาณิชย์",
        "เรื่อง การนำสินค้าเข้ามาในราชอาณาจักร",
        "ตามโครงการความร่วมมือเกษตรแบบมีสัญญากับประเทศเพื่อนบ้าน",
        "ภายใต้ยุทธศาสตร์ความร่วมมือทางเศรษฐกิจอิรวดี - เจ้าพระยา - แม่โขง (ACMECS)",
        "ประจำปี พ.ศ. ๒๕๕๖"
      ]
    ],
    []
  ],
  "metadata": {
    "date_backmatter": "2556-08-29",
    "date_modified": "2556-08-29",
    "date_original": "2556-08-29",
    "doctype": "ประกาศ",
    "editors": [
      {
        "name": "ปริยานุช",
        "role": "ผู้จัดทำ",
        "date": "2556-09-03"
      },
      {
        "name": "อุษมล",
        "role": "ผู้ตรวจ",
        "date": "2556-09-10"
      }
    ],
    "tag": "a160-2e-2556-a0051"
  }
}