{
  "pages": [
    [
      [
        "ระเบียบกระทรวงพาณิชย์",
        "ว่าด้วยการกำหนดแบบหนังสือรับรองแสดงการได้รับสิทธิในการยกเว้นภาษีทั้งหมดหรือบางส่วน",
        "ตามความตกลงการค้าเสรี หรือความตกลงในลักษณะเดียวกันที่เรียกชื่ออย่างอื่น",
        "พ.ศ. ๒๕๔๘"
      ]
    ],
    []
  ],
  "metadata": {
    "date_backmatter": "2548-11-02",
    "date_modified": "2548-11-25",
    "date_original": "2548-11-25",
    "editors": [
      {
        "name": "คุณากร",
        "role": "ผู้จัดทำ",
        "date": "2554-08-26"
      }
    ],
    "tag": "a160-2g-2548-a0031"
  }
}