{
  "pages": [
    [
      [
        "ประกาศกรมการค้าต่างประเทศ",
        "เรื่อง ผลการคำนวณส่วนจัดสรรปริมาณข้าวส่งออก",
        "ภายใต้โควตาภาษีไปสหภาพยุโรปสำหรับปี ๒๕๔๗",
        "(ฉบับที่ ๔)",
        "พ.ศ. ๒๕๔๗"
      ]
    ],
    []
  ],
  "metadata": {
    "date_backmatter": "2547-04-12",
    "date_modified": "2547-04-30",
    "date_original": "2547-04-30",
    "doctype": "ประกาศ",
    "editors": [
      {
        "name": "ปิยะธิดา",
        "role": "จัดทำ",
        "date": "2561-03-29"
      }
    ],
    "tag": "a160-2e-2547-a0013"
  }
}