{
  "pages": [
    [
      [
        "ระเบียบกระทรวงพาณิชย์",
        "ว่าด้วยหลักเกณฑ์ วิธีการและเงื่อนไขการนำสินค้าเส้นไหมเข้ามาในราชอาณาจักร",
        "(ฉบับที่ ๓)",
        "พ.ศ. ๒๕๔๙"
      ]
    ],
    []
  ],
  "metadata": {
    "date_backmatter": "2549-01-06",
    "date_modified": "2557-02-21",
    "date_original": "2549-03-23",
    "editors": [
      {
        "name": "คุณากร",
        "role": "ผู้จัดทำ",
        "date": "2554-08-29"
      },
      {
        "name": "ปิยะธิดา",
        "role": "ปรับปรุง",
        "date": "2561-04-23"
      }
    ],
    "tag": "a160-2g-9948-update"
  }
}