{
  "pages": [
    [
      [
        "ระเบียบกระทรวงพาณิชย์",
        "ว่าด้วยการออกหนังสือรับรองแสดงการได้รับสิทธิชำระภาษี",
        "ตามพันธกรณีตามความตกลงการเกษตรภายใต้องค์การการค้าโลก (WTO)",
        "สำหรับสินค้านมผงขาดมันเนย ปี ๒๕๔๔",
        "พ.ศ. ๒๕๔๔"
      ]
    ],
    []
  ],
  "metadata": {
    "date_backmatter": "2544-04-20",
    "date_modified": "2545-02-05",
    "date_original": "2544-05-01",
    "editors": [
      {
        "name": "สุกัญญา",
        "role": "พิมพ์",
        "date": "2549-11-24"
      },
      {
        "name": "สุนันทา",
        "role": "ตรวจ",
        "date": "2550-01-10"
      }
    ],
    "tag": "a160-2g-9991-update"
  }
}