{
  "pages": [
    [
      [
        "ประกาศกรมการค้าต่างประเทศ",
        "เรื่อง หลักเกณฑ์ วิธีการ และเงื่อนไขในการขอและการออกหนังสือรับรองแสดงการได้รับสิทธิในการ",
        "ยกเว้นภาษีทั้งหมดหรือบางส่วน สำหรับกาแฟ ชา น้ำนมดิบและนมพร้อมดื่ม และนมผงขาดมันเนย",
        "ที่นำเข้ามาในราชอาณาจักรตามความตกลงเขตการค้าเสรีอาเซียน",
        "(ฉบับที่ ๒)",
        "พ.ศ. ๒๕๕๔"
      ]
    ],
    []
  ],
  "metadata": {
    "date_backmatter": "2554-02-08",
    "date_modified": "2554-03-17",
    "date_original": "2554-03-17",
    "doctype": "ประกาศ",
    "editors": [
      {
        "name": "ปริยานุช",
        "role": "ผู้จัดทำ",
        "date": "2554-03-29"
      },
      {
        "name": "ณัฐวดี",
        "role": "ตรวจ",
        "date": "2554-03-29"
      }
    ],
    "tag": "a160-2e-2554-a0017"
  }
}