{
  "pages": [
    [
      [
        "ประกาศกรมวิชาการเกษตร",
        "เรื่อง การกำหนดเกณฑ์มาตรฐานสารพิษตกค้างของสินค้าผักและผลไม้ที่ส่งออกของไทย",
        "พ.ศ. ๒๕๕๐"
      ]
    ],
    []
  ],
  "metadata": {
    "date_backmatter": "2550-05-29",
    "date_modified": "2550-07-04",
    "date_original": "2550-07-04",
    "doctype": "ประกาศ",
    "editors": [
      {
        "name": "ปริญสินีย์",
        "role": "ผู้จัดทำ",
        "date": "2554-09-08"
      }
    ],
    "tag": "a160-2e-2550-a0024"
  }
}