{
  "pages": [
    [
      [
        "ประกาศกรมการค้าต่างประเทศ",
        "เรื่อง ผลการจัดสรรปริมาณการนำเข้าเหล็กและเหล็กกล้าที่จะออกหนังสือรับรองแสดงการได้รับสิทธิใน",
        "การยกเว้นภาษีศุลกากรสำหรับเหล็กและเหล็กกล้าที่มีโควตาตามความตกลงระหว่างราชอาณาจักรไทย",
        "และญี่ปุ่นสำหรับความเป็นหุ้นส่วนทางเศรษฐกิจซึ่งนำเข้าในปี ๒๕๕๕",
        "(ฉบับที่ ๒)",
        "พ.ศ. ๒๕๕๕"
      ]
    ],
    []
  ],
  "metadata": {
    "date_backmatter": "2555-09-21",
    "date_modified": "2555-10-31",
    "date_original": "2555-10-31",
    "doctype": "ประกาศ",
    "editors": [
      {
        "name": "ปริยานุช",
        "role": "ผู้จัดทำ",
        "date": "2555-11-05"
      },
      {
        "name": "ปณตภร",
        "role": "ผู้ตรวจ",
        "date": "2555-11-15"
      }
    ],
    "tag": "a160-2e-2555-a0039"
  }
}