{
  "pages": [
    [
      [
        "ประกาศกระทรวงพาณิชย์",
        "เรื่อง การส่งสินค้าออกไปนอกราชอาณาจักร",
        "(ฉบับที่ ๔๙) พ.ศ. ๒๕๒๐"
      ]
    ],
    []
  ],
  "metadata": {
    "date_backmatter": "2520-11-30",
    "date_modified": null,
    "date_original": null,
    "doctype": "ประกาศ",
    "editors": [
      {
        "name": "ปริญสินีย์",
        "role": "ผู้จัดทำ",
        "date": "2554-06-29"
      }
    ],
    "tag": "a160-2e-2520-a0001"
  }
}