{
  "pages": [
    [
      [
        "ประกาศกรมการค้าต่างประเทศ",
        "เรื่อง การจัดสรรปริมาณนมผงขาดมันเนยที่จะออกหนังสือรับรองแสดงการได้รับสิทธิชำระภาษี",
        "ในโควตาตามพันธกรณีตามความตกลงการเกษตรภายใต้องค์การการค้าโลก (WTO)สำหรับปี พ.ศ. ๒๕๔๙",
        "(ฉบับที่ ๔)",
        "พ.ศ. ๒๕๕๐"
      ]
    ],
    []
  ],
  "metadata": {
    "date_backmatter": "2550-01-03",
    "date_modified": "2550-02-02",
    "date_original": "2550-02-02",
    "doctype": "ประกาศ",
    "editors": [
      {
        "name": "ปริญสินีย์",
        "role": "ผู้จัดทำ",
        "date": "2554-09-08"
      }
    ],
    "tag": "a160-2e-2550-a0002"
  }
}