{
  "pages": [
    [
      [
        "ประกาศกรมวิชาการเกษตร",
        "เรื่อง เงื่อนไขการนำผลส้มจากประเทศออสเตรเลียเข้ามาในราชอาณาจักร"
      ]
    ],
    []
  ],
  "metadata": {
    "date_backmatter": "2547-06-15",
    "date_modified": "2548-12-16",
    "date_original": "2547-06-28",
    "doctype": "ประกาศ",
    "editors": [
      {
        "name": "ปริญสินีย์",
        "role": "ผู้จัดทำ",
        "date": "2554-09-26"
      }
    ],
    "tag": "a160-2e-9979-update"
  }
}