{
  "pages": [
    [
      [
        "ประกาศกระทรวงพาณิชย์",
        "ว่าด้วยการนำสินค้าเข้ามาในราชอาณาจักร",
        "(ฉบับที่ ๑๒๔)",
        "พ.ศ. ๒๕๔๐"
      ]
    ],
    []
  ],
  "metadata": {
    "date_backmatter": "2540-12-08",
    "date_modified": "2540-12-26",
    "date_original": "2540-12-26",
    "doctype": "ประกาศ",
    "editors": [
      {
        "name": "ปริญสินีย์",
        "role": "ผู้จัดทำ",
        "date": "2554-08-30"
      }
    ],
    "tag": "a160-2e-2540-a002"
  }
}