{
  "pages": [
    [
      [
        "ประกาศกระทรวงพาณิชย์",
        "เรื่อง ยกเลิกประกาศกระทรวงพาณิชย์",
        "เกี่ยวกับการห้ามนำเพชรที่ยังไม่ได้เจียระไน ไม้ซุง และผลิตภัณฑ์ไม้ทุกชนิด",
        "จากสาธารณรัฐไลบีเรียเข้ามาในราชอาณาจักร",
        "พ.ศ. ๒๕๕๓"
      ]
    ],
    []
  ],
  "metadata": {
    "date_backmatter": "2553-03-16",
    "date_modified": "2553-04-05",
    "date_original": "2553-04-05",
    "doctype": "ประกาศ",
    "editors": [
      {
        "name": "ปริญสินีย์",
        "role": "ผู้จัดทำ",
        "date": "2554-09-12"
      }
    ],
    "tag": "a160-2e-2553-a0007"
  }
}