{
  "pages": [
    [
      [
        "ประกาศกรมการค้าต่างประเทศ",
        "เรื่อง การขอและการออกหนังสือรับรองถิ่นกำเนิดสินค้า",
        "สำหรับแป้งมันสำปะหลังที่ส่งออกไปสหภาพยุโรป สำหรับปี ๒๕๕๙",
        "พ.ศ. ๒๕๕๘"
      ]
    ],
    []
  ],
  "metadata": {
    "date_backmatter": "2558-11-19",
    "date_modified": "2558-12-21",
    "date_original": "2558-12-21",
    "doctype": "ประกาศ",
    "editors": [
      {
        "name": "ปริยานุช",
        "role": "จัดทำ",
        "date": "2558-12-29"
      },
      {
        "name": "วริญา",
        "role": "ตรวจ",
        "date": "2559-01-04"
      }
    ],
    "tag": "a160-2e-2558-a0051"
  }
}