{
  "pages": [
    [
      [
        "ประกาศกรมการค้าต่างประเทศ",
        "เรื่อง หลักเกณฑ์ วิธีการ และเงื่อนไขในการคืนส่วนจัดสรร การโอนส่วนจัดสรร",
        "การขอหนังสือรับรองการส่งออก การยกเลิกหนังสือรับรองการส่งออก การคืนค่าธรรมเนียมพิเศษ",
        "และการรายงานการส่งออกข้าวไปสหภาพยุโรป",
        "พ.ศ. ๒๕๕๖"
      ]
    ],
    []
  ],
  "metadata": {
    "date_backmatter": "2556-11-25",
    "date_modified": "2557-01-02",
    "date_original": "2557-01-02",
    "doctype": "ประกาศ",
    "editors": [
      {
        "name": "ปริยานุช",
        "role": "ผู้จัดทำ",
        "date": "2557-01-08"
      },
      {
        "name": "จุฑามาศ",
        "role": "ผู้ตรวจ",
        "date": "2557-01-09"
      }
    ],
    "tag": "a160-2e-2557-a0001"
  }
}