{
  "pages": [
    [
      [
        "ประกาศกระทรวงพาณิชย์",
        "เรื่อง การนำสินค้าเข้ามาในราชอาณาจักร (ฉบับที่ ๘๖)",
        "พ.ศ. ๒๕๒๑"
      ]
    ],
    []
  ],
  "metadata": {
    "date_backmatter": "2521-01-31",
    "date_modified": "2533-12-13",
    "date_original": "2521-01-31",
    "doctype": "ประกาศ",
    "editors": [
      {
        "name": "ปริญสินีย์",
        "role": "ผู้จัดทำ",
        "date": "2554-09-22"
      }
    ],
    "tag": "a160-2e-9996-update"
  }
}