{
  "pages": [
    [
      [
        "ประกาศกระทรวงพาณิชย์",
        "เรื่อง การนำข้าวโพดที่ใช้เป็นวัตถุดิบอาหารสัตว์เข้ามาในราชอาณาจักร",
        "ตามความตกลงภายใต้เขตการค้าเสรีอาเซียน สำหรับปี พ.ศ. ๒๕๕๖",
        "พ.ศ. ๒๕๕๖"
      ]
    ],
    []
  ],
  "metadata": {
    "date_backmatter": "2556-01-23",
    "date_modified": "2556-01-24",
    "date_original": "2556-01-24",
    "doctype": "ประกาศ",
    "editors": [
      {
        "name": "ปริยานุช",
        "role": "ผู้จัดทำ",
        "date": "2556-02-04"
      },
      {
        "name": "โชติกานต์",
        "role": "ผู้ตรวจ",
        "date": "2556-03-12"
      }
    ],
    "tag": "a160-2e-2556-a0018"
  }
}