{
  "pages": [
    [
      [
        "ประกาศกรมการค้าต่างประเทศ",
        "เรื่อง หลักเกณฑ์ วิธีการ และเงื่อนไขในการออกหนังสือรับรองแสดงการได้รับสิทธิในการยกเว้นภาษี",
        "ทั้งหมดหรือบางส่วนสำหรับกล้วยสด สับปะรดสด และเนื้อสุกรปรุงแต่ง ที่มีโควตาส่งออก",
        "ตามความตกลงระหว่างราชอาณาจักรไทยและญี่ปุ่นสำหรับความเป็นหุ้นส่วนทางเศรษฐกิจ",
        "ปีการส่งออก ๒๕๕๖",
        "พ.ศ. ๒๕๕๖"
      ]
    ],
    []
  ],
  "metadata": {
    "date_backmatter": "2556-03-29",
    "date_modified": "2556-04-09",
    "date_original": "2556-04-09",
    "doctype": "ประกาศ",
    "editors": [
      {
        "name": "ปริยานุช",
        "role": "ผู้จัดทำ",
        "date": "2556-04-10"
      },
      {
        "name": "ณัฐพร",
        "role": "ผู้ตรวจ",
        "date": "2556-04-10"
      }
    ],
    "tag": "a160-2e-2556-a0038"
  }
}