{
  "pages": [
    [
      [
        "ประกาศกระทรวงพาณิชย์",
        "ว่าด้วยการนำสินค้าเข้ามาในราชอาณาจักร",
        "(ฉบับที่ ๕๘)",
        "พ.ศ. ๒๕๓๑"
      ]
    ],
    []
  ],
  "metadata": {
    "date_backmatter": "2531-03-23",
    "date_modified": "2531-03-29",
    "date_original": "2531-03-29",
    "doctype": "ประกาศ",
    "editors": [
      {
        "name": "ปริญสินีย์",
        "role": "ผู้จัดทำ",
        "date": "2554-08-01"
      }
    ],
    "tag": "a160-2e-2531-a0001"
  }
}