{
  "pages": [
    [
      [
        "ประกาศกรมการค้าต่างประเทศ",
        "เรื่อง การจัดสรรปริมาณน้ำมันถั่วเหลืองที่จะออกหนังสือรับรอง",
        "แสดงการได้รับสิทธิชำระภาษีในโควตาตามพันธกรณี",
        "ตามความตกลงการเกษตรภายใต้องค์การการค้าโลก (WTO)",
        "ประจำปี ๒๕๔๖",
        "พ.ศ. ๒๕๔๖"
      ]
    ],
    []
  ],
  "metadata": {
    "date_backmatter": "2546-01-13",
    "date_modified": "2546-03-13",
    "date_original": "2546-03-13",
    "doctype": "ประกาศ",
    "editors": [
      {
        "name": "ปริญสินีย์",
        "role": "ผู้จัดทำ",
        "date": "2554-09-05"
      }
    ],
    "tag": "a160-2e-2546-a0001"
  }
}