{
  "pages": [
    [
      [
        "ประกาศกรมการค้าต่างประเทศ",
        "เรื่อง หลักเกณฑ์ วิธีการ และเงื่อนไขในการออกหนังสือรับรองแสดงการได้รับสิทธิ",
        "ในการยกเว้นภาษีทั้งหมดหรือบางส่วนสำหรับกล้วยสด สับปะรดสด และเนื้อสุกรปรุงแต่ง",
        "ที่มีโควตาส่งออกตามความตกลงระหว่างราชอาณาจักรไทยและญี่ปุ่น",
        "สำหรับความเป็นหุ้นส่วนทางเศรษฐกิจ ปีการส่งออก ๒๕๕๒",
        "พ.ศ. ๒๕๕๒"
      ]
    ],
    []
  ],
  "metadata": {
    "date_backmatter": "2552-03-30",
    "date_modified": "2552-05-29",
    "date_original": "2552-05-29",
    "doctype": "ประกาศ",
    "editors": [
      {
        "name": "ปริญสินีย์",
        "role": "ผู้จัดทำ",
        "date": "2554-09-09"
      }
    ],
    "tag": "a160-2e-2552-a0013"
  }
}