{
  "pages": [
    [
      [
        "ประกาศกรมการค้าต่างประเทศ",
        "เรื่อง ปริมาณสินค้านมผงขาดมันเนยที่จะจัดสรรเพื่อออกหนังสือรับรอง",
        "ให้ผู้มีสิทธิยื่นขอหนังสือรับรองงวดที่ ๒",
        "ประจำปี ๒๕๔๑"
      ]
    ],
    []
  ],
  "metadata": {
    "date_backmatter": "2541-06-05",
    "date_modified": "2541-07-07",
    "date_original": "2541-07-07",
    "doctype": "ประกาศ",
    "editors": [
      {
        "name": "ปิยะธิดา",
        "role": "จัดทำ",
        "date": "2561-02-01"
      }
    ],
    "tag": "a160-2e-2541-a024"
  }
}