{
  "pages": [
    [
      [
        "ประกาศกรมการค้าต่างประเทศ",
        "เรื่อง หลักเกณฑ์ วิธีการ และเงื่อนไขในการขอหนังสือรับรองการส่งออกข้าวไปสหภาพยุโรป",
        "สำหรับข้าวหัก งวดเดือนกรกฎาคม ปี ๒๕๕๙",
        "พ.ศ. ๒๕๕๙"
      ]
    ],
    []
  ],
  "metadata": {
    "date_backmatter": "2559-06-14",
    "date_modified": "2559-07-14",
    "date_original": "2559-07-14",
    "doctype": "ประกาศ",
    "editors": [
      {
        "name": "ชวัลพร/ปริยานุช",
        "role": "จัดทำ",
        "date": "2559-07-22"
      }
    ],
    "tag": "a160-2e-2559-a0036"
  }
}