{
  "pages": [
    [
      [
        "กฎกระทรวง",
        "การขออนุญาตและการอนุญาตให้ส่งออกไปนอก",
        "และนำเข้ามาในราชอาณาจักรซึ่งสินค้า",
        "พ.ศ. ๒๕๕๕"
      ]
    ],
    []
  ],
  "metadata": {
    "date_backmatter": "2555-12-19",
    "date_modified": "2555-12-28",
    "date_original": "2555-12-28",
    "doctype": "กฎกระทรวง",
    "editors": [
      {
        "name": "ปริยานุช",
        "role": "ผู้จัดทำ",
        "date": "2556-01-07"
      },
      {
        "name": "เอกฤทธิ์",
        "role": "ผู้ตรวจ",
        "date": "2556-01-07"
      }
    ],
    "tag": "a160-2b-2555-a0001"
  }
}