{
  "pages": [
    [
      [
        "พระราชบัญญัติ",
        "ยกเลิกประกาศของคณะปฏิวัติ คำสั่งของคณะปฏิรูปการปกครองแผ่นดิน",
        "และกฎหมายที่เกี่ยวข้อง ที่ให้ศาลพลเรือนเป็นศาลทหารในเวลาไม่ปกติ",
        "และที่ให้ศาลทหารพิจารณาคดีซึ่งเกี่ยวกับความผิดอันเป็นคอมมิวนิสต์",
        "พ.ศ. ๒๕๓๙",
        "",
        "",
        "ภูมิพลอดุลยเดช ป.ร.",
        "ให้ไว้ ณ วันที่ ๗ กรกฎาคม พ.ศ. ๒๕๓๙",
        "เป็นปีที่ ๕๑ ในรัชกาลปัจจุบัน"
      ]
    ],
    []
  ],
  "metadata": {
    "date_header": "2539-07-07",
    "date_modified": "2539-07-11",
    "date_original": "2539-07-11",
    "doctype": "พระราชบัญญัติ",
    "editors": [
      {
        "name": "สุกัญญา",
        "role": "ผู้จัดทำ",
        "date": "2553-12-28"
      }
    ],
    "tag": "c219-20-2539-a0001",
    "title": "ยกเลิกประกาศของคณะปฏิวัติ คำสั่งของคณะปฏิรูปการปกครองแผ่นดินและกฎหมายที่เกี่ยวข้อง ที่ให้ศาลพลเรือนเป็นศาลทหารในเวลาไม่ปกติและที่ให้ศาลทหารพิจารณาคดีซึ่งเกี่ยวกับความผิดอันเป็นคอมมิวนิสต์"
  }
}