{
  "pages": [
    [
      [
        "กฎกระทรวง",
        "ฉบับที่ ๓๗ ( พ.ศ. ๒๕๑๖ )",
        "ออกตามความในพระราชบัญญัติรับราชการทหาร",
        "พ.ศ. ๒๔๙๗"
      ]
    ],
    []
  ],
  "metadata": {
    "date_backmatter": "2516-03-21",
    "date_modified": "2516-03-29",
    "date_original": "2516-03-29",
    "doctype": "กฎกระทรวง",
    "editors": [
      {
        "name": "ต่อศักดิ์",
        "role": "จัดทำ",
        "date": "2549-12-08"
      }
    ],
    "tag": "c317-2b-2516-037"
  }
}