{
  "pages": [
    [
      [
        "กฎกระทรวง",
        "ฉบับที่ ๓๕ ( พ.ศ. ๒๕๑๖ )",
        "ออกตามความในพระราชบัญญัติรับราชการทหาร",
        "พ.ศ. ๒๔๙๗"
      ]
    ],
    []
  ],
  "metadata": {
    "date_backmatter": "2516-03-21",
    "date_gz_old": "2516-03-29",
    "doctype": "กฎกระทรวง",
    "editors": [],
    "tag": "c317-2b-2516-035"
  }
}