{
  "pages": [
    [
      [
        "กฎกระทรวง",
        "ฉบับที่ ๕๒ (พ.ศ. ๒๕๒๐)",
        "ออกตามความในพระราชบัญญัติรับราชการทหาร",
        "พ.ศ. ๒๔๙๗"
      ]
    ],
    []
  ],
  "metadata": {
    "date_backmatter": "2520-07-13",
    "date_modified": "2520-09-20",
    "date_original": "2520-09-20",
    "doctype": "กฎกระทรวง",
    "editors": [
      {
        "name": "ต่อศักดิ์",
        "role": "จัดทำ",
        "date": "2549-12-07"
      }
    ],
    "tag": "c317-2b-2520-052"
  }
}