{
  "pages": [
    [
      [
        "กฎกระทรวง",
        "ฉบับที่ ๓ (พ.ศ. ๒๕๓๔)",
        "ออกตามความในพระราชบัญญัติควบคุมยุทธภัณฑ์ พ.ศ. ๒๕๓๐"
      ]
    ],
    []
  ],
  "metadata": {
    "date_backmatter": "2534-12-12",
    "date_modified": "2535-01-09",
    "date_original": "2535-01-09",
    "doctype": "กฎกระทรวง",
    "editors": [
      {
        "name": "ณัฐวดี",
        "role": "ผู้จัดทำ",
        "date": "2552-11-16"
      },
      {
        "name": "พัสสน",
        "role": "ผู้ตรวจ",
        "date": "2553-12-09"
      }
    ],
    "tag": "a428-2b-2535-003"
  }
}