{
  "pages": [
    [
      [
        "ประกาศกระทรวงกลาโหม",
        "เรื่อง กำหนดยุทธภัณฑ์ที่ต้องขออนุญาต",
        "ตามพระราชบัญญัติควบคุมยุทธภัณฑ์",
        "พ.ศ. ๒๕๓๐"
      ]
    ],
    []
  ],
  "metadata": {
    "date_backmatter": "2550-11-30",
    "date_modified": "2551-01-10",
    "date_original": "2551-01-10",
    "doctype": "ประกาศ",
    "editors": [
      {
        "name": "พัสสน",
        "role": "ผู้จัดทำ",
        "date": "2553-12-09"
      }
    ],
    "tag": "a428-2e-2551-a0001"
  }
}