{
  "pages": [
    [
      [
        "กฎกระทรวง",
        "ฉบับที่ ๒ (พ.ศ. ๒๕๓๔)",
        "ออกตามความในพระราชบัญญัติควบคุมยุทธภัณฑ์ พ.ศ. ๒๕๓๐"
      ]
    ],
    []
  ],
  "metadata": {
    "date_backmatter": "2534-12-12",
    "date_modified": "2546-12-09",
    "date_original": "2535-01-09",
    "doctype": "กฎกระทรวง",
    "editors": [
      {
        "name": "ปณตภร",
        "role": "ผู้จัดทำ",
        "date": "2555-02-21"
      }
    ],
    "tag": "a428-2b-9999-update"
  }
}