{
  "pages": [
    [
      [
        "ประกาศกระทรวงกลาโหม",
        "เรื่อง แต่งตั้งพนักงานเจ้าหน้าที่เพื่อปฏิบัติการตามพระราชบัญญัติ",
        "ควบคุมยุทธภัณฑ์ พ.ศ. ๒๕๓๐",
        "(ฉบับที่ ๒)",
        "พ.ศ. ๒๕๔๓"
      ]
    ],
    []
  ],
  "metadata": {
    "date_backmatter": "2543-07-31",
    "date_modified": "2544-03-06",
    "date_original": "2544-03-06",
    "doctype": "ประกาศ",
    "editors": [
      {
        "name": "ณัฐวดี",
        "role": "ผู้จัดทำ",
        "date": "2552-11-17"
      },
      {
        "name": "พัสสน",
        "role": "ผู้ตรวจ",
        "date": "2553-12-09"
      }
    ],
    "tag": "a428-2e-2544-a0001"
  }
}