{
  "pages": [
    [
      [
        "พระราชกฤษฎีกา",
        "ว่าด้วยปริญญาในสาขาวิชา อักษรย่อสำหรับสาขาวิชา",
        "ครุยวิทยฐานะ เข็มวิทยฐานะ และครุยประจำตำแหน่งของสถาบันบัณฑิตพัฒนศิลป์",
        "พ.ศ. ๒๕๔๖",
        "",
        "",
        "ภูมิพลอดุลยเดช ป.ร.",
        "ให้ไว้ ณ วันที่ ๑๖ สิงหาคม พ.ศ. ๒๕๔๖",
        "เป็นปีที่ ๕๘ ในรัชกาลปัจจุบัน"
      ]
    ],
    []
  ],
  "metadata": {
    "date_header": "2546-08-16",
    "date_modified": "2546-08-26",
    "date_original": "2546-08-26",
    "doctype": "พระราชกฤษฎีกา",
    "editors": [
      {
        "name": "วิภา",
        "role": "ผู้จัดทำ",
        "date": "2554-05-20"
      }
    ],
    "tag": "ca72-2a-2546-a0001",
    "title": "ว่าด้วยปริญญาในสาขาวิชา อักษรย่อสำหรับสาขาวิชาครุยวิทยฐานะ เข็มวิทยฐานะ และครุยประจำตำแหน่งของสถาบันบัณฑิตพัฒนศิลป์"
  }
}