{
  "pages": [
    [
      [
        "พระราชบัญญัติ",
        "สถาบันบัณฑิตพัฒนศิลป์",
        "พ.ศ. ๒๕๕๐",
        "",
        "",
        "ภูมิพลอดุลยเดช ป.ร.",
        "ให้ไว้ ณ วันที่ ๒๗ มิถุนายน พ.ศ. ๒๕๕๐",
        "เป็นปีที่ ๖๒ ในรัชกาลปัจจุบัน"
      ]
    ],
    []
  ],
  "metadata": {
    "date_header": "2550-06-27",
    "date_modified": "2550-07-09",
    "date_original": "2550-07-09",
    "doctype": "พระราชบัญญัติ",
    "editors": [
      {
        "name": "ปริญสินีย์",
        "role": "แก้ไข",
        "date": "2553-10-26"
      },
      {
        "name": "วศิน",
        "role": "ตรวจ",
        "date": "2553-10-26"
      }
    ],
    "tag": "ca72-20-2550-a0001",
    "title": "สถาบันบัณฑิตพัฒนศิลป์"
  }
}