{
  "pages": [
    [
      [
        "ประกาศ",
        "คณะกรรมการปฏิบัติการตามพระราชบัญญัติการค้าข้าว พุทธศักราช ๒๔๘๙",
        "ฉบับที่ ๑๕๐ พ.ศ. ๒๕๖๐",
        "เรื่อง ให้ผู้ประกอบการค้าข้าวขออนุญาตประกอบการค้าข้าว การกำหนดเงื่อนไขในหนังสือ",
        "อนุญาตให้ประกอบการค้าข้าว และการสั่งถอนหนังสืออนุญาตให้ประกอบการค้าข้าว"
      ]
    ],
    []
  ],
  "metadata": {
    "date_backmatter": "2560-02-09",
    "date_modified": "2560-03-10",
    "date_original": "2560-03-10",
    "doctype": "ประกาศ",
    "editors": [
      {
        "name": "ปริยานุช",
        "role": "จัดทำ",
        "date": "2560-03-13"
      },
      {
        "name": "พิมพ์มาดา",
        "role": "ตรวจ",
        "date": "2560-04-05"
      }
    ],
    "tag": "a112-2e-2560-a0001"
  }
}