{
  "pages": [
    [
      [
        "ประกาศคณะกรรมการปฏิบัติการตามพระราชบัญญัติการค้าข้าว",
        "พุทธศักราช ๒๔๘๙",
        "ฉบับที่ ๑๔๗ พ.ศ. ๒๕๕๘",
        "เรื่อง แต่งตั้งพนักงานเจ้าหน้าที่"
      ]
    ],
    []
  ],
  "metadata": {
    "date_backmatter": "2558-06-24",
    "date_modified": "2558-09-09",
    "date_original": "2558-06-30",
    "doctype": "ประกาศ",
    "editors": [
      {
        "name": "ปุณิกา",
        "role": "ผู้จัดทำ",
        "date": "2558-10-09"
      },
      {
        "name": "ปัญญา",
        "role": "ตรวจ",
        "date": "2558-10-09"
      }
    ],
    "tag": "a112-2e-9998-update"
  }
}