{
  "pages": [
    [
      [
        "ประกาศคณะกรรมการปฏิบัติการตามพระราชบัญญัติการค้าข้าว",
        "พุทธศักราช ๒๔๘๙",
        "ฉบับที่ ๑๔๕ พ.ศ. ๒๕๕๘",
        "เรื่อง กำหนดเขตควบคุมการค้าข้าว และกำหนดประเภทผู้ประกอบการค้าข้าว"
      ]
    ],
    []
  ],
  "metadata": {
    "date_backmatter": "2558-06-24",
    "date_modified": "2558-06-30",
    "date_original": "2558-06-30",
    "doctype": "ประกาศ",
    "editors": [
      {
        "name": "ปริยานุช",
        "role": "ผู้จัดทำ",
        "date": "2558-07-01"
      },
      {
        "name": "นุสรา",
        "role": "ผู้ตรวจ",
        "date": "2558-08-06"
      }
    ],
    "tag": "a112-2e-2558-a0001"
  }
}