{
  "pages": [
    [
      [
        "ประกาศคณะกรรมการคุรุสภา",
        "เรื่อง การรับรองการปฏิบัติการสอนในสถานศึกษา",
        "เพื่อประกอบการขอรับใบอนุญาตประกอบวิชาชีพครูของชาวต่างประเทศ"
      ]
    ],
    []
  ],
  "metadata": {
    "date_backmatter": "2557-10-07",
    "date_modified": "2557-12-04",
    "date_original": "2557-12-04",
    "doctype": "ประกาศ",
    "editors": [
      {
        "name": "ปริยานุช",
        "role": "ผู้จัดทำ",
        "date": "2557-12-11"
      },
      {
        "name": "วิศนี",
        "role": "ผู้ตรวจ",
        "date": "2557-12-15"
      }
    ],
    "tag": "ca64-2e-2557-a0003"
  }
}