{
  "pages": [
    [
      [
        "ประกาศคณะกรรมการคุรุสภา",
        "เรื่อง แนวทางปฏิบัติเพื่อออกใบอนุญาตประกอบวิชาชีพครู",
        "สำหรับผู้สำเร็จการศึกษาหลักสูตรที่คุรุสภารับรอง ที่สถาบันจัดการศึกษานอกที่ตั้ง",
        "(ฉบับที่ ๒)"
      ]
    ],
    []
  ],
  "metadata": {
    "date_backmatter": "2555-02-22",
    "date_modified": "2555-04-05",
    "date_original": "2555-04-05",
    "doctype": "ประกาศ",
    "editors": [
      {
        "name": "ปริยานุช",
        "role": "ผู้จัดทำ",
        "date": "2555-04-11"
      },
      {
        "name": "ปณตภร",
        "role": "ผู้ตรวจ",
        "date": "2555-04-19"
      }
    ],
    "tag": "ca64-2e-2555-a0002"
  }
}