{
  "pages": [
    [
      [
        "ประกาศคณะกรรมการมาตรฐานวิชาชีพ",
        "เรื่อง หลักเกณฑ์และวิธีการในการดำเนินการให้ได้มาซึ่งคณะอนุกรรมการสืบสวน",
        "และคณะอนุกรรมการสอบสวน",
        "พ.ศ. ๒๕๕๑"
      ]
    ],
    []
  ],
  "metadata": {
    "date_backmatter": "2551-11-17",
    "date_modified": "2552-01-30",
    "date_original": "2552-01-30",
    "doctype": "ประกาศ",
    "editors": [
      {
        "name": "วัชศักดิ์",
        "role": "ผู้จัดทำ",
        "date": "2552-02-03"
      }
    ],
    "tag": "ca64-2e-2552-a0001"
  }
}