{
  "pages": [
    [
      [
        "ประกาศ",
        "เรื่อง พื้นที่ปรากฏเหตุการณ์อันกระทบต่อความมั่นคงภายในราชอาณาจักร"
      ]
    ],
    []
  ],
  "metadata": {
    "date_backmatter": "2556-11-25",
    "date_modified": "2556-11-25",
    "date_original": "2556-11-25",
    "doctype": "ประกาศ",
    "editors": [
      {
        "name": "ปริยานุช",
        "role": "ผู้จัดทำ",
        "date": "2556-11-27"
      },
      {
        "name": "อังศุมาลี",
        "role": "ผู้ตรวจ",
        "date": "2556-11-27"
      }
    ],
    "tag": "a1127-2e-2556-a0021"
  }
}