{
  "pages": [
    [
      [
        "ประกาศ",
        "เรื่อง พื้นที่ปรากฏเหตุการณ์อันกระทบต่อความมั่นคงภายในราชอาณาจักร"
      ]
    ],
    []
  ],
  "metadata": {
    "date_backmatter": "2557-11-25",
    "date_modified": "2557-11-26",
    "date_original": "2557-11-26",
    "doctype": "ประกาศ",
    "editors": [
      {
        "name": "ปริยานุช",
        "role": "ผู้จัดทำ",
        "date": "2557-11-28"
      },
      {
        "name": "ภีราพร",
        "role": "ผู้ตรวจ",
        "date": "2557-12-09"
      }
    ],
    "tag": "a1127-2e-2557-a0014"
  }
}