{
  "pages": [
    [
      [
        "ประกาศ",
        "เรื่อง ให้อำนาจหน้าที่ของกองอำนวยการรักษาความมั่นคงภายในราชอาณาจักร",
        "ที่ได้รับมอบหมายให้รับผิดชอบดำเนินการในพื้นที่ปรากฏเหตุการณ์",
        "อันกระทบต่อความมั่นคงภายในราชอาณาจักร สิ้นสุดลง"
      ]
    ],
    []
  ],
  "metadata": {
    "date_backmatter": "2555-11-26",
    "date_modified": "2555-11-26",
    "date_original": "2555-11-26",
    "doctype": "ประกาศ",
    "editors": [
      {
        "name": "ปริยานุช",
        "role": "ผู้จัดทำ",
        "date": "2555-11-28"
      },
      {
        "name": "ณัฐพร",
        "role": "ผู้ตรวจ",
        "date": "2555-11-28"
      }
    ],
    "tag": "a1127-2e-2555-a0011"
  }
}