{
  "pages": [
    [
      [
        "ข้อกำหนด",
        "ออกตามความในมาตรา ๑๘ แห่งพระราชบัญญัติการรักษาความมั่นคงภายในราชอาณาจักร",
        "พ.ศ. ๒๕๕๑"
      ]
    ],
    []
  ],
  "metadata": {
    "date_backmatter": "2556-11-25",
    "date_modified": "2556-11-25",
    "date_original": "2556-11-25",
    "editors": [
      {
        "name": "ปริยานุช",
        "role": "ผู้จัดทำ",
        "date": "2556-11-27"
      },
      {
        "name": "อังศุมาลี",
        "role": "ผู้ตรวจ",
        "date": "2556-11-27"
      }
    ],
    "tag": "a1127-2h-2556-a0004"
  }
}