{
  "pages": [
    [
      [
        "ประกาศ",
        "เรื่อง การให้พนักงานเจ้าหน้าที่ที่ปฏิบัติหน้าที่",
        "ตามพระราชบัญญัติการรักษาความมั่นคงภายในราชอาณาจักร พ.ศ. ๒๕๕๑",
        "เป็นเจ้าพนักงานหรือพนักงานเจ้าหน้าที่ตามกฎหมาย"
      ]
    ],
    []
  ],
  "metadata": {
    "date_backmatter": "2559-11-22",
    "date_modified": "2559-11-22",
    "date_original": "2559-11-22",
    "doctype": "ประกาศ",
    "editors": [
      {
        "name": "ปริยานุช",
        "role": "จัดทำ",
        "date": "2559-11-25"
      },
      {
        "name": "ชนิกา",
        "role": "ตรวจ",
        "date": "2559-11-30"
      }
    ],
    "tag": "a1127-2e-2559-a0002"
  }
}