{
  "pages": [
    [
      [
        "ข้อกำหนด",
        "ออกตามความในมาตรา ๑๘",
        "แห่งพระราชบัญญัติการรักษาความมั่นคงภายในราชอาณาจักร พ.ศ. ๒๕๕๑"
      ]
    ],
    []
  ],
  "metadata": {
    "date_backmatter": "2560-11-28",
    "date_modified": "2560-11-28",
    "date_original": "2560-11-28",
    "editors": [
      {
        "name": "พิมพ์มาดา/อัญชลี",
        "role": "จัดทำ",
        "date": "2560-12-06"
      }
    ],
    "tag": "a1127-2h-2560-a0001"
  }
}