{
  "pages": [
    [
      [
        "คำสั่งกระทรวงมหาดไทย",
        "ที่ ๘๐๑/๒๕๕๖",
        "เรื่อง แต่งตั้งเจ้าพนักงานออกบัตรประจำตัวครอบครัว",
        "ของผู้ได้รับพระราชทานเหรียญพิทักษ์เสรีชน ชั้นที่ ๑"
      ]
    ],
    []
  ],
  "metadata": {
    "date_backmatter": "2556-12-27",
    "date_modified": "2557-01-28",
    "date_original": "2557-01-28",
    "editors": [
      {
        "name": "ปริยานุช",
        "role": "ผู้จัดทำ",
        "date": "2557-02-10"
      },
      {
        "name": "อุษมล",
        "role": "ผู้ตรวจ",
        "date": "2557-02-26"
      }
    ],
    "tag": "cb32-2f-2557-a0001"
  }
}