{
  "pages": [
    [
      [
        "ประกาศกระทรวงพาณิชย์",
        "ฉบับที่ ๔๒/๒๕๔๗",
        "เรื่อง แต่งตั้งพนักงานเจ้าหน้าที่ตามพระราชบัญญัติลิขสิทธิ์ พ.ศ. ๒๕๓๗",
        "แต่งตั้งพนักงานเจ้าหน้าที่ตามพระราชบัญญัติเครื่องหมายการค้า",
        "พ.ศ. ๒๕๓๔ ซึ่งแก้ไขเพิ่มเติมโดยพระราชบัญญัติเครื่องหมายการค้า",
        "(ฉบับที่ ๒) พ.ศ. ๒๕๔๓ และแต่งตั้งพนักงานเจ้าหน้าที่",
        "ตามพระราชบัญญัติสิทธิบัตร พ.ศ. ๒๕๒๒ ซึ่งแก้ไขเพิ่มเติมโดย",
        "พระราชบัญญัติสิทธิบัตร (ฉบับที่ ๒) พ.ศ. ๒๕๓๕",
        "และพระราชบัญญัติสิทธิบัตร (ฉบับที่ ๓) พ.ศ. ๒๕๔๒ เพิ่มเติม"
      ]
    ],
    []
  ],
  "metadata": {
    "date_backmatter": "2547-10-12",
    "date_modified": "2547-11-05",
    "date_original": "2547-11-05",
    "doctype": "ประกาศ",
    "editors": [
      {
        "name": "วิชชุตา",
        "role": "ผู้จัดทำ",
        "date": "2554-09-09"
      }
    ],
    "tag": "a447-2e-2547-a0003"
  }
}