{
  "pages": [
    [
      [
        "ประกาศกรมทรัพย์สินทางปัญญา",
        "เรื่อง กำหนดแบบพิมพ์และวิธีการยื่นคำขอให้บันทึกการจดทะเบียนระหว่างประเทศแทนการจดทะเบียน",
        "ในราชอาณาจักร และคำขอจดทะเบียนในราชอาณาจักรที่ได้แปลงมาจากทะเบียนระหว่างประเทศ"
      ]
    ],
    []
  ],
  "metadata": {
    "date_backmatter": "2560-12-21",
    "date_modified": "2561-02-20",
    "date_original": "2561-02-20",
    "doctype": "ประกาศ",
    "editors": [
      {
        "name": "ปุณิกา",
        "role": "จัดทำ"
      }
    ],
    "tag": "a447-2e-2561-a0004"
  }
}