{
  "pages": [
    [
      [
        "ประกาศกระทรวงพาณิชย์",
        "ฉบับที่ ๓/๒๕๔๘",
        "เรื่อง แต่งตั้งพนักงานเจ้าหน้าที่ ตามพระราชบัญญัติลิขสิทธิ์ พ.ศ. ๒๕๓๗",
        "และแต่งตั้งพนักงานเจ้าหน้าที่ ตามพระราชบัญญัติเครื่องหมายการค้า พ.ศ. ๒๕๓๔",
        "ซึ่งแก้ไขเพิ่มเติมโดยพระราชบัญญัติเครื่องหมายการค้า (ฉบับที่ ๒)",
        "พ.ศ. ๒๕๔๓",
        "เพิ่มเติม"
      ]
    ],
    []
  ],
  "metadata": {
    "date_backmatter": "2548-01-19",
    "date_modified": "2548-05-19",
    "date_original": "2548-05-19",
    "doctype": "ประกาศ",
    "editors": [
      {
        "name": "วิชชุตา",
        "role": "ผู้จัดทำ",
        "date": "2554-09-23"
      },
      {
        "name": "กัญฑรัตน์",
        "role": "ปรับปรุง",
        "date": "2558-09-03"
      }
    ],
    "tag": "a447-2e-2548-a0005"
  }
}