{
  "pages": [
    [
      [
        "ประกาศกรมทรัพย์สินทางปัญญา",
        "เรื่อง กำหนดแบบพิมพ์คำขอจดทะเบียนเครื่องหมายการค้า เครื่องหมายบริการ",
        "เครื่องหมายรับรอง เครื่องหมายร่วม และคำขออื่น"
      ]
    ],
    []
  ],
  "metadata": {
    "date_backmatter": "2548-07-19",
    "doctype": "ประกาศ",
    "editors": [
      {
        "name": "วิชชุตา",
        "role": "ผู้จัดทำ",
        "date": "2554-09-09"
      }
    ],
    "tag": "a447-2e-2548-a0004"
  }
}