{
  "pages": [
    [
      [
        "กฎเสนาบดีกระทรวงพาณิชย์และคมนาคม",
        "ออกตามความในมาตรา ๔๖ แห่งพระราชบัญญัติ",
        "เครื่องหมายการค้า พ.ศ. ๒๔๗๔",
        "(ฉบับที่ ๑)"
      ]
    ],
    []
  ],
  "metadata": {
    "date_backmatter": "2474-09-08",
    "date_modified": "2504-12-26",
    "date_original": "2474-09-13",
    "editors": [
      {
        "name": "วิชชุตา",
        "role": "ผู้จัดทำ",
        "date": "2554-09-08"
      }
    ],
    "tag": "a447-2b-2504-a0002"
  }
}