{
  "pages": [
    [
      [
        "ประกาศกระทรวงพาณิชย์",
        "ฉบับที่ ๕/๒๕๕๒",
        "เรื่อง แต่งตั้งนายทะเบียนเครื่องหมายการค้า"
      ]
    ],
    []
  ],
  "metadata": {
    "date_backmatter": "2552-04-30",
    "date_modified": "2552-09-25",
    "date_original": "2552-09-25",
    "doctype": "ประกาศ",
    "editors": [
      {
        "name": "วิชชุตา",
        "role": "ผู้จัดทำ",
        "date": "2554-09-23"
      }
    ],
    "tag": "a447-2e-2552-a0001"
  }
}