{
  "pages": [
    [
      [
        "ประกาศกระทรวงอุตสาหกรรม",
        "เรื่อง ยกเว้นไม่ต้องปฎิบัติตามพระราชบัญญัติวัตถุอันตราย พ.ศ. ๒๕๓๕",
        "เกี่ยวกับวัตถุอันตราย (ของเสียเคมีวัตถุ)",
        "ที่กรมโรงงานอุตสาหกรรมมีอำนาจหน้าที่รับผิดชอบ",
        "พ.ศ. ๒๕๔๓"
      ]
    ],
    []
  ],
  "metadata": {
    "date_backmatter": "2543-03-20",
    "date_gz_old": "2543-05-08",
    "doctype": "ประกาศ",
    "editors": [
      {
        "name": "ปรียนันท์",
        "role": "แก้ไข"
      },
      {
        "name": "๒๕/๔",
        "role": "๔๕"
      }
    ],
    "tag": "c703-2e-2543-a005"
  }
}