{
  "pages": [
    [
      [
        "ประกาศกระทรวงเกษตรและสหกรณ์",
        "เรื่อง การแจ้งและการรับแจ้งข้อเท็จจริงเกี่ยวกับวัตถุอันตรายชนิดที่ ๑",
        "ที่กรมปศุสัตว์รับผิดชอบ",
        "พ.ศ. ๒๕๕๕"
      ]
    ],
    []
  ],
  "metadata": {
    "date_backmatter": "2555-03-26",
    "date_modified": "2555-05-02",
    "date_original": "2555-05-02",
    "doctype": "ประกาศ",
    "editors": [
      {
        "name": "ปริยานุช",
        "role": "ผู้จัดทำ",
        "date": "2555-05-08"
      },
      {
        "name": "ณัฐพร",
        "role": "ผู้ตรวจ",
        "date": "2555-05-08"
      }
    ],
    "tag": "c703-2e-2555-a0004"
  }
}