{
  "pages": [
    [
      [
        "ประกาศกรมธุรกิจพลังงาน",
        "เรื่อง การขึ้นทะเบียนวิศวกรออกแบบ และการออกใบรับรอง",
        "วิศวกรทดสอบและตรวจสอบ (ฉบับที่ ๒)",
        "พ.ศ. ๒๕๕๕"
      ]
    ],
    []
  ],
  "metadata": {
    "date_backmatter": "2555-02-14",
    "date_modified": "2555-02-27",
    "date_original": "2555-02-27",
    "doctype": "ประกาศ",
    "editors": [
      {
        "name": "ปริยานุช",
        "role": "ผู้จัดทำ",
        "date": "2555-03-01"
      },
      {
        "name": "ณัฐพร",
        "role": "ผู้ตรวจ",
        "date": "2555-03-01"
      }
    ],
    "tag": "c703-2e-2555-a0001"
  }
}