{
  "pages": [
    [
      [
        "ประกาศกระทรวงเกษตรและสหกรณ์",
        "เรื่อง การดำเนินการเกี่ยวกับวัตถุอันตราย ชนิดที่ ๔",
        "ที่กรมวิชาการเกษตรเป็นผู้รับผิดชอบ พ.ศ. ๒๕๔๕"
      ]
    ],
    []
  ],
  "metadata": {
    "date_backmatter": "2545-04-25",
    "date_gz_old": "2545-05-08",
    "doctype": "ประกาศ",
    "editors": [
      {
        "name": "พรพิมล",
        "role": "แก้ไข",
        "date": "2545-07-23"
      }
    ],
    "tag": "c703-2e-2545-a0001"
  }
}