{
  "pages": [
    [
      [
        "ประกาศกรมวิชาการเกษตร",
        "เรื่อง กำหนดอัตราความเข้มข้นในแต่ละสูตรของวัตถุอันตรายที่รับขึ้นทะเบียน",
        "พ.ศ. ๒๕๕๔"
      ]
    ],
    []
  ],
  "metadata": {
    "date_backmatter": "2554-07-29",
    "date_modified": "2557-11-14",
    "date_original": "2554-08-26",
    "doctype": "ประกาศ",
    "editors": [
      {
        "name": "อุษมล",
        "role": "ผู้จัดทำ",
        "date": "2557-01-07"
      },
      {
        "name": "ณัฐพร",
        "role": "ผู้ตรวจ",
        "date": "2557-01-08"
      },
      {
        "name": "วิศนี",
        "role": "เพิ่มเติม",
        "date": "2557-11-20"
      }
    ],
    "tag": "c703-2e-2557-a0008"
  }
}