{
  "pages": [
    [
      [
        "ประกาศกระทรวงเกษตรและสหกรณ์",
        "เรื่อง หลักเกณฑ์และวิธีการในการผลิต การนำเข้า การส่งออก",
        "และการมีไว้ในครอบครองเพื่อใช้รับจ้างซึ่งวัตถุอันตรายที่กรมปศุสัตว์เป็นผู้รับผิดชอบ (ฉบับที่ ๒)",
        "พ.ศ. ๒๕๖๐"
      ]
    ],
    []
  ],
  "metadata": {
    "date_backmatter": "2560-02-28",
    "date_modified": "2560-03-28",
    "date_original": "2560-03-28",
    "doctype": "ประกาศ",
    "editors": [
      {
        "name": "ภวรรณตรี",
        "role": "จัดทำ",
        "date": "2560-03-29"
      },
      {
        "name": "ปุณิกา",
        "role": "ตรวจ",
        "date": "2560-03-29"
      }
    ],
    "tag": "c703-2e-2560-a0008"
  }
}