{
  "pages": [
    [
      [
        "ประกาศกรมปศุสัตว์",
        "เรื่อง การกำหนดรายการข้อมูล เอกสารและหลักฐานเพื่อการขึ้นทะเบียนวัตถุอันตราย",
        "พ.ศ. ๒๕๕๒"
      ]
    ],
    []
  ],
  "metadata": {
    "date_backmatter": "2552-03-20",
    "date_modified": "2552-04-27",
    "date_original": "2552-04-27",
    "doctype": "ประกาศ",
    "editors": [
      {
        "name": "ปริยานุช",
        "role": "ผู้จัดทำ",
        "date": "2552-04-30"
      }
    ],
    "tag": "c703-2e-2552-a0006"
  }
}