{
  "pages": [
    [
      [
        "ประกาศกรมโรงงานอุตสาหกรรม",
        "เรื่อง เงื่อนไขในการอนุญาตให้นำเครื่องใช้ไฟฟ้าและอุปกรณ์อิเล็กทรอนิกส์ที่ใช้แล้ว",
        "ที่เป็นวัตถุอันตรายเข้ามาในราชอาณาจักร (ฉบับที่ ๓)",
        "พ.ศ. ๒๕๕๐"
      ]
    ],
    []
  ],
  "metadata": {
    "date_backmatter": "2550-09-13",
    "date_modified": "2550-09-29",
    "date_original": "2550-09-29",
    "doctype": "ประกาศ",
    "editors": [
      {
        "name": "วัชศักดิ์",
        "role": "ผู้จัดทำ",
        "date": "2550-10-09"
      }
    ],
    "tag": "c703-2e-2550-a0012"
  }
}