{
  "pages": [
    [
      [
        "ประกาศกระทรวงอุตสาหกรรม",
        "เรื่อง หน่วยงานผู้รับชำระเงินค่าธรรมเนียมรายปีแทนกรมโรงงานอุตสาหกรรม",
        "พ.ศ. ๒๕๕๐"
      ]
    ],
    []
  ],
  "metadata": {
    "date_backmatter": "2550-08-16",
    "date_modified": "2550-09-14",
    "date_original": "2550-09-14",
    "doctype": "ประกาศ",
    "editors": [
      {
        "name": "ปริยานุช",
        "role": "ผู้จัดทำ",
        "date": "2550-09-26"
      }
    ],
    "tag": "c703-2e-2550-a0009"
  }
}