{
  "pages": [
    [
      [
        "ประกาศกรมธุรกิจพลังงาน",
        "เรื่อง วิธีการและข้อกำหนดในการตรวจสอบการเลิกการใช้ก๊าซ",
        "ณ สถานที่ใช้ก๊าซธรรมชาติ",
        "พ.ศ. ๒๕๕๐"
      ]
    ],
    []
  ],
  "metadata": {
    "date_backmatter": "2550-11-07",
    "date_modified": "2550-12-20",
    "date_original": "2550-12-20",
    "doctype": "ประกาศ",
    "editors": [
      {
        "name": "วัชศักดิ์",
        "role": "ผู้จัดทำ",
        "date": "2551-01-11"
      }
    ],
    "tag": "c703-2e-2550-a0018"
  }
}