{
  "pages": [
    [
      [
        "ประกาศกระทรวงสาธารณสุข",
        "เรื่อง ยกเว้นการนำเข้าไม่ต้องปฏิบัติตามพระราชบัญญัติวัตถุอันตราย พ.ศ. ๒๕๓๕",
        "เกี่ยวกับการแจ้งดำเนินการ การขออนุญาต และการขึ้นทะเบียนวัตถุอันตราย",
        "ที่สำนักงานคณะกรรมการอาหารและยามีอำนาจหน้าที่รับผิดชอบ พ.ศ. ๒๕๔๘"
      ]
    ],
    []
  ],
  "metadata": {
    "date_backmatter": "2548-10-27",
    "date_modified": "2548-12-16",
    "date_original": "2548-12-16",
    "doctype": "ประกาศ",
    "editors": [
      {
        "name": "ชัชสรัญ",
        "role": "ผู้จัดทำ",
        "date": "2548-12-20"
      }
    ],
    "tag": "c703-2e-2548-a0013"
  }
}