{
  "pages": [
    [
      [
        "ประกาศกรมวิชาการเกษตร",
        "เรื่อง กำหนดอัตราความเข้มข้นในแต่ละสูตรของวัตถุอันตรายที่รับขึ้นทะเบียน",
        "พ.ศ. ๒๕๕๔"
      ]
    ],
    []
  ],
  "metadata": {
    "date_backmatter": "2554-07-29",
    "date_modified": "2560-03-10",
    "date_original": "2554-08-26",
    "doctype": "ประกาศ",
    "editors": [
      {
        "name": "วิชพงษ์",
        "role": "ปรับปรุง",
        "date": "2560-03-28"
      }
    ],
    "tag": "c703-2e-9995-update"
  }
}