{
  "pages": [
    [
      [
        "ประกาศกระทรวงเกษตรและสหกรณ์",
        "เรื่อง หลักเกณฑ์และวิธีการในการผลิต การนำเข้า การส่งออก และการมีไว้ในครอบครอง",
        "ซึ่งวัตถุอันตรายที่กรมวิชาการเกษตรเป็นผู้รับผิดชอบ (ฉบับที่ ๒) พ.ศ. ๒๕๕๐"
      ]
    ],
    []
  ],
  "metadata": {
    "date_backmatter": "2550-11-12",
    "date_modified": "2550-11-22",
    "date_original": "2550-11-22",
    "doctype": "ประกาศ",
    "editors": [
      {
        "name": "วัชศักดิ์",
        "role": "ผู้จัดทำ",
        "date": "2550-11-26"
      }
    ],
    "tag": "c703-2e-2550-a0013"
  }
}