{
  "pages": [
    [
      [
        "ประกาศกระทรวงอุตสาหกรรม",
        "เรื่อง บัญชีรายชื่อวัตถุอันตราย (ฉบับที่ ๓)",
        "พ.ศ. ๒๕๕๙"
      ]
    ],
    []
  ],
  "metadata": {
    "date_backmatter": "2559-12-14",
    "date_modified": "2560-01-12",
    "date_original": "2560-01-12",
    "doctype": "ประกาศ",
    "editors": [
      {
        "name": "วริญา/ปริยานุช",
        "role": "จัดทำ",
        "date": "2560-01-16"
      },
      {
        "name": "นุสรา",
        "role": "ตรวจ",
        "date": "2560-02-28"
      }
    ],
    "tag": "c703-2e-2560-a0002"
  }
}