{
  "pages": [
    [
      [
        "ระเบียบกองทัพเรือ",
        "ว่าด้วยการใช้มาตรการบังคับทางปกครองโดยการยึดหรืออายัด",
        "และขายทอดตลาดทรัพย์สินของผู้ต้องชดใช้เงิน",
        "พ.ศ. ๒๕๕๘"
      ]
    ],
    []
  ],
  "metadata": {
    "date_backmatter": "2558-11-12",
    "date_modified": "2558-12-28",
    "date_original": "2558-12-28",
    "editors": [
      {
        "name": "ปุณิกา/ปริยานุช",
        "role": "จัดทำ",
        "date": "2559-01-07"
      }
    ],
    "tag": "a468-2g-2558-a0002"
  }
}