{
  "pages": [
    [
      [
        "พระราชกฤษฎีกา",
        "กำหนดหน่วยงานของรัฐตามพระราชบัญญัติ",
        "ความรับผิดทางละเมิดของเจ้าหน้าที่ พ.ศ. ๒๕๓๙ (ฉบับที่ ๒๒)",
        "พ.ศ. ๒๕๕๕",
        "",
        "",
        "ภูมิพลอดุลยเดช ป.ร.",
        "ให้ไว้ ณ วันที่ ๒๒ มิถุนายน พ.ศ. ๒๕๕๕",
        "เป็นปีที่ ๖๗ ในรัชกาลปัจจุบัน"
      ]
    ],
    []
  ],
  "metadata": {
    "date_header": "2555-06-22",
    "date_modified": "2555-06-29",
    "date_original": "2555-06-29",
    "doctype": "พระราชกฤษฎีกา",
    "editors": [
      {
        "name": "ปริยานุช",
        "role": "ผู้จัดทำ",
        "date": "2555-07-02"
      },
      {
        "name": "ปณตภร",
        "role": "ผู้ตรวจ",
        "date": "2555-07-03"
      }
    ],
    "tag": "a468-2a-2555-a0003",
    "title": "กำหนดหน่วยงานของรัฐตามพระราชบัญญัติความรับผิดทางละเมิดของเจ้าหน้าที่ พ.ศ. ๒๕๓๙ (ฉบับที่ ๒๒)"
  }
}