{
  "pages": [
    [
      [
        "กฎกระทรวง",
        "ฉบับที่ ๘ (พ.ศ. ๒๕๔๓)",
        "ออกตามความในพระราชบัญญัติน้ำบาดาล",
        "พ.ศ. ๒๕๒๐"
      ]
    ],
    []
  ],
  "metadata": {
    "date_backmatter": "2543-07-28",
    "date_modified": "2543-07-31",
    "date_original": "2543-07-31",
    "doctype": "กฎกระทรวง",
    "editors": [
      {
        "name": "นันทพล",
        "role": "ปรับปรุง",
        "date": "2549-11-24"
      },
      {
        "name": "ปริญสินีย์",
        "role": "ปรับปรุง",
        "date": "2556-04-22"
      }
    ],
    "tag": "b905-2b-2543-a0001"
  }
}