{
  "pages": [
    [
      [
        "ระเบียบกรมทรัพยากรน้ำบาดาล",
        "ว่าด้วยการดำเนินการเกี่ยวกับคำขอรับใบอนุญาต การออกใบอนุญาต",
        "การต่ออายุใบอนุญาต การโอนใบอนุญาต การออกใบแทนใบอนุญาต",
        "และการแก้ไขใบอนุญาตประกอบกิจการน้ำบาดาล",
        "พ.ศ. ๒๕๕๐"
      ]
    ],
    []
  ],
  "metadata": {
    "date_backmatter": "2550-09-28",
    "date_modified": "2552-10-14",
    "date_original": "2550-11-21",
    "editors": [
      {
        "name": "ปริญสินีย์",
        "role": "จัดทำ",
        "date": "2556-04-26"
      },
      {
        "name": "ชุติมา",
        "role": "ปรับปรุง",
        "date": "2560-06-26"
      }
    ],
    "tag": "b905-2g-9999-update"
  }
}