{
  "pages": [
    [
      [
        "ประกาศกระทรวงอุตสาหกรรม",
        "ฉบับที่ ๕ (พ.ศ. ๒๕๒๑)",
        "ออกตามความในพระราชบัญญัติน้ำบาดาล พ.ศ. ๒๕๒๐",
        "เรื่อง กำหนดหลักเกณฑ์และมาตรการในทางวิชาการ",
        "สำหรับการระบายน้ำลงบ่อน้ำบาดาล"
      ]
    ],
    []
  ],
  "metadata": {
    "date_backmatter": "2521-05-31",
    "date_modified": "2521-06-27",
    "date_original": "2521-06-27",
    "doctype": "ประกาศ",
    "editors": [
      {
        "name": "พรพิมล",
        "role": "พิมพ์",
        "date": "2544-07-09"
      },
      {
        "name": "นันทพล",
        "role": "ปรับปรุง",
        "date": "2549-11-27"
      },
      {
        "name": "ปริญสินีย์",
        "role": "ปรับปรุง",
        "date": "2556-04-26"
      }
    ],
    "tag": "b905-2e-2521-005"
  }
}