{
  "pages": [
    [
      [
        "กฎกระทรวง",
        "ฉบับที่ ๕ (พ.ศ. ๒๕๓๗)",
        "ออกตามความในพระราชบัญญัติน้ำบาดาล",
        "พ.ศ. ๒๕๒๐"
      ]
    ],
    []
  ],
  "metadata": {
    "date_backmatter": "2537-03-25",
    "date_modified": "2556-07-12",
    "date_original": "2537-04-08",
    "doctype": "กฎกระทรวง",
    "editors": [
      {
        "name": "เอกฤทธิ์",
        "role": "ผู้จัดทำ",
        "date": "2556-10-28"
      }
    ],
    "tag": "b905-2b-9996-update"
  }
}