{
  "pages": [
    [
      [
        "ข้อบัญญัติองค์การบริหารส่วนตำบลหนองกุง",
        "เรื่อง การขุดเจาะบ่อน้ำบาดาล",
        "พ.ศ. ๒๕๕๘"
      ]
    ],
    []
  ],
  "metadata": {
    "date_backmatter": "2558-04-09",
    "date_modified": "2558-10-21",
    "date_original": "2558-10-21",
    "editors": [
      {
        "name": "ปริยานุช",
        "role": "จัดทำ",
        "date": "2558-10-26"
      },
      {
        "name": "วริญา",
        "role": "ตรวจ",
        "date": "2558-10-26"
      }
    ],
    "tag": "b905-2j-2558-a0002"
  }
}