{
  "pages": [
    [
      [
        "ระเบียบกระทรวงทรัพยากรธรรมชาติและสิ่งแวดล้อม",
        "ว่าด้วยหลักเกณฑ์ วิธีการ และเงื่อนไขในการพิจารณา",
        "ออกใบอนุญาตและต่ออายุใบอนุญาตประกอบกิจการน้ำบาดาล",
        "พ.ศ. ๒๕๖๐"
      ]
    ],
    []
  ],
  "metadata": {
    "date_backmatter": "2560-02-02",
    "date_modified": "2560-02-17",
    "date_original": "2560-02-17",
    "editors": [
      {
        "name": "ปริยานุช",
        "role": "จัดทำ",
        "date": "2560-02-20"
      },
      {
        "name": "วริญา",
        "role": "ตรวจ",
        "date": "2560-03-10"
      }
    ],
    "tag": "b905-2g-2560-a0001"
  }
}