{
  "pages": [
    [
      [
        "กฎกระทรวง",
        "ฉบับที่ ๓ (พ.ศ. ๒๕๒๑)",
        "ออกตามความในพระราชบัญญัติน้ำบาดาล",
        "พ.ศ. ๒๕๒๐"
      ]
    ],
    []
  ],
  "metadata": {
    "date_backmatter": "2521-05-31",
    "date_modified": "2521-06-27",
    "date_original": "2521-06-27",
    "doctype": "กฎกระทรวง",
    "editors": [
      {
        "name": "นันทพล",
        "role": "ปรับปรุง",
        "date": "2549-11-24"
      },
      {
        "name": "ปริญสินีย์",
        "role": "ปรับปรุง",
        "date": "2556-04-22"
      }
    ],
    "tag": "b905-2b-2521-003"
  }
}