{
  "pages": [
    [
      [
        "กฎกระทรวง",
        "ว่าด้วยค่าธรรมเนียมและการยกเว้นค่าธรรมเนียมเกี่ยวกับมูลนิธิ",
        "พ.ศ. ๒๕๔๕"
      ]
    ],
    []
  ],
  "metadata": {
    "date_backmatter": "2545-07-30",
    "date_modified": "2545-09-30",
    "date_original": "2545-09-30",
    "doctype": "กฎกระทรวง",
    "editors": [
      {
        "name": "ปัทมา",
        "role": "จัดทำ",
        "date": "2553-11-20"
      },
      {
        "name": "พัสสน",
        "role": "ผู้ตรวจ",
        "date": "2553-01-11"
      },
      {
        "name": "ชวัลพร",
        "role": "ปรับปรุง",
        "date": "2558-03-25"
      }
    ],
    "tag": "bb03-2b-2545-a0002"
  }
}