{
  "pages": [
    [
      [
        "ระเบียบกรมพัฒนาธุรกิจการค้า",
        "ว่าด้วย เงินวางประกันค่าใช้จ่ายในการตรวจการงานของบริษัทจำกัด",
        "และตรวจสอบบริษัทมหาชนจำกัด",
        "พ.ศ. ๒๕๔๙"
      ]
    ],
    []
  ],
  "metadata": {
    "date_backmatter": "2549-09-27",
    "date_modified": "2549-11-15",
    "date_original": "2549-11-15",
    "editors": [
      {
        "name": "ปัทมา",
        "role": "จัดทำ",
        "date": "2553-11-09"
      },
      {
        "name": "พัสสน",
        "role": "ผู้ตรวจ",
        "date": "2553-01-11"
      }
    ],
    "tag": "bb03-2g-2549-a0002"
  }
}