{
  "pages": [
    [
      [
        "คำสั่งสำนักงานทะเบียนหุ้นส่วนบริษัทกลาง",
        "ที่ ๓๘/๒๕๕๘",
        "เรื่อง กำหนดหลักเกณฑ์และเอกสารประกอบคำขอจดทะเบียนจัดตั้งและแก้ไขเพิ่มเติมห้างหุ้นส่วนหรือบริษัทจำกัด",
        "ที่มีวัตถุที่ประสงค์ประกอบกิจการตัวแทนจำหน่ายสลากกินแบ่งรัฐบาล"
      ]
    ],
    []
  ],
  "metadata": {
    "date_backmatter": "2558-02-20",
    "date_modified": "2558-02-25",
    "date_original": "2558-02-25",
    "editors": [
      {
        "name": "ปริยานุช",
        "role": "ผู้จัดทำ",
        "date": "2558-03-03"
      },
      {
        "name": "วิศนี",
        "role": "ผู้ตรวจ",
        "date": "2558-03-10"
      }
    ],
    "tag": "bb03-2f-2558-a0002"
  }
}