{
  "pages": [
    [
      [
        "กฎกระทรวง",
        "จัดตั้งสำนักงานทะเบียนหุ้นส่วนบริษัท แต่งตั้งนายทะเบียน",
        "และกำหนดหลักเกณฑ์และวิธีการในการจดทะเบียนห้างหุ้นส่วนและบริษัทจำกัด",
        "พ.ศ. ๒๕๔๙"
      ]
    ],
    []
  ],
  "metadata": {
    "date_backmatter": "2549-05-08",
    "date_modified": "2553-06-02",
    "date_original": "2549-05-22",
    "doctype": "กฎกระทรวง",
    "editors": [
      {
        "name": "ปัทมา",
        "role": "จัดทำ",
        "date": "2553-11-12"
      },
      {
        "name": "พัสสน",
        "role": "ผู้ตรวจ",
        "date": "2554-01-11"
      }
    ],
    "tag": "bb03-2b-2553-a0002"
  }
}