{
  "pages": [
    [
      [
        "ประมวลกฎหมายแพ่งและพาณิชย์",
        "",
        "",
        "ศุภมัสดุ พระพุทธศาสนกาลเป็นอดีตภาค 2466 พรรษา ปัตยุบันกาลสุกรสังวัจฉร เอกาทศมทิน พฤศจิกายนมาส อาทิตยวาร กาลกำหนด",
        "พระบาทสมเด็จพระรามาธิบดี ศรีสินทรมหาวชิราวุธ เอกอรรคมหาบุรุษบรมนราธิราช พินิตประชานารถมหาสมมตวงศ อติศัยพงศวิมลรัตน วรขัตติยราชนิกโรดม จาตุรันตบรมมหาจักรพรรดิราชสังกาศ อุภโตสุชาตสังสุทธเคราะหณีจักรีบรมนารถ จุฬาลงกรณราชวรางกูร บรมมกุฎนเรนทรสูรสันตติวงศวิสิษฐสุสาธิตบุรพาธิการ อดุลยกฤษฎาภินิหารอดิเรกบุญฤทธิ ธัญลักษณวิจิตรโสภาคยสรรพางค มหาชโนต ตะมางคประณตบาทบงกชยุคล ประสิทธิสรรพศุภผล อุดมบรมสุขุมาลย ทิพยเทพาวตารไพศาลเกียรติ คุณอดุลยพิเศษ สรรพเทเวศรานุรักษบุริมศักดิสมญาเทพทวาราวดี ศรีมหาบุรุษสุตสมบัติ เสนางคนิกรรัตนอัศวโกศลประพนธปรีชามัทวสมาจาร บริบูรณคุณสารสยามาทินคร วรุตเมกราชดิลกมหาปริวารนายก อนันตมหันตวรฤทธิเดช สรรพวิเศษศิรินทร บรมชนกาดิศรสมมตประสิทธิวรยศมโหดม บรมราชสมบัตินพปฎลเสวตรฉัตร ศิริรัตโนปลักษณมหาบรมราชาภิเศกาภิสิต สรรพทศทิศวิชิตไชย สกลไหศวริยมหาสวามินทร มเหศวรมหินทรมหารามาธิราชวโรดม บรมนารถชาติอาชาวไศรย พุทธาทิไตรรัตนสรณารักษ",
        "อดุลยศักดิอรรคนเรศราธิบดี เมตตากรุณาสีตลหฤไทย อโนปไมยบุญการ สกลไพศาลมหารัษฎาธิเบนทร ปรเมนทรธรรมิกมหาราชาธิราช บรมรารถบพิตรพระมงกุฎเกล้าเจ้าอยู่หัว",
        "ทรงพระราชดำริห์ว่า กฎหมายแพ่งและพาณิชย์ที่ใช้อยู่เวลานี้ยังกระจัดกระจายอยู่หลายแห่ง สมควรจะนำมารวมรวมไว้แห่งเดียวกัน และจัดเข้าเป็นหมวดหมู่ เพื่อให้สมแก่กาลสมัย ความเจริญและพาณิชยกรรมแห่งบ้านเมือง และความสัมพันธ์กับนานาประเทศ",
        "ส่วนหลักกฎหมายแพ่งและพาณิชย์ ซึ่งศาลยุติธรรมได้เคยยกขึ้นปรับสัตย์ตัดสินคดีเนือง ๆ มา โดยธรรมเนียมประเพณีอันควรแก่ยุติธรรมนั้น สมควรจะบัญญัติไว้ให้เป็นหลักฐาน และกิจการบางอย่างในส่วนแพ่งและพาณิชย์ ซึ่งไม่มีในกฎหมายที่ใช้อยู่ ณ บัดนี้ ก็ควรจะบัญญัติขึ้นไว้ด้วย",
        "และทรงพระราชดำริว่า ทางที่จะให้ถึงซึ่งผลอันนี้ ควรจะประมวลและบัญญัติบทกฎหมายที่กล่าวแล้ว เข้าเป็นประมวลกฎหมายแพ่งและพาณิชย์ตามแบบอย่างซึ่งประเทศอื่น ๆ ได้ทำมา",
        "อนึ่ง ทรงพระราชดำริว่า การชำระประมวลกฎหมายซึ่งทำอยู่ ณ บัดนี้ ได้ดำเนินไปมากแล้ว สมควรจะประกาศให้ใช้ประมวลกฎหมายแพ่งและพาณิชย์ส่วนที่สำคัญและเป็นประโยชน์ตอนหนึ่งก่อนได้ ส่วนอื่น ๆ เมื่อสำเร็จบริบูรณ์จะได้ประกาศให้ใช้เพิ่มเติมในภายหลัง",
        "*",
        "“ข้อความเบื้องต้น",
        "",
        "มาตรา 1 กฎหมายนี้ให้เรียกว่า “ประมวลกฎหมายแพ่งและพาณิชย์”",
        "มาตรา 2 ให้ใช้ประมวลกฎหมายนี้ตั้งแต่วันที่ 1 เดือนมกราคม พระพุทธศักราช 2468 เป็นต้นไป",
        "",
        "มาตรา 3 ตั้งแต่วันที่ใช้ประมวลกฎหมายนี้สืบไป ให้ยกเลิกบรรดากฎหมาย กฎ และข้อบังคับอื่น ๆ ในส่วนที่มีบัญญัติไว้แล้วในประมวลกฎหมายนี้ หรือซึ่งแย้งกับบทแห่งประมวลกฎหมายนี้"
      ]
    ],
    []
  ],
  "metadata": {
    "date_header": "2468-01-00",
    "editors": [],
    "tag": "bb03-20-2533-010u"
  }
}