{
  "pages": [
    [
      [
        "กฎกระทรวง",
        "ฉบับที่ ๑๑ (พ.ศ. ๒๕๔๒)",
        "ออกตามความในพระราชบัญญัติเครื่องแบบเจ้าหน้าที่ส่วนท้องถิ่น",
        "พ.ศ. ๒๕๐๙"
      ]
    ],
    []
  ],
  "metadata": {
    "date_backmatter": "2542-11-26",
    "date_modified": "2546-04-01",
    "date_original": "2542-12-09",
    "doctype": "กฎกระทรวง",
    "editors": [
      {
        "name": "สุกัญญา",
        "role": "ผู้จัดทำ",
        "date": "2553-11-12"
      },
      {
        "name": "ปณต",
        "role": "ปรับปรุง",
        "date": "2553-11-15"
      },
      {
        "name": "วิมล",
        "role": "ปรับปรุง",
        "date": "2557-03-03"
      }
    ],
    "tag": "a438-2b-2546-a0002"
  }
}