{
  "pages": [
    [
      [
        "ประกาศ",
        "แก้ประกาศตั้งกรรมการศาลทหาร",
        "ลงวันที่ ๑๒ ตุลาคม พุทธศักราช ๒๔๗๖"
      ]
    ],
    []
  ],
  "metadata": {
    "date_backmatter": "2476-10-17",
    "date_header": "2476-10-12",
    "date_modified": "2476-10-17",
    "date_original": "2476-10-17",
    "doctype": "ประกาศ",
    "editors": [
      {
        "name": "สุกัญญา",
        "role": "ผู้จัดทำ",
        "date": "2553-04-08"
      },
      {
        "name": "พุฒิพงษ์",
        "role": "ตรวจ",
        "date": "2553-04-30"
      }
    ],
    "tag": "a103-2e-2476-005"
  }
}