{
  "pages": [
    [
      [
        "ประกาศคณะรักษาความสงบแห่งชาติ",
        "ฉบับที่ ๓/๒๕๕๗",
        "เรื่อง ห้ามออกนอกเคหะสถาน"
      ]
    ],
    []
  ],
  "metadata": {
    "date_backmatter": "2557-05-22",
    "date_modified": "2557-05-26",
    "date_original": "2557-05-26",
    "doctype": "ประกาศ",
    "editors": [
      {
        "name": "ปริยานุช",
        "role": "ผู้จัดทำ",
        "date": "2557-05-29"
      },
      {
        "name": "พจนา",
        "role": "ผู้ตรวจ",
        "date": "2557-06-20"
      }
    ],
    "tag": "a103-2e-2557-a0011"
  }
}