{
  "pages": [
    [
      [
        "ประกาศคณะรักษาความสงบแห่งชาติ",
        "ฉบับที่ ๔๐/๒๕๕๗",
        "เรื่อง การกำหนดเงื่อนไขการปล่อยตัวของบุคคลที่ถูกกักตัวตามพระราชบัญญัติกฎอัยการศึก",
        "พระพุทธศักราช ๒๔๕๗ มาตรา ๑๕ ทวิ"
      ]
    ],
    []
  ],
  "metadata": {
    "date_backmatter": "2557-05-25",
    "date_modified": "2557-05-30",
    "date_original": "2557-05-30",
    "doctype": "ประกาศ",
    "editors": [
      {
        "name": "ปริยานุช",
        "role": "ผู้จัดทำ",
        "date": "2557-06-02"
      },
      {
        "name": "พจนา",
        "role": "ผู้ตรวจ",
        "date": "2557-07-02"
      }
    ],
    "tag": "a103-2e-2557-a0015"
  }
}