{
  "pages": [
    [
      [
        "ข้อบังคับ",
        "ออกตามความในกฎอัยการศึก พุทธศักราช ๒๔๕๗",
        "(ฉบับที่ ๙)"
      ]
    ],
    []
  ],
  "metadata": {
    "date_backmatter": "2487-05-19",
    "date_modified": "2487-05-30",
    "date_original": "2487-05-30",
    "editors": [
      {
        "name": "สุกัญญา",
        "role": "ผู้จัดทำ",
        "date": "2553-04-09"
      },
      {
        "name": "นฤดล",
        "role": "ตรวจ",
        "date": "2553-11-15"
      }
    ],
    "tag": "a103-2i-2487-009"
  }
}