{
  "pages": [
    [
      [
        "ประกาศคณะรักษาความสงบแห่งชาติ",
        "ฉบับที่ ๔๒/๒๕๕๗",
        "เรื่อง แก้ไขห้วงเวลาห้ามออกนอกเคหะสถาน"
      ]
    ],
    []
  ],
  "metadata": {
    "date_backmatter": "2557-05-26",
    "date_modified": "2557-05-30",
    "date_original": "2557-05-30",
    "doctype": "ประกาศ",
    "editors": [
      {
        "name": "ปริยานุช",
        "role": "ผู้จัดทำ",
        "date": "2557-06-02"
      },
      {
        "name": "พจนา",
        "role": "ผู้ตรวจ",
        "date": "2557-07-02"
      }
    ],
    "tag": "a103-2e-2557-a0016"
  }
}