{
  "pages": [
    [
      [
        "ประกาศพระบรมราชโองการ",
        "แก้ไขเพิ่มเติมการใช้กฎอัยการศึกในบางเขตพื้นที่",
        "",
        "",
        "ภูมิพลอดุลยเดช ป.ร."
      ]
    ],
    []
  ],
  "metadata": {
    "date_backmatter": "2534-12-29",
    "date_modified": "2534-12-30",
    "date_original": "2534-12-30",
    "doctype": "ประกาศ",
    "editors": [
      {
        "name": "สุกัญญา",
        "role": "ผู้จัดทำ",
        "date": "2553-04-08"
      },
      {
        "name": "นฤดล",
        "role": "ตรวจ",
        "date": "2553-11-15"
      }
    ],
    "tag": "a103-2d-2534-a0001"
  }
}