{
  "pages": [
    [
      [
        "ประกาศ",
        "เลิกใช้กฎอัยการศึกในบางเขตพื้นที่",
        "",
        "",
        "ภูมิพลอดุลยเดช ป.ร."
      ]
    ],
    []
  ],
  "metadata": {
    "date_backmatter": "2553-04-28",
    "date_modified": "2553-05-04",
    "date_original": "2553-05-04",
    "doctype": "ประกาศ",
    "editors": [
      {
        "name": "ปริยานุช",
        "role": "ผู้จัดทำ",
        "date": "2553-05-25"
      },
      {
        "name": "นฤดล",
        "role": "ตรวจ",
        "date": "2553-11-15"
      },
      {
        "name": "จุฑามาศ",
        "role": "ปรับปรุง",
        "date": "2558-09-10"
      }
    ],
    "tag": "a103-2e-2553-a0001"
  }
}