{
  "pages": [
    [
      [
        "ประกาศของคณะปฏิวัติ",
        "ฉบับที่ ๑"
      ]
    ],
    []
  ],
  "metadata": {
    "date_backmatter": "2514-11-17",
    "date_modified": "2514-11-18",
    "date_original": "2514-11-18",
    "doctype": "ประกาศ",
    "editors": [
      {
        "name": "สุกัญญา",
        "role": "ผู้จัดทำ",
        "date": "2553-04-09"
      },
      {
        "name": "นฤดล",
        "role": "ตรวจ",
        "date": "2553-11-15"
      }
    ],
    "tag": "a103-2l-2514-a0001"
  }
}