{
  "pages": [
    [
      [
        "ประกาศกระทรวงสาธารณสุข",
        "เรื่อง การประกาศกำหนดตำราการแพทย์แผนไทยของชาติและตำรับยาแผนไทยของชาติ",
        "(ฉบับที่ ๑๗)",
        "พ.ศ. ๒๕๖๑"
      ]
    ],
    []
  ],
  "metadata": {
    "date_backmatter": "2561-04-18",
    "date_modified": "2561-06-05",
    "date_original": "2561-06-05",
    "doctype": "ประกาศ",
    "editors": [
      {
        "name": "ปวันวิทย์",
        "role": "จัดทำ",
        "date": "2561-07-02"
      }
    ],
    "tag": "a483-2e-2561-a0005"
  }
}