{
  "pages": [
    [
      [
        "ประกาศกระทรวงสาธารณสุข",
        "เรื่อง การประกาศกำหนดตำราการแพทย์แผนไทยของชาติและตำรับยาแผนไทยของชาติ",
        "(ฉบับที่ ๓)",
        "พ.ศ. ๒๕๕๙"
      ]
    ],
    []
  ],
  "metadata": {
    "date_backmatter": "2559-03-30",
    "date_modified": "2559-04-22",
    "date_original": "2559-04-22",
    "doctype": "ประกาศ",
    "editors": [
      {
        "name": "วิศนี/ปริยานุช",
        "role": "จัดทำ",
        "date": "2559-05-19"
      }
    ],
    "tag": "a483-2e-2559-a0002"
  }
}