{
  "pages": [
    [
      [
        "กฎกระทรวง",
        "การขอขึ้นทะเบียน การออกใบสำคัญการขึ้นทะเบียน และการเพิกถอน",
        "การขึ้นทะเบียนที่ดินที่เป็นถิ่นกำเนิดของสมุนไพรหรือที่จะใช้ปลูกสมุนไพร",
        "พ.ศ. ๒๕๖๑"
      ]
    ],
    []
  ],
  "metadata": {
    "date_backmatter": "2561-04-29",
    "date_modified": "2561-05-18",
    "date_original": "2561-05-18",
    "doctype": "กฎกระทรวง",
    "editors": [
      {
        "name": "ปุณิกา",
        "role": "จัดทำ",
        "date": "2561-08-28"
      }
    ],
    "tag": "a483-2b-2561-a0001"
  }
}