{
  "pages": [
    [
      [
        "ประกาศกรมการแพทย์แผนไทยและการแพทย์ทางเลือก",
        "เรื่อง แบบคำขอรับอนุญาตใช้ประโยชน์จากตำรับยาแผนไทยของชาติหรือ",
        "ตำราการแพทย์แผนไทยของชาติ"
      ]
    ],
    []
  ],
  "metadata": {
    "date_backmatter": "2560-09-28",
    "date_modified": "2560-11-07",
    "date_original": "2560-11-07",
    "doctype": "ประกาศ",
    "editors": [
      {
        "name": "ภวรรณตรี",
        "role": "จัดทำ",
        "date": "2560-11-15"
      },
      {
        "name": "พัชรภรณ์",
        "role": "ตรวจ",
        "date": "2560-11-15"
      }
    ],
    "tag": "a483-2e-2560-a0011"
  }
}