{
  "pages": [
    [
      [
        "พระราชบัญญัติ",
        "ราชองครักษ์",
        "พุทธศักราช ๒๔๘๐",
        "",
        "",
        "ในพระปรมาภิไธยสมเด็จพระเจ้าอยู่หัวอานันทมหิดล",
        "คณะผู้สำเร็จราชการแทนพระองค์",
        "(ตามประกาศประธานสภาผู้แทนราษฎร",
        "ลงวันที่ ๔ สิงหาคม พุทธศักราช ๒๔๘๐)",
        "อาทิตย์ทิพอาภา",
        "เจ้าพระยายมราช",
        "พล.อ. เจ้าพระยาพิชเยนทรโยธิน",
        "ตราไว้ ณ วันที่ ๑ กุมภาพันธ์ พุทธศักราช ๒๔๘๐",
        "เป็นปีที่ ๔ ในรัชกาลปัจจุบัน"
      ]
    ],
    []
  ],
  "metadata": {
    "date_header": "2480-08-04",
    "date_modified": "2521-08-17",
    "date_original": "2480-02-07",
    "doctype": "พระราชบัญญัติ",
    "editors": [
      {
        "name": "สุกัญญา",
        "role": "ผู้จัดทำ",
        "date": "2553-11-24"
      },
      {
        "name": "พัชรินทร์",
        "role": "ปรับปรุง",
        "date": "2554-01-20"
      }
    ],
    "tag": "c320-20-9999-update",
    "title": "ราชองครักษ์"
  }
}