{
  "pages": [
    [
      [
        "พระราชบัญญัติ",
        "ยกเลิกพระราชบัญญัติการซื้อขายสินค้าเกษตรล่วงหน้า พ.ศ. ๒๕๔๒",
        "พ.ศ. ๒๕๕๘",
        "",
        "",
        "ภูมิพลอดุลยเดช ป.ร.",
        "ให้ไว้ ณ วันที่ ๓๑ ตุลาคม พ.ศ. ๒๕๕๘",
        "เป็นปีที่ ๗๐ ในรัชกาลปัจจุบัน"
      ]
    ],
    []
  ],
  "metadata": {
    "date_header": "2558-10-31",
    "date_modified": "2558-11-05",
    "date_original": "2558-11-05",
    "doctype": "พระราชบัญญัติ",
    "editors": [
      {
        "name": "ปริยานุช/กัญฑรัตน์",
        "role": "จัดทำ",
        "date": "2558-11-09"
      },
      {
        "name": "ปัญญา",
        "role": "ตรวจ",
        "date": "2558-11-10"
      }
    ],
    "tag": "c222-20-2558-a0001",
    "title": "ยกเลิกพระราชบัญญัติการซื้อขายสินค้าเกษตรล่วงหน้า พ.ศ. ๒๕๔๒"
  }
}