{
  "pages": [
    [
      [
        "พระราชกฤษฎีกา",
        "ว่าด้วยปริญญา อักษรย่อปริญญา ครุยวิทยฐานะ",
        "และเข็มวิทยฐานะ ของสถาบันบัณฑิตพัฒนบริหารศาสตร์",
        "พ.ศ. ๒๕๑๒",
        "",
        "",
        "ภูมิพลอดุลยเดช ป.ร.",
        "ให้ไว้ ณ วันที่ ๒๘ พฤษภาคม พ.ศ. ๒๕๑๒",
        "เป็นปีที่ ๒๔ ในรัชกาลปัจจุบัน"
      ]
    ],
    []
  ],
  "metadata": {
    "date_header": "2512-05-28",
    "date_modified": "2549-05-26",
    "date_original": "2512-06-17",
    "doctype": "พระราชกฤษฎีกา",
    "editors": [
      {
        "name": "มณฑิตา",
        "role": "ผู้จัดทำ",
        "date": "2553-12-28"
      },
      {
        "name": "วิภา",
        "role": "ตรวจ",
        "date": "2554-05-24"
      }
    ],
    "tag": "ca15-2a-2549-a0002",
    "title": "ว่าด้วยปริญญา อักษรย่อปริญญา ครุยวิทยฐานะและเข็มวิทยฐานะ ของสถาบันบัณฑิตพัฒนบริหารศาสตร์"
  }
}