{
  "pages": [
    [
      [
        "ประกาศคณะกรรมการป้องกันและปราบปราม",
        "การทุจริตแห่งชาติ",
        "เรื่อง กำหนดแบบสัญญาจัดการหุ้นส่วนหรือหุ้นของรัฐมนตรี"
      ]
    ],
    []
  ],
  "metadata": {
    "date_backmatter": "2543-10-27",
    "date_modified": "2543-11-02",
    "date_original": "2543-11-02",
    "doctype": "ประกาศ",
    "editors": [
      {
        "name": "วิมล",
        "role": "ปรับปรุง",
        "date": "2556-08-13"
      },
      {
        "name": "วิชพงษ์",
        "role": "ตรวจ",
        "date": "2556-08-15"
      }
    ],
    "tag": "a1106-2e-2543-a0001"
  }
}