{
  "pages": [
    [
      [
        "ประกาศสำนักงานศาลรัฐธรรมนูญ",
        "เรื่อง ผลแห่งคำวินิจฉัยของศาลรัฐธรรมนูญ"
      ]
    ],
    []
  ],
  "metadata": {
    "date_backmatter": "2562-02-14",
    "date_modified": "2562-02-21",
    "date_original": "2562-02-21",
    "doctype": "ประกาศ",
    "editors": [
      {
        "name": "พิไลภรณ์",
        "role": "ผู้จัดทำ",
        "date": "2562-02-27"
      },
      {
        "name": "วิชพงษ์",
        "role": "ผู้ตรวจ",
        "date": "2562-02-27"
      }
    ],
    "tag": "ca56-2e-2562-a0001"
  }
}