{
  "pages": [
    [
      [
        "ระเบียบศาลรัฐธรรมนูญ",
        "ว่าด้วยการแต่งตั้งที่ปรึกษาประธานศาลรัฐธรรมนูญ",
        "และตุลาการศาลรัฐธรรมนูญ",
        "พ.ศ. ๒๕๕๑"
      ]
    ],
    []
  ],
  "metadata": {
    "date_backmatter": "2551-06-26",
    "date_modified": "2552-05-26",
    "date_original": "2551-07-01",
    "editors": [
      {
        "name": "เอกฤทธิ์",
        "role": "ผู้จัดทำ",
        "date": "2554-02-24"
      }
    ],
    "tag": "ca56-2g-2552-a0008"
  }
}