{
  "pages": [
    [
      [
        "พระราชบัญญัติ",
        "สำนักงานศาลรัฐธรรมนูญ",
        "พ.ศ. ๒๕๔๒",
        "",
        "",
        "ภูมิพลอดุลยเดช ป.ร.",
        "ให้ไว้ ณ วันที่ ๕ เมษายน พ.ศ. ๒๕๔๒",
        "เป็นปีที่ ๕๔ ในรัชกาลปัจจุบัน"
      ]
    ],
    []
  ],
  "metadata": {
    "date_header": "2542-04-05",
    "date_modified": "2562-03-20",
    "date_original": "2542-04-08",
    "doctype": "พระราชบัญญัติ",
    "editors": [
      {
        "name": "วันทิตา",
        "role": "แก้ไข",
        "date": "2556-11-12"
      },
      {
        "name": "วศิน",
        "role": "ตรวจ",
        "date": "2556-11-12"
      },
      {
        "name": "พิไลภรณ์",
        "role": "เพิ่มเติม",
        "date": "2562-03-21"
      },
      {
        "name": "พิวัฒน์",
        "role": "ตรวจ",
        "date": "2562-03-21"
      }
    ],
    "tag": "ca56-20-9999-update",
    "title": "สำนักงานศาลรัฐธรรมนูญ"
  }
}