{
  "pages": [
    [
      [
        "ประกาศสำนักงานศาลรัฐธรรมนูญ",
        "เรื่อง ศาลรัฐธรรมนูญมีคำวินิจฉัยว่าบทบัญญัติแห่งกฎหมายขัดหรือแย้งต่อรัฐธรรมนูญ"
      ]
    ],
    []
  ],
  "metadata": {
    "date_backmatter": "2559-06-02",
    "date_modified": "2559-06-06",
    "date_original": "2559-06-06",
    "doctype": "ประกาศ",
    "editors": [
      {
        "name": "วิชพงษ์",
        "role": "จัดทำ",
        "date": "2559-06-07"
      }
    ],
    "tag": "ca56-2e-2559-a0001"
  }
}