{
  "pages": [
    [
      [
        "ระเบียบศาลรัฐธรรมนูญ",
        "ว่าด้วยการแต่งตั้งที่ปรึกษา เลขานุการ และผู้เชี่ยวชาญ",
        "ประจำประธานศาลรัฐธรรมนูญ และตุลาการศาลรัฐธรรมนูญ (ฉบับที่ ๒)",
        "พ.ศ. ๒๕๔๙"
      ]
    ],
    []
  ],
  "metadata": {
    "date_backmatter": "2549-02-22",
    "date_modified": "2549-03-20",
    "date_original": "2549-03-20",
    "editors": [
      {
        "name": "เอกฤทธิ์",
        "role": "ผู้จัดทำ",
        "date": "2554-02-22"
      }
    ],
    "tag": "ca56-2g-2549-a0002"
  }
}