{
  "pages": [
    [
      [
        "ระเบียบศาลรัฐธรรมนูญ",
        "ว่าด้วยหลักเกณฑ์และวิธีการจ่ายเบี้ยประชุมกรรมการและอนุกรรมการ",
        "พ.ศ. ๒๕๖๑"
      ]
    ],
    []
  ],
  "metadata": {
    "date_backmatter": "2561-06-05",
    "date_modified": "2561-06-20",
    "date_original": "2561-06-20",
    "editors": [
      {
        "name": "พิมพ์มาดา",
        "role": "จัดทำ",
        "date": "2561-08-09"
      }
    ],
    "tag": "ca56-2g-2561-a0006"
  }
}