{
  "pages": [
    [
      [
        "ระเบียบศาลรัฐธรรมนูญ",
        "ว่าด้วยการแต่งตั้งผู้เชี่ยวชาญประจำประธานศาลรัฐธรรมนูญ",
        "และตุลาการศาลรัฐธรรมนูญ (ฉบับที่ ๓)",
        "พ.ศ. ๒๕๕๔"
      ]
    ],
    []
  ],
  "metadata": {
    "date_backmatter": "2554-12-01",
    "date_modified": "2554-12-08",
    "date_original": "2554-12-08",
    "editors": [
      {
        "name": "ปริยานุช",
        "role": "ผู้จัดทำ",
        "date": "2554-12-13"
      },
      {
        "name": "ณัฐพร",
        "role": "ผู้ตรวจ",
        "date": "2554-12-13"
      }
    ],
    "tag": "ca56-2g-2554-a0004"
  }
}