{
  "pages": [
    [
      [
        "ประกาศคณะกรรมการการเลือกตั้ง",
        "เรื่อง กำหนดจำนวนเงินค่าใช้จ่ายในการเลือกตั้งของผู้สมัครรับเลือกตั้ง",
        "เป็นสมาชิกสภาผู้แทนราษฎรจังหวัดอุบลราชธานี เขตเลือกตั้งที่ ๑๐",
        "แทนตำแหน่งที่ว่าง"
      ]
    ],
    []
  ],
  "metadata": {
    "date_backmatter": "2545-08-09",
    "date_modified": "2545-08-15",
    "date_original": "2545-08-15",
    "doctype": "ประกาศ",
    "editors": [
      {
        "name": "ปณตภร",
        "role": "ผู้จัดทำ",
        "date": "2554-08-02"
      },
      {
        "name": "เอกฤทธิ์",
        "role": "ผู้ตรวจ",
        "date": "2554-08-02"
      }
    ],
    "tag": "bb34-2e-2545-a0005"
  }
}