{
  "pages": [
    [
      [
        "ประกาศสำนักงานศาลรัฐธรรมนูญ",
        "เรื่อง ผลแห่งคำวินิจฉัยของศาลรัฐธรรมนูญ"
      ]
    ],
    []
  ],
  "metadata": {
    "date_backmatter": "2561-08-01",
    "date_modified": "2561-08-16",
    "date_original": "2561-08-16",
    "doctype": "ประกาศ",
    "editors": [
      {
        "name": "พัชรภรณ์",
        "role": "จัดทำ",
        "date": "2561-12-07"
      }
    ],
    "tag": "bb34-2e-2561-a0001"
  }
}