{
  "pages": [
    [
      [
        "ประกาศนายทะเบียนพรรคการเมือง",
        "เรื่อง แนวทางปฏิบัติสำหรับการจัดสรรเวลาออกอากาศให้แก่พรรคการเมือง",
        "ในการแถลงผลงานของพรรคการเมืองทางสถานีวิทยุกระจายเสียงและสถานีวิทยุโทรทัศน์ของรัฐ",
        "พ.ศ. ๒๕๕๑"
      ]
    ],
    []
  ],
  "metadata": {
    "date_backmatter": "2551-04-29",
    "date_modified": "2551-04-30",
    "date_original": "2551-04-30",
    "doctype": "ประกาศ",
    "editors": [
      {
        "name": "ปณตภร",
        "role": "ผู้จัดทำ",
        "date": "2554-08-02"
      },
      {
        "name": "เอกฤทธิ์",
        "role": "ผู้ตรวจ",
        "date": "2554-08-02"
      }
    ],
    "tag": "bb34-2e-2551-a0005"
  }
}