{
  "pages": [
    [
      [
        "ประกาศคณะกรรมการการเลือกตั้ง",
        "เรื่อง บัญชีรายชื่อภาคและจังหวัด",
        "พ.ศ. ๒๕๖๐"
      ]
    ],
    []
  ],
  "metadata": {
    "date_backmatter": "2560-11-24",
    "date_modified": "2560-11-30",
    "date_original": "2560-11-30",
    "doctype": "ประกาศ",
    "editors": [
      {
        "name": "พิมพ์มาดา/อัญชลี",
        "role": "จัดทำ",
        "date": "2560-12-04"
      }
    ],
    "tag": "bb34-2e-2560-a0001"
  }
}