{
  "pages": [
    [
      [
        "ประกาศคณะกรรมการการเลือกตั้ง",
        "เรื่อง การกำหนดหลักเกณฑ์ วิธีการ เงื่อนไข และจำนวนค่าใช้จ่าย",
        "ในการสนับสนุนพรรคการเมือง ประจำปี ๒๕๕๒",
        "ตามมาตรา ๘๑ แห่งพระราชบัญญัติประกอบรัฐธรรมนูญว่าด้วยพรรคการเมือง พ.ศ. ๒๕๕๐"
      ]
    ],
    []
  ],
  "metadata": {
    "date_backmatter": "2551-09-25",
    "date_modified": "2551-10-02",
    "date_original": "2551-10-02",
    "doctype": "ประกาศ",
    "editors": [
      {
        "name": "ปณตภร",
        "role": "ผู้จัดทำ",
        "date": "2554-08-02"
      },
      {
        "name": "เอกฤทธิ์",
        "role": "ผู้ตรวจ",
        "date": "2554-08-02"
      }
    ],
    "tag": "bb34-2e-2551-a0010"
  }
}