{
  "pages": [
    [
      [
        "ประกาศนายทะเบียนพรรคการเมือง",
        "เรื่อง แนวทางปฏิบัติสำหรับการจัดสรรเวลาออกอากาศให้แก่พรรคการเมือง",
        "ในการแถลงผลงานของพรรคการเมืองทางสถานีวิทยุกระจายเสียงและสถานีวิทยุโทรทัศน์ของรัฐ",
        "พ.ศ. ๒๕๕๖"
      ]
    ],
    []
  ],
  "metadata": {
    "date_backmatter": "2556-01-31",
    "date_modified": "2556-02-13",
    "date_original": "2556-02-13",
    "doctype": "ประกาศ",
    "editors": [
      {
        "name": "ปริยานุช",
        "role": "ผู้จัดทำ",
        "date": "2556-02-14"
      },
      {
        "name": "ณัฐพร",
        "role": "ผู้ตรวจ",
        "date": "2556-02-14"
      }
    ],
    "tag": "bb34-2e-2556-a0001"
  }
}