{
  "pages": [
    [
      [
        "พระราชบัญญัติประกอบรัฐธรรมนูญ",
        "ว่าด้วยพรรคการเมือง",
        "พ.ศ. ๒๕๖๐",
        "",
        "",
        "สมเด็จพระเจ้าอยู่หัวมหาวชิราลงกรณ บดินทรเทพยวรางกูร",
        "ให้ไว้ ณ วันที่ ๓๐ กันยายน พ.ศ. ๒๕๖๐",
        "เป็นปีที่ ๒ ในรัชกาลปัจจุบัน"
      ]
    ],
    []
  ],
  "metadata": {
    "date_header": "2560-09-30",
    "date_modified": "2561-09-14",
    "date_original": "2560-10-07",
    "doctype": "พระราชบัญญัติประกอบรัฐธรรมนูญ",
    "editors": [
      {
        "name": "พัชรภรณ์/อัญชลี",
        "role": "จัดทำ",
        "date": "2560-10-10"
      },
      {
        "name": "ปริญสินีย์",
        "role": "ตรวจ",
        "date": "2560-10-11"
      },
      {
        "name": "พรวิภา",
        "role": "เพิ่มเติม",
        "date": "2560-12-25"
      },
      {
        "name": "วิชพงษ์",
        "role": "ตรวจ",
        "date": "2560-12-26"
      },
      {
        "name": "พิมพ์มาดา",
        "role": "เพิ่มเติม",
        "date": "2561-09-17"
      }
    ],
    "tag": "bb34-20-9997-update",
    "title": "พรรคการเมือง"
  }
}