{
  "pages": [
    [
      [
        "ประกาศคณะกรรมการการเลือกตั้ง",
        "เรื่อง หลักเกณฑ์และวิธีการสนับสนุนค่าไปรษณียากรและค่าสาธารณูปโภค",
        "ให้แก่พรรคการเมือง (ฉบับที่ ๓)",
        "พ.ศ. ๒๕๔๕"
      ]
    ],
    []
  ],
  "metadata": {
    "date_backmatter": "2545-06-14",
    "date_modified": "2545-06-24",
    "date_original": "2545-06-24",
    "doctype": "ประกาศ",
    "editors": [
      {
        "name": "ปณตภร",
        "role": "ผู้จัดทำ",
        "date": "2554-08-02"
      },
      {
        "name": "เอกฤทธิ์",
        "role": "ผู้ตรวจ",
        "date": "2554-08-02"
      }
    ],
    "tag": "bb34-2e-2545-a002"
  }
}