{
  "pages": [
    [
      [
        "ประกาศนายทะเบียนพรรคการเมือง",
        "เรื่อง การยุบพรรคเสรีประชาธิปไตย"
      ]
    ],
    []
  ],
  "metadata": {
    "date_backmatter": "2547-12-15",
    "date_modified": "2547-12-30",
    "date_original": "2547-12-30",
    "doctype": "ประกาศ",
    "editors": [
      {
        "name": "ปณตภร",
        "role": "ผู้จัดทำ",
        "date": "2554-08-02"
      },
      {
        "name": "เอกฤทธิ์",
        "role": "ผู้ตรวจ",
        "date": "2554-08-02"
      }
    ],
    "tag": "bb34-2e-2547-a0001"
  }
}