{
  "pages": [
    [
      [
        "กฎกระทรวง",
        "ฉบับที่ ๒ (พ.ศ. ๒๔๙๕)",
        "ออกตามความในพระราชบัญญัติการทะเบียนคนต่างด้าว พ.ศ. ๒๔๙๓"
      ]
    ],
    []
  ],
  "metadata": {
    "date_backmatter": "2495-02-13",
    "date_modified": "2495-02-19",
    "date_original": "2495-02-19",
    "doctype": "กฎกระทรวง",
    "editors": [
      {
        "name": "ดลธี",
        "role": "ผู้จัดทำ",
        "date": "2554-01-06"
      },
      {
        "name": "เอกฤทธิ์",
        "role": "ผู้ตรวจ",
        "date": "2554-01-17"
      }
    ],
    "tag": "a118-2b-2495-004"
  }
}