{
  "pages": [
    [
      [
        "ประกาศคณะกรรมการการเลือกตั้ง",
        "เรื่อง การจัดทำบัญชีรายรับรายจ่ายของสมุห์บัญชีเลือกตั้ง"
      ]
    ],
    []
  ],
  "metadata": {
    "date_backmatter": "2543-11-20",
    "date_modified": "2543-11-21",
    "date_original": "2543-11-21",
    "doctype": "ประกาศ",
    "editors": [
      {
        "name": "วิมล",
        "role": "ผู้จัดทำ",
        "date": "2560-01-17"
      }
    ],
    "tag": "bb35-2e-2543-a085"
  }
}