{
  "pages": [
    [
      [
        "ประกาศคณะกรรมการการเลือกตั้ง",
        "เรื่อง การแบ่งเขตเลือกตั้งสมาชิกสภาเทศบาลในจังหวัดพิษณุโลก"
      ]
    ],
    []
  ],
  "metadata": {
    "date_backmatter": "2550-10-09",
    "date_modified": "2550-11-05",
    "date_original": "2550-11-05",
    "doctype": "ประกาศ",
    "editors": [
      {
        "name": "วัชศักดิ์",
        "role": "ผู้จัดทำ",
        "date": "2550-11-22"
      }
    ],
    "tag": "bb35-2e-2550-a0095"
  }
}