{
  "pages": [
    [
      [
        "ประกาศคณะกรรมการการเลือกตั้ง",
        "เรื่อง การแบ่งเขตเลือกตั้งสมาชิกสภาเทศบาลในจังหวัดสระแก้ว"
      ]
    ],
    []
  ],
  "metadata": {
    "date_backmatter": "2554-06-02",
    "date_modified": "2554-06-13",
    "date_original": "2554-06-13",
    "doctype": "ประกาศ",
    "editors": [
      {
        "name": "ปริยานุช",
        "role": "ผู้จัดทำ",
        "date": "2554-06-14"
      },
      {
        "name": "ณัฐวดี",
        "role": "ตรวจ",
        "date": "2554-06-14"
      }
    ],
    "tag": "bb35-2e-2554-a0028"
  }
}