{
  "pages": [
    [
      [
        "คำวินิจฉัยสั่งการของคณะกรรมการการเลือกตั้ง",
        "ที่ ๒๔/๒๕๔๓ ลงวันที่ ๒๐ มีนาคม พ.ศ. ๒๕๔๓",
        "เรื่อง การวินิจฉัยและสั่งให้มีการเลือกตั้งสมาชิกวุฒิสภาใหม่ในเขตเลือกตั้งจังหวัดสงขลา"
      ]
    ],
    []
  ],
  "metadata": {
    "date_header": "2543-03-20",
    "date_modified": "2543-04-21",
    "date_original": "2543-04-21",
    "editors": [
      {
        "name": "พรพิมล",
        "role": "พิมพ์",
        "date": "2544-07-09"
      },
      {
        "name": "ศิรวัชร์",
        "role": "ปรับปรุง",
        "date": "2560-01-10"
      }
    ],
    "tag": "bb35-2f-2543-a040"
  }
}