{
  "pages": [
    [
      [
        "ประกาศคณะกรรมการการเลือกตั้ง",
        "เรื่อง ผลการเลือกตั้งสมาชิกสภาผู้แทนราษฎรแบบแบ่งเขตเลือกตั้ง"
      ]
    ],
    []
  ],
  "metadata": {
    "date_backmatter": "2548-02-24",
    "date_modified": "2548-03-10",
    "date_original": "2548-03-10",
    "doctype": "ประกาศ",
    "editors": [],
    "tag": "bb35-2e-2548-a0020"
  }
}