{
  "pages": [
    [
      [
        "ประกาศคณะกรรมการการเลือกตั้ง",
        "เรื่อง การแบ่งเขตเลือกตั้งสมาชิกสภาเทศบาลในจังหวัดตาก"
      ]
    ],
    []
  ],
  "metadata": {
    "date_backmatter": "2554-10-25",
    "date_modified": "2554-11-18",
    "date_original": "2554-11-18",
    "doctype": "ประกาศ",
    "editors": [
      {
        "name": "ปริยานุช",
        "role": "ผู้จัดทำ",
        "date": "2554-11-21"
      },
      {
        "name": "ปณตภร",
        "role": "ผู้ตรวจ",
        "date": "2554-11-21"
      }
    ],
    "tag": "bb35-2e-2554-a0058"
  }
}