{
  "pages": [
    [
      [
        "ประกาศคณะกรรมการการเลือกตั้ง",
        "เรื่อง การแบ่งเขตเลือกตั้งสมาชิกสภาเทศบาลในจังหวัดมหาสารคาม"
      ]
    ],
    []
  ],
  "metadata": {
    "date_backmatter": "2553-01-07",
    "date_modified": "2553-02-10",
    "date_original": "2553-02-10",
    "doctype": "ประกาศ",
    "editors": [
      {
        "name": "ปริยานุช",
        "role": "ผู้จัดทำ",
        "date": "2553-02-15"
      },
      {
        "name": "นันท์นภัสร์",
        "role": "ตรวจ",
        "date": "2553-02-15"
      }
    ],
    "tag": "bb35-2e-2553-a0028"
  }
}