{
  "pages": [
    [
      [
        "ประกาศคณะกรรมการการเลือกตั้ง",
        "ว่าด้วยวิธีการนับคะแนนเลือกตั้ง"
      ]
    ],
    []
  ],
  "metadata": {
    "date_backmatter": "2542-06-18",
    "date_modified": "2542-06-21",
    "date_original": "2542-06-21",
    "doctype": "ประกาศ",
    "editors": [
      {
        "name": "วิมล",
        "role": "ผู้จัดทำ",
        "date": "2560-01-05"
      }
    ],
    "tag": "bb35-2e-2542-a003"
  }
}