{
  "pages": [
    [
      [
        "ประกาศคณะกรรมการการเลือกตั้ง",
        "เรื่อง การแบ่งเขตเลือกตั้งสมาชิกสภาเทศบาลในจังหวัดจันทบุรี"
      ]
    ],
    []
  ],
  "metadata": {
    "date_backmatter": "2553-12-21",
    "date_modified": "2554-01-07",
    "date_original": "2554-01-07",
    "doctype": "ประกาศ",
    "editors": [
      {
        "name": "ปริยานุช",
        "role": "ผู้จัดทำ",
        "date": "2554-01-11"
      },
      {
        "name": "ณัฐวดี",
        "role": "ตรวจ",
        "date": "2554-01-11"
      }
    ],
    "tag": "bb35-2e-2554-a0001"
  }
}