{
  "pages": [
    [
      [
        "ประกาศคณะกรรมการการเลือกตั้ง",
        "เรื่อง การแบ่งเขตเลือกตั้งสมาชิกสภาเทศบาลในจังหวัดลำปาง"
      ]
    ],
    []
  ],
  "metadata": {
    "date_backmatter": "2551-10-22",
    "date_modified": "2551-12-20",
    "date_original": "2551-12-20",
    "doctype": "ประกาศ",
    "editors": [
      {
        "name": "ปริยานุช",
        "role": "ผู้จัดทำ",
        "date": "2551-12-22"
      }
    ],
    "tag": "bb35-2e-2551-a0291"
  }
}