{
  "pages": [
    [
      [
        "คำวินิจฉัยสั่งการของคณะกรรมการการเลือกตั้ง",
        "ที่ ๗๐/๒๕๔๔ ลงวันที่ ๒๕ มกราคม ๒๕๔๔",
        "เรื่อง คำสั่งเพิกถอนสิทธิเลือกตั้งของ นายไพจิต ศรีวรขาน",
        "ผู้สมัครรับเลือกตั้งสมาชิกสภาผู้แทนราษฎร พรรคความหวังใหม่",
        "หมายเลข ๕ เขตเลือกตั้งที่ ๒ จังหวัดนครพนม"
      ]
    ],
    []
  ],
  "metadata": {
    "date_header": "2544-01-25",
    "date_modified": "2544-02-01",
    "date_original": "2544-02-01",
    "editors": [
      {
        "name": "ศิรวัชร์",
        "role": "ปรับปรุง",
        "date": "2560-01-18"
      }
    ],
    "tag": "bb35-2f-2544-a012"
  }
}