{
  "pages": [
    [
      [
        "ประกาศคณะกรรมการการเลือกตั้ง",
        "เรื่อง กำหนดวิธีการสนับสนุนการหาเสียงเลือกตั้งสมาชิกวุฒิสภา",
        "พ.ศ. ๒๕๕๑"
      ]
    ],
    []
  ],
  "metadata": {
    "date_backmatter": "2551-01-18",
    "date_modified": "2551-01-20",
    "date_original": "2551-01-20",
    "doctype": "ประกาศ",
    "editors": [
      {
        "name": "วัชศักดิ์",
        "role": "ผู้จัดทำ",
        "date": "2551-01-30"
      }
    ],
    "tag": "bb35-2e-2551-a0032"
  }
}