{
  "pages": [
    [
      [
        "ประกาศคณะกรรมการการเลือกตั้ง",
        "เรื่อง การแบ่งเขตเลือกตั้งสมาชิกสภาเทศบาลในจังหวัดลำพูน"
      ]
    ],
    []
  ],
  "metadata": {
    "date_backmatter": "2553-01-21",
    "date_modified": "2553-04-26",
    "date_original": "2553-04-26",
    "doctype": "ประกาศ",
    "editors": [
      {
        "name": "ปริยานุช",
        "role": "พิมพ์",
        "date": "2553-04-27"
      },
      {
        "name": "นันท์นภัสร์",
        "role": "ตรวจ",
        "date": "2553-04-27"
      }
    ],
    "tag": "bb35-2e-2553-a0109"
  }
}