{
  "pages": [
    [
      [
        "ประกาศคณะกรรมการการเลือกตั้ง",
        "เรื่อง เปลี่ยนแปลงแก้ไขเขตเลือกตั้งสมาชิกสภาเทศบาลในจังหวัดบุรีรัมย์"
      ]
    ],
    []
  ],
  "metadata": {
    "date_backmatter": "2550-01-15",
    "date_modified": "2550-01-26",
    "date_original": "2550-01-26",
    "doctype": "ประกาศ",
    "editors": [
      {
        "name": "วัชศักดิ์",
        "role": "ผู้จัดทำ",
        "date": "2550-01-30"
      }
    ],
    "tag": "bb35-2e-2550-a0011"
  }
}