{
  "pages": [
    [
      [
        "ประกาศคณะกรรมการการเลือกตั้ง",
        "เรื่อง กำหนดพื้นที่เสี่ยงภัย"
      ]
    ],
    []
  ],
  "metadata": {
    "date_backmatter": "2553-01-04",
    "date_modified": "2553-01-19",
    "date_original": "2553-01-19",
    "doctype": "ประกาศ",
    "editors": [
      {
        "name": "ปริยานุช",
        "role": "ผู้จัดทำ",
        "date": "2553-01-25"
      },
      {
        "name": "นันท์นภัสร์",
        "role": "ตรวจ",
        "date": "2553-01-25"
      }
    ],
    "tag": "bb35-2e-2553-a0016"
  }
}