{
  "pages": [
    [
      [
        "ประกาศคณะกรรมการการเลือกตั้ง",
        "เรื่อง การแบ่งเขตเลือกตั้งสมาชิกสภาเทศบาลในจังหวัดกาฬสินธุ์"
      ]
    ],
    []
  ],
  "metadata": {
    "date_backmatter": "2551-10-02",
    "date_modified": "2551-11-12",
    "date_original": "2551-11-12",
    "doctype": "ประกาศ",
    "editors": [
      {
        "name": "วัชศักดิ์",
        "role": "ผู้จัดทำ",
        "date": "2551-11-13"
      }
    ],
    "tag": "bb35-2e-2551-a0256"
  }
}