{
  "pages": [
    [
      [
        "ประกาศคณะกรรมการการเลือกตั้ง",
        "เรื่อง การแบ่งเขตเลือกตั้งสมาชิกสภาเทศบาลในจังหวัดร้อยเอ็ด"
      ]
    ],
    []
  ],
  "metadata": {
    "date_backmatter": "2551-09-18",
    "date_modified": "2551-11-05",
    "date_original": "2551-11-05",
    "doctype": "ประกาศ",
    "editors": [
      {
        "name": "วัชศักดิ์",
        "role": "ผู้จัดทำ",
        "date": "2551-11-06"
      }
    ],
    "tag": "bb35-2e-2551-a0247"
  }
}