{
  "pages": [
    [
      [
        "ประกาศคณะกรรมการการเลือกตั้ง",
        "เรื่อง การแบ่งเขตเลือกตั้งสมาชิกสภาเทศบาลในจังหวัดนครราชสีมา"
      ]
    ],
    []
  ],
  "metadata": {
    "date_backmatter": "2555-07-26",
    "date_modified": "2555-08-08",
    "date_original": "2555-08-08",
    "doctype": "ประกาศ",
    "editors": [
      {
        "name": "ปริยานุช",
        "role": "ผู้จัดทำ",
        "date": "2555-08-10"
      },
      {
        "name": "ปณตภร",
        "role": "ผู้ตรวจ",
        "date": "2555-08-15"
      }
    ],
    "tag": "bb35-2e-2555-a0141"
  }
}