{
  "pages": [
    [
      [
        "ประกาศคณะกรรมการการเลือกตั้ง",
        "เรื่อง การแบ่งเขตเลือกตั้งสมาชิกสภาเทศบาลในจังหวัดพระนครศรีอยุธยา"
      ]
    ],
    []
  ],
  "metadata": {
    "date_backmatter": "2550-09-04",
    "date_modified": "2550-09-21",
    "date_original": "2550-09-21",
    "doctype": "ประกาศ",
    "editors": [
      {
        "name": "ปริยานุช",
        "role": "ผู้จัดทำ",
        "date": "2550-10-10"
      }
    ],
    "tag": "bb35-2e-2550-a0056"
  }
}