{
  "pages": [
    [
      [
        "ประกาศคณะกรรมการการเลือกตั้ง",
        "เรื่อง การแบ่งเขตเลือกตั้งสมาชิกสภากรุงเทพมหานคร"
      ]
    ],
    []
  ],
  "metadata": {
    "date_backmatter": "2553-07-15",
    "date_modified": "2553-08-27",
    "date_original": "2553-08-27",
    "doctype": "ประกาศ",
    "editors": [
      {
        "name": "ปริยานุช",
        "role": "ผู้จัดทำ",
        "date": "2553-09-03"
      },
      {
        "name": "ณัฐวดี",
        "role": "ตรวจ",
        "date": "2553-09-03"
      },
      {
        "name": "ปณตภร",
        "role": "ปรับปรุง",
        "date": "2557-01-03"
      }
    ],
    "tag": "bb35-2e-2553-a0124"
  }
}