{
  "pages": [
    [
      [
        "ประกาศคณะกรรมการการเลือกตั้ง",
        "เรื่อง การเกษียณก่อนกำหนดของพนักงานสำนักงานคณะกรรมการการเลือกตั้ง",
        "ประจำปีงบประมาณ พ.ศ. ๒๕๕๓"
      ]
    ],
    []
  ],
  "metadata": {
    "date_backmatter": "2552-03-06",
    "date_modified": "2552-03-17",
    "date_original": "2552-03-17",
    "doctype": "ประกาศ",
    "editors": [
      {
        "name": "ปริยานุช",
        "role": "ผู้จัดทำ",
        "date": "2552-03-25"
      }
    ],
    "tag": "bb35-2e-2552-a0024"
  }
}