{
  "pages": [
    [
      [
        "ประกาศคณะกรรมการการเลือกตั้ง",
        "เรื่อง การแบ่งเขตเลือกตั้งสมาชิกสภาเทศบาลในจังหวัดขอนแก่น"
      ]
    ],
    []
  ],
  "metadata": {
    "date_backmatter": "2556-10-22",
    "date_modified": "2556-11-08",
    "date_original": "2556-11-08",
    "doctype": "ประกาศ",
    "editors": [
      {
        "name": "ปริยานุช",
        "role": "ผู้จัดทำ",
        "date": "2556-11-12"
      },
      {
        "name": "ชาญ",
        "role": "ผู้ตรวจ",
        "date": "2556-11-19"
      }
    ],
    "tag": "bb35-2e-2556-a0169"
  }
}