{
  "pages": [
    [
      [
        "ประกาศคณะกรรมการการเลือกตั้ง",
        "เรื่อง การแบ่งเขตเลือกตั้งสมาชิกสภาเทศบาลในจังหวัดตรัง"
      ]
    ],
    []
  ],
  "metadata": {
    "date_backmatter": "2549-11-15",
    "date_modified": "2549-12-19",
    "date_original": "2549-12-19",
    "doctype": "ประกาศ",
    "editors": [
      {
        "name": "วัชศักดิ์",
        "role": "ผู้จัดทำ",
        "date": "2549-12-28"
      }
    ],
    "tag": "bb35-2e-2549-a0127"
  }
}