{
  "pages": [
    [
      [
        "ประกาศคณะกรรมการการเลือกตั้ง",
        "เรื่อง ลักษณะบัตรเสียในการเลือกตั้งสมาชิกสภาผู้แทนราษฎร",
        "พ.ศ. ๒๕๕๐"
      ]
    ],
    []
  ],
  "metadata": {
    "date_backmatter": "2550-12-03",
    "date_modified": "2550-12-14",
    "date_original": "2550-12-14",
    "doctype": "ประกาศ",
    "editors": [
      {
        "name": "ปริยานุช",
        "role": "ผู้จัดทำ",
        "date": "2551-01-10"
      }
    ],
    "tag": "bb35-2e-2550-a0121"
  }
}