{
  "pages": [
    [
      [
        "ประกาศคณะกรรมการการเลือกตั้ง",
        "เรื่อง กำหนดวันและเวลาลงคะแนนเลือกตั้งก่อนวันเลือกตั้ง ณ ที่เลือกตั้งกลางในเขตเลือกตั้ง"
      ]
    ],
    []
  ],
  "metadata": {
    "date_backmatter": "2555-05-05",
    "date_modified": "2555-05-17",
    "date_original": "2555-05-17",
    "doctype": "ประกาศ",
    "editors": [
      {
        "name": "ปริยานุช",
        "role": "ผู้จัดทำ",
        "date": "2555-05-18"
      },
      {
        "name": "ปณตภร",
        "role": "ผู้ตรวจ",
        "date": "2555-05-18"
      }
    ],
    "tag": "bb35-2e-2555-a0048"
  }
}