{
  "pages": [
    [
      [
        "ประกาศคณะกรรมการการเลือกตั้ง",
        "เรื่อง การแบ่งเขตเลือกตั้งสมาชิกสภาองค์การบริหารส่วนจังหวัดตาก"
      ]
    ],
    []
  ],
  "metadata": {
    "date_backmatter": "2551-04-18",
    "date_modified": "2551-05-15",
    "date_original": "2551-05-15",
    "doctype": "ประกาศ",
    "editors": [
      {
        "name": "พัชรินทร์",
        "role": "ผู้จัดทำ",
        "date": "2551-05-16"
      }
    ],
    "tag": "bb35-2e-2551-a0100"
  }
}