{
  "pages": [
    [
      [
        "ประกาศคณะกรรมการการเลือกตั้ง",
        "เรื่อง การแบ่งเขตเลือกตั้งสมาชิกสภาเทศบาลในจังหวัดเลย"
      ]
    ],
    []
  ],
  "metadata": {
    "date_backmatter": "2551-07-02",
    "date_modified": "2551-08-15",
    "date_original": "2551-08-15",
    "doctype": "ประกาศ",
    "editors": [
      {
        "name": "ปริยานุช",
        "role": "ผู้จัดทำ",
        "date": "2551-08-19"
      }
    ],
    "tag": "bb35-2e-2551-a0153"
  }
}