{
  "pages": [
    [
      [
        "ประกาศคณะกรรมการการเลือกตั้ง",
        "เรื่อง การแบ่งเขตเลือกตั้งสมาชิกสภาเทศบาลในจังหวัดยะลา"
      ]
    ],
    []
  ],
  "metadata": {
    "date_backmatter": "2551-09-03",
    "date_modified": "2551-10-30",
    "date_original": "2551-10-30",
    "doctype": "ประกาศ",
    "editors": [
      {
        "name": "วัชศักดิ์",
        "role": "ผู้จัดทำ",
        "date": "2551-11-03"
      }
    ],
    "tag": "bb35-2e-2551-a0222"
  }
}