{
  "pages": [
    [
      [
        "ประกาศคณะกรรมการการเลือกตั้ง",
        "เรื่อง การแบ่งเขตเลือกตั้งสมาชิกสภาเทศบาลในจังหวัดอุดรธานี"
      ]
    ],
    []
  ],
  "metadata": {
    "date_backmatter": "2556-10-09",
    "date_modified": "2556-10-22",
    "date_original": "2556-10-22",
    "doctype": "ประกาศ",
    "editors": [
      {
        "name": "ปริยานุช",
        "role": "ผู้จัดทำ",
        "date": "2556-10-25"
      },
      {
        "name": "ณัฐพร",
        "role": "ผู้ตรวจ",
        "date": "2556-10-25"
      }
    ],
    "tag": "bb35-2e-2556-a0138"
  }
}