{
  "pages": [
    [
      [
        "ประกาศคณะกรรมการการเลือกตั้ง",
        "เรื่อง ห้ามนำสิ่งพิมพ์ แผ่นประกาศ แผ่นป้าย หรือสิ่งอื่นใด",
        "มาปิดหรือแสดงไว้ในที่เลือกตั้ง"
      ]
    ],
    []
  ],
  "metadata": {
    "date_backmatter": "2550-12-13",
    "date_modified": "2550-12-14",
    "date_original": "2550-12-14",
    "doctype": "ประกาศ",
    "editors": [
      {
        "name": "ปริยานุช",
        "role": "ผู้จัดทำ",
        "date": "2551-01-10"
      }
    ],
    "tag": "bb35-2e-2550-a0122"
  }
}