{
  "pages": [
    [
      [
        "ระเบียบคณะกรรมการการเลือกตั้ง",
        "ว่าด้วยหลักเกณฑ์และวิธีการรายงานผลการออกเสียงอย่างไม่เป็นทางการ",
        "พ.ศ. ๒๕๕๙"
      ]
    ],
    []
  ],
  "metadata": {
    "date_backmatter": "2559-07-11",
    "date_modified": "2559-07-15",
    "date_original": "2559-07-15",
    "editors": [
      {
        "name": "ชวัลพร/ปริยานุช",
        "role": "จัดทำ",
        "date": "2559-07-21"
      }
    ],
    "tag": "bb35-2g-2559-a0007"
  }
}