{
  "pages": [
    [
      [
        "ประกาศคณะกรรมการการเลือกตั้ง",
        "เรื่อง หลักเกณฑ์และวิธีการจัดทำทะเบียนรายชื่อผู้มีสิทธิเลือกตั้งนอกราชอาณาจักร"
      ]
    ],
    []
  ],
  "metadata": {
    "date_backmatter": "2541-11-05",
    "date_modified": "2541-11-13",
    "date_original": "2541-11-13",
    "doctype": "ประกาศ",
    "editors": [
      {
        "name": "วิมล",
        "role": "จัดทำ",
        "date": "2560-01-05"
      }
    ],
    "tag": "bb35-2e-2541-a007"
  }
}