{
  "pages": [
    [
      [
        "ประกาศคณะกรรมการการเลือกตั้ง",
        "เรื่อง ผลการเลือกตั้งสมาชิกวุฒิสภา เขตเลือกตั้งจังหวัดสงขลา"
      ]
    ],
    []
  ],
  "metadata": {
    "date_backmatter": "2543-05-10",
    "date_modified": "2543-05-30",
    "date_original": "2543-05-30",
    "doctype": "ประกาศ",
    "editors": [
      {
        "name": "วิมล",
        "role": "ผู้จัดทำ",
        "date": "2560-01-10"
      }
    ],
    "tag": "bb35-2e-2543-a029"
  }
}