{
  "pages": [
    [
      [
        "ประกาศคณะกรรมการการเลือกตั้ง",
        "เรื่อง การแบ่งเขตเลือกตั้งสมาชิกสภาเทศบาลในจังหวัดบุรีรัมย์"
      ]
    ],
    []
  ],
  "metadata": {
    "date_backmatter": "2556-06-04",
    "date_modified": "2556-06-13",
    "date_original": "2556-06-13",
    "doctype": "ประกาศ",
    "editors": [
      {
        "name": "ปริยานุช",
        "role": "ผู้จัดทำ",
        "date": "2556-06-17"
      },
      {
        "name": "เอกฤทธิ์",
        "role": "ผู้ตรวจ",
        "date": "2556-06-19"
      }
    ],
    "tag": "bb35-2e-2556-a0055"
  }
}