{
  "pages": [
    [
      [
        "ระเบียบคณะกรรมการการเลือกตั้ง",
        "ว่าด้วยการจ้างลูกจ้างสำนักงานคณะกรรมการการเลือกตั้ง (ฉบับที่ ๗)",
        "พ.ศ. ๒๕๕๘"
      ]
    ],
    []
  ],
  "metadata": {
    "date_backmatter": "2558-12-02",
    "date_modified": "2558-12-04",
    "date_original": "2558-12-04",
    "editors": [
      {
        "name": "ปริยานุช",
        "role": "จัดทำ",
        "date": "2558-12-24"
      },
      {
        "name": "ปริญสินีย์",
        "role": "ตรวจ",
        "date": "2558-12-24"
      }
    ],
    "tag": "bb35-2g-2558-a0013"
  }
}