{
  "pages": [
    [
      [
        "ประกาศคณะกรรมการการเลือกตั้ง",
        "เรื่อง ให้เลขาธิการคณะกรรมการการเลือกตั้งพ้นจากตำแหน่ง"
      ]
    ],
    []
  ],
  "metadata": {
    "date_backmatter": "2558-12-08",
    "date_modified": "2558-12-11",
    "date_original": "2558-12-11",
    "doctype": "ประกาศ",
    "editors": [
      {
        "name": "ปริยานุช",
        "role": "จัดทำ",
        "date": "2558-12-14"
      },
      {
        "name": "วิศนี",
        "role": "ตรวจ",
        "date": "2559-01-11"
      }
    ],
    "tag": "bb35-2e-2558-a0002"
  }
}