{
  "pages": [
    [
      [
        "ระเบียบคณะกรรมการการเลือกตั้ง",
        "ว่าด้วยรถของสำนักงานคณะกรรมการการเลือกตั้ง (ฉบับที่ ๒)",
        "พ.ศ. ๒๕๕๘"
      ]
    ],
    []
  ],
  "metadata": {
    "date_backmatter": "2558-10-20",
    "date_modified": "2558-11-26",
    "date_original": "2558-11-26",
    "editors": [
      {
        "name": "ปริยานุช",
        "role": "จัดทำ",
        "date": "2558-11-30"
      },
      {
        "name": "วริญา",
        "role": "ตรวจ",
        "date": "2558-12-08"
      }
    ],
    "tag": "bb35-2g-2558-a0008"
  }
}