{
  "pages": [
    [
      [
        "ประกาศคณะกรรมการการเลือกตั้ง",
        "เรื่อง การแบ่งเขตเลือกตั้งสมาชิกสภาเทศบาลในจังหวัดสุโขทัย"
      ]
    ],
    []
  ],
  "metadata": {
    "date_backmatter": "2551-08-28",
    "date_modified": "2551-10-07",
    "date_original": "2551-10-07",
    "doctype": "ประกาศ",
    "editors": [
      {
        "name": "ปริยานุช",
        "role": "ผู้จัดทำ",
        "date": "2551-10-08"
      }
    ],
    "tag": "bb35-2e-2551-a0186"
  }
}