{
  "pages": [
    [
      [
        "ประกาศคณะกรรมการการเลือกตั้ง",
        "เรื่อง การแบ่งเขตเลือกตั้งสมาชิกสภาเทศบาลในจังหวัดนครพนม"
      ]
    ],
    []
  ],
  "metadata": {
    "date_backmatter": "2557-01-14",
    "date_modified": "2557-01-24",
    "date_original": "2557-01-24",
    "doctype": "ประกาศ",
    "editors": [
      {
        "name": "ปริยานุช",
        "role": "ผู้จัดทำ",
        "date": "2557-01-29"
      },
      {
        "name": "เอกฤทธิ์",
        "role": "ผู้ตรวจ",
        "date": "2557-01-30"
      }
    ],
    "tag": "bb35-2e-2557-a0016"
  }
}