{
  "pages": [
    [
      [
        "ประกาศคณะกรรมการการเลือกตั้ง",
        "เรื่อง หลักเกณฑ์การสั่งพนักงานหรือลูกจ้างให้ประจำ",
        "สำนักงานคณะกรรมการการเลือกตั้งเป็นการชั่วคราว",
        "พ.ศ. ๒๕๖๐"
      ]
    ],
    []
  ],
  "metadata": {
    "date_backmatter": "2560-07-03",
    "date_modified": "2560-07-12",
    "date_original": "2560-07-12",
    "doctype": "ประกาศ",
    "editors": [
      {
        "name": "พิมพ์มาดา/อัญชลี",
        "role": "จัดทำ",
        "date": "2560-07-14"
      }
    ],
    "tag": "bb35-2e-2560-a0002"
  }
}