{
  "pages": [
    [
      [
        "ประกาศคณะกรรมการการเลือกตั้ง",
        "เรื่อง ผลการสรรหาสมาชิกวุฒิสภา"
      ]
    ],
    []
  ],
  "metadata": {
    "date_backmatter": "2551-02-19",
    "date_modified": "2551-02-22",
    "date_original": "2551-02-22",
    "doctype": "ประกาศ",
    "editors": [
      {
        "name": "ปริยานุช",
        "role": "ผู้จัดทำ",
        "date": "2551-02-26"
      }
    ],
    "tag": "bb35-2e-2551-a0041"
  }
}