{
  "pages": [
    [
      [
        "ประกาศคณะกรรมการการเลือกตั้ง",
        "เรื่อง การแบ่งเขตเลือกตั้งสมาชิกสภาเทศบาลในจังหวัดบุรีรัมย์"
      ]
    ],
    []
  ],
  "metadata": {
    "date_backmatter": "2555-05-23",
    "date_modified": "2555-05-29",
    "date_original": "2555-05-29",
    "doctype": "ประกาศ",
    "editors": [
      {
        "name": "ปริยานุช",
        "role": "ผู้จัดทำ",
        "date": "2555-05-30"
      },
      {
        "name": "ชาญ",
        "role": "ผู้ตรวจ",
        "date": "2555-06-06"
      }
    ],
    "tag": "bb35-2e-2555-a0070"
  }
}