{
  "pages": [
    [
      [
        "ประกาศคณะกรรมการการเลือกตั้ง",
        "เรื่อง การแบ่งเขตเลือกตั้งสมาชิกสภาเทศบาลในจังหวัดสุราษฎร์ธานี"
      ]
    ],
    []
  ],
  "metadata": {
    "date_backmatter": "2556-01-31",
    "date_modified": "2556-02-08",
    "date_original": "2556-02-08",
    "doctype": "ประกาศ",
    "editors": [
      {
        "name": "ปริยานุช",
        "role": "ผู้จัดทำ",
        "date": "2556-02-11"
      },
      {
        "name": "ปณตภร",
        "role": "ผู้ตรวจ",
        "date": "2556-02-13"
      }
    ],
    "tag": "bb35-2e-2556-a0015"
  }
}