{
  "pages": [
    [
      [
        "ประกาศคณะกรรมการการเลือกตั้ง",
        "เรื่อง การแบ่งเขตเลือกตั้งสมาชิกสภาเทศบาลในจังหวัดหนองบัวลำภู"
      ]
    ],
    []
  ],
  "metadata": {
    "date_backmatter": "2552-12-04",
    "date_modified": "2553-01-28",
    "date_original": "2553-01-28",
    "doctype": "ประกาศ",
    "editors": [
      {
        "name": "ปริยานุช",
        "role": "ผู้จัดทำ",
        "date": "2553-02-01"
      },
      {
        "name": "นันท์นภัสร์",
        "role": "ตรวจ",
        "date": "2553-02-01"
      }
    ],
    "tag": "bb35-2e-2553-a0019"
  }
}