{
  "pages": [
    [
      [
        "คำวินิจฉัยสั่งการของคณะกรรมการการเลือกตั้ง",
        "ที่ ๔๒/๒๕๔๓ ลงวันที่ ๕ เมษายน พ.ศ. ๒๕๔๓",
        "เรื่อง การวินิจฉัยมิให้เป็นผู้สมัครรับเลือกตั้งในการเลือกตั้งสมาชิกวุฒิสภาใหม่",
        "ในเขตเลือกตั้งกรุงเทพมหานคร"
      ]
    ],
    []
  ],
  "metadata": {
    "date_header": "2543-04-05",
    "date_modified": "2543-04-21",
    "date_original": "2543-04-21",
    "editors": [
      {
        "name": "ศิรวัชร์",
        "role": "ปรับปรุง",
        "date": "2560-01-11"
      }
    ],
    "tag": "bb35-2f-2543-a058"
  }
}