{
  "pages": [
    [
      [
        "ประกาศคณะกรรมการการเลือกตั้ง",
        "เรื่อง การแบ่งเขตเลือกตั้งสมาชิกสภาเทศบาลในจังหวัดชุมพร"
      ]
    ],
    []
  ],
  "metadata": {
    "date_backmatter": "2552-08-26",
    "date_modified": "2552-10-05",
    "date_original": "2552-10-05",
    "doctype": "ประกาศ",
    "editors": [
      {
        "name": "ปริยานุช",
        "role": "ผู้จัดทำ",
        "date": "2552-10-13"
      },
      {
        "name": "นันท์นภัสร์",
        "role": "ตรวจ",
        "date": "2552-10-14"
      }
    ],
    "tag": "bb35-2e-2552-a0050"
  }
}