{
  "pages": [
    [
      [
        "ประกาศคณะกรรมการการเลือกตั้ง",
        "เรื่อง การแบ่งเขตเลือกตั้งสมาชิกสภาเทศบาลในจังหวัดเพชรบูรณ์"
      ]
    ],
    []
  ],
  "metadata": {
    "date_backmatter": "2551-04-30",
    "date_modified": "2551-05-28",
    "date_original": "2551-05-28",
    "doctype": "ประกาศ",
    "editors": [
      {
        "name": "พัชรินทร์",
        "role": "ผู้จัดทำ",
        "date": "2551-05-30"
      }
    ],
    "tag": "bb35-2e-2551-a0105"
  }
}