{
  "pages": [
    [
      [
        "ประกาศคณะกรรมการการเลือกตั้ง",
        "เรื่อง การแบ่งเขตเลือกตั้งสมาชิกสภาเทศบาลในจังหวัดนครพนม"
      ]
    ],
    []
  ],
  "metadata": {
    "date_backmatter": "2549-05-31",
    "date_modified": "2549-06-27",
    "date_original": "2549-06-27",
    "doctype": "ประกาศ",
    "editors": [
      {
        "name": "นันทนา",
        "role": "ผู้จัดทำ",
        "date": "2549-07-06"
      }
    ],
    "tag": "bb35-2e-2549-a0082"
  }
}