{
  "pages": [
    [
      [
        "ประกาศคณะกรรมการการเลือกตั้ง",
        "เรื่อง การแบ่งเขตเลือกตั้งสมาชิกสภาเทศบาลในจังหวัดราชบุรี"
      ]
    ],
    []
  ],
  "metadata": {
    "date_backmatter": "2556-02-26",
    "date_modified": "2556-02-28",
    "date_original": "2556-02-28",
    "doctype": "ประกาศ",
    "editors": [
      {
        "name": "ปริยานุช",
        "role": "ผู้จัดทำ",
        "date": "2556-03-01"
      },
      {
        "name": "ชาญ",
        "role": "ผู้ตรวจ",
        "date": "2556-03-20"
      }
    ],
    "tag": "bb35-2e-2556-a0023"
  }
}