{
  "pages": [
    [
      [
        "ระเบียบคณะกรรมการการเลือกตั้ง",
        "ว่าด้วยการจ้างลูกจ้างสำนักงานคณะกรรมการการเลือกตั้ง",
        "พ.ศ. ๒๕๔๗"
      ]
    ],
    []
  ],
  "metadata": {
    "date_backmatter": "2547-09-03",
    "date_modified": "2550-11-21",
    "date_original": "2550-11-21",
    "editors": [
      {
        "name": "เอกฤทธิ์",
        "role": "ผู้จัดทำ",
        "date": "2556-09-18"
      }
    ],
    "tag": "bb35-2g-2550-a0033"
  }
}