{
  "pages": [
    [
      [
        "ประกาศคณะกรรมการการเลือกตั้ง",
        "เรื่อง วันลงคะแนนเลือกตั้งสมาชิกวุฒิสภาใหม่เขตเลือกตั้งจังหวัดอุบลราชธานี"
      ]
    ],
    []
  ],
  "metadata": {
    "date_backmatter": "2543-07-13",
    "date_modified": "2543-07-31",
    "date_original": "2543-07-31",
    "doctype": "ประกาศ",
    "editors": [],
    "tag": "bb35-2e-2543-a062"
  }
}