{
  "pages": [
    [
      [
        "ระเบียบคณะกรรมการการเลือกตั้ง",
        "ว่าด้วยรถของสำนักงานคณะกรรมการการเลือกตั้ง",
        "พ.ศ. ๒๕๕๐"
      ]
    ],
    []
  ],
  "metadata": {
    "date_backmatter": "2550-06-04",
    "date_modified": "2558-11-26",
    "date_original": "2558-11-26",
    "editors": [
      {
        "name": "วริญา",
        "role": "จัดทำ",
        "date": "2558-12-09"
      },
      {
        "name": "วิชพงษ์",
        "role": "ตรวจ",
        "date": "2558-12-18"
      }
    ],
    "tag": "bb35-2g-9979-update"
  }
}