{
  "pages": [
    [
      [
        "ระเบียบคณะกรรมการการเลือกตั้ง",
        "ว่าด้วยการออกเสียงประชามติ",
        "พ.ศ. ๒๕๕๖"
      ]
    ],
    []
  ],
  "metadata": {
    "date_backmatter": "2556-10-22",
    "date_modified": "2556-11-13",
    "date_original": "2556-11-13",
    "editors": [
      {
        "name": "ปริยานุช",
        "role": "ผู้จัดทำ",
        "date": "2556-11-15"
      },
      {
        "name": "ปณตภร",
        "role": "ผู้ตรวจ",
        "date": "2556-11-18"
      }
    ],
    "tag": "bb35-2g-2556-a0018"
  }
}