{
  "pages": [
    [
      [
        "ประกาศคณะกรรมการการเลือกตั้ง",
        "เรื่อง หลักฐานแสดงตนและการใช้สิทธิลงคะแนนเลือกตั้งสมาชิก",
        "สภาผู้แทนราษฎร (ฉบับที่ ๒)"
      ]
    ],
    []
  ],
  "metadata": {
    "date_backmatter": "2543-09-20",
    "date_modified": "2543-09-29",
    "date_original": "2543-09-29",
    "doctype": "ประกาศ",
    "editors": [
      {
        "name": "วิมล",
        "role": "ผู้จัดทำ",
        "date": "2560-01-12"
      }
    ],
    "tag": "bb35-2e-2543-a069"
  }
}