{
  "pages": [
    [
      [
        "ประกาศคณะกรรมการการเลือกตั้ง",
        "ว่าด้วยค่าตอบแทนผู้ได้รับการแต่งตั้งให้ช่วยเหลือ",
        "การปฏิบัติงานในการออกเสียงประชามติ",
        "พ.ศ. ๒๕๕๐"
      ]
    ],
    []
  ],
  "metadata": {
    "date_backmatter": "2550-08-03",
    "date_modified": "2550-08-16",
    "date_original": "2550-08-16",
    "doctype": "ประกาศ",
    "editors": [
      {
        "name": "วัชศักดิ์",
        "role": "ผู้จัดทำ",
        "date": "2550-08-22"
      }
    ],
    "tag": "bb35-2e-2550-a0045"
  }
}