{
  "pages": [
    [
      [
        "ประกาศคณะกรรมการการเลือกตั้ง",
        "เรื่อง การแบ่งเขตเลือกตั้งสมาชิกสภาเทศบาลในจังหวัดกาฬสินธุ์"
      ]
    ],
    []
  ],
  "metadata": {
    "date_backmatter": "2551-05-22",
    "date_modified": "2551-06-20",
    "date_original": "2551-06-20",
    "doctype": "ประกาศ",
    "editors": [
      {
        "name": "พัชรินทร์",
        "role": "ผู้จัดทำ",
        "date": "2551-06-23"
      }
    ],
    "tag": "bb35-2e-2551-a0121"
  }
}