{
  "pages": [
    [
      [
        "ประกาศคณะกรรมการการเลือกตั้ง",
        "เรื่อง การแบ่งเขตเลือกตั้งสมาชิกสภาเทศบาลในจังหวัดพะเยา"
      ]
    ],
    []
  ],
  "metadata": {
    "date_backmatter": "2556-02-27",
    "date_modified": "2556-03-06",
    "date_original": "2556-03-06",
    "doctype": "ประกาศ",
    "editors": [
      {
        "name": "ปริยานุช",
        "role": "ผู้จัดทำ",
        "date": "2556-03-12"
      },
      {
        "name": "ปณตภร",
        "role": "ผู้ตรวจ",
        "date": "2556-03-14"
      }
    ],
    "tag": "bb35-2e-2556-a0025"
  }
}