{
  "pages": [
    [
      [
        "ระเบียบคณะกรรมการการเลือกตั้ง",
        "ว่าด้วยการบริหารงานบุคคล",
        "พ.ศ. ๒๕๔๗"
      ]
    ],
    []
  ],
  "metadata": {
    "date_backmatter": "2547-02-20",
    "date_modified": "2558-03-02",
    "date_original": "2547-03-04",
    "editors": [
      {
        "name": "ปณตภร",
        "role": "ผู้จัดทำ",
        "date": "2556-10-03"
      },
      {
        "name": "กฤษดายุทธ",
        "role": "เพิ่มเติม",
        "date": "2558-03-07"
      }
    ],
    "tag": "bb35-2g-2558-a0015"
  }
}