{
  "pages": [
    [
      [
        "ประกาศคณะกรรมการการเลือกตั้ง",
        "เรื่อง การแบ่งเขตเลือกตั้งสมาชิกสภาเทศบาลในจังหวัดขอนแก่น"
      ]
    ],
    []
  ],
  "metadata": {
    "date_backmatter": "2555-10-24",
    "date_modified": "2555-11-14",
    "date_original": "2555-11-14",
    "doctype": "ประกาศ",
    "editors": [
      {
        "name": "ปริยานุช",
        "role": "ผู้จัดทำ",
        "date": "2555-11-15"
      },
      {
        "name": "ชาญ",
        "role": "ผู้ตรวจ",
        "date": "2555-11-20"
      }
    ],
    "tag": "bb35-2e-2555-a0341"
  }
}