{
  "pages": [
    [
      [
        "ประกาศคณะกรรมการการเลือกตั้ง",
        "เรื่อง การแบ่งเขตเลือกตั้งสมาชิกสภาเทศบาลในจังหวัดอุดรธานี"
      ]
    ],
    []
  ],
  "metadata": {
    "date_backmatter": "2555-09-26",
    "date_modified": "2555-10-12",
    "date_original": "2555-10-12",
    "doctype": "ประกาศ",
    "editors": [
      {
        "name": "ปริยานุช",
        "role": "ผู้จัดทำ",
        "date": "2555-10-16"
      },
      {
        "name": "ปณตภร",
        "role": "ผู้ตรวจ",
        "date": "2555-10-25"
      }
    ],
    "tag": "bb35-2e-2555-a0208"
  }
}