{
  "pages": [
    [
      [
        "ประกาศคณะกรรมการการเลือกตั้ง",
        "เรื่อง การแบ่งเขตเลือกตั้งสมาชิกสภาเทศบาลในจังหวัดขอนแก่น"
      ]
    ],
    []
  ],
  "metadata": {
    "date_backmatter": "2551-06-05",
    "date_modified": "2551-07-04",
    "date_original": "2551-07-04",
    "doctype": "ประกาศ",
    "editors": [
      {
        "name": "วัชศักดิ์",
        "role": "ผู้จัดทำ",
        "date": "2551-07-08"
      }
    ],
    "tag": "bb35-2e-2551-a0129"
  }
}