{
  "pages": [
    [
      [
        "ประกาศคณะกรรมการการเลือกตั้ง",
        "เรื่อง การแบ่งเขตเลือกตั้งสมาชิกสภาเทศบาลในจังหวัดเชียงใหม่"
      ]
    ],
    []
  ],
  "metadata": {
    "date_backmatter": "2551-02-06",
    "date_modified": "2551-03-03",
    "date_original": "2551-03-03",
    "doctype": "ประกาศ",
    "editors": [
      {
        "name": "วัชศักดิ์",
        "role": "ผู้จัดทำ",
        "date": "2551-03-04"
      }
    ],
    "tag": "bb35-2e-2551-a0047"
  }
}