{
  "pages": [
    [
      [
        "คำวินิจฉัยสั่งการของคณะกรรมการการเลือกตั้ง",
        "ที่ ๖๘/๒๕๔๔ ลงวันที่ ๒๕ มกราคม ๒๕๔๔",
        "เรื่อง คำสั่งเพิกถอนสิทธิเลือกตั้งของ นายชัยยุทธ จรรย์โกมล",
        "ผู้สมัครรับเลือกตั้งสมาชิกสภาผู้แทนราษฎร พรรคไทยรักไทย หมายเลข ๗",
        "เขตเลือกตั้งที่ ๕ จังหวัดชัยภูมิ"
      ]
    ],
    []
  ],
  "metadata": {
    "date_header": "2544-01-25",
    "editors": [],
    "tag": "bb35-2f-2544-a010"
  }
}