{
  "pages": [
    [
      [
        "ประกาศคณะกรรมการการเลือกตั้ง",
        "เรื่อง การแบ่งเขตเลือกตั้งสมาชิกสภาเทศบาลในจังหวัดเชียงใหม่"
      ]
    ],
    []
  ],
  "metadata": {
    "date_backmatter": "2557-02-27",
    "date_modified": "2557-03-03",
    "date_original": "2557-03-03",
    "doctype": "ประกาศ",
    "editors": [
      {
        "name": "ปริยานุช",
        "role": "ผู้จัดทำ",
        "date": "2557-03-07"
      },
      {
        "name": "ปณตภร",
        "role": "ผู้ตรวจ",
        "date": "2557-03-11"
      }
    ],
    "tag": "bb35-2e-2557-a0043"
  }
}