{
  "pages": [
    [
      [
        "ประกาศคณะกรรมการการเลือกตั้ง",
        "เรื่อง การแบ่งเขตเลือกตั้งสมาชิกสภาเทศบาลในจังหวัดพะเยา"
      ]
    ],
    []
  ],
  "metadata": {
    "date_backmatter": "2551-11-12",
    "date_modified": "2552-01-12",
    "date_original": "2552-01-12",
    "doctype": "ประกาศ",
    "editors": [
      {
        "name": "ปริยานุช",
        "role": "ผู้จัดทำ",
        "date": "2552-01-13"
      }
    ],
    "tag": "bb35-2e-2552-a0004"
  }
}