{
  "pages": [
    [
      [
        "ประกาศคณะกรรมการการเลือกตั้ง",
        "เรื่อง การแบ่งเขตเลือกตั้งสมาชิกสภาเทศบาลในจังหวัดนครศรีธรรมราช"
      ]
    ],
    []
  ],
  "metadata": {
    "date_backmatter": "2548-09-22",
    "date_modified": "2548-10-10",
    "date_original": "2548-10-10",
    "doctype": "ประกาศ",
    "editors": [
      {
        "name": "ชัชสรัญ",
        "role": "ผู้จัดทำ",
        "date": "2548-10-14"
      }
    ],
    "tag": "bb35-2e-2548-a0127"
  }
}