{
  "pages": [
    [
      [
        "ประกาศคณะกรรมการการเลือกตั้ง",
        "เรื่อง การแบ่งเขตเลือกตั้งสมาชิกสภาเทศบาลในจังหวัดตาก"
      ]
    ],
    []
  ],
  "metadata": {
    "date_backmatter": "2549-12-27",
    "date_modified": "2550-01-10",
    "date_original": "2550-01-10",
    "doctype": "ประกาศ",
    "editors": [
      {
        "name": "วัชศักดิ์",
        "role": "ผู้จัดทำ",
        "date": "2550-01-19"
      }
    ],
    "tag": "bb35-2e-2550-a0007"
  }
}