{
  "pages": [
    [
      [
        "ข้อกำหนดคณะกรรมการการเลือกตั้ง",
        "ว่าด้วยการลงคะแนนเสียงเพื่อถอดถอนสมาชิกสภาท้องถิ่นหรือผู้บริหารท้องถิ่น",
        "พ.ศ. ๒๕๔๖"
      ]
    ],
    []
  ],
  "metadata": {
    "date_backmatter": "2546-01-13",
    "date_modified": "2559-12-26",
    "date_original": "2546-01-17",
    "editors": [
      {
        "name": "ชนิกา",
        "role": "เพิ่มเติม",
        "date": "2559-12-27"
      }
    ],
    "tag": "bb35-2h-9996-update"
  }
}