{
  "pages": [
    [
      [
        "ประกาศคณะกรรมการการเลือกตั้ง",
        "เรื่อง การแบ่งเขตเลือกตั้งสมาชิกสภาองค์การบริหารส่วนจังหวัดอำนาจเจริญ"
      ]
    ],
    []
  ],
  "metadata": {
    "date_backmatter": "2555-06-27",
    "date_modified": "2555-07-06",
    "date_original": "2555-07-06",
    "doctype": "ประกาศ",
    "editors": [
      {
        "name": "ปริยานุช",
        "role": "ผู้จัดทำ",
        "date": "2555-07-12"
      },
      {
        "name": "ณัฐพร",
        "role": "ผู้ตรวจ",
        "date": "2555-07-12"
      }
    ],
    "tag": "bb35-2e-2555-a0104"
  }
}