{
  "pages": [
    [
      [
        "ประกาศคณะกรรมการการเลือกตั้ง",
        "เรื่อง การแบ่งเขตเลือกตั้งสมาชิกสภาเทศบาลในจังหวัดร้อยเอ็ด"
      ]
    ],
    []
  ],
  "metadata": {
    "date_backmatter": "2557-02-25",
    "date_modified": "2557-03-07",
    "date_original": "2557-03-07",
    "doctype": "ประกาศ",
    "editors": [
      {
        "name": "ปริยานุช",
        "role": "ผู้จัดทำ",
        "date": "2557-03-10"
      },
      {
        "name": "โชติกานต์",
        "role": "ผู้ตรวจ",
        "date": "2557-03-12"
      }
    ],
    "tag": "bb35-2e-2557-a0049"
  }
}