{
  "pages": [
    [
      [
        "ระเบียบคณะกรรมการการเลือกตั้ง",
        "ว่าด้วยค่าใช้จ่ายในการเดินทางไปปฏิบัติงาน (ฉบับที่ ๒)",
        "พ.ศ. ๒๕๕๓"
      ]
    ],
    []
  ],
  "metadata": {
    "date_backmatter": "2553-06-11",
    "date_modified": "2553-06-24",
    "date_original": "2553-06-24",
    "editors": [
      {
        "name": "ปริยานุช",
        "role": "จัดทำ",
        "date": "2553-06-28"
      },
      {
        "name": "นันท์นภัสร์",
        "role": "ตรวจ",
        "date": "2553-06-28"
      },
      {
        "name": "ศิรวัชร์",
        "role": "ปรับปรุง",
        "date": "2560-02-09"
      }
    ],
    "tag": "bb35-2g-2553-a0005"
  }
}