{
  "pages": [
    [
      [
        "ระเบียบคณะกรรมการการเลือกตั้ง",
        "ว่าด้วยการจัดสรรงบประมาณให้กับหน่วยงานสนับสนุนการดำเนินงาน",
        "ของคณะกรรมการการเลือกตั้งหรือสำนักงานคณะกรรมการการเลือกตั้ง",
        "พ.ศ. ๒๕๕๔"
      ]
    ],
    []
  ],
  "metadata": {
    "date_backmatter": "2554-02-08",
    "date_modified": "2554-02-11",
    "date_original": "2554-02-11",
    "editors": [
      {
        "name": "ปริยานุช",
        "role": "ผู้จัดทำ",
        "date": "2554-02-14"
      },
      {
        "name": "ณัฐวดี",
        "role": "ตรวจ",
        "date": "2554-02-14"
      }
    ],
    "tag": "bb35-2g-2554-a0004"
  }
}