{
  "pages": [
    [
      [
        "ประกาศคณะกรรมการการเลือกตั้ง",
        "เรื่อง ผลการเลือกตั้งสมาชิกวุฒิสภา เขตเลือกตั้งจังหวัดบุรีรัมย์"
      ]
    ],
    []
  ],
  "metadata": {
    "date_backmatter": "2543-05-15",
    "date_modified": "2543-05-30",
    "date_original": "2543-05-30",
    "doctype": "ประกาศ",
    "editors": [],
    "tag": "bb35-2e-2543-a045"
  }
}