{
  "pages": [
    [
      [
        "ประกาศคณะกรรมการการเลือกตั้ง",
        "เรื่อง การแบ่งเขตเลือกตั้งสมาชิกสภาเทศบาลในจังหวัดร้อยเอ็ด"
      ]
    ],
    []
  ],
  "metadata": {
    "date_backmatter": "2556-10-22",
    "date_modified": "2556-11-01",
    "date_original": "2556-11-01",
    "doctype": "ประกาศ",
    "editors": [
      {
        "name": "ปริยานุช",
        "role": "ผู้จัดทำ",
        "date": "2556-11-04"
      },
      {
        "name": "เอกฤทธิ์",
        "role": "ผู้ตรวจ",
        "date": "2556-11-05"
      }
    ],
    "tag": "bb35-2e-2556-a0164"
  }
}