{
  "pages": [
    [
      [
        "ประกาศคณะกรรมการการเลือกตั้ง",
        "เรื่อง กำหนดจำนวนเงินค่าใช้จ่ายในการเลือกตั้งสมาชิกสภาผู้แทนราษฎร"
      ]
    ],
    []
  ],
  "metadata": {
    "date_backmatter": "2545-02-05",
    "date_modified": "2545-02-05",
    "date_original": "2545-02-05",
    "doctype": "ประกาศ",
    "editors": [
      {
        "name": "วิมล",
        "role": "ผู้จัดทำ",
        "date": "2560-01-20"
      }
    ],
    "tag": "bb35-2e-2545-a003"
  }
}