{
  "pages": [
    [
      [
        "ระเบียบคณะกรรมการการเลือกตั้ง",
        "ว่าด้วยการพิจารณาการแจ้งเหตุที่ไม่อาจไปใช้สิทธิเลือกตั้งสมาชิก",
        "สภาผู้แทนราษฎร พ.ศ. ๒๕๔๓"
      ]
    ],
    []
  ],
  "metadata": {
    "date_backmatter": "2543-09-20",
    "date_modified": "2543-09-28",
    "date_original": "2543-09-28",
    "editors": [
      {
        "name": "สุรินทร์",
        "role": "แก้ไข",
        "date": "2544-08-06"
      },
      {
        "name": "ศิรวัชร์",
        "role": "ปรับปรุง",
        "date": "2560-01-24"
      }
    ],
    "tag": "bb35-2g-2543-a011"
  }
}