{
  "pages": [
    [
      [
        "ประกาศคณะกรรมการการเลือกตั้ง",
        "เรื่อง การแบ่งเขตเลือกตั้งสมาชิกสภาเทศบาลในจังหวัดลพบุรี"
      ]
    ],
    []
  ],
  "metadata": {
    "date_backmatter": "2552-01-20",
    "date_modified": "2552-02-15",
    "date_original": "2552-02-15",
    "doctype": "ประกาศ",
    "editors": [
      {
        "name": "ปริยานุช",
        "role": "ผู้จัดทำ",
        "date": "2552-10-14"
      },
      {
        "name": "นันท์นภัสร์",
        "role": "ตรวจ",
        "date": "2552-10-14"
      }
    ],
    "tag": "bb35-2e-2552-a0049"
  }
}