{
  "pages": [
    [
      [
        "คำสั่งคณะกรรมการการเลือกตั้ง",
        "ที่ ๒๑/๒๕๕๑",
        "เรื่อง สั่งให้มีการเลือกตั้งสมาชิกสภาผู้แทนราษฎรจังหวัดสกลนคร เขตเลือกตั้งที่ ๑",
        "และจังหวัดนครนายก เขตเลือกตั้งที่ ๑ ใหม่"
      ]
    ],
    []
  ],
  "metadata": {
    "date_backmatter": "2551-01-11",
    "date_modified": "2551-01-16",
    "date_original": "2551-01-16",
    "editors": [
      {
        "name": "วัชศักดิ์",
        "role": "จัดทำ",
        "date": "2551-01-30"
      },
      {
        "name": "ศิรวัชร์",
        "role": "ปรับปรุง",
        "date": "2560-01-19"
      }
    ],
    "tag": "bb35-2f-2551-a0006"
  }
}