{
  "pages": [
    [
      [
        "ประกาศคณะกรรมการการเลือกตั้ง",
        "เรื่อง การแบ่งเขตเลือกตั้งสมาชิกสภาองค์การบริหารส่วนจังหวัดมุกดาหาร"
      ]
    ],
    []
  ],
  "metadata": {
    "date_backmatter": "2555-08-15",
    "date_modified": "2555-08-29",
    "date_original": "2555-08-29",
    "doctype": "ประกาศ",
    "editors": [
      {
        "name": "ปริยานุช",
        "role": "ผู้จัดทำ",
        "date": "2555-09-03"
      },
      {
        "name": "ปณตภร",
        "role": "ผู้ตรวจ",
        "date": "2555-09-05"
      }
    ],
    "tag": "bb35-2e-2555-a0159"
  }
}