{
  "pages": [
    [
      [
        "ประกาศคณะกรรมการการเลือกตั้ง",
        "เรื่อง กำหนดเขตตรวจการ"
      ]
    ],
    []
  ],
  "metadata": {
    "date_backmatter": "2557-11-26",
    "date_modified": "2557-11-28",
    "date_original": "2557-11-28",
    "doctype": "ประกาศ",
    "editors": [
      {
        "name": "ปริยานุช",
        "role": "ผู้จัดทำ",
        "date": "2557-12-01"
      },
      {
        "name": "ภีราพร",
        "role": "ผู้ตรวจ",
        "date": "2557-12-11"
      }
    ],
    "tag": "bb35-2e-2557-a0079"
  }
}