{
  "pages": [
    [
      [
        "ประกาศคณะกรรมการการเลือกตั้ง",
        "เรื่อง การแบ่งเขตเลือกตั้งสมาชิกสภาเทศบาลในจังหวัดพระนครศรีอยุธยา"
      ]
    ],
    []
  ],
  "metadata": {
    "date_backmatter": "2550-05-15",
    "date_modified": "2550-06-06",
    "date_original": "2550-06-06",
    "doctype": "ประกาศ",
    "editors": [
      {
        "name": "วัชศักดิ์",
        "role": "ผู้จัดทำ",
        "date": "2550-06-13"
      }
    ],
    "tag": "bb35-2e-2550-a0032"
  }
}