{
  "pages": [
    [
      [
        "ประกาศคณะกรรมการการเลือกตั้ง",
        "เรื่อง การแบ่งเขตเลือกตั้งสมาชิกสภาเทศบาลในจังหวัดขอนแก่น"
      ]
    ],
    []
  ],
  "metadata": {
    "date_backmatter": "2552-10-08",
    "date_modified": "2552-11-27",
    "date_original": "2552-11-27",
    "doctype": "ประกาศ",
    "editors": [
      {
        "name": "ปริยานุช",
        "role": "ผู้จัดทำ",
        "date": "2552-11-30"
      },
      {
        "name": "นันท์นภัสร์",
        "role": "ตรวจ",
        "date": "2552-11-30"
      }
    ],
    "tag": "bb35-2e-2552-a0066"
  }
}