{
  "pages": [
    [
      [
        "ประกาศคณะกรรมการการเลือกตั้ง",
        "เรื่อง ผลการเลือกตั้งสมาชิกสภาผู้แทนราษฎรจังหวัดเชียงราย",
        "เขตเลือกตั้งที่ ๓ แทนตำแหน่งที่ว่าง"
      ]
    ],
    []
  ],
  "metadata": {
    "date_backmatter": "2551-08-26",
    "date_modified": "2551-09-09",
    "date_original": "2551-09-09",
    "doctype": "ประกาศ",
    "editors": [
      {
        "name": "วัชศักดิ์",
        "role": "ผู้จัดทำ",
        "date": "2551-09-10"
      }
    ],
    "tag": "bb35-2e-2551-a0163"
  }
}