{
  "pages": [
    [
      [
        "คำวินิจฉัยสั่งการของคณะกรรมการการเลือกตั้ง",
        "ที่ ๔๗/๒๕๔๓ ลงวันที่ ๑๔ พฤษภาคม พ.ศ. ๒๕๔๓",
        "เรื่อง การวินิจฉัยและสั่งให้มีการเลือกตั้งสมาชิกวุฒิสภาใหม่",
        "ในเขตเลือกตั้งจังหวัดอำนาจเจริญ"
      ]
    ],
    []
  ],
  "metadata": {
    "date_header": "2543-05-14",
    "date_modified": "2543-06-19",
    "date_original": "2543-06-19",
    "editors": [
      {
        "name": "ศิรวัชร์",
        "role": "ปรับปรุง",
        "date": "2560-01-12"
      }
    ],
    "tag": "bb35-2f-2543-a063"
  }
}