{
  "pages": [
    [
      [
        "ประกาศคณะกรรมการการเลือกตั้ง",
        "เรื่อง การแบ่งเขตเลือกตั้งสมาชิกสภาเทศบาลในจังหวัดสุราษฎร์ธานี"
      ]
    ],
    []
  ],
  "metadata": {
    "date_backmatter": "2557-01-02",
    "date_modified": "2557-01-14",
    "date_original": "2557-01-14",
    "doctype": "ประกาศ",
    "editors": [
      {
        "name": "ปริยานุช",
        "role": "ผู้จัดทำ",
        "date": "2557-01-14"
      },
      {
        "name": "ณัฐพร",
        "role": "ผู้ตรวจ",
        "date": "2557-01-14"
      }
    ],
    "tag": "bb35-2e-2557-a0006"
  }
}