{
  "pages": [
    [
      [
        "ประกาศนายทะเบียนพรรคการเมือง",
        "เรื่อง แนวทางปฏิบัติสำหรับการจัดสรรเวลาออกอากาศให้แก่พรรคการเมือง",
        "ในการแถลงผลงานของพรรคการเมืองทางสถานีวิทยุกระจายเสียงและสถานีวิทยุโทรทัศน์ของรัฐ",
        "พ.ศ. ๒๕๕๕"
      ]
    ],
    []
  ],
  "metadata": {
    "date_backmatter": "2555-02-20",
    "date_modified": "2555-03-02",
    "date_original": "2555-03-02",
    "doctype": "ประกาศ",
    "editors": [
      {
        "name": "ปริยานุช",
        "role": "ผู้จัดทำ",
        "date": "2555-03-05"
      },
      {
        "name": "ณัฐพร",
        "role": "ผู้ตรวจ",
        "date": "2555-03-05"
      }
    ],
    "tag": "bb35-2e-2555-a0029"
  }
}