{
  "pages": [
    [
      [
        "ประกาศคณะกรรมการการเลือกตั้ง",
        "เรื่อง แบบบัญชีแสดงรายการทรัพย์สินและหนี้สินของหัวหน้าพรรคการเมือง",
        "กรรมการบริหารพรรคการเมือง",
        "พ.ศ. ๒๕๕๐"
      ]
    ],
    []
  ],
  "metadata": {
    "date_backmatter": "2550-11-13",
    "date_modified": "2550-11-22",
    "date_original": "2550-11-22",
    "doctype": "ประกาศ",
    "editors": [
      {
        "name": "วัชศักดิ์",
        "role": "ผู้จัดทำ",
        "date": "2550-11-26"
      }
    ],
    "tag": "bb35-2e-2550-a0084"
  }
}