{
  "pages": [
    [
      [
        "ระเบียบกระทรวงมหาดไทย",
        "ว่าด้วยการขอพระราชทานชั้นยศ นายหมวดตรี ให้แก่สมาชิกกองอาสารักษาดินแดน",
        "พ.ศ. ๒๕๕๖"
      ]
    ],
    []
  ],
  "metadata": {
    "date_backmatter": "2556-01-31",
    "date_modified": "2556-03-18",
    "date_original": "2556-03-18",
    "editors": [
      {
        "name": "ปริยานุช",
        "role": "ผู้จัดทำ",
        "date": "2556-03-20"
      },
      {
        "name": "โชติกานต์",
        "role": "ผู้ตรวจ",
        "date": "2556-04-18"
      }
    ],
    "tag": "c203-2g-2556-a0001"
  }
}