{
  "pages": [
    [
      [
        "พระราชบัญญัติ",
        "ยศ และเครื่องแบบผู้บังคับบัญชา",
        "และเจ้าหน้าที่กองอาสารักษาดินแดน",
        "พ.ศ. ๒๔๙๗",
        "",
        "",
        "ภูมิพลอดุลยเดช ป.ร.",
        "ให้ไว้ ณ วันที่ ๒๒ ธันวาคม พ.ศ. ๒๔๙๗",
        "เป็นปีที่ ๙ ในรัชกาลปัจจุบัน"
      ]
    ],
    []
  ],
  "metadata": {
    "date_header": "2497-12-22",
    "date_modified": "2497-12-31",
    "date_original": "2497-12-31",
    "doctype": "พระราชบัญญัติ",
    "editors": [
      {
        "name": null,
        "role": null,
        "date": "2554-02-00"
      }
    ],
    "tag": "c203-20-2497-001",
    "title": "ยศ และเครื่องแบบผู้บังคับบัญชาและเจ้าหน้าที่กองอาสารักษาดินแดน"
  }
}