{
  "pages": [
    [
      [
        "ข้อบังคับสภากาชาดไทย"
      ]
    ],
    []
  ],
  "metadata": {
    "date_backmatter": "2500-05-13",
    "date_modified": "2553-11-24",
    "date_original": "2500-06-18",
    "editors": [
      {
        "name": "คุณากร",
        "role": "ผู้จัดทำ",
        "date": "2554-01-09"
      }
    ],
    "tag": "c723-2i-2553-a0077"
  }
}