{
  "pages": [
    [
      [
        "ข้อบังคับสภากาชาดไทย",
        "แก้ไขเพิ่มเติม (ฉบับที่ ๘๑) พุทธศักราช ๒๕๖๐",
        "หมวดที่ ๘ ว่าด้วย เหล่ากาชาดจังหวัด"
      ]
    ],
    []
  ],
  "metadata": {
    "date_backmatter": "2560-12-18",
    "date_modified": "2561-01-31",
    "date_original": "2561-01-31",
    "editors": [
      {
        "name": "ปวันวิทย์",
        "role": "จัดทำ",
        "date": "2561-02-14"
      }
    ],
    "tag": "c723-2i-2561-a0001"
  }
}