{
  "pages": [
    [
      [
        "ข้อบังคับสภากาชาดไทย",
        "แก้ไขเพิ่มเติม (ฉบับที่ ๗๔) พุทธศักราช ๒๕๕๓"
      ]
    ],
    []
  ],
  "metadata": {
    "date_backmatter": "2553-06-15",
    "date_modified": "2553-11-30",
    "date_original": "2553-11-30",
    "editors": [
      {
        "name": "คุณากร",
        "role": "ผู้จัดทำ",
        "date": "2555-01-18"
      }
    ],
    "tag": "c723-2i-2553-a0052"
  }
}