{
  "pages": [
    [
      [
        "ข้อบังคับ",
        "สภากาชาดไทยแก้ไขเพิ่มเติม (ฉบับที่ ๖) พ.ศ. ๒๕๐๕"
      ]
    ],
    []
  ],
  "metadata": {
    "date_backmatter": "2505-10-30",
    "date_modified": "2505-11-23",
    "date_original": "2505-11-23",
    "editors": [
      {
        "name": "คุณากร",
        "role": "ผู้จัดทำ",
        "date": "2555-01-10"
      }
    ],
    "tag": "c723-2i-2505-a0001"
  }
}