{
  "pages": [
    [
      [
        "ข้อบังคับสภากาชาดไทย แก้ไขเพิ่มเติม",
        "(ฉบับที่ ๓๖) พุทธศักราช ๒๕๓๒"
      ]
    ],
    []
  ],
  "metadata": {
    "date_backmatter": "2532-03-10",
    "date_modified": "2553-11-24",
    "date_original": "2553-11-24",
    "editors": [
      {
        "name": "คุณากร",
        "role": "ผู้จัดทำ",
        "date": "2555-01-14"
      }
    ],
    "tag": "c723-2i-2553-a0015"
  }
}