{
  "pages": [
    [
      [
        "ข้อบังคับสภากาชาดไทย",
        "แก้ไขเพิ่มเติม (ฉบับที่ ๑๘)",
        "พุทธศักราช ๒๕๑๖"
      ]
    ],
    []
  ],
  "metadata": {
    "date_backmatter": "2516-10-03",
    "date_modified": "2516-10-23",
    "date_original": "2516-10-23",
    "editors": [
      {
        "name": "คุณากร",
        "role": "ผู้จัดทำ",
        "date": "2555-01-12"
      }
    ],
    "tag": "c723-2i-2516-018"
  }
}