{
  "pages": [
    [
      [
        "ข้อบังคับสภากาชาดไทย แก้ไขเพิ่มเติม",
        "(ฉบับที่ ๕๗) พุทธศักราช ๒๕๔๑"
      ]
    ],
    []
  ],
  "metadata": {
    "date_backmatter": "2541-02-25",
    "date_modified": "2553-11-24",
    "date_original": "2553-11-24",
    "editors": [
      {
        "name": "คุณากร",
        "role": "ผู้จัดทำ",
        "date": "2555-01-16"
      }
    ],
    "tag": "c723-2i-2553-a0035"
  }
}