{
  "pages": [
    [
      [
        "พระราชบัญญัติ",
        "ว่าด้วยสภากาชาดไทย",
        "พระพุทธศักราช ๒๔๖๑"
      ]
    ],
    []
  ],
  "metadata": {
    "date_backmatter": "2461-06-12",
    "date_modified": "2502-11-01",
    "date_original": "2461-06-16",
    "editors": [
      {
        "name": "วสุ สรรกำเนิด",
        "role": "ผู้ปรับปรุง",
        "date": "2552-09-04"
      }
    ],
    "tag": "c723-20-2502-a0001"
  }
}