{
  "pages": [
    [
      [
        "ประกาศ",
        "เลิกใช้กฎอัยการศึกในบางเขตพื้นที่และให้ใช้กฎอัยการศึกในบางเขตพื้นที่",
        "",
        "",
        "ภูมิพลอดุลยเดช ป.ร."
      ]
    ],
    []
  ],
  "metadata": {
    "date_backmatter": "2550-12-31",
    "date_modified": "2551-01-09",
    "date_original": "2551-01-09",
    "doctype": "ประกาศ",
    "editors": [
      {
        "name": "วัชศักดิ์",
        "role": "ผู้จัดทำ",
        "date": "2551-01-24"
      }
    ],
    "tag": "c306-1f-2551-a0002"
  }
}