{
  "pages": [
    [
      [
        "พระราชกฤษฎีกา",
        "ปิดประชุมรัฐสภาสมัยประชุมสามัญทั่วไป",
        "พ.ศ. ๒๕๕๓",
        "",
        "",
        "ภูมิพลอดุลยเดช ป.ร.",
        "ให้ไว้ ณ วันที่ ๗ พฤษภาคม พ.ศ. ๒๕๕๓",
        "เป็นปีที่ ๖๕ ในรัชกาลปัจจุบัน"
      ]
    ],
    []
  ],
  "metadata": {
    "date_header": "2553-05-07",
    "date_modified": "2553-05-15",
    "date_original": "2553-05-15",
    "doctype": "พระราชกฤษฎีกา",
    "editors": [
      {
        "name": "ปริยานุช",
        "role": "จัดทำ",
        "date": "2553-05-25"
      },
      {
        "name": "นันท์นภัสร์",
        "role": "ตรวจ",
        "date": "2553-05-25"
      }
    ],
    "tag": "c306-1b-2553-a0007",
    "title": "ปิดประชุมรัฐสภาสมัยประชุมสามัญทั่วไป"
  }
}