{
  "pages": [
    [
      [
        "คำสั่งหัวหน้าคณะรักษาความสงบแห่งชาติ",
        "ที่ ๘/๒๕๖๐",
        "เรื่อง การขับเคลื่อนการปฏิรูปการบริหารงานส่วนบุคคลท้องถิ่น"
      ]
    ],
    []
  ],
  "metadata": {
    "date_backmatter": "2560-02-21",
    "date_modified": "2560-02-21",
    "date_original": "2560-02-21",
    "editors": [
      {
        "name": "พิมพ์มาดา/ปริยานุช",
        "role": "จัดทำ",
        "date": "2560-02-23"
      }
    ],
    "tag": "c306-1h-2560-a0004"
  }
}