{
  "pages": [
    [
      [
        "คำสั่งหัวหน้าคณะรักษาความสงบแห่งชาติ",
        "ที่ ๑๗/๒๕๕๘",
        "เรื่อง การจัดหาที่ดินเพื่อใช้ประโยชน์ในเขตพัฒนาเศรษฐกิจพิเศษ"
      ]
    ],
    []
  ],
  "metadata": {
    "date_backmatter": "2558-05-15",
    "date_modified": "2558-05-15",
    "date_original": "2558-05-15",
    "editors": [
      {
        "name": "ปริยานุช",
        "role": "ผู้จัดทำ",
        "date": "2558-05-18"
      },
      {
        "name": "วิชพงษ์",
        "role": "ผู้ตรวจ",
        "date": "2558-05-20"
      }
    ],
    "tag": "c306-1h-2558-a0021"
  }
}