{
  "pages": [
    [
      [
        "พระราชกฤษฎีกา",
        "เรียกประชุมสภานิติบัญญัติแห่งชาติ",
        "พ.ศ. ๒๕๕๗",
        "",
        "",
        "ภูมิพลอดุลยเดช ป.ร.",
        "ให้ไว้ ณ วันที่ ๓๑ กรกฎาคม พ.ศ. ๒๕๕๗",
        "เป็นปีที่ ๖๙ ในรัชกาลปัจจุบัน"
      ]
    ],
    []
  ],
  "metadata": {
    "date_header": "2557-07-31",
    "date_modified": "2557-07-31",
    "date_original": "2557-07-31",
    "doctype": "พระราชกฤษฎีกา",
    "editors": [
      {
        "name": "ปริยานุช",
        "role": "ผู้จัดทำ",
        "date": "2557-08-04"
      },
      {
        "name": "นุสรา",
        "role": "ผู้ตรวจ",
        "date": "2557-11-12"
      }
    ],
    "tag": "c306-1b-2557-a0004",
    "title": "เรียกประชุมสภานิติบัญญัติแห่งชาติ"
  }
}