{
  "pages": [
    [
      [
        "พระราชกฤษฎีกา",
        "ปิดประชุมรัฐสภาสมัยประชุมสามัญนิติบัญญัติ",
        "พ.ศ. ๒๕๔๓",
        "",
        "",
        "ภูมิพลอดุลยเดช ป.ร.",
        "ให้ไว้ ณ วันที่ ๑๔ ตุลาคม พ.ศ. ๒๕๔๓",
        "เป็นปีที่ ๕๕ ในรัชกาลปัจจุบัน"
      ]
    ],
    []
  ],
  "metadata": {
    "date_header": "2543-10-14",
    "date_modified": "2543-10-22",
    "date_original": "2543-10-22",
    "doctype": "พระราชกฤษฎีกา",
    "editors": [
      {
        "name": "สุกัญญา",
        "role": "พิมพ์",
        "date": "2549-07-20"
      },
      {
        "name": "สุนันทา/ฐิติพงษ์",
        "role": "ตรวจ",
        "date": "2549-07-24"
      },
      {
        "name": null,
        "role": null,
        "date": "2549-07-24"
      }
    ],
    "tag": "c306-1b-2543-a0004",
    "title": "ปิดประชุมรัฐสภาสมัยประชุมสามัญนิติบัญญัติ"
  }
}