{
  "pages": [
    [
      [
        "คำสั่งหัวหน้าคณะรักษาความสงบแห่งชาติ",
        "ที่ ๒๙/๒๕๖๐",
        "เรื่อง การส่งเสริมการจัดการศึกษาโดยสถาบันอุดมศึกษาที่มีศักยภาพสูงจากต่างประเทศ"
      ]
    ],
    []
  ],
  "metadata": {
    "date_backmatter": "2560-05-26",
    "date_modified": "2560-05-26",
    "date_original": "2560-05-26",
    "editors": [
      {
        "name": "ภวรรณตรี",
        "role": "จัดทำ",
        "date": "2560-05-31"
      },
      {
        "name": "ชวัลพร",
        "role": "ตรวจ",
        "date": "2560-05-31"
      }
    ],
    "tag": "c306-1h-2560-a0010"
  }
}