{
  "pages": [
    [
      [
        "ระเบียบคณะกรรมการการเลือกตั้ง",
        "ว่าด้วยเงินเพิ่มพิเศษค่าครองชีพพนักงานและลูกจ้างประจำ",
        "พ.ศ. ๒๕๕๑"
      ]
    ],
    []
  ],
  "metadata": {
    "date_backmatter": "2551-07-28",
    "date_modified": "2551-07-31",
    "date_original": "2551-07-31",
    "editors": [
      {
        "name": "ปริยานุช",
        "role": "ผู้จัดทำ",
        "date": "2551-08-01"
      }
    ],
    "tag": "c306-1g-2551-a0013"
  }
}