{
  "pages": [
    [
      [
        "คำสั่งหัวหน้าคณะรักษาความสงบแห่งชาติ",
        "ที่ ๕๖/๒๕๕๙",
        "เรื่อง การคุ้มครองการบริหารจัดการผลิตภัณฑ์ทางการเกษตรในการดูแลของรัฐ",
        "และการดำเนินการต่อผู้ต้องรับผิด"
      ]
    ],
    []
  ],
  "metadata": {
    "date_backmatter": "2559-09-13",
    "date_modified": "2559-09-13",
    "date_original": "2559-09-13",
    "editors": [
      {
        "name": "กัญฑรัตน์/ปริยานุช",
        "role": "จัดทำ",
        "date": "2559-09-15"
      },
      {
        "name": "พจนา",
        "role": "ตรวจ",
        "date": "2559-09-15"
      }
    ],
    "tag": "c306-1h-2559-a0020"
  }
}