{
  "pages": [
    [
      [
        "พระราชกฤษฎีกา",
        "ปิดประชุมรัฐสภาสมัยประชุมสามัญนิติบัญญัติ",
        "พ.ศ. ๒๕๔๕",
        "",
        "",
        "ภูมิพลอดุลยเดช ป.ร.",
        "ให้ไว้ ณ วันที่ ๒๕ พฤศจิกายน พ.ศ. ๒๕๔๕",
        "เป็นปีที่ ๕๗ ในรัชกาลปัจจุบัน"
      ]
    ],
    []
  ],
  "metadata": {
    "date_header": "2545-11-25",
    "date_modified": "2545-11-27",
    "date_original": "2545-11-27",
    "doctype": "พระราชกฤษฎีกา",
    "editors": [
      {
        "name": "ศิริยา",
        "role": "พิมพ์",
        "date": "2549-05-24"
      },
      {
        "name": "สุนันทา/ฐิติพงษ์",
        "role": "ตรวจ",
        "date": "2549-06-01"
      },
      {
        "name": null,
        "role": null,
        "date": "2549-06-01"
      },
      {
        "name": "เชิงชาย",
        "role": "ปรับปรุง",
        "date": "2549-09-11"
      }
    ],
    "tag": "c306-1b-2545-a0008",
    "title": "ปิดประชุมรัฐสภาสมัยประชุมสามัญนิติบัญญัติ"
  }
}