{
  "pages": [
    [
      [
        "พระราชกฤษฎีกา",
        "เรียกประชุมรัฐสภาสมัยประชุมสามัญนิติบัญญัติ",
        "พ.ศ. ๒๕๕๔",
        "",
        "",
        "ภูมิพลอดุลยเดช ป.ร.",
        "ให้ไว้ ณ วันที่ ๑๘ ธันวาคม พ.ศ. ๒๕๕๔",
        "เป็นปีที่ ๖๖ ในรัชกาลปัจจุบัน"
      ]
    ],
    []
  ],
  "metadata": {
    "date_header": "2554-12-18",
    "date_modified": "2554-12-19",
    "date_original": "2554-12-19",
    "doctype": "พระราชกฤษฎีกา",
    "editors": [
      {
        "name": "ปริยานุช",
        "role": "ผู้จัดทำ",
        "date": "2554-12-20"
      },
      {
        "name": "ปณตภร",
        "role": "ผู้ตรวจ",
        "date": "2554-12-20"
      }
    ],
    "tag": "c306-1b-2554-a0007",
    "title": "เรียกประชุมรัฐสภาสมัยประชุมสามัญนิติบัญญัติ"
  }
}