{
  "pages": [
    [
      [
        "พระราชกฤษฎีกา",
        "ปิดประชุมรัฐสภาสมัยประชุมสามัญนิติบัญญัติ",
        "พ.ศ. ๒๕๔๘",
        "",
        "",
        "ภูมิพลอดุลยเดช ป.ร.",
        "ให้ไว้ ณ วันที่ ๒๔ พฤศจิกายน พ.ศ. ๒๕๔๘",
        "เป็นปีที่ ๖๐ ในรัชกาลปัจจุบัน"
      ]
    ],
    []
  ],
  "metadata": {
    "date_header": "2548-11-24",
    "date_modified": "2548-12-13",
    "date_original": "2548-12-13",
    "doctype": "พระราชกฤษฎีกา",
    "editors": [
      {
        "name": "ฐิติพงษ์",
        "role": "ผู้จัดทำ",
        "date": "2549-05-08"
      },
      {
        "name": "เชิงชาย",
        "role": "ปรับปรุง",
        "date": "2549-09-08"
      }
    ],
    "tag": "c306-1b-2548-a0014",
    "title": "ปิดประชุมรัฐสภาสมัยประชุมสามัญนิติบัญญัติ"
  }
}