{
  "pages": [
    [
      [
        "ประกาศคณะกรรมการการเลือกตั้ง",
        "เรื่อง จำนวน หลักเกณฑ์และวิธีการให้เงิน ทรัพย์สิน หรือประโยชน์อื่นใดอันอาจคำนวณเป็นเงินได้",
        "ตามปกติประเพณีของพรรคการเมือง ผู้ดำรงตำแหน่งในพรรคการเมือง และสมาชิกซึ่งเป็น",
        "สมาชิกสภาผู้แทนราษฎรหรือผู้ดำรงตำแหน่งทางการเมือง",
        "พ.ศ. ๒๕๕๑"
      ]
    ],
    []
  ],
  "metadata": {
    "date_backmatter": "2551-10-07",
    "date_modified": "2551-10-07",
    "date_original": "2551-10-07",
    "doctype": "ประกาศ",
    "editors": [
      {
        "name": "วัชศักดิ์",
        "role": "ผู้จัดทำ",
        "date": "2551-10-08"
      }
    ],
    "tag": "c306-1f-2551-a0038"
  }
}