{
  "pages": [
    [
      [
        "ระเบียบ",
        "ว่าด้วยการยื่นคำร้อง การรับคำร้อง การนำเรื่องเข้าสู่การพิจารณา และวิธีพิจารณา",
        "ของคณะกรรมการจริยธรรมสภานิติบัญญัติแห่งชาติ",
        "พ.ศ. ๒๕๕๙"
      ]
    ],
    []
  ],
  "metadata": {
    "date_backmatter": "2559-07-14",
    "date_modified": "2559-08-05",
    "date_original": "2559-08-05",
    "editors": [
      {
        "name": "ปริยานุช",
        "role": "จัดทำ",
        "date": "2559-08-18"
      },
      {
        "name": "วิศนี",
        "role": "ตรวจ",
        "date": "2559-08-23"
      }
    ],
    "tag": "c306-1g-2559-a0004"
  }
}