{
  "pages": [
    [
      [
        "ประกาศคณะกรรมการการเลือกตั้ง",
        "เรื่อง ผลการเลือกตั้งสมาชิกวุฒิสภา"
      ]
    ],
    []
  ],
  "metadata": {
    "date_backmatter": "2549-05-09",
    "date_modified": "2549-05-01",
    "date_original": "2549-05-01",
    "doctype": "ประกาศ",
    "editors": [
      {
        "name": "นันทนา",
        "role": "ผู้จัดทำ",
        "date": "2549-05-25"
      },
      {
        "name": "อมรรัตน์",
        "role": "ปรับปรุง",
        "date": "2549-09-07"
      }
    ],
    "tag": "c306-1f-2549-a0015"
  }
}