{
  "pages": [
    [
      [
        "ระเบียบคณะกรรมการการเลือกตั้ง",
        "ว่าด้วยการใช้จ่ายเงินในการเลือกตั้งสมาชิกสภาผู้แทนราษฎร",
        "และการได้มาซึ่งสมาชิกวุฒิสภา",
        "พ.ศ. ๒๕๕๐"
      ]
    ],
    []
  ],
  "metadata": {
    "date_backmatter": "2550-11-09",
    "date_modified": "2550-11-15",
    "date_original": "2550-11-15",
    "editors": [
      {
        "name": "วัชศักดิ์",
        "role": "ผู้จัดทำ",
        "date": "2550-11-27"
      }
    ],
    "tag": "c306-1g-2550-a0012"
  }
}