{
  "pages": [
    [
      [
        "ข้อบังคับ",
        "สภาขับเคลื่อนการปฏิรูปประเทศ",
        "พ.ศ. ๒๕๕๘"
      ]
    ],
    []
  ],
  "metadata": {
    "date_backmatter": "2558-11-02",
    "date_modified": "2558-11-03",
    "date_original": "2558-11-03",
    "editors": [
      {
        "name": "ปริยานุช/กัญฑรัตน์",
        "role": "จัดทำ",
        "date": "2558-11-11"
      },
      {
        "name": "",
        "role": "ตรวจ",
        "date": "2558-11-11"
      }
    ],
    "tag": "c306-1i-2558-a0004"
  }
}