{
  "pages": [
    [
      [
        "ประมวลจริยธรรม",
        "กรรมการสิทธิมนุษยชนแห่งชาติและเจ้าหน้าที่",
        "ของสำนักงานคณะกรรมการสิทธิมนุษยชนแห่งชาติ"
      ]
    ],
    []
  ],
  "metadata": {
    "date_backmatter": "2553-06-23",
    "date_modified": "2553-08-18",
    "date_original": "2553-08-18",
    "editors": [
      {
        "name": "ปริยานุช",
        "role": "ผู้จัดทำ",
        "date": "2553-08-23"
      },
      {
        "name": "นันทนภัสร์",
        "role": "ตรวจ",
        "date": "2553-08-23"
      }
    ],
    "tag": "c306-1i-2553-a0003"
  }
}