{
  "pages": [
    [
      [
        "คำสั่งหัวหน้าคณะรักษาความสงบแห่งชาติ",
        "ที่ ๖/๒๕๖๐",
        "เรื่อง การแต่งตั้งนายกเมืองพัทยา"
      ]
    ],
    []
  ],
  "metadata": {
    "date_backmatter": "2560-02-16",
    "date_modified": "2560-02-16",
    "date_original": "2560-02-16",
    "editors": [
      {
        "name": "ปริยานุช",
        "role": "จัดทำ",
        "date": "2560-02-16"
      },
      {
        "name": "วิชพงษ์",
        "role": "ตรวจ",
        "date": "2560-02-16"
      }
    ],
    "tag": "c306-1h-2560-a0002"
  }
}