{
  "pages": [
    [
      [
        "ประกาศคณะกรรมการการเลือกตั้ง",
        "เรื่อง กำหนดวันออกเสียงประชามติ (เพิ่มเติม)"
      ]
    ],
    []
  ],
  "metadata": {
    "date_backmatter": "2559-07-05",
    "date_modified": "2559-07-08",
    "date_original": "2559-07-08",
    "doctype": "ประกาศ",
    "editors": [
      {
        "name": "ปริยานุช",
        "role": "จัดทำ",
        "date": "2559-07-11"
      },
      {
        "name": "กัญฑรัตน์",
        "role": "ตรวจ",
        "date": "2559-07-29"
      }
    ],
    "tag": "c306-1f-2559-a0002"
  }
}