{
  "pages": [
    [
      [
        "ข้อบังคับ",
        "การประชุมสภานิติบัญญัติแห่งชาติ",
        "พ.ศ. ๒๕๔๙"
      ]
    ],
    []
  ],
  "metadata": {
    "date_backmatter": "2549-11-10",
    "date_modified": "2549-11-29",
    "date_original": "2549-11-29",
    "editors": [
      {
        "name": "วัชศักดิ์",
        "role": "ผู้จัดทำ",
        "date": "2549-12-04"
      }
    ],
    "tag": "c306-1i-2549-a0001"
  }
}