{
  "pages": [
    [
      [
        "ประกาศสำนักนายกรัฐมนตรี",
        "เรื่อง การอนุมัติพระราชกำหนดแก้ไขเพิ่มเติม",
        "พระราชบัญญัติพิกัดอัตราภาษีสรรพสามิต พ.ศ. ๒๕๒๗ (ฉบับที่ ๕)",
        "พ.ศ. ๒๕๕๒"
      ]
    ],
    []
  ],
  "metadata": {
    "date_backmatter": "2552-08-28",
    "date_modified": "2552-09-02",
    "date_original": "2552-09-02",
    "doctype": "ประกาศ",
    "editors": [
      {
        "name": "ปริยานุช",
        "role": "ผู้จัดทำ",
        "date": "2552-09-10"
      }
    ],
    "tag": "c306-1f-2552-a0029"
  }
}