{
  "pages": [
    [
      [
        "ประกาศคณะกรรมการการเลือกตั้ง",
        "เรื่อง ผลการเลือกตั้งสมาชิกสภาผู้แทนราษฎรแบบแบ่งเขตเลือกตั้ง",
        "แทนตำแหน่งที่ว่าง",
        "(ครั้งที่ ๒)"
      ]
    ],
    []
  ],
  "metadata": {
    "date_backmatter": "2552-02-03",
    "date_modified": "2552-02-15",
    "date_original": "2552-02-15",
    "doctype": "ประกาศ",
    "editors": [
      {
        "name": "ปริยานุช",
        "role": "ผู้จัดทำ",
        "date": "2552-02-20"
      }
    ],
    "tag": "c306-1f-2552-a0003"
  }
}