{
  "pages": [
    [
      [
        "พระราชกฤษฎีกา",
        "ให้มีการเลือกตั้งสมาชิกสภาผู้แทนราษฎรจังหวัดชลบุรี เขตเลือกตั้งที่ ๒",
        "แทนตำแหน่งที่ว่าง",
        "พ.ศ. ๒๕๕๕",
        "",
        "",
        "ภูมิพลอดุลยเดช ป.ร.",
        "ให้ไว้ ณ วันที่ ๘ ธันวาคม พ.ศ. ๒๕๕๕",
        "เป็นปีที่ ๖๗ ในรัชกาลปัจจุบัน"
      ]
    ],
    []
  ],
  "metadata": {
    "date_header": "2555-12-08",
    "date_modified": "2555-12-09",
    "date_original": "2555-12-09",
    "doctype": "พระราชกฤษฎีกา",
    "editors": [
      {
        "name": "ปริยานุช",
        "role": "ผู้จัดทำ",
        "date": "2555-12-12"
      },
      {
        "name": "ปณตภร",
        "role": "ผู้ตรวจ",
        "date": "2555-12-13"
      }
    ],
    "tag": "c306-1b-2555-a0009",
    "title": "ให้มีการเลือกตั้งสมาชิกสภาผู้แทนราษฎรจังหวัดชลบุรี เขตเลือกตั้งที่ ๒แทนตำแหน่งที่ว่าง"
  }
}