{
  "pages": [
    [
      [
        "ระเบียบสภาผู้แทนราษฎร",
        "ว่าด้วยหลักเกณฑ์และวิธีการขอปรึกษาหารือของสมาชิกสภาผู้แทนราษฎร",
        "ก่อนเข้าสู่ระเบียบวาระการประชุม",
        "พ.ศ. ๒๕๕๑"
      ]
    ],
    []
  ],
  "metadata": {
    "date_backmatter": "2551-10-07",
    "date_modified": "2551-10-31",
    "date_original": "2551-10-31",
    "editors": [
      {
        "name": "วัชศักดิ์",
        "role": "ผู้จัดทำ",
        "date": "2551-11-04"
      }
    ],
    "tag": "c306-1g-2551-a0024"
  }
}