{
  "pages": [
    [
      [
        "พระราชกฤษฎีกา",
        "เรียกประชุมรัฐสภา",
        "พ.ศ. ๒๕๔๔",
        "",
        "",
        "ภูมิพลอดุลยเดช ป.ร.",
        "ให้ไว้ ณ วันที่ ๒ กุมภาพันธ์ พ.ศ. ๒๕๔๔",
        "เป็นปีที่ ๕๖ ในรัชกาลปัจจุบัน"
      ]
    ],
    []
  ],
  "metadata": {
    "date_header": "2544-02-02",
    "date_modified": "2544-02-02",
    "date_original": "2544-02-02",
    "doctype": "พระราชกฤษฎีกา",
    "editors": [
      {
        "name": "เชิงชาย ถาวรยุธร",
        "role": "ผู้จัดทำ",
        "date": "2549-08-29"
      }
    ],
    "tag": "c306-1b-2544-a006",
    "title": "เรียกประชุมรัฐสภา"
  }
}