{
  "pages": [
    [
      [
        "ประกาศคณะกรรมการการเลือกตั้ง",
        "เรื่อง กำหนดเขตเลือกตั้งสำหรับการเลือกตั้งสมาชิกสภาผู้แทนราษฎรแบบสัดส่วน"
      ]
    ],
    []
  ],
  "metadata": {
    "date_backmatter": "2550-10-17",
    "date_modified": "2550-10-22",
    "date_original": "2550-10-22",
    "doctype": "ประกาศ",
    "editors": [
      {
        "name": "ปริยานุช",
        "role": "ผู้จัดทำ",
        "date": "2550-11-06"
      }
    ],
    "tag": "c306-1f-2550-a0009"
  }
}