{
  "pages": [
    [
      [
        "พระราชกฤษฎีกา",
        "ปิดประชุมรัฐสภาสมัยประชุมสามัญนิติบัญญัติ",
        "พ.ศ. ๒๕๔๗",
        "",
        "",
        "ภูมิพลอดุลยเดช ป.ร.",
        "ให้ไว้ ณ วันที่ ๙ พฤศจิกายน พ.ศ. ๒๕๔๗",
        "เป็นปีที่ ๕๙ ในรัชกาลปัจจุบัน"
      ]
    ],
    []
  ],
  "metadata": {
    "date_header": "2547-11-09",
    "date_modified": "2547-11-22",
    "date_original": "2547-11-22",
    "doctype": "พระราชกฤษฎีกา",
    "editors": [
      {
        "name": "เชิงชาย",
        "role": "ผู้จัดทำ",
        "date": "2549-08-08"
      }
    ],
    "tag": "c306-1b-2547-a0012",
    "title": "ปิดประชุมรัฐสภาสมัยประชุมสามัญนิติบัญญัติ"
  }
}