{
  "pages": [
    [
      [
        "รัฐธรรมนูญแห่งราชอาณาจักรไทย",
        "",
        "",
        "สมเด็จพระปรมินทรมหาภูมิพลอดุลยเดช",
        "สยามินทราธิราช บรมนาถบพิตร",
        "ตราไว้ ณ วันที่ ๗ ตุลาคม พุทธศักราช ๒๕๑๗",
        "เป็นปีที่ ๒๙ ในรัชกาลปัจจุบัน",
        "",
        "ศุภมัสดุ พระพุทธศาสนกาลเป็นอดีตภาค ๒๕๑๗ พรรษา ปัจจุบันสมัย จันทรคตินิยม พยัคฆสมพัตสร อัสสยุชมาส กาฬปักษ์ ฉัฏฐมีดิถี สุริยคติกาล ตุลาคมมาศ สัตตมสุรทิน จันทรวาร โดยกาลบริเฉท"
      ]
    ],
    []
  ],
  "metadata": {
    "date_header": "2517-10-07",
    "date_modified": "2517-10-07",
    "date_original": "2517-10-07",
    "editors": [],
    "tag": "c306-10-2517-a0001"
  }
}