{
  "pages": [
    [
      [
        "ข้อบังคับ",
        "ว่าด้วยประมวลจริยธรรมของสมาชิกสภานิติบัญญัติแห่งชาติและกรรมาธิการ",
        "พ.ศ. ๒๕๕๐"
      ]
    ],
    []
  ],
  "metadata": {
    "date_backmatter": "2550-05-04",
    "date_modified": "2550-05-23",
    "date_original": "2550-05-23",
    "editors": [
      {
        "name": "โสรศ",
        "role": "ผู้จัดทำ",
        "date": "2550-06-05"
      }
    ],
    "tag": "c306-1i-2550-a0001"
  }
}