{
  "pages": [
    [
      [
        "พระราชกฤษฎีกา",
        "พระราชทานอภัยโทษเนื่องในโอกาสแรกนับแต่ขึ้นทรงราชย์สืบราชสันตติวงศ์",
        "พ.ศ. ๒๕๕๙",
        "",
        "",
        "สมเด็จพระเจ้าอยู่หัวมหาวชิราลงกรณ บดินทรเทพยวรางกูร",
        "ให้ไว้ ณ วันที่ ๑๐ ธันวาคม พ.ศ. ๒๕๕๙",
        "เป็นปีที่ ๑ ในรัชกาลปัจจุบัน"
      ]
    ],
    []
  ],
  "metadata": {
    "date_header": "2559-12-10",
    "date_modified": "2559-12-11",
    "date_original": "2559-12-11",
    "doctype": "พระราชกฤษฎีกา",
    "editors": [
      {
        "name": "ปุณิกา/ปริยานุช",
        "role": "จัดทำ",
        "date": "2559-12-13"
      },
      {
        "name": "นุสรา",
        "role": "ตรวจ",
        "date": "2559-12-14"
      }
    ],
    "tag": "c306-1b-2559-a0001",
    "title": "พระราชทานอภัยโทษเนื่องในโอกาสแรกนับแต่ขึ้นทรงราชย์สืบราชสันตติวงศ์"
  }
}