{
  "pages": [
    [
      [
        "พระราชกฤษฎีกา",
        "เรียกประชุมรัฐสภาสมัยประชุมสามัญนิติบัญญัติ",
        "พ.ศ. ๒๕๔๗",
        "",
        "",
        "ภูมิพลอดุลยเดช ป.ร.",
        "ให้ไว้ ณ วันที่ ๓๑ กรกฎาคม พ.ศ. ๒๕๔๗",
        "เป็นปีที่ ๕๙ ในรัชกาลปัจจุบัน"
      ]
    ],
    []
  ],
  "metadata": {
    "date_header": "2547-07-31",
    "date_modified": "2547-07-31",
    "date_original": "2547-07-31",
    "doctype": "พระราชกฤษฎีกา",
    "editors": [
      {
        "name": "เชิงชาย",
        "role": "ผู้จัดทำ",
        "date": "2549-09-08"
      }
    ],
    "tag": "c306-1b-2547-a0009",
    "title": "เรียกประชุมรัฐสภาสมัยประชุมสามัญนิติบัญญัติ"
  }
}