{
  "pages": [
    [
      [
        "พระราชกฤษฎีกา",
        "ยุบสภาผู้แทนราษฎร",
        "พ.ศ. ๒๕๕๖",
        "",
        "",
        "ภูมิพลอดุลยเดช ป.ร.",
        "ให้ไว้ ณ วันที่ ๙ ธันวาคม พ.ศ. ๒๕๕๖",
        "เป็นปีที่ ๖๘ ในรัชกาลปัจจุบัน"
      ]
    ],
    []
  ],
  "metadata": {
    "date_header": "2556-12-09",
    "date_modified": "2556-12-09",
    "date_original": "2556-12-09",
    "doctype": "พระราชกฤษฎีกา",
    "editors": [
      {
        "name": "ปริยานุช",
        "role": "ผู้จัดทำ",
        "date": "2556-12-11"
      },
      {
        "name": "ปณตภร",
        "role": "ผู้ตรวจ",
        "date": "2556-12-12"
      }
    ],
    "tag": "c306-1b-2556-a0012",
    "title": "ยุบสภาผู้แทนราษฎร"
  }
}