{
  "pages": [
    [
      [
        "พระราชกฤษฎีกา",
        "ให้มีการเลือกตั้งสมาชิกวุฒิสภา",
        "จังหวัดนครศรีธรรมราช แทนตำแหน่งที่ว่าง",
        "พ.ศ. ๒๕๔๗",
        "",
        "",
        "ภูมิพลอดุลยเดช ป.ร.",
        "ให้ไว้ ณ วันที่ ๑๕ สิงหาคม พ.ศ. ๒๕๔๗",
        "เป็นปีที่ ๕๙ ในรัชกาลปัจจุบัน"
      ]
    ],
    []
  ],
  "metadata": {
    "date_header": "2547-08-15",
    "date_modified": "2547-08-17",
    "date_original": "2547-08-17",
    "doctype": "พระราชกฤษฎีกา",
    "editors": [
      {
        "name": "เชิงชาย ถาวรยุธร",
        "role": "แก้ไข",
        "date": "2549-08-29"
      }
    ],
    "tag": "c306-1b-2547-a0010",
    "title": "ให้มีการเลือกตั้งสมาชิกวุฒิสภาจังหวัดนครศรีธรรมราช แทนตำแหน่งที่ว่าง"
  }
}