{
  "pages": [
    [
      [
        "ประกาศคณะมนตรีความมั่นคงแห่งชาติ",
        "เรื่อง หลักเกณฑ์และวิธีการสรรหาบุคคลเพื่อแต่งตั้งเป็นสมาชิกสมัชชาแห่งชาติ"
      ]
    ],
    []
  ],
  "metadata": {
    "date_backmatter": "2549-10-19",
    "date_modified": "2549-11-17",
    "date_original": "2549-11-17",
    "doctype": "ประกาศ",
    "editors": [
      {
        "name": "โสรศ",
        "role": "ผู้จัดทำ",
        "date": "2549-11-22"
      }
    ],
    "tag": "c306-1f-2549-a0028"
  }
}