{
  "pages": [
    [
      [
        "พระราชกฤษฎีกา",
        "ให้มีการเลือกตั้งสมาชิกวุฒิสภาจังหวัดชลบุรี",
        "แทนตำแหน่งที่ว่าง",
        "พ.ศ. ๒๕๔๘",
        "",
        "",
        "ภูมิพลอดุลยเดช ป.ร.",
        "ให้ไว้ ณ วันที่ ๒๓ กันยายน พ.ศ. ๒๕๔๘",
        "เป็นปีที่ ๖๐ ในรัชกาลปัจจุบัน"
      ]
    ],
    []
  ],
  "metadata": {
    "date_header": "2548-09-23",
    "date_modified": "2548-09-26",
    "date_original": "2548-09-26",
    "doctype": "พระราชกฤษฎีกา",
    "editors": [
      {
        "name": "ฐิติพงษ์",
        "role": "ผู้จัดทำ",
        "date": "2549-05-15"
      },
      {
        "name": "เชิงชาย",
        "role": "ปรับปรุง",
        "date": "2549-09-08"
      }
    ],
    "tag": "c306-1b-2548-a0006",
    "title": "ให้มีการเลือกตั้งสมาชิกวุฒิสภาจังหวัดชลบุรีแทนตำแหน่งที่ว่าง"
  }
}