{
  "pages": [
    [
      [
        "ประกาศสำนักงานคณะกรรมการป้องกัน",
        "และปราบปรามการทุจริตแห่งชาติ",
        "เรื่อง รายงานผลการตรวจสอบและผลการปฏิบัติหน้าที่ ประจำปี พ.ศ. ๒๕๕๔"
      ]
    ],
    []
  ],
  "metadata": {
    "date_backmatter": "2556-12-04",
    "date_modified": "2557-01-09",
    "date_original": "2557-01-09",
    "doctype": "ประกาศ",
    "editors": [
      {
        "name": "ปริยานุช",
        "role": "ผู้จัดทำ",
        "date": "2557-01-14"
      },
      {
        "name": "อุษมล",
        "role": "ผู้ตรวจ",
        "date": "2557-02-13"
      }
    ],
    "tag": "c306-1f-2557-a0001"
  }
}