{
  "pages": [
    [
      [
        "ประกาศคณะกรรมการการเลือกตั้ง",
        "เรื่อง ผลการเลือกตั้งสมาชิกสภาผู้แทนราษฎรแบบแบ่งเขตเลือกตั้ง"
      ]
    ],
    []
  ],
  "metadata": {
    "date_backmatter": "2549-04-25",
    "date_modified": "2549-04-27",
    "date_original": "2549-04-27",
    "doctype": "ประกาศ",
    "editors": [
      {
        "name": "พัชรินทร์",
        "role": "ผู้จัดทำ",
        "date": "2549-05-04"
      },
      {
        "name": "อมรรัตน์",
        "role": "ปรับปรุง",
        "date": "2549-09-07"
      }
    ],
    "tag": "c306-1f-2549-a0009"
  }
}