{
  "pages": [
    [
      [
        "ประกาศสำนักนายกรัฐมนตรี",
        "เรื่อง การอนุมัติพระราชกำหนดพิกัดอัตราศุลกากร (ฉบับที่ ๖) พ.ศ. ๒๕๕๙"
      ]
    ],
    []
  ],
  "metadata": {
    "date_backmatter": "2560-01-17",
    "date_modified": "2560-01-17",
    "date_original": "2560-01-17",
    "doctype": "ประกาศ",
    "editors": [
      {
        "name": "ปุณิกา/ปริยานุช",
        "role": "จัดทำ",
        "date": "2560-01-19"
      },
      {
        "name": "นุสรา",
        "role": "ตรวจ",
        "date": "2560-02-01"
      }
    ],
    "tag": "c306-1f-2560-a0002"
  }
}