{
  "pages": [
    [
      [
        "พระราชกฤษฎีกา",
        "ให้มีการเลือกตั้งสมาชิกวุฒิสภาจังหวัดสระแก้ว แทนตำแหน่งที่ว่าง",
        "พ.ศ. ๒๕๔๕",
        "",
        "",
        "ภูมิพลอดุลยเดช ป.ร.",
        "ให้ไว้ ณ วันที่ ๓๑ ธันวาคม พ.ศ. ๒๕๔๕",
        "เป็นปีที่ ๕๗ ในรัชกาลปัจจุบัน"
      ]
    ],
    []
  ],
  "metadata": {
    "date_header": "2545-12-31",
    "date_modified": "2546-01-03",
    "date_original": "2546-01-03",
    "doctype": "พระราชกฤษฎีกา",
    "editors": [
      {
        "name": "เชิงชาย ถาวรยุธร",
        "role": "ผู้จัดทำ",
        "date": "2549-08-29"
      }
    ],
    "tag": "c306-1b-2546-a0001",
    "title": "ให้มีการเลือกตั้งสมาชิกวุฒิสภาจังหวัดสระแก้ว แทนตำแหน่งที่ว่าง"
  }
}