{
  "pages": [
    [
      [
        "ระเบียบคณะกรรมการการเลือกตั้ง",
        "ว่าด้วยการเลือกตั้งสมาชิกสภาผู้แทนราษฎร",
        "พ.ศ. ๒๕๕๔"
      ]
    ],
    []
  ],
  "metadata": {
    "date_backmatter": "2554-05-14",
    "date_modified": "2557-05-15",
    "date_original": "2554-05-14",
    "editors": [
      {
        "name": "ปริยานุช",
        "role": "ผู้จัดทำ",
        "date": "2554-05-19"
      },
      {
        "name": "ณัฐวดี",
        "role": "ตรวจ",
        "date": "2554-05-19"
      },
      {
        "name": "โชติกานต์",
        "role": "ปรับปรุง",
        "date": "2557-04-21"
      },
      {
        "name": "ปณตภร",
        "role": "เพิ่มเติม",
        "date": "2557-04-21"
      },
      {
        "name": "จุฑามาศ",
        "role": "เพิ่มเติม",
        "date": "2557-06-04"
      }
    ],
    "tag": "c306-1g-9994-update"
  }
}