{
  "pages": [
    [
      [
        "คำสั่งหัวหน้าคณะรักษาความสงบแห่งชาติ",
        "ที่ ๕๐/๒๕๖๐",
        "เรื่อง แก้ไขเพิ่มเติมคำสั่งหัวหน้าคณะรักษาความสงบแห่งชาติ ที่ ๕๙/๒๕๕๙"
      ]
    ],
    []
  ],
  "metadata": {
    "date_backmatter": "2560-11-09",
    "date_modified": "2560-11-09",
    "date_original": "2560-11-09",
    "editors": [
      {
        "name": "ภวรรณตรี",
        "role": "จัดทำ",
        "date": "2560-11-09"
      },
      {
        "name": "พัชรภรณ์",
        "role": "ตรวจ",
        "date": "2560-11-09"
      }
    ],
    "tag": "c306-1h-2560-a0013"
  }
}