{
  "pages": [
    [
      [
        "ประกาศคณะกรรมการการเลือกตั้ง",
        "เรื่อง หลักเกณฑ์และวิธีการตรวจสอบรายการค่าใช้จ่ายในการเลือกตั้ง",
        "ของผู้สมัครรับเลือกตั้งสมาชิกวุฒิสภา",
        "พ.ศ. ๒๕๕๑"
      ]
    ],
    []
  ],
  "metadata": {
    "date_backmatter": "2551-01-21",
    "date_modified": "2551-01-22",
    "date_original": "2551-01-22",
    "doctype": "ประกาศ",
    "editors": [
      {
        "name": "วัชศักดิ์",
        "role": "ผู้จัดทำ",
        "date": "2551-01-30"
      }
    ],
    "tag": "c306-1f-2551-a0017"
  }
}