{
  "pages": [
    [
      [
        "ประกาศคณะกรรมการการเลือกตั้ง",
        "เรื่อง มอบหมายให้กรรมการการเลือกตั้งปฏิบัติหน้าที่"
      ]
    ],
    []
  ],
  "metadata": {
    "date_backmatter": "2551-09-24",
    "date_modified": "2551-10-02",
    "date_original": "2551-10-02",
    "doctype": "ประกาศ",
    "editors": [
      {
        "name": "วัชศักดิ์",
        "role": "ผู้จัดทำ",
        "date": "2551-10-03"
      }
    ],
    "tag": "c306-1f-2551-a0035"
  }
}