{
  "pages": [
    [
      [
        "ประกาศสำนักงานคณะกรรมการกำกับหลักทรัพย์และตลาดหลักทรัพย์",
        "ที่ สจ. ๒๕/๒๕๕๔",
        "เรื่อง แบบคำขออนุญาตเสนอขายหุ้นที่ออกใหม่",
        "และวิธีการยื่นคำขออนุญาต",
        "(ฉบับที่ ๒)"
      ]
    ],
    []
  ],
  "metadata": {
    "date_backmatter": "2554-08-10",
    "date_modified": "2554-09-02",
    "date_original": "2554-09-02",
    "doctype": "ประกาศ",
    "editors": [
      {
        "name": "ปริยานุช",
        "role": "ผู้จัดทำ",
        "date": "2554-10-03"
      },
      {
        "name": "ปณตภร",
        "role": "ผู้ตรวจ",
        "date": "2554-10-14"
      }
    ],
    "tag": "cb15-2e-2554-a0059"
  }
}