{
  "pages": [
    [
      [
        "ประกาศสำนักงานคณะกรรมการกำกับหลักทรัพย์และตลาดหลักทรัพย์",
        "ที่ สบ. ๒๘/๒๕๔๗",
        "เรื่อง การกำหนดค่าธรรมเนียมการยื่นแบบแสดงรายการข้อมูล",
        "การจดทะเบียน และการยื่นคำขอต่าง ๆ"
      ]
    ],
    []
  ],
  "metadata": {
    "date_backmatter": "2547-07-07",
    "date_modified": "2560-01-12",
    "date_original": "2547-07-14",
    "doctype": "ประกาศ",
    "editors": [
      {
        "name": "วริญา",
        "role": "เพิ่มเติม",
        "date": "2560-02-03"
      },
      {
        "name": "นุสรา",
        "role": "ตรวจ",
        "date": "2560-03-14"
      }
    ],
    "tag": "cb15-2e-2560-a0138"
  }
}