{
  "pages": [
    [
      [
        "ประกาศสำนักงานคณะกรรมการกำกับหลักทรัพย์และตลาดหลักทรัพย์",
        "ที่ สน. ๑๒/๒๕๕๖",
        "เรื่อง การจัดตั้งกองทุนรวมและการเข้าทำสัญญารับจัดการ",
        "กองทุนส่วนบุคคล",
        "(ฉบับที่ ๑๒)"
      ]
    ],
    []
  ],
  "metadata": {
    "date_backmatter": "2556-04-02",
    "date_modified": "2556-04-17",
    "date_original": "2556-04-17",
    "doctype": "ประกาศ",
    "editors": [
      {
        "name": "ปริยานุช",
        "role": "ผู้จัดทำ",
        "date": "2556-04-24"
      },
      {
        "name": "โชติกานต์",
        "role": "ผู้ตรวจ",
        "date": "2556-05-16"
      }
    ],
    "tag": "cb15-2e-2556-a0032"
  }
}