{
  "pages": [
    [
      [
        "ประกาศคณะกรรมการกำกับตลาดทุน",
        "ที่ ทน. ๔๖/๒๕๕๖",
        "เรื่อง หลักเกณฑ์เกี่ยวกับข้อจำกัดการถือหน่วยลงทุนในกองทุนรวม",
        "และหน้าที่ของบริษัทจัดการ"
      ]
    ],
    []
  ],
  "metadata": {
    "date_backmatter": "2556-11-14",
    "date_modified": "2558-11-18",
    "date_original": "2556-12-09",
    "doctype": "ประกาศ",
    "editors": [
      {
        "name": "ปริญสินีย์",
        "role": "จัดทำ",
        "date": "2557-08-05"
      },
      {
        "name": "นุสรา",
        "role": "ปรับปรุง",
        "date": "2559-01-28"
      }
    ],
    "tag": "cb15-2e-2558-a0269"
  }
}