{
  "pages": [
    [
      [
        "ประกาศสำนักงานคณะกรรมการกำกับหลักทรัพย์และตลาดหลักทรัพย์",
        "ที่ สช. ๓๒/๒๕๖๑",
        "เรื่อง การให้ความเห็นชอบผู้สอบบัญชีของผู้ออกโทเคนดิจิทัล"
      ]
    ],
    []
  ],
  "metadata": {
    "date_backmatter": "2561-07-05",
    "date_modified": "2561-07-16",
    "date_original": "2561-07-16",
    "doctype": "ประกาศ",
    "editors": [
      {
        "name": "ปวันวิทย์",
        "role": "จัดทำ",
        "date": "2561-09-03"
      }
    ],
    "tag": "cb15-2e-2561-a0212"
  }
}