{
  "pages": [
    [
      [
        "ประกาศสำนักงานคณะกรรมการกำกับหลักทรัพย์",
        "และตลาดหลักทรัพย์",
        "ที่ สบ. ๓๐/๒๕๔๓",
        "เรื่อง ยกเลิกประกาศยกเว้นค่าธรรมเนียมการยื่นแบบแสดงรายการข้อมูล",
        "การเสนอขายหลักทรัพย์สำหรับบริษัทที่ออกหลักทรัพย์",
        "ซึ่งประสบปัญหาในการดำเนินงาน",
        "(ฉบับที่ ๘)"
      ]
    ],
    []
  ],
  "metadata": {
    "date_backmatter": "2543-07-12",
    "date_gz_old": "2543-07-25",
    "doctype": "ประกาศ",
    "editors": [],
    "tag": "cb15-2e-2543-a039"
  }
}