{
  "pages": [
    [
      [
        "ประกาศสำนักงานคณะกรรมการกำกับหลักทรัพย์และตลาดหลักทรัพย์",
        "ที่ สบ. ๔๘/๒๕๔๙",
        "เรื่อง การกำหนดค่าธรรมเนียมการยื่นแบบแสดงรายการข้อมูล",
        "การจดทะเบียน และการยื่นคำขอต่าง ๆ",
        "(ฉบับที่ ๖)"
      ]
    ],
    []
  ],
  "metadata": {
    "date_backmatter": "2549-12-20",
    "date_modified": "2549-12-29",
    "date_original": "2549-12-29",
    "doctype": "ประกาศ",
    "editors": [
      {
        "name": "วัชศักดิ์",
        "role": "ผู้จัดทำ",
        "date": "2550-01-09"
      },
      {
        "name": "ปริญสินีย์",
        "role": "ผู้จัดทำ",
        "date": "2558-05-22"
      }
    ],
    "tag": "cb15-2e-2549-a0101"
  }
}