{
  "pages": [
    [
      [
        "ประกาศคณะกรรมการกำกับหลักทรัพย์และตลาดหลักทรัพย์",
        "ที่ กจ. ๓๗/๒๕๔๙",
        "เรื่อง หลักเกณฑ์ เงื่อนไข และวิธีการรายงานการเปิดเผยข้อมูลเกี่ยวกับ",
        "ฐานะการเงินและผลการดำเนินงานของบริษัทที่ออกหลักทรัพย์",
        "(ฉบับที่ ๒๒)"
      ]
    ],
    []
  ],
  "metadata": {
    "date_backmatter": "2549-11-15",
    "date_modified": "2549-12-18",
    "date_original": "2549-12-18",
    "doctype": "ประกาศ",
    "editors": [
      {
        "name": "วัชศักดิ์",
        "role": "ผู้จัดทำ",
        "date": "2549-12-27"
      }
    ],
    "tag": "cb15-2e-2549-a0084"
  }
}