{
  "pages": [
    [
      [
        "ประกาศคณะกรรมการกำกับหลักทรัพย์",
        "และตลาดหลักทรัพย์",
        "ที่ กธ. ๓๒/๒๕๔๕",
        "เรื่อง หลักเกณฑ์ เงื่อนไข และวิธีการให้กู้ยืมเงิน",
        "เพื่อซื้อหลักทรัพย์ของสถาบันสินเชื่อเพื่อธุรกิจหลักทรัพย์"
      ]
    ],
    []
  ],
  "metadata": {
    "date_backmatter": "2545-03-28",
    "date_modified": "2547-01-21",
    "date_original": "2545-04-04",
    "doctype": "ประกาศ",
    "editors": [
      {
        "name": "สัญชัย",
        "role": "จัดทำ",
        "date": "2549-10-18"
      }
    ],
    "tag": "cb15-2e-9984-update"
  }
}