{
  "pages": [
    [
      [
        "ประกาศคณะกรรมการกำกับหลักทรัพย์",
        "และตลาดหลักทรัพย์",
        "ที่ กข. ๒๙/๒๕๔๘",
        "เรื่อง หลักเกณฑ์ เงื่อนไข และวิธีการตั้งตัวแทนในการขายหรือรับซื้อคืน",
        "หน่วยลงทุน และตัวแทนด้านการตลาดกองทุนส่วนบุคคล",
        "(ฉบับที่ ๒)"
      ]
    ],
    []
  ],
  "metadata": {
    "date_backmatter": "2548-06-30",
    "date_modified": "2548-08-15",
    "date_original": "2548-08-15",
    "doctype": "ประกาศ",
    "editors": [
      {
        "name": "ฐิติพงษ์",
        "role": "ผู้จัดทำ",
        "date": "2548-08-24"
      }
    ],
    "tag": "cb15-2e-2548-a0051"
  }
}