{
  "pages": [
    [
      [
        "ประกาศ",
        "เรื่อง การผ่อนผันการทำคำเสนอซื้อหลักทรัพย์ของกิจการ",
        "ให้แก่บุคคลซึ่งซื้อหลักทรัพย์ของกิจการจากผู้ขาย",
        "ซึ่งเป็นสถาบันการเงิน",
        "ที่ อจ. ๒๐/๒๕๔๓"
      ]
    ],
    []
  ],
  "metadata": {
    "date_backmatter": "2543-10-09",
    "date_gz_old": "2543-10-25",
    "doctype": "ประกาศ",
    "editors": [],
    "tag": "cb15-2e-2543-a074"
  }
}