{
  "pages": [
    [
      [
        "ประกาศสำนักงานคณะกรรมการกำกับหลักทรัพย์และตลาดหลักทรัพย์",
        "ที่ สด. ๔๐/๒๕๕๒",
        "เรื่อง ข้อกำหนดว่าด้วยสิทธิและหน้าที่ของผู้ออกหุ้นกู้และผู้ถือหุ้นกู้"
      ]
    ],
    []
  ],
  "metadata": {
    "date_backmatter": "2545-08-06",
    "date_modified": "2552-09-15",
    "date_original": "2552-09-15",
    "doctype": "ประกาศ",
    "editors": [
      {
        "name": "ปริยานุช",
        "role": "ผู้จัดทำ",
        "date": "2552-09-29"
      }
    ],
    "tag": "cb15-2e-2552-a0141"
  }
}