{
  "pages": [
    [
      [
        "ประกาศคณะกรรมการกำกับหลักทรัพย์",
        "และตลาดหลักทรัพย์",
        "ที่ กน. ๒๓/๒๕๓๙",
        "เรื่อง คุณสมบัติและลักษณะต้องห้ามอย่างอื่น",
        "ของผู้บริหารของบริษัทหลักทรัพย์",
        "(ฉบับที่ ๔)"
      ]
    ],
    []
  ],
  "metadata": {
    "date_backmatter": "2539-10-12",
    "date_gz_old": "2539-10-17",
    "doctype": "ประกาศ",
    "editors": [
      {
        "name": "ฐาปนี",
        "role": "แก้ไข",
        "date": "2545-08-13"
      }
    ],
    "tag": "cb15-2e-2539-a007"
  }
}