{
  "pages": [
    [
      [
        "พระราชบัญญัติ",
        "หลักทรัพย์และตลาดหลักทรัพย์ (ฉบับที่ ๒)",
        "พ.ศ. ๒๕๔๒",
        "",
        "",
        "ภูมิพลอดุลยเดช ป.ร.",
        "ให้ไว้ ณ วันที่ ๒๖ ธันวาคม พ.ศ. ๒๕๔๒",
        "เป็นปีที่ ๕๔ ในรัชกาลปัจจุบัน"
      ]
    ],
    []
  ],
  "metadata": {
    "date_header": "2542-12-26",
    "date_modified": "2542-12-30",
    "date_original": "2542-12-30",
    "doctype": "พระราชบัญญัติ",
    "editors": [
      {
        "name": "วสุ สรรกำเนิด",
        "role": "ผู้ปรับปรุง",
        "date": "2552-05-21"
      },
      {
        "name": "กัญฑรัตน์",
        "role": "ปรับปรุง",
        "date": "2559-10-12"
      }
    ],
    "tag": "cb15-20-2542-a0001",
    "title": "หลักทรัพย์และตลาดหลักทรัพย์ (ฉบับที่ ๒)"
  }
}