{
  "pages": [
    [
      [
        "ประกาศคณะกรรมการกำกับหลักทรัพย์และตลาดหลักทรัพย์",
        "ที่ กจ. 34/2540",
        "เรื่อง หลักเกณฑ์ เงื่อนไข และวิธีการในการทำธุรกรรมเกี่ยวกับหุ้นกู้",
        "ที่เสนอขายแก่บุคคลในวงจำกัดโดยบริษัทหลักทรัพย์"
      ]
    ],
    []
  ],
  "metadata": {
    "date_backmatter": "2540-10-01",
    "doctype": "ประกาศ",
    "editors": [],
    "tag": "cb15-2e-2540-021"
  }
}