{
  "pages": [
    [
      [
        "ประกาศคณะกรรมการกำกับหลักทรัพย์และตลาดหลักทรัพย์",
        "ที่ กจ. ๖/๒๕๕๖",
        "เรื่อง แนวทางการพิจารณานิยามคำว่า “บริษัท”",
        "ตามมาตรา ๘๙/๑"
      ]
    ],
    []
  ],
  "metadata": {
    "date_backmatter": "2556-09-05",
    "date_modified": "2556-09-12",
    "date_original": "2556-09-12",
    "doctype": "ประกาศ",
    "editors": [
      {
        "name": "ปริยานุช",
        "role": "ผู้จัดทำ",
        "date": "2556-09-16"
      },
      {
        "name": "อุษมล",
        "role": "ผู้ตรวจ",
        "date": "2556-09-18"
      }
    ],
    "tag": "cb15-2e-2556-a0057"
  }
}