{
  "pages": [
    [
      [
        "ประกาศสำนักงานคณะกรรมการกำกับหลักทรัพย์",
        "และตลาดหลักทรัพย์",
        "ที่ สจ. ๒๙/๒๕๔๖",
        "เรื่อง แบบคำขออนุญาตและเอกสารเกี่ยวกับการเสนอขาย",
        "หุ้นกู้อนุพันธ์ที่ออกใหม่"
      ]
    ],
    []
  ],
  "metadata": {
    "date_backmatter": "2546-10-15",
    "date_modified": "2546-10-24",
    "date_original": "2546-10-24",
    "doctype": "ประกาศ",
    "editors": [
      {
        "name": "มยุรี",
        "role": "พิมพ์",
        "date": "2547-02-13"
      },
      {
        "name": "สุนันทา/อรดา",
        "role": "ตรวจ",
        "date": "2547-02-24"
      }
    ],
    "tag": "cb15-2e-2546-a0052"
  }
}