{
  "pages": [
    [
      [
        "ประกาศสำนักงานคณะกรรมการกำกับหลักทรัพย์และตลาดหลักทรัพย์",
        "ที่ สน. ๒๘/๒๕๕๔",
        "เรื่อง การจัดตั้งกองทุนรวมและการเข้าทำสัญญา",
        "รับจัดการกองทุนส่วนบุคคล",
        "(ฉบับที่ ๙)"
      ]
    ],
    []
  ],
  "metadata": {
    "date_backmatter": "2554-08-25",
    "date_modified": "2554-09-23",
    "date_original": "2554-09-23",
    "doctype": "ประกาศ",
    "editors": [
      {
        "name": "ปริยานุช",
        "role": "ผู้จัดทำ",
        "date": "2554-10-05"
      },
      {
        "name": "ชาญ",
        "role": "ผู้ตรวจ",
        "date": "2554-10-17"
      }
    ],
    "tag": "cb15-2e-2554-a0062"
  }
}