{
  "pages": [
    [
      [
        "ประกาศสำนักงานคณะกรรมการกำกับหลักทรัพย์และตลาดหลักทรัพย์",
        "ที่ สจ. ๒๓/๒๕๕๓",
        "เรื่อง แบบและวิธีการแจ้งหรือเปลี่ยนแปลงข้อมูลกรรมการ",
        "และผู้บริหารของบริษัท"
      ]
    ],
    []
  ],
  "metadata": {
    "date_backmatter": "2553-06-15",
    "date_modified": "2560-01-27",
    "date_original": "2553-06-15",
    "doctype": "ประกาศ",
    "editors": [
      {
        "name": "วริญา",
        "role": "เพิ่มเติม",
        "date": "2558-08-10"
      },
      {
        "name": "พรวิภา",
        "role": "เพิ่มเติม",
        "date": "2560-03-01"
      },
      {
        "name": "ปริญสินีย์",
        "role": "ตรวจ",
        "date": "2560-03-03"
      }
    ],
    "tag": "cb15-2e-2560-a0079"
  }
}