{
  "pages": [
    [
      [
        "ประกาศคณะกรรมการกำกับหลักทรัพย์",
        "และตลาดหลักทรัพย์",
        "ที่ กจ. ๒๕/๒๕๔๓",
        "เรื่อง หลักเกณฑ์ เงื่อนไข และวิธีการรายงานการเปิดเผยข้อมูล",
        "เกี่ยวกับฐานะการเงินและผลการดำเนินงานของ",
        "บริษัทที่ออกหลักทรัพย์ (ฉบับที่ ๖)"
      ]
    ],
    []
  ],
  "metadata": {
    "date_backmatter": "2543-07-01",
    "date_gz_old": "2543-07-12",
    "doctype": "ประกาศ",
    "editors": [],
    "tag": "cb15-2e-2543-a037"
  }
}