{
  "pages": [
    [
      [
        "ประกาศคณะกรรมการกำกับตลาดทุน",
        "ที่ ทธ. ๔๕/๒๕๕๕",
        "เรื่อง การจัดสรรหุ้นเกินกว่าจำนวนที่จัดจำหน่าย",
        "(ฉบับที่ ๒)"
      ]
    ],
    []
  ],
  "metadata": {
    "date_backmatter": "2555-09-03",
    "date_modified": "2555-09-27",
    "date_original": "2555-09-27",
    "doctype": "ประกาศ",
    "editors": [
      {
        "name": "ปริยานุช",
        "role": "ผู้จัดทำ",
        "date": "2555-10-02"
      },
      {
        "name": "ณัฐพร",
        "role": "ผู้ตรวจ",
        "date": "2555-10-02"
      }
    ],
    "tag": "cb15-2e-2555-a0083"
  }
}