{
  "pages": [
    [
      [
        "ประกาศคณะกรรมการกำกับตลาดทุน",
        "ที่ ทน. ๓๔/๒๕๖๐",
        "เรื่อง หลักเกณฑ์ เงื่อนไข และวิธีการจัดตั้งและจัดการ",
        "ของกองทุนรวมเพื่อผู้ลงทุนสถาบัน",
        "หรือผู้ลงทุนรายใหญ่พิเศษ",
        "(ฉบับที่ ๒)"
      ]
    ],
    []
  ],
  "metadata": {
    "date_backmatter": "2560-03-16",
    "date_modified": "2560-03-28",
    "date_original": "2560-03-28",
    "doctype": "ประกาศ",
    "editors": [
      {
        "name": "ภวรรณตรี",
        "role": "จัดทำ",
        "date": "2560-03-29"
      },
      {
        "name": "ปุณิกา",
        "role": "ตรวจ",
        "date": "2560-03-29"
      }
    ],
    "tag": "cb15-2e-2560-a0076"
  }
}