{
  "pages": [
    [
      [
        "ประกาศคณะกรรมการกำกับหลักทรัพย์",
        "และตลาดหลักทรัพย์",
        "ที่ กธ. ๓๙/๒๕๔๔",
        "เรื่อง หลักเกณฑ์ เงื่อนไข และวิธีการในการตั้งตัวแทนจำหน่ายหลักทรัพย์"
      ]
    ],
    []
  ],
  "metadata": {
    "date_backmatter": "2544-10-19",
    "date_modified": "2547-01-21",
    "date_original": "2544-10-22",
    "doctype": "ประกาศ",
    "editors": [
      {
        "name": "สัญชัย",
        "role": "จัดทำ",
        "date": "2549-10-19"
      }
    ],
    "tag": "cb15-2e-9977-update"
  }
}