{
  "pages": [
    [
      [
        "ประกาศคณะกรรมการกำกับตลาดทุน",
        "ที่ ทธ/น/ข. ๓๗/๒๕๕๓",
        "เรื่อง ลักษณะต้องห้ามของบุคลากรในธุรกิจตลาดทุน"
      ]
    ],
    []
  ],
  "metadata": {
    "date_backmatter": "2553-09-15",
    "date_modified": "2553-09-30",
    "date_original": "2553-09-30",
    "doctype": "ประกาศ",
    "editors": [
      {
        "name": "ปริยานุช",
        "role": "ผู้จัดทำ",
        "date": "2553-10-07"
      },
      {
        "name": "ณัฐวดี",
        "role": "ตรวจ",
        "date": "2553-10-07"
      }
    ],
    "tag": "cb15-2e-2553-a0085"
  }
}