{
  "pages": [
    [
      [
        "ประกาศสำนักงานคณะกรรมการกำกับหลักทรัพย์",
        "และตลาดหลักทรัพย์",
        "ที่ สน. 17/2540",
        "เรื่อง รายละเอียดของโครงการจัดการกองทุนรวม",
        "อสังหาริมทรัพย์สำหรับผู้ลงทุนสถาบัน",
        "(ฉบับที่ 2)"
      ]
    ],
    []
  ],
  "metadata": {
    "date_backmatter": "2540-05-23",
    "doctype": "ประกาศ",
    "editors": [],
    "tag": "cb15-2e-2540-044"
  }
}