{
  "pages": [
    [
      [
        "ประกาศคณะกรรมการกำกับหลักทรัพย์",
        "และตลาดหลักทรัพย์",
        "ที่ กธ/น/ข. ๓๔/๒๕๔๘",
        "เรื่อง การซื้อขายสัญญาซื้อขายล่วงหน้าและการให้บริการ",
        "ด้านสัญญาซื้อขายล่วงหน้าโดยบริษัทหลักทรัพย์"
      ]
    ],
    []
  ],
  "metadata": {
    "date_backmatter": "2548-09-13",
    "date_modified": "2550-12-17",
    "date_original": "2548-09-30",
    "doctype": "ประกาศ",
    "editors": [
      {
        "name": "สัญชัย",
        "role": "ผู้จัดทำ",
        "date": "2551-09-22"
      }
    ],
    "tag": "cb15-2e-9920-update"
  }
}