{
  "pages": [
    [
      [
        "ประกาศคณะกรรมการกำกับตลาดทุน",
        "ที่ ทธ. ๔๓/๒๕๕๒",
        "เรื่อง การดูแลรักษาทรัพย์สินของลูกค้าของบริษัทหลักทรัพย์"
      ]
    ],
    []
  ],
  "metadata": {
    "date_backmatter": "2543-01-04",
    "date_modified": "2552-08-29",
    "date_original": "2552-08-29",
    "doctype": "ประกาศ",
    "editors": [
      {
        "name": "ปริยานุช",
        "role": "ผู้จัดทำ",
        "date": "2552-09-04"
      },
      {
        "name": "ปณตภร",
        "role": "ปรับปรุง",
        "date": "2555-03-28"
      }
    ],
    "tag": "cb15-2e-2552-a0093"
  }
}