{
  "pages": [
    [
      [
        "ประกาศสำนักงานคณะกรรมการกำกับหลักทรัพย์และตลาดหลักทรัพย์",
        "ที่ สจ. ๒๘/๒๕๕๗",
        "เรื่อง การเผยแพร่ข้อมูลเกี่ยวกับการเสนอขายหน่วยทรัสต์",
        "ของทรัสต์เพื่อการลงทุนในอสังหาริมทรัพย์",
        "ก่อนวันที่แบบแสดงรายการข้อมูลและ",
        "ร่างหนังสือชี้ชวนมีผลใช้บังคับ"
      ]
    ],
    []
  ],
  "metadata": {
    "date_backmatter": "2557-08-20",
    "date_modified": "2557-09-16",
    "date_original": "2557-09-16",
    "doctype": "ประกาศ",
    "editors": [
      {
        "name": "ปริยานุช",
        "role": "ผู้จัดทำ",
        "date": "2557-09-18"
      },
      {
        "name": "กฤษดายุทธ",
        "role": "ผู้ตรวจ",
        "date": "2557-09-18"
      }
    ],
    "tag": "cb15-2e-2557-a0064"
  }
}