{
  "pages": [
    [
      [
        "ประกาศคณะกรรมการกำกับตลาดทุน",
        "ที่ ทจ. ๓๒/๒๕๕๒",
        "เรื่อง การเสนอขายใบแสดงสิทธิในผลประโยชน์",
        "ที่เกิดจากหลักทรัพย์อ้างอิงไทย"
      ]
    ],
    []
  ],
  "metadata": {
    "date_backmatter": "2546-10-27",
    "date_modified": "2559-07-06",
    "date_original": "2552-08-29",
    "doctype": "ประกาศ",
    "editors": [
      {
        "name": "กัญฑรัตน์",
        "role": "จัดทำ",
        "date": "2559-07-29"
      }
    ],
    "tag": "cb15-2e-9761-update"
  }
}