{
  "pages": [
    [
      [
        "ประกาศคณะกรรมการกำกับตลาดทุน",
        "ที่ ทจ. ๓๑/๒๕๕๑",
        "เรื่อง การเสนอขายหลักทรัพย์ที่ออกโดยบริษัทต่างประเทศ",
        "ให้แก่กรรมการหรือพนักงานของบริษัทต่างประเทศ",
        "หรือบริษัทในเครือ ในประเทศไทย"
      ]
    ],
    []
  ],
  "metadata": {
    "date_backmatter": "2551-12-15",
    "date_modified": "2555-06-29",
    "date_original": "2551-12-29",
    "doctype": "ประกาศ",
    "editors": [
      {
        "name": "ปณตภร",
        "role": "ผู้จัดทำ",
        "date": "2555-07-17"
      }
    ],
    "tag": "cb15-2e-2551-a0085"
  }
}