{
  "pages": [
    [
      [
        "ประกาศสำนักงานคณะกรรมการกำกับหลักทรัพย์และตลาดหลักทรัพย์",
        "ที่ อน. ๑๓/๒๕๔๕",
        "เรื่อง การขึ้นทะเบียนนิติบุคคลร่วมลงทุน"
      ]
    ],
    []
  ],
  "metadata": {
    "date_backmatter": "2545-05-22",
    "date_modified": "2546-08-28",
    "date_original": "2545-05-29",
    "doctype": "ประกาศ",
    "editors": [
      {
        "name": "วาทินี",
        "role": "ปรับปรุง",
        "date": "2549-10-09"
      }
    ],
    "tag": "cb15-2e-9956-update"
  }
}