{
  "pages": [
    [
      [
        "ประกาศคณะกรรมการกำกับหลักทรัพย์และตลาดหลักทรัพย์",
        "ที่ กธ. ๓๒/๒๕๖๐",
        "เรื่อง การดำรงเงินกองทุนสภาพคล่องสุทธิ"
      ]
    ],
    []
  ],
  "metadata": {
    "date_backmatter": "2560-12-29",
    "date_modified": "2561-01-11",
    "date_original": "2561-01-11",
    "doctype": "ประกาศ",
    "editors": [
      {
        "name": "ปุณิกา/อัญชลี",
        "role": "จัดทำ",
        "date": "2561-01-15"
      },
      {
        "name": "นุสรา",
        "role": "ตรวจ",
        "date": "2561-01-16"
      }
    ],
    "tag": "cb15-2e-2561-a0002"
  }
}