{
  "pages": [
    [
      [
        "ประกาศคณะกรรมการกำกับตลาดทุน",
        "ที่ ทจ. ๓/๒๕๕๙",
        "เรื่อง การออกและเสนอขายหน่วยทรัสต์",
        "ของทรัสต์เพื่อการลงทุนในอสังหาริมทรัพย์",
        "(ฉบับที่ ๘)"
      ]
    ],
    []
  ],
  "metadata": {
    "date_backmatter": "2559-02-10",
    "date_modified": "2559-03-03",
    "date_original": "2559-03-03",
    "doctype": "ประกาศ",
    "editors": [
      {
        "name": "ปริยานุช",
        "role": "จัดทำ",
        "date": "2559-03-08"
      },
      {
        "name": "วริญา",
        "role": "ตรวจ",
        "date": "2559-03-08"
      }
    ],
    "tag": "cb15-2e-2559-a0024"
  }
}