{
  "pages": [
    [
      [
        "ประกาศคณะกรรมการกำกับตลาดทุน",
        "ที่ ทจ. ๑๖/๒๕๕๘",
        "เรื่อง การออกและเสนอขายหลักทรัพย์ที่ออกใหม่ประเภท",
        "ตราสารแสดงสิทธิการฝากหลักทรัพย์ต่างประเทศ"
      ]
    ],
    []
  ],
  "metadata": {
    "date_backmatter": "2558-04-09",
    "date_modified": "2561-02-15",
    "date_original": "2558-05-26",
    "doctype": "ประกาศ",
    "editors": [
      {
        "name": "ปริยานุช",
        "role": "ผู้จัดทำ",
        "date": "2558-06-02"
      },
      {
        "name": "ปริญสินีย์",
        "role": "ผู้ตรวจ",
        "date": "2558-06-02"
      },
      {
        "name": "วริญา",
        "role": "เพิ่มเติม",
        "date": "2558-08-11"
      },
      {
        "name": "พรวิภา",
        "role": "เพิ่มเติม",
        "date": "2560-05-25"
      },
      {
        "name": "พิมพ์มาดา",
        "role": "เพิ่มเติม",
        "date": "2561-03-26"
      }
    ],
    "tag": "cb15-2e-9784-update"
  }
}