{
  "pages": [
    [
      [
        "ประกาศสำนักงานคณะกรรมการกำกับหลักทรัพย์",
        "และตลาดหลักทรัพย์",
        "ที่ สข. ๑๕/๒๕๔๘",
        "เรื่อง การให้ความเห็นชอบผู้ติดต่อกับผู้ลงทุน",
        "และมาตรฐานการปฏิบัติงาน"
      ]
    ],
    []
  ],
  "metadata": {
    "date_backmatter": "2548-06-21",
    "date_modified": "2549-12-27",
    "date_original": "2548-08-11",
    "doctype": "ประกาศ",
    "editors": [
      {
        "name": "สัญชัย",
        "role": "ผู้จัดทำ",
        "date": "2551-09-30"
      }
    ],
    "tag": "cb15-2e-9896-update"
  }
}