{
  "pages": [
    [
      [
        "ประกาศคณะกรรมการกำกับหลักทรัพย์และตลาดหลักทรัพย์",
        "ที่ กจ. ๗/๒๕๕๖",
        "เรื่อง การยกเว้นการยื่นแบบแสดงรายการข้อมูลการเสนอขายหลักทรัพย์",
        "(ฉบับที่ ๕)"
      ]
    ],
    []
  ],
  "metadata": {
    "date_backmatter": "2556-09-18",
    "date_modified": "2556-10-16",
    "date_original": "2556-10-16",
    "doctype": "ประกาศ",
    "editors": [
      {
        "name": "ปริยานุช",
        "role": "ผู้จัดทำ",
        "date": "2556-10-18"
      },
      {
        "name": "โชติกานต์",
        "role": "ผู้ตรวจ",
        "date": "2556-10-23"
      }
    ],
    "tag": "cb15-2e-2556-a0066"
  }
}