{
  "pages": [
    [
      [
        "ประกาศคณะกรรมการกำกับตลาดทุน",
        "ที่ ทน. ๙๒/๒๕๕๘",
        "เรื่อง หลักเกณฑ์ในการจัดส่งหรือแจกจ่ายหนังสือชี้ชวน",
        "และการเสนอขายหน่วยลงทุน",
        "(ฉบับที่ ๓)"
      ]
    ],
    []
  ],
  "metadata": {
    "date_backmatter": "2558-12-17",
    "date_modified": "2559-01-14",
    "date_original": "2559-01-14",
    "doctype": "ประกาศ",
    "editors": [
      {
        "name": "กัญฑรัตน์/ปริยานุช",
        "role": "จัดทำ",
        "date": "2559-01-18"
      },
      {
        "name": "นุสรา",
        "role": "ตรวจ",
        "date": "2559-02-17"
      }
    ],
    "tag": "cb15-2e-2559-a0014"
  }
}