{
  "pages": [
    [
      [
        "ประกาศคณะกรรมการกำกับตลาดทุน",
        "ที่ ทธ. ๒๓/๒๕๕๘",
        "เรื่อง การดูแลรักษาทรัพย์สินของลูกค้าของบริษัทหลักทรัพย์",
        "(ฉบับที่ ๔)"
      ]
    ],
    []
  ],
  "metadata": {
    "date_backmatter": "2558-06-12",
    "date_modified": "2558-06-30",
    "date_original": "2558-06-30",
    "doctype": "ประกาศ",
    "editors": [
      {
        "name": "ปริยานุช",
        "role": "ผู้จัดทำ",
        "date": "2558-07-01"
      },
      {
        "name": "นุสรา",
        "role": "ผู้ตรวจ",
        "date": "2558-08-05"
      }
    ],
    "tag": "cb15-2e-2558-a0062"
  }
}