{
  "pages": [
    [
      [
        "ประกาศคณะกรรมการกำกับตลาดทุน",
        "ที่ ทจ. ๒๐/๒๕๕๙",
        "เรื่อง หลักเกณฑ์ เงื่อนไข และวิธีการรายงานการเปิดเผยข้อมูล",
        "เกี่ยวกับฐานะการเงินและผลการดำเนินงาน",
        "ของบริษัทที่ออกหลักทรัพย์",
        "(ฉบับที่ ๗)"
      ]
    ],
    []
  ],
  "metadata": {
    "date_backmatter": "2559-05-04",
    "date_modified": "2559-05-25",
    "date_original": "2559-05-25",
    "doctype": "ประกาศ",
    "editors": [
      {
        "name": "ปริยานุช",
        "role": "จัดทำ",
        "date": "2559-05-27"
      },
      {
        "name": "วิศนี",
        "role": "ตรวจ",
        "date": "2559-05-27"
      }
    ],
    "tag": "cb15-2e-2559-a0056"
  }
}