{
  "pages": [
    [
      [
        "ประกาศสำนักงานคณะกรรมการกำกับหลักทรัพย์และตลาดหลักทรัพย์",
        "ที่ สจ. ๒๓/๒๕๕๓",
        "เรื่อง แบบและวิธีการแจ้งหรือเปลี่ยนแปลงข้อมูลกรรมการ",
        "และผู้บริหารของบริษัท"
      ]
    ],
    []
  ],
  "metadata": {
    "date_backmatter": "2553-06-15",
    "date_modified": "2558-07-20",
    "date_original": "2553-06-15",
    "doctype": "ประกาศ",
    "editors": [
      {
        "name": "ปริยานุช",
        "role": "ผู้จัดทำ",
        "date": "2553-06-23"
      },
      {
        "name": "นันท์นภัสร์",
        "role": "ตรวจ",
        "date": "2553-06-23"
      },
      {
        "name": "วริญา",
        "role": "เพิ่มเติม",
        "date": "2558-08-10"
      }
    ],
    "tag": "cb15-2e-2558-a0255"
  }
}