{
  "pages": [
    [
      [
        "ประกาศสำนักงานคณะกรรมการกำกับหลักทรัพย์และตลาดหลักทรัพย์",
        "ที่ สจ. ๘/๒๕๕๓",
        "เรื่อง ข้อกำหนดเพิ่มเติมที่เกี่ยวข้องกับการเสนอขาย",
        "ใบสำคัญแสดงสิทธิอนุพันธ์ที่ออกใหม่"
      ]
    ],
    []
  ],
  "metadata": {
    "date_backmatter": "2553-04-22",
    "date_modified": "2561-04-11",
    "date_original": "2553-04-30",
    "doctype": "ประกาศ",
    "editors": [
      {
        "name": "ปริยานุช",
        "role": "ผู้จัดทำ",
        "date": "2553-05-31"
      },
      {
        "name": "นันท์นภัสร์",
        "role": "ตรวจ",
        "date": "2553-05-31"
      },
      {
        "name": "วริญา",
        "role": "เพิ่มเติม",
        "date": "2558-08-13"
      },
      {
        "name": "พัชรภรณ์",
        "role": "เพิ่มเติม",
        "date": "2561-05-18"
      }
    ],
    "tag": "cb15-2e-9806-update"
  }
}