{
  "pages": [
    [
      [
        "ประกาศคณะกรรมการกำกับหลักทรัพย์และตลาดหลักทรัพย์",
        "ที่ กจ. ๕/๒๕๔๘",
        "เรื่อง ข้อกำหนดเกี่ยวกับผู้บริหารของบริษัทที่ออกหลักทรัพย์"
      ]
    ],
    []
  ],
  "metadata": {
    "date_backmatter": "2548-01-17",
    "date_modified": "2549-12-18",
    "date_original": "2548-02-21",
    "doctype": "ประกาศ",
    "editors": [
      {
        "name": "สัญชัย",
        "role": "ผู้จัดทำ",
        "date": "2551-09-30"
      }
    ],
    "tag": "cb15-2e-9914-update"
  }
}