{
  "pages": [
    [
      [
        "ประกาศคณะกรรมการกำกับตลาดทุน",
        "ที่ ทจ. ๖๐/๒๕๕๙",
        "เรื่อง ข้อกำหนดที่เกี่ยวกับการออกและเสนอขายศุกูก",
        "และการเปิดเผยข้อมูล",
        "(ฉบับที่ ๘)"
      ]
    ],
    []
  ],
  "metadata": {
    "date_backmatter": "2559-12-22",
    "date_modified": "2560-01-20",
    "date_original": "2560-01-20",
    "doctype": "ประกาศ",
    "editors": [
      {
        "name": "ปุณิกา/ปริยานุช",
        "role": "จัดทำ",
        "date": "2560-01-23"
      },
      {
        "name": "นุสรา",
        "role": "ตรวจ",
        "date": "2560-03-16"
      }
    ],
    "tag": "cb15-2e-2560-a0019"
  }
}