{
  "pages": [
    [
      [
        "ประกาศคณะกรรมการกำกับหลักทรัพย์และตลาดหลักทรัพย์",
        "ที่ กก. ๗/๒๕๓๘",
        "เรื่อง หลักเกณฑ์ เงื่อนไข และวิธีการให้กู้ยืมเงินเพื่อซื้อหลักทรัพย์"
      ]
    ],
    []
  ],
  "metadata": {
    "date_backmatter": "2538-03-14",
    "date_gz_old": "2538-03-15",
    "doctype": "ประกาศ",
    "editors": [
      {
        "name": "พุทธชาด/พิมพ์",
        "role": "แก้ไข",
        "date": "2545-08-27"
      }
    ],
    "tag": "cb15-2e-2538-a020"
  }
}