{
  "pages": [
    [
      [
        "ประกาศสำนักงานคณะกรรมการกำกับหลักทรัพย์",
        "และตลาดหลักทรัพย์",
        "ที่ อธ. ๒๗/๒๕๔๓",
        "เรื่อง แนวทางในการกำหนดมาตราการป้องกันและการใช้ข้อมูลภายใน",
        "เพื่อประโยชน์ในการซื้อขาย หลักทรัพย์"
      ]
    ],
    []
  ],
  "metadata": {
    "date_backmatter": "2543-12-08",
    "date_modified": "2543-12-19",
    "date_original": "2543-12-19",
    "doctype": "ประกาศ",
    "editors": [],
    "tag": "cb15-2e-2543-a114"
  }
}