{
  "pages": [
    [
      [
        "ประกาศคณะกรรมการกำกับหลักทรัพย์และตลาดหลักทรัพย์",
        "ที่ กธ. ๑/๒๕๖๐",
        "เรื่อง การกำหนดลักษณะการให้คำแนะนำแก่ประชาชน",
        "ที่ไม่ถือเป็นการประกอบธุรกิจหลักทรัพย์",
        "ประเภทการเป็นที่ปรึกษาการลงทุน"
      ]
    ],
    []
  ],
  "metadata": {
    "date_backmatter": "2560-01-12",
    "date_modified": "2560-02-28",
    "date_original": "2560-02-15",
    "doctype": "ประกาศ",
    "editors": [
      {
        "name": "วริญา/ปริยานุช",
        "role": "จัดทำ",
        "date": "2560-02-20"
      },
      {
        "name": "พรวิภา",
        "role": "เพิ่มเติม",
        "date": "2560-03-24"
      }
    ],
    "tag": "cb15-2e-9743-update"
  }
}