{
  "pages": [
    [
      [
        "ประกาศสำนักงานคณะกรรมการกำกับหลักทรัพย์",
        "และตลาดหลักทรัพย์",
        "ที่ อน. ๑๖/๒๕๔๔",
        "เรื่อง การผ่อนผันให้บริษัทจัดการซื้อหรือมีหุ้นเพื่อเป็น",
        "ทรัพย์สินของบริษัทจัดการ"
      ]
    ],
    []
  ],
  "metadata": {
    "date_backmatter": "2544-07-27",
    "date_gz_old": "2544-08-03",
    "doctype": "ประกาศ",
    "editors": [
      {
        "name": "ภคินี",
        "role": "แก้ไข",
        "date": "2545-05-01"
      }
    ],
    "tag": "cb15-2e-2544-a069"
  }
}