{
  "pages": [
    [
      [
        "ประกาศสำนักงานคณะกรรมการกำกับหลักทรัพย์และตลาดหลักทรัพย์",
        "ที่ สน. ๕/๒๕๕๐",
        "เรื่อง การมีสำนักงานสาขา และการให้บริการนอกสถานที่",
        "และนอกเวลาทำการของบริษัทจัดการ"
      ]
    ],
    []
  ],
  "metadata": {
    "date_backmatter": "2550-05-29",
    "date_modified": "2550-06-22",
    "date_original": "2550-06-22",
    "doctype": "ประกาศ",
    "editors": [
      {
        "name": "วัชศักดิ์",
        "role": "ผู้จัดทำ",
        "date": "2550-06-28"
      }
    ],
    "tag": "cb15-2e-2550-a0011"
  }
}