{
  "pages": [
    [
      [
        "ประกาศสำนักงานคณะกรรมการกำกับหลักทรัพย์",
        "และตลาดหลักทรัพย์",
        "ที่ สธ. 20/2542",
        "เรื่อง ข้อกำหนดเกี่ยวกับหลักประกันในธุรกรรมการยืม",
        "และให้ยืมหลักทรัพย์"
      ]
    ],
    []
  ],
  "metadata": {
    "date_backmatter": "2542-10-04",
    "doctype": "ประกาศ",
    "editors": [],
    "tag": "cb15-2e-2542-a036"
  }
}