{
  "pages": [
    [
      [
        "ประกาศคณะกรรมการกำกับหลักทรัพย์และตลาดหลักทรัพย์",
        "ที่ กจ. ๕๒/๒๕๔๓",
        "เรื่อง หลักเกณฑ์เกี่ยวกับการเสนอขายหลักทรัพย์ที่ออกใหม่พร้อมกับ",
        "การทำคำเสนอซื้อหลักทรัพย์เดิมของบริษัทจดทะเบียนเพื่อ",
        "ปรับโครงสร้างการถือหุ้นและการจัดการ",
        "(ฉบับที่ ๒)"
      ]
    ],
    []
  ],
  "metadata": {
    "date_backmatter": "2543-10-26",
    "date_gz_old": "2543-11-07",
    "doctype": "ประกาศ",
    "editors": [],
    "tag": "cb15-2e-2543-a090"
  }
}