{
  "pages": [
    [
      [
        "ประกาศคณะกรรมการกำกับหลักทรัพย์และตลาดหลักทรัพย์",
        "เรื่อง การกำหนดลักษณะของการให้คำแนะนำแก่ประชาชนที่บริษัทหลักทรัพย์",
        "ที่ได้รับอนุญาตให้ประกอบธุรกิจหลักทรัพย์",
        "ประเภทการเป็นที่ปรึกษาการลงทุน จะกระทำมิได้"
      ]
    ],
    []
  ],
  "metadata": {
    "date_backmatter": "2536-03-18",
    "doctype": "ประกาศ",
    "editors": [],
    "tag": "cb15-2e-2536-001"
  }
}