{
  "pages": [
    [
      [
        "ประกาศคณะกรรมการกำกับตลาดทุน",
        "ที่ ทจ. ๗๓/๒๕๕๘",
        "เรื่อง รายการในหนังสือนัดประชุมผู้ถือหุ้นของบริษัทจดทะเบียน",
        "เพื่อขออนุมัติการออกและเสนอขายหลักทรัพย์"
      ]
    ],
    []
  ],
  "metadata": {
    "date_backmatter": "2558-10-28",
    "date_modified": "2558-11-12",
    "date_original": "2558-11-12",
    "doctype": "ประกาศ",
    "editors": [
      {
        "name": "ปริยานุช",
        "role": "จัดทำ",
        "date": "2558-11-16"
      },
      {
        "name": "ปุณิกา",
        "role": "ตรวจ",
        "date": "2558-12-01"
      }
    ],
    "tag": "cb15-2e-2558-a0187"
  }
}