{
  "pages": [
    [
      [
        "ประกาศสำนักงานคณะกรรมการกำกับหลักทรัพย์และตลาดหลักทรัพย์",
        "ที่ สข/น. ๒๓/๒๕๕๒",
        "เรื่อง หลักเกณฑ์ เงื่อนไข และวิธีการจัดการกองทุน"
      ]
    ],
    []
  ],
  "metadata": {
    "date_backmatter": "2549-02-07",
    "date_modified": "2552-08-16",
    "date_original": "2552-08-16",
    "doctype": "ประกาศ",
    "editors": [
      {
        "name": "ปริยานุช",
        "role": "ผู้จัดทำ",
        "date": "2552-08-31"
      },
      {
        "name": "จุฑามาศ",
        "role": "ปรับปรุง",
        "date": "2557-01-07"
      }
    ],
    "tag": "cb15-2e-2552-a0057"
  }
}