{
  "pages": [
    [
      [
        "ประกาศคณะกรรมการกำกับตลาดทุน",
        "ที่ ทน. ๑๕/๒๕๖๐",
        "เรื่อง หลักเกณฑ์ เงื่อนไข และวิธีการจัดตั้งและจัดการ",
        "ของกองทุนรวมเพื่อผู้ลงทุนสถาบัน",
        "หรือผู้ลงทุนรายใหญ่พิเศษ"
      ]
    ],
    []
  ],
  "metadata": {
    "date_backmatter": "2560-02-20",
    "date_modified": "2560-03-28",
    "date_original": "2560-02-28",
    "doctype": "ประกาศ",
    "editors": [
      {
        "name": "ปริยานุช",
        "role": "จัดทำ",
        "date": "2560-03-08"
      },
      {
        "name": "พรวิภา",
        "role": "ตรวจ",
        "date": "2560-03-08"
      },
      {
        "name": "ปุณิกา",
        "role": "เพิ่มเติม",
        "date": "2560-05-01"
      }
    ],
    "tag": "cb15-2e-9737-update"
  }
}