{
  "pages": [
    [
      [
        "ประกาศคณะกรรมการกำกับหลักทรัพย์และตลาดหลักทรัพย์",
        "ที่ กน. 16/2541",
        "เรื่อง หลักเกณฑ์ เงื่อนไข และวิธีการจัดตั้งและจัดการ",
        "กองทุนรวมเพื่อแก้ไขปัญหาในระบบสถาบันการเงิน"
      ]
    ],
    []
  ],
  "metadata": {
    "date_backmatter": "2541-05-24",
    "doctype": "ประกาศ",
    "editors": [],
    "tag": "cb15-2e-2541-026"
  }
}