{
  "pages": [
    [
      [
        "ประกาศสำนักงานคณะกรรมการกำกับหลักทรัพย์และตลาดหลักทรัพย์",
        "ที่ สธ. ๒๙/๒๕๕๑",
        "เรื่อง การคำนวณและการรายงานการคำนวณเงินกองทุนของบริษัทหลักทรัพย์",
        "ประเภทการให้สินเชื่อเพื่อธุรกิจหลักทรัพย์",
        "(ฉบับที่ ๒)"
      ]
    ],
    []
  ],
  "metadata": {
    "date_backmatter": "2551-11-13",
    "date_modified": "2551-12-26",
    "date_original": "2551-12-26",
    "doctype": "ประกาศ",
    "editors": [
      {
        "name": "วัชศักดิ์",
        "role": "ผู้จัดทำ",
        "date": "2552-01-08"
      }
    ],
    "tag": "cb15-2e-2551-a0071"
  }
}