{
  "pages": [
    [
      [
        "ประกาศสำนักงานคณะกรรมการกำกับหลักทรัพย์และตลาดหลักทรัพย์",
        "ที่ ขส. ๑/๒๕๖๐",
        "เรื่อง โครงสร้างองค์กร และอำนาจหน้าที่ขององค์กร"
      ]
    ],
    []
  ],
  "metadata": {
    "date_backmatter": "2560-01-19",
    "date_modified": "2560-03-16",
    "date_original": "2560-03-16",
    "doctype": "ประกาศ",
    "editors": [
      {
        "name": "ปริยานุช",
        "role": "จัดทำ",
        "date": "2560-03-20"
      },
      {
        "name": "ชวัลพร",
        "role": "ตรวจ",
        "date": "2560-04-20"
      }
    ],
    "tag": "cb15-2e-2560-a0071"
  }
}