{
  "pages": [
    [
      [
        "ประกาศสำนักงานคณะกรรมการกำกับหลักทรัพย์และตลาดหลักทรัพย์",
        "ที่ สจ. ๔๖/๒๕๔๙",
        "เรื่อง หลักเกณฑ์และวิธีการในการจัดให้มีทะเบียนผู้ถือหลักทรัพย์",
        "และการลงทะเบียนการโอนหลักทรัพย์",
        "(ฉบับที่ ๒)"
      ]
    ],
    []
  ],
  "metadata": {
    "date_backmatter": "2549-12-20",
    "date_modified": "2549-12-29",
    "date_original": "2549-12-29",
    "doctype": "ประกาศ",
    "editors": [
      {
        "name": "วัชศักดิ์",
        "role": "ผู้จัดทำ",
        "date": "2550-01-09"
      }
    ],
    "tag": "cb15-2e-2549-a0099"
  }
}