{
  "pages": [
    [
      [
        "ประกาศสำนักงานคณะกรรมการกำกับหลักทรัพย์และตลาดหลักทรัพย์",
        "ที่ สช. ๗๑/๒๕๕๘",
        "เรื่อง สถาบันจัดอันดับความน่าเชื่อถือที่ได้รับความเห็นชอบให้จัดอันดับความน่าเชื่อถือ",
        "สำหรับตราสารที่อยู่ภายใต้บังคับเกี่ยวกับการออกและเสนอขาย",
        "และเกี่ยวกับการลงทุนของกองทุน",
        "(ฉบับที่ ๒)"
      ]
    ],
    []
  ],
  "metadata": {
    "date_backmatter": "2558-10-12",
    "date_modified": "2558-11-03",
    "date_original": "2558-11-03",
    "doctype": "ประกาศ",
    "editors": [
      {
        "name": "ปริยานุช/กัญฑรัตน์",
        "role": "จัดทำ",
        "date": "2558-11-11"
      },
      {
        "name": "",
        "role": "ตรวจ",
        "date": "2558-11-11"
      }
    ],
    "tag": "cb15-2e-2558-a0166"
  }
}