{
  "pages": [
    [
      [
        "ประกาศคณะกรรมการกำกับตลาดทุน",
        "ที่ ทลธ. ๘/๒๕๕๗",
        "เรื่อง หลักเกณฑ์เกี่ยวกับบุคลากรในธุรกิจตลาดทุน"
      ]
    ],
    []
  ],
  "metadata": {
    "date_backmatter": "2558-01-01",
    "date_modified": "2558-12-14",
    "date_original": "2557-06-20",
    "doctype": "ประกาศ",
    "editors": [
      {
        "name": "ปุณิกา",
        "role": "ผู้จัดทำ",
        "date": "2558-10-09"
      },
      {
        "name": "ปัญญา",
        "role": "ตรวจ",
        "date": "2558-10-09"
      },
      {
        "name": "กัญฑรัตน์",
        "role": "เพิ่มเติม",
        "date": "2559-01-13"
      },
      {
        "name": "นุสรา",
        "role": "ตรวจ",
        "date": "2559-02-11"
      }
    ],
    "tag": "cb15-2e-2558-a0235"
  }
}