{
  "pages": [
    [
      [
        "ประกาศคณะกรรมการกำกับหลักทรัพย์",
        "และตลาดหลักทรัพย์",
        "ที่ กจ. ๕๑/๒๕๔๕",
        "เรื่อง การขอยกเลิกข้อจำกัดการโอนหุ้นกู้"
      ]
    ],
    []
  ],
  "metadata": {
    "date_backmatter": "2545-11-05",
    "date_modified": "2545-11-12",
    "date_original": "2545-11-12",
    "doctype": "ประกาศ",
    "editors": [],
    "tag": "cb15-2e-2545-a056"
  }
}