{
  "pages": [
    [
      [
        "ประกาศสำนักงานคณะกรรมการกำกับหลักทรัพย์และตลาดหลักทรัพย์",
        "ที่ สนจ. ๑๓/๒๕๕๕",
        "เรื่อง การกำหนดค่าธรรมเนียมการยื่นแบบแสดงรายการข้อมูล",
        "การจดทะเบียน และการยื่นคำขอต่าง ๆ",
        "(ฉบับที่ ๓๐)"
      ]
    ],
    []
  ],
  "metadata": {
    "date_backmatter": "2555-06-14",
    "date_modified": "2555-06-22",
    "date_original": "2555-06-22",
    "doctype": "ประกาศ",
    "editors": [
      {
        "name": "ปริยานุช",
        "role": "ผู้จัดทำ",
        "date": "2555-06-27"
      },
      {
        "name": "ชาญ",
        "role": "ผู้ตรวจ",
        "date": "2555-07-02"
      }
    ],
    "tag": "cb15-2e-2555-a0051"
  }
}