{
  "pages": [
    [
      [
        "ประกาศคณะกรรมการกำกับตลาดทุน",
        "ที่ ทธ. ๔๘/๒๕๕๒",
        "เรื่อง การขายหลักทรัพย์โดยที่บริษัทหลักทรัพย์ยังไม่มีหลักทรัพย์นั้น",
        "อยู่ในครอบครอง ด้วยการซื้อหลักทรัพย์มาเพื่อการส่งมอบ"
      ]
    ],
    []
  ],
  "metadata": {
    "date_backmatter": "2545-06-05",
    "date_modified": "2552-08-29",
    "date_original": "2552-08-29",
    "doctype": "ประกาศ",
    "editors": [
      {
        "name": "ปริยานุช",
        "role": "ผู้จัดทำ",
        "date": "2552-09-04"
      }
    ],
    "tag": "cb15-2e-2552-a0098"
  }
}