{
  "pages": [
    [
      [
        "ประกาศสำนักงานคณะกรรมการกำกับหลักทรัพย์และตลาดหลักทรัพย์",
        "ที่ สน. ๙๐/๒๕๕๘",
        "เรื่อง หลักเกณฑ์เกี่ยวกับกองทุนสำรองเลี้ยงชีพที่มี",
        "การควบคุมอัตราส่วนการลงทุนสำหรับ",
        "สมาชิกแต่ละราย"
      ]
    ],
    []
  ],
  "metadata": {
    "date_backmatter": "2558-12-17",
    "date_modified": "2559-01-14",
    "date_original": "2559-01-14",
    "doctype": "ประกาศ",
    "editors": [
      {
        "name": "กัญฑรัตน์/ปริยานุช",
        "role": "จัดทำ",
        "date": "2559-01-18"
      },
      {
        "name": "นุสรา",
        "role": "ตรวจ",
        "date": "2559-05-01"
      }
    ],
    "tag": "cb15-2e-2559-a0004"
  }
}