{
  "pages": [
    [
      [
        "ประกาศคณะกรรมการกำกับตลาดทุน",
        "ที่ ทจ. ๑๒/๒๕๕๒",
        "เรื่อง การขออนุญาตและการอนุญาตให้เสนอขายหุ้นกู้อนุพันธ์ที่ออกใหม่"
      ]
    ],
    []
  ],
  "metadata": {
    "date_backmatter": "2552-03-13",
    "date_modified": "2555-04-30",
    "date_original": "2552-03-30",
    "doctype": "ประกาศ",
    "editors": [
      {
        "name": "ปริยานุช",
        "role": "ผู้จัดทำ",
        "date": "2552-04-28"
      },
      {
        "name": "ณัฐพร",
        "role": "ปรับปรุง",
        "date": "2556-05-02"
      }
    ],
    "tag": "cb15-2e-2555-a0104"
  }
}