{
  "pages": [
    [
      [
        "ประกาศสำนักงานคณะกรรมการกำกับหลักทรัพย์และตลาดหลักทรัพย์",
        "ที่ สน. ๔๗/๒๕๕๓",
        "เรื่อง หลักเกณฑ์ เงื่อนไข และวิธีการจัดตั้งและจัดการ",
        "กองทุนรวมอสังหาริมทรัพย์",
        "(ฉบับที่ ๓)"
      ]
    ],
    []
  ],
  "metadata": {
    "date_backmatter": "2553-11-05",
    "date_modified": "2553-11-16",
    "date_original": "2553-11-16",
    "doctype": "ประกาศ",
    "editors": [
      {
        "name": "ปริยานุช",
        "role": "ผู้จัดทำ",
        "date": "2553-11-23"
      },
      {
        "name": "ณัฐวดี",
        "role": "ตรวจ",
        "date": "2553-11-23"
      },
      {
        "name": "จุฑามาศ",
        "role": "ปรับปรุง",
        "date": "2557-02-04"
      }
    ],
    "tag": "cb15-2e-2553-a0096"
  }
}