{
  "pages": [
    [
      [
        "ประกาศสำนักงานคณะกรรมการกำกับหลักทรัพย์",
        "และตลาดหลักทรัพย์",
        "ที่ อน. ๑/๒๕๓๙",
        "เรื่อง การให้ความเห็นชอบผู้รับฝากทรัพย์สินของกองทุนส่วนบุคคล"
      ]
    ],
    []
  ],
  "metadata": {
    "date_backmatter": "2539-07-26",
    "date_gz_old": "2539-08-13",
    "doctype": "ประกาศ",
    "editors": [
      {
        "name": "ฐาปนี",
        "role": "แก้ไข",
        "date": "2545-08-16"
      }
    ],
    "tag": "cb15-2e-2539-a028"
  }
}