{
  "pages": [
    [
      [
        "ประกาศคณะกรรมการกำกับตลาดทุน",
        "ที่ ทธ. ๖๕/๒๕๕๒",
        "เรื่อง หลักเกณฑ์ เงื่อนไข และวิธีการกระทำการเป็นนายหน้าซื้อขาย",
        "หลักทรัพย์นอกตลาดหลักทรัพย์แห่งประเทศไทย"
      ]
    ],
    []
  ],
  "metadata": {
    "date_backmatter": "2535-05-18",
    "date_modified": "2552-08-29",
    "date_original": "2552-08-29",
    "doctype": "ประกาศ",
    "editors": [
      {
        "name": "ปริยานุช",
        "role": "ผู้จัดทำ",
        "date": "2552-09-04"
      }
    ],
    "tag": "cb15-2e-2552-a0115"
  }
}