{
  "pages": [
    [
      [
        "ประกาศคณะกรรมการกำกับตลาดทุน",
        "ที่ ทจ. ๓๓/๒๕๕๒",
        "เรื่อง การขอยกเลิกข้อจำกัดการโอนหุ้นกู้"
      ]
    ],
    []
  ],
  "metadata": {
    "date_backmatter": "2545-11-05",
    "date_modified": "2552-08-29",
    "date_original": "2552-08-29",
    "doctype": "ประกาศ",
    "editors": [
      {
        "name": "ปริยานุช",
        "role": "ผู้จัดทำ",
        "date": "2552-09-04"
      }
    ],
    "tag": "cb15-2e-2552-a0083"
  }
}