{
  "pages": [
    [
      [
        "ประกาศสำนักงานคณะกรรมการกำกับหลักทรัพย์",
        "และตลาดหลักทรัพย์",
        "ที่ สน. ๒๓/๒๕๔๓",
        "เรื่อง การกำหนดคุณสมบัติของผู้ขอรับความเห็นชอบ",
        "เป็นผู้จัดการกองทุนส่วนบุคคลในการทดสอบ",
        "ความรู้เบื้องต้นเกี่ยวกับวิชาชีพ"
      ]
    ],
    []
  ],
  "metadata": {
    "date_backmatter": "2543-06-05",
    "date_gz_old": "2543-06-21",
    "doctype": "ประกาศ",
    "editors": [
      {
        "name": "ปรียนันท์",
        "role": "พิมพ์",
        "date": "2544-12-21"
      },
      {
        "name": "สุรินทร์",
        "role": "แก้ไข",
        "date": "2544-12-21"
      },
      {
        "name": null,
        "role": null,
        "date": "2544-12-21"
      }
    ],
    "tag": "cb15-2e-2543-a140"
  }
}