{
  "pages": [
    [
      [
        "ประกาศสำนักงานคณะกรรมการกำกับหลักทรัพย์และตลาดหลักทรัพย์",
        "ที่ สน. ๖๕/๒๕๕๘",
        "เรื่อง การจัดตั้งกองทุนรวมและการเข้าทำสัญญารับจัดการกองทุนส่วนบุคคล",
        "(ฉบับที่ ๑๗)"
      ]
    ],
    []
  ],
  "metadata": {
    "date_backmatter": "2558-07-13",
    "date_modified": "2558-08-03",
    "date_original": "2558-08-03",
    "doctype": "ประกาศ",
    "editors": [
      {
        "name": "ปริยานุช",
        "role": "ผู้จัดทำ",
        "date": "2558-08-05"
      },
      {
        "name": "นุสรา",
        "role": "ผู้ตรวจ",
        "date": "2558-10-16"
      }
    ],
    "tag": "cb15-2e-2558-a0120"
  }
}