{
  "pages": [
    [
      [
        "ประกาศคณะกรรมการกำกับตลาดทุน",
        "ที่ ทจ. ๓๙/๒๕๕๒",
        "เรื่อง หลักเกณฑ์ เงื่อนไข และวิธีการในการส่งมอบ",
        "หลักทรัพย์ให้แก่ผู้ซื้อหลักทรัพย์"
      ]
    ],
    []
  ],
  "metadata": {
    "date_backmatter": "2538-05-12",
    "date_modified": "2552-08-29",
    "date_original": "2552-08-29",
    "doctype": "ประกาศ",
    "editors": [
      {
        "name": "ปริยานุช",
        "role": "ผู้จัดทำ",
        "date": "2552-09-04"
      }
    ],
    "tag": "cb15-2e-2552-a0089"
  }
}