{
  "pages": [
    [
      [
        "ระเบียบวิธีปฏิบัติสำนักงานคณะกรรมการกำกับหลักทรัพย์และตลาดหลักทรัพย์",
        "ว่าด้วยการรับส่งข้อมูลอิเล็กทรอนิกส์",
        "พ.ศ. ๒๕๕๗"
      ]
    ],
    []
  ],
  "metadata": {
    "date_backmatter": "2557-09-11",
    "date_modified": "2560-05-15",
    "date_original": "2560-05-15",
    "editors": [
      {
        "name": "พิมพ์มาดา/ภวรรณตรี",
        "role": "จัดทำ",
        "date": "2560-05-23"
      }
    ],
    "tag": "cb15-2g-2560-a0001"
  }
}