{
  "pages": [
    [
      [
        "ประกาศคณะกรรมการกำกับหลักทรัพย์และตลาดหลักทรัพย์",
        "ที่ กจ. ๒๑/๒๕๓๘",
        "เรื่อง การแก้ไขเพิ่มเติมการยื่นแบบแสดงรายการข้อมูลการเสนอขาย",
        "ใบสำคัญแสดงสิทธิ และการยื่นแบบแสดงรายการข้อมูลการเสนอขายหุ้นหรือ",
        "หุ้นกู้ที่ออกใหม่เพื่อรองรับใบสำคัญแสดงสิทธิ"
      ]
    ],
    []
  ],
  "metadata": {
    "date_backmatter": "2538-10-06",
    "date_gz_old": "2538-10-17",
    "doctype": "ประกาศ",
    "editors": [
      {
        "name": "จารุวรรณ",
        "role": "พิมพ์",
        "date": "2545-08-13"
      }
    ],
    "tag": "cb15-2e-2538-a007"
  }
}