{
  "pages": [
    [
      [
        "ประกาศสำนักงานคณะกรรมการกำกับหลักทรัพย์และตลาดหลักทรัพย์",
        "ที่ สธ. ๔๘/๒๕๕๖",
        "เรื่อง การกำหนดวันหยุดทำการของบริษัทหลักทรัพย์และ",
        "ผู้ประกอบธุรกิจสัญญาซื้อขายล่วงหน้าเพิ่มเติม"
      ]
    ],
    []
  ],
  "metadata": {
    "date_backmatter": "2556-12-26",
    "date_modified": "2557-01-09",
    "date_original": "2557-01-09",
    "doctype": "ประกาศ",
    "editors": [
      {
        "name": "ปริยานุช",
        "role": "ผู้จัดทำ",
        "date": "2557-01-14"
      },
      {
        "name": "อุษมล",
        "role": "ผู้ตรวจ",
        "date": "2557-02-13"
      }
    ],
    "tag": "cb15-2e-2557-a0004"
  }
}