{
  "pages": [
    [
      [
        "ประกาศคณะกรรมการกำกับตลาดทุน",
        "ที่ ทจ. ๔๐/๒๕๕๗",
        "เรื่อง การจำหน่ายหลักทรัพย์ที่ออกใหม่ประเภทหุ้น",
        "และใบสำคัญแสดงสิทธิที่จะซื้อหุ้น",
        "ของบริษัทที่ออกตราสารทุน"
      ]
    ],
    []
  ],
  "metadata": {
    "date_backmatter": "2557-11-07",
    "date_modified": "2559-07-27",
    "date_original": "2557-12-09",
    "doctype": "ประกาศ",
    "editors": [
      {
        "name": "ปุณิกา",
        "role": "เพิ่มเติม",
        "date": "2559-08-22"
      },
      {
        "name": "นุสรา",
        "role": "ตรวจ",
        "date": "2559-11-02"
      }
    ],
    "tag": "cb15-2e-2559-a0125"
  }
}