{
  "pages": [
    [
      [
        "ประกาศคณะกรรมการกำกับตลาดทุน",
        "ที่ ทน. ๑๙/๒๕๖๐",
        "เรื่อง ข้อผูกพันระหว่างผู้ถือหน่วยลงทุนกับบริษัทจัดการกองทุนรวม",
        "(ฉบับที่ ๔)"
      ]
    ],
    []
  ],
  "metadata": {
    "date_backmatter": "2560-02-20",
    "date_modified": "2560-02-28",
    "date_original": "2560-02-28",
    "doctype": "ประกาศ",
    "editors": [
      {
        "name": "ปริยานุช",
        "role": "จัดทำ",
        "date": "2560-03-09"
      },
      {
        "name": "พรวิภา",
        "role": "ตรวจ",
        "date": "2560-03-09"
      }
    ],
    "tag": "cb15-2e-2560-a0069"
  }
}