{
  "pages": [
    [
      [
        "ประกาศคณะกรรมการกำกับตลาดทุน",
        "ที่ ทจ. ๕๑/๒๕๕๕",
        "เรื่อง หลักเกณฑ์ เงื่อนไข และวิธีการรายงานการเปิดเผยข้อมูล",
        "เกี่ยวกับฐานะการเงินและผลการดำเนินงานของ",
        "ทรัสต์เพื่อการลงทุนในอสังหาริมทรัพย์"
      ]
    ],
    []
  ],
  "metadata": {
    "date_backmatter": "2555-11-21",
    "date_modified": "2558-05-21",
    "date_original": "2555-12-27",
    "doctype": "ประกาศ",
    "editors": [
      {
        "name": "กฤษดายุทธ",
        "role": "ผู้จัดทำ",
        "date": "2557-10-09"
      },
      {
        "name": "วริญา",
        "role": "เพิ่มเติม",
        "date": "2558-06-12"
      }
    ],
    "tag": "cb15-2e-2558-a0209"
  }
}