{
  "pages": [
    [
      [
        "ประกาศสำนักงานคณะกรรมการกำกับหลักทรัพย์และตลาดหลักทรัพย์",
        "ว่าด้วยการประกอบกิจการอื่นของบริษัทหลักทรัพย์ที่ได้รับ",
        "ใบอนุญาตประกอบธุรกิจหลักทรัพย์ประเภทการให้",
        "สินเชื่อเพื่อธุรกิจหลักทรัพย์ พ.ศ. ๒๕๕๐"
      ]
    ],
    []
  ],
  "metadata": {
    "date_backmatter": "2550-09-21",
    "date_modified": "2550-09-29",
    "date_original": "2550-09-29",
    "doctype": "ประกาศ",
    "editors": [
      {
        "name": "วัชศักดิ์",
        "role": "ผู้จัดทำ",
        "date": "2550-10-09"
      }
    ],
    "tag": "cb15-2e-2550-a0045"
  }
}