{
  "pages": [
    [
      [
        "ประกาศสำนักงานคณะกรรมการกำกับหลักทรัพย์",
        "และตลาดหลักทรัพย์",
        "ที่ สก. ๑/๒๕๓๙",
        "เรื่อง หลักเกณฑ์ เงื่อนไข และวิธีการในการให้",
        "ความเห็นชอบผู้จัดการกองทุนรวม"
      ]
    ],
    []
  ],
  "metadata": {
    "date_backmatter": "2539-01-16",
    "date_gz_old": "2539-02-06",
    "doctype": "ประกาศ",
    "editors": [
      {
        "name": "ฐาปนี",
        "role": "แก้ไข",
        "date": "2545-08-27"
      }
    ],
    "tag": "cb15-2e-2539-a029"
  }
}