{
  "pages": [
    [
      [
        "ประกาศสำนักงานคณะกรรมการกำกับหลักทรัพย์และตลาดหลักทรัพย์",
        "ว่าด้วยการให้ความเห็นชอบที่ปรึกษาทางการเงิน",
        "และขอบเขตการดำเนินงาน",
        "พ.ศ. ๒๕๕๒"
      ]
    ],
    []
  ],
  "metadata": {
    "date_backmatter": "2550-12-17",
    "date_modified": "2557-09-16",
    "date_original": "2552-09-15",
    "doctype": "ประกาศ",
    "editors": [
      {
        "name": "กฤษดายุทธ",
        "role": "ผู้จัดทำ",
        "date": "2555-10-09"
      }
    ],
    "tag": "cb15-2e-2557-a0108"
  }
}