{
  "pages": [
    [
      [
        "ประกาศคณะกรรมการกำกับหลักทรัพย์",
        "และตลาดหลักทรัพย์",
        "ที่ กน. ๒๘/๒๕๔๓",
        "เรื่อง หลักเกณฑ์ เงื่อนไข และวิธีการชำระบัญชีของกองทุนรวม",
        "(ฉบับที่ ๒)"
      ]
    ],
    []
  ],
  "metadata": {
    "date_backmatter": "2543-08-18",
    "date_gz_old": "2543-09-04",
    "doctype": "ประกาศ",
    "editors": [],
    "tag": "cb15-2e-2543-a047"
  }
}