{
  "pages": [
    [
      [
        "ประกาศคณะกรรมการกำกับตลาดทุน",
        "ที่ ทจ. ๒๐/๒๕๕๑",
        "เรื่อง หลักเกณฑ์ในการทำรายการที่มีนัยสำคัญที่เข้าข่าย",
        "เป็นการได้มาหรือจำหน่ายไปซึ่งทรัพย์สิน"
      ]
    ],
    []
  ],
  "metadata": {
    "date_backmatter": "2551-08-31",
    "date_modified": "2551-09-08",
    "date_original": "2551-09-08",
    "doctype": "ประกาศ",
    "editors": [
      {
        "name": "ปริยานุช",
        "role": "ผู้จัดทำ",
        "date": "2551-09-11"
      }
    ],
    "tag": "cb15-2e-2551-a0054"
  }
}