{
  "pages": [
    [
      [
        "ประกาศสำนักงานคณะกรรมการกำกับหลักทรัพย์และตลาดหลักทรัพย์",
        "ที่ สบ. ๓๘/๒๕๕๐",
        "เรื่อง การกำหนดค่าธรรมเนียมการยื่นแบบแสดงรายการข้อมูล",
        "การจดทะเบียน และการยื่นคำขอต่างๆ",
        "(ฉบับที่ ๑๒)"
      ]
    ],
    []
  ],
  "metadata": {
    "date_backmatter": "2550-12-17",
    "date_modified": "2551-01-25",
    "date_original": "2551-01-25",
    "doctype": "ประกาศ",
    "editors": [
      {
        "name": "วัชศักดิ์",
        "role": "ผู้จัดทำ",
        "date": "2551-02-06"
      },
      {
        "name": "ปริญสินีย์",
        "role": "ปรับปรุง",
        "date": "2558-05-14"
      }
    ],
    "tag": "cb15-2e-2551-a0001"
  }
}