{
  "pages": [
    [
      [
        "ประกาศสำนักงานคณะกรรมการกำกับหลักทรัพย์",
        "และตลาดหลักทรัพย์",
        "ที่ สบ. ๔๕/๒๕๔๗",
        "เรื่อง การกำหนดค่าธรรมเนียมการยื่นแบบแสดงรายการข้อมูล",
        "การจดทะเบียน และการยื่นคำขอต่าง ๆ",
        "(ฉบับที่ ๒)"
      ]
    ],
    []
  ],
  "metadata": {
    "date_backmatter": "2547-12-03",
    "date_modified": "2547-12-27",
    "date_original": "2547-12-27",
    "doctype": "ประกาศ",
    "editors": [
      {
        "name": "ปริญสินีย์",
        "role": "ผู้จัดทำ",
        "date": "2558-05-20"
      }
    ],
    "tag": "cb15-2e-2547-a0079"
  }
}