{
  "pages": [
    [
      [
        "ประกาศคณะกรรมการกำกับหลักทรัพย์และตลาดหลักทรัพย์",
        "ที่ กธ. ๑๘/๒๕๖๐",
        "เรื่อง หลักเกณฑ์ เงื่อนไข และวิธีการในการขอรับ",
        "ใบอนุญาตและการออกใบอนุญาตการให้บริการ",
        "เป็นนายทะเบียนหลักทรัพย์",
        "(ฉบับที่ ๖)"
      ]
    ],
    []
  ],
  "metadata": {
    "date_backmatter": "2560-04-24",
    "date_modified": "2560-05-15",
    "date_original": "2560-05-15",
    "doctype": "ประกาศ",
    "editors": [
      {
        "name": "พิมพ์มาดา/ภวรรณตรี",
        "role": "จัดทำ",
        "date": "2560-05-23"
      }
    ],
    "tag": "cb15-2e-2560-a0100"
  }
}