{
  "pages": [
    [
      [
        "ประกาศคณะกรรมการกำกับตลาดทุน",
        "ที่ ทจ. ๕๔/๒๕๕๘",
        "เรื่อง การออกและเสนอขายหน่วยทรัสต์ของทรัสต์",
        "เพื่อการลงทุนในโครงสร้างพื้นฐาน",
        "(ฉบับที่ ๓)"
      ]
    ],
    []
  ],
  "metadata": {
    "date_backmatter": "2558-07-13",
    "date_modified": "2558-08-03",
    "date_original": "2558-08-03",
    "doctype": "ประกาศ",
    "editors": [
      {
        "name": "ปริยานุช",
        "role": "ผู้จัดทำ",
        "date": "2558-08-05"
      },
      {
        "name": "นุสรา",
        "role": "ผู้ตรวจ",
        "date": "2558-10-16"
      }
    ],
    "tag": "cb15-2e-2558-a0125"
  }
}