{
  "pages": [
    [
      [
        "ประกาศสำนักงานคณะกรรมการกำกับหลักทรัพย์และตลาดหลักทรัพย์",
        "ที่ สน. ๒๖/๒๕๕๙",
        "เรื่อง หนังสือชี้ชวนเสนอขายหน่วยลงทุนของกองทุนรวม",
        "เพื่อผู้ลงทุนทั่วไป กองทุนรวมเพื่อผู้ลงทุนที่มิใช่รายย่อย",
        "และกองทุนรวมเพื่อผู้ลงทุนประเภทสถาบัน",
        "(ฉบับที่ ๒)"
      ]
    ],
    []
  ],
  "metadata": {
    "date_backmatter": "2559-06-30",
    "date_modified": "2559-08-18",
    "date_original": "2559-08-18",
    "doctype": "ประกาศ",
    "editors": [
      {
        "name": "ปริยานุช",
        "role": "จัดทำ",
        "date": "2559-08-23"
      },
      {
        "name": "ชวัลพร",
        "role": "ตรวจ",
        "date": "2559-08-23"
      }
    ],
    "tag": "cb15-2e-2559-a0074"
  }
}