{
  "pages": [
    [
      [
        "ประกาศสำนักงานคณะกรรมการกำกับหลักทรัพย์",
        "และตลาดหลักทรัพย์",
        "ที่ สธ. ๒๐/๒๕๔๒",
        "เรื่อง ข้อกำหนดเกี่ยวกับหลักประกันในธุรกรรมการยืม",
        "และให้ยืมหลักทรัพย์"
      ]
    ],
    []
  ],
  "metadata": {
    "date_backmatter": "2542-10-04",
    "date_modified": "2548-07-27",
    "date_original": "2542-10-08",
    "doctype": "ประกาศ",
    "editors": [
      {
        "name": "สัญชัย",
        "role": "จัดทำ",
        "date": "2549-11-02"
      }
    ],
    "tag": "cb15-2e-9968-update"
  }
}