{
  "pages": [
    [
      [
        "ประกาศคณะกรรมการกำกับตลาดทุน",
        "ที่ ทธ. ๙/๒๕๕๔",
        "เรื่อง การขายอีทีเอฟและหลักทรัพย์ที่เป็นองค์ประกอบของอีทีเอฟ",
        "โดยที่บริษัทหลักทรัพย์ยังไม่มีหลักทรัพย์นั้นอยู่ในครอบครอง"
      ]
    ],
    []
  ],
  "metadata": {
    "date_backmatter": "2554-05-10",
    "date_modified": "2554-06-10",
    "date_original": "2554-06-10",
    "doctype": "ประกาศ",
    "editors": [
      {
        "name": "ปริยานุช",
        "role": "ผู้จัดทำ",
        "date": "2554-06-20"
      },
      {
        "name": "ณัฐวดี",
        "role": "ตรวจ",
        "date": "2554-06-20"
      }
    ],
    "tag": "cb15-2e-2554-a0037"
  }
}