{
  "pages": [
    [
      [
        "ประกาศคณะกรรมการกำกับหลักทรัพย์และตลาดหลักทรัพย์",
        "ที่ สน. 1/2543",
        "เรื่อง การกำหนดอัตราส่วนการลงทุนของกองทุนรวม",
        "(ฉบับที่ 2)"
      ]
    ],
    []
  ],
  "metadata": {
    "date_backmatter": "2543-01-10",
    "date_gz_old": "2543-01-17",
    "doctype": "ประกาศ",
    "editors": [],
    "tag": "cb15-2e-2543-a006"
  }
}