{
  "pages": [
    [
      [
        "ประกาศสำนักงานคณะกรรมการกำกับหลักทรัพย์และตลาดหลักทรัพย์",
        "ที่ สจ. ๒๕/๒๕๖๑",
        "เรื่อง ข้อกำหนดเพิ่มเติมที่เกี่ยวข้องกับการเสนอขาย",
        "ใบสำคัญแสดงสิทธิอนุพันธ์ที่ออกใหม่",
        "(ฉบับที่ ๕)"
      ]
    ],
    []
  ],
  "metadata": {
    "date_backmatter": "2561-02-19",
    "date_modified": "2561-04-11",
    "date_original": "2561-04-11",
    "doctype": "ประกาศ",
    "editors": [
      {
        "name": "พัชรภรณ์",
        "role": "จัดทำ",
        "date": "2561-06-06"
      }
    ],
    "tag": "cb15-2e-2561-a0061"
  }
}