{
  "pages": [
    [
      [
        "ประกาศคณะกรรมการกำกับหลักทรัพย์และตลาดหลักทรัพย์",
        "ที่ กจ. ๑๘/๒๕๕๑",
        "เรื่อง การยกเว้นการยื่นแบบแสดงรายการข้อมูลการเสนอขายหลักทรัพย์"
      ]
    ],
    []
  ],
  "metadata": {
    "date_backmatter": "2551-12-15",
    "date_modified": "2551-12-29",
    "date_original": "2551-12-29",
    "doctype": "ประกาศ",
    "editors": [
      {
        "name": "วัชศักดิ์",
        "role": "ผู้จัดทำ",
        "date": "2552-01-08"
      }
    ],
    "tag": "cb15-2e-2551-a0080"
  }
}