{
  "pages": [
    [
      [
        "พระราชบัญญัติ",
        "หลักทรัพย์และตลาดหลักทรัพย์",
        "พ.ศ. ๒๕๓๕",
        "",
        "",
        "ภูมิพลอดุลยเดช ป.ร.",
        "ให้ไว้ ณ วันที่ ๑๒ มีนาคม พ.ศ. ๒๕๓๕",
        "เป็นปีที่ ๔๗ ในรัชกาลปัจจุบัน"
      ]
    ],
    []
  ],
  "metadata": {
    "date_header": "2535-03-12",
    "date_modified": "2535-03-16",
    "date_original": "2535-03-16",
    "doctype": "พระราชบัญญัติ",
    "editors": [
      {
        "name": "วสุ สรรกำเนิด",
        "role": "ผู้ปรับปรุง",
        "date": "2552-05-28"
      },
      {
        "name": "กัญฑรัตน์",
        "role": "ปรับปรุง",
        "date": "2558-10-12"
      }
    ],
    "tag": "cb15-20-2535-001",
    "title": "หลักทรัพย์และตลาดหลักทรัพย์"
  }
}