{
  "pages": [
    [
      [
        "ประกาศสำนักงานคณะกรรมการกำกับหลักทรัพย์",
        "และตลาดหลักทรัพย์",
        "ที่ สด. ๓๙/๒๕๔๐",
        "เรื่อง ลักษณะและสาระสำคัญของสัญญายืม",
        "และให้ยืมหลักทรัพย์"
      ]
    ],
    []
  ],
  "metadata": {
    "date_backmatter": "2540-10-08",
    "date_modified": "2542-10-08",
    "date_original": "2540-10-14",
    "doctype": "ประกาศ",
    "editors": [
      {
        "name": "วาทินี",
        "role": "ปรับปรุง",
        "date": "2549-10-11"
      }
    ],
    "tag": "cb15-2e-9951-update"
  }
}