{
  "pages": [
    [
      [
        "ประกาศสำนักงานคณะกรรมการกำกับหลักทรัพย์และตลาดหลักทรัพย์",
        "ที่ สน. ๓๕/๒๕๕๙",
        "เรื่อง รายละเอียดของโครงการจัดการกองทุนรวมโครงสร้างพื้นฐาน",
        "(ฉบับที่ ๓)"
      ]
    ],
    []
  ],
  "metadata": {
    "date_backmatter": "2559-08-18",
    "date_modified": "2559-09-13",
    "date_original": "2559-09-13",
    "doctype": "ประกาศ",
    "editors": [
      {
        "name": "ปริยานุช",
        "role": "จัดทำ",
        "date": "2559-09-19"
      },
      {
        "name": "กัญฑรัตน์",
        "role": "ตรวจ",
        "date": "2559-09-19"
      }
    ],
    "tag": "cb15-2e-2559-a0083"
  }
}