{
  "pages": [
    [
      [
        "ประกาศคณะกรรมการกำกับตลาดทุน",
        "ที่ ทจ. ๑๕/๒๕๕๑",
        "เรื่อง การยื่นและการยกเว้นการยื่นแบบแสดงรายการข้อมูลการเสนอขายหลักทรัพย์"
      ]
    ],
    []
  ],
  "metadata": {
    "date_backmatter": "2551-06-02",
    "date_modified": "2551-07-09",
    "date_original": "2551-07-09",
    "doctype": "ประกาศ",
    "editors": [
      {
        "name": "ปริยานุช",
        "role": "ผู้จัดทำ",
        "date": "2551-07-15"
      }
    ],
    "tag": "cb15-2e-2551-a0043"
  }
}