{
  "pages": [
    [
      [
        "ประกาศสำนักงานคณะกรรมการกำกับหลักทรัพย์และตลาดหลักทรัพย์",
        "ที่ สย. ๓๗/๒๕๔๙",
        "เรื่อง การให้ความเห็นชอบสถาบันจัดอันดับความน่าเชื่อถือ",
        "ในการเสนอขายตราสารหนี้"
      ]
    ],
    []
  ],
  "metadata": {
    "date_backmatter": "2549-12-06",
    "date_modified": "2549-12-22",
    "date_original": "2549-12-22",
    "doctype": "ประกาศ",
    "editors": [
      {
        "name": "โสรศ",
        "role": "ผู้จัดทำ",
        "date": "2550-01-10"
      }
    ],
    "tag": "cb15-2e-2549-a0089"
  }
}