{
  "pages": [
    [
      [
        "ประกาศสำนักงานคณะกรรมการกำกับหลักทรัพย์และตลาดหลักทรัพย์",
        "ที่ สน. ๘๗/๒๕๕๘",
        "เรื่อง หลักเกณฑ์ เงื่อนไข และวิธีการจัดการกองทุนรวมเพื่อผู้ลงทุนทั่วไป",
        "กองทุนรวมเพื่อผู้ลงทุนที่มิใช่รายย่อย กองทุนรวมเพื่อผู้ลงทุนประเภทสถาบัน",
        "และกองทุนส่วนบุคคล"
      ]
    ],
    []
  ],
  "metadata": {
    "date_backmatter": "2558-12-17",
    "date_modified": "2560-11-27",
    "date_original": "2559-01-14",
    "doctype": "ประกาศ",
    "editors": [
      {
        "name": "กัญฑรัตน์/ปริยานุช",
        "role": "จัดทำ",
        "date": "2559-01-19"
      },
      {
        "name": "ปุณิกา",
        "role": "เพิ่มเติม",
        "date": "2560-09-06"
      },
      {
        "name": "นุสรา",
        "role": "ตรวจ",
        "date": "2560-09-07"
      },
      {
        "name": "พิมพ์มาดา",
        "role": "เพิ่มเติม",
        "date": "2560-12-20"
      },
      {
        "name": "ปริญสินีย์",
        "role": "ตรวจ",
        "date": "2561-02-22"
      }
    ],
    "tag": "cb15-2e-2560-a0200"
  }
}