{
  "pages": [
    [
      [
        "ประกาศคณะกรรมการกำกับหลักทรัพย์และตลาดหลักทรัพย์",
        "ที่ กข. ๑๐/๒๕๕๑",
        "เรื่อง การกำหนดสถาบันการเงินอื่นที่จะขอรับใบอนุญาตประกอบ",
        "ธุรกิจหลักทรัพย์ตามกฎกระทรวงว่าด้วยการอนุญาตการประกอบธุรกิจหลักทรัพย์",
        "พ.ศ. ๒๕๕๑"
      ]
    ],
    []
  ],
  "metadata": {
    "date_backmatter": "2551-07-16",
    "date_modified": "2551-08-01",
    "date_original": "2551-08-01",
    "doctype": "ประกาศ",
    "editors": [
      {
        "name": "ปริยานุช",
        "role": "ผู้จัดทำ",
        "date": "2551-08-04"
      }
    ],
    "tag": "cb15-2e-2551-a0049"
  }
}