{
  "pages": [
    [
      [
        "ประกาศสำนักงานคณะกรรมการกำกับหลักทรัพย์และตลาดหลักทรัพย์",
        "ที่ สน. ๒๔/๒๕๕๒",
        "เรื่อง การลงทุนและการมีไว้เพื่อเป็นทรัพย์สินของกองทุน"
      ]
    ],
    []
  ],
  "metadata": {
    "date_backmatter": "2549-07-17",
    "date_modified": "2558-05-14",
    "date_original": "2552-08-16",
    "doctype": "ประกาศ",
    "editors": [
      {
        "name": "ปริญสินีย์",
        "role": "ปรับปรุง",
        "date": "2558-01-30"
      },
      {
        "name": "นุสรา",
        "role": "ผู้ตรวจ",
        "date": "2558-02-13"
      },
      {
        "name": "ปุณิกา",
        "role": "ปรับปรุง",
        "date": "2558-06-10"
      },
      {
        "name": "วิชพงษ์",
        "role": "ผู้ตรวจ",
        "date": "2558-06-11"
      }
    ],
    "tag": "cb15-2e-2558-a0150"
  }
}