{
  "pages": [
    [
      [
        "ประกาศสำนักงานคณะกรรมการกำกับหลักทรัพย์และตลาดหลักทรัพย์",
        "ที่ สธ. ๑๔/๒๕๕๙",
        "เรื่อง หลักเกณฑ์เกี่ยวกับการแต่งตั้งบุคคลอื่นเป็นผู้ให้บริการ",
        "ในนามของผู้ประกอบธุรกิจหรือเป็นตัวแทนการตลาด",
        "ของผู้จัดการเงินทุนสัญญาซื้อขายล่วงหน้า",
        "(ฉบับที่ ๓)"
      ]
    ],
    []
  ],
  "metadata": {
    "date_backmatter": "2559-04-11",
    "date_modified": "2559-05-13",
    "date_original": "2559-05-13",
    "doctype": "ประกาศ",
    "editors": [
      {
        "name": "ปริยานุช",
        "role": "จัดทำ",
        "date": "2559-05-16"
      },
      {
        "name": "วริญา",
        "role": "ตรวจ",
        "date": "2559-05-26"
      }
    ],
    "tag": "cb15-2e-2559-a0035"
  }
}