{
  "pages": [
    [
      [
        "ประกาศสำนักงานคณะกรรมการกำกับหลักทรัพย์และตลาดหลักทรัพย์",
        "ที่ สจ. ๑/๒๕๕๕",
        "เรื่อง การจัดตั้งกองทุนรวมและการเข้าทำสัญญารับจัดการกองทุนส่วนบุคคล",
        "(ฉบับที่ ๑๐)"
      ]
    ],
    []
  ],
  "metadata": {
    "date_backmatter": "2555-01-12",
    "date_modified": "2555-01-24",
    "date_original": "2555-01-24",
    "doctype": "ประกาศ",
    "editors": [
      {
        "name": "ปริยานุช",
        "role": "ผู้จัดทำ",
        "date": "2555-01-26"
      },
      {
        "name": "ชาญ",
        "role": "ผู้ตรวจ",
        "date": "2555-02-03"
      }
    ],
    "tag": "cb15-2e-2555-a0005"
  }
}