{
  "pages": [
    [
      [
        "ประกาศคณะกรรมการกำกับตลาดทุน",
        "ที่ ทจ. ๑๖/๒๕๕๒",
        "เรื่อง หลักเกณฑ์ เงื่อนไข และวิธีการในการขออนุญาต",
        "และการอนุญาตให้เสนอขายหุ้นกู้ที่ออกใหม่",
        "ต่อผู้ลงทุนในต่างประเทศ"
      ]
    ],
    []
  ],
  "metadata": {
    "date_backmatter": "2552-03-13",
    "date_modified": "2558-07-20",
    "date_original": "2552-03-30",
    "doctype": "ประกาศ",
    "editors": [
      {
        "name": "ชาญ",
        "role": "ผู้จัดทำ",
        "date": "2555-11-09"
      },
      {
        "name": "กฤษดายุทธ",
        "role": "เพิ่มเติม",
        "date": "2557-07-10"
      },
      {
        "name": "วริญา",
        "role": "เพิ่มเติม",
        "date": "2558-08-11"
      }
    ],
    "tag": "cb15-2e-2558-a0226"
  }
}