{
  "pages": [
    [
      [
        "ประกาศคณะกรรมการกำกับหลักทรัพย์",
        "และตลาดหลักทรัพย์",
        "ที่ กจ. 31/2540",
        "เรื่อง หลักเกณฑ์ เงื่อนไข และวิธีการในการแปลงสินทรัพย์",
        "เป็นหลักทรัพย์โดยเสนอขายหลักทรัพย์ต่อบุคคลในวงจำกัด"
      ]
    ],
    []
  ],
  "metadata": {
    "date_backmatter": "2540-08-08",
    "doctype": "ประกาศ",
    "editors": [],
    "tag": "cb15-2e-2540-017"
  }
}