{
  "pages": [
    [
      [
        "ประกาศคณะกรรมการกำกับตลาดทุน",
        "ที่ ทจ. ๔๔/๒๕๕๖",
        "เรื่อง หลักเกณฑ์ เงื่อนไข และวิธีการรายงานการเปิดเผยข้อมูล",
        "เกี่ยวกับฐานะการเงินและผลการดำเนินงานของบริษัทที่ออกหลักทรัพย์"
      ]
    ],
    []
  ],
  "metadata": {
    "date_backmatter": "2556-10-22",
    "date_modified": "2556-11-11",
    "date_original": "2556-11-11",
    "doctype": "ประกาศ",
    "editors": [
      {
        "name": "ปริยานุช",
        "role": "ผู้จัดทำ",
        "date": "2556-11-12"
      },
      {
        "name": "โชติกานต์",
        "role": "ผู้ตรวจ",
        "date": "2556-11-12"
      }
    ],
    "tag": "cb15-2e-2556-a0081"
  }
}