{
  "pages": [
    [
      [
        "ประกาศสำนักงานคณะกรรมการกำกับหลักทรัพย์และตลาดหลักทรัพย์",
        "ที่ สธ. ๔/๒๕๕๘",
        "เรื่อง การกำหนดวันหยุดทำการของบริษัทหลักทรัพย์และ",
        "ผู้ประกอบธุรกิจสัญญาซื้อขายล่วงหน้าเพิ่มเติม"
      ]
    ],
    []
  ],
  "metadata": {
    "date_backmatter": "2558-02-17",
    "date_modified": "2558-03-03",
    "date_original": "2558-03-03",
    "doctype": "ประกาศ",
    "editors": [
      {
        "name": "ปริยานุช",
        "role": "ผู้จัดทำ",
        "date": "2558-03-10"
      },
      {
        "name": "กฤษดายุทธ",
        "role": "ผู้ตรวจ",
        "date": "2558-03-10"
      }
    ],
    "tag": "cb15-2e-2558-a0005"
  }
}