{
  "pages": [
    [
      [
        "ประกาศคณะกรรมการกำกับหลักทรัพย์",
        "และตลาดหลักทรัพย์",
        "ที่ กช. ๑/๒๕๔๔",
        "เรื่อง การจัดทำและเปิดเผยข้อมูลในงบการเงินของบริษัทที่ออก",
        "หลักทรัพย์เกี่ยวกับการปรับโครงสร้างหนี้ที่มีปัญหา"
      ]
    ],
    []
  ],
  "metadata": {
    "date_backmatter": "2544-01-22",
    "date_gz_old": "2544-02-08",
    "doctype": "ประกาศ",
    "editors": [
      {
        "name": "อัมพิกา",
        "role": "แก้ไข",
        "date": "2544-08-08"
      }
    ],
    "tag": "cb15-2e-2544-a027"
  }
}