{
  "pages": [
    [
      [
        "ประกาศคณะกรรมการกำกับตลาดทุน",
        "ที่ ทจ. ๒๓/๒๕๕๙",
        "เรื่อง การขออนุญาตและการอนุญาตให้เสนอขายหุ้นที่ออกใหม่",
        "เพื่อรองรับใบแสดงสิทธิในการซื้อหุ้นเพิ่มทุนที่โอนสิทธิได้",
        "(ฉบับที่ ๒)"
      ]
    ],
    []
  ],
  "metadata": {
    "date_backmatter": "2559-06-13",
    "date_modified": "2559-07-06",
    "date_original": "2559-07-06",
    "doctype": "ประกาศ",
    "editors": [
      {
        "name": "ปริยานุช",
        "role": "จัดทำ",
        "date": "2559-07-11"
      },
      {
        "name": "กัญฑรัตน์",
        "role": "ตรวจ",
        "date": "2559-07-29"
      }
    ],
    "tag": "cb15-2e-2559-a0064"
  }
}