{
  "pages": [
    [
      [
        "ประกาศคณะกรรมการกำกับตลาดทุน",
        "ที่ ทน. ๑ /๒๕๕๔",
        "เรื่อง หลักเกณฑ์ เงื่อนไข และวิธีการจัดตั้งและจัดการ",
        "กองทุนรวมโครงสร้างพื้นฐาน"
      ]
    ],
    []
  ],
  "metadata": {
    "date_backmatter": "2554-01-10",
    "date_modified": "2561-04-19",
    "date_original": "2554-01-18",
    "doctype": "ประกาศ",
    "editors": [
      {
        "name": "ปริญสินีย์",
        "role": "ผู้จัดทำ",
        "date": "2557-08-05"
      },
      {
        "name": "นุสรา",
        "role": "ผู้ตรวจ",
        "date": "2558-01-07"
      },
      {
        "name": "ปริญสินีย์",
        "role": "ปรับปรุง",
        "date": "2558-06-16"
      },
      {
        "name": "วริญา",
        "role": "เพิ่มเติม",
        "date": "2558-08-11"
      },
      {
        "name": "นุสรา",
        "role": "เพิ่มเติม",
        "date": "2558-11-05"
      },
      {
        "name": "กัญฑรัตน์",
        "role": "เพิ่มเติม",
        "date": "2559-09-29"
      },
      {
        "name": "ปวันวิทย์",
        "role": "เพิ่มเติม",
        "date": "2561-05-15"
      },
      {
        "name": "พรวิภา",
        "role": "เพิ่มเติม",
        "date": "2561-04-19"
      }
    ],
    "tag": "cb15-2e-9827-update"
  }
}