{
  "pages": [
    [
      [
        "ประกาศคณะกรรมการกำกับตลาดทุน",
        "ที่ ทจ. ๒/๒๕๕๒",
        "เรื่อง การรายงานการมีส่วนได้เสียของกรรมการ ผู้บริหาร",
        "และบุคคลที่มีความเกี่ยวข้อง"
      ]
    ],
    []
  ],
  "metadata": {
    "date_backmatter": "2552-01-26",
    "date_modified": "2552-02-13",
    "date_original": "2552-02-13",
    "doctype": "ประกาศ",
    "editors": [
      {
        "name": "ปริยานุช",
        "role": "ผู้จัดทำ",
        "date": "2552-02-19"
      }
    ],
    "tag": "cb15-2e-2552-a0011"
  }
}