{
  "pages": [
    [
      [
        "ประกาศคณะกรรมการกำกับตลาดทุน",
        "ที่ ทจ. ๕๒/๒๕๕๗",
        "เรื่อง หลักเกณฑ์ในการออกและเสนอขายหลักทรัพย์ประเภทใหม่",
        "ที่ยังไม่มีหลักเกณฑ์รองรับ"
      ]
    ],
    []
  ],
  "metadata": {
    "date_backmatter": "2557-12-11",
    "date_modified": "2558-07-20",
    "date_original": "2558-01-05",
    "doctype": "ประกาศ",
    "editors": [
      {
        "name": "ปริยานุช",
        "role": "ผู้จัดทำ",
        "date": "2558-01-09"
      },
      {
        "name": "วันทิตา",
        "role": "ผู้ตรวจ",
        "date": "2558-02-05"
      },
      {
        "name": "วริญา",
        "role": "เพิ่มเติม",
        "date": "2558-08-11"
      }
    ],
    "tag": "cb15-2e-9789-update"
  }
}