{
  "pages": [
    [
      [
        "ประกาศสำนักงานคณะกรรมการกำกับหลักทรัพย์",
        "และตลาดหลักทรัพย์",
        "ที่ สน. ๒๘/๒๕๔๔",
        "เรื่อง การจัดทำรายงานเกี่ยวกับการเป็นตัวแทนสนับสนุน"
      ]
    ],
    []
  ],
  "metadata": {
    "date_backmatter": "2544-07-12",
    "date_gz_old": "2544-07-20",
    "doctype": "ประกาศ",
    "editors": [
      {
        "name": "ภคินี",
        "role": "แก้ไข",
        "date": "2545-05-10"
      }
    ],
    "tag": "cb15-2e-2544-a062"
  }
}