{
  "pages": [
    [
      [
        "ประกาศคณะกรรมการกำกับหลักทรัพย์และตลาดหลักทรัพย์",
        "ที่ กช. ๑/๒๕๕๕",
        "เรื่อง การกำหนดให้การประกอบธุรกิจของสถาบันจัดอันดับ",
        "ความน่าเชื่อถือไม่เป็นการประกอบธุรกิจหลักทรัพย์",
        "ประเภทการเป็นที่ปรึกษาการลงทุน"
      ]
    ],
    []
  ],
  "metadata": {
    "date_backmatter": "2555-02-20",
    "date_modified": "2555-03-01",
    "date_original": "2555-03-01",
    "doctype": "ประกาศ",
    "editors": [
      {
        "name": "ปริยานุช",
        "role": "ผู้จัดทำ",
        "date": "2555-03-06"
      },
      {
        "name": "ณัฐพร",
        "role": "ผู้ตรวจ",
        "date": "2555-03-06"
      }
    ],
    "tag": "cb15-2e-2555-a0027"
  }
}