{
  "pages": [
    [
      [
        "ประกาศคณะกรรมการกำกับตลาดทุน",
        "ที่ ทน. ๒๓/๒๕๕๗",
        "เรื่อง หลักเกณฑ์เกี่ยวกับข้อจำกัดการถือหน่วยลงทุนในกองทุนรวม",
        "และหน้าที่ของบริษัทจัดการ",
        "(ฉบับที่ ๒)"
      ]
    ],
    []
  ],
  "metadata": {
    "date_backmatter": "2557-06-23",
    "date_modified": "2557-07-03",
    "date_original": "2557-07-03",
    "doctype": "ประกาศ",
    "editors": [
      {
        "name": "ปริยานุช",
        "role": "ผู้จัดทำ",
        "date": "2557-07-08"
      },
      {
        "name": "ปริญสินีย์",
        "role": "ผู้ตรวจ",
        "date": "2557-07-08"
      }
    ],
    "tag": "cb15-2e-2557-a0055"
  }
}