{
  "pages": [
    [
      [
        "ประกาศสำนักงานคณะกรรมการกำกับหลักทรัพย์และตลาดหลักทรัพย์",
        "ที่ สช. ๓๐/๒๕๕๘",
        "เรื่อง การให้ความเห็นชอบผู้สอบบัญชีต่างประเทศ"
      ]
    ],
    []
  ],
  "metadata": {
    "date_backmatter": "2558-04-09",
    "date_modified": "2560-01-20",
    "date_original": "2558-05-26",
    "doctype": "ประกาศ",
    "editors": [
      {
        "name": "ปริยานุช",
        "role": "จัดทำ",
        "date": "2558-06-02"
      },
      {
        "name": "ปุณิกา",
        "role": "เพิ่มเติม",
        "date": "2560-02-07"
      },
      {
        "name": "นุสรา",
        "role": "ตรวจ",
        "date": "2560-03-17"
      }
    ],
    "tag": "cb15-2e-2560-a0188"
  }
}