{
  "pages": [
    [
      [
        "ประกาศสำนักงานคณะกรรมการกำกับหลักทรัพย์",
        "และตลาดหลักทรัพย์",
        "ที่ สจ. ๑๙/๒๕๔๘",
        "เรื่อง แบบคำขออนุญาตเสนอขายใบแสดงสิทธิในผลประโยชน์",
        "ที่เกิดจากหลักทรัพย์อ้างอิงไทยที่ออกใหม่และเอกสารหลักฐาน",
        "ประกอบคำขออนุญาต",
        "(ฉบับที่ ๒)"
      ]
    ],
    []
  ],
  "metadata": {
    "date_backmatter": "2548-07-07",
    "date_modified": "2548-08-15",
    "date_original": "2548-08-15",
    "doctype": "ประกาศ",
    "editors": [
      {
        "name": "ชัชสรัญ",
        "role": "ผู้จัดทำ",
        "date": "2548-08-22"
      }
    ],
    "tag": "cb15-2e-2548-a0042"
  }
}