{
  "pages": [
    [
      [
        "ประกาศสำนักงานคณะกรรมการกำกับหลักทรัพย์และตลาดหลักทรัพย์",
        "ที่ สน. ๒๙/๒๕๕๓",
        "เรื่อง การลงทุนและการมีไว้เพื่อเป็นทรัพย์สินของกองทุน",
        "(ฉบับที่ ๔)"
      ]
    ],
    []
  ],
  "metadata": {
    "date_backmatter": "2553-08-25",
    "date_modified": "2553-09-14",
    "date_original": "2553-09-14",
    "doctype": "ประกาศ",
    "editors": [
      {
        "name": "ปริยานุช",
        "role": "ผู้จัดทำ",
        "date": "2553-09-21"
      },
      {
        "name": "ณัฐวดี",
        "role": "ตรวจ",
        "date": "2553-09-21"
      }
    ],
    "tag": "cb15-2e-2553-a0070"
  }
}