{
  "pages": [
    [
      [
        "ประกาศสำนักงานคณะกรรมการกำกับหลักทรัพย์และตลาดหลักทรัพย์",
        "ที่ สน. ๒๖/๒๕๕๒",
        "เรื่อง การยกเว้นการดำเนินการของบริษัทจัดการเมื่อมีการถือ",
        "หน่วยลงทุนของกองทุนรวมอสังหาริมทรัพย์",
        "เกินกว่าหนึ่งในสามเป็นการชั่วคราว"
      ]
    ],
    []
  ],
  "metadata": {
    "date_backmatter": "2552-07-28",
    "date_modified": "2552-08-16",
    "date_original": "2552-08-16",
    "doctype": "ประกาศ",
    "editors": [
      {
        "name": "ปริยานุช",
        "role": "ผู้จัดทำ",
        "date": "2552-08-21"
      }
    ],
    "tag": "cb15-2e-2552-a0060"
  }
}