{
  "pages": [
    [
      [
        "ประกาศคณะกรรมการกำกับหลักทรัพย์และตลาดหลักทรัพย์",
        "ที่ กม. ๑/๒๕๕๗",
        "เรื่อง การยกเว้นค่าธรรมเนียมคำขออนุญาตเสนอขายหลักทรัพย์ที่ออกใหม่",
        "ตามโครงการของสำนักงาน"
      ]
    ],
    []
  ],
  "metadata": {
    "date_backmatter": "2557-01-31",
    "date_modified": "2557-02-07",
    "date_original": "2557-02-07",
    "doctype": "ประกาศ",
    "editors": [
      {
        "name": "ปริยานุช",
        "role": "ผู้จัดทำ",
        "date": "2557-02-13"
      },
      {
        "name": "อังศุมาลี",
        "role": "ผู้ตรวจ",
        "date": "2557-02-13"
      }
    ],
    "tag": "cb15-2e-2557-a0008"
  }
}