{
  "pages": [
    [
      [
        "ประกาศสำนักงานคณะกรรมการกำกับหลักทรัพย์และตลาดหลักทรัพย์",
        "ที่ สน. ๒๔/๒๕๕๒",
        "เรื่อง การลงทุนและการมีไว้เพื่อเป็นทรัพย์สินของกองทุน"
      ]
    ],
    []
  ],
  "metadata": {
    "date_backmatter": "2549-07-17",
    "date_modified": "2552-08-16",
    "date_original": "2552-08-16",
    "doctype": "ประกาศ",
    "editors": [
      {
        "name": "ปริยานุช",
        "role": "ผู้จัดทำ",
        "date": "2552-08-28"
      },
      {
        "name": "ปริญสินีย์",
        "role": "ปรับปรุง",
        "date": "2557-08-05"
      }
    ],
    "tag": "cb15-2e-2552-a0058"
  }
}