{
  "pages": [
    [
      [
        "ประกาศ",
        "เรื่อง แนวปฏิบัติในการแสดงรายการสินทรัพย์ของลูกค้าประเภท",
        "บัญชีเงินสดในงบการเงินของบริษัทหลักทรัพย์",
        "ที่ อธ. ๑๘/๒๕๔๓"
      ]
    ],
    []
  ],
  "metadata": {
    "date_backmatter": "2543-09-12",
    "date_gz_old": "2543-09-25",
    "doctype": "ประกาศ",
    "editors": [
      {
        "name": "ชไมพร",
        "role": "แก้ไข",
        "date": "2545-05-17"
      }
    ],
    "tag": "cb15-2e-2543-a123"
  }
}