{
  "pages": [
    [
      [
        "ประกาศกระทรวงการคลัง",
        "เรื่อง การกำหนดหลักเกณฑ์ เงื่อนไข และวิธีการสำหรับคณะกรรมการ",
        "ตลาดหลักทรัพย์แห่งประเทศไทย พิจารณารับหลักทรัพย์",
        "เป็นหลักทรัพย์จดทะเบียนหรือหลักทรัพย์รับอนุญาต",
        "และพิจารณาเพิกถอนการเป็นหลักทรัพย์ดังกล่าว",
        "(ฉบับที่ ๗) พ.ศ. ๒๕๒๖"
      ]
    ],
    []
  ],
  "metadata": {
    "date_backmatter": "2526-06-24",
    "date_gz_old": "2526-06-24",
    "doctype": "ประกาศ",
    "editors": [
      {
        "name": "จารุวรรณ",
        "role": "พิมพ์",
        "date": "2545-09-25"
      }
    ],
    "tag": "cb15-2e-2526-a0001"
  }
}