{
  "pages": [
    [
      [
        "ประกาศสำนักงานคณะกรรมการกำกับหลักทรัพย์และตลาดหลักทรัพย์",
        "ที่ สธ. ๒๒/๒๕๕๗",
        "เรื่อง การตั้งตัวแทนในการขายหรือรับซื้อคืนหน่วยลงทุน",
        "และตัวแทนด้านการตลาดกองทุนส่วนบุคคล"
      ]
    ],
    []
  ],
  "metadata": {
    "date_backmatter": "2557-07-21",
    "date_modified": "2558-07-20",
    "date_original": "2557-08-01",
    "doctype": "ประกาศ",
    "editors": [
      {
        "name": "ปริยานุช",
        "role": "ผู้จัดทำ",
        "date": "2557-08-04"
      },
      {
        "name": "กฤษดายุทธ",
        "role": "ผู้ตรวจ",
        "date": "2557-08-04"
      },
      {
        "name": "วริญา",
        "role": "เพิ่มเติม",
        "date": "2558-08-11"
      }
    ],
    "tag": "cb15-2e-9793-update"
  }
}