{
  "pages": [
    [
      [
        "ประกาศคณะกรรมการกำกับหลักทรัพย์และตลาดหลักทรัพย์",
        "ที่ กย. ๒๖/๒๕๔๙",
        "เรื่อง หลักเกณฑ์ เงื่อนไข และวิธีการในการค้าหลักทรัพย์",
        "อันเป็นตราสารแห่งหนี้",
        "(ฉบับที่ ๑๑)"
      ]
    ],
    []
  ],
  "metadata": {
    "date_backmatter": "2549-10-25",
    "date_modified": "2549-11-21",
    "date_original": "2549-11-21",
    "doctype": "ประกาศ",
    "editors": [
      {
        "name": "วัชศักดิ์",
        "role": "ผู้จัดทำ",
        "date": "2549-11-23"
      }
    ],
    "tag": "cb15-2e-2549-a0073"
  }
}