{
  "pages": [
    [
      [
        "ประกาศสำนักงานคณะกรรมการกำกับหลักทรัพย์และตลาดหลักทรัพย์",
        "ที่ สน. ๘๘/๒๕๕๘",
        "เรื่อง หนังสือชี้ชวนเสนอขายหน่วยลงทุนของกองทุนรวม",
        "เพื่อผู้ลงทุนทั่วไป กองทุนรวมเพื่อผู้ลงทุนที่มิใช่รายย่อย",
        "และกองทุนรวมเพื่อผู้ลงทุนประเภทสถาบัน"
      ]
    ],
    []
  ],
  "metadata": {
    "date_backmatter": "2558-12-17",
    "date_modified": "2560-07-24",
    "date_original": "2559-01-14",
    "doctype": "ประกาศ",
    "editors": [
      {
        "name": "กัญฑรัตน์/ปริยานุช",
        "role": "จัดทำ",
        "date": "2559-01-19"
      },
      {
        "name": "ปุณิกา",
        "role": "เพิ่มเติม",
        "date": "2560-09-01"
      },
      {
        "name": "นุสรา",
        "role": "ตรวจ",
        "date": "2560-09-02"
      }
    ],
    "tag": "cb15-2e-9756-update"
  }
}