{
  "pages": [
    [
      [
        "ประกาศคณะกรรมการกำกับหลักทรัพย์และตลาดหลักทรัพย์",
        "เรื่อง หลักเกณฑ์ เงื่อนไข และวิธีการในการผ่อนผัน",
        "ให้บริษัทหลักทรัพย์ซื้อหรือมีหุ้น",
        "(ฉบับที่ ๒)",
        "พ.ศ. ๒๕๓๖"
      ]
    ],
    []
  ],
  "metadata": {
    "date_backmatter": "2536-08-27",
    "date_gz_old": "2536-09-15",
    "doctype": "ประกาศ",
    "editors": [
      {
        "name": "ธิดาวรรณ",
        "role": "แก้ไข",
        "date": "2545-09-16"
      }
    ],
    "tag": "cb15-2e-2536-a002"
  }
}