{
  "pages": [
    [
      [
        "ประกาศสำนักงานคณะกรรมการกำกับหลักทรัพย์และตลาดหลักทรัพย์",
        "ที่ ขส. ๑/๒๕๕๐",
        "เรื่อง แจ้งการออกหนังสือเวียนที่มีผลเป็นการทั่วไปต่อเอกชนที่เกี่ยวข้อง"
      ]
    ],
    []
  ],
  "metadata": {
    "date_backmatter": "2550-01-29",
    "date_modified": "2550-05-01",
    "date_original": "2550-05-01",
    "doctype": "ประกาศ",
    "editors": [
      {
        "name": "โสรศ",
        "role": "ผู้จัดทำ",
        "date": "2550-05-16"
      }
    ],
    "tag": "cb15-2e-2550-a0008"
  }
}