{
  "pages": [
    [
      [
        "ประกาศสำนักงานคณะกรรมการกำกับหลักทรัพย์และตลาดหลักทรัพย์",
        "ที่ สน. ๑๓/๒๕๕๐",
        "เรื่อง หนังสือชี้ชวนเสนอขายหน่วยลงทุนของ",
        "กองทุนรวมอสังหาริมทรัพย์"
      ]
    ],
    []
  ],
  "metadata": {
    "date_backmatter": "2550-06-28",
    "date_modified": "2553-11-16",
    "date_original": "2550-08-02",
    "doctype": "ประกาศ",
    "editors": [
      {
        "name": "อุษมล",
        "role": "ผู้จัดทำ",
        "date": "2556-05-22"
      },
      {
        "name": "ณัฐพร",
        "role": "ผู้ตรวจ",
        "date": "2556-05-23"
      }
    ],
    "tag": "cb15-2e-2553-a0109"
  }
}