{
  "pages": [
    [
      [
        "ประกาศคณะกรรมการกำกับตลาดทุน",
        "ที่ ทจ. ๓๔/๒๕๕๙",
        "เรื่อง การแปลงสภาพกองทุนรวมอสังหาริมทรัพย์ให้เป็น",
        "ทรัสต์เพื่อการลงทุนในอสังหาริมทรัพย์"
      ]
    ],
    []
  ],
  "metadata": {
    "date_backmatter": "2559-08-11",
    "date_modified": "2559-08-31",
    "date_original": "2559-08-31",
    "doctype": "ประกาศ",
    "editors": [
      {
        "name": "ปริยานุช",
        "role": "จัดทำ",
        "date": "2559-09-06"
      },
      {
        "name": "ปุณิกา",
        "role": "ตรวจ",
        "date": "2559-10-06"
      }
    ],
    "tag": "cb15-2e-2559-a0081"
  }
}