{
  "pages": [
    [
      [
        "ประกาศคณะกรรมการกำกับตลาดทุน",
        "ที่ ทจ. ๓/๒๕๕๘",
        "เรื่อง ข้อกำหนดเกี่ยวกับการเสนอขายหุ้นที่ออกโดยบริษัทต่างประเทศ",
        "ซึ่งไม่มีหุ้นเป็นหลักทรัพย์ซื้อขายในตลาดหลักทรัพย์ต่างประเทศ"
      ]
    ],
    []
  ],
  "metadata": {
    "date_backmatter": "2558-03-23",
    "date_modified": "2558-04-20",
    "date_original": "2558-04-20",
    "doctype": "ประกาศ",
    "editors": [
      {
        "name": "ปริยานุช",
        "role": "ผู้จัดทำ",
        "date": "2558-04-22"
      },
      {
        "name": "ปริญสินีย์",
        "role": "ผู้ตรวจ",
        "date": "2558-04-22"
      }
    ],
    "tag": "cb15-2e-2558-a0014"
  }
}