{
  "pages": [
    [
      [
        "ประกาศสำนักงานคณะกรรมการกำกับหลักทรัพย์",
        "และตลาดหลักทรัพย์",
        "ที่ สน. ๒/๒๕๔๔",
        "เรื่อง แบบหนังสือชี้ชวนเสนอขายหน่วยลงทุนที่ออกใหม่ของ",
        "กองทุนรวมอสังหาริมทรัพย์และสิทธิเรียกร้อง"
      ]
    ],
    []
  ],
  "metadata": {
    "date_backmatter": "2544-01-04",
    "date_gz_old": "2544-02-08",
    "doctype": "ประกาศ",
    "editors": [],
    "tag": "cb15-2e-2544-a003"
  }
}