{
  "pages": [
    [
      [
        "ประกาศสำนักงานคณะกรรมการกำกับหลักทรัพย์และตลาดหลักทรัพย์",
        "ว่าด้วยการให้ความเห็นชอบที่ปรึกษาทางการเงิน",
        "และขอบเขตการดำเนินงาน",
        "พ.ศ. ๒๕๕๒"
      ]
    ],
    []
  ],
  "metadata": {
    "date_backmatter": "2550-12-17",
    "date_modified": "2552-09-15",
    "date_original": "2552-09-15",
    "doctype": "ประกาศ",
    "editors": [
      {
        "name": "ปริยานุช",
        "role": "ผู้จัดทำ",
        "date": "2552-09-29"
      },
      {
        "name": "ปณตภร",
        "role": "ปรับปรุง",
        "date": "2555-01-30"
      }
    ],
    "tag": "cb15-2e-2552-a0150"
  }
}