{
  "pages": [
    [
      [
        "ประกาศคณะกรรมการกำกับตลาดทุน",
        "ที่ ทจ. ๓๓/๒๕๕๗",
        "เรื่อง ข้อกำหนดที่เกี่ยวกับการออกและเสนอขายศุกูก",
        "และการเปิดเผยข้อมูล",
        "(ฉบับที่ ๖)"
      ]
    ],
    []
  ],
  "metadata": {
    "date_backmatter": "2557-09-29",
    "date_modified": "2557-10-24",
    "date_original": "2557-10-24",
    "doctype": "ประกาศ",
    "editors": [
      {
        "name": "ปริยานุช",
        "role": "ผู้จัดทำ",
        "date": "2557-10-27"
      },
      {
        "name": "ปริญสินีย์",
        "role": "ผู้ตรวจ",
        "date": "2557-10-27"
      }
    ],
    "tag": "cb15-2e-2557-a0076"
  }
}