{
  "pages": [
    [
      [
        "ประกาศคณะกรรมการกำกับหลักทรัพย์และตลาดหลักทรัพย์",
        "ที่ กจ.47/2540",
        "เรื่อง หลักเกณฑ์ เงื่อนไข และวิธีการรายงานการเปิดเผยข้อมูลเกี่ยวกับ",
        "ฐานะการเงินและผลการดำเนินงานของบริษัทที่ออกหลักทรัพย์",
        "(ฉบับที่ 2)"
      ]
    ],
    []
  ],
  "metadata": {
    "date_backmatter": "2540-12-31",
    "doctype": "ประกาศ",
    "editors": [],
    "tag": "cb15-2e-2541-004"
  }
}