{
  "pages": [
    [
      [
        "ประกาศสำนักงานคณะกรรมการกำกับหลักทรัพย์และตลาดหลักทรัพย์",
        "ที่ สข. ๓๙/๒๕๕๔",
        "เรื่อง การขยายระยะเวลาการให้ความเห็นชอบและ",
        "การยื่นคำขอต่ออายุการให้ความเห็นชอบ",
        "บุคลากรในธุรกิจตลาดทุน กรณีพิเศษ"
      ]
    ],
    []
  ],
  "metadata": {
    "date_backmatter": "2554-11-03",
    "date_modified": "2554-11-18",
    "date_original": "2554-11-18",
    "doctype": "ประกาศ",
    "editors": [
      {
        "name": "ปริยานุช",
        "role": "ผู้จัดทำ",
        "date": "2554-11-23"
      },
      {
        "name": "ชาญ",
        "role": "ผู้ตรวจ",
        "date": "2554-11-25"
      }
    ],
    "tag": "cb15-2e-2554-a0081"
  }
}