{
  "pages": [
    [
      [
        "ประกาศคณะกรรมการกำกับหลักทรัพย์และตลาดหลักทรัพย์",
        "ที่ กก. ๖/๒๕๓๘",
        "เรื่อง การกำหนดลักษณะการให้คำแนะนำแก่ประชาชนที่ไม่ถือเป็น",
        "การประกอบธุรกิจหลักทรัพย์ประเภทการเป็นที่ปรึกษาการลงทุน"
      ]
    ],
    []
  ],
  "metadata": {
    "date_backmatter": "2538-03-06",
    "date_gz_old": "2538-03-15",
    "doctype": "ประกาศ",
    "editors": [
      {
        "name": "เพ็ญพร/พิมพ์",
        "role": "แก้ไข",
        "date": "2545-08-30"
      }
    ],
    "tag": "cb15-2e-2538-a025"
  }
}