{
  "pages": [
    [
      [
        "ประกาศคณะกรรมการกำกับหลักทรัพย์และตลาดหลักทรัพย์",
        "ที่ กก. ๒๗/๒๕๓๘",
        "เรื่อง หลักเกณฑ์ เงื่อนไข และวิธีการจัดตั้งและจัดการกองทุนรวม",
        "ประเภทที่ลงทุนในตราสารแห่งหนี้",
        "(ฉบับที่ ๒)"
      ]
    ],
    []
  ],
  "metadata": {
    "date_backmatter": "2538-12-15",
    "date_gz_old": "2538-12-19",
    "doctype": "ประกาศ",
    "editors": [
      {
        "name": "จารุวรรณ",
        "role": "พิมพ์",
        "date": "2545-08-13"
      }
    ],
    "tag": "cb15-2e-2538-a008"
  }
}