{
  "pages": [
    [
      [
        "ประกาศคณะกรรมการกำกับหลักทรัพย์และตลาดหลักทรัพย์",
        "ที่ กธ/น/ข. ๓/๒๕๔๘",
        "เรื่อง ลักษณะต้องห้ามของบุคลากรในธุรกิจหลักทรัพย์"
      ]
    ],
    []
  ],
  "metadata": {
    "date_backmatter": "2548-01-17",
    "date_modified": "2548-02-21",
    "date_original": null,
    "doctype": "ประกาศ",
    "editors": [
      {
        "name": "พุทธพัท",
        "role": "ผู้จัดทำ",
        "date": "2548-06-17"
      }
    ],
    "tag": "cb15-2e-2548-a0008"
  }
}