{
  "pages": [
    [
      [
        "ประกาศสำนักงานคณะกรรมการกำกับหลักทรัพย์และตลาดหลักทรัพย์",
        "ที่ สน. ๑๗/๒๕๕๕",
        "เรื่อง หลักเกณฑ์ เงื่อนไข และวิธีการในการอนุญาตเกี่ยวกับ",
        "การลงชื่อในทรัพย์สินของลูกค้า",
        "(ฉบับที่ ๒)"
      ]
    ],
    []
  ],
  "metadata": {
    "date_backmatter": "2555-08-09",
    "date_modified": "2555-09-07",
    "date_original": "2555-09-07",
    "doctype": "ประกาศ",
    "editors": [
      {
        "name": "ปริยานุช",
        "role": "ผู้จัดทำ",
        "date": "2555-09-12"
      },
      {
        "name": "ณัฐพร",
        "role": "ผู้ตรวจ",
        "date": "2555-09-12"
      }
    ],
    "tag": "cb15-2e-2555-a0067"
  }
}