{
  "pages": [
    [
      [
        "ประกาศคณะกรรมการกำกับตลาดทุน",
        "ที่ ทจ. ๙/๒๕๕๒",
        "เรื่อง การขออนุญาตและการอนุญาตให้เสนอขายตราสารหนี้ที่ออกใหม่"
      ]
    ],
    []
  ],
  "metadata": {
    "date_backmatter": "2552-03-13",
    "date_modified": "2558-08-03",
    "date_original": "2552-03-30",
    "doctype": "ประกาศ",
    "editors": [
      {
        "name": "ปริญสินีย์",
        "role": "ปรับปรุง",
        "date": "2557-12-11"
      },
      {
        "name": "นุสรา",
        "role": "ผู้ตรวจ",
        "date": "2558-03-20"
      },
      {
        "name": "วริญา",
        "role": "เพิ่มเติม",
        "date": "2558-08-11"
      },
      {
        "name": "นุสรา",
        "role": "เพิ่มเติม",
        "date": "2558-11-03"
      }
    ],
    "tag": "cb15-2e-2558-a0219"
  }
}