{
  "pages": [
    [
      [
        "ประกาศคณะกรรมการกำกับตลาดทุน",
        "ที่ ทน. ๙/๒๕๕๙",
        "เรื่อง ข้อผูกพันระหว่างผู้ถือหน่วยลงทุนของกองทุนรวมโครงสร้างพื้นฐาน",
        "เพื่ออนาคตประเทศไทยกับบริษัทจัดการกองทุนรวม"
      ]
    ],
    []
  ],
  "metadata": {
    "date_backmatter": "2559-04-27",
    "date_modified": "2559-05-13",
    "date_original": "2559-05-13",
    "doctype": "ประกาศ",
    "editors": [
      {
        "name": "ปริยานุช",
        "role": "จัดทำ",
        "date": "2559-05-16"
      },
      {
        "name": "วริญา",
        "role": "ตรวจ",
        "date": "2559-05-26"
      }
    ],
    "tag": "cb15-2e-2559-a0040"
  }
}