{
  "pages": [
    [
      [
        "ประกาศสำนักงานคณะกรรมการกำกับหลักทรัพย์",
        "และตลาดหลักทรัพย์",
        "ที่ อย. ๒๑/๒๕๔๕",
        "เรื่อง แนวทางการพิจารณาการทำธุรกรรมที่เข้าข่าย",
        "เป็นการซื้อขายหลักทรัพย์ล่วงหน้า"
      ]
    ],
    []
  ],
  "metadata": {
    "date_backmatter": "2545-08-21",
    "date_gz_old": "2545-08-28",
    "doctype": "ประกาศ",
    "editors": [
      {
        "name": "พุทธชาด",
        "role": "แก้ไข",
        "date": "2545-12-23"
      }
    ],
    "tag": "cb15-2e-2545-a049"
  }
}