{
  "pages": [
    [
      [
        "ประกาศสำนักงานคณะกรรมการกำกับหลักทรัพย์และตลาดหลักทรัพย์",
        "ที่ สธ. ๓๓/๒๕๕๔",
        "เรื่อง หลักเกณฑ์สำหรับตัวแทนซื้อขายสัญญาซื้อขายล่วงหน้า",
        "ในการใช้บริการด้านผู้ติดต่อกับผู้ลงทุนใน",
        "สัญญาซื้อขายล่วงหน้าที่เกี่ยวกับโลหะมีค่า",
        "(ฉบับที่ ๒)"
      ]
    ],
    []
  ],
  "metadata": {
    "date_backmatter": "2554-09-06",
    "date_modified": "2554-09-23",
    "date_original": "2554-09-23",
    "doctype": "ประกาศ",
    "editors": [
      {
        "name": "ปริยานุช",
        "role": "ผู้จัดทำ",
        "date": "2554-10-05"
      },
      {
        "name": "ชาญ",
        "role": "ผู้ตรวจ",
        "date": "2554-10-17"
      }
    ],
    "tag": "cb15-2e-2554-a0067"
  }
}