{
  "pages": [
    [
      [
        "ประกาศสำนักงานคณะกรรมการกำกับหลักทรัพย์และตลาดหลักทรัพย์",
        "ที่ สจ. ๙/๒๕๕๙",
        "เรื่อง หลักเกณฑ์และวิธีการจัดทำสรุปข้อมูลสำคัญของตราสาร"
      ]
    ],
    []
  ],
  "metadata": {
    "date_backmatter": "2559-03-18",
    "date_modified": "2561-03-30",
    "date_original": "2559-04-08",
    "doctype": "ประกาศ",
    "editors": [
      {
        "name": "พรวิภา",
        "role": "จัดทำ",
        "date": "2560-05-24"
      },
      {
        "name": "พิมพ์มาดา",
        "role": "เพิ่มเติม",
        "date": "2561-05-23"
      }
    ],
    "tag": "cb15-2e-9735-update"
  }
}