{
  "pages": [
    [
      [
        "ประกาศคณะกรรมการกำกับหลักทรัพย์",
        "และตลาดหลักทรัพย์",
        "ที่ กธ./น. ๒๔/๒๕๔๕",
        "เรื่อง หลักเกณฑ์ เงื่อนไข และวิธีการในการซื้อหรือมีหุ้นของบริษัท",
        "จัดการเงินร่วมลงทุนเพื่อเป็นทรัพย์สินของบริษัทหลักทรัพย์"
      ]
    ],
    []
  ],
  "metadata": {
    "date_backmatter": "2545-03-28",
    "date_gz_old": "2545-04-04",
    "doctype": "ประกาศ",
    "editors": [
      {
        "name": "พรพิมล",
        "role": "แก้ไข",
        "date": "2545-06-21"
      }
    ],
    "tag": "cb15-2e-2545-a005"
  }
}