{
  "pages": [
    [
      [
        "ประกาศคณะกรรมการกำกับตลาดทุน",
        "ที่ ทจ. ๒๘/๒๕๕๙",
        "เรื่อง การจำหน่ายหลักทรัพย์ที่ออกใหม่ประเภทหุ้น",
        "และใบสำคัญแสดงสิทธิที่จะซื้อหุ้น",
        "ของบริษัทที่ออกตราสารทุน",
        "(ฉบับที่ ๓)"
      ]
    ],
    []
  ],
  "metadata": {
    "date_backmatter": "2559-07-08",
    "date_modified": "2559-07-27",
    "date_original": "2559-07-27",
    "doctype": "ประกาศ",
    "editors": [
      {
        "name": "ปุณิกา/ปริยานุช",
        "role": "จัดทำ",
        "date": "2559-07-29"
      },
      {
        "name": "นุสรา",
        "role": "ตรวจ",
        "date": "2559-11-01"
      }
    ],
    "tag": "cb15-2e-2559-a0071"
  }
}