{
  "pages": [
    [
      [
        "ประกาศสำนักงานคณะกรรมการกำกับหลักทรัพย์",
        "และตลาดหลักทรัพย์",
        "ที่ สจ. ๕/๒๕๔๒",
        "เรื่อง แบบรายงานผลการขายหลักทรัพย์ที่ออกใหม่",
        "ต่อผู้ลงทุนในต่างประเทศ"
      ]
    ],
    []
  ],
  "metadata": {
    "date_backmatter": "2542-02-10",
    "date_modified": "2549-12-29",
    "date_original": "2542-03-09",
    "doctype": "ประกาศ",
    "editors": [
      {
        "name": "สัญชัย",
        "role": "ผู้จัดทำ",
        "date": "2551-10-01"
      }
    ],
    "tag": "cb15-2e-9893-update"
  }
}