{
  "pages": [
    [
      [
        "ประกาศสำนักงานคณะกรรมการกำกับหลักทรัพย์และตลาดหลักทรัพย์",
        "ที่ สน. ๑๔/๒๕๕๓",
        "เรื่อง การจัดตั้งกองทุนรวมและการเข้าทำสัญญา",
        "รับจัดการกองทุนส่วนบุคคล",
        "(ฉบับที่ ๓)"
      ]
    ],
    []
  ],
  "metadata": {
    "date_backmatter": "2553-05-13",
    "date_modified": "2553-06-14",
    "date_original": "2553-06-14",
    "doctype": "ประกาศ",
    "editors": [
      {
        "name": "ปริยานุช",
        "role": "ผู้จัดทำ",
        "date": "2553-06-24"
      },
      {
        "name": "นันท์นภัสร์",
        "role": "ตรวจ",
        "date": "2553-06-24"
      },
      {
        "name": "จุฑามาศ",
        "role": "ปรับปรุง",
        "date": "2557-01-15"
      }
    ],
    "tag": "cb15-2e-2553-a0041"
  }
}