{
  "pages": [
    [
      [
        "ประกาศคณะกรรมการกำกับหลักทรัพย์และตลาดหลักทรัพย์",
        "ที่ กนจ. ๕/๒๕๕๕",
        "เรื่อง การยกเว้นค่าธรรมเนียมคำขออนุญาตเสนอขายหุ้นที่ออกใหม่",
        "ตามโครงการ “หุ้นใหม่ ความภูมิใจของจังหวัด”"
      ]
    ],
    []
  ],
  "metadata": {
    "date_backmatter": "2555-05-21",
    "date_modified": "2555-06-15",
    "date_original": "2555-06-15",
    "doctype": "ประกาศ",
    "editors": [
      {
        "name": "ปริยานุช",
        "role": "ผู้จัดทำ",
        "date": "2555-06-25"
      },
      {
        "name": "ณัฐพร",
        "role": "ผู้ตรวจ",
        "date": "2555-06-25"
      }
    ],
    "tag": "cb15-2e-2555-a0045"
  }
}