{
  "pages": [
    [
      [
        "ประกาศคณะกรรมการกำกับตลาดทุน",
        "ที่ ทจ. ๑๔/๒๕๕๘",
        "เรื่อง ข้อกำหนดเกี่ยวกับการเสนอขายหลักทรัพย์",
        "ที่ออกโดยบริษัทต่างประเทศที่มีหรือจะมีหุ้นเป็นหลักทรัพย์ซื้อขาย",
        "ในตลาดหลักทรัพย์ต่างประเทศ"
      ]
    ],
    []
  ],
  "metadata": {
    "date_backmatter": "2558-04-09",
    "date_modified": "2558-07-20",
    "date_original": "2558-05-26",
    "doctype": "ประกาศ",
    "editors": [
      {
        "name": "ปริยานุช",
        "role": "ผู้จัดทำ",
        "date": "2558-06-02"
      },
      {
        "name": "ปริญสินีย์",
        "role": "ผู้ตรวจ",
        "date": "2558-06-02"
      },
      {
        "name": "วริญา",
        "role": "เพิ่มเติม",
        "date": "2558-08-11"
      }
    ],
    "tag": "cb15-2e-2558-a0165"
  }
}