{
  "pages": [
    [
      [
        "ประกาศคณะกรรมการกำกับตลาดทุน",
        "ที่ ทธ. ๒๔/๒๕๕๕",
        "เรื่อง การยกเลิกประกาศคณะกรรมการกำกับตลาดทุน",
        "ว่าด้วยการทำธุรกรรมในตั๋วเงินโดยบริษัทหลักทรัพย์"
      ]
    ],
    []
  ],
  "metadata": {
    "date_backmatter": "2555-03-28",
    "date_modified": "2555-04-30",
    "date_original": "2555-04-30",
    "doctype": "ประกาศ",
    "editors": [
      {
        "name": "ปริยานุช",
        "role": "ผู้จัดทำ",
        "date": "2555-05-02"
      },
      {
        "name": "ณัฐพร",
        "role": "ผู้ตรวจ",
        "date": "2555-05-02"
      }
    ],
    "tag": "cb15-2e-2555-a0042"
  }
}