{
  "pages": [
    [
      [
        "ประกาศคณะกรรมการกำกับตลาดทุน",
        "ที่ ทธ. ๙/๒๕๖๑",
        "เรื่อง การให้บริการแก่ลูกค้าในการลงทุนในผลิตภัณฑ์",
        "ในตลาดทุนที่เป็นสกุลเงินตราต่างประเทศ",
        "(ฉบับที่ ๓)"
      ]
    ],
    []
  ],
  "metadata": {
    "date_backmatter": "2561-01-17",
    "date_modified": "2561-02-15",
    "date_original": "2561-02-15",
    "doctype": "ประกาศ",
    "editors": [
      {
        "name": "พิมพ์มาดา",
        "role": "จัดทำ",
        "date": "2561-03-21"
      }
    ],
    "tag": "cb15-2e-2561-a0028"
  }
}