{
  "pages": [
    [
      [
        "ประกาศกระทรวงการคลัง",
        "เรื่อง กำหนดกิจการอื่นที่เกี่ยวกับหลักทรัพย์ให้เป็นธุรกิจหลักทรัพย์ (ฉบับที่ ๓)"
      ]
    ],
    []
  ],
  "metadata": {
    "date_backmatter": "2553-01-18",
    "date_modified": "2553-01-28",
    "date_original": "2553-01-28",
    "doctype": "ประกาศ",
    "editors": [
      {
        "name": "ปริยานุช",
        "role": "ผู้จัดทำ",
        "date": "2553-02-02"
      },
      {
        "name": "นันท์นภัสร์",
        "role": "ตรวจ",
        "date": "2553-02-02"
      }
    ],
    "tag": "cb15-2e-2553-a0006"
  }
}