{
  "pages": [
    [
      [
        "ประกาศคณะกรรมการกำกับตลาดทุน",
        "ที่ ทจ. ๔๙/๒๕๕๕",
        "เรื่อง การออกและเสนอขายหน่วยทรัสต์",
        "ของทรัสต์เพื่อการลงทุนในอสังหาริมทรัพย์"
      ]
    ],
    []
  ],
  "metadata": {
    "date_backmatter": "2555-11-21",
    "date_modified": "2559-03-03",
    "date_original": "2555-12-27",
    "doctype": "ประกาศ",
    "editors": [
      {
        "name": "กฤษดายุทธ",
        "role": "ผู้จัดทำ",
        "date": "2557-10-10"
      },
      {
        "name": "วริญา",
        "role": "เพิ่มเติม",
        "date": "2558-06-12"
      },
      {
        "name": "วริญา",
        "role": "เพิ่มเติม",
        "date": "2558-08-11"
      },
      {
        "name": "นุสรา",
        "role": "เพิ่มเติม",
        "date": "2558-11-03"
      },
      {
        "name": "วริญา",
        "role": "เพิ่มเติม",
        "date": "2559-01-04"
      },
      {
        "name": "วริญา",
        "role": "เพิ่มเติม",
        "date": "2559-03-08"
      }
    ],
    "tag": "cb15-2e-2558-a0236"
  }
}