{
  "pages": [
    [
      [
        "ประกาศสำนักงานคณะกรรมการกำกับหลักทรัพย์และตลาดหลักทรัพย์",
        "ที่ สจ. ๓๖/๒๕๕๒",
        "เรื่อง แบบคำขออนุญาตเสนอขายใบสำคัญ",
        "แสดงสิทธิอนุพันธ์ที่ออกใหม่"
      ]
    ],
    []
  ],
  "metadata": {
    "date_backmatter": "2543-11-23",
    "date_modified": "2552-09-15",
    "date_original": "2552-09-15",
    "doctype": "ประกาศ",
    "editors": [
      {
        "name": "ปริยานุช",
        "role": "ผู้จัดทำ",
        "date": "2552-09-29"
      }
    ],
    "tag": "cb15-2e-2552-a0137"
  }
}