{
  "pages": [
    [
      [
        "ประกาศคณะกรรมการกำกับตลาดทุน",
        "ที่ ทธ/น/ข. ๕๘/๒๕๕๒",
        "เรื่อง คุณสมบัติและลักษณะต้องห้ามอย่างอื่นของ",
        "กรรมการและผู้บริหารของบริษัทหลักทรัพย์"
      ]
    ],
    []
  ],
  "metadata": {
    "date_backmatter": "2548-01-17",
    "date_modified": "2552-08-29",
    "date_original": "2552-08-29",
    "doctype": "ประกาศ",
    "editors": [
      {
        "name": "ปริยานุช",
        "role": "ผู้จัดทำ",
        "date": "2552-09-08"
      }
    ],
    "tag": "cb15-2e-2552-a0108"
  }
}