{
  "pages": [
    [
      [
        "ประกาศคณะกรรมการกำกับตลาดทุน",
        "ที่ ทจ. ๒๑/๒๕๕๑",
        "เรื่อง หลักเกณฑ์ในการทำรายการที่เกี่ยวโยงกัน"
      ]
    ],
    []
  ],
  "metadata": {
    "date_backmatter": "2551-08-31",
    "date_modified": "2558-12-14",
    "date_original": "2551-09-08",
    "doctype": "ประกาศ",
    "editors": [
      {
        "name": "ปริยานุช",
        "role": "ผู้จัดทำ",
        "date": "2551-09-11"
      },
      {
        "name": "กัญฑรัตน์",
        "role": "เพิ่มเติม",
        "date": "2559-01-13"
      },
      {
        "name": "นุสรา",
        "role": "ตรวจ",
        "date": "2559-02-11"
      }
    ],
    "tag": "cb15-2e-9776-update"
  }
}