{
  "pages": [
    [
      [
        "ประกาศสำนักงานคณะกรรมการกำกับหลักทรัพย์และตลาดหลักทรัพย์",
        "ที่ สน. ๒๒/๒๕๖๐",
        "เรื่อง หลักเกณฑ์ เงื่อนไข และวิธีการจัดการกองทุนรวมเพื่อ",
        "ผู้ลงทุนทั่วไป กองทุนรวมเพื่อผู้ลงทุนที่มิใช่รายย่อย",
        "กองทุนรวมเพื่อผู้ลงทุนประเภทสถาบัน",
        "และกองทุนส่วนบุคคล",
        "(ฉบับที่ ๕)"
      ]
    ],
    []
  ],
  "metadata": {
    "date_backmatter": "2560-03-15",
    "date_modified": "2560-03-28",
    "date_original": "2560-03-28",
    "doctype": "ประกาศ",
    "editors": [
      {
        "name": "ภวรรณตรี",
        "role": "จัดทำ",
        "date": "2560-03-29"
      },
      {
        "name": "ปุณิกา",
        "role": "ตรวจ",
        "date": "2560-03-29"
      }
    ],
    "tag": "cb15-2e-2560-a0073"
  }
}