{
  "pages": [
    [
      [
        "ประกาศคณะกรรมการกำกับตลาดทุน",
        "ที่ ทจ. ๓๘/๒๕๕๙",
        "เรื่อง หลักเกณฑ์ เงื่อนไข และวิธีการรายงานการเปิดเผยข้อมูล",
        "เกี่ยวกับฐานะการเงินและผลการดำเนินงาน",
        "ของบริษัทที่ออกหลักทรัพย์",
        "(ฉบับที่ ๘)"
      ]
    ],
    []
  ],
  "metadata": {
    "date_backmatter": "2559-09-06",
    "date_modified": "2559-09-26",
    "date_original": "2559-09-26",
    "doctype": "ประกาศ",
    "editors": [
      {
        "name": "ปริยานุช",
        "role": "จัดทำ",
        "date": "2559-10-03"
      },
      {
        "name": "วริญา",
        "role": "ตรวจ",
        "date": "2559-10-13"
      }
    ],
    "tag": "cb15-2e-2559-a0087"
  }
}