{
  "pages": [
    [
      [
        "ประกาศคณะกรรมการกำกับตลาดทุน",
        "ที่ ทจ. ๓๐/๒๕๕๑",
        "เรื่อง การยื่นแบบแสดงรายการข้อมูลการเสนอขายหลักทรัพย์"
      ]
    ],
    []
  ],
  "metadata": {
    "date_backmatter": "2551-12-15",
    "date_modified": "2559-03-03",
    "date_original": "2551-12-29",
    "doctype": "ประกาศ",
    "editors": [
      {
        "name": "ปณตภร",
        "role": "ผู้จัดทำ",
        "date": "2557-01-14"
      },
      {
        "name": "ปริญสินีย์",
        "role": "ปรับปรุง",
        "date": "2558-05-18"
      },
      {
        "name": "วริญา",
        "role": "เพิ่มเติม",
        "date": "2559-03-08"
      }
    ],
    "tag": "cb15-2e-2559-a0124"
  }
}