{
  "pages": [
    [
      [
        "ประกาศสำนักงานคณะกรรมการกำกับหลักทรัพย์และตลาดหลักทรัพย์",
        "ที่ สจ. ๓๗/๒๕๕๑",
        "เรื่อง แบบคำขออนุญาตเสนอขายใบสำคัญแสดงสิทธิ",
        "ที่จะซื้อหุ้นที่ออกใหม่และหุ้นรองรับ และเอกสารหลักฐานประกอบคำขอ"
      ]
    ],
    []
  ],
  "metadata": {
    "date_backmatter": "2551-12-24",
    "date_modified": "2552-01-28",
    "date_original": "2552-01-28",
    "doctype": "ประกาศ",
    "editors": [
      {
        "name": "ปริยานุช",
        "role": "ผู้จัดทำ",
        "date": "2552-02-06"
      }
    ],
    "tag": "cb15-2e-2552-a0002"
  }
}