{
  "pages": [
    [
      [
        "ประกาศสำนักงานคณะกรรมการกำกับหลักทรัพย์",
        "และตลาดหลักทรัพย์",
        "ที่ สน. ๓๕/๒๕๔๓",
        "เรื่อง หลักเกณฑ์ เงื่อนไข และวิธีการในการให้ความเห็นชอบ",
        "ผู้จัดการกองทุนรวมอสังหาริมทรัพย์"
      ]
    ],
    []
  ],
  "metadata": {
    "date_backmatter": "2543-08-18",
    "date_gz_old": "2543-09-04",
    "doctype": "ประกาศ",
    "editors": [
      {
        "name": "อัมพิกา",
        "role": "แก้ไข"
      }
    ],
    "tag": "cb15-2e-2543-a159"
  }
}