{
  "pages": [
    [
      [
        "ประกาศคณะกรรมการกำกับตลาดทุน",
        "ที่ ทจ. ๔๑/๒๕๕๗",
        "เรื่อง การจำหน่ายตราสารหนี้และใบสำคัญแสดงสิทธิอนุพันธ์",
        "ที่ออกใหม่ของบริษัทที่ออกหลักทรัพย์"
      ]
    ],
    []
  ],
  "metadata": {
    "date_backmatter": "2557-11-07",
    "date_modified": "2558-11-12",
    "date_original": "2557-12-09",
    "doctype": "ประกาศ",
    "editors": [
      {
        "name": "ปุณิกา",
        "role": "จัดทำ",
        "date": "2558-12-09"
      },
      {
        "name": "พจนา",
        "role": "ตรวจ",
        "date": "2558-12-09"
      }
    ],
    "tag": "cb15-2e-2558-a0261"
  }
}