{
  "pages": [
    [
      [
        "ประกาศคณะกรรมการกำกับตลาดทุน",
        "ที่ ทลธ. ๔๙/๒๕๕๙",
        "เรื่อง หลักเกณฑ์เกี่ยวกับบุคลากรในธุรกิจตลาดทุน",
        "(ฉบับที่ ๕)"
      ]
    ],
    []
  ],
  "metadata": {
    "date_backmatter": "2559-12-14",
    "date_modified": "2560-01-12",
    "date_original": "2560-01-12",
    "doctype": "ประกาศ",
    "editors": [
      {
        "name": "วริญา/ปริยานุช",
        "role": "จัดทำ",
        "date": "2560-01-16"
      },
      {
        "name": "นุสรา",
        "role": "ตรวจ",
        "date": "2560-02-28"
      }
    ],
    "tag": "cb15-2e-2560-a0003"
  }
}