{
  "pages": [
    [
      [
        "ประกาศคณะกรรมการกำกับหลักทรัพย์และตลาดหลักทรัพย์",
        "ที่ กธ. ๑๕/๒๕๔๖",
        "เรื่อง หลักเกณฑ์ เงื่อนไข และวิธีการในการเป็นนายหน้าซื้อขาย",
        "หลักทรัพย์และการค้าหลักทรัพย์ ที่มิใช่ตราสารแห่งหนี้",
        "(ฉบับที่ ๔)"
      ]
    ],
    []
  ],
  "metadata": {
    "date_backmatter": "2546-07-11",
    "date_modified": "2546-07-25",
    "date_original": "2546-07-25",
    "doctype": "ประกาศ",
    "editors": [
      {
        "name": "พรพิมล",
        "role": "พิมพ์",
        "date": "2546-10-27"
      },
      {
        "name": "มัตติกา",
        "role": "แก้ไข",
        "date": "2546-10-29"
      }
    ],
    "tag": "cb15-2e-2546-a0017"
  }
}