{
  "pages": [
    [
      [
        "กฎกระทรวง",
        "ว่าด้วยการจดทะเบียน การบังคับใช้สิทธิ การสอบสวน การอุทธรณ์",
        "และแบบของเอกสารเกี่ยวกับแบบผังภูมิของวงจรรวม",
        "พ.ศ. ๒๕๔๕"
      ]
    ],
    []
  ],
  "metadata": {
    "date_backmatter": "2545-12-26",
    "date_modified": "2546-01-06",
    "date_original": "2546-01-06",
    "doctype": "กฎกระทรวง",
    "editors": [
      {
        "name": "วิชชุตา",
        "role": "ผู้จัดทำ",
        "date": "2554-06-27"
      }
    ],
    "tag": "a488-2b-2546-a0001"
  }
}