{
  "pages": [
    [
      [
        "พระราชบัญญัติประกอบรัฐธรรมนูญ",
        "ว่าด้วยการออกเสียงประชามติ",
        "พ.ศ. ๒๕๕๒",
        "",
        "",
        "ภูมิพลอดุลยเดช ป.ร.",
        "ให้ไว้ ณ วันที่ ๑๘ ธันวาคม พ.ศ. ๒๕๕๒",
        "เป็นปีที่ ๖๔ ในรัชกาลปัจจุบัน"
      ]
    ],
    []
  ],
  "metadata": {
    "date_header": "2552-12-18",
    "date_modified": "2552-12-28",
    "date_original": "2552-12-28",
    "doctype": "พระราชบัญญัติประกอบรัฐธรรมนูญ",
    "editors": [
      {
        "name": "ปัทมา",
        "role": "แก้ไข",
        "date": "2553-05-04"
      },
      {
        "name": "วศิน",
        "role": "ตรวจ",
        "date": "2553-05-04"
      },
      {
        "name": "สุกัญญา",
        "role": "ผู้จัดทำ",
        "date": "2554-03-16"
      }
    ],
    "tag": "bb37-20-2552-a0001",
    "title": "การออกเสียงประชามติ"
  }
}