{
  "pages": [
    [
      [
        "ประกาศกระทรวงการคลัง",
        "เรื่อง รายงานแสดงการจัดการกองทุนการออมแห่งชาติ"
      ]
    ],
    []
  ],
  "metadata": {
    "date_backmatter": "2559-06-08",
    "date_modified": "2559-06-14",
    "date_original": "2559-06-14",
    "doctype": "ประกาศ",
    "editors": [
      {
        "name": "วริญา/ปริยานุช",
        "role": "จัดทำ",
        "date": "2559-06-21"
      }
    ],
    "tag": "a1133-2e-2559-a0003"
  }
}