{
  "pages": [
    [
      [
        "ระเบียบผู้ตรวจการแผ่นดินของรัฐสภา",
        "ว่าด้วยหลักเกณฑ์เกี่ยวกับการจ่ายเงิน วิธีการเบิกจ่าย",
        "และอัตราค่าประกันสุขภาพของผู้ตรวจการแผ่นดินของรัฐสภา",
        "พ.ศ. ๒๕๔๔"
      ]
    ],
    []
  ],
  "metadata": {
    "date_backmatter": "2544-01-19",
    "date_modified": "2544-02-14",
    "date_original": "2544-02-14",
    "editors": [
      {
        "name": "ปณตภร",
        "role": "ผู้จัดทำ",
        "date": "2554-05-09"
      },
      {
        "name": "กวินทราดา",
        "role": "ผู้ตรวจ",
        "date": "2554-05-09"
      }
    ],
    "tag": "ca83-2g-2544-a0002"
  }
}