{
  "pages": [
    [
      [
        "ประกาศสำนักนายกรัฐมนตรี",
        "การใช้บังคับมาตรา ๑๔ แห่งพระราชบัญญัติ",
        "การทำงานของคนต่างด้าว พ.ศ. ๒๕๕๑"
      ]
    ],
    []
  ],
  "metadata": {
    "date_backmatter": "2558-06-10",
    "date_modified": "2558-06-18",
    "date_original": "2558-06-18",
    "doctype": "ประกาศ",
    "editors": [
      {
        "name": "ปริยานุช",
        "role": "ผู้จัดทำ",
        "date": "2558-06-23"
      },
      {
        "name": "วริญา",
        "role": "ผู้ตรวจ",
        "date": "2558-06-23"
      }
    ],
    "tag": "a149-2e-2558-a0003"
  }
}