{
  "pages": [
    [
      [
        "พระราชกฤษฎีกา",
        "กำหนดให้คนต่างด้าวซึ่งปฏิบัติหน้าที่หรือภารกิจบางประการ",
        "ในราชอาณาจักรไม่ต้องอยู่ภายใต้บังคับแห่งพระราชบัญญัติ",
        "การทำงานของคนต่างด้าว",
        "พ.ศ. ๒๕๒๑ (ฉบับที่ ๒)",
        "พ.ศ. ๒๕๒๘",
        "",
        "--------------",
        "ภูมิพลอดุลยเดช ป.ร.",
        "ให้ไว้ ณ วันที่ ๑๓ กรกฎาคม พ.ศ. ๒๕๒๘",
        "เป็นปีที่ ๔๐ ในรัชกาลปัจจุบัน"
      ]
    ],
    []
  ],
  "metadata": {
    "date_gz_old": "2528-07-26",
    "date_header": "2528-07-13",
    "doctype": "พระราชกฤษฎีกา",
    "editors": [
      {
        "name": "ภัทรวีร์",
        "role": "ปรับปรุง",
        "date": "2560-11-28"
      }
    ],
    "tag": "a149-2a-2528-a0001",
    "title": "กำหนดให้คนต่างด้าวซึ่งปฏิบัติหน้าที่หรือภารกิจบางประการในราชอาณาจักรไม่ต้องอยู่ภายใต้บังคับแห่งพระราชบัญญัติการทำงานของคนต่างด้าวพ.ศ. ๒๕๒๑ (ฉบับที่ ๒)"
  }
}