{
  "pages": [
    [
      [
        "ประกาศกระทรวงแรงงานและสวัสดิการสังคม",
        "เรื่อง กำหนดงานที่ให้คนต่างด้าวตามมาตรา ๑๒ แห่งพระราชบัญญัติ",
        "การทำงานของคนต่างด้าว พ.ศ. ๒๕๒๑ ทำได้ (ฉบับที่ ๒)"
      ]
    ],
    []
  ],
  "metadata": {
    "date_backmatter": "2539-08-20",
    "date_gz_old": "2539-08-29",
    "doctype": "ประกาศ",
    "editors": [
      {
        "name": "ธิดาวรรณ",
        "role": "แก้ไข",
        "date": "2545-07-26"
      },
      {
        "name": "ภัทรวีร์",
        "role": "ปรับปรุง",
        "date": "2560-11-30"
      }
    ],
    "tag": "a149-2e-2539-a0001"
  }
}