{
  "pages": [
    [
      [
        "กฎกระทรวง",
        "กำหนดงานและจำนวนเงินที่ลูกจ้างต้องส่งเข้ากองทุน",
        "เพื่อการส่งคนต่างด้าวกลับออกไปนอกราชอาณาจักร และหลักเกณฑ์และวิธีการในการส่งเงิน",
        "การออกใบรับ หนังสือรับรอง และใบแทนหนังสือรับรองการส่งเงิน (ฉบับที่ ๒)",
        "พ.ศ. ๒๕๕๔"
      ]
    ],
    []
  ],
  "metadata": {
    "date_backmatter": "2555-03-01",
    "date_modified": "2554-01-14",
    "date_original": "2554-01-14",
    "doctype": "กฎกระทรวง",
    "editors": [
      {
        "name": "ปริยานุช",
        "role": "ผู้จัดทำ",
        "date": "2554-01-18"
      },
      {
        "name": "ณัฐวดี",
        "role": "ตรวจ",
        "date": "2554-01-18"
      },
      {
        "name": "ภัทรวีร์",
        "role": "ปรับปรุง",
        "date": "2560-11-30"
      }
    ],
    "tag": "a149-2b-2554-a0001"
  }
}