{
  "pages": [
    [
      [
        "ประกาศคณะกรรมการกองทุนเพื่อการส่งคนต่างด้าว",
        "กลับออกไปนอกราชอาณาจักร",
        "เรื่อง หลักเกณฑ์การขอรับการจัดสรรและการจัดสรรเงินกองทุนเพื่อเป็นค่าใช้จ่าย",
        "ในการบริหารจัดการเกี่ยวกับการทำงานของคนต่างด้าว"
      ]
    ],
    []
  ],
  "metadata": {
    "date_backmatter": "2551-06-26",
    "date_modified": "2551-08-11",
    "date_original": "2551-08-11",
    "doctype": "ประกาศ",
    "editors": [
      {
        "name": "วัชศักดิ์",
        "role": "ผู้จัดทำ",
        "date": "2551-08-13"
      },
      {
        "name": "ภัทรวีร์",
        "role": "ปรับปรุง",
        "date": "2560-12-01"
      }
    ],
    "tag": "a149-2e-2551-a0002"
  }
}