{
  "pages": [
    [
      [
        "กฎกระทรวง",
        "ฉบับที่ ๑๐ (พ.ศ. ๒๕๔๗)",
        "ออกตามความในพระราชบัญญัติการทำงานของคนต่างด้าว พ.ศ. ๒๕๒๑"
      ]
    ],
    []
  ],
  "metadata": {
    "date_backmatter": "2547-12-03",
    "date_modified": "2547-12-07",
    "date_original": "2547-12-07",
    "doctype": "กฎกระทรวง",
    "editors": [
      {
        "name": "ศุภชัย",
        "role": "พิมพ์",
        "date": "2548-02-28"
      },
      {
        "name": "สุนันทา/นวพร",
        "role": "ตรวจ",
        "date": "2548-04-22"
      },
      {
        "name": "ภัทรวีร์",
        "role": "ปรับปรุง",
        "date": "2560-11-29"
      }
    ],
    "tag": "a149-2b-2547-a0003"
  }
}