{
  "pages": [
    [
      [
        "ข้อกำหนดคณะกรรมการกองทุนเพื่อการส่งคนต่างด้าว",
        "กลับออกไปนอกราชอาณาจักร",
        "ว่าด้วยแนวทาง หลักเกณฑ์ เงื่อนไข และลำดับความสำคัญของการใช้จ่ายเงินกองทุน",
        "เพื่อการส่งคนต่างด้าวกลับออกไปนอกราชอาณาจักร",
        "ประจำปีงบประมาณ พ.ศ. ๒๕๕๘"
      ]
    ],
    []
  ],
  "metadata": {
    "date_backmatter": "2558-02-06",
    "date_modified": "2558-02-16",
    "date_original": "2558-02-16",
    "editors": [
      {
        "name": "ปริยานุช",
        "role": "ผู้จัดทำ",
        "date": "2558-02-20"
      },
      {
        "name": "ปริญสินีย์",
        "role": "ผู้ตรวจ",
        "date": "2558-02-23"
      }
    ],
    "tag": "a149-2h-2558-a0001"
  }
}