{
  "pages": [
    [
      [
        "ประกาศกรมการจัดหางาน",
        "เรื่อง กำหนดสถานที่แจ้งการเข้ามาทำงาน",
        "อันจำเป็นและเร่งด่วนที่มีระยะเวลาทำงานไม่เกินสิบห้าวัน"
      ]
    ],
    []
  ],
  "metadata": {
    "date_backmatter": "2557-12-17",
    "date_modified": "2558-01-29",
    "date_original": "2558-01-29",
    "doctype": "ประกาศ",
    "editors": [
      {
        "name": "ปริยานุช",
        "role": "ผู้จัดทำ",
        "date": "2558-02-02"
      },
      {
        "name": "วิศนี",
        "role": "ผู้ตรวจ",
        "date": "2558-02-06"
      }
    ],
    "tag": "a149-2e-2558-a0001"
  }
}