{
  "pages": [
    [
      [
        "ประกาศคณะกรรมการกองทุนเพื่อการส่งคนต่างด้าว",
        "กลับออกไปนอกราชอาณาจักร",
        "เรื่อง ผลการพิจารณาจัดสรรเงินของกองทุนเพื่อการส่งคนต่างด้าวกลับออกไปนอกราชอาณาจักร",
        "ประจำปีงบประมาณ พ.ศ. ๒๕๖๐ (ฉบับที่ ๓)"
      ]
    ],
    []
  ],
  "metadata": {
    "date_backmatter": "2560-03-24",
    "date_modified": "2560-06-07",
    "date_original": "2560-06-07",
    "doctype": "ประกาศ",
    "editors": [
      {
        "name": "พรวิภา/อัญชลี",
        "role": "จัดทำ",
        "date": "2560-06-08"
      }
    ],
    "tag": "a149-2e-2560-a0004"
  }
}