{
  "pages": [
    [
      [
        "ประกาศกรมปศุสัตว์",
        "เรื่อง กำหนดหลักเกณฑ์ วิธีการ และเงื่อนไขจำนวนสัตว์หรือซากสัตว์ ลักษณะของยานพาหนะ",
        "และอุปกรณ์ในการเคลื่อนย้ายสัตว์หรือซากสัตว์",
        "พ.ศ. ๒๕๕๙"
      ]
    ],
    []
  ],
  "metadata": {
    "date_backmatter": "2559-02-18",
    "date_modified": "2559-03-01",
    "date_original": "2559-03-01",
    "doctype": "ประกาศ",
    "editors": [
      {
        "name": "ปริยานุช",
        "role": "จัดทำ",
        "date": "2559-03-08"
      },
      {
        "name": "วริญา",
        "role": "ตรวจ",
        "date": "2559-03-08"
      }
    ],
    "tag": "c330-2e-2559-a0006"
  }
}