{
  "pages": [
    [
      [
        "ประกาศกรมปศุสัตว์",
        "เรื่อง กำหนดหลักเกณฑ์ และวิธีการทำลายสิ่งของใด ๆ ที่มีเชื้อโรคระบาด",
        "หรือมีเหตุอันควรสงสัยว่ามีเชื้อโรคระบาด",
        "พ.ศ. ๒๕๕๘"
      ]
    ],
    []
  ],
  "metadata": {
    "date_backmatter": "2558-12-15",
    "date_modified": "2558-12-24",
    "date_original": "2558-12-24",
    "doctype": "ประกาศ",
    "editors": [
      {
        "name": "ปริยานุช",
        "role": "จัดทำ",
        "date": "2558-12-29"
      },
      {
        "name": "วริญา",
        "role": "ตรวจ",
        "date": "2559-01-07"
      }
    ],
    "tag": "c330-2e-2558-a0029"
  }
}