{
  "pages": [
    [
      [
        "ระเบียบกรมปศุสัตว์",
        "ว่าด้วยการอนุญาตเคลื่อนย้ายสัตว์หรือซากสัตว์ เข้า ออก ผ่าน หรือภายในเขตโรคระบาดชั่วคราว",
        "เขตโรคระบาด หรือเขตเฝ้าระวังโรคระบาด",
        "พ.ศ. ๒๕๕๙"
      ]
    ],
    []
  ],
  "metadata": {
    "date_backmatter": "2559-01-12",
    "date_modified": "2559-01-22",
    "date_original": "2559-01-22",
    "editors": [
      {
        "name": "ปริยานุช",
        "role": "จัดทำ",
        "date": "2559-01-25"
      },
      {
        "name": "วริญา",
        "role": "ตรวจ",
        "date": "2559-01-29"
      }
    ],
    "tag": "c330-2g-2559-a0001"
  }
}