{
  "pages": [
    [
      [
        "ระเบียบกรมปศุสัตว์",
        "ว่าด้วย การอนุญาต การตรวจโรคและการทำลายเชื้อโรค",
        "ในการเคลื่อนย้ายสัตว์หรือซากสัตว์ภายในราชอาณาจักร",
        "พ.ศ. ๒๕๔๖"
      ]
    ],
    []
  ],
  "metadata": {
    "date_backmatter": "2546-04-30",
    "date_modified": "2555-01-31",
    "date_original": "2546-05-06",
    "editors": [
      {
        "name": "ปณตภร",
        "role": "ผู้จัดทำ",
        "date": "2555-02-20"
      }
    ],
    "tag": "c330-2g-2555-a0004"
  }
}