{
  "pages": [
    [
      [
        "ประกาศกรมปศุสัตว์",
        "เรื่อง ชะลอการนำเข้าหรือนำผ่านราชอาณาจักรซึ่งสัตว์หรือซากสัตว์จากประเทศแอฟริกาใต้",
        "พ.ศ. ๒๕๖๑"
      ]
    ],
    []
  ],
  "metadata": {
    "date_backmatter": "2561-05-04",
    "date_modified": "2561-05-21",
    "date_original": "2561-05-21",
    "doctype": "ประกาศ",
    "editors": [
      {
        "name": "พัชรภรณ์",
        "role": "จัดทำ",
        "date": "2561-06-15"
      }
    ],
    "tag": "c330-2e-2561-a0008"
  }
}