{
  "pages": [
    [
      [
        "ระเบียบกรมปศุสัตว์",
        "ว่าด้วยการอนุญาต การตรวจโรคและการทำลายเชื้อโรคในการเคลื่อนย้ายสัตว์",
        "หรือซากสัตว์ภายในราชอาณาจักร (ฉบับที่ ๒)",
        "พ.ศ. ๒๕๕๕"
      ]
    ],
    []
  ],
  "metadata": {
    "date_backmatter": "2555-01-05",
    "date_modified": "2555-01-31",
    "date_original": "2555-01-31",
    "editors": [
      {
        "name": "ปริยานุช",
        "role": "ผู้จัดทำ",
        "date": "2555-02-01"
      },
      {
        "name": "ปณตภร",
        "role": "ผู้ตรวจ",
        "date": "2555-02-10"
      }
    ],
    "tag": "c330-2g-2555-a0001"
  }
}