{
  "pages": [
    [
      [
        "กฎกระทรวง",
        "ระบบการป้องกันและควบคุมโรคระบาด",
        "พ.ศ. ๒๕๖๑"
      ]
    ],
    []
  ],
  "metadata": {
    "date_backmatter": "2561-06-27",
    "date_modified": "2561-07-11",
    "date_original": "2561-07-11",
    "doctype": "กฎกระทรวง",
    "editors": [
      {
        "name": "พรวิภา",
        "role": "จัดทำ",
        "date": "2561-10-02"
      }
    ],
    "tag": "c330-2b-2561-a0001"
  }
}