{
  "pages": [
    [
      [
        "ประกาศกรมปศุสัตว์",
        "เรื่อง กำหนดหลักเกณฑ์ วิธีการ และเงื่อนไขการขออนุญาต และการออกใบอนุญาต การตรวจโรค",
        "และทำลายเชื้อโรคในการนำสัตว์หรือซากสัตว์ไปยังท้องที่จังหวัดอื่น",
        "พ.ศ. ๒๕๕๘"
      ]
    ],
    []
  ],
  "metadata": {
    "date_backmatter": "2558-11-16",
    "date_modified": "2558-11-24",
    "date_original": "2558-11-24",
    "doctype": "ประกาศ",
    "editors": [
      {
        "name": "ปริยานุช",
        "role": "จัดทำ",
        "date": "2558-11-26"
      },
      {
        "name": "วริญา",
        "role": "ตรวจ",
        "date": "2558-11-27"
      }
    ],
    "tag": "c330-2e-2558-a0025"
  }
}