{
  "pages": [
    [
      [
        "กฎกระทรวง",
        "ฉบับที่ ๒๙ (พ.ศ. ๒๕๓๔)",
        "ออกตามความในพระราชบัญญัติโรคระบาดสัตว์",
        "พ.ศ. ๒๔๙๙"
      ]
    ],
    []
  ],
  "metadata": {
    "date_backmatter": "2534-12-17",
    "date_modified": "2534-12-31",
    "date_original": "2534-12-31",
    "doctype": "กฎกระทรวง",
    "editors": [
      {
        "name": "สุกัญญา",
        "role": "จัดทำ",
        "date": "2552-05-01"
      },
      {
        "name": "ก้องเกียรติ",
        "role": "จัดทำ",
        "date": "2552-05-07"
      },
      {
        "name": "ศิรวัชร์",
        "role": "ปรับปรุง",
        "date": "2560-10-06"
      }
    ],
    "tag": "c330-2b-2534-029"
  }
}