{
  "pages": [
    [
      [
        "กฎกระทรวง",
        "ว่าด้วยการนำเข้า นำออก หรือนำผ่านราชอาณาจักรซึ่งสัตว์หรือซากสัตว์",
        "พ.ศ. ๒๕๔๔"
      ]
    ],
    []
  ],
  "metadata": {
    "date_backmatter": "2544-04-05",
    "date_modified": "2544-05-17",
    "date_original": "2544-05-17",
    "doctype": "กฎกระทรวง",
    "editors": [
      {
        "name": "สุกัญญา",
        "role": "จัดทำ",
        "date": "2552-05-01"
      },
      {
        "name": "ก้องเกียรติ",
        "role": "จัดทำ",
        "date": "2552-05-07"
      },
      {
        "name": "ศิรวัชร์",
        "role": "ปรับปรุง",
        "date": "2560-10-05"
      }
    ],
    "tag": "c330-2b-2544-a002"
  }
}