{
  "pages": [
    [
      [
        "ประกาศกระทรวงเกษตรและสหกรณ์",
        "เรื่อง แต่งตั้งพนักงานเจ้าหน้าที่ตามพระราชบัญญัติโรคระบาดสัตว์ พ.ศ. ๒๕๕๘",
        "(ฉบับที่ ๒) พ.ศ. ๒๕๖๐"
      ]
    ],
    []
  ],
  "metadata": {
    "date_backmatter": "2560-05-30",
    "date_modified": "2560-06-22",
    "date_original": "2560-06-22",
    "doctype": "ประกาศ",
    "editors": [
      {
        "name": "ภวรรณตรี",
        "role": "จัดทำ",
        "date": "2560-06-27"
      },
      {
        "name": "ชวัลพร",
        "role": "ตรวจ",
        "date": "2560-07-27"
      }
    ],
    "tag": "c330-2e-2560-a0026"
  }
}