{
  "pages": [
    [
      [
        "ระเบียบกระทรวงเกษตรและสหกรณ์",
        "ว่าด้วยการยึด การทำลาย หรือการส่งกลับซึ่งสัตว์ หรือซากสัตว์",
        "โดยไม่มีค่าชดใช้",
        "พ.ศ. ๒๕๓๑"
      ]
    ],
    []
  ],
  "metadata": {
    "date_backmatter": "2531-09-06",
    "date_modified": "2531-09-16",
    "date_original": "2531-09-16",
    "editors": [
      {
        "name": "สุกัญญา",
        "role": "จัดทำ",
        "date": "2552-05-01"
      },
      {
        "name": "ก้องเกียรติ",
        "role": "จัดทำ",
        "date": "2552-05-13"
      },
      {
        "name": "ศิรวัชร์",
        "role": "ปรับปรุง",
        "date": "2560-10-18"
      }
    ],
    "tag": "c330-2g-2531-001"
  }
}