{
  "pages": [
    [
      [
        "ประกาศกรมปศุสัตว์",
        "เรื่อง ชะลอการนำเข้าหรือนำผ่านราชอาณาจักรซึ่งสัตว์หรือซากสัตว์จากประเทศเยอรมนี",
        "พ.ศ. ๒๕๖๐"
      ]
    ],
    []
  ],
  "metadata": {
    "date_backmatter": "2560-05-02",
    "date_modified": "2560-05-29",
    "date_original": "2560-05-29",
    "doctype": "ประกาศ",
    "editors": [
      {
        "name": "ปุณิกา/ภวรรณตรี",
        "role": "จัดทำ",
        "date": "2560-06-01"
      },
      {
        "name": "นุสรา",
        "role": "ตรวจ",
        "date": "2560-08-29"
      }
    ],
    "tag": "c330-2e-2560-a0013"
  }
}