{
  "pages": [
    [
      [
        "ประกาศกรมปศุสัตว์",
        "เรื่อง การทำเครื่องหมายซากสัตว์ประเภทงาช้าง และการทำบัตรกำกับลักษณะงาช้าง",
        "พ.ศ. ๒๕๕๙"
      ]
    ],
    []
  ],
  "metadata": {
    "date_backmatter": "2559-04-21",
    "date_modified": "2559-05-19",
    "date_original": "2559-05-19",
    "doctype": "ประกาศ",
    "editors": [
      {
        "name": "ปุณิกา/ปริยานุช",
        "role": "จัดทำ",
        "date": "2559-05-25"
      }
    ],
    "tag": "c330-2e-2559-a0013"
  }
}