{
  "pages": [
    [
      [
        "ประกาศกรมปศุสัตว์",
        "เรื่อง กำหนดหลักเกณฑ์ และวิธีการส่งกลับสัตว์หรือซากสัตว์ กรณีนำเข้าหรือนำผ่านราชอาณาจักร",
        "โดยไม่ได้รับใบอนุญาตตามมาตรา ๓๑ หรือไม่ปฏิบัติตามมาตรา ๓๒ หรือมาตรา ๓๓",
        "แห่งพระราชบัญญัติโรคระบาดสัตว์ พ.ศ. ๒๕๕๘"
      ]
    ],
    []
  ],
  "metadata": {
    "date_backmatter": "2559-01-12",
    "date_modified": "2559-01-22",
    "date_original": "2559-01-22",
    "doctype": "ประกาศ",
    "editors": [
      {
        "name": "ปริยานุช",
        "role": "จัดทำ",
        "date": "2559-01-25"
      },
      {
        "name": "วริญา",
        "role": "ตรวจ",
        "date": "2559-01-29"
      }
    ],
    "tag": "c330-2e-2559-a0003"
  }
}