{
  "pages": [
    [
      [
        "ระเบียบกรมปศุสัตว์",
        "ว่าด้วยการจัดการอย่างอื่นต่อสิ่งที่ศาลสั่งริบ",
        "พ.ศ. ๒๕๕๘"
      ]
    ],
    []
  ],
  "metadata": {
    "date_backmatter": "2558-09-14",
    "date_modified": "2558-09-28",
    "date_original": "2558-09-28",
    "editors": [
      {
        "name": "ปริยานุช",
        "role": "ผู้จัดทำ",
        "date": "2558-10-01"
      },
      {
        "name": "ปริญสินีย์",
        "role": "ผู้ตรวจ",
        "date": "2558-10-12"
      }
    ],
    "tag": "c330-2g-2558-a0003"
  }
}