{
  "pages": [
    [
      [
        "ระเบียบกรมที่ดิน",
        "ว่าด้วยการรับคำขอรังวัด การนัดรังวัด",
        "และการเรียกค่าใช้จ่ายในการรังวัดเฉพาะราย",
        "พ.ศ. ๒๕๔๗"
      ]
    ],
    []
  ],
  "metadata": {
    "date_backmatter": "2547-12-17",
    "date_modified": "2548-02-08",
    "date_original": "2548-02-08",
    "editors": [
      {
        "name": "กฤษดายุทธ",
        "role": "ผู้จัดทำ",
        "date": "2556-05-07"
      },
      {
        "name": "วิชพงษ์",
        "role": "ผู้ตรวจ",
        "date": "2556-05-09"
      }
    ],
    "tag": "aa05-2g-2548-a0001"
  }
}