{
  "pages": [
    [
      [
        "ประกาศเจ้าพนักงานควบคุมการแลกเปลี่ยนเงิน",
        "เรื่อง หลักเกณฑ์และวิธีปฏิบัติเกี่ยวกับการประกอบธุรกิจเป็นบริษัทรับอนุญาต"
      ]
    ],
    []
  ],
  "metadata": {
    "date_backmatter": "2548-10-07",
    "date_modified": "2549-09-22",
    "date_original": "2548-11-16",
    "doctype": "ประกาศ",
    "editors": [
      {
        "name": "สัญชัย",
        "role": "จัดทำ",
        "date": "2551-03-21"
      }
    ],
    "tag": "a417-2e-9994-update"
  }
}