{
  "pages": [
    [
      [
        "ประกาศกระทรวงการคลัง",
        "เรื่อง คำสั่งรัฐมนตรีให้ไว้แก่ตัวแทนโอนเงินระหว่างประเทศ"
      ]
    ],
    []
  ],
  "metadata": {
    "date_backmatter": "2547-08-04",
    "date_modified": "2558-07-28",
    "date_original": "2547-08-11",
    "doctype": "ประกาศ",
    "editors": [
      {
        "name": "ปริญสินีย์",
        "role": "ผู้จัดทำ",
        "date": "2558-08-07"
      },
      {
        "name": "นุสรา",
        "role": "ตรวจ",
        "date": "2558-09-01"
      }
    ],
    "tag": "a417-2e-9985-update"
  }
}