{
  "pages": [
    [
      [
        "ประกาศกระทรวงการคลัง",
        "เรื่อง การควบคุมการแลกเปลี่ยนเงิน",
        "(ฉบับที่ ๗)"
      ]
    ],
    []
  ],
  "metadata": {
    "date_backmatter": "2560-02-08",
    "date_modified": "2560-02-23",
    "date_original": "2560-02-23",
    "doctype": "ประกาศ",
    "editors": [
      {
        "name": "พิมพ์มาดา/ปริยานุช",
        "role": "จัดทำ",
        "date": "2560-02-27"
      },
      {
        "name": "ปริญสินีย์",
        "role": "ตรวจ",
        "date": "2560-04-04"
      }
    ],
    "tag": "a417-2e-2560-a0002"
  }
}