{
  "pages": [
    [
      [
        "พระราชบัญญัติ",
        "ควบคุมการแลกเปลี่ยนเงิน",
        "พุทธศักราช ๒๔๘๕",
        "",
        "",
        "ในพระปรมาภิไธยสมเด็จพระเจ้าอยู่หัวอานันทมหิดล",
        "คณะผู้สำเร็จราชการแทนพระองค์",
        "(ตามประกาศประธานสภาผู้แทนราษฎร",
        "ลงวันที่ ๔ สิงหาคม พุทธศักราช ๒๔๘๐",
        "และวันที่ ๑๖ ธันวาคม พุทธศักราช ๒๔๘๔)",
        "อาทิตย์ทิพอาภา",
        "พล.อ.พิชเยนทรโยธิน",
        "ปรีดี พนมยงค์",
        "ตราไว้ ณ วันที่ ๒๗ มกราคม พุทธศักราช ๒๔๘๕",
        "เป็นปีที่ ๙ ในรัชกาลปัจจุบัน"
      ]
    ],
    []
  ],
  "metadata": {
    "date_header": "2480-08-04",
    "date_modified": "2486-09-14",
    "date_original": "2485-02-01",
    "doctype": "พระราชบัญญัติ",
    "editors": [
      {
        "name": "สัญชัย ศิริเดช",
        "role": "ผู้จัดทำ",
        "date": "2552-09-17"
      }
    ],
    "tag": "a417-20-2486-a0002",
    "title": "ควบคุมการแลกเปลี่ยนเงิน"
  }
}