{
  "pages": [
    [
      [
        "ประกาศเจ้าพนักงานควบคุมการแลกเปลี่ยนเงิน",
        "เรื่อง การกำหนดหลักเกณฑ์และวิธีปฏิบัติเกี่ยวกับการลงทุนในตราสารในต่างประเทศ",
        "และอนุพันธ์ของบุคคลรายย่อย"
      ]
    ],
    []
  ],
  "metadata": {
    "date_backmatter": "2558-06-24",
    "date_modified": "2561-01-30",
    "date_original": "2558-07-07",
    "doctype": "ประกาศ",
    "editors": [
      {
        "name": "ปุณิกา",
        "role": "จัดทำ",
        "date": "2559-04-29"
      },
      {
        "name": "ปวันวิทย์",
        "role": "เพิ่มเติม",
        "date": "2561-04-04"
      }
    ],
    "tag": "a417-2e-9983-update"
  }
}