{
  "pages": [
    [
      [
        "ประกาศเจ้าพนักงานควบคุมการแลกเปลี่ยนเงิน",
        "เรื่อง การกำหนดหลักเกณฑ์และวิธีปฏิบัติเกี่ยวกับการแลกเปลี่ยนเงิน",
        "(ฉบับที่ ๒๐)"
      ]
    ],
    []
  ],
  "metadata": {
    "date_backmatter": "2553-10-05",
    "date_modified": "2553-10-11",
    "date_original": "2553-10-11",
    "doctype": "ประกาศ",
    "editors": [
      {
        "name": "ปริยานุช",
        "role": "ผู้จัดทำ",
        "date": "2553-10-20"
      },
      {
        "name": "ณัฐวดี",
        "role": "ตรวจ",
        "date": "2553-10-20"
      }
    ],
    "tag": "a417-2e-2553-a0005"
  }
}