{
  "pages": [
    [
      [
        "กฎกระทรวง",
        "ฉบับที่ ๒๔ (พ.ศ. ๒๕๕๐)",
        "ออกตามความในพระราชบัญญัติควบคุมการแลกเปลี่ยนเงิน พุทธศักราช ๒๔๘๕"
      ]
    ],
    []
  ],
  "metadata": {
    "date_backmatter": "2550-04-27",
    "date_modified": "2550-05-04",
    "date_original": "2550-05-04",
    "doctype": "กฎกระทรวง",
    "editors": [
      {
        "name": "โสรศ",
        "role": "ผู้จัดทำ",
        "date": "2550-05-15"
      }
    ],
    "tag": "a417-2b-2550-a0001"
  }
}