{
  "pages": [
    [
      [
        "พระราชบัญญัติ",
        "ควบคุมการแลกเปลี่ยนเงิน",
        "พุทธศักราช ๒๔๘๕",
        "",
        "",
        "ในพระปรมาภิไธยสมเด็จพระเจ้าอยู่หัวอานันทมหิดล",
        "คณะผู้สำเร็จราชการแทนพระองค์",
        "(ตามประกาศประธานสภาผู้แทนราษฎร",
        "ลงวันที่ ๔ สิงหาคม พุทธศักราช ๒๔๘๐",
        "และวันที่ ๑๖ ธันวาคม พุทธศักราช ๒๔๘๔)",
        "อาทิตย์ทิพอาภา",
        "พล อ. พิชเยนทรโยธิน",
        "ปรีดี พนมยงค์",
        "ตราไว้ ณ วันที่ ๒๗ มกราคม พุทธศักราช ๒๔๘๕",
        "เป็นปีที่ ๙ ในรัชกาลปัจจุบัน"
      ]
    ],
    []
  ],
  "metadata": {
    "date_header": "2480-08-04",
    "date_modified": "2528-06-04",
    "date_original": "2485-02-01",
    "doctype": "พระราชบัญญัติ",
    "editors": [
      {
        "name": "ศรตม์",
        "role": "ปรับปรุง",
        "date": "2556-01-08"
      },
      {
        "name": "อุดมลักษณ์",
        "role": "ตรวจ",
        "date": "2556-01-00"
      }
    ],
    "tag": "a417-20-2528-a0001",
    "title": "ควบคุมการแลกเปลี่ยนเงิน"
  }
}