{
  "pages": [
    [
      [
        "กฎกระทรวง",
        "ฉบับที่ ๑๓ (พ.ศ. ๒๔๙๗)",
        "ออกตามความในพระราชบัญญัติควบคุมการแลกเปลี่ยนเงิน",
        "พุทธศักราช ๒๔๘๕"
      ]
    ],
    []
  ],
  "metadata": {
    "date_backmatter": "2497-12-03",
    "date_modified": "2551-01-28",
    "date_original": "2497-12-14",
    "doctype": "กฎกระทรวง",
    "editors": [
      {
        "name": "วชิระ",
        "role": "จัดทำ",
        "date": "2551-03-18"
      }
    ],
    "tag": "a417-2b-9999-update"
  }
}