{
  "pages": [
    [
      [
        "ประกาศเจ้าพนักงานควบคุมการแลกเปลี่ยนเงิน",
        "เรื่อง การกำหนดหลักเกณฑ์และวิธีปฏิบัติเกี่ยวกับการแลกเปลี่ยนเงิน"
      ]
    ],
    []
  ],
  "metadata": {
    "date_backmatter": "2547-03-31",
    "date_modified": "2547-04-26",
    "date_original": "2547-04-26",
    "doctype": "ประกาศ",
    "editors": [
      {
        "name": "พรพิมล",
        "role": "พิมพ์",
        "date": "2547-07-20"
      },
      {
        "name": "พัชรินทร์/อรดา",
        "role": "ตรวจ",
        "date": "2547-08-10"
      }
    ],
    "tag": "a417-2e-2547-a0003"
  }
}