{
  "pages": [
    [
      [
        "กฎกระทรวง",
        "ฉบับที่ ๑๘ (พ.ศ. ๒๕๑๘)",
        "ออกตามความในพระราชบัญญัติควบคุมการแลกเปลี่ยนเงิน",
        "พุทธศักราช ๒๔๘๕"
      ]
    ],
    []
  ],
  "metadata": {
    "date_backmatter": "2518-10-16",
    "date_gz_old": "2518-10-22",
    "doctype": "กฎกระทรวง",
    "editors": [],
    "tag": "a417-2b-2518-018"
  }
}