{
  "pages": [
    [
      [
        "ประกาศเจ้าพนักงานควบคุมการแลกเปลี่ยนเงิน",
        "เรื่อง หลักเกณฑ์และวิธีปฏิบัติเกี่ยวกับการประกอบธุรกิจเป็นบุคคลรับอนุญาต",
        "(ฉบับที่ ๕)"
      ]
    ],
    []
  ],
  "metadata": {
    "date_backmatter": "2558-11-05",
    "date_modified": "2558-11-25",
    "date_original": "2558-11-25",
    "doctype": "ประกาศ",
    "editors": [
      {
        "name": "ปริยานุช",
        "role": "จัดทำ",
        "date": "2558-11-26"
      },
      {
        "name": "วริญา",
        "role": "ตรวจ",
        "date": "2558-11-30"
      }
    ],
    "tag": "a417-2e-2558-a0019"
  }
}