{
  "pages": [
    [
      [
        "กฎ ก.ร.",
        "ฉบับที่ ๒๖ (พ.ศ. ๒๕๔๔)",
        "ออกตามความในพระราชบัญญัติระเบียบข้าราชการฝ่ายรัฐสภา พ.ศ. ๒๕๑๘",
        "ว่าด้วยกรณีที่อาจร้องทุกข์ การร้องทุกข์ และการพิจารณาเรื่องร้องทุกข์",
        "ขอให้แก้ไขหรือแก้ความคับข้องใจ"
      ]
    ],
    []
  ],
  "metadata": {
    "date_backmatter": "2544-04-02",
    "date_modified": "2544-04-19",
    "date_original": "2544-04-19",
    "editors": [
      {
        "name": "ประภาศรี",
        "role": "ผู้จัดทำ",
        "date": "2551-11-03"
      }
    ],
    "tag": "c309-2c-2544-a0001"
  }
}