{
  "pages": [
    [
      [
        "ประกาศคณะกรรมการข้าราชการฝ่ายรัฐสภา",
        "ว่าด้วยการกำหนดตำแหน่งข้าราชการรัฐสภาสามัญ",
        "บางตำแหน่ง เป็นตำแหน่งบังคับบัญชา"
      ]
    ],
    []
  ],
  "metadata": {
    "date_backmatter": "2519-01-14",
    "date_modified": "2519-02-03",
    "date_original": "2519-02-03",
    "doctype": "ประกาศ",
    "editors": [
      {
        "name": "อัมภิญา",
        "role": "พิมพ์",
        "date": "2551-04-11"
      }
    ],
    "tag": "c309-2e-2519-a0001"
  }
}