{
  "pages": [
    [
      [
        "ประกาศรัฐสภา",
        "เรื่อง ให้ปรับใช้บัญชีอัตราเงินเดือนสำหรับตำแหน่ง",
        "ข้าราชการรัฐสภาสามัญ หมายเลข ๓ ท้ายพระราชบัญญัติ",
        "ระเบียบข้าราชการฝ่ายรัฐสภา พ.ศ. ๒๕๑๘"
      ]
    ],
    []
  ],
  "metadata": {
    "date_backmatter": "2524-12-25",
    "date_modified": "2525-01-14",
    "date_original": "2525-01-14",
    "doctype": "ประกาศ",
    "editors": [
      {
        "name": "ประภาศรี",
        "role": "พิมพ์",
        "date": "2551-10-27"
      }
    ],
    "tag": "c309-2e-2525-a0001"
  }
}