{
  "pages": [
    [
      [
        "ประกาศคณะกรรมการบริหารศาลยุติธรรม",
        "เรื่อง การจัดตั้งแผนกในศาลฎีกา (ฉบับที่ ๒)"
      ]
    ],
    []
  ],
  "metadata": {
    "date_backmatter": "2548-07-18",
    "date_modified": "2548-08-18",
    "date_original": "2548-08-18",
    "doctype": "ประกาศ",
    "editors": [
      {
        "name": "วิภา",
        "role": "ผู้จัดทำ",
        "date": "2553-10-23"
      },
      {
        "name": "พัสสน",
        "role": "ผู้ตรวจ",
        "date": "2553-11-15"
      }
    ],
    "tag": "be16-2e-2548-a0001"
  }
}