{
  "pages": [
    [
      [
        "ระเบียบราชการฝ่ายตุลาการศาลยุติธรรม",
        "ว่าด้วยการปล่อยชั่วคราว (ฉบับที่ ๓)",
        "พ.ศ. ๒๕๔๗"
      ]
    ],
    []
  ],
  "metadata": {
    "date_backmatter": "2547-02-09",
    "date_modified": "2547-03-04",
    "date_original": "2547-03-04",
    "editors": [
      {
        "name": "ดลธี",
        "role": "พิมพ์",
        "date": "2553-10-22"
      }
    ],
    "tag": "be16-2g-2547-a0001"
  }
}