{
  "pages": [
    [
      [
        "พระราชบัญญัติ",
        "ให้ใช้พระธรรมนูญศาลยุติธรรม",
        "พ.ศ. ๒๕๔๓",
        "",
        "",
        "ภูมิพลอดุลยเดช ป.ร.",
        "ให้ไว้ ณ วันที่ ๔ พฤษภาคม พ.ศ. ๒๕๔๓",
        "เป็นปีที่ ๕๕ ในรัชกาลปัจจุบัน"
      ]
    ],
    []
  ],
  "metadata": {
    "date_header": "2543-05-04",
    "date_modified": "2550-09-05",
    "date_original": "2543-05-18",
    "doctype": "พระราชบัญญัติ",
    "editors": [
      {
        "name": "ปณตภร",
        "role": "ผู้จัดทำ",
        "date": "2555-05-25"
      }
    ],
    "tag": "be16-20-2550-a0002",
    "title": "ให้ใช้พระธรรมนูญศาลยุติธรรม"
  }
}