{
  "pages": [
    [
      [
        "พระราชกฤษฎีกา",
        "ตั้งอธิบดีผู้พิพากษาภาค",
        "พ.ศ. ๒๔๙๗",
        "",
        "",
        "ภูมิพลอดุลยเดช ป.ร.",
        "ให้ไว้ ณ วันที่ ๒๗ ตุลาคม พ.ศ. ๒๔๙๗",
        "เป็นปีที่ ๙ ในรัชกาลปัจจุบัน"
      ]
    ],
    []
  ],
  "metadata": {
    "date_header": "2497-10-27",
    "date_modified": "2530-08-13",
    "date_original": "2497-10-27",
    "doctype": "พระราชกฤษฎีกา",
    "editors": [
      {
        "name": "วิภา",
        "role": "ผู้จัดทำ",
        "date": "2553-11-02"
      },
      {
        "name": "พัสสน",
        "role": "ตรวจ",
        "date": "2551-01-18"
      }
    ],
    "tag": "be16-2a-9999-update",
    "title": "ตั้งอธิบดีผู้พิพากษาภาค"
  }
}