{
  "pages": [
    [
      [
        "พระราชบัญญัติ",
        "แก้ไขเพิ่มเติมพระธรรมนูญศาลยุติธรรม (ฉบับที่ ๒)",
        "พ.ศ. ๒๕๕๐",
        "",
        "",
        "ภูมิพลอดุลยเดช ป.ร.",
        "ให้ไว้ ณ วันที่ ๓๐ สิงหาคม พ.ศ. ๒๕๕๐",
        "เป็นปีที่ ๖๒ ในรัชกาลปัจจุบัน"
      ]
    ],
    []
  ],
  "metadata": {
    "date_header": "2550-08-30",
    "date_modified": "2550-09-05",
    "date_original": "2550-09-05",
    "doctype": "พระราชบัญญัติ",
    "editors": [
      {
        "name": "วัชศักดิ์",
        "role": "ผู้จัดทำ",
        "date": "2550-09-12"
      },
      {
        "name": "สุกัญญา",
        "role": "ผู้จัดทำ",
        "date": "2554-03-17"
      },
      {
        "name": "ปณตภร",
        "role": "ปรับปรุง",
        "date": "2555-05-25"
      }
    ],
    "tag": "be16-20-2550-a0003",
    "title": "แก้ไขเพิ่มเติมพระธรรมนูญศาลยุติธรรม (ฉบับที่ ๒)"
  }
}