{
  "pages": [
    [
      [
        "พระราชกฤษฎีกา",
        "กำหนดจำนวน ที่ตั้ง เขตศาล และวันเปิดทำการ",
        "ของศาลอุทธรณ์ภาค (ฉบับที่ ๖)",
        "พ.ศ. ๒๕๔๒",
        "",
        "",
        "ภูมิพลอดุลยเดช ป.ร.",
        "ให้ไว้ ณ วันที่ ๒๒ กุมภาพันธ์ พ.ศ. ๒๕๔๒",
        "เป็นปีที่ ๕๔ ในรัชกาลปัจจุบัน"
      ]
    ],
    []
  ],
  "metadata": {
    "date_header": "2542-02-22",
    "date_modified": "2542-03-02",
    "date_original": "2542-03-02",
    "doctype": "พระราชกฤษฎีกา",
    "editors": [
      {
        "name": "พัชรี",
        "role": "ผู้จัดทำ",
        "date": "2553-10-26"
      },
      {
        "name": "กวินทราดา",
        "role": "ตรวจ"
      }
    ],
    "tag": "a831-2a-2542-a0001",
    "title": "กำหนดจำนวน ที่ตั้ง เขตศาล และวันเปิดทำการของศาลอุทธรณ์ภาค (ฉบับที่ ๖)"
  }
}