{
  "pages": [
    [
      [
        "พระราชกฤษฎีกา",
        "กำหนดบริเวณเขตปลอดภัยในราชการทหารแห่งกองทัพบก",
        "ในท้องที่อำเภอเมืองสงขลา จังหวัดสงขลา",
        "พ.ศ. ๒๕๕๒",
        "",
        "",
        "ภูมิพลอดุลยเดช ป.ร.",
        "ให้ไว้ ณ วันที่ ๑ มิถุนายน พ.ศ. ๒๕๕๒",
        "เป็นปีที่ ๖๔ ในรัชกาลปัจจุบัน"
      ]
    ],
    []
  ],
  "metadata": {
    "date_header": "2552-06-01",
    "date_modified": "2552-09-23",
    "date_original": "2552-09-23",
    "doctype": "พระราชกฤษฎีกา",
    "editors": [
      {
        "name": "ปริยานุช",
        "role": "ผู้จัดทำ",
        "date": "2552-09-25"
      }
    ],
    "tag": "c713-2a-2552-a0002",
    "title": "กำหนดบริเวณเขตปลอดภัยในราชการทหารแห่งกองทัพบกในท้องที่อำเภอเมืองสงขลา จังหวัดสงขลา"
  }
}