{
  "pages": [
    [
      [
        "พระราชบัญญัติ",
        "การขนส่งต่อเนื่องหลายรูปแบบ",
        "พ.ศ. ๒๕๔๘",
        "",
        "",
        "ภูมิพลอดุลยเดช ป.ร.",
        "ให้ไว้ ณ วันที่ ๑๑ กรกฎาคม พ.ศ. ๒๕๔๘",
        "เป็นปีที่ ๖๐ ในรัชกาลปัจจุบัน"
      ]
    ],
    []
  ],
  "metadata": {
    "date_header": "2548-07-11",
    "date_modified": "2560-02-11",
    "date_original": "2548-07-27",
    "doctype": "พระราชบัญญัติ",
    "editors": [
      {
        "name": "กมลฤทัย",
        "role": "ปรับปรุง",
        "date": "2556-03-21"
      },
      {
        "name": "สุพิชชา",
        "role": "ตรวจ",
        "date": "2556-04-03"
      },
      {
        "name": "พรวิถา",
        "role": "เพิ่มเติม",
        "date": "2560-02-14"
      },
      {
        "name": "พจนา",
        "role": "ตรวจ",
        "date": "2560-02-20"
      },
      {
        "name": "ภัทรวีร์",
        "role": "ปรับปรุง",
        "date": "2560-12-07"
      }
    ],
    "tag": "a1120-20-9999-update",
    "title": "การขนส่งต่อเนื่องหลายรูปแบบ"
  }
}