{
  "pages": [
    [
      [
        "ประกาศกรมการขนส่งทางน้ำและพาณิชยนาวี",
        "ที่ ๓๘๗/๒๕๕๐",
        "เรื่อง กำหนดแบบ หลักเกณฑ์และระยะเวลาให้ผู้ประกอบการขนส่งต่อเนื่อง",
        "จดทะเบียนส่งรายงานเกี่ยวกับการประกอบการ"
      ]
    ],
    []
  ],
  "metadata": {
    "date_backmatter": "2550-09-12",
    "date_modified": "2550-09-26",
    "date_original": "2550-09-26",
    "doctype": "ประกาศ",
    "editors": [
      {
        "name": "ปริยานุช",
        "role": "ผู้จัดทำ",
        "date": "2550-10-08"
      },
      {
        "name": "ภัทรวีร์",
        "role": "ปรับปรุง",
        "date": "2560-10-07"
      }
    ],
    "tag": "a1120-2e-2550-a0001"
  }
}