{
  "pages": [
    [
      [
        "คำสั่งกรมเจ้าท่า",
        "ที่ ๑๐๓/๒๕๕๙",
        "เรื่อง ยกเลิกคำสั่งกรมเจ้าท่า"
      ]
    ],
    []
  ],
  "metadata": {
    "date_backmatter": "2559-02-08",
    "date_modified": "2559-03-01",
    "date_original": "2559-03-01",
    "editors": [
      {
        "name": "ปริยานุช",
        "role": "จัดทำ",
        "date": "2559-03-08"
      },
      {
        "name": "วริญา",
        "role": "ตรวจ",
        "date": "2559-03-08"
      }
    ],
    "tag": "a1120-2f-2559-a0002"
  }
}