{
  "pages": [
    [
      [
        "พระราชบัญญัติ",
        "จัดตั้งศาลอุทธรณ์คดีชำนัญพิเศษ",
        "พ.ศ. ๒๕๕๘",
        "",
        "",
        "ภูมิพลอดุลยเดช ป.ร.",
        "ให้ไว้ ณ วันที่ ๔ ธันวาคม พ.ศ. ๒๕๕๘",
        "เป็นปีที่ ๗๐ ในรัชกาลปัจจุบัน"
      ]
    ],
    []
  ],
  "metadata": {
    "date_header": "2558-12-04",
    "date_modified": "2558-12-14",
    "date_original": "2558-12-14",
    "doctype": "พระราชบัญญัติ",
    "editors": [
      {
        "name": "ปริยานุช",
        "role": "จัดทำ",
        "date": "2558-12-15"
      },
      {
        "name": "นุสรา",
        "role": "ตรวจ",
        "date": "2558-12-16"
      }
    ],
    "tag": "a838-20-2558-a0001",
    "title": "จัดตั้งศาลอุทธรณ์คดีชำนัญพิเศษ"
  }
}