{
  "pages": [
    [
      [
        "กฎกระทรวง",
        "(พ.ศ. ๒๕๓๕)",
        "ออกตามความในพระราชบัญญัติเครื่องแบบนักเรียนของโรงเรียนในสังกัด",
        "กระทรวงกลาโหม พ.ศ. ๒๕๒๑",
        "ว่าด้วยเครื่องแบบนักเรียนดุริยางค์ทหารอากาศ"
      ]
    ],
    []
  ],
  "metadata": {
    "date_backmatter": "2535-03-20",
    "date_modified": "2535-04-14",
    "date_original": "2535-04-14",
    "doctype": "กฎกระทรวง",
    "editors": [
      {
        "name": "ปณตภร",
        "role": "ผู้จัดทำ",
        "date": "2556-02-21"
      }
    ],
    "tag": "a451-2b-2535-002"
  }
}