{
  "pages": [
    [
      [
        "ประกาศมหาวิทยาลัยสวนดุสิต",
        "เรื่อง การจัดตั้งส่วนงานของมหาวิทยาลัย",
        "พ.ศ. ๒๕๕๘"
      ]
    ],
    []
  ],
  "metadata": {
    "date_backmatter": "2558-07-24",
    "date_modified": "2558-07-27",
    "date_original": "2558-07-27",
    "doctype": "ประกาศ",
    "editors": [
      {
        "name": "ปริยานุช",
        "role": "ผู้จัดทำ",
        "date": "2558-07-29"
      },
      {
        "name": "นุสรา",
        "role": "ผู้ตรวจ",
        "date": "2558-08-17"
      }
    ],
    "tag": "c144-2e-2558-a0001"
  }
}