{
  "pages": [
    [
      [
        "ประกาศมหาวิทยาลัยสวนดุสิต",
        "เรื่อง เครื่องหมายสถานศึกษาวิชาทหารของมหาวิทยาลัย",
        "พ.ศ. ๒๕๖๐"
      ]
    ],
    []
  ],
  "metadata": {
    "date_backmatter": "2560-10-27",
    "date_modified": "2560-12-26",
    "date_original": "2560-12-26",
    "doctype": "ประกาศ",
    "editors": [
      {
        "name": "ปวันวิทย์/อัญชลี",
        "role": "จัดทำ",
        "date": "2561-01-04"
      }
    ],
    "tag": "c144-2e-2560-a0004"
  }
}