{
  "pages": [
    [
      [
        "พระราชกำหนด",
        "เหรียญช่วยราชการเขตต์ภายใน",
        "พุทธศักราช ๒๔๘๔",
        "",
        "",
        "ในพระปรมาภิไธยสมเด็จพระเจ้าอยู่หัวอานันทมหิดล",
        "คณะผู้สำเร็จราชการแทนพระองค์",
        "(ตามประกาศประธานสภาผู้แทนราษฎร",
        "ลงวันที่ ๔ สิงหาคม พุทธศักราช ๒๔๘๐)",
        "อาทิตย์ทิพอาภา",
        "พล.อ. พิชเยนทรโยธิน",
        "ตราไว้ ณ วันที่ ๒๒ กุมภาพันธ์ พุทธศักราช ๒๔๘๔",
        "เป็นปีที่ ๘ ในรัชชกาลปัจจุบัน"
      ]
    ],
    []
  ],
  "metadata": {
    "date_header": "2480-08-04",
    "date_modified": "2485-10-20",
    "date_original": "2484-02-25",
    "doctype": "พระราชกำหนด",
    "editors": [
      {
        "name": "ปณตภร",
        "role": "จัดทำ",
        "date": "2557-01-02"
      }
    ],
    "tag": "cb44-20-9999-update",
    "title": "เหรียญช่วยราชการเขตต์ภายใน"
  }
}