{
  "pages": [
    [
      [
        "ประกาศอธิบดีกรมสรรพากร",
        "เกี่ยวกับภาษีการรับมรดก (ฉบับที่ ๓)",
        "เรื่อง กำหนดแบบคำอุทธรณ์และสถานที่ยื่นคำอุทธรณ์การประเมินภาษีการรับมรดก"
      ]
    ],
    []
  ],
  "metadata": {
    "date_backmatter": "2559-01-28",
    "date_modified": "2559-02-05",
    "date_original": "2559-02-05",
    "doctype": "ประกาศ",
    "editors": [
      {
        "name": "ปริยานุช",
        "role": "จัดทำ",
        "date": "2559-02-08"
      },
      {
        "name": "ปุณิกา",
        "role": "ตรวจ",
        "date": "2559-02-08"
      }
    ],
    "tag": "c009-2e-2559-a0005"
  }
}