{
  "pages": [
    [
      [
        "กฎกระทรวง",
        "กำหนดทรัพย์สินที่อยู่ในประเทศไทยซึ่งต้องเสียภาษีการรับมรดก",
        "พ.ศ. ๒๕๕๙"
      ]
    ],
    []
  ],
  "metadata": {
    "date_backmatter": "2559-02-05",
    "date_modified": "2559-02-16",
    "date_original": "2559-02-16",
    "doctype": "กฎกระทรวง",
    "editors": [
      {
        "name": "กัญฑรัตน์/ปริยานุช",
        "role": "จัดทำ",
        "date": "2559-02-18"
      },
      {
        "name": "วิชพงษ์",
        "role": "ตรวจ",
        "date": "2559-02-29"
      }
    ],
    "tag": "c009-2b-2559-a0001"
  }
}