{
  "pages": [
    [
      [
        "ประกาศกระทรวงแรงงาน",
        "เรื่อง หลักเกณฑ์ วิธีการ และเงื่อนไขการคุ้มครองด้านประกันสังคมและเงินทดแทนคนประจำเรือ"
      ]
    ],
    []
  ],
  "metadata": {
    "date_backmatter": "2559-04-05",
    "date_modified": "2559-04-28",
    "date_original": "2559-04-28",
    "doctype": "ประกาศ",
    "editors": [
      {
        "name": "ปริยานุช",
        "role": "จัดทำ",
        "date": "2559-05-03"
      },
      {
        "name": "กัญฑรัตน์",
        "role": "ตรวจ",
        "date": "2559-05-03"
      }
    ],
    "tag": "c355-2e-2559-a0002"
  }
}