{
  "pages": [
    [
      [
        "พระราชกฤษฎีกา",
        "กำหนดเขตที่ดินในบริเวณที่ที่จะเวนคืน",
        "ในท้องที่อำเภอเมืองนนทบุรี อำเภอปากเกร็ด จังหวัดนนทบุรี",
        "และเขตหลักสี่ เขตบางเขน เขตบึงกุ่ม เขตคันนายาว",
        "เขตมีนบุรี กรุงเทพมหานคร",
        "พ.ศ. ๒๕๕๗",
        "",
        "",
        "ภูมิพลอดุลยเดช ป.ร.",
        "ให้ไว้ ณ วันที่ ๑๖ ธันวาคม พ.ศ. ๒๕๕๗",
        "เป็นปีที่ ๖๙ ในรัชกาลปัจจุบัน"
      ]
    ],
    []
  ],
  "metadata": {
    "date_header": "2557-12-16",
    "date_modified": "2557-12-24",
    "date_original": "2557-12-24",
    "doctype": "พระราชกฤษฎีกา",
    "editors": [
      {
        "name": "ปริยานุช",
        "role": "ผู้จัดทำ",
        "date": "2558-01-05"
      },
      {
        "name": "วันทิตา",
        "role": "ผู้ตรวจ",
        "date": "2558-01-15"
      }
    ],
    "tag": "c712-2a-2557-a0001",
    "title": "กำหนดเขตที่ดินในบริเวณที่ที่จะเวนคืนในท้องที่อำเภอเมืองนนทบุรี อำเภอปากเกร็ด จังหวัดนนทบุรีและเขตหลักสี่ เขตบางเขน เขตบึงกุ่ม เขตคันนายาวเขตมีนบุรี กรุงเทพมหานคร"
  }
}