{
  "pages": [
    [
      [
        "ประกาศสำนักนายกรัฐมนตรี",
        "เรื่อง กำหนดให้การเวนคืนอสังหาริมทรัพย์",
        "ในท้องที่ตำบลบึง อำเภอศรีราชา และตำบลบางละมุง อำเภอบางละมุง จังหวัดชลบุรี",
        "เป็นกรณีที่มีความจำเป็นโดยเร่งด่วน"
      ]
    ],
    []
  ],
  "metadata": {
    "date_backmatter": "2560-03-02",
    "date_modified": "2560-03-07",
    "date_original": "2560-03-07",
    "doctype": "ประกาศ",
    "editors": [
      {
        "name": "ปริยานุช",
        "role": "จัดทำ",
        "date": "2560-03-09"
      },
      {
        "name": "พิมพ์มาดา",
        "role": "ตรวจ",
        "date": "2560-04-11"
      }
    ],
    "tag": "c712-2e-2560-a0001"
  }
}