{
  "pages": [
    [
      [
        "ประกาศสำนักนายกรัฐมนตรี",
        "เรื่อง กำหนดให้การเวนคืนอสังหาริมทรัพย์ในท้องที่ตำบลหนองตรุด ตำบลนาโต๊ะหมิง",
        "และตำบลบางรัก อำเภอเมืองตรัง จังหวัดตรัง",
        "เป็นกรณีที่มีความจำเป็นโดยเร่งด่วน"
      ]
    ],
    []
  ],
  "metadata": {
    "date_backmatter": "2559-11-22",
    "date_modified": "2559-11-29",
    "date_original": "2559-11-29",
    "doctype": "ประกาศ",
    "editors": [
      {
        "name": "วิศนี/ปริยานุช",
        "role": "จัดทำ",
        "date": "2559-12-07"
      },
      {
        "name": "ปริญสินีย์",
        "role": "ตรวจ",
        "date": "2559-12-30"
      }
    ],
    "tag": "c712-2e-2559-a0022"
  }
}