{
  "pages": [
    [
      [
        "ประกาศสำนักนายกรัฐมนตรี",
        "เรื่อง กำหนดให้การเวนคืนอสังหาริมทรัพย์ เพื่อขยายทางหลวงแผ่นดินหมายเลข ๓๐๙๗",
        "สายแยกทางหลวงแผ่นดินหมายเลข ๔ (พระประโทน) - บรรจบทางหลวงพิเศษหมายเลข ๓๕ (บ้านปอ)",
        "ที่บ้านศรีพิพัฒน์ บ้านหนองบัว บ้านหลักสาม บ้านทุ่งอินทรีย์ และบ้านท้ายวัดใหญ่",
        "เป็นกรณีที่มีความจำเป็นโดยเร่งด่วน"
      ]
    ],
    []
  ],
  "metadata": {
    "date_backmatter": "2558-12-22",
    "date_modified": "2558-12-29",
    "date_original": "2558-12-29",
    "doctype": "ประกาศ",
    "editors": [
      {
        "name": "ปุณิกา/ปริยานุช",
        "role": "จัดทำ",
        "date": "2559-01-07"
      }
    ],
    "tag": "c712-2e-2558-a0024"
  }
}