{
  "pages": [
    [
      [
        "พระราชกฤษฎีกา",
        "กำหนดเขตที่ดินในบริเวณที่ที่จะเวนคืน",
        "เพื่อดำเนินโครงการก่อสร้างทางคู่ในเส้นทางรถไฟสายเหนือ",
        "ช่วงลพบุรี - ปากน้ำโพ",
        "พ.ศ. ๒๕๕๘",
        "",
        "",
        "ภูมิพลอดุลยเดช ป.ร.",
        "ให้ไว้ ณ วันที่ ๔ พฤศจิกายน พ.ศ. ๒๕๕๘",
        "เป็นปีที่ ๗๐ ในรัชกาลปัจจุบัน"
      ]
    ],
    []
  ],
  "metadata": {
    "date_header": "2558-11-04",
    "date_modified": "2558-11-11",
    "date_original": "2558-11-11",
    "doctype": "พระราชกฤษฎีกา",
    "editors": [
      {
        "name": "ปริยานุช",
        "role": "จัดทำ",
        "date": "2558-11-16"
      },
      {
        "name": "ปุณิกา",
        "role": "ตรวจ",
        "date": "2558-12-14"
      }
    ],
    "tag": "c712-2a-2558-a0034",
    "title": "กำหนดเขตที่ดินในบริเวณที่ที่จะเวนคืนเพื่อดำเนินโครงการก่อสร้างทางคู่ในเส้นทางรถไฟสายเหนือช่วงลพบุรี - ปากน้ำโพ"
  }
}