{
  "pages": [
    [
      [
        "พระราชกฤษฎีกา",
        "กำหนดเขตที่ดิน ในท้องที่ตำบลบ้านหัน ตำบลโนนศิลา กิ่งอำเภอโนนศิลา อำเภอบ้านไผ่",
        "ตำบลป่าปอ อำเภอบ้านไผ่ ตำบลบ้านแท่น ตำบลปอแดง อำเภอชนบท ตำบลขามป้อม",
        "ตำบลวังม่วง อำเภอเปือยน้อย ตำบลหนองแวงนางเบ้า ตำบลโจดหนองแก ตำบลโสกนกเต็น",
        "อำเภอพล และตำบลวังหิน ตำบลคึมชาด ตำบลสำโรง ตำบลดอนดู่ อำเภอหนองสองห้อง",
        "จังหวัดขอนแก่น",
        "ให้เป็นเขตปฏิรูปที่ดิน",
        "-----------",
        "",
        "ภูมิพลอดุลยเดช ป.ร.",
        "ให้ไว้ ณ วันที่ 20 กุมภาพันธ์ พ.ศ. 2542",
        "เป็นปีที่ 54 ในรัชกาลปัจจุบัน"
      ]
    ],
    []
  ],
  "metadata": {
    "date_header": "2542-02-20",
    "editors": [],
    "tag": "c712-2a-2542-a029"
  }
}