{
  "pages": [
    [
      [
        "ประกาศสำนักนายกรัฐมนตรี",
        "เรื่อง กำหนดให้การเวนคืนอสังหาริมทรัพย์เพื่อขยายทางหลวงแผ่นดินหมายเลข ๒๑๗๘",
        "สายวารินชำราบ - บรรจบทางหลวงแผ่นดินหมายเลข ๒๐๘๕ (หนองงูเหลือม)",
        "ตอนบ้านหนองผาสุข - บ้านทุ่งสว่าง เป็นกรณีที่มีความจำเป็นโดยเร่งด่วน"
      ]
    ],
    []
  ],
  "metadata": {
    "date_backmatter": "2552-06-28",
    "date_modified": "2552-07-31",
    "date_original": "2552-07-31",
    "doctype": "ประกาศ",
    "editors": [
      {
        "name": "ปริยานุช",
        "role": "ผู้จัดทำ",
        "date": "2552-08-07"
      }
    ],
    "tag": "c712-2e-2552-a0014"
  }
}