{
  "pages": [
    [
      [
        "พระราชกฤษฎีกา",
        "กำหนดเขตที่ดินในบริเวณที่ที่จะเวนคืน",
        "ในท้องที่ตำบลทรายมูล ตำบลบางปลากด ตำบลโพธิ์แทน อำเภอองครักษ์",
        "และตำบลบ้านพริก อำเภอบ้านนา จังหวัดนครนายก",
        "พ.ศ. ๒๕๕๘",
        "",
        "",
        "ภูมิพลอดุลยเดช ป.ร.",
        "ให้ไว้ ณ วันที่ ๒๘ สิงหาคม พ.ศ. ๒๕๕๘",
        "เป็นปีที่ ๗๐ ในรัชกาลปัจจุบัน"
      ]
    ],
    []
  ],
  "metadata": {
    "date_header": "2558-08-28",
    "date_modified": "2558-09-09",
    "date_original": "2558-09-09",
    "doctype": "พระราชกฤษฎีกา",
    "editors": [
      {
        "name": "ปริยานุช",
        "role": "ผู้จัดทำ",
        "date": "2558-09-17"
      },
      {
        "name": "ปุณิกา",
        "role": "ผู้ตรวจ",
        "date": "2558-10-01"
      }
    ],
    "tag": "c712-2a-2558-a0028",
    "title": "กำหนดเขตที่ดินในบริเวณที่ที่จะเวนคืนในท้องที่ตำบลทรายมูล ตำบลบางปลากด ตำบลโพธิ์แทน อำเภอองครักษ์และตำบลบ้านพริก อำเภอบ้านนา จังหวัดนครนายก"
  }
}