{
  "pages": [
    [
      [
        "พระราชกฤษฎีกา",
        "ยกเลิกพระราชกฤษฎีกากำหนดเขตที่ดิน",
        "ในบริเวณที่ที่จะเวนคืน ในท้องที่ตำบลลำแก่น อำเภอท้ายเหมือง",
        "จังหวัดพังงา พ.ศ. ๒๕๕๐",
        "พ.ศ. ๒๕๕๔",
        "",
        "",
        "ภูมิพลอดุลยเดช ป.ร.",
        "ให้ไว้ ณ วันที่ ๑๙ ธันวาคม พ.ศ. ๒๕๕๔",
        "เป็นปีที่ ๖๖ ในรัชกาลปัจจุบัน"
      ]
    ],
    []
  ],
  "metadata": {
    "date_header": "2554-12-19",
    "date_modified": "2554-12-28",
    "date_original": "2554-12-28",
    "doctype": "พระราชกฤษฎีกา",
    "editors": [
      {
        "name": "ปริยานุช",
        "role": "ผู้จัดทำ",
        "date": "2555-01-09"
      },
      {
        "name": "ณัฐพร",
        "role": "ผู้ตรวจ",
        "date": "2555-01-09"
      }
    ],
    "tag": "c712-2a-2554-a0025",
    "title": "ยกเลิกพระราชกฤษฎีกากำหนดเขตที่ดินในบริเวณที่ที่จะเวนคืน ในท้องที่ตำบลลำแก่น อำเภอท้ายเหมืองจังหวัดพังงา พ.ศ. ๒๕๕๐"
  }
}