{
  "pages": [
    [
      [
        "พระราชกฤษฎีกา",
        "กำหนดเขตที่ดินในบริเวณที่ที่จะเวนคืน เพื่อสร้างและขยายทางหลวงท้องถิ่น",
        "สายเชื่อมระหว่างถนนกำแพงเพชร ๒ กับซอยวิภาวดีรังสิต ๑๗",
        "พ.ศ. ๒๕๕๖",
        "",
        "",
        "ภูมิพลอดุลยเดช ป.ร.",
        "ให้ไว้ ณ วันที่ ๑๘ ตุลาคม พ.ศ. ๒๕๕๖",
        "เป็นปีที่ ๖๘ ในรัชกาลปัจจุบัน"
      ]
    ],
    []
  ],
  "metadata": {
    "date_header": "2556-10-18",
    "date_modified": "2556-11-06",
    "date_original": "2556-11-06",
    "doctype": "พระราชกฤษฎีกา",
    "editors": [
      {
        "name": "ปริยานุช",
        "role": "ผู้จัดทำ",
        "date": "2556-11-08"
      },
      {
        "name": "ชาญ",
        "role": "ผู้ตรวจ",
        "date": "2556-11-18"
      }
    ],
    "tag": "c712-2a-2556-a0021",
    "title": "กำหนดเขตที่ดินในบริเวณที่ที่จะเวนคืน เพื่อสร้างและขยายทางหลวงท้องถิ่นสายเชื่อมระหว่างถนนกำแพงเพชร ๒ กับซอยวิภาวดีรังสิต ๑๗"
  }
}