{
  "pages": [
    [
      [
        "พระราชกฤษฎีกา",
        "กำหนดเขตที่ดินในบริเวณที่ที่จะเวนคืน เพื่อขยายทางหลวงแผ่นดิน",
        "หมายเลข ๔ สายกรุงเทพมหานคร - สะเดา (คลองพรวน)",
        "ตอนบ้านบางนอนใน - บ้านพรรั้ง",
        "พ.ศ. ๒๕๕๕",
        "",
        "",
        "ภูมิพลอดุลยเดช ป.ร.",
        "ให้ไว้ ณ วันที่ ๕ มิถุนายน พ.ศ. ๒๕๕๕",
        "เป็นปีที่ ๖๗ ในรัชกาลปัจจุบัน"
      ]
    ],
    []
  ],
  "metadata": {
    "date_header": "2555-06-05",
    "date_modified": "2555-06-13",
    "date_original": "2555-06-13",
    "doctype": "พระราชกฤษฎีกา",
    "editors": [
      {
        "name": "ปริยานุช",
        "role": "ผู้จัดทำ",
        "date": "2555-06-22"
      },
      {
        "name": "ณัฐพร",
        "role": "ผู้ตรวจ",
        "date": "2555-06-22"
      }
    ],
    "tag": "c712-2a-2555-a0012",
    "title": "กำหนดเขตที่ดินในบริเวณที่ที่จะเวนคืน เพื่อขยายทางหลวงแผ่นดินหมายเลข ๔ สายกรุงเทพมหานคร - สะเดา (คลองพรวน)ตอนบ้านบางนอนใน - บ้านพรรั้ง"
  }
}