{
  "pages": [
    [
      [
        "ประกาศสำนักนายกรัฐมนตรี",
        "เรื่อง กำหนดให้การเวนคืนอสังหาริมทรัพย์เพื่อขยายทางหลวงแผ่นดินหมายเลข ๓๓๑",
        "สายพนมสารคาม  สัตหีบ ที่บ้านวังกะจะ ที่บ้านเกาะโพธิ์ และที่บ้านเนินโมก",
        "เป็นกรณีที่มีความจำเป็นโดยเร่งด่วน"
      ]
    ],
    []
  ],
  "metadata": {
    "date_backmatter": "2548-02-11",
    "date_modified": "2548-02-21",
    "date_original": "2548-02-21",
    "doctype": "ประกาศ",
    "editors": [
      {
        "name": "ศุภสรณ์",
        "role": "ผู้จัดทำ",
        "date": "2548-06-15"
      }
    ],
    "tag": "c712-2e-2548-a0009"
  }
}