{
  "pages": [
    [
      [
        "ประกาศสำนักนายกรัฐมนตรี",
        "เรื่อง กำหนดให้การเวนคืนอสังหาริมทรัพย์ เพื่อขยายทางหลวงท้องถิ่น",
        "สายถนนสุขาภิบาล ๑ และถนนพัฒนาการ",
        "เป็นกรณีที่มีความจำเป็นโดยเร่งด่วน"
      ]
    ],
    []
  ],
  "metadata": {
    "date_backmatter": "2554-03-12",
    "date_modified": "2554-04-04",
    "date_original": "2554-04-04",
    "doctype": "ประกาศ",
    "editors": [
      {
        "name": "ปริยานุช",
        "role": "ผู้จัดทำ",
        "date": "2554-04-21"
      },
      {
        "name": "ณัฐวดี",
        "role": "ตรวจ",
        "date": "2554-04-21"
      }
    ],
    "tag": "c712-2e-2554-a0004"
  }
}