{
  "pages": [
    [
      [
        "พระราชกฤษฎีกา",
        "กำหนดเขตที่ดินในบริเวณที่ที่จะเวนคืน",
        "ในท้องที่ตำบลงิ้วงาม ตำบลน้ำริด ตำบลผาจุก",
        "ตำบลท่าเสา ตำบลบ้านด่าน ตำบลคุ้งตะเภา ตำบลป่าเซ่า",
        "ตำบลท่าอิฐ ตำบลหาดกรวด อำเภอเมืองอุตรดิตถ์ ตำบลฝายหลวง",
        "ตำบลชัยจุมพล ตำบลทุ่งยั้ง ตำบลด่านแม่คำมัน อำเภอลับแล ตำบลวังแดง",
        "ตำบลข่อยสูง ตำบลบ้านแก่ง ตำบลน้ำอ่าง ตำบลหาดสองแคว อำเภอตรอน",
        "ตำบลท่าสัก ตำบลนายาง ตำบลไร่อ้อย ตำบลคอรุม ตำบลนาอิน ตำบลบ้านหม้อ",
        "ตำบลท่ามะเฟือง ตำบลพญาแมน อำเภอพิชัย จังหวัดอุตรดิตถ์ ตำบลดงคู่",
        "อำเภอศรีสัชนาลัย ตำบลนครเดิฐ ตำบลน้ำขุม ตำบลศรีนคร ตำบลคลองมะพลับ",
        "อำเภอศรีนคร จังหวัดสุโขทัย และตำบลตลุกเทียม",
        "ตำบลดงประคำ ตำบลศรีภิรมย์ ตำบลวงฆ้อง",
        "อำเภอพรหมพิราม จังหวัดพิษณุโลก",
        "พ.ศ. ๒๕๖๐",
        "",
        "",
        "สมเด็จพระเจ้าอยู่หัวมหาวชิราลงกรณ บดินทรเทพยวรางกูร",
        "ให้ไว้ ณ วันที่ ๑๒ สิงหาคม พ.ศ. ๒๕๖๐",
        "เป็นปีที่ ๒ ในรัชกาลปัจจุบัน"
      ]
    ],
    []
  ],
  "metadata": {
    "date_header": "2560-08-12",
    "date_modified": "2560-08-13",
    "date_original": "2560-08-13",
    "doctype": "พระราชกฤษฎีกา",
    "editors": [
      {
        "name": "ภวรรณตรี",
        "role": "จัดทำ",
        "date": "2560-08-16"
      },
      {
        "name": "พิมพ์มาดา",
        "role": "ตรวจ",
        "date": "2560-08-16"
      }
    ],
    "tag": "c712-2a-2560-a0014",
    "title": "กำหนดเขตที่ดินในบริเวณที่ที่จะเวนคืนในท้องที่ตำบลงิ้วงาม ตำบลน้ำริด ตำบลผาจุกตำบลท่าเสา ตำบลบ้านด่าน ตำบลคุ้งตะเภา ตำบลป่าเซ่าตำบลท่าอิฐ ตำบลหาดกรวด อำเภอเมืองอุตรดิตถ์ ตำบลฝายหลวงตำบลชัยจุมพล ตำบลทุ่งยั้ง ตำบลด่านแม่คำมัน อำเภอลับแล ตำบลวังแดงตำบลข่อยสูง ตำบลบ้านแก่ง ตำบลน้ำอ่าง ตำบลหาดสองแคว อำเภอตรอนตำบลท่าสัก ตำบลนายาง ตำบลไร่อ้อย ตำบลคอรุม ตำบลนาอิน ตำบลบ้านหม้อตำบลท่ามะเฟือง ตำบลพญาแมน อำเภอพิชัย จังหวัดอุตรดิตถ์ ตำบลดงคู่อำเภอศรีสัชนาลัย ตำบลนครเดิฐ ตำบลน้ำขุม ตำบลศรีนคร ตำบลคลองมะพลับอำเภอศรีนคร จังหวัดสุโขทัย และตำบลตลุกเทียมตำบลดงประคำ ตำบลศรีภิรมย์ ตำบลวงฆ้องอำเภอพรหมพิราม จังหวัดพิษณุโลก"
  }
}