{
  "pages": [
    [
      [
        "ประกาศสำนักนายกรัฐมนตรี",
        "เรื่อง กำหนดให้การเวนคืนอสังหาริมทรัพย์เพื่อขยายทางหลวง",
        "แผ่นดินหมายเลข 3312 สายแยกทางหลวงแผ่นดินหมายเลข 1",
        "(สนามกีฬาธูปเตมีย์)-คลอง 16",
        "เป็นกรณีที่มีความจำเป็นโดยเร่งด่วน"
      ]
    ],
    []
  ],
  "metadata": {
    "date_backmatter": "2542-02-18",
    "doctype": "ประกาศ",
    "editors": [],
    "tag": "c712-2e-2542-a003"
  }
}