{
  "pages": [
    [
      [
        "ประกาศสำนักนายกรัฐมนตรี",
        "เรื่อง กำหนดให้การเวนคืนอสังหาริมทรัพย์",
        "ในท้องที่ตำบลฉลอง อำเภอเมืองภูเก็ต จังหวัดภูเก็ต",
        "เป็นกรณีที่มีความจำเป็นโดยเร่งด่วน"
      ]
    ],
    []
  ],
  "metadata": {
    "date_backmatter": "2550-05-24",
    "date_modified": "2550-06-04",
    "date_original": "2550-06-04",
    "doctype": "ประกาศ",
    "editors": [
      {
        "name": "วัชศักดิ์",
        "role": "ผู้จัดทำ",
        "date": "2550-06-13"
      }
    ],
    "tag": "c712-2e-2550-a0007"
  }
}