{
  "pages": [
    [
      [
        "พระราชกฤษฎีกา",
        "กำหนดเขตที่ดินในบริเวณที่ที่จะเวนคืน",
        "ในท้องที่ตำบลกระบี่ใหญ่ และตำบลกระบี่น้อย",
        "อำเภอเมืองกระบี่ จังหวัดกระบี่",
        "พ.ศ. ๒๕๖๑",
        "",
        "",
        "สมเด็จพระเจ้าอยู่หัวมหาวชิราลงกรณ บดินทรเทพยวรางกูร",
        "ให้ไว้ ณ วันที่ ๑๐ พฤษภาคม พ.ศ. ๒๕๖๑",
        "เป็นปีที่ ๓ ในรัชกาลปัจจุบัน"
      ]
    ],
    []
  ],
  "metadata": {
    "date_header": "2561-05-10",
    "date_modified": "2561-05-13",
    "date_original": "2561-05-13",
    "doctype": "พระราชกฤษฎีกา",
    "editors": [
      {
        "name": "ปุณิกา",
        "role": "จัดทำ",
        "date": "2561-08-28"
      }
    ],
    "tag": "c712-2a-2561-a0010",
    "title": "กำหนดเขตที่ดินในบริเวณที่ที่จะเวนคืนในท้องที่ตำบลกระบี่ใหญ่ และตำบลกระบี่น้อยอำเภอเมืองกระบี่ จังหวัดกระบี่"
  }
}