{
  "pages": [
    [
      [
        "ประกาศสำนักนายกรัฐมนตรี",
        "เรื่อง กำหนดให้การเวนคืนอสังหาริมทรัพย์ในท้องที่ตำบลคันโช้ง ตำบลบ้านยาง ตำบลท่างาม",
        "ตำบลวัดโบสถ์ ตำบลท้อแท้ อำเภอวัดโบสถ์ ตำบลทับยายเชียง ตำบลหอกลอง อำเภอพรหมพิราม",
        "ตำบลบ้านกลาง ตำบลวังทอง ตำบลวังพิกุล ตำบลแม่ระกา อำเภอวังทอง และตำบลบ้านป่า",
        "ตำบลมะขามสูง ตำบลปากโทก ตำบลหัวรอ ตำบลดอนทอง ตำบลสมอแข",
        "ตำบลอรัญญิก ตำบลในเมือง ตำบลบึงพระ อำเภอเมืองพิษณุโลก",
        "จังหวัดพิษณุโลก เป็นกรณีที่มีความจำเป็นโดยเร่งด่วน"
      ]
    ],
    []
  ],
  "metadata": {
    "date_backmatter": "2552-05-18",
    "date_modified": "2552-05-28",
    "date_original": "2552-05-28",
    "doctype": "ประกาศ",
    "editors": [
      {
        "name": "ปริยานุช",
        "role": "ผู้จัดทำ",
        "date": "2552-06-02"
      }
    ],
    "tag": "c712-2e-2552-a0013"
  }
}