{
  "pages": [
    [
      [
        "ประกาศสำนักนายกรัฐมนตรี",
        "เรื่อง กำหนดให้การเวนคืนอสังหาริมทรัพย์ในท้องที่ตำบลตลาดขวัญ",
        "ตำบลสวนใหญ่ ตำบลบางศรีเมือง และตำบลบางกร่าง อำเภอเมืองนนทบุรี จังหวัดนนทบุรี",
        "เป็นกรณีที่มีความจำเป็นโดยเร่งด่วน"
      ]
    ],
    []
  ],
  "metadata": {
    "date_backmatter": "2550-03-12",
    "date_modified": "2550-03-26",
    "date_original": "2550-03-26",
    "doctype": "ประกาศ",
    "editors": [
      {
        "name": "วัชศักดิ์",
        "role": "ผู้จัดทำ",
        "date": "2550-04-04"
      }
    ],
    "tag": "c712-2e-2550-a0004"
  }
}