{
  "pages": [
    [
      [
        "ประกาศสำนักนายกรัฐมนตรี",
        "เรื่อง กำหนดให้การเวนคืนอสังหาริมทรัพย์ เพื่อสร้างทางหลวงแผ่นดินหมายเลข ๒๙๐",
        "สายถนนวงแหวนรอบเมืองนครราชสีมา ตอนบ้านห้วยตะคร้อ - บ้านบึงขามทะเลสอ",
        "เป็นกรณีที่มีความจำเป็นโดยเร่งด่วน"
      ]
    ],
    []
  ],
  "metadata": {
    "date_backmatter": "2560-12-15",
    "date_modified": "2560-12-22",
    "date_original": "2560-12-22",
    "doctype": "ประกาศ",
    "editors": [
      {
        "name": "พรวิภา/ภวรรณตรี",
        "role": "จัดทำ",
        "date": "2561-01-04"
      }
    ],
    "tag": "c712-2e-2560-a0011"
  }
}