{
  "pages": [
    [
      [
        "ประกาศสำนักนายกรัฐมนตรี",
        "เรื่อง กำหนดให้การเวนคืนอสังหาริมทรัพย์",
        "เพื่อสร้างและขยายทางหลวงแผ่นดินหมายเลข ๑๒",
        "สายแม่สอด (เขตแดน) - มุกดาหาร ตอนกาฬสินธุ์ - นาไคร้",
        "เป็นกรณีที่มีความจำเป็นโดยเร่งด่วน"
      ]
    ],
    []
  ],
  "metadata": {
    "date_backmatter": "2558-07-15",
    "date_modified": "2558-07-17",
    "date_original": "2558-07-17",
    "doctype": "ประกาศ",
    "editors": [
      {
        "name": "ปริยานุช",
        "role": "ผู้จัดทำ",
        "date": "2558-07-21"
      },
      {
        "name": "ปัญจพร",
        "role": "ผู้ตรวจ",
        "date": "2558-07-21"
      }
    ],
    "tag": "c712-2e-2558-a0016"
  }
}