{
  "pages": [
    [
      [
        "ประกาศสำนักนายกรัฐมนตรี",
        "เรื่อง กำหนดให้การเวนคืนอสังหาริมทรัพย์ในท้องที่เขตปทุมวัน เขตบางรัก",
        "เขตป้อมปราบศัตรูพ่าย เขตสัมพันธวงศ์ เขตพระนคร เขตธนบุรี เขตบางกอกใหญ่",
        "เขตภาษีเจริญ เขตจอมทอง และเขตบางแค กรุงเทพมหานคร",
        "เป็นกรณีที่มีความจำเป็นโดยเร่งด่วน"
      ]
    ],
    []
  ],
  "metadata": {
    "date_backmatter": "2550-08-27",
    "date_modified": "2550-09-17",
    "date_original": "2550-09-17",
    "doctype": "ประกาศ",
    "editors": [
      {
        "name": "ปริยานุช",
        "role": "ผู้จัดทำ",
        "date": "2550-09-27"
      }
    ],
    "tag": "c712-2e-2550-a0021"
  }
}