{
  "pages": [
    [
      [
        "พระราชกฤษฎีกา",
        "กำหนดเขตที่ดินในบริเวณที่ที่จะเวนคืน",
        "ในท้องที่ตำบลราชาเทวะ อำเภอบางพลี จังหวัดสมุทรปราการ",
        "และแขวงดอกไม้ เขตประเวศ กรุงเทพมหานคร",
        "พ.ศ. ๒๕๕๕",
        "",
        "",
        "ภูมิพลอดุลยเดช ป.ร.",
        "ให้ไว้ ณ วันที่ ๑๙ เมษายน พ.ศ. ๒๕๕๕",
        "เป็นปีที่ ๖๗ ในรัชกาลปัจจุบัน"
      ]
    ],
    []
  ],
  "metadata": {
    "date_header": "2555-04-19",
    "date_modified": "2555-04-27",
    "date_original": "2555-04-27",
    "doctype": "พระราชกฤษฎีกา",
    "editors": [
      {
        "name": "ปริยานุช",
        "role": "ผู้จัดทำ",
        "date": "2555-04-30"
      },
      {
        "name": "ปณตภร",
        "role": "ผู้ตรวจ",
        "date": "2555-04-30"
      }
    ],
    "tag": "c712-2a-2555-a0010",
    "title": "กำหนดเขตที่ดินในบริเวณที่ที่จะเวนคืนในท้องที่ตำบลราชาเทวะ อำเภอบางพลี จังหวัดสมุทรปราการและแขวงดอกไม้ เขตประเวศ กรุงเทพมหานคร"
  }
}