{
  "pages": [
    [
      [
        "ประกาศสำนักนายกรัฐมนตรี",
        "เรื่อง กำหนดให้การเวนคืนอสังหาริมทรัพย์ในท้องที่อำเภอเมืองอุบลราชธานี",
        "และอำเภอวารินชำราบ จังหวัดอุบลราชธานี",
        "เป็นกรณีที่มีความจำเป็นโดยเร่งด่วน"
      ]
    ],
    []
  ],
  "metadata": {
    "date_backmatter": "2546-03-28",
    "date_modified": "2546-04-04",
    "date_original": "2546-04-04",
    "doctype": "ประกาศ",
    "editors": [
      {
        "name": "สุภาพร",
        "role": "พิมพ์",
        "date": "2546-04-18"
      },
      {
        "name": "ศุภสรณ์",
        "role": "อภิสิทธิ์",
        "date": "2546-06-24"
      },
      {
        "name": "ผู้จัดทำ",
        "role": "๒๔",
        "date": "2546-06-24"
      }
    ],
    "tag": "c712-2e-2546-a0004"
  }
}