{
  "pages": [
    [
      [
        "พระราชกฤษฎีกา",
        "กำหนดเขตที่ดินในบริเวณที่ที่จะเวนคืน",
        "ในท้องที่ตำบลทรงธรรม และตำบลหนองปลิง",
        "อำเภอเมืองกำแพงเพชร จังหวัดกำแพงเพชร",
        "พ.ศ. ๒๕๖๐",
        "",
        "",
        "สมเด็จพระเจ้าอยู่หัวมหาวชิราลงกรณ บดินทรเทพยวรางกูร",
        "ให้ไว้ ณ วันที่ ๒๔ ธันวาคม พ.ศ. ๒๕๖๐",
        "เป็นปีที่ ๒ ในรัชกาลปัจจุบัน"
      ]
    ],
    []
  ],
  "metadata": {
    "date_header": "2560-12-24",
    "date_modified": "2560-12-27",
    "date_original": "2560-12-27",
    "doctype": "พระราชกฤษฎีกา",
    "editors": [
      {
        "name": "ปวันวิทย์/อัญชลี",
        "role": "จัดทำ",
        "date": "2561-01-03"
      },
      {
        "name": "ปริญสินีย์",
        "role": "ตรวจ",
        "date": "2561-01-10"
      }
    ],
    "tag": "c712-2a-2560-a0025",
    "title": "กำหนดเขตที่ดินในบริเวณที่ที่จะเวนคืนในท้องที่ตำบลทรงธรรม และตำบลหนองปลิงอำเภอเมืองกำแพงเพชร จังหวัดกำแพงเพชร"
  }
}