{
  "pages": [
    [
      [
        "พระราชบัญญัติ",
        "เวนคืนอสังหาริมทรัพย์ เพื่อสร้างทางพิเศษ",
        "สายเชื่อมระหว่างถนนวงแหวนอุตสาหกรรมกับทางพิเศษสายบางพลี  สุขสวัสดิ์",
        "ในท้องที่อำเภอพระประแดง จังหวัดสมุทรปราการ",
        "พ.ศ. ๒๕๕๗",
        "",
        "",
        "ภูมิพลอดุลยเดช ป.ร.",
        "ให้ไว้ ณ วันที่ ๑๘ ธันวาคม พ.ศ. ๒๕๕๗",
        "เป็นปีที่ ๖๙ ในรัชกาลปัจจุบัน"
      ]
    ],
    []
  ],
  "metadata": {
    "date_header": "2557-12-18",
    "date_modified": "2557-12-23",
    "date_original": "2557-12-23",
    "doctype": "พระราชบัญญัติ",
    "editors": [
      {
        "name": "ปริยานุช",
        "role": "ผู้จัดทำ",
        "date": "2558-01-05"
      },
      {
        "name": "ฐิติพงษ์",
        "role": "ตรวจ",
        "date": "2558-01-08"
      }
    ],
    "tag": "c712-20-2557-a0001",
    "title": "เวนคืนอสังหาริมทรัพย์ เพื่อสร้างทางพิเศษสายเชื่อมระหว่างถนนวงแหวนอุตสาหกรรมกับทางพิเศษสายบางพลี  สุขสวัสดิ์ในท้องที่อำเภอพระประแดง จังหวัดสมุทรปราการ"
  }
}