{
  "pages": [
    [
      [
        "ประกาศสำนักนายกรัฐมนตรี",
        "เรื่อง กำหนดให้การเวนคืนอสังหาริมทรัพย์",
        "ในท้องที่เขตจตุจักร เขตห้วยขวาง เขตวังทองหลาง เขตบางกะปิ",
        "เขตสวนหลวง เขตประเวศ เขตบางนา กรุงเทพมหานคร และอำเภอบางพลี",
        "อำเภอเมืองสมุทรปราการ จังหวัดสมุทรปราการ",
        "เป็นกรณีที่มีความจำเป็นโดยเร่งด่วน"
      ]
    ],
    []
  ],
  "metadata": {
    "date_backmatter": "2560-12-15",
    "date_modified": "2560-12-25",
    "date_original": "2560-12-25",
    "doctype": "ประกาศ",
    "editors": [
      {
        "name": "ปวันวิทย์/อัญชลี",
        "role": "จัดทำ",
        "date": "2561-01-05"
      }
    ],
    "tag": "c712-2e-2560-a0013"
  }
}