{
  "pages": [
    [
      [
        "พระราชกฤษฎีกา",
        "กำหนดเขตที่ดิน ในท้องที่ตำบลซึ้ง ตำบลวันยาว และตำบลบ่อ อำเภอขลุง จังหวัดจันทบุรี",
        "ให้เป็นเขตปฏิรูปที่ดิน",
        "พ.ศ. 2542",
        "---------------",
        "",
        "ภูมิพลอดุลยเดช ป.ร.",
        "ให้ไว้ ณ วันที่ 20 กุมภาพันธ์ พ.ศ. 2542",
        "เป็นปีที่ 54 ในรัชกาลปัจจุบัน"
      ]
    ],
    []
  ],
  "metadata": {
    "date_header": "2542-02-20",
    "editors": [],
    "tag": "c712-2a-2542-a025"
  }
}