{
  "pages": [
    [
      [
        "ประกาศสำนักนายกรัฐมนตรี",
        "เรื่อง กำหนดให้การเวนคืนอสังหาริมทรัพย์เพื่อสร้างและขยายทางหลวงแผ่นดินหมายเลข ๔๑๑๒",
        "สายเขามด-พุนพิน ตอนพุนพิน-ไชยา เป็นกรณีที่มีความจำเป็นโดยเร่งด่วน"
      ]
    ],
    []
  ],
  "metadata": {
    "date_backmatter": "2548-02-18",
    "date_modified": "2548-02-25",
    "date_original": "2548-02-25",
    "doctype": "ประกาศ",
    "editors": [
      {
        "name": "สุนันทา",
        "role": "ผู้จัดทำ",
        "date": "2548-06-16"
      }
    ],
    "tag": "c712-2e-2548-a0010"
  }
}