{
  "pages": [
    [
      [
        "พระราชกฤษฎีกา",
        "กำหนดเขตที่ดินในบริเวณที่ที่จะเวนคืน",
        "ในท้องที่ตำบลท่าเสา ตำบลท่าอิฐ และตำบลบ้านเกาะ",
        "อำเภอเมืองอุตรดิตถ์ จังหวัดอุตรดิตถ์",
        "พ.ศ. ๒๕๖๐",
        "",
        "",
        "สมเด็จพระเจ้าอยู่หัวมหาวชิราลงกรณ บดินทรเทพยวรางกูร",
        "ให้ไว้ ณ วันที่ ๒ กุมภาพันธ์ พ.ศ. ๒๕๖๐",
        "เป็นปีที่ ๒ ในรัชกาลปัจจุบัน"
      ]
    ],
    []
  ],
  "metadata": {
    "date_header": "2560-02-02",
    "date_modified": "2560-02-03",
    "date_original": "2560-02-03",
    "doctype": "พระราชกฤษฎีกา",
    "editors": [
      {
        "name": "ปุณิกา/ปริยานุช",
        "role": "จัดทำ",
        "date": "2560-02-07"
      }
    ],
    "tag": "c712-2a-2560-a0003",
    "title": "กำหนดเขตที่ดินในบริเวณที่ที่จะเวนคืนในท้องที่ตำบลท่าเสา ตำบลท่าอิฐ และตำบลบ้านเกาะอำเภอเมืองอุตรดิตถ์ จังหวัดอุตรดิตถ์"
  }
}