{
  "pages": [
    [
      [
        "พระราชกฤษฎีกา",
        "กำหนดเขตที่ดินในบริเวณที่ที่จะเวนคืน",
        "ในท้องที่ตำบลปงดอน ตำบลแจ้ห่ม ตำบลวิเชตนคร",
        "ตำบลบ้านสา อำเภอแจ้ห่ม ตำบลห้างฉัตร ตำบลหนองหล่ม ตำบลปงยางคก",
        "อำเภอห้างฉัตร ตำบลบ่อแฮ้ว ตำบลปงแสนทอง อำเภอเมืองลำปาง และตำบลใหม่พัฒนา",
        "ตำบลลำปางหลวง ตำบลไหล่หิน ตำบลเกาะคา อำเภอเกาะคา จังหวัดลำปาง",
        "พ.ศ. ๒๕๕๖",
        "",
        "",
        "ภูมิพลอดุลยเดช ป.ร.",
        "ให้ไว้ ณ วันที่ ๒๘ กุมภาพันธ์ พ.ศ. ๒๕๕๖",
        "เป็นปีที่ ๖๘ ในรัชกาลปัจจุบัน"
      ]
    ],
    []
  ],
  "metadata": {
    "date_header": "2556-02-28",
    "date_modified": "2556-03-13",
    "date_original": "2556-03-13",
    "doctype": "พระราชกฤษฎีกา",
    "editors": [
      {
        "name": "ปริยานุช",
        "role": "ผู้จัดทำ",
        "date": "2556-03-14"
      },
      {
        "name": "ณัฐพร",
        "role": "ผู้ตรวจ",
        "date": "2556-03-14"
      }
    ],
    "tag": "c712-2a-2556-a0002",
    "title": "กำหนดเขตที่ดินในบริเวณที่ที่จะเวนคืนในท้องที่ตำบลปงดอน ตำบลแจ้ห่ม ตำบลวิเชตนครตำบลบ้านสา อำเภอแจ้ห่ม ตำบลห้างฉัตร ตำบลหนองหล่ม ตำบลปงยางคกอำเภอห้างฉัตร ตำบลบ่อแฮ้ว ตำบลปงแสนทอง อำเภอเมืองลำปาง และตำบลใหม่พัฒนาตำบลลำปางหลวง ตำบลไหล่หิน ตำบลเกาะคา อำเภอเกาะคา จังหวัดลำปาง"
  }
}