{
  "pages": [
    [
      [
        "ประกาศสำนักนายกรัฐมนตรี",
        "เรื่อง กำหนดให้การเวนคืนอสังหาริมทรัพย์",
        "ในท้องที่ตำบลท่าลาด อำเภอวารินชำราบ จังหวัดอุบลราชธานี",
        "เป็นกรณีที่มีความจำเป็นโดยเร่งด่วน"
      ]
    ],
    []
  ],
  "metadata": {
    "date_backmatter": "2556-09-27",
    "date_modified": "2556-10-07",
    "date_original": "2556-10-07",
    "doctype": "ประกาศ",
    "editors": [
      {
        "name": "ปริยานุช",
        "role": "ผู้จัดทำ",
        "date": "2556-10-10"
      },
      {
        "name": "อุษมล",
        "role": "ผู้ตรวจ",
        "date": "2556-10-14"
      }
    ],
    "tag": "c712-2e-2556-a0017"
  }
}