{
  "pages": [
    [
      [
        "พระราชกฤษฎีกา",
        "กำหนดเขตที่ดิน ในท้องที่ตำบลนายาง",
        "ตำบลท่าสัก ตำบลบ้านดารา ตำบลในเมือง ตำบลนาอิน",
        "อำเภอพิชัย จังหวัดอุตรดิตถ์ และตำบลดงประคำ",
        "อำเภอพรหมพิราม จังหวัดพิษณุโลก",
        "ให้เป็นเขตปฏิรูปที่ดิน",
        "พ.ศ. 2541",
        "---------",
        "",
        "ภูมิพลอดุลยเดช ป.ร.",
        "ให้ไว้ ณ วันที่ 28 เมษายน พ.ศ. 2541",
        "เป็นปีที่ 53 ในรัชกาลปัจจุบัน"
      ]
    ],
    []
  ],
  "metadata": {
    "date_header": "2541-04-28",
    "editors": [],
    "tag": "c712-2a-2541-a077"
  }
}