{
  "pages": [
    [
      [
        "พระราชกฤษฎีกา",
        "กำหนดเขตที่ดิน ในท้องที่ตำบลกุดเค้า อำเภอมัญจาคีรี ตำบลโนนพะยอม ตำบลวังแสง",
        "ตำบลกุดเพียงขอม ตำบลห้วยแก อำเภอชนบท ตำบลโนนสะอาด ตำบลแวงใหญ่",
        "ตำบลคอนฉิม ตำบลใหม่นาเพียง ตำบลโนนทอง อำเภอแวงใหญ่ และตำบลก้านเหลือง",
        "ตำบลท่านางแนว ตำบลละหานนา ตำบลแวงน้อย อำเภอแวงน้อย จังหวัดขอนแก่น",
        "ให้เป็นเขตปฏิรูปที่ดิน",
        "พ.ศ. 2542",
        "---------------",
        "",
        "ภูมิพลอดุลยเดช ป.ร.",
        "ให้ไว้ ณ วันที่ 20 กุมภาพันธ์ พ.ศ. 2542",
        "เป็นปีที่ 54 ในรัชกาลปัจจุบัน"
      ]
    ],
    []
  ],
  "metadata": {
    "date_header": "2542-02-20",
    "editors": [],
    "tag": "c712-2a-2542-a027"
  }
}