{
  "pages": [
    [
      [
        "พระราชกฤษฎีกา",
        "กำหนดเขตที่ดินในบริเวณที่ที่จะเวนคืน",
        "ในท้องที่อำเภอเมืองสมุทรปราการ จังหวัดสมุทรปราการ",
        "พุทธศักราช ๒๔๘๑",
        "",
        "",
        "ในพระปรมาภิไธยสมเด็จพระเจ้าอยู่หัวอานันทมหิดล",
        "คณะผู้สำเร็จราชการแทนพระองค์",
        "(ตามประกาศประธานสภาผู้แทนราษฎร",
        "ลงวันที่ ๔ สิงหาคม พุทธศักราช ๒๔๘๐)",
        "อาทิตย์ ทิพอาภา",
        "พล.อ. เจ้าพระยาพิชเยนทร โยธิน",
        "ตราไว้ ณ วันที่ ๒๓ กุมภาพันธ์ พุทธศักราช ๒๔๘๑",
        "เป็นปีที่ ๕ ในรัชกาลปัจจุบัน"
      ]
    ],
    []
  ],
  "metadata": {
    "date_header": "2480-08-04",
    "date_modified": "2481-02-24",
    "date_original": "2481-02-24",
    "doctype": "พระราชกฤษฎีกา",
    "editors": [
      {
        "name": "มณฑาทิพย์",
        "role": "พิมพ์",
        "date": "2546-09-02"
      },
      {
        "name": "ศุภสรณ์",
        "role": "นวพร แก้ไข",
        "date": "2546-09-04"
      }
    ],
    "tag": "c712-2a-2481-a015",
    "title": "กำหนดเขตที่ดินในบริเวณที่ที่จะเวนคืนในท้องที่อำเภอเมืองสมุทรปราการ จังหวัดสมุทรปราการ"
  }
}