{
  "pages": [
    [
      [
        "ประกาศสำนักนายกรัฐมนตรี",
        "เรื่อง กำหนดให้การเวนคืนอสังหาริมทรัพย์",
        "ในท้องที่ตำบลนาด้วง อำเภอนาด้วง จังหวัดเลย",
        "เป็นกรณีที่มีความจำเป็นโดยเร่งด่วน"
      ]
    ],
    []
  ],
  "metadata": {
    "date_backmatter": "2560-09-01",
    "date_modified": "2560-09-13",
    "date_original": "2560-09-13",
    "doctype": "ประกาศ",
    "editors": [
      {
        "name": "ปวันวิทย์/ภวรรณตรี",
        "role": "จัดทำ",
        "date": "2560-09-14"
      }
    ],
    "tag": "c712-2e-2560-a0009"
  }
}