{
  "pages": [
    [
      [
        "พระราชบัญญัติ",
        "เวนคืนอสังหาริมทรัพย์ ในท้องที่ตำบลหนองครก",
        "อำเภอเมืองศรีสะเกษ จังหวัดศรีสะเกษ เพื่อสร้างทางหลวงแผ่นดิน",
        "หมายเลข ๒๒๖ สายนครราชสีมา - อุบลราชธานี",
        "ตอนเลี่ยงเมืองศรีสะเกษ",
        "พ.ศ. ๒๕๔๑",
        "__________",
        "",
        "ภูมิพลอดุลยเดช ป.ร.",
        "ให้ไว้ ณ วันที่ ๑๑ กุมภาพันธ์ พ.ศ. ๒๕๔๑",
        "เป็นปีที่ ๕๓ ในรัชกาลปัจจุบัน"
      ]
    ],
    []
  ],
  "metadata": {
    "date_header": "2541-02-11",
    "editors": [],
    "tag": "c712-20-2541-a007"
  }
}