{
  "pages": [
    [
      [
        "พระราชกฤษฎีกา",
        "กำหนดเขตที่ดิน ในท้องที่ตำบลดงมะไฟ ตำบลดู่ลาด ตำบลทรายมูล อำเภอทรายมูล",
        "และตำบลเดิด ตำบลขั้นไดใหญ่ ตำบลทุ่งแต้ ตำบลดู่ทุ่ง ตำบลค้อเหนือ อำเภอเมืองยโสธร",
        "จังหวัดยโสธร",
        "ให้เป็นเขตปฏิรูปที่ดิน",
        "พ.ศ. 2542",
        "---------------",
        "",
        "ภูมิพลอดุลยเดช ป.ร.",
        "ให้ไว้ ณ วันที่ 18 กุมภาพันธ์ พ.ศ. 2542",
        "เป็นปีที่ 54 ในรัชกาลปัจจุบัน"
      ]
    ],
    []
  ],
  "metadata": {
    "date_header": "2542-02-18",
    "editors": [],
    "tag": "c712-2a-2542-a011"
  }
}