{
  "pages": [
    [
      [
        "พระราชกฤษฎีกา",
        "กำหนดเขตที่ดิน ในท้องที่ตำบลวังงิ้ว",
        "กิ่งอำเภอดงเจริญ อำเภอบางมูลนาก จังหวัดพิจิตร",
        "ให้เป็นเขตปฏิรูปที่ดิน",
        "พ.ศ.2541",
        "----------",
        "",
        "ภูมิพลอดุลยเดช ป.ร.",
        "ให้ไว้ ณ วันที่ 20 มีนาคม พ.ศ.2541",
        "เป็นปีที่ 53 ในรัชกาลปัจจุบัน"
      ]
    ],
    []
  ],
  "metadata": {
    "date_header": "2541-03-20",
    "editors": [],
    "tag": "c712-2a-2541-a036"
  }
}