{
  "pages": [
    [
      [
        "ประกาศสำนักนายกรัฐมนตรี",
        "เรื่อง กำหนดให้การเวนคืนอสังหาริมทรัพย์ เพื่อขยายทางหลวงท้องถิ่น",
        "สายซอยสุขุมวิท ๖๖ และสายเชื่อมระหว่างซอยสุขุมวิท ๖๖ กับซอยสุขุมวิท ๖๖/๑",
        "และเพื่อสร้างทางหลวงท้องถิ่น สายเชื่อมระหว่างซอยสุขุมวิท ๖๖ กับซอยสุขุมวิท ๖๔",
        "เป็นกรณีที่มีความจำเป็นโดยเร่งด่วน"
      ]
    ],
    []
  ],
  "metadata": {
    "date_backmatter": "2552-11-09",
    "date_modified": "2552-11-26",
    "date_original": "2552-11-26",
    "doctype": "ประกาศ",
    "editors": [
      {
        "name": "ปริยานุช",
        "role": "ผู้จัดทำ",
        "date": "2552-12-03"
      },
      {
        "name": "นันท์นภัสร์",
        "role": "ตรวจ",
        "date": "2552-12-03"
      }
    ],
    "tag": "c712-2e-2552-a0025"
  }
}