{
  "pages": [
    [
      [
        "ระเบียบกรมสรรพสามิต",
        "ว่าด้วยการส่งเงินเข้ากองทุนเพื่อส่งเสริมการอนุรักษ์พลังงาน",
        "และการขอรับเงินคืนจากกองทุนเพื่อส่งเสริมการอนุรักษ์พลังงาน",
        "พ.ศ. ๒๕๔๒"
      ]
    ],
    []
  ],
  "metadata": {
    "date_backmatter": "2542-03-29",
    "editors": [],
    "tag": "a128-2g-2542-a0001"
  }
}