{
  "pages": [
    [
      [
        "ระเบียบกรมสรรพสามิต",
        "ว่าด้วยการส่งเงินเข้ากองทุนเพื่อส่งเสริมการอนุรักษ์พลังงาน",
        "และการขอรับเงินคืนจากกองทุนเพื่อส่งเสริมการอนุรักษ์พลังงาน",
        "(ฉบับที่ ๒) พ.ศ. ๒๕๕๙"
      ]
    ],
    []
  ],
  "metadata": {
    "date_backmatter": "2559-11-28",
    "date_modified": "2559-12-19",
    "date_original": "2559-12-19",
    "editors": [
      {
        "name": "ปริยานุช",
        "role": "จัดทำ",
        "date": "2559-12-22"
      },
      {
        "name": "ชวัลพร",
        "role": "ตรวจ",
        "date": "2560-01-10"
      }
    ],
    "tag": "a128-2g-2559-a0001"
  }
}