{
  "pages": [
    [
      [
        "กฎกระทรวง",
        "กำหนดมาตรฐาน หลักเกณฑ์ และวิธีการจัดการพลังงาน",
        "ในโรงงานควบคุมและอาคารควบคุม",
        "พ.ศ. ๒๕๕๒"
      ]
    ],
    []
  ],
  "metadata": {
    "date_backmatter": "2552-06-25",
    "date_modified": "2552-07-23",
    "date_original": "2552-07-23",
    "doctype": "กฎกระทรวง",
    "editors": [
      {
        "name": "ปริยานุช",
        "role": "ผู้จัดทำ",
        "date": "2552-07-28"
      }
    ],
    "tag": "a128-2b-2552-a0010"
  }
}