{
  "pages": [
    [
      [
        "ประกาศกระทรวงพลังงาน",
        "เรื่อง กำหนดค่าประสิทธิภาพพลังงาน หน่วยงานทดสอบหาค่าประสิทธิภาพพลังงาน",
        "มาตรฐานและวิธีการทดสอบหาค่าประสิทธิภาพพลังงานของตู้เย็นที่มีประสิทธิภาพสูง",
        "พ.ศ. ๒๕๕๒"
      ]
    ],
    []
  ],
  "metadata": {
    "date_backmatter": "2552-12-09",
    "date_modified": "2553-02-01",
    "date_original": "2553-02-01",
    "doctype": "ประกาศ",
    "editors": [
      {
        "name": "ปริยานุช",
        "role": "ผู้จัดทำ",
        "date": "2553-02-11"
      },
      {
        "name": "นันท์นภัสร์",
        "role": "ตรวจ",
        "date": "2553-02-11"
      }
    ],
    "tag": "a128-2e-2553-a0002"
  }
}