{
  "pages": [
    [
      [
        "ประกาศกระทรวงวิทยาศาสตร์ เทคโนโลยีและสิ่งแวดล้อม",
        "เรื่อง ค่าสัมประสิทธิ์การนำความร้อนของวัสดุ ค่าความต้านทานความร้อน",
        "ของฟิล์มอากาศ ค่าความแตกต่างอุณหภูมิเทียบเท่า ค่าความแตกต่าง",
        "อุณหภูมิระหว่างภายในและภายนอกอาคารสัมประสิทธิ์การบังแดด",
        "ของหน้าต่าง และค่าตัวประกอบรังสีอาทิตย์"
      ]
    ],
    []
  ],
  "metadata": {
    "date_backmatter": "2539-05-15",
    "date_modified": "2539-07-17",
    "date_original": "2539-07-17",
    "doctype": "ประกาศ",
    "editors": [
      {
        "name": "สุกัญญา",
        "role": "ผู้จัดทำ",
        "date": "2548-12-01"
      }
    ],
    "tag": "a128-2e-2539-003"
  }
}