{
  "pages": [
    [
      [
        "ประกาศอธิบดีกรมพัฒนาพลังงานทดแทนและอนุรักษ์พลังงาน",
        "เรื่อง กำหนดคุณสมบัติ หลักเกณฑ์ วิธีการ และเงื่อนไข ของวัสดุ อุปกรณ์ หรือเครื่องจักร",
        "ที่มีผลต่อการประหยัดพลังงาน (ฉบับที่ ๕) พ.ศ. ๒๕๕๓"
      ]
    ],
    []
  ],
  "metadata": {
    "date_backmatter": "2553-04-02",
    "date_modified": "2553-05-20",
    "date_original": "2553-05-20",
    "doctype": "ประกาศ",
    "editors": [
      {
        "name": "ปริยานุช",
        "role": "ผู้จัดทำ",
        "date": "2553-06-09"
      },
      {
        "name": "นันท์นภัสร์",
        "role": "ตรวจ",
        "date": "2553-06-09"
      }
    ],
    "tag": "a128-2e-2553-a0007"
  }
}