{
  "pages": [
    [
      [
        "ประกาศกรมพัฒนาพลังงานทดแทนและอนุรักษ์พลังงาน",
        "เรื่อง แบบการแต่งตั้งผู้รับผิดชอบด้านพลังงาน",
        "พ.ศ. ๒๕๕๒"
      ]
    ],
    []
  ],
  "metadata": {
    "date_backmatter": "2552-08-10",
    "date_modified": "2552-09-18",
    "date_original": "2552-09-18",
    "doctype": "ประกาศ",
    "editors": [
      {
        "name": "ปริยานุช",
        "role": "ผู้จัดทำ",
        "date": "2552-09-30"
      }
    ],
    "tag": "a128-2e-2552-a0004"
  }
}