{
  "pages": [
    [
      [
        "ประกาศกระทรวงพลังงาน",
        "เรื่อง กำหนดค่าประสิทธิภาพพลังงาน หน่วยงานทดสอบและมาตรฐานและวิธีการทดสอบ",
        "หาค่าประสิทธิภาพพลังงานของแบลลัสต์อิเล็กทรอนิกส์ที่มีประสิทธิภาพสูงสำหรับหลอดฟลูออเรสเซนซ์",
        "พ.ศ. ๒๕๖๐"
      ]
    ],
    []
  ],
  "metadata": {
    "date_backmatter": "2560-01-10",
    "date_modified": "2560-02-23",
    "date_original": "2560-02-23",
    "doctype": "ประกาศ",
    "editors": [
      {
        "name": "พิมพ์มาดา/ปริยานุช",
        "role": "จัดทำ",
        "date": "2560-02-27"
      },
      {
        "name": "ปริญสินีย์",
        "role": "ตรวจ",
        "date": "2560-04-05"
      }
    ],
    "tag": "a128-2e-2560-a0012"
  }
}