{
  "pages": [
    [
      [
        "ประกาศกระทรวงวิทยาศาสตร์ เทคโนโลยี",
        "และสิ่งแวดล้อม",
        "เรื่อง หลักเกณฑ์การขึ้นทะเบียนที่ปรึกษาด้านการอนุรักษ์",
        "พลังงานในอาคารควบคุม"
      ]
    ],
    []
  ],
  "metadata": {
    "date_backmatter": "2539-06-12",
    "date_gz_old": "2539-07-18",
    "doctype": "ประกาศ",
    "editors": [
      {
        "name": "ธิดาวรรณ",
        "role": "แก้ไข",
        "date": "2545-07-29"
      }
    ],
    "tag": "a128-2e-2539-a002"
  }
}