{
  "pages": [
    [
      [
        "คำสั่งคณะกรรมการกองทุนเพื่อส่งเสริมการอนุรักษ์พลังงาน",
        "ที่ ๓/๒๕๕๗",
        "เรื่อง แต่งตั้งคณะอนุกรรมการกองทุนเพื่อส่งเสริมการอนุรักษ์พลังงาน"
      ]
    ],
    []
  ],
  "metadata": {
    "date_backmatter": "2557-07-02",
    "editors": [],
    "tag": "a128-2f-2557-a0001"
  }
}