{
  "pages": [
    [
      [
        "กฎกระทรวง",
        "กำหนดเตาไมโครเวฟที่มีประสิทธิภาพสูง",
        "พ.ศ. ๒๕๕๘"
      ]
    ],
    []
  ],
  "metadata": {
    "date_backmatter": "2558-07-23",
    "date_modified": "2558-08-11",
    "date_original": "2558-08-11",
    "doctype": "กฎกระทรวง",
    "editors": [
      {
        "name": "ปริยานุช",
        "role": "ผู้จัดทำ",
        "date": "2558-08-18"
      },
      {
        "name": "ปุณิกา",
        "role": "ผู้ตรวจ",
        "date": "2558-08-25"
      }
    ],
    "tag": "a128-2b-2558-a0018"
  }
}