{
  "pages": [
    [
      [
        "ประกาศกระทรวงวิทยาศาสตร์ เทคโนโลยี",
        "และสิ่งแวดล้อม",
        "เรื่อง หลักเกณฑ์การขึ้นทะเบียนที่ปรึกษาด้านการอนุรักษ์พลังงาน",
        "ในอาคารควบคุม (ฉบับที่ ๒) พ.ศ. ๒๕๔๒"
      ]
    ],
    []
  ],
  "metadata": {
    "date_backmatter": "2542-10-22",
    "date_modified": "2543-08-09",
    "date_original": "2543-08-09",
    "doctype": "ประกาศ",
    "editors": [
      {
        "name": "ชไมพร",
        "role": "แก้ไข",
        "date": "2545-04-30"
      },
      {
        "name": "สุกัญญา",
        "role": "ผู้จัดทำ",
        "date": "2548-12-01"
      }
    ],
    "tag": "a128-2e-2543-a002"
  }
}