{
  "pages": [
    [
      [
        "พระราชบัญญัติ",
        "แก้ไขเพิ่มเติมประมวลกฎหมายอาญา (ฉบับที่ ๑๑)",
        "พ.ศ. ๒๕๓๕",
        "",
        "",
        "ภูมิพลอดุลยเดช ป.ร.",
        "ให้ไว้ ณ วันที่ ๑๔ กุมภาพันธ์ พ.ศ. ๒๕๓๕",
        "เป็นปีที่ ๔๗ ในรัชกาลปัจจุบัน",
        "",
        "พระบาทสมเด็จพระปรมินทรมหาภูมิพลอดุลยเดช มีพระบรมราชโองการ",
        "โปรดเกล้า ฯ ให้ประกาศว่า",
        "",
        "โดยที่เป็นการสมควรแก้ไขเพิ่มเติมประมวลกฎหมายอาญา",
        "",
        "จึงทรงพระกรุณาโปรดเกล้า ฯ ให้ตราพระราชบัญญัติขึ้นไว้โดยคำแนะนำและยิน",
        "ยอมของสภานิติบัญญัติแห่งชาติ ทำหน้าที่รัฐสภา ดังต่อไปนี้",
        "",
        "มาตรา ๑ พระราชบัญญัตินี้เรียกว่า “พระราชบัญญัติแก้ไขเพิ่มเติมประมวล",
        "กฎหมายอาญา (ฉบับที่ ๑๑) พ.ศ. ๒๕๓๕”",
        "",
        "มาตรา ๒* พระราชบัญญัตินี้ให้ใช้บังคับตั้งแต่วันถัดจากวันประกาศในราชกิจจานุเบกษาเป็นต้นไป",
        "*[รก. ๒๕๓๕/๑๓/๑/๒๕ กุมภาพันธ์ ๒๕๓๕]",
        "",
        "มาตรา ๓ ให้ยกเลิกความในมาตรา ๓๒๖ แห่งประมวลกฎหมายอาญา",
        "ซึ่งแก้ไขเพิ่มเติมโดยคำสั่งของคณะปฏิรูปการปกครองแผ่นดิน ฉบับที่ ๔๑ ลงวันที่ ๒๑ ตุลาคม",
        "พ.ศ. ๒๕๑๙ และให้ใช้ความต่อไปนี้แทน",
        "“มาตรา ๓๒๖ ผู้ใดใส่ความผู้อื่นต่อบุคคลที่สาม โดยประการที่น่าจะทำให้",
        "ผู้อื่นนั้นเสียชื่อเสียง ถูกดูหมิ่น หรือถูกเกลียดชัง ผู้นั้นกระทำความผิดฐานหมิ่นประมาท ต้อง",
        "ระวางโทษจำคุกไม่เกินหนึ่งปี หรือปรับไม่เกินสองหมื่นบาท หรือทั้งจำทั้งปรับ”",
        "",
        "มาตรา ๔ ให้ยกเลิกความในมาตรา ๓๒๘ แห่งประมวลกฎหมายอาญา",
        "ซึ่งแก้ไขเพิ่มเติมโดยคำสั่งของคณะปฏิรูปการปกครองแผ่นดิน ฉบับที่ ๔๑ ลงวันที่ ๒๑ ตุลาคม",
        "พ.ศ. ๒๕๑๙ และให้ใช้ความต่อไปนี้แทน",
        "“มาตรา ๓๒๘ ถ้าความผิดฐานหมิ่นประมาทได้กระทำโดยการโฆษณาด้วยเอกสาร ภาพวาด ภาพระบายสี ภาพยนตร์ ภาพหรือตัวอักษรที่ทำให้ปรากฏไม่ว่าด้วยวิธีใด ๆ แผ่นเสียง หรือสิ่งบันทึกเสียง บันทึกภาพ หรือบันทึกอักษร กระทำโดยการกระจายเสียง หรือการกระจายภาพ หรือโดยกระทำการป่าวประกาศด้วยวิธีอื่น ผู้กระทำต้องระวางโทษจำคุกไม่เกินสองปี และปรับไม่เกินสองแสนบาท”",
        "",
        "ผู้รับสนองพระบรมราชโองการ",
        "อานันท์ ปันยารชุน",
        "นายกรัฐมนตรี",
        "",
        "",
        "",
        "",
        "",
        "",
        "",
        "",
        "",
        "",
        "",
        "",
        "",
        "",
        "",
        "",
        "",
        "",
        "",
        "",
        "",
        "",
        "",
        "หมายเหตุ :- เหตุผลในการประกาศใช้พระราชบัญญัติฉบับนี้ คือ ด้วยปรากฏว่าในปัจจุบันมีผู้กระทำความผิดฐานหมิ่นประมาทมากขึ้น ขณะเดียวกันบทบัญญัติเกี่ยวกับอัตราโทษที่ใช้บังคับกับผู้กระทำความผิดไม่เหมาะสมกับสภาวการณ์จึงทำให้ผู้กระทำความผิดดังกล่าวไม่เกรงกลัว สมควรแก้ไขเพิ่มเติมอัตราโทษให้สูงขึ้น จึงจำเป็นต้องตราพระราชบัญญัตินี้",
        "",
        "",
        "ปรียนันท์/แก้ไข",
        "๖ / ๓ / ๔๕",
        "A+B(C)"
      ]
    ],
    []
  ],
  "metadata": {
    "date_header": "2535-02-14",
    "doctype": "พระราชบัญญัติ",
    "editors": [],
    "tag": "bb06-20-2535-011",
    "title": "แก้ไขเพิ่มเติมประมวลกฎหมายอาญา (ฉบับที่ ๑๑)"
  }
}