{
  "pages": [
    [
      [
        "ประมวลกฎหมายอาญา"
      ]
    ],
    []
  ],
  "metadata": {
    "editors": [
      {
        "name": "--------------------[ ตรวจแล้ว ]---------------------",
        "role": "[21",
        "date": "2542-03-21"
      }
    ],
    "tag": "bb06-20-2540-a0002"
  }
}