{
  "pages": [
    [
      [
        "ประกาศของคณะปฏิวัติ",
        "ฉบับที่ ๑๑"
      ]
    ],
    []
  ],
  "metadata": {
    "date_backmatter": "2514-11-21",
    "date_gz_old": "2514-11-21",
    "doctype": "ประกาศ",
    "editors": [
      {
        "name": "ภคินี",
        "role": "แก้ไข",
        "date": "2545-03-19"
      }
    ],
    "tag": "bb06-2l-2514-a0001"
  }
}