{
  "pages": [
    [
      [
        "พระราชบัญญัติ",
        "แก้ไขเพิ่มเติมประมวลกฎหมายอาญา (ฉบับที่ ๑๗)",
        "พ.ศ. ๒๕๔๗",
        "",
        "",
        "ภูมิพลอดุลยเดช ป.ร.",
        "ให้ไว้ ณ วันที่ ๑๒ ตุลาคม พ.ศ. ๒๕๔๗",
        "เป็นปีที่ ๕๙ ในรัชกาลปัจจุบัน",
        "",
        "พระบาทสมเด็จพระปรมินทรมหาภูมิพลอดุลยเดช ที่มีพระบรมราชโองการโปรดเกล้าฯ ให้ประกาศว่า",
        "",
        "โดยที่เป็นการสมควรแก้ไขเพิ่มเติมตามประมวลกฎหมายอาญา",
        "",
        "จึงทรงพระกรุณาโปรดเกล้าฯ ให้ตราพระราชบัญญัติขึ้นไว้โดยคำแนะนำและยินยอมของรัฐสภา ดังต่อไปนี้",
        "",
        "มาตรา ๑ พระราชบัญญัตินี้เรียกว่า “พระราชบัญญัติแก้ไขเพิ่มเติมประมวลกฎหมายอาญา (ฉบับที่ ๑๗) พ.ศ. ๒๕๔๗”",
        "",
        "มาตรา ๒ พระราชบัญญัตินี้ให้ใช้บังคับตั้งแต่วันถัดจากวันวันประกาศในราชกิจจานุเบกษาเป็นต้นไป",
        "",
        "มาตรา ๓ ให้เพิ่มความต่อไปนี้เป็น (๑๔) ของมาตรา ๑ แห่งประมวลกฎหมายอาญา",
        "“(๑๔) “บัตรอิเล็กทรอนิกส์” หมายความว่า",
        "(ก) เอกสารหรือวัตถุอื่นใดไม่ว่าจะมีรูปลักษณะใดที่ผู้ออกได้ออกให้แก่ผู้มีสิทธิใช้ ซึ่งจะระบุชื่อหรือไม่ก็ตาม โดยบันทึกข้อมูลหรือรหัสไว้ด้วยการประยุกต์ใช้วิธีการทางอิเล็กตรอน ไฟฟ้า คลื่นแม่เหล็กไฟฟ้า หรือวิธีอื่นใดในลักษณะคล้ายกัน ซึ่งรวมถึงการประยุกต์ใช้วิธีการทางแสงหรือวิธีการทางแม่เหล็กให้ปรากฏความหมายด้วยตัวอักษร ตัวเลข รหัส หมายเลขบัตร หรือสัญลักษณ์อื่นใด ทั้งที่สามารถมองเห็นและมองไม่เห็นด้วยตาเปล่า",
        "(ข) ข้อมูล รหัส หมายเลขบัญชี หมายเลขชุดทางอิเล็กทรอนิกส์หรือเครื่องมือทางตัวเลขใด ๆ ที่ผู้ออกได้ออกให้แก่ผู้มีสิทธิใช้ โดยมิได้มีการออกเอกสารหรือวัตถุอื่นใดให้ แต่มีวิธีการใช้ในทำนองเดียวกัน (ก) หรือ",
        "(ค) สิ่งอื่นใดที่ใช้ประกอบกับข้อมูลอิเล็กทรอนิกส์เพื่อแสดงความสัมพันธ์ระหว่างบุคคลกับข้อมูลอิเล็กทรอนิกส์ โดยมีวัตถุประสงค์เพื่อระบุตัวบุคคลผู้เป็นเจ้าของ”",
        "",
        "มาตรา ๔ ให้เพิ่มความต่อไปนี้เป็น (๒/๑) ของมาตรา ๘ แห่งประมวลกฎหมายอาญา",
        "“(๒/๑) ความผิดเกี่ยวกับบัตรอิเล็กทรอนิกส์ตามที่บัญญัติไว้ในมาตรา ๒๖๙/๑ ถึงมาตรา ๒๖๙/๗”",
        "",
        "มาตรา ๕ ให้เพิ่มความต่อไปนี้เป็นหมวด ๔ ความผิดเกี่ยวกับบัตรอิเล็กทรอนิกส์ ของลักษณะ ๗ ความผิดเกี่ยวกับการปลอมและการแปลง มาตรา ๒๖๙/๑ มาตรา ๒๖๙/๒ มาตรา ๒๖๙/๓ มาตรา ๒๖๙/๔ มาตรา ๒๖๙/๕ มาตรา ๒๖๙/๖ และมาตรา ๒๖๙/๗ แห่งประมวลกฎหมายอาญา",
        "“หมวด ๔",
        "ความผิดเกี่ยวกับบัตรอิเล็กทรอนิกส์",
        "",
        "",
        "มาตรา ๒๖๙/๑ ผู้ใดทำบัตรอิเล็กทรอนิกส์ปลอมขึ้นทั้งฉบับหรือแต่ส่วนหนึ่งส่วนใด เติมหรือตัดทอนข้อความ หรือแก้ไขด้วยประการใด ๆ ในบัตรอิเล็กทรอนิกส์ที่แท้จริง โดยประการที่น่าจะเกิดความเสียหายแก่ผู้อื่นหรือประชาชน ถ้าได้กระทำเพื่อให้ผู้หนึ่งผู้ใดหลงเชื่อว่าเป็นบัตรอิเล็กทรอนิกส์ที่แท้จริงหรือเพื่อใช้ประโยชน์อย่างหนึ่งอย่างใด ผู้นั้นกระทำความผิดฐานปลอมบัตรอิเล็กทรอนิกส์ ต้องระวางโทษจำคุกตั้งแต่หนึ่งปีถึงห้าปี และปรับตั้งแต่สองหมื่นบาทถึงหนึ่งแสนบาท",
        "มาตรา ๒๖๙/๒ ผู้ใดทำเครื่องมือหรือวัตถุสำหรับปลอมหรือแปลง หรือสำหรับให้ได้ข้อมูลในการปลอมหรือแปลงสิ่งใด ๆ ซึ่งระบุไว้ในมาตรา ๒๖๙/๑ หรือมีเครื่องมือหรือวัตถุเช่นว่านั้น เพื่อใช้หรือให้ได้ข้อมูลในการปลอมหรือแปลง ต้องระวางโทษจำคุกตั้งแต่หนึ่งปีถึงห้าปี และปรับตั้งแต่สองหมื่นบาทถึงหนึ่งแสนบาท",
        "มาตรา ๒๖๙/๓ ผู้ใดนำเข้าในหรือส่งออกไปนอกราชอาณาจักรซึ่งสิ่งใด ๆ ตามมาตรา ๒๖๙/๑ หรือมาตรา ๒๖๙/๒ ต้องระวางโทษจำคุกตั้งแต่สามปีถึงสิบปี และปรับตั้งแต่หกหมื่นบาทถึงสองแสนบาท",
        "มาตรา ๒๖๙/๔ ผู้ใดใช้หรือมีไว้เพื่อใช้ซึ่งสิ่งใด ๆ ตามมาตรา ๒๖๙/๑ อันได้มาโดยรู้ว่าเป็นของที่ทำปลอมหรือแปลงขึ้น ต้องระวางโทษจำคุกตั้งแต่หนึ่งปีถึงเจ็ดปี หรือปรับตั้งแต่สองหมื่นบาทถึงหนึ่งแสนสี่หมื่นบาท หรือทั้งจำทั้งปรับ",
        "ผู้ใดจำหน่ายหรือมีไว้เพื่อจำหน่ายซึ่งสิ่งใด ๆ ที่ทำปลอมหรือแปลงขึ้นตามมาตรา ๒๖๙/๑ ต้องระวางโทษจำคุกตั้งแต่หนึ่งปีถึงสิบปี หรือปรับตั้งแต่สองหมื่นบาทถึงสองแสนบาท หรือทั้งจำทั้งปรับ",
        "ถ้าผู้กระทำความผิดตามวรรคแรกหรือวรรคสองเป็นผู้ปลอมซึ่งบัตรอิเล็กทรอนิกส์ตามมาตรา ๒๖๙/๑ ให้ลงโทษตามมาตรานี้แต่กระทงเดียว",
        "มาตรา ๒๖๙/๕ ผู้ใดใช้บัตรอิเล็กทรอนิกส์ของผู้อื่นโดยมิชอบ ในประการที่น่าจะก่อให้เกิดความเสียหายแก่ผู้อื่นหรือประชาชน ต้องระวางโทษจำคุกไม่เกินห้าปี หรือปรับไม่เกินหนึ่งแสนบาท หรือทั้งจำทั้งปรับ",
        "มาตรา ๒๖๙/๖ ผู้ใดมีไว้เพื่อนำออกใช้ซึ่งบัตรอิเล็กทรอนิกส์ของผู้อื่นโดยมิชอบตามมาตรา ๒๖๙/๕ ในประการที่น่าจะก่อให้เกิดความเสียหายแก่ผู้อื่นหรือประชาชน ต้องระวางโทษจำคุกไม่เกินสามปี หรือปรับไม่เกินหกหมื่นบาท หรือทั้งจำทั้งปรับ",
        "มาตรา ๒๖๙/๗ ถ้าการกระทำดังกล่าวในหมวดนี้ เป็นการกระทำเกี่ยวกับบัตรอิเล็กทรอนิกส์ที่ผู้ออกได้ออกให้แก่ผู้มีสิทธิใช้ เพื่อใช้ประโยชน์ในการชำระค่าสินค้า ค่าบริการหรือหนี้อื่นแทนการชำระด้วยเงินสด หรือใช้เบิกถอนเงินสด ผู้กระทำต้องระวางโทษหนักกว่าที่บัญญัติไว้ในมาตรานั้น ๆ กึ่งหนึ่ง”",
        "",
        "",
        "ผู้รับสนองพระบรมราชโองการ",
        "พันตำรวจโท ทักษิณ ชินวัตร",
        "นายกรัฐมนตรี",
        "",
        "หมายเหตุ :- เหตุผลในการประกาศใช้พระราชบัญญัตินี้ คือ เนื่องจากปัจจุบันการใช้เอกสาร วัตถุอื่นใดหรือข้อมูล ที่จัดทำขึ้นในลักษณะบัตรอิเล็กทรอนิกส์ เช่น บัตรเครดิต บัตรเดบิต บัตรสมาร์ทการ์ด หรือบัตรอื่นใดในลักษณะคล้ายกัน โดยมีวัตถุประสงค์เพื่อใช้ประโยชน์ในการชำระค่าสินค้า ค่าบริการ หรือหนี้อื่น หรือเพื่อให้ตนเองหรือผู้อื่นได้รับประโยชน์อย่างหนึ่งอย่างใด กำลังเพิ่มปริมาณและประเภทการใช้งานอย่างแพร่หลาย และปรากฏว่าได้มีการกระทำความผิดเกี่ยวกับบัตรและลักลอบนำข้อมูลอิเล็กทรอนิกส์ของผู้อื่นมาใช้อันส่งผลกระทบต่อเศรษฐกิจและผู้บริโภคในวงกว้าง สมควรกำหนดความผิดอาญาสำหรับการกระทำความผิดเกี่ยวกับบัตรและข้อมูลอิเล็กทรอนิกส์ดังกล่าวเพิ่มเติมให้ครอบคลุมการกระทำความผิดในรูปแบบต่าง ๆ และให้มีอัตราโทษเหมาะสมกับความร้ายแรงของการกระทำความผิด จึงจำเป็นต้องตราพระราชบัญญัตินี้",
        "",
        "",
        "",
        "",
        "",
        "",
        "",
        "",
        "",
        "",
        "",
        "โชติกานต์/ผู้จัดทำ",
        "๑๗ ธันวาคม ๒๕๕๗"
      ]
    ],
    []
  ],
  "metadata": {
    "date_header": "2547-10-12",
    "date_modified": "2547-10-22",
    "date_original": "2547-10-22",
    "doctype": "พระราชบัญญัติ",
    "editors": [],
    "tag": "bb06-20-2547-a0001",
    "title": "แก้ไขเพิ่มเติมประมวลกฎหมายอาญา (ฉบับที่ ๑๗)"
  }
}