{
  "pages": [
    [
      [
        "ข้อบังคับศาลรัฐธรรมนูญ",
        "ว่าด้วยเสื้อครุยตุลาการศาลรัฐธรรมนูญ",
        "พ.ศ. ๒๕๔๒"
      ]
    ],
    []
  ],
  "metadata": {
    "date_backmatter": "2542-12-20",
    "date_modified": "2542-12-27",
    "date_original": "2542-12-27",
    "editors": [
      {
        "name": "สัญชัย ศิริเดช",
        "role": "ผู้จัดทำ",
        "date": "2552-11-16"
      },
      {
        "name": "วันทิตา",
        "role": "ปรับปรุง",
        "date": "2557-03-08"
      },
      {
        "name": "วิชพงษ์",
        "role": "ตรวจ",
        "date": "2557-03-12"
      }
    ],
    "tag": "a484-2i-2542-a003"
  }
}