{
  "pages": [
    [
      [
        "พระราชบัญญัติ",
        "การปฏิบัติเพื่อความร่วมมือระหว่างประเทศในการดำเนินการ",
        "ตามคำพิพากษาคดีอาญา (ฉบับที่ ๒)",
        "พ.ศ. ๒๕๓๐",
        "",
        "",
        "ภูมิพลอดุลยเดช ป.ร.",
        "ให้ไว้ ณ วันที่ ๒๖ ตุลาคม พ.ศ. ๒๕๓๐",
        "เป็นปีที่ ๔๒ ในรัชกาลปัจจุบัน"
      ]
    ],
    []
  ],
  "metadata": {
    "date_header": "2530-10-26",
    "date_modified": "2530-11-02",
    "date_original": "2530-11-02",
    "doctype": "พระราชบัญญัติ",
    "editors": [
      {
        "name": "ชไมพร",
        "role": "แก้ไข",
        "date": "2544-09-19"
      },
      {
        "name": "อมราลักษณ์",
        "role": "แก้ไข",
        "date": "2547-12-28"
      },
      {
        "name": "วศิน",
        "role": "แก้ไข",
        "date": "2552-04-22"
      },
      {
        "name": "พจณัฏฐ์",
        "role": "ปรับปรุง",
        "date": "2560-10-19"
      }
    ],
    "tag": "a166-20-2530-002",
    "title": "การปฏิบัติเพื่อความร่วมมือระหว่างประเทศในการดำเนินการตามคำพิพากษาคดีอาญา (ฉบับที่ ๒)"
  }
}