{
  "pages": [
    [
      [
        "พระราชบัญญัติ",
        "การปฏิบัติเพื่อความร่วมมือระหว่างประเทศในการดำเนินการ",
        "ตามคำพิพากษาคดีอาญา",
        "พ.ศ. ๒๕๒๗",
        "",
        "",
        "ภูมิพลอดุลยเดช ป.ร.",
        "ให้ไว้ ณ วันที่ ๑๐ กันยายน พ.ศ. ๒๕๒๗",
        "เป็นปีที่ ๓๙ ในรัชกาลปัจจุบัน"
      ]
    ],
    []
  ],
  "metadata": {
    "date_header": "2527-09-10",
    "date_modified": "2527-09-27",
    "date_original": "2527-09-27",
    "doctype": "พระราชบัญญัติ",
    "editors": [
      {
        "name": "ชไมพร",
        "role": "แก้ไข",
        "date": "2544-09-19"
      },
      {
        "name": "อมราลักษณ์",
        "role": "แก้ไข",
        "date": "2547-12-28"
      },
      {
        "name": "วศิน",
        "role": "แก้ไข",
        "date": "2552-04-22"
      },
      {
        "name": "พจณัฏฐ์",
        "role": "ปรับปรุง",
        "date": "2560-10-19"
      }
    ],
    "tag": "a166-20-2527-001",
    "title": "การปฏิบัติเพื่อความร่วมมือระหว่างประเทศในการดำเนินการตามคำพิพากษาคดีอาญา"
  }
}