{
  "pages": [
    [
      [
        "พระราชบัญญัติ",
        "การปฏิบัติเพื่อความร่วมมือระหว่างประเทศในการดำเนินการ",
        "ตามคำพิพากษาคดีอาญา",
        "พ.ศ. ๒๕๒๗",
        "",
        "",
        "ภูมิพลอดุลยเดช ป.ร.",
        "ให้ไว้ ณ วันที่ ๑๐ กันยายน พ.ศ. ๒๕๒๗",
        "เป็นปีที่ ๓๙ ในรัชกาลปัจจุบัน"
      ]
    ],
    []
  ],
  "metadata": {
    "date_header": "2527-09-10",
    "date_modified": "2530-11-02",
    "date_original": "2527-09-27",
    "doctype": "พระราชบัญญัติ",
    "editors": [
      {
        "name": "ปัทมา",
        "role": "แก้ไข",
        "date": "2553-02-11"
      },
      {
        "name": "วศิน",
        "role": "ตรวจ",
        "date": "2553-02-11"
      },
      {
        "name": "พจณัฏฐ์",
        "role": "ปรับปรุง",
        "date": "2560-10-19"
      }
    ],
    "tag": "a166-20-9999-update",
    "title": "การปฏิบัติเพื่อความร่วมมือระหว่างประเทศในการดำเนินการตามคำพิพากษาคดีอาญา"
  }
}