{
  "pages": [
    [
      [
        "กฎมณเฑียรบาล",
        "ว่าด้วยครอบครัวแห่งข้าราชการในพระราชสำนัก",
        "",
        "",
        "ศุภมัศดุ พระพุทธศาสนายุกาล เป็นอดีตกาล ๒๔๕๗ พรรษา เมษายนมาศ วีสติมสุรทิน จันทวาร โดยกาลนิยม"
      ]
    ],
    []
  ],
  "metadata": {
    "date_backmatter": "2457-08-01",
    "date_modified": "2457-08-01",
    "date_original": "2457-08-01",
    "editors": [
      {
        "name": "ดำรง",
        "role": "ปรับปรุง",
        "date": "2554-03-00"
      }
    ],
    "tag": "a102-20-2457-a0001"
  }
}