{
  "pages": [
    [
      [
        "ประกาศสำนักนายกรัฐมนตรี",
        "เรื่อง กำหนดวันสำคัญของชาติไทย"
      ]
    ],
    []
  ],
  "metadata": {
    "date_backmatter": "2560-02-07",
    "date_modified": "2560-02-10",
    "date_original": "2560-02-10",
    "doctype": "ประกาศ",
    "editors": [
      {
        "name": "ชวัลพร/ปริยานุช",
        "role": "จัดทำ",
        "date": "2560-02-14"
      },
      {
        "name": "นุสรา",
        "role": "ตรวจ",
        "date": "2560-03-23"
      }
    ],
    "tag": "a102-2e-2560-a0001"
  }
}