{
  "pages": [
    [
      [
        "ประกาศ"
      ]
    ],
    []
  ],
  "metadata": {
    "date_backmatter": "2477-03-07",
    "date_modified": "2477-03-07",
    "date_original": "2477-03-07",
    "editors": [
      {
        "name": "สุกัญญา",
        "role": "ผู้จัดทำ",
        "date": "2552-10-20"
      },
      {
        "name": "นฤดล",
        "role": "ตรวจ",
        "date": "2553-12-22"
      }
    ],
    "tag": "a102-2e-2477-002"
  }
}