{
  "pages": [
    [
      [
        "ประกาศ",
        "ตั้งคณะผู้สำเร็จราชการแทนพระองค์"
      ]
    ],
    []
  ],
  "metadata": {
    "date_backmatter": "2489-06-16",
    "date_modified": "2489-06-25",
    "date_original": "2489-06-25",
    "doctype": "ประกาศ",
    "editors": [
      {
        "name": "สุกัญญา",
        "role": "ผู้จัดทำ",
        "date": "2552-10-20"
      },
      {
        "name": "นฤดล",
        "role": "ตรวจ",
        "date": "2553-12-22"
      }
    ],
    "tag": "a102-2e-2489-005"
  }
}