{
  "pages": [
    [
      [
        "กฎเสนาบดีกระทรวงวัง",
        "ว่าด้วยการจดทะเบียนแลระเบียบน่าที่ตามความในกฎมณเฑียรบาล",
        "ว่าด้วยครอบครัวแห่งข้าราชการในพระราชสำนัก",
        "พระพุทธศักราช ๒๔๕๗"
      ]
    ],
    []
  ],
  "metadata": {
    "date_backmatter": "2457-08-06",
    "date_modified": "2457-08-16",
    "date_original": "2457-08-16",
    "editors": [
      {
        "name": "สุกัญญา",
        "role": "ผู้จัดทำ",
        "date": "2552-10-19"
      },
      {
        "name": "นฤดล",
        "role": "ตรวจ",
        "date": "2553-12-22"
      }
    ],
    "tag": "a102-2c-2457-003"
  }
}