{
  "pages": [
    [
      [
        "ระเบียบผู้ตรวจการแผ่นดิน",
        "ว่าด้วยการจ่ายค่าใช้จ่ายเดินทางไปปฏิบัติงานของเจ้าหน้าที่",
        "พ.ศ. ๒๕๕๘"
      ]
    ],
    []
  ],
  "metadata": {
    "date_backmatter": "2558-08-21",
    "date_modified": "2559-11-11",
    "date_original": "2558-09-03",
    "editors": [
      {
        "name": "ปริยานุช",
        "role": "จัดทำ",
        "date": "2558-09-09"
      },
      {
        "name": "วิศนี",
        "role": "ตรวจ",
        "date": "2558-09-22"
      },
      {
        "name": "ปุณิกา",
        "role": "เพิ่มเติม",
        "date": "2559-12-07"
      }
    ],
    "tag": "bb48-2g-9997-update"
  }
}