{
  "pages": [
    [
      [
        "ระเบียบผู้ตรวจการแผ่นดิน",
        "ว่าด้วยค่าใช้จ่ายในการเดินทางของพยานบุคคล",
        "พ.ศ. ๒๕๕๔"
      ]
    ],
    []
  ],
  "metadata": {
    "date_backmatter": "2554-03-24",
    "date_modified": "2554-04-11",
    "date_original": "2554-04-11",
    "editors": [
      {
        "name": "ปณตภร",
        "role": "ผู้จัดทำ",
        "date": "2554-05-09"
      },
      {
        "name": "กวินทราดา",
        "role": "ผู้ตรวจ",
        "date": "2554-05-09"
      }
    ],
    "tag": "bb48-2g-2554-a0002"
  }
}