{
  "pages": [
    [
      [
        "ระเบียบผู้ตรวจการแผ่นดิน",
        "ว่าด้วยค่าใช้จ่ายในการเดินทางของผู้ตรวจการแผ่นดิน (ฉบับที่ ๒)",
        "พ.ศ. ๒๕๕๗"
      ]
    ],
    []
  ],
  "metadata": {
    "date_backmatter": "2557-03-25",
    "date_modified": "2557-04-02",
    "date_original": "2557-04-02",
    "editors": [
      {
        "name": "ปริยานุช",
        "role": "ผู้จัดทำ",
        "date": "2557-04-08"
      },
      {
        "name": "ปณตภร",
        "role": "ผู้ตรวจ",
        "date": "2557-04-08"
      }
    ],
    "tag": "bb48-2g-2557-a0001"
  }
}