{
  "pages": [
    [
      [
        "ระเบียบผู้ตรวจการแผ่นดินของรัฐสภา",
        "ว่าด้วยหลักเกณฑ์และวิธีการเสนอคำร้องเรียนผ่านระบบอินเตอร์เนท (Internet)",
        "พ.ศ. ๒๕๔๗"
      ]
    ],
    []
  ],
  "metadata": {
    "date_backmatter": "2547-11-22",
    "date_modified": "2547-12-30",
    "date_original": "2547-12-30",
    "editors": [
      {
        "name": "ปณตภร",
        "role": "ผู้จัดทำ",
        "date": "2554-05-09"
      },
      {
        "name": "กวินทราดา",
        "role": "ผู้ตรวจ",
        "date": "2554-05-09"
      }
    ],
    "tag": "bb48-2g-2547-a0001"
  }
}