{
  "pages": [
    [
      [
        "ประกาศผู้ตรวจการแผ่นดิน",
        "เรื่อง รายงานผู้ตรวจการแผ่นดิน ประจำปี ๒๕๕๖"
      ]
    ],
    []
  ],
  "metadata": {
    "date_backmatter": "2557-11-13",
    "date_modified": "2557-12-30",
    "date_original": "2557-12-30",
    "doctype": "ประกาศ",
    "editors": [
      {
        "name": "ปริยานุช",
        "role": "ผู้จัดทำ",
        "date": "2558-01-08"
      },
      {
        "name": "วิศนี",
        "role": "ผู้ตรวจ",
        "date": "2558-01-13"
      }
    ],
    "tag": "bb48-2e-2557-a0001"
  }
}