{
  "pages": [
    [
      [
        "คำสั่งการประปานครหลวง",
        "ที่ ๑๖๔/๒๕๕๓",
        "เรื่อง อัตราค่าใช้จ่ายในการทดสอบมาตรวัดน้ำ"
      ]
    ],
    []
  ],
  "metadata": {
    "date_backmatter": "2553-03-31",
    "date_modified": "2553-05-03",
    "date_original": "2553-05-03",
    "editors": [
      {
        "name": "ปริยานุช",
        "role": "ผู้จัดทำ",
        "date": "2553-05-31"
      },
      {
        "name": "นันท์นภัสร์",
        "role": "ตรวจ",
        "date": "2553-05-31"
      },
      {
        "name": "สุเมธ",
        "role": "ปรับปรุง",
        "date": "2558-07-17"
      }
    ],
    "tag": "a124-2f-2553-a0002"
  }
}