{
  "pages": [
    [
      [
        "คำสั่งการประปานครหลวง",
        "ที่ ๑๓๐/๒๕๔๙",
        "เรื่อง หลักเกณฑ์การขอใช้น้ำประปาชั่วคราวและอัตราค่าใช้จ่าย"
      ]
    ],
    []
  ],
  "metadata": {
    "date_backmatter": "2549-04-11",
    "date_modified": "2549-07-27",
    "date_original": "2549-07-27",
    "editors": [
      {
        "name": "นันทนา",
        "role": "ผู้จัดทำ",
        "date": "2549-08-01"
      },
      {
        "name": "สุเมธ",
        "role": "ปรับปรุง",
        "date": "2558-07-17"
      }
    ],
    "tag": "a124-2f-2549-a0006"
  }
}