{
  "pages": [
    [
      [
        "คำสั่งการประปานครหลวง",
        "ที่ ๑๐๗/๒๕๔๙",
        "เรื่อง มอบอำนาจเกี่ยวกับการบริการ"
      ]
    ],
    []
  ],
  "metadata": {
    "date_backmatter": "2549-03-20",
    "date_modified": "2549-06-01",
    "date_original": "2549-06-01",
    "editors": [
      {
        "name": "นันทนา",
        "role": "ผู้จัดทำ",
        "date": "2549-06-07"
      },
      {
        "name": "สุเมธ",
        "role": "ปรับปรุง",
        "date": "2558-07-17"
      }
    ],
    "tag": "a124-2f-2549-a0003"
  }
}