{
  "pages": [
    [
      [
        "ประกาศการประปานครหลวง",
        "เรื่อง การออกพันธบัตรของการประปานครหลวง",
        "พ.ศ. ๒๕๓๔ ครั้งที่ ๑"
      ]
    ],
    []
  ],
  "metadata": {
    "date_backmatter": "2534-07-25",
    "date_modified": "2534-07-30",
    "date_original": "2534-07-30",
    "doctype": "ประกาศ",
    "editors": [
      {
        "name": "สรัลพร",
        "role": "พิมพ์",
        "date": "2551-01-08"
      },
      {
        "name": "หทัยภัทร",
        "role": "ตรวจ",
        "date": "2551-01-29"
      },
      {
        "name": "สุเมธ",
        "role": "ปรับปรุง",
        "date": "2558-07-16"
      }
    ],
    "tag": "a124-2e-2534-a0001"
  }
}