{
  "pages": [
    [
      [
        "ระเบียบการประปานครหลวง",
        "ฉบับที่ ๒๓๑",
        "ว่าด้วย การงดจ่ายน้ำและถอดมาตรวัดน้ำกรณีผู้ใช้น้ำขอเลิกใช้น้ำ",
        "พ.ศ. ๒๕๓๘"
      ]
    ],
    []
  ],
  "metadata": {
    "date_backmatter": "2531-10-31",
    "date_modified": "2541-11-17",
    "date_original": "2541-11-17",
    "editors": [
      {
        "name": "ประภาศรี",
        "role": "พิมพ์",
        "date": "2551-01-14"
      },
      {
        "name": "หทัยภัทร",
        "role": "ตรวจ",
        "date": "2551-02-04"
      }
    ],
    "tag": "a124-2g-2541-a005"
  }
}