{
  "pages": [
    [
      [
        "ประกาศการประปานครหลวง",
        "เรื่อง การชำระเงินค่าน้ำประปาที่เกินกำหนด",
        "ณ ที่ทำการตัวแทนรับชำระเงินของการประปานครหลวง"
      ]
    ],
    []
  ],
  "metadata": {
    "date_backmatter": "2561-06-06",
    "date_modified": "2561-08-02",
    "date_original": "2561-08-02",
    "doctype": "ประกาศ",
    "editors": [
      {
        "name": "พิมพ์มาดา",
        "role": "จัดทำ",
        "date": "2561-10-17"
      }
    ],
    "tag": "a124-2e-2561-a0002"
  }
}