{
  "pages": [
    [
      [
        "ระเบียบการประปานครหลวง",
        "ฉบับที่ ๑๙๙",
        "ว่าด้วย การติดตั้งประปาใหม่",
        "พ.ศ. ๒๕๓๕"
      ]
    ],
    []
  ],
  "metadata": {
    "date_backmatter": "2531-10-31",
    "date_modified": "2541-11-17",
    "date_original": "2541-11-17",
    "editors": [
      {
        "name": "อัมภิญา",
        "role": "พิมพ์",
        "date": "2551-01-15"
      },
      {
        "name": "หทัยภัทร",
        "role": "ตรวจ",
        "date": "2551-01-31"
      }
    ],
    "tag": "a124-2g-2541-a013"
  }
}