{
  "pages": [
    [
      [
        "ระเบียบการประปานครหลวง",
        "ฉบับที่ ๒๐๓",
        "ว่าด้วย การดำเนินการต่อผู้กระทำผิดเกี่ยวกับทรัพย์สินและผลประโยชน์",
        "ของการประปานครหลวง",
        "พ.ศ. ๒๕๓๕",
        "(แก้ไขเพิ่มเติมโดยระเบียบการประปานครหลวง ฉบับที่ ๒๔๖)"
      ]
    ],
    []
  ],
  "metadata": {
    "date_backmatter": "2535-12-16",
    "date_modified": "2540-05-02",
    "date_original": "2541-11-17",
    "editors": [
      {
        "name": "นันติญา",
        "role": "พิมพ์",
        "date": "2551-01-14"
      },
      {
        "name": "หทัยภัทร",
        "role": "ตรวจ",
        "date": "2551-01-31"
      }
    ],
    "tag": "a124-2g-2541-a012"
  }
}