{
  "pages": [
    [
      [
        "ระเบียบการประปานครหลวง",
        "ฉบับที่ ๕๑",
        "ว่าด้วยการกำหนดประเภทผู้ใช้น้ำและการเปลี่ยนประเภทผู้ใช้น้ำ",
        "พ.ศ. ๒๕๕๘"
      ]
    ],
    []
  ],
  "metadata": {
    "date_backmatter": "2558-09-29",
    "date_modified": "2558-11-05",
    "date_original": "2558-11-05",
    "editors": [
      {
        "name": "ปริยานุช/กัญฑรัตน์",
        "role": "จัดทำ",
        "date": "2558-11-12"
      },
      {
        "name": "",
        "role": "ตรวจ",
        "date": "2558-11-12"
      }
    ],
    "tag": "a124-2g-2558-a0004"
  }
}