{
  "pages": [
    [
      [
        "ประกาศการประปานครหลวง",
        "เรื่อง การออกพันธบัตรของการประปานครหลวง",
        "พ.ศ. ๒๕๓๓ ครั้งที่ ๑"
      ]
    ],
    []
  ],
  "metadata": {
    "date_backmatter": "2533-03-26",
    "date_modified": "2533-04-10",
    "date_original": "2533-04-10",
    "doctype": "ประกาศ",
    "editors": [
      {
        "name": "สรัลพร",
        "role": "พิมพ์",
        "date": "2551-01-08"
      },
      {
        "name": "หทัยภัทร",
        "role": "ตรวจ",
        "date": "2551-01-28"
      },
      {
        "name": "สุเมธ",
        "role": "ปรับปรุง",
        "date": "2558-07-16"
      }
    ],
    "tag": "a124-2e-2533-a0001"
  }
}