{
  "pages": [
    [
      [
        "ระเบียบการประปานครหลวง",
        "ฉบับที่ ๑๒",
        "ว่าด้วย การให้ส่วนลดค่าน้ำประปาแก่ทหารผ่านศึกและครอบครัว",
        "(พ.ศ. ๒๕๔๗)"
      ]
    ],
    []
  ],
  "metadata": {
    "date_backmatter": "2547-03-15",
    "date_modified": "2547-04-21",
    "date_original": "2547-04-21",
    "editors": [
      {
        "name": "อัมภิญา",
        "role": "พิมพ์",
        "date": "2551-01-14"
      },
      {
        "name": "หทัยภัทร",
        "role": "ตรวจ",
        "date": "2551-02-04"
      },
      {
        "name": "สุเมธ",
        "role": "ปรับปรุง",
        "date": "2558-07-20"
      }
    ],
    "tag": "a124-2g-2547-a0001"
  }
}