{
  "pages": [
    [
      [
        "ระเบียบการประปานครหลวง",
        "ฉบับที่ ๒๒๘",
        "ว่าด้วย การเปลี่ยนมาตรวัดน้ำ",
        "พ.ศ. ๒๕๓๘"
      ]
    ],
    []
  ],
  "metadata": {
    "date_backmatter": "2531-10-31",
    "date_modified": "2541-11-17",
    "date_original": "2541-11-17",
    "editors": [
      {
        "name": "นันติญา",
        "role": "พิมพ์",
        "date": "2551-01-11"
      },
      {
        "name": "หทัยภัทร",
        "role": "ตรวจ",
        "date": "2551-01-31"
      }
    ],
    "tag": "a124-2g-2541-a008"
  }
}