{
  "pages": [
    [
      [
        "ประกาศการประปานครหลวง",
        "เรื่อง ห้ามรถบรรทุกวัตถุอันตรายใช้ทางเลียบคลองประปา"
      ]
    ],
    []
  ],
  "metadata": {
    "date_backmatter": "2548-10-17",
    "date_modified": "2549-01-18",
    "date_original": "2549-01-18",
    "doctype": "ประกาศ",
    "editors": [
      {
        "name": "พชร",
        "role": "ผู้จัดทำ",
        "date": "2549-01-24"
      },
      {
        "name": "สุเมธ",
        "role": "ปรับปรุง",
        "date": "2558-08-18"
      }
    ],
    "tag": "a124-2e-2549-a0001"
  }
}