{
  "pages": [
    [
      [
        "ประกาศการประปานครหลวง",
        "เรื่อง การเรียกเก็บเงินประกันการใช้น้ำประปาของการประปานครหลวง"
      ]
    ],
    []
  ],
  "metadata": {
    "date_backmatter": "2551-09-10",
    "date_modified": "2551-10-20",
    "date_original": "2551-10-20",
    "doctype": "ประกาศ",
    "editors": [
      {
        "name": "ปริยานุช",
        "role": "ผู้จัดทำ",
        "date": "2551-10-24"
      },
      {
        "name": "สุเมธ",
        "role": "ปรับปรุง",
        "date": "2558-08-18"
      }
    ],
    "tag": "a124-2e-2551-a0002"
  }
}