{
  "pages": [
    [
      [
        "คำสั่งการประปานครหลวง",
        "ที่ ๓/๒๕๕๔",
        "เรื่อง กำหนดค่าใช้จ่ายในการเปลี่ยนแปลงขนาดมาตรวัดน้ำ"
      ]
    ],
    []
  ],
  "metadata": {
    "date_backmatter": "2554-01-05",
    "date_modified": "2554-02-08",
    "date_original": "2554-02-08",
    "editors": [
      {
        "name": "ปริยานุช",
        "role": "ผู้จัดทำ",
        "date": "2554-02-15"
      },
      {
        "name": "ดำรง",
        "role": "ตรวจ",
        "date": "2554-02-15"
      }
    ],
    "tag": "a124-2f-2554-a0001"
  }
}