{
  "pages": [
    [
      [
        "กฎกระทรวง",
        "ฉบับที่ ๒ พ.ศ. ๒๕๑๖",
        "ออกตามความในพระราชบัญญัติบำรุงพันธุ์สัตว์",
        "พ.ศ. ๒๕๐๙"
      ]
    ],
    []
  ],
  "metadata": {
    "date_backmatter": "2516-04-17",
    "date_modified": "2516-05-01",
    "date_original": "2516-05-01",
    "doctype": "กฎกระทรวง",
    "editors": [
      {
        "name": "วิภา",
        "role": "ผู้จัดทำ",
        "date": "2556-03-15"
      },
      {
        "name": "วิชพงษ์",
        "role": "ตรวจ",
        "date": "2556-03-18"
      }
    ],
    "tag": "ba05-2b-2516-002"
  }
}