{
  "pages": [
    [
      [
        "ข้อบังคับคณะกรรมการกองทุนพัฒนาสื่อปลอดภัยและสร้างสรรค์",
        "ว่าด้วยหลักเกณฑ์และวิธีการจัดสรรเงินแก่โครงการหรือกิจกรรม",
        "ที่เกี่ยวกับการพัฒนาสื่อปลอดภัยและสร้างสรรค์ (ฉบับที่ ๒)",
        "พ.ศ. ๒๕๖๑"
      ]
    ],
    []
  ],
  "metadata": {
    "date_backmatter": "2561-02-20",
    "date_modified": "2561-03-21",
    "date_original": "2561-03-21",
    "editors": [
      {
        "name": "ภูมิกิติ",
        "role": "จัดทำ",
        "date": "2561-04-18"
      }
    ],
    "tag": "a1149-2i-2561-a0001"
  }
}