{
  "pages": [
    [
      [
        "ข้อบังคับสภาการแพทย์แผนไทย",
        "ว่าด้วยการเลือก การเลือกตั้งกรรมการ การเลื่อนผู้มีคุณสมบัติขึ้นเป็นกรรมการแทน",
        "และการเลือกกรรมการเพื่อดำรงตำแหน่งต่าง ๆ",
        "พ.ศ. ๒๕๖๐"
      ]
    ],
    []
  ],
  "metadata": {
    "date_backmatter": "2560-10-16",
    "date_modified": "2560-11-02",
    "date_original": "2560-11-02",
    "editors": [
      {
        "name": "ปุณิกา/อัญชลี",
        "role": "จัดทำ",
        "date": "2560-11-06"
      }
    ],
    "tag": "c778-2i-2560-a0006"
  }
}