{
  "pages": [
    [
      [
        "ข้อบังคับสภาการแพทย์แผนไทย",
        "ว่าด้วยหลักเกณฑ์การพักใช้ใบอนุญาตหรือเพิกถอนใบอนุญาต",
        "พ.ศ. ๒๕๕๙"
      ]
    ],
    []
  ],
  "metadata": {
    "date_backmatter": "2559-03-09",
    "date_modified": "2559-03-28",
    "date_original": "2559-03-28",
    "editors": [
      {
        "name": "ปริยานุช",
        "role": "จัดทำ",
        "date": "2559-04-04"
      },
      {
        "name": "ชวัลพร",
        "role": "ตรวจ",
        "date": "2559-04-04"
      }
    ],
    "tag": "c778-2i-2559-a0001"
  }
}