{
  "pages": [
    [
      [
        "ระเบียบกระทรวงสาธารณสุข",
        "ว่าด้วยบุคคลซึ่งปฏิบัติงานในสถานพยาบาล ตามกฎหมายว่าด้วยสถานพยาบาล",
        "กระทำการประกอบวิชาชีพการแพทย์แผนไทยหรือการประกอบวิชาชีพการแพทย์แผนไทยประยุกต์",
        "ในความควบคุมของผู้ประกอบวิชาชีพการแพทย์แผนไทยหรือผู้ประกอบวิชาชีพการแพทย์แผนไทยประยุกต์",
        "พ.ศ. ๒๕๖๐"
      ]
    ],
    []
  ],
  "metadata": {
    "date_backmatter": "2560-01-20",
    "date_modified": "2560-03-02",
    "date_original": "2560-03-02",
    "editors": [
      {
        "name": "ปริยานุช",
        "role": "จัดทำ",
        "date": "2560-03-08"
      },
      {
        "name": "พรวิภา",
        "role": "ตรวจ",
        "date": "2560-03-08"
      }
    ],
    "tag": "c778-2g-2560-a0001"
  }
}