{
  "pages": [
    [
      [
        "ข้อบังคับสภาการแพทย์แผนไทย",
        "ว่าด้วยหลักเกณฑ์ วิธีการและเงื่อนไขการสอบความรู้ในวิชาชีพการแพทย์แผนไทย",
        "ของผู้ได้รับปริญญาหรือประกาศนียบัตรเทียบเท่าปริญญาสาขาการแพทย์แผนไทยประยุกต์",
        "จากสถาบันการศึกษาที่สภาการแพทย์แผนไทยรับรอง",
        "พ.ศ. ๒๕๕๗"
      ]
    ],
    []
  ],
  "metadata": {
    "date_backmatter": "2557-06-18",
    "date_modified": "2558-06-08",
    "date_original": "2557-07-08",
    "editors": [
      {
        "name": "ปุณิกา",
        "role": "ผู้จัดทำ",
        "date": "2558-06-19"
      },
      {
        "name": "วิชพงษ์",
        "role": "ผู้ตรวจ",
        "date": "2558-06-26"
      }
    ],
    "tag": "c778-2i-9997-update"
  }
}