{
  "pages": [
    [
      [
        "ประกาศกระทรวงการคลัง",
        "เรื่อง การประมูลพันธบัตรรัฐบาล ครั้งที่ ๓"
      ]
    ],
    []
  ],
  "metadata": {
    "date_backmatter": "2544-02-02",
    "date_modified": "2544-02-08",
    "date_original": "2544-02-08",
    "doctype": "ประกาศ",
    "editors": [
      {
        "name": "ละออง",
        "role": "พิมพ์",
        "date": "2544-07-30"
      },
      {
        "name": "สถาพร",
        "role": "แก้ไข",
        "date": "2549-10-24"
      }
    ],
    "tag": "c733-2e-2544-a002"
  }
}