{
  "pages": [
    [
      [
        "ระเบียบกระทรวงการคลัง",
        "ว่าด้วยการเบิกจ่ายเงินเกี่ยวกับค่าใช้จ่ายในการบริหารงานของส่วนราชการ",
        "พ.ศ. ๒๕๔๙"
      ]
    ],
    []
  ],
  "metadata": {
    "date_backmatter": "2549-03-31",
    "date_modified": "2549-04-07",
    "date_original": "2549-04-07",
    "editors": [
      {
        "name": "ชัชสรัญ",
        "role": "ผู้จัดทำ",
        "date": "2549-04-17"
      },
      {
        "name": "สถาพร",
        "role": "ปรับปรุง",
        "date": "2549-10-27"
      },
      {
        "name": "ปิติวรรณ",
        "role": "ปรับปรุง",
        "date": "2561-06-11"
      }
    ],
    "tag": "c733-2g-2549-a0003"
  }
}