{
  "pages": [
    [
      [
        "ระเบียบกระทรวงการคลัง",
        "ว่าด้วยการเบิกจ่ายเงินเพิ่มการครองชีพชั่วคราวของข้าราชการ",
        "และลูกจ้างประจำของส่วนราชการ",
        "พ.ศ. ๒๕๔๘"
      ]
    ],
    []
  ],
  "metadata": {
    "date_backmatter": "2548-09-26",
    "date_modified": "2558-02-26",
    "date_original": "2550-11-08",
    "editors": [
      {
        "name": "ปริยานุช",
        "role": "พิมพ์",
        "date": "2556-04-25"
      },
      {
        "name": "ณัฐพร",
        "role": "ผู้ตรวจ",
        "date": "2556-04-25"
      },
      {
        "name": "ณัฐพร",
        "role": "ปรับปรุง",
        "date": "2556-04-26"
      },
      {
        "name": "วิศนี",
        "role": "เพิ่มเติม",
        "date": "2558-03-12"
      }
    ],
    "tag": "c733-2g-9996-update"
  }
}