{
  "pages": [
    [
      [
        "กฎกระทรวง",
        "ฉบับที่ ๓๕ (พ.ศ. ๒๕๑๕)",
        "ออกตามความในพระราชบัญญัติวิธีการงบประมาณ",
        "พ.ศ. ๒๕๐๒"
      ]
    ],
    []
  ],
  "metadata": {
    "date_backmatter": "2515-04-28",
    "date_modified": "2515-05-09",
    "date_original": "2515-05-09",
    "doctype": "กฎกระทรวง",
    "editors": [
      {
        "name": "นันทพล",
        "role": "ปรับปรุง",
        "date": "2549-10-19"
      }
    ],
    "tag": "c733-2b-2515-035"
  }
}