{
  "pages": [
    [
      [
        "ระเบียบกระทรวงการคลัง",
        "ว่าด้วยเงินทดรองราชการ",
        "พ.ศ. ๒๕๔๗"
      ]
    ],
    []
  ],
  "metadata": {
    "date_backmatter": "2547-06-18",
    "date_modified": "2547-06-28",
    "date_original": "2547-06-28",
    "editors": [
      {
        "name": "มยุรี",
        "role": "พิมพ์",
        "date": "2547-08-31"
      },
      {
        "name": "สุนันทา/นวพร",
        "role": "ตรวจ",
        "date": "2547-08-31"
      },
      {
        "name": "สถาพร",
        "role": "ปรับปรุง",
        "date": "2549-10-26"
      },
      {
        "name": "ปิติวรรณ",
        "role": "ปรับปรุง",
        "date": "2561-06-11"
      }
    ],
    "tag": "c733-2g-2547-a0005"
  }
}