{
  "pages": [
    [
      [
        "ระเบียบกระทรวงการคลัง",
        "ว่าด้วยเงินทดรองราชการเพื่อช่วยเหลือผู้ประสบภัยพิบัติกรณีฉุกเฉิน (ฉบับที่ ๒)",
        "พ.ศ. ๒๕๕๙"
      ]
    ],
    []
  ],
  "metadata": {
    "date_backmatter": "2559-05-19",
    "date_modified": "2559-05-27",
    "date_original": "2559-05-27",
    "editors": [
      {
        "name": "ปริยานุช",
        "role": "จัดทำ",
        "date": "2559-05-30"
      },
      {
        "name": "วิศนี",
        "role": "ตรวจ",
        "date": "2559-05-30"
      }
    ],
    "tag": "c733-2g-2559-a0001"
  }
}