{
  "pages": [
    [
      [
        "กฎกระทรวง",
        "ฉบับที่ ๒ (พ.ศ. ๒๕๐๔)",
        "ออกตามความในพระราชบัญญัติวิธีการงบประมาณ",
        "พ.ศ. ๒๕๐๒"
      ]
    ],
    []
  ],
  "metadata": {
    "date_backmatter": "2504-05-10",
    "date_modified": "2504-05-10",
    "date_original": "2504-05-10",
    "doctype": "กฎกระทรวง",
    "editors": [
      {
        "name": "นันทพล",
        "role": "ปรับปรุง",
        "date": "2549-10-26"
      }
    ],
    "tag": "c733-2b-2504-002"
  }
}