{
  "pages": [
    [
      [
        "ระเบียบกระทรวงการคลัง",
        "ว่าด้วยการเบิกจ่ายเงินจากคลัง",
        "(ฉบับที่ ๓)",
        "พ.ศ. ๒๕๒๖"
      ]
    ],
    []
  ],
  "metadata": {
    "date_backmatter": "2526-09-30",
    "date_modified": "2547-12-31",
    "date_original": "2547-12-31",
    "editors": [
      {
        "name": "สุภาพร",
        "role": "พิมพ์",
        "date": "2548-06-01"
      },
      {
        "name": "ธัญกมล/พัชรินทร์",
        "role": "ตรวจ",
        "date": "2548-06-29"
      },
      {
        "name": "สถาพร",
        "role": "ปรับปรุง",
        "date": "2549-10-26"
      },
      {
        "name": "ปิติวรรณ",
        "role": "ปรับปรุง",
        "date": "2561-06-11"
      }
    ],
    "tag": "c733-2g-2547-a0008"
  }
}