{
  "pages": [
    [
      [
        "ระเบียบกระทรวงการคลัง",
        "ว่าด้วยการจ่ายเงินทดรองราชการเพื่อการป้องกันและขจัด",
        "ภาวะมลพิษทางทะเลเนื่องจากน้ำมัน",
        "พ.ศ. ๒๕๒๗"
      ]
    ],
    []
  ],
  "metadata": {
    "date_backmatter": "2527-09-24",
    "date_modified": "2527-10-08",
    "date_original": "2527-10-08",
    "editors": [
      {
        "name": "สถาพร",
        "role": "ปรับปรุง",
        "date": "2549-10-24"
      },
      {
        "name": "ปิติวรรณ",
        "role": "ปรับปรุง",
        "date": "2561-06-08"
      }
    ],
    "tag": "c733-2g-2527-001"
  }
}