{
  "pages": [
    [
      [
        "กฎกระทรวง",
        "ฉบับที่ ๑๙ (พ.ศ. ๒๕๑๑)",
        "ออกตามความในพระราชบัญญัติวิธีการงบประมาณ",
        "พ.ศ. ๒๕๐๒"
      ]
    ],
    []
  ],
  "metadata": {
    "date_backmatter": "2511-09-24",
    "date_modified": "2511-09-24",
    "date_original": "2511-09-24",
    "doctype": "กฎกระทรวง",
    "editors": [
      {
        "name": "นันทพล",
        "role": "ปรับปรุง",
        "date": "2549-10-24"
      }
    ],
    "tag": "c733-2b-2511-019"
  }
}