{
  "pages": [
    [
      [
        "ระเบียบกระทรวงการคลัง",
        "ว่าด้วยการจำหน่ายหุ้นและซื้อหุ้นของส่วนราชการ",
        "(ฉบับที่ ๓) พ.ศ. ๒๕๔๖"
      ]
    ],
    []
  ],
  "metadata": {
    "date_backmatter": "2546-10-27",
    "date_modified": "2547-01-19",
    "date_original": "2547-01-19",
    "editors": [
      {
        "name": "ญาณี",
        "role": "พิมพ์",
        "date": "2547-04-08"
      },
      {
        "name": "จีระ/อรดา",
        "role": "ตรวจ",
        "date": "2547-04-27"
      },
      {
        "name": "สถาพร",
        "role": "ปรับปรุง",
        "date": "2549-10-26"
      },
      {
        "name": "ปิติวรรณ",
        "role": "ปรับปรุง",
        "date": "2561-06-11"
      }
    ],
    "tag": "c733-2g-2547-a0004"
  }
}