{
  "pages": [
    [
      [
        "ระเบียบกระทรวงการคลัง",
        "ว่าด้วยการเบิกจ่ายเงินเพิ่มการครองชีพชั่วคราว",
        "ของข้าราชการและลูกจ้างประจำของส่วนราชการ (ฉบับที่ ๔)",
        "พ.ศ. ๒๕๕๒"
      ]
    ],
    []
  ],
  "metadata": {
    "date_backmatter": "2552-09-28",
    "date_modified": "2552-10-21",
    "date_original": "2552-10-21",
    "editors": [
      {
        "name": "ปริยานุช",
        "role": "ผู้จัดทำ",
        "date": "2552-10-28"
      },
      {
        "name": "นันท์นภัสร์",
        "role": "ตรวจ",
        "date": "2552-10-28"
      },
      {
        "name": "ปิติวรรณ",
        "role": "ปรับปรุง",
        "date": "2561-06-12"
      }
    ],
    "tag": "c733-2g-2552-a0001"
  }
}