{
  "pages": [
    [
      [
        "ประกาศกระทรวงการคลัง",
        "เรื่อง การไถ่ถอนพันธบัตรในประเทศสกุลเงินเหรียญสหรัฐ",
        "ก่อนกำหนดจากธนาคารแห่งประเทศไทย"
      ]
    ],
    []
  ],
  "metadata": {
    "date_backmatter": "2554-07-26",
    "date_modified": "2554-08-08",
    "date_original": "2554-08-08",
    "doctype": "ประกาศ",
    "editors": [
      {
        "name": "ปริยานุช",
        "role": "ผู้จัดทำ",
        "date": "2554-08-23"
      },
      {
        "name": "ณัฐวดี",
        "role": "ตรวจ",
        "date": "2554-08-23"
      }
    ],
    "tag": "c733-2e-2554-a0001"
  }
}