{
  "pages": [
    [
      [
        "ระเบียบกระทรวงแรงงานและสวัสดิการสังคม",
        "ว่าด้วยเงินบำรุงการพัฒนาฝีมือแรงงาน",
        "พ.ศ. ๒๕๔๐"
      ]
    ],
    []
  ],
  "metadata": {
    "date_backmatter": "2540-06-20",
    "date_modified": "2540-07-24",
    "date_original": "2540-07-24",
    "editors": [
      {
        "name": "สถาพร",
        "role": "ปรับปรุง",
        "date": "2549-10-24"
      },
      {
        "name": "ปิติวรรณ",
        "role": "ปรับปรุง",
        "date": "2561-06-08"
      }
    ],
    "tag": "c733-2g-2540-001"
  }
}