{
  "pages": [
    [
      [
        "ระเบียบเงินทดรองราชการเพื่อรองจ่าย",
        "ตามโครงการเงินกู้เพื่อจัดซื้อยุทโธปกรณ์",
        "ของ",
        "กระทรวงกลาโหม พ.ศ. ๒๕๒๓"
      ]
    ],
    []
  ],
  "metadata": {
    "date_backmatter": "2523-07-31",
    "date_modified": "2523-08-23",
    "date_original": "2523-08-23",
    "editors": [
      {
        "name": "สถาพร",
        "role": "ปรับปรุง",
        "date": "2549-10-31"
      },
      {
        "name": "ปิติวรรณ",
        "role": "ปรับปรุง",
        "date": "2561-06-08"
      }
    ],
    "tag": "c733-2g-2523-001"
  }
}