{
  "pages": [
    [
      [
        "กฎกระทรวง",
        "ฉบับที่ ๒๖ (พ.ศ. ๒๕๑๔)",
        "ออกตามความในพระราชบัญญัติวิธีการงบประมาณ",
        "พ.ศ. ๒๕๐๒"
      ]
    ],
    []
  ],
  "metadata": {
    "date_backmatter": "2514-02-09",
    "date_modified": "2514-02-12",
    "date_original": "2514-02-12",
    "doctype": "กฎกระทรวง",
    "editors": [
      {
        "name": "นันทพล",
        "role": "ปรับปรุง",
        "date": "2549-10-24"
      }
    ],
    "tag": "c733-2b-2514-026"
  }
}