{
  "pages": [
    [
      [
        "กฎกระทรวง",
        "ฉบับที่ ๑๓ (พ.ศ. ๒๕๐๙)",
        "ออกตามความในพระราชบัญญัติวิธีการงบประมาณ",
        "พ.ศ. ๒๕๐๒"
      ]
    ],
    []
  ],
  "metadata": {
    "date_backmatter": "2509-06-29",
    "date_modified": "2509-06-30",
    "date_original": "2509-06-30",
    "doctype": "กฎกระทรวง",
    "editors": [
      {
        "name": "นันทพล",
        "role": "ปรับปรุง",
        "date": "2549-10-24"
      }
    ],
    "tag": "c733-2b-2509-013"
  }
}