{
  "pages": [
    [
      [
        "ระเบียบ",
        "การเบิกจ่ายเงินจากคลัง",
        "(ฉบับที่ ๖)",
        "พ.ศ. ๒๕๓๘"
      ]
    ],
    []
  ],
  "metadata": {
    "date_backmatter": "2538-06-06",
    "date_modified": "2547-12-31",
    "date_original": "2547-12-31",
    "editors": [
      {
        "name": "สุภาพร",
        "role": "พิมพ์",
        "date": "2548-05-27"
      },
      {
        "name": "พัชรินทร์/ฐิติพงษ์",
        "role": "ตรวจ",
        "date": "2548-06-29"
      },
      {
        "name": "สถาพร",
        "role": "ปรับปรุง",
        "date": "2549-10-26"
      },
      {
        "name": "ปิติวรรณ",
        "role": "ปรับปรุง",
        "date": "2561-06-11"
      }
    ],
    "tag": "c733-2g-2547-a0006"
  }
}