{
  "pages": [
    [
      [
        "ข้อบังคับคณะลูกเสือแห่งชาติ",
        "ว่าด้วยการก่อตั้งสโมสรลูกเสือ",
        "พ.ศ. ๒๕๔๕"
      ]
    ],
    []
  ],
  "metadata": {
    "date_backmatter": "2545-01-08",
    "date_gz_old": "2545-03-07",
    "editors": [
      {
        "name": "พรพิมล",
        "role": "แก้ไข",
        "date": "2545-06-21"
      }
    ],
    "tag": "c505-2i-2545-a0001"
  }
}