{
  "pages": [
    [
      [
        "พระราชบัญญัติ",
        "ลูกเสือ",
        "พ.ศ. ๒๕๕๑",
        "",
        "",
        "ภูมิพลอดุลยเดช ป.ร.",
        "ให้ไว้ ณ วันที่ ๒๖ กุมภาพันธ์ พ.ศ. ๒๕๕๑",
        "เป็นปีที่ ๖๓ ในรัชกาลปัจจุบัน"
      ]
    ],
    []
  ],
  "metadata": {
    "date_header": "2551-02-26",
    "date_modified": "2551-03-04",
    "date_original": "2551-03-04",
    "doctype": "พระราชบัญญัติ",
    "editors": [
      {
        "name": null,
        "role": null,
        "date": "2554-02-00"
      },
      {
        "name": "ฐานิศร์",
        "role": "ปรับปรุง",
        "date": "2556-05-14"
      },
      {
        "name": "พลัฐวัษ",
        "role": "ตรวจ",
        "date": "2556-05-14"
      }
    ],
    "tag": "c505-20-2551-a0001",
    "title": "ลูกเสือ"
  }
}