{
  "pages": [
    [
      [
        "ข้อบังคับคณะลูกเสือแห่งชาติ",
        "ฉบับที่ ๖",
        "ว่าด้วยลูกเสือชาวบ้าน",
        "พ.ศ. ๒๕๑๖"
      ]
    ],
    []
  ],
  "metadata": {
    "date_backmatter": "2516-07-05",
    "date_gz_old": "2516-08-07",
    "editors": [
      {
        "name": "ธิดาวรรณ",
        "role": "แก้ไข",
        "date": "2545-10-29"
      }
    ],
    "tag": "c505-2i-2516-a0001"
  }
}