{
  "pages": [
    [
      [
        "พระราชบัญญัติ",
        "โอนที่ดินซึ่งเป็นสาธารณสมบัติของแผ่นดิน",
        "ตำบลบ้านแก่ง อำเภอตรอน จังหวัดอุตรดิตถ์",
        "ให้วัดมงคลนิมิตร์",
        "พุทธศักราช ๒๔๗๙",
        "",
        "",
        "ในพระปรมาภิไธยสมเด็จพระเจ้าอยู่หัวอานันทมหิดล",
        "คณะผู้สำเร็จราชการแทนพระองค์",
        "(ตามประกาศประธานสภาผู้แทนราษฎร",
        "ลงวันที่ ๒๐ สิงหาคม พุทธศักราช ๒๔๗๘)",
        "อาทิตย์ทิพอาภา",
        "เจ้าพระยายมราช",
        "พล.อ.เจ้าพระยาพิชเยนทรโยธิน",
        "ตราใว้ ณ วันที่ ๑๔ พฤศจิกายน พุทธศักราช ๒๔๗๙",
        "เป็นปีที่ ๓ ในรัชกาลปัจจุบัน"
      ]
    ],
    []
  ],
  "metadata": {
    "date_header": "2478-08-20",
    "date_modified": "2479-11-22",
    "date_original": "2479-11-22",
    "doctype": "พระราชบัญญัติ",
    "editors": [
      {
        "name": "ภีรภัทร",
        "role": "ตรวจ",
        "date": "2554-03-00"
      }
    ],
    "tag": "cd24-20-2479-a0004",
    "title": "โอนที่ดินซึ่งเป็นสาธารณสมบัติของแผ่นดินตำบลบ้านแก่ง อำเภอตรอน จังหวัดอุตรดิตถ์ให้วัดมงคลนิมิตร์"
  }
}