{
  "pages": [
    [
      [
        "ประกาศของคณะปฏิวัติ",
        "ฉบับที่ ๒๑๓"
      ]
    ],
    []
  ],
  "metadata": {
    "date_backmatter": "2515-09-16",
    "date_modified": "2515-09-19",
    "date_original": "2515-09-19",
    "doctype": "ประกาศ",
    "editors": [
      {
        "name": "สุกัญญา",
        "role": "พิมพ์",
        "date": "2554-02-14"
      },
      {
        "name": "ภีรภัทร",
        "role": "ตรวจ",
        "date": "2554-03-00"
      }
    ],
    "tag": "cd24-20-2515-a0004"
  }
}