{
  "pages": [
    [
      [
        "พระราชบัญญัติ",
        "โอนที่ดินซึ่งเป็นสาธารณสมบัติของแผ่นดิน",
        "ในท้องที่ตำบลเด่นชัย อำเภอสูงเม่น จังหวัดแพร่",
        "ให้แก่กระทรวงการคลัง",
        "พ.ศ. ๒๕๐๗",
        "",
        "",
        "ภูมิพลอดุลยเดช ป.ร.",
        "ให้ไว้ ณ วันที่ ๑๐ สิงหาคม พ.ศ. ๒๕๐๗",
        "เป็นปีที่ ๑๙ ในรัชกาลปัจจุบัน"
      ]
    ],
    []
  ],
  "metadata": {
    "date_header": "2507-08-10",
    "date_modified": "2507-09-01",
    "date_original": "2507-09-01",
    "doctype": "พระราชบัญญัติ",
    "editors": [
      {
        "name": "ภีรภัทร",
        "role": "ตรวจ",
        "date": "2554-03-00"
      }
    ],
    "tag": "cd24-20-2507-a0001",
    "title": "โอนที่ดินซึ่งเป็นสาธารณสมบัติของแผ่นดินในท้องที่ตำบลเด่นชัย อำเภอสูงเม่น จังหวัดแพร่ให้แก่กระทรวงการคลัง"
  }
}