{
  "pages": [
    [
      [
        "พระราชบัญญัติ",
        "โอนที่ดินซึ่งเป็นสาธารณสมบัติของแผ่นดิน",
        "ในท้องที่ตำบลบางเตย อำเภอสามโคก จังหวัดปทุมธานี",
        "ให้แก่วัดบางเตยกลาง",
        "พ.ศ. ๒๕๒๙",
        "",
        "",
        "ภูมิพลอดุลยเดช ป.ร.",
        "ให้ไว้ ณ วันที่ ๑๓ ธันวาคม พ.ศ. ๒๕๒๙",
        "เป็นปีที่ ๔๑ ในรัชกาลปัจจุบัน"
      ]
    ],
    []
  ],
  "metadata": {
    "date_header": "2529-12-13",
    "date_modified": "2529-12-26",
    "date_original": "2529-12-26",
    "doctype": "พระราชบัญญัติ",
    "editors": [
      {
        "name": "ปริยานุช",
        "role": "พิมพ์",
        "date": "2554-02-14"
      },
      {
        "name": "ภีรภัทร",
        "role": "ตรวจ",
        "date": "2554-03-00"
      }
    ],
    "tag": "cd24-20-2529-a0003",
    "title": "โอนที่ดินซึ่งเป็นสาธารณสมบัติของแผ่นดินในท้องที่ตำบลบางเตย อำเภอสามโคก จังหวัดปทุมธานีให้แก่วัดบางเตยกลาง"
  }
}