{
  "pages": [
    [
      [
        "พระราชบัญญัติ",
        "โอนที่ดินซึ่งเป็นสาธารณสมบัติของแผ่นดิน",
        "ในท้องที่ตำบลหลุบ อำเภอเมืองกาฬสินธุ์ จังหวัดกาฬสินธุ์",
        "ให้แก่วัดป่าพุทธมงคล",
        "พ.ศ. ๒๕๓๓",
        "",
        "",
        "ภูมิพลอดุลยเดช ป.ร.",
        "ให้ไว้ ณ วันที่ ๒๐ กรกฎาคม พ.ศ. ๒๕๓๓",
        "เป็นปีที่ ๔๕ ในรัชกาลปัจจุบัน"
      ]
    ],
    []
  ],
  "metadata": {
    "date_header": "2533-07-20",
    "date_modified": "2533-08-30",
    "date_original": "2533-08-30",
    "doctype": "พระราชบัญญัติ",
    "editors": [
      {
        "name": "ละออง",
        "role": "พิมพ์",
        "date": "2544-07-10"
      },
      {
        "name": "ปาจรีย์",
        "role": "ปรับปรุง",
        "date": "2549-09-01"
      }
    ],
    "tag": "cd24-20-2533-a0001",
    "title": "โอนที่ดินซึ่งเป็นสาธารณสมบัติของแผ่นดินในท้องที่ตำบลหลุบ อำเภอเมืองกาฬสินธุ์ จังหวัดกาฬสินธุ์ให้แก่วัดป่าพุทธมงคล"
  }
}