{
  "pages": [
    [
      [
        "พระราชบัญญัติ",
        "โอนที่ดินซึ่งเป็นสาธารณสมบัติของแผ่นดิน",
        "ในท้องที่ตำบลธาตุเชิงชุม อำเภอเมืองสกลนคร จังหวัดสกลนคร",
        "ให้แก่นายเต็ก ตีระสวัสดิ์ชัย",
        "พ.ศ. ๒๕๑๒",
        "",
        "",
        "ภูมิพลอดุลยเดช ป.ร.",
        "ให้ไว้ ณ วันที่ ๒๑ กุมภาพันธ์ พ.ศ. ๒๕๑๒",
        "เป็นปีที่ ๒๔ ในรัชกาลปัจจุบัน"
      ]
    ],
    []
  ],
  "metadata": {
    "date_header": "2512-02-21",
    "date_modified": "2512-04-08",
    "date_original": "2512-04-08",
    "doctype": "พระราชบัญญัติ",
    "editors": [
      {
        "name": "สุกัญญา",
        "role": "พิมพ์",
        "date": "2554-02-14"
      },
      {
        "name": "ภีรภัทร",
        "role": "ตรวจ",
        "date": "2554-03-00"
      }
    ],
    "tag": "cd24-20-2512-a0002",
    "title": "โอนที่ดินซึ่งเป็นสาธารณสมบัติของแผ่นดินในท้องที่ตำบลธาตุเชิงชุม อำเภอเมืองสกลนคร จังหวัดสกลนครให้แก่นายเต็ก ตีระสวัสดิ์ชัย"
  }
}