{
  "pages": [
    [
      [
        "พระราชบัญญัติ",
        "โอนที่ดินซึ่งเป็นสาธารณสมบัติของแผ่นดิน ในท้องที่ตำบลท้ายบ้าน",
        "อำเภอเมืองสมุทรปราการ จังหวัดสมุทรปราการ ให้แก่การเคหะแห่งชาติ",
        "พ.ศ. ๒๕๓๑",
        "",
        "",
        "ภูมิพลอดุลยเดช ป.ร.",
        "ให้ไว้ ณ วันที่ ๒๘ พฤศจิกายน พ.ศ. ๒๕๓๑",
        "เป็นปีที่ ๔๓ ในรัชกาลปัจจุบัน"
      ]
    ],
    []
  ],
  "metadata": {
    "date_header": "2531-11-28",
    "date_modified": "2531-12-14",
    "date_original": "2531-12-14",
    "doctype": "พระราชบัญญัติ",
    "editors": [
      {
        "name": "ละออง",
        "role": "พิมพ์",
        "date": "2544-07-09"
      },
      {
        "name": "ปาจรีย์",
        "role": "ปรับปรุง",
        "date": "2549-09-01"
      }
    ],
    "tag": "cd24-20-2531-a0001",
    "title": "โอนที่ดินซึ่งเป็นสาธารณสมบัติของแผ่นดิน ในท้องที่ตำบลท้ายบ้านอำเภอเมืองสมุทรปราการ จังหวัดสมุทรปราการ ให้แก่การเคหะแห่งชาติ"
  }
}