{
  "pages": [
    [
      [
        "พระราชบัญญัติ",
        "จดทะเบียนครอบครัว (ฉบับที่ ๓)",
        "พ.ศ. ๒๕๓๓",
        "",
        "",
        "ภูมิพลอดุลยเดช ป.ร.",
        "ให้ไว้ ณ วันที่ ๘ กันยายน พ.ศ. ๒๕๓๓",
        "เป็นปีที่ ๔๕ ในรัชกาลปัจจุบัน"
      ]
    ],
    []
  ],
  "metadata": {
    "date_header": "2533-09-08",
    "date_modified": "2533-09-26",
    "date_original": "2533-09-26",
    "doctype": "พระราชบัญญัติ",
    "editors": [
      {
        "name": "สัญชัย",
        "role": "ผู้จัดทำ",
        "date": "2552-02-24"
      },
      {
        "name": "พิมลกร",
        "role": "ปรับปรุง",
        "date": "2556-11-08"
      },
      {
        "name": "วิชพงษ์",
        "role": "ตรวจ",
        "date": "2556-11-22"
      }
    ],
    "tag": "a801-20-2533-003",
    "title": "จดทะเบียนครอบครัว (ฉบับที่ ๓)"
  }
}