{
  "pages": [
    [
      [
        "กฎกระทรวง",
        "ฉบับที่ ๕ (พ.ศ. ๒๕๐๓)",
        "ออกตามความในพระราชบัญญัติจดทะเบียนครอบครัว",
        "พุทธศักราช ๒๔๗๘"
      ]
    ],
    []
  ],
  "metadata": {
    "date_backmatter": "2503-08-26",
    "date_modified": "2503-09-27",
    "date_original": "2503-09-27",
    "doctype": "กฎกระทรวง",
    "editors": [
      {
        "name": "พัชรี",
        "role": "ผู้จัดทำ",
        "date": "2553-10-26"
      },
      {
        "name": "กวินทราดา",
        "role": "ตรวจ"
      }
    ],
    "tag": "a801-2b-2503-005"
  }
}