{
  "pages": [
    [
      [
        "กฎกระทรวง",
        "ฉบับที่ ๗ (พ.ศ. ๒๕๓๘)",
        "ออกตามความในพระราชบัญญัติจดทะเบียนครอบครัว",
        "พุทธศักราช ๒๔๗๘"
      ]
    ],
    []
  ],
  "metadata": {
    "date_backmatter": "2538-08-15",
    "date_modified": "2538-11-28",
    "date_original": "2538-11-28",
    "doctype": "กฎกระทรวง",
    "editors": [
      {
        "name": "พัชรี",
        "role": "ผู้จัดทำ",
        "date": "2553-10-26"
      },
      {
        "name": "กวินทราดา",
        "role": "ตรวจ"
      }
    ],
    "tag": "a801-2b-2538-007"
  }
}