{
  "pages": [
    [
      [
        "กฎกระทรวงมหาดไทย",
        "ออกตามความในพระราชบัญญัติจดทะเบียนครอบครัว",
        "พุทธศักราช ๒๔๗๘ (ฉบับที่ ๒)"
      ]
    ],
    []
  ],
  "metadata": {
    "date_backmatter": "2483-04-25",
    "date_modified": "2483-04-30",
    "date_original": "2483-04-30",
    "doctype": "กฎกระทรวง",
    "editors": [
      {
        "name": "พัชรี",
        "role": "ผู้จัดทำ",
        "date": "2553-10-26"
      },
      {
        "name": "กวินทราดา",
        "role": "ตรวจ"
      }
    ],
    "tag": "a801-2b-2483-002"
  }
}