{
  "pages": [
    [
      [
        "ประกาศกระทรวงสาธารณสุข",
        "(ฉบับที่ ๑๓) พ.ศ. ๒๕๕๐",
        "เรื่อง หลักเกณฑ์ วิธีการ และเงื่อนไขการแสดงฉลากรูปภาพและข้อความคำเตือน",
        "ถึงพิษภัยของบุหรี่ซิการ์",
        "ตามพระราชบัญญัติควบคุมผลิตภัณฑ์ยาสูบ พ.ศ. ๒๕๓๕"
      ]
    ],
    []
  ],
  "metadata": {
    "date_backmatter": "2550-02-27",
    "date_modified": "2550-03-20",
    "date_original": "2550-03-20",
    "doctype": "ประกาศ",
    "editors": [
      {
        "name": "โสรศ",
        "role": "ผู้จัดทำ",
        "date": "2550-03-29"
      },
      {
        "name": "ก้องเกียรติ",
        "role": "ผู้จัดทำ",
        "date": "2552-04-09"
      }
    ],
    "tag": "a464-2e-2550-a0001"
  }
}