{
  "pages": [
    [
      [
        "ประกาศคณะกรรมการบริหาร",
        "เรื่อง หลักเกณฑ์การตรวจสอบสถานที่เก็บรักษาน้ำตาลทรายนอกโรงงาน"
      ]
    ],
    []
  ],
  "metadata": {
    "date_backmatter": "2558-01-20",
    "date_modified": "2558-02-19",
    "date_original": "2558-02-19",
    "doctype": "ประกาศ",
    "editors": [
      {
        "name": "ปริยานุช",
        "role": "ผู้จัดทำ",
        "date": "2558-02-24"
      },
      {
        "name": "ปริญสินีย์",
        "role": "ผู้ตรวจ",
        "date": "2558-02-26"
      }
    ],
    "tag": "cd12-2e-2558-a0008"
  }
}