{
  "pages": [
    [
      [
        "ประกาศคณะกรรมการอ้อย",
        "เรื่อง การจัดสรรปริมาณอ้อยขั้นต้นประจำฤดูการผลิตปี ๒๕๕๕/๒๕๕๖",
        "(บัญชีจัดสรรขั้นต้น)"
      ]
    ],
    []
  ],
  "metadata": {
    "date_backmatter": "2555-07-16",
    "date_modified": "2555-10-02",
    "date_original": "2555-10-02",
    "doctype": "ประกาศ",
    "editors": [
      {
        "name": "ปริยานุช",
        "role": "ผู้จัดทำ",
        "date": "2555-10-08"
      },
      {
        "name": "ชาญ",
        "role": "ผู้ตรวจ",
        "date": "2555-10-15"
      }
    ],
    "tag": "cd12-2e-2555-a0009"
  }
}