{
  "pages": [
    [
      [
        "ประกาศสำนักงานศาลปกครอง",
        "เรื่อง ศาลปกครองพิพากษาถึงที่สุดให้เพิกถอนกฎ"
      ]
    ],
    []
  ],
  "metadata": {
    "date_backmatter": "2551-05-30",
    "date_modified": "2551-06-05",
    "date_original": "2551-06-05",
    "doctype": "ประกาศ",
    "editors": [
      {
        "name": "พัชรินทร์",
        "role": "จัดทำ",
        "date": "2551-06-05"
      },
      {
        "name": "ศิรวัชร์",
        "role": "ปรับปรุง",
        "date": "2561-03-29"
      }
    ],
    "tag": "cd12-2e-2551-a0007"
  }
}