{
  "pages": [
    [
      [
        "ประกาศคณะกรรมการอ้อยและน้ำตาลทราย",
        "เรื่อง กำหนดชนิดและปริมาณน้ำตาลทรายที่ให้โรงงานน้ำตาลผลิตในฤดูการผลิตปี ๒๕๕๒/๒๕๕๓",
        "(บัญชีจัดสรรขั้นต้น)"
      ]
    ],
    []
  ],
  "metadata": {
    "date_backmatter": "2553-04-05",
    "date_modified": "2553-05-14",
    "date_original": "2553-05-14",
    "doctype": "ประกาศ",
    "editors": [
      {
        "name": "ปริยานุช",
        "role": "จัดทำ",
        "date": "2553-06-07"
      },
      {
        "name": "นันท์นภัสร์",
        "role": "ตรวจ",
        "date": "2553-06-07"
      },
      {
        "name": "ศิรวัชร์",
        "role": "ปรับปรุง",
        "date": "2561-03-22"
      }
    ],
    "tag": "cd12-2e-2553-a0005"
  }
}