{
  "pages": [
    [
      [
        "ประกาศคณะกรรมการอ้อยและน้ำตาลทราย",
        "เรื่อง กำหนดราคาจำหน่ายน้ำตาลทรายเพื่อใช้บริโภคในราชอาณาจักร"
      ]
    ],
    []
  ],
  "metadata": {
    "date_backmatter": "2551-04-30",
    "date_modified": "2551-04-31",
    "date_original": "2551-04-31",
    "doctype": "ประกาศ",
    "editors": [
      {
        "name": "วัชศักดิ์",
        "role": "จัดทำ",
        "date": "2551-05-06"
      },
      {
        "name": "ศิรวัชร์",
        "role": "ปรับปรุง",
        "date": "2561-03-29"
      }
    ],
    "tag": "cd12-2e-2551-a0006"
  }
}