{
  "pages": [
    [
      [
        "ระเบียบคณะกรรมการอ้อยและน้ำตาลทราย",
        "ฉบับที่ ๔ พ.ศ. ๒๕๓๑",
        "ว่าด้วย การจดทะเบียนสถาบันชาวไร่อ้อย"
      ]
    ],
    []
  ],
  "metadata": {
    "date_backmatter": "2531-07-21",
    "date_modified": "2531-07-26",
    "date_original": "2531-07-26",
    "editors": [
      {
        "name": "สถาพร",
        "role": "จัดทำ",
        "date": "2550-09-05"
      },
      {
        "name": "ศิรวัชร์",
        "role": "ปรับปรุง",
        "date": "2561-04-10"
      }
    ],
    "tag": "cd12-2g-2531-a003"
  }
}