{
  "pages": [
    [
      [
        "ประกาศคณะกรรมการอ้อย",
        "เรื่อง การจัดสรรปริมาณอ้อยขั้นต้นประจำฤดูการผลิตปี ๒๕๕๔/๒๕๕๕",
        "(บัญชีจัดสรรขั้นต้น)"
      ]
    ],
    []
  ],
  "metadata": {
    "date_backmatter": "2554-07-05",
    "date_modified": "2554-08-11",
    "date_original": "2554-08-11",
    "doctype": "ประกาศ",
    "editors": [
      {
        "name": "ปริยานุช",
        "role": "ผู้จัดทำ",
        "date": "2554-09-06"
      },
      {
        "name": "ณัฐวดี",
        "role": "ตรวจ",
        "date": "2554-09-06"
      }
    ],
    "tag": "cd12-2e-2554-a0008"
  }
}