{
  "pages": [
    [
      [
        "ระเบียบกระทรวงเกษตรและสหกรณ์",
        "กระทรวงพาณิชย์และกระทรวงอุตสาหกรรม",
        "ฉบับที่ ๒ พ.ศ. ๒๕๒๙",
        "ว่าด้วย การเสนอและถอดถอนผู้แทนชาวไร่อ้อย และผู้แทนโรงงาน"
      ]
    ],
    []
  ],
  "metadata": {
    "date_backmatter": "2529-10-24",
    "date_modified": "2529-11-04",
    "date_original": "2529-11-04",
    "editors": [
      {
        "name": "อมรรัตน์",
        "role": "จัดทำ",
        "date": "2549-11-27"
      },
      {
        "name": "ศิรวัชร์",
        "role": "ปรับปรุง",
        "date": "2561-04-11"
      }
    ],
    "tag": "cd12-2g-2529-005"
  }
}