{
  "pages": [
    [
      [
        "ระเบียบคณะกรรมการอ้อยและน้ำตาลทราย",
        "เรื่อง การยกเลิกระเบียบคณะกรรมการอ้อยและน้ำตาลทราย",
        "พ.ศ. ๒๕๕๐"
      ]
    ],
    []
  ],
  "metadata": {
    "date_backmatter": "2550-05-21",
    "date_modified": "2550-06-04",
    "date_original": "2550-06-04",
    "editors": [
      {
        "name": "โสรศ",
        "role": "จัดทำ",
        "date": "2550-06-13"
      },
      {
        "name": "ศิรวัชร์",
        "role": "ปรับปรุง",
        "date": "2561-04-09"
      }
    ],
    "tag": "cd12-2g-2550-a0003"
  }
}