{
  "pages": [
    [
      [
        "ประกาศคณะกรรมการบริหาร",
        "ฉบับที่ ๓ พ.ศ. ๒๕๔๖",
        "เรื่อง กำหนดวันเริ่มต้นการหีบอ้อยผลิตน้ำตาลทรายฤดูการผลิต",
        "ปี ๒๕๔๖/๒๕๔๗"
      ]
    ],
    []
  ],
  "metadata": {
    "date_backmatter": "2546-11-21",
    "date_modified": "2546-12-08",
    "date_original": "2546-12-08",
    "doctype": "ประกาศ",
    "editors": [
      {
        "name": "พรพิมล",
        "role": "พิมพ์",
        "date": "2547-03-02"
      },
      {
        "name": "จีระ/ต่อศักดิ์",
        "role": "ตรวจ",
        "date": "2547-04-09"
      },
      {
        "name": "อมรรัตน์",
        "role": "ปรับปรุง",
        "date": "2549-11-23"
      },
      {
        "name": "ศิรวัชร์",
        "role": "ปรับปรุง",
        "date": "2561-04-03"
      }
    ],
    "tag": "cd12-2e-2546-a0007"
  }
}