{
  "pages": [
    [
      [
        "ระเบียบคณะกรรมการอ้อยและน้ำตาลทราย",
        "ฉบับที่ ๑ พ.ศ. ๒๕๔๓",
        "ว่าด้วย หลักเกณฑ์ วิธีการ และเงื่อนไขการจัดเก็บเงินจากการจำหน่าย",
        "น้ำตาลทรายขาวบริสุทธิ์ น้ำตาลทรายขาว และน้ำตาลทรายสีรำ",
        "ภายในราชอาณาจักรเข้ากองทุนอ้อยและน้ำตาลทราย"
      ]
    ],
    []
  ],
  "metadata": {
    "date_backmatter": "2543-06-16",
    "date_modified": "2547-11-05",
    "date_original": "2543-06-23",
    "editors": [
      {
        "name": "นฤดล",
        "role": "จัดทำ",
        "date": "2551-10-30"
      },
      {
        "name": "ศิรวัชร์",
        "role": "ปรับปรุง",
        "date": "2561-04-05"
      }
    ],
    "tag": "cd12-2g-9996-update"
  }
}