{
  "pages": [
    [
      [
        "ประกาศกระทรวงเกษตรและสหกรณ์",
        "กระทรวงพาณิชย์ และกระทรวงอุตสาหกรรม",
        "เรื่อง งบดุลและรายงานผลการปฏิบัติงานของกองทุนอ้อยและน้ำตาลทราย",
        "ประจำปี ๒๕๔๙"
      ]
    ],
    []
  ],
  "metadata": {
    "date_backmatter": "2549-09-30",
    "date_modified": "2552-08-06",
    "date_original": "2552-08-06",
    "doctype": "ประกาศ",
    "editors": [
      {
        "name": "ปริยานุช",
        "role": "ผู้จัดทำ",
        "date": "2552-08-17"
      }
    ],
    "tag": "cd12-2e-2552-a0011"
  }
}