{
  "pages": [
    [
      [
        "ประกาศคณะกรรมการอ้อยและน้ำตาลทราย",
        "เรื่อง หลักเกณฑ์และวิธีการดำเนินการเกี่ยวกับเงินที่หักจากค่าอ้อยไฟไหม้ (ฉบับที่ ๒)",
        "พ.ศ. ๒๕๕๔"
      ]
    ],
    []
  ],
  "metadata": {
    "date_backmatter": "2554-09-16",
    "date_modified": "2554-11-16",
    "date_original": "2554-11-16",
    "doctype": "ประกาศ",
    "editors": [
      {
        "name": "ปริยานุช",
        "role": "ผู้จัดทำ",
        "date": "2554-11-22"
      },
      {
        "name": "ชาญ",
        "role": "ผู้ตรวจ",
        "date": "2554-11-25"
      }
    ],
    "tag": "cd12-2e-2554-a0015"
  }
}