{
  "pages": [
    [
      [
        "ระเบียบคณะกรรมการอ้อยและน้ำตาลทราย",
        "ว่าด้วย การจัดสรรปริมาณอ้อยขั้นต้นประจำฤดูการผลิตปี ๒๕๕๑/๒๕๕๒",
        "พ.ศ. ๒๕๕๒"
      ]
    ],
    []
  ],
  "metadata": {
    "date_backmatter": "2552-03-11",
    "date_modified": "2552-04-08",
    "date_original": "2552-04-08",
    "editors": [
      {
        "name": "ปริยานุช",
        "role": "จัดทำ",
        "date": "2552-04-28"
      },
      {
        "name": "ศิรวัชร์",
        "role": "ปรับปรุง",
        "date": "2561-04-09"
      }
    ],
    "tag": "cd12-2g-2552-a0002"
  }
}