{
  "pages": [
    [
      [
        "ประกาศคณะกรรมการอ้อย",
        "เรื่อง การจัดสรรปริมาณอ้อยขั้นสุดท้ายประจำฤดูการผลิตปี ๒๕๕๖/๒๕๕๗",
        "(บัญชีจัดสรรขั้นสุดท้าย)"
      ]
    ],
    []
  ],
  "metadata": {
    "date_backmatter": "2556-09-17",
    "date_modified": "2556-11-13",
    "date_original": "2556-11-13",
    "doctype": "ประกาศ",
    "editors": [
      {
        "name": "ปริยานุช",
        "role": "ผู้จัดทำ",
        "date": "2556-11-18"
      },
      {
        "name": "โชติกานต์",
        "role": "ผู้ตรวจ",
        "date": "2556-11-26"
      }
    ],
    "tag": "cd12-2e-2556-a0015"
  }
}