{
  "pages": [
    [
      [
        "ระเบียบคณะกรรมการอ้อยและน้ำตาลทราย",
        "ว่าด้วยการกำหนดปริมาณน้ำตาลทรายให้โรงงานผลิต",
        "พ.ศ. ๒๕๖๑"
      ]
    ],
    []
  ],
  "metadata": {
    "date_backmatter": "2561-01-15",
    "date_modified": "2561-01-15",
    "date_original": "2561-01-15",
    "editors": [
      {
        "name": "พัชรภรณ์",
        "role": "จัดทำ",
        "date": "2561-02-28"
      }
    ],
    "tag": "cd12-2g-2561-a0001"
  }
}