{
  "pages": [
    [
      [
        "ระเบียบคณะกรรมการอ้อยและน้ำตาลทราย",
        "ว่าด้วยการตัดและส่งอ้อยให้แก่โรงงาน การตรวจสอบคุณภาพอ้อย",
        "และการรับอ้อยจากชาวไร่อ้อยหรือหัวหน้ากลุ่มชาวไร่อ้อย",
        "(ฉบับที่ ๒) พ.ศ. ๒๕๖๐"
      ]
    ],
    []
  ],
  "metadata": {
    "date_backmatter": "2560-11-13",
    "date_modified": "2560-12-01",
    "date_original": "2560-12-01",
    "editors": [
      {
        "name": "พิมพ์มาดา/อัญชลี",
        "role": "จัดทำ",
        "date": "2560-12-08"
      }
    ],
    "tag": "cd12-2g-2560-a0002"
  }
}