{
  "pages": [
    [
      [
        "ประกาศกระทรวงเกษตรและสหกรณ์ กระทรวงพาณิชย์",
        "และกระทรวงอุตสาหกรรม",
        "เรื่อง งบดุลและรายงานผลการปฏิบัติงานของกองทุนอ้อยและน้ำตาลทราย",
        "ประจำปี ๒๕๕๔"
      ]
    ],
    []
  ],
  "metadata": {
    "date_backmatter": "2557-04-18",
    "date_modified": "2557-06-03",
    "date_original": "2557-06-03",
    "doctype": "ประกาศ",
    "editors": [
      {
        "name": "ปริยานุช",
        "role": "ผู้จัดทำ",
        "date": "2557-06-09"
      },
      {
        "name": "นุสรา",
        "role": "ผู้ตรวจ",
        "date": "2557-07-15"
      }
    ],
    "tag": "cd12-2e-2557-a0006"
  }
}