{
  "pages": [
    [
      [
        "พระราชกฤษฎีกา",
        "จัดตั้งสำนักเทคโนโลยีการศึกษา มหาวิทยาลัยรามคำแหง",
        "พ.ศ. ๒๕๒๙",
        "",
        "",
        "ภูมิพลอดุลยเดช ป.ร.",
        "ให้ไว้ ณ วันที่ ๘ เมษายน พ.ศ. ๒๕๒๙",
        "เป็นปีที่ ๔๑ ในรัชกาลปัจจุบัน"
      ]
    ],
    []
  ],
  "metadata": {
    "date_header": "2529-04-08",
    "date_modified": "2529-04-14",
    "date_original": "2529-04-14",
    "doctype": "พระราชกฤษฎีกา",
    "editors": [
      {
        "name": "มณฑิตา",
        "role": "ผู้จัดทำ",
        "date": "2554-02-02"
      },
      {
        "name": "วิภา",
        "role": "ผู้ตรวจ",
        "date": "2554-05-27"
      }
    ],
    "tag": "c129-2a-2529-002",
    "title": "จัดตั้งสำนักเทคโนโลยีการศึกษา มหาวิทยาลัยรามคำแหง"
  }
}