{
  "pages": [
    [
      [
        "พระราชกฤษฎีกา",
        "ว่าด้วยปริญญาในสาขาวิชา อักษรย่อสำหรับสาขาวิชา",
        "ครุยวิทยฐานะและเข็มวิทยฐานะ ของมหาวิทยาลัยรามคำแหง",
        "พ.ศ. ๒๕๑๗",
        "",
        "",
        "ภูมิพลอดุลยเดช ป.ร.",
        "ให้ไว้ ณ วันที่ ๑๑ กันยายน พ.ศ. ๒๕๑๗",
        "เป็นปีที่ ๒๙ ในรัชกาลปัจจุบัน"
      ]
    ],
    []
  ],
  "metadata": {
    "date_header": "2517-09-11",
    "date_modified": "2517-09-20",
    "date_original": "2517-09-20",
    "doctype": "พระราชกฤษฎีกา",
    "editors": [
      {
        "name": "มณฑิตา",
        "role": "ผู้จัดทำ",
        "date": "2554-02-02"
      },
      {
        "name": "วิภา",
        "role": "ผู้ตรวจ",
        "date": "2554-05-26"
      }
    ],
    "tag": "c129-2a-2517-001",
    "title": "ว่าด้วยปริญญาในสาขาวิชา อักษรย่อสำหรับสาขาวิชาครุยวิทยฐานะและเข็มวิทยฐานะ ของมหาวิทยาลัยรามคำแหง"
  }
}