{
  "pages": [
    [
      [
        "ระเบียบสภาการสาธารณสุขชุมชน",
        "ว่าด้วยการเลือก การเลือกตั้ง และการแต่งตั้งกรรมการในคณะกรรมการสภาการสาธารณสุขชุมชน",
        "พ.ศ. ๒๕๕๙"
      ]
    ],
    []
  ],
  "metadata": {
    "date_backmatter": "2559-02-05",
    "date_modified": "2559-03-30",
    "date_original": "2559-03-30",
    "editors": [
      {
        "name": "ปริยานุช",
        "role": "จัดทำ",
        "date": "2559-04-04"
      },
      {
        "name": "ชวัลพร",
        "role": "ตรวจ",
        "date": "2559-04-04"
      }
    ],
    "tag": "c779-2g-2559-a0001"
  }
}