{
  "pages": [
    [
      [
        "พระราชบัญญัติ",
        "สัญชาติ (ฉบับที่ ๔)",
        "พ.ศ. ๒๕๕๑",
        "",
        "",
        "ภูมิพลอดุลยเดช ป.ร.",
        "ให้ไว้ ณ วันที่ ๑๙ กุมภาพันธ์ พ.ศ. ๒๕๕๑",
        "เป็นปีที่ ๖๓ ในรัชกาลปัจจุบัน"
      ]
    ],
    []
  ],
  "metadata": {
    "date_header": "2551-02-19",
    "date_modified": "2551-02-27",
    "date_original": "2551-02-27",
    "doctype": "พระราชบัญญัติ",
    "editors": [
      {
        "name": "วัชศักดิ์",
        "role": "ผู้จัดทำ",
        "date": "2551-03-05"
      },
      {
        "name": "ภีรภัทร",
        "role": "ปรับปรุง",
        "date": "2553-12-20"
      },
      {
        "name": "ปณตภร",
        "role": "ปรับปรุง",
        "date": "2555-04-04"
      }
    ],
    "tag": "ca25-20-2551-a0001",
    "title": "สัญชาติ (ฉบับที่ ๔)"
  }
}