{
  "pages": [
    [
      [
        "พระราชบัญญัติ",
        "สัญชาติ",
        "พ.ศ. ๒๕๐๘",
        "",
        "",
        "ภูมิพลอดุลยเดช ป.ร.",
        "ให้ไว้ ณ วันที่ ๒๑ กรกฎาคม พ.ศ. ๒๕๐๘",
        "เป็นปีที่ ๒๐ ในรัชกาลปัจจุบัน"
      ]
    ],
    []
  ],
  "metadata": {
    "date_header": "2508-07-21",
    "date_modified": "2555-03-21",
    "date_original": "2508-08-04",
    "doctype": "พระราชบัญญัติ",
    "editors": [
      {
        "name": "ปณตภร",
        "role": "จัดทำ",
        "date": "2555-04-04"
      }
    ],
    "tag": "ca25-20-9999-update",
    "title": "สัญชาติ"
  }
}