{
  "pages": [
    [
      [
        "ประกาศการไฟฟ้าฝ่ายผลิตแห่งประเทศไทย",
        "เรื่อง กำหนดเขตสำรวจสายส่งไฟฟ้าขนาด ๕๐๐ กิโลโวลต์",
        "จากชายแดน (บริเวณจังหวัดหนองคาย) ไปยังสถานีไฟฟ้าย่อยอุดรธานี ๓"
      ]
    ],
    []
  ],
  "metadata": {
    "date_backmatter": "2548-04-26",
    "date_modified": "2548-06-02",
    "date_original": "2548-06-02",
    "doctype": "ประกาศ",
    "editors": [
      {
        "name": "อัมภิญา",
        "role": "พิมพ์",
        "date": "2550-09-25"
      },
      {
        "name": "สุนันทา",
        "role": "ตรวจ",
        "date": "2550-09-26"
      }
    ],
    "tag": "a131-2e-2548-a0003"
  }
}