{
  "pages": [
    [
      [
        "ประกาศการไฟฟ้าฝ่ายผลิตแห่งประเทศไทย",
        "เรื่อง การออกพันธบัตรการไฟฟ้าฝ่ายผลิตแห่งประเทศไทย",
        "พ.ศ. ๒๕๔๓ ครั้งที่ ๑๕"
      ]
    ],
    []
  ],
  "metadata": {
    "date_backmatter": "2543-04-25",
    "date_modified": "2543-04-25",
    "date_original": "2543-04-25",
    "doctype": "ประกาศ",
    "editors": [
      {
        "name": "สรัลพร",
        "role": "พิมพ์",
        "date": "2550-11-19"
      },
      {
        "name": "สุนันทา",
        "role": "ตรวจ",
        "date": "2550-01-14"
      },
      {
        "name": "ปัญจพร",
        "role": "ปรับปรุง",
        "date": "2560-07-25"
      }
    ],
    "tag": "a131-2e-2543-a0005"
  }
}