{
  "pages": [
    [
      [
        "ประกาศการไฟฟ้าฝ่ายผลิตแห่งประเทศไทย",
        "เรื่อง กำหนดเขตสำรวจสายส่งไฟฟ้าขนาด ๕๐๐ กิโลโวลต์.",
        "จากสถานีไฟฟ้าย่อยปลวกแดง ไปยังจุดเชื่อมสายส่ง",
        "๕๐๐ กิโลโวลต์ หนองจอก - วังน้อย"
      ]
    ],
    []
  ],
  "metadata": {
    "date_backmatter": "2540-12-03",
    "date_modified": "2540-12-23",
    "date_original": "2540-12-23",
    "doctype": "ประกาศ",
    "editors": [
      {
        "name": "ปัญจพร",
        "role": "ผู้จัดทำ",
        "date": "2560-07-25"
      }
    ],
    "tag": "a131-2e-2540-a0009"
  }
}