{
  "pages": [
    [
      [
        "ประกาศการไฟฟ้าฝ่ายผลิตแห่งประเทศไทย",
        "เรื่อง ข้อกำหนดเพื่อความปลอดภัยในเขตเดินสายไฟฟ้า"
      ]
    ],
    []
  ],
  "metadata": {
    "date_backmatter": "2546-12-12",
    "date_modified": "2546-12-25",
    "date_original": "2546-12-25",
    "doctype": "ประกาศ",
    "editors": [
      {
        "name": "ญาณี",
        "role": "พิมพ์",
        "date": "2547-03-31"
      },
      {
        "name": "ทรงยศ/ศุภสรณ์",
        "role": "ตรวจ",
        "date": "2547-04-28"
      },
      {
        "name": "ปัญจพร",
        "role": "ปรับปรุง",
        "date": "2560-07-25"
      }
    ],
    "tag": "a131-2e-2546-a0001"
  }
}