{
  "pages": [
    [
      [
        "ประกาศการไฟฟ้าฝ่ายผลิตแห่งประเทศไทย",
        "เรื่อง เขตเดินสายไฟฟ้าในเขตท้องที่ภาคใต้"
      ]
    ],
    []
  ],
  "metadata": {
    "date_backmatter": "2550-09-07",
    "date_modified": "2550-09-28",
    "date_original": "2550-09-28",
    "doctype": "ประกาศ",
    "editors": [
      {
        "name": "วัชศักดิ์",
        "role": "ผู้จัดทำ",
        "date": "2550-10-09"
      }
    ],
    "tag": "a131-2e-2550-a0033"
  }
}