{
  "pages": [
    [
      [
        "ประกาศการไฟฟ้าฝ่ายผลิตแห่งประเทศไทย",
        "เรื่อง การออกพันธบัตรการไฟฟ้าฝ่ายผลิตแห่งประเทศไทย",
        "พ.ศ. ๒๕๕๒ ครั้งที่ ๓๑"
      ]
    ],
    []
  ],
  "metadata": {
    "date_backmatter": "2552-08-20",
    "date_modified": "2552-10-19",
    "date_original": "2552-10-19",
    "doctype": "ประกาศ",
    "editors": [
      {
        "name": "ปริยานุช",
        "role": "ผู้จัดทำ",
        "date": "2552-10-29"
      },
      {
        "name": "นันท์นภัสร์",
        "role": "ตรวจ",
        "date": "2552-10-29"
      }
    ],
    "tag": "a131-2e-2552-a0031"
  }
}