{
  "pages": [
    [
      [
        "ข้อบังคับการไฟฟ้าฝ่ายผลิตแห่งประเทศไทย",
        "ฉบับที่ ๑๘๕",
        "ว่าด้วย การพัสดุ"
      ]
    ],
    []
  ],
  "metadata": {
    "date_backmatter": "2529-08-20",
    "date_modified": "2534-09-26",
    "date_original": "2525-11-18",
    "editors": [
      {
        "name": "เอกฤทธิ์",
        "role": "ผู้จัดทำ",
        "date": "2551-11-07"
      }
    ],
    "tag": "a131-2i-2534-a234"
  }
}