{
  "pages": [
    [
      [
        "การไฟฟ้าฝ่ายผลิตแห่งประเทศไทย",
        "รายงานของผู้สอบบัญชี"
      ]
    ],
    []
  ],
  "metadata": {
    "date_backmatter": "2521-09-30",
    "date_modified": "2522-04-03",
    "date_original": "2522-04-03",
    "editors": [
      {
        "name": "ปัญจพร",
        "role": "ผู้จัดทำ",
        "date": "2560-07-25"
      }
    ],
    "tag": "a131-2m-2522-001"
  }
}