{
  "pages": [
    [
      [
        "ประกาศการไฟฟ้าฝ่ายผลิตแห่งประเทศไทย",
        "เรื่อง กำหนดเขตสำรวจสายส่งไฟฟ้าขนาด ๑๑๕ กิโลโวลท์ จาก",
        "อำเภอพนม ถึง บริเวณโครงการก่อสร้างไฟฟ้าพลังน้ำเขื่อนเชี่ยวหลาน",
        "อำเภอบ้านตาขุน จังหวัดสุราษฎร์ธานี"
      ]
    ],
    []
  ],
  "metadata": {
    "date_backmatter": "2523-06-19",
    "date_modified": "2523-06-27",
    "date_original": "2523-06-27",
    "doctype": "ประกาศ",
    "editors": [
      {
        "name": "ดลธี",
        "role": "พิมพ์",
        "date": "2550-09-24"
      },
      {
        "name": "ปัญจพร",
        "role": "ปรับปรุง",
        "date": "2560-07-25"
      }
    ],
    "tag": "a131-2e-2523-a010"
  }
}