{
  "pages": [
    [
      [
        "ประกาศการไฟฟ้าฝ่ายผลิตแห่งประเทศไทย",
        "เรื่อง กำหนดเขตสำรวจสายส่งไฟฟ้าขนาด ๕๐๐ กิโลโวลต์",
        "จากชายแดน (บริเวณจังหวัดน่าน) ไปยังสถานีไฟฟ้าย่อยแม่เมาะ ๓",
        "(ฉบับที่ ๒)"
      ]
    ],
    []
  ],
  "metadata": {
    "date_backmatter": "2551-01-25",
    "date_modified": "2551-02-19",
    "date_original": "2551-02-19",
    "doctype": "ประกาศ",
    "editors": [
      {
        "name": "ปริยานุช",
        "role": "ผู้จัดทำ",
        "date": "2551-02-26"
      }
    ],
    "tag": "a131-2e-2551-a0012"
  }
}