{
  "pages": [
    [
      [
        "ประกาศการไฟฟ้าฝ่ายผลิตแห่งประเทศไทย",
        "เรื่อง กำหนดเขตสำรวจสายส่งไฟฟ้าขนาด ๒๓๐ กิโลโวลต์",
        "จากสถานีไฟฟ้าย่อยกระบี่ ไปยังสถานีไฟฟ้าย่อยทุ่งสง"
      ]
    ],
    []
  ],
  "metadata": {
    "date_backmatter": "2539-08-29",
    "date_modified": "2539-09-03",
    "date_original": "2539-09-03",
    "doctype": "ประกาศ",
    "editors": [
      {
        "name": "ดลธี",
        "role": "พิมพ์",
        "date": "2550-09-24"
      },
      {
        "name": "สุนันทา",
        "role": "ตรวจ",
        "date": "2550-09-25"
      },
      {
        "name": "ปัญจพร",
        "role": "ปรับปรุง",
        "date": "2560-07-25"
      }
    ],
    "tag": "a131-2e-2539-a0016"
  }
}