{
  "pages": [
    [
      [
        "ประกาศการไฟฟ้าฝ่ายผลิตแห่งประเทศไทย",
        "เรื่อง กำหนดเขตสำรวจสายส่งไฟฟ้าขนาด ๑๑๕ กิโลโวลต์",
        "จากสถานีไฟฟ้าย่อยหนองบัวลำภู ไปยังสถานีไฟฟ้าย่อยเลย"
      ]
    ],
    []
  ],
  "metadata": {
    "date_backmatter": "2550-02-19",
    "date_modified": "2550-03-20",
    "date_original": "2550-03-20",
    "doctype": "ประกาศ",
    "editors": [
      {
        "name": "โสรศ",
        "role": "ผู้จัดทำ",
        "date": "2550-03-29"
      }
    ],
    "tag": "a131-2e-2550-a0005"
  }
}