{
  "pages": [
    [
      [
        "ประกาศการไฟฟ้าฝ่ายผลิตแห่งประเทศไทย",
        "เรื่อง การออกพันธบัตรการไฟฟ้าฝ่ายผลิตแห่งประเทศไทย",
        "พ.ศ. ๒๕๕๒ ครั้งที่ ๒๒"
      ]
    ],
    []
  ],
  "metadata": {
    "date_backmatter": "2552-07-23",
    "date_modified": "2552-09-18",
    "date_original": "2552-09-18",
    "doctype": "ประกาศ",
    "editors": [
      {
        "name": "ปริยานุช",
        "role": "ผู้จัดทำ",
        "date": "2552-09-30"
      }
    ],
    "tag": "a131-2e-2552-a0022"
  }
}