{
  "pages": [
    [
      [
        "ประกาศการไฟฟ้าฝ่ายผลิตแห่งประเทศไทย",
        "เรื่อง การออกพันธบัตรการไฟฟ้าฝ่ายผลิตแห่งประเทศไทย พ.ศ. ๒๕๕๖",
        "ครั้งที่ ๖"
      ]
    ],
    []
  ],
  "metadata": {
    "date_backmatter": "2556-04-25",
    "date_modified": "2556-05-27",
    "date_original": "2556-05-27",
    "doctype": "ประกาศ",
    "editors": [
      {
        "name": "ปริยานุช",
        "role": "ผู้จัดทำ",
        "date": "2556-05-29"
      },
      {
        "name": "โชติกานต์",
        "role": "ผู้ตรวจ",
        "date": "2556-06-07"
      }
    ],
    "tag": "a131-2e-2556-a0006"
  }
}