{
  "pages": [
    [
      [
        "ประกาศการไฟฟ้าฝ่ายผลิตแห่งประเทศไทย",
        "เรื่อง กำหนดเขตสำรวจสายส่งไฟฟ้า ขนาด ๒๓๐ กิโลโวลต์",
        "จากสถานีไฟฟ้าย่อยแม่เมาะ ๓ ไปยังสถานีไฟฟ้าย่อยเชียงราย",
        "(ช่วงแม่เมาะ ๓  พะเยา)"
      ]
    ],
    []
  ],
  "metadata": {
    "date_backmatter": "2534-07-24",
    "date_modified": "2534-08-08",
    "date_original": "2534-08-08",
    "doctype": "ประกาศ",
    "editors": [
      {
        "name": "อัมภิญา",
        "role": "พิมพ์",
        "date": "2550-09-24"
      },
      {
        "name": "ปัญจพร",
        "role": "ปรับปรุง",
        "date": "2560-07-25"
      }
    ],
    "tag": "a131-2e-2534-a0017"
  }
}