{
  "pages": [
    [
      [
        "ประกาศการไฟฟ้าฝ่ายผลิตแห่งประเทศไทย",
        "เรื่อง กำหนดเขตสำรวจสายส่งไฟฟ้า ขนาด ๑๑๕ กิโลโวลท์",
        "จากสถานีไฟฟ้าย่อยอุดรธานี ๒ ไปยังสถานีไฟฟ้าย่อยสกลนคร"
      ]
    ],
    []
  ],
  "metadata": {
    "date_backmatter": "2524-07-24",
    "date_modified": "2524-07-20",
    "date_original": "2524-07-20",
    "doctype": "ประกาศ",
    "editors": [
      {
        "name": "ดลธี",
        "role": "พิมพ์",
        "date": "2550-09-24"
      },
      {
        "name": "สุนันทา",
        "role": "ตรวจ",
        "date": "2550-09-25"
      },
      {
        "name": "ปัญจพร",
        "role": "ปรับปรุง",
        "date": "2560-07-25"
      }
    ],
    "tag": "a131-2e-2524-a0003"
  }
}