{
  "pages": [
    [
      [
        "ประกาศการไฟฟ้าฝ่ายผลิตแห่งประเทศไทย",
        "เรื่อง กำหนดเขตสำรวจสายส่งไฟฟ้าขนาด ๒๓๐/๑๑๕ กิโลโวลต์",
        "จากสถานีไฟฟ้าย่อยศรีมหาโพธิ ไปยังสถานีไฟฟ้าย่อยปราจีนบุรี ๒"
      ]
    ],
    []
  ],
  "metadata": {
    "date_backmatter": "2551-04-30",
    "date_modified": "2551-06-04",
    "date_original": "2551-06-04",
    "doctype": "ประกาศ",
    "editors": [
      {
        "name": "วัชศักดิ์",
        "role": "ผู้จัดทำ",
        "date": "2551-06-09"
      }
    ],
    "tag": "a131-2e-2551-a0004"
  }
}