{
  "pages": [
    [
      [
        "ประกาศการไฟฟ้าฝ่ายผลิตแห่งประเทศไทย",
        "เรื่อง การออกพันธบัตรการไฟฟ้าฝ่ายผลิตแห่งประเทศไทย พ.ศ. ๒๕๕๕",
        "ครั้งที่ ๑๐"
      ]
    ],
    []
  ],
  "metadata": {
    "date_backmatter": "2555-09-06",
    "date_modified": "2555-11-12",
    "date_original": "2555-11-12",
    "doctype": "ประกาศ",
    "editors": [
      {
        "name": "ปริยานุช",
        "role": "ผู้จัดทำ",
        "date": "2555-11-15"
      },
      {
        "name": "ชาญ",
        "role": "ผู้ตรวจ",
        "date": "2555-11-23"
      }
    ],
    "tag": "a131-2e-2555-a0009"
  }
}