{
  "pages": [
    [
      [
        "ประกาศการไฟฟ้าฝ่ายผลิตแห่งประเทศไทย",
        "เรื่อง กำหนดเขตสำรวจที่ตั้งโรงไฟฟ้ากระบี่ แนวระบบสายพานขนส่งถ่านหิน",
        "และพื้นที่อื่น ๆ สำหรับสร้างโรงไฟฟ้ากระบี่"
      ]
    ],
    []
  ],
  "metadata": {
    "date_backmatter": "2556-07-01",
    "date_modified": "2556-07-30",
    "date_original": "2556-07-30",
    "doctype": "ประกาศ",
    "editors": [
      {
        "name": "ปริยานุช",
        "role": "ผู้จัดทำ",
        "date": "2556-08-05"
      },
      {
        "name": "อุษมล",
        "role": "ผู้ตรวจ",
        "date": "2556-08-07"
      }
    ],
    "tag": "a131-2e-2556-a0009"
  }
}