{
  "pages": [
    [
      [
        "พระราชบัญญัติ",
        "การไฟฟ้าฝ่ายผลิตแห่งประเทศไทย",
        "พ.ศ. ๒๕๑๑",
        "",
        "",
        "ภูมิพลอดุลยเดช ป.ร.",
        "ให้ไว้ ณ วันที่ ๓๑ ตุลาคม พ.ศ. ๒๕๑๑",
        "เป็นปีที่ ๒๓ ในรัชกาลปัจจุบัน"
      ]
    ],
    []
  ],
  "metadata": {
    "date_header": "2511-10-31",
    "date_modified": "2511-11-02",
    "date_original": "2511-11-02",
    "doctype": "พระราชบัญญัติ",
    "editors": [
      {
        "name": "สุนันทา",
        "role": "แก้ไข",
        "date": "2544-12-13"
      },
      {
        "name": "พัชรินทร์",
        "role": "แก้ไข",
        "date": "2548-01-11"
      },
      {
        "name": "วศิน",
        "role": "แก้ไข",
        "date": "2552-04-29"
      }
    ],
    "tag": "a131-20-2511-001",
    "title": "การไฟฟ้าฝ่ายผลิตแห่งประเทศไทย"
  }
}