{
  "pages": [
    [
      [
        "ประกาศการไฟฟ้าฝ่ายผลิตแห่งประเทศไทย",
        "เรื่อง การออกพันธบัตรลงทุน",
        "พ.ศ. ๒๕๑๗ ครั้งที่ ๑"
      ]
    ],
    []
  ],
  "metadata": {
    "date_backmatter": "2517-05-29",
    "date_modified": "2517-06-07",
    "date_original": "2517-06-07",
    "doctype": "ประกาศ",
    "editors": [
      {
        "name": "ปัญจพร",
        "role": "ผู้จัดทำ",
        "date": "2560-07-25"
      }
    ],
    "tag": "a131-2e-2517-001"
  }
}