{
  "pages": [
    [
      [
        "ประกาศการไฟฟ้าฝ่ายผลิตแห่งประเทศไทย",
        "เรื่อง กำหนดเขตสำรวจสายส่งไฟฟ้า ขนาด ๑๑๕ กิโลโวลต์",
        "จากสถานีไฟฟ้าย่อยนราธิวาส ไปยังสถานีไฟฟ้าย่อยสุไหงโก - ลก"
      ]
    ],
    []
  ],
  "metadata": {
    "date_backmatter": "2534-04-22",
    "date_modified": "2534-05-14",
    "date_original": "2534-05-14",
    "doctype": "ประกาศ",
    "editors": [
      {
        "name": "ดลธี",
        "role": "พิมพ์",
        "date": "2550-09-24"
      },
      {
        "name": "สุนันทา",
        "role": "ตรวจ",
        "date": "2550-09-25"
      },
      {
        "name": "ปัญจพร",
        "role": "ปรับปรุง",
        "date": "2560-07-25"
      }
    ],
    "tag": "a131-2e-2534-a0010"
  }
}