{
  "pages": [
    [
      [
        "ประกาศการไฟฟ้าฝ่ายผลิตแห่งประเทศไทย",
        "เรื่อง การออกพันธบัตรการไฟฟ้าฝ่ายผลิตแห่งประเทศไทย",
        "พ.ศ. ๒๕๔๒ ครั้งที่ ๔"
      ]
    ],
    []
  ],
  "metadata": {
    "date_backmatter": "2542-08-23",
    "date_modified": "2542-09-09",
    "date_original": "2542-09-09",
    "doctype": "ประกาศ",
    "editors": [
      {
        "name": "นันติญา",
        "role": "พิมพ์",
        "date": "2550-11-19"
      },
      {
        "name": "สุนันทา",
        "role": "ตรวจ",
        "date": "2551-01-16"
      },
      {
        "name": "ปัญจพร",
        "role": "ปรับปรุง",
        "date": "2560-07-25"
      }
    ],
    "tag": "a131-2e-2542-a0005"
  }
}