{
  "pages": [
    [
      [
        "ประกาศการไฟฟ้าฝ่ายผลิตแห่งประเทศไทย",
        "เรื่อง กำหนดเขตสำรวจสายส่งไฟฟ้าขนาด ๑๑๕ กิโลโวลท์",
        "จาก จังหวัดอ่างทอง ถึง จังหวัดสุพรรณบุรี"
      ]
    ],
    []
  ],
  "metadata": {
    "date_backmatter": "2523-07-15",
    "date_modified": "2523-07-29",
    "date_original": "2523-07-29",
    "doctype": "ประกาศ",
    "editors": [
      {
        "name": "ดลธี",
        "role": "พิมพ์",
        "date": "2550-09-24"
      },
      {
        "name": "สุนันทา",
        "role": "ตรวจ",
        "date": "2550-09-25"
      },
      {
        "name": "ปัญจพร",
        "role": "ปรับปรุง",
        "date": "2560-07-25"
      }
    ],
    "tag": "a131-2e-2523-a011"
  }
}