{
  "pages": [
    [
      [
        "ประกาศการไฟฟ้าฝ่ายผลิตแห่งประเทศไทย",
        "เรื่อง กำหนดเขตสำรวจสายส่งไฟฟ้าขนาด ๑๑๕ กิโลโวลต์",
        "จากสถานีไฟฟ้าย่อยแม่แตง ไปยังสถานีไฟฟ้าย่อยแม่ฮ่องสอน"
      ]
    ],
    []
  ],
  "metadata": {
    "date_backmatter": "2542-02-16",
    "date_modified": "2542-03-09",
    "date_original": "2542-03-09",
    "doctype": "ประกาศ",
    "editors": [
      {
        "name": "จำปี",
        "role": "พิมพ์",
        "date": "2550-09-24"
      },
      {
        "name": "ปัญจพร",
        "role": "ปรับปรุง",
        "date": "2560-07-25"
      }
    ],
    "tag": "a131-2e-2542-a0002"
  }
}