{
  "pages": [
    [
      [
        "ประกาศการไฟฟ้าฝ่ายผลิตแห่งประเทศไทย",
        "เรื่อง กำหนดเขตสำรวจสายส่งไฟฟ้าขนาด ๑๑๕ กิโลโวลท์",
        "จากอำเภอวารินชำราบ ถึงบริเวณโครงการปากมูล",
        "อำเภอโขงเจียม จังหวัดอุบลราชธานี"
      ]
    ],
    []
  ],
  "metadata": {
    "date_backmatter": "2524-01-15",
    "date_modified": "2524-01-27",
    "date_original": "2524-01-27",
    "doctype": "ประกาศ",
    "editors": [
      {
        "name": "ดลธี",
        "role": "พิมพ์",
        "date": "2550-09-24"
      },
      {
        "name": "สุนันทา",
        "role": "ตรวจ",
        "date": "2550-09-25"
      },
      {
        "name": "ปัญจพร",
        "role": "ปรับปรุง",
        "date": "2560-07-25"
      }
    ],
    "tag": "a131-2e-2524-a0001"
  }
}