{
  "pages": [
    [
      [
        "ประกาศการไฟฟ้าฝ่ายผลิตแห่งประเทศไทย",
        "เรื่อง กำหนดเขตสำรวจสายส่งไฟฟ้า ขนาด ๒๓๐ เค.วี.",
        "จากกรุงเทพมหานคร ถึง จังหวัดฉะเชิงเทรา"
      ]
    ],
    []
  ],
  "metadata": {
    "date_backmatter": "2522-11-09",
    "date_modified": "2522-11-13",
    "date_original": "2522-11-13",
    "doctype": "ประกาศ",
    "editors": [
      {
        "name": "จำปี",
        "role": "พิมพ์",
        "date": "2550-09-24"
      },
      {
        "name": "ปัญจพร",
        "role": "ปรับปรุง",
        "date": "2560-07-25"
      }
    ],
    "tag": "a131-2e-2522-a008"
  }
}