{
  "pages": [
    [
      [
        "ประกาศการไฟฟ้าฝ่ายผลิตแห่งประเทศไทย",
        "เรื่อง กำหนดเขตสำรวจสายส่งไฟฟ้า ขนาด ๑๑๕ เค.วี.",
        "จาก จังหวัดลำพูน ถึง จังหวัดเชียงใหม่"
      ]
    ],
    []
  ],
  "metadata": {
    "date_backmatter": "2522-12-07",
    "date_modified": "2523-01-01",
    "date_original": "2523-01-01",
    "doctype": "ประกาศ",
    "editors": [
      {
        "name": "จำปี",
        "role": "พิมพ์",
        "date": "2550-09-24"
      },
      {
        "name": "ปัญจพร",
        "role": "ปรับปรุง",
        "date": "2560-07-25"
      }
    ],
    "tag": "a131-2e-2523-a003"
  }
}