{
  "pages": [
    [
      [
        "ประกาศการไฟฟ้าฝ่ายผลิตแห่งประเทศไทย",
        "เรื่อง กำหนดเขตสำรวจสายส่งไฟฟ้า ขนาด ๑๑๕ กิโลโวลท์",
        "จากสถานีไฟฟ้าย่อยสามพราน ไปยังสถานีไฟฟ้าย่อยสมุทรสาคร"
      ]
    ],
    []
  ],
  "metadata": {
    "date_backmatter": "2529-01-07",
    "date_modified": "2529-01-28",
    "date_original": "2529-01-28",
    "doctype": "ประกาศ",
    "editors": [
      {
        "name": "จำปี",
        "role": "พิมพ์",
        "date": "2550-09-24"
      },
      {
        "name": "ปัญจพร",
        "role": "ปรับปรุง",
        "date": "2560-07-25"
      }
    ],
    "tag": "a131-2e-2529-a004"
  }
}