{
  "pages": [
    [
      [
        "ประกาศการไฟฟ้าฝ่ายผลิตแห่งประเทศไทย",
        "เรื่อง กำหนดเขตสำรวจสายส่งไฟฟ้าขนาด ๒๓๐ กิโลโวลต์",
        "ตัดตอนสายส่ง ๒๓๐ กิโลโวลต์ ลำตะคอง - นครราชสีมา ๒ ไปยังสถานีไฟฟ้าย่อยสีคิ้ว"
      ]
    ],
    []
  ],
  "metadata": {
    "date_backmatter": "2550-07-02",
    "date_modified": "2550-08-21",
    "date_original": "2550-08-21",
    "doctype": "ประกาศ",
    "editors": [
      {
        "name": "วัชศักดิ์",
        "role": "ผู้จัดทำ",
        "date": "2550-08-28"
      }
    ],
    "tag": "a131-2e-2550-a0025"
  }
}