{
  "pages": [
    [
      [
        "ประกาศการไฟฟ้าฝ่ายผลิตแห่งประเทศไทย",
        "เรื่อง กำหนดเขตสำรวจสายส่งไฟฟ้า ขนาด ๕๐๐ กิโลโวลท์",
        "จากสถานีไฟฟ้าย่อยท่าตะโก ไปยังสถานีไฟฟ้าย่อยหนองจอก วงจรที่ ๒"
      ]
    ],
    []
  ],
  "metadata": {
    "date_backmatter": "2531-09-15",
    "date_modified": "2531-10-06",
    "date_original": "2531-10-06",
    "doctype": "ประกาศ",
    "editors": [
      {
        "name": "นันติญา",
        "role": "พิมพ์",
        "date": "2550-09-24"
      }
    ],
    "tag": "a131-2e-2531-a0004"
  }
}