{
  "pages": [
    [
      [
        "รายงานของผู้สอบบัญชี"
      ]
    ],
    []
  ],
  "metadata": {
    "date_modified": "2556-07-15",
    "date_original": "2556-07-15",
    "editors": [
      {
        "name": "ปณตภร",
        "role": "ผู้จัดทำ",
        "date": "2556-08-02"
      }
    ],
    "tag": "a131-2e-2556-a0010"
  }
}