{
  "pages": [
    [
      [
        "ประกาศการไฟฟ้าฝ่ายผลิตแห่งประเทศไทย",
        "เรื่อง กำหนดเขตสำรวจสายส่งไฟฟ้าขนาด ๕๐๐ กิโลโวลต์",
        "เพื่อเชื่อมโยงแหล่งผลิตไฟฟ้าเข้าสู่ระบบการไฟฟ้าฝ่ายผลิตแห่งประเทศไทย",
        "ไปยังสถานีไฟฟ้าย่อยบางสะพาน (๕๐๐ กิโลโวลต์)"
      ]
    ],
    []
  ],
  "metadata": {
    "date_backmatter": "2539-06-24",
    "date_modified": "2539-06-27",
    "date_original": "2539-06-27",
    "doctype": "ประกาศ",
    "editors": [
      {
        "name": "นันติญา",
        "role": "พิมพ์",
        "date": "2550-09-24"
      },
      {
        "name": "ปัญจพร",
        "role": "ปรับปรุง",
        "date": "2560-07-25"
      }
    ],
    "tag": "a131-2e-2539-a0007"
  }
}