{
  "pages": [
    [
      [
        "ประกาศการไฟฟ้าฝ่ายผลิตแห่งประเทศไทย",
        "เรื่อง การออกพันธบัตรการไฟฟ้าฝ่ายผลิตแห่งประเทศไทย",
        "พ.ศ. ๒๕๔๕ ครั้งที่ ๓"
      ]
    ],
    []
  ],
  "metadata": {
    "date_backmatter": "2544-11-01",
    "date_modified": "2544-11-02",
    "date_original": "2544-11-02",
    "doctype": "ประกาศ",
    "editors": [
      {
        "name": "อัมภิญา",
        "role": "พิมพ์",
        "date": "2550-11-19"
      },
      {
        "name": "สุนันทา",
        "role": "ตรวจ",
        "date": "2550-01-14"
      },
      {
        "name": "ปัญจพร",
        "role": "ปรับปรุง",
        "date": "2560-07-25"
      }
    ],
    "tag": "a131-2e-2544-a0007"
  }
}