{
  "pages": [
    [
      [
        "ประกาศการไฟฟ้าฝ่ายผลิตแห่งประเทศไทย",
        "เรื่อง การออกพันธบัตรการไฟฟ้าฝ่ายผลิตแห่งประเทศไทย",
        "พ.ศ. ๒๕๕๑ ครั้งที่ ๘"
      ]
    ],
    []
  ],
  "metadata": {
    "date_backmatter": "2551-09-11",
    "date_modified": "2551-11-19",
    "date_original": "2551-11-19",
    "doctype": "ประกาศ",
    "editors": [
      {
        "name": "ปริยานุช",
        "role": "ผู้จัดทำ",
        "date": "2551-11-20"
      }
    ],
    "tag": "a131-2e-2551-a0020"
  }
}