{
  "pages": [
    [
      [
        "ประกาศการไฟฟ้าฝ่ายผลิตแห่งประเทศไทย",
        "เรื่อง กำหนดเขตสำรวจสายส่งไฟฟ้า ขนาด ๒๓๐ กิโลโวลต์",
        "จากสถานีไฟฟ้าย่อยหลังสวน ไปยังสถานีไฟฟ้าย่อยระนอง"
      ]
    ],
    []
  ],
  "metadata": {
    "date_backmatter": "2539-02-28",
    "date_modified": "2539-03-12",
    "date_original": "2539-03-12",
    "doctype": "ประกาศ",
    "editors": [
      {
        "name": "ดลธี",
        "role": "พิมพ์",
        "date": "2550-09-24"
      },
      {
        "name": "สุนันทา",
        "role": "ตรวจ",
        "date": "2550-09-25"
      },
      {
        "name": "ปัญจพร",
        "role": "ปรับปรุง",
        "date": "2560-07-25"
      }
    ],
    "tag": "a131-2e-2539-a0001"
  }
}