{
  "pages": [
    [
      [
        "พระราชกฤษฎีกา",
        "กำหนดผู้ใช้พลังงานไฟฟ้า",
        "พ.ศ. ๒๕๑๒",
        "",
        "",
        "ภูมิพลอดุลยเดช ป.ร.",
        "ให้ไว้ ณ วันที่ ๒๔ กันยายน พ.ศ. ๒๕๑๒",
        "เป็นปีที่ ๒๔ ในรัชกาลปัจจุบัน"
      ]
    ],
    []
  ],
  "metadata": {
    "date_header": "2512-09-24",
    "date_modified": "2540-11-11",
    "date_original": "2512-10-01",
    "doctype": "พระราชกฤษฎีกา",
    "editors": [
      {
        "name": "เอกฤทธิ์",
        "role": "ผู้จัดทำ",
        "date": "2551-10-31"
      }
    ],
    "tag": "a131-2a-9999-update",
    "title": "กำหนดผู้ใช้พลังงานไฟฟ้า"
  }
}