{
  "pages": [
    [
      [
        "คำสั่งนายกรัฐมนตรี",
        "ที่ ๔/๒๕๒๒",
        "เรื่อง กำหนดมาตรการเพื่อแก้ไขและป้องกันภาวะ",
        "การขาดแคลนน้ำมันเชื้อเพลิง"
      ]
    ],
    []
  ],
  "metadata": {
    "date_backmatter": "2522-04-02",
    "date_modified": "2522-04-02",
    "date_original": "2522-04-02",
    "editors": [
      {
        "name": "อภิญญา",
        "role": "ปรับปรุง",
        "date": "2557-09-09"
      },
      {
        "name": "ปุณิกา",
        "role": "ปรับปรุง",
        "date": "2558-01-15"
      },
      {
        "name": "จุฑามาศ",
        "role": "ปรับปรุง",
        "date": "2558-11-19"
      }
    ],
    "tag": "a148-2f-2522-004"
  }
}