{
  "pages": [
    [
      [
        "ประกาศกรมธุรกิจพลังงาน",
        "เรื่อง หลักเกณฑ์ วิธีการคำนวณปริมาณน้ำมันเชื้อเพลิงคงเหลือสุทธิ",
        "พ.ศ. ๒๕๕๑"
      ]
    ],
    []
  ],
  "metadata": {
    "date_backmatter": "2551-07-25",
    "date_modified": "2552-02-13",
    "date_original": "2552-02-06",
    "doctype": "ประกาศ",
    "editors": [
      {
        "name": "อุรารักษ์",
        "role": "จัดทำ",
        "date": "2552-03-30"
      },
      {
        "name": "อภิญญา",
        "role": "ปรับปรุง",
        "date": "2557-09-05"
      }
    ],
    "tag": "a148-2e-2552-a0004"
  }
}