{
  "pages": [
    [
      [
        "ระเบียบกรมสรรพสามิต",
        "ว่าด้วยการส่งเงิน การขอยกเว้นการส่งเงินเข้ากองทุนน้ำมันเชื้อเพลิง",
        "การขอรับเงินชดเชยและการขอรับเงินคืนจากกองทุนน้ำมันเชื้อเพลิง (ฉบับที่ ๓)",
        "พ.ศ. ๒๕๔๘"
      ]
    ],
    []
  ],
  "metadata": {
    "date_backmatter": "2548-07-29",
    "date_modified": "2548-10-13",
    "date_original": "2548-10-13",
    "editors": [
      {
        "name": "ชัชสรัญ",
        "role": "ผู้จัดทำ",
        "date": "2548-10-20"
      },
      {
        "name": "อภิญญา",
        "role": "ปรับปรุง",
        "date": "2557-10-13"
      }
    ],
    "tag": "a148-2f-2547-a0004"
  }
}