{
  "pages": [
    [
      [
        "พระราชกำหนด",
        "แก้ไขและป้องกันภาวะการขาดแคลนน้ำมันเชื้อเพลิง",
        "พ.ศ. ๒๕๑๖",
        "",
        "",
        "ภูมิพลอดุลยเดช ป.ร.",
        "ให้ไว้ ณ วันที่ ๒๖ ธันวาคม พ.ศ. ๒๕๑๖",
        "เป็นปีที่ ๒๘ ในรัชกาลปัจจุบัน"
      ]
    ],
    []
  ],
  "metadata": {
    "date_header": "2516-12-26",
    "date_modified": "2517-12-24",
    "date_original": "2516-12-27",
    "doctype": "พระราชกำหนด",
    "editors": [
      {
        "name": "พรพิมล",
        "role": "แก้ไข",
        "date": "2544-09-11"
      },
      {
        "name": "พัชรินทร์",
        "role": "แก้ไข",
        "date": "2548-01-10"
      },
      {
        "name": "วศิน",
        "role": "แก้ไข",
        "date": "2552-03-03"
      }
    ],
    "tag": "a148-20-2517-001u",
    "title": "แก้ไขและป้องกันภาวะการขาดแคลนน้ำมันเชื้อเพลิง"
  }
}