{
  "pages": [
    [
      [
        "คำสั่งนายกรัฐมนตรี",
        "ที่ ๔/๒๕๓๔",
        "เรื่อง กำหนดมาตรการเพื่อแก้ไขและป้องกัน",
        "ภาวะการขาดแคลนน้ำมันเชื้อเพลิง"
      ]
    ],
    []
  ],
  "metadata": {
    "date_backmatter": "2534-01-22",
    "date_modified": "2534-01-24",
    "date_original": "2534-01-24",
    "editors": [
      {
        "name": "จารุวรรณ",
        "role": "พิมพ์",
        "date": "2545-09-17"
      },
      {
        "name": "อภิญญา",
        "role": "ปรับปรุง",
        "date": "2557-09-30"
      }
    ],
    "tag": "a148-2f-2534-004"
  }
}