{
  "pages": [
    [
      [
        "คำสั่งนายกรัฐมนตรี",
        "ที่ ๔/๒๕๔๗",
        "เรื่อง กำหนดมาตรการเพื่อแก้ไขและป้องกันภาวะการขาดแคลนน้ำมันเชื้อเพลิง"
      ]
    ],
    []
  ],
  "metadata": {
    "date_backmatter": "2547-12-23",
    "date_modified": "2550-01-08",
    "date_original": "2548-03-23",
    "editors": [
      {
        "name": "ปณตภร",
        "role": "ผู้จัดทำ",
        "date": "2557-06-02"
      }
    ],
    "tag": "a148-2f-2550-a0002"
  }
}