{
  "pages": [
    [
      [
        "คำสั่งนายกรัฐมนตรี",
        "ที่ ๑๕/๒๕๒๔",
        "เรื่อง กำหนดมาตรการเพื่อแก้ไขและป้องกันภาวะการขาดแคลน",
        "น้ำมันเชื้อเพลิง"
      ]
    ],
    []
  ],
  "metadata": {
    "date_backmatter": "2524-11-27",
    "date_modified": "2524-11-27",
    "date_original": "2524-11-27",
    "editors": [
      {
        "name": "อภิญญา",
        "role": "ปรับปรุง",
        "date": "2557-09-12"
      },
      {
        "name": "ปุณิกา",
        "role": "ปรับปรุง",
        "date": "2558-01-14"
      }
    ],
    "tag": "a148-2f-2524-015"
  }
}