{
  "pages": [
    [
      [
        "ประกาศคณะกรรมการนโยบายปิโตรเลียมแห่งชาติ",
        "เรื่อง หลักเกณฑ์ วิธีการ และเงื่อนไขในการคำนวณมูลค่า",
        "นำเข้าของน้ำมันดิบและน้ำมันเชื้อเพลิง"
      ]
    ],
    []
  ],
  "metadata": {
    "date_backmatter": "2523-06-07",
    "date_modified": "2523-06-25",
    "date_original": "2523-06-25",
    "doctype": "ประกาศ",
    "editors": [
      {
        "name": "เพ็ญพร",
        "role": "ผู้จัดทำ",
        "date": "2545-10-14"
      },
      {
        "name": "อภิญญา",
        "role": "ปรับปรุง",
        "date": "2557-09-04"
      }
    ],
    "tag": "a148-2e-2523-a0001"
  }
}