{
  "pages": [
    [
      [
        "คำสั่งนายกรัฐมนตรี",
        "ที่ ๒/๒๕๕๑",
        "เรื่อง กำหนดมาตรการเพื่อแก้ไขและป้องกันภาวะการขาดแคลนน้ำมันเชื้อเพลิง"
      ]
    ],
    []
  ],
  "metadata": {
    "date_backmatter": "2551-07-22",
    "date_modified": "2552-01-29",
    "date_original": "2551-07-23",
    "editors": [
      {
        "name": "อุรารักษ์",
        "role": "ผู้จัดทำ",
        "date": "2552-03-30"
      }
    ],
    "tag": "a148-2f-9999-update"
  }
}