{
  "pages": [
    [
      [
        "คำสั่งนายกรัฐมนตรี",
        "ที่ ๑๐/๒๕๒๓",
        "เรื่อง กำหนดมาตรการเพื่อแก้ไขและป้องกันภาวะการ",
        "ขาดแคลนน้ำมันเชื้อเพลิง"
      ]
    ],
    []
  ],
  "metadata": {
    "date_backmatter": "2523-12-02",
    "date_modified": "2524-08-11",
    "date_original": "2523-12-02",
    "editors": [
      {
        "name": "อภิญญา",
        "role": "ปรับปรุง",
        "date": "2557-09-11"
      }
    ],
    "tag": "a148-2f-9997-update"
  }
}