{
  "pages": [
    [
      [
        "คำสั่งนายกรัฐมนตรี",
        "ที่ สร. ๐๒๐๑/๒๑",
        "เรื่อง การกำหนดให้ผู้ค้าน้ำมันส่งเงินเข้ากองทุนรักษาระดับราคา",
        "น้ำมันเชื้อเพลิงและการจ่ายเงินชดเชยให้แก่ผู้ค้าน้ำมัน"
      ]
    ],
    []
  ],
  "metadata": {
    "date_backmatter": "2521-03-28",
    "date_modified": "2521-04-04",
    "date_original": "2521-04-04",
    "editors": [
      {
        "name": "จารุวรรณ",
        "role": "แก้ไข",
        "date": "2545-10-03"
      },
      {
        "name": "อภิญญา",
        "role": "ปรับปรุง",
        "date": "2557-09-09"
      }
    ],
    "tag": "a148-2f-2521-a002"
  }
}