{
  "pages": [
    [
      [
        "คำสั่งนายกรัฐมนตรี",
        "ที่ ๑๒ / ๒๕๒๔",
        "เรื่อง การให้เจ้าของสถานีบริการหรือร้านค้าน้ำมันเชื้อเพลิง",
        "ส่งเงินเข้ากองทุนน้ำมันเชื้อเพลิง"
      ]
    ],
    []
  ],
  "metadata": {
    "date_backmatter": "2524-09-30",
    "date_modified": "2524-10-09",
    "date_original": "2524-10-09",
    "editors": [
      {
        "name": "ธิดาวรรณ",
        "role": "แก้ไข",
        "date": "2545-10-08"
      },
      {
        "name": "อภิญญา",
        "role": "ปรับปรุง",
        "date": "2557-10-10"
      }
    ],
    "tag": "a148-2f-2524-a0001"
  }
}