{
  "pages": [
    [
      [
        "ข้อกำหนดสำนักงานส่งเสริมสวัสดิภาพและพิทักษ์เด็ก",
        "เยาวชน ผู้ด้อยโอกาส คนพิการ และผู้สูงอายุ",
        "ว่าด้วยคุณสมบัติผู้กู้ยืม ผู้ค้ำประกัน และหลักเกณฑ์ในการพิจารณาให้กู้ยืมเงินทุน",
        "ประกอบอาชีพประเภทรายบุคคลจากกองทุนผู้สูงอายุ",
        "พ.ศ. ๒๕๕๒"
      ]
    ],
    []
  ],
  "metadata": {
    "date_backmatter": "2552-05-14",
    "date_modified": "2552-07-29",
    "date_original": "2552-07-29",
    "editors": [
      {
        "name": "วิชชุตา",
        "role": "ผู้จัดทำ",
        "date": "2554-12-19"
      },
      {
        "name": "ปริญสินีย์",
        "role": "ปรับปรุง",
        "date": "2556-09-20"
      }
    ],
    "tag": "bc02-2h-2552-a0001"
  }
}