{
  "pages": [
    [
      [
        "ประกาศกระทรวงการพัฒนาสังคมและความมั่นคงของมนุษย์",
        "เรื่อง กำหนดหลักเกณฑ์ วิธีการ และเงื่อนไขการคุ้มครอง การส่งเสริม",
        "และการสนับสนุนการสงเคราะห์ในการจัดการศพตามประเพณี",
        "พ.ศ. ๒๕๕๗"
      ]
    ],
    []
  ],
  "metadata": {
    "date_backmatter": "2557-09-22",
    "date_modified": "2557-10-16",
    "date_original": "2557-10-16",
    "doctype": "ประกาศ",
    "editors": [
      {
        "name": "ปริยานุช",
        "role": "ผู้จัดทำ",
        "date": "2557-10-20"
      },
      {
        "name": "ภีราพร",
        "role": "ผู้ตรวจ",
        "date": "2557-11-06"
      }
    ],
    "tag": "bc02-2e-2557-a0002"
  }
}