{
  "pages": [
    [
      [
        "ระเบียบคณะกรรมการผู้สูงอายุแห่งชาติ",
        "ว่าด้วยหลักเกณฑ์การจ่ายเงินเบี้ยยังชีพผู้สูงอายุ",
        "พ.ศ. ๒๕๕๒"
      ]
    ],
    []
  ],
  "metadata": {
    "date_backmatter": "2552-02-22",
    "date_modified": "2552-02-24",
    "date_original": "2552-02-24",
    "editors": [
      {
        "name": "วิชชุตา",
        "role": "ผู้จัดทำ",
        "date": "2554-12-19"
      },
      {
        "name": "ปริญสินีย์",
        "role": "ปรับปรุง",
        "date": "2556-09-20"
      }
    ],
    "tag": "bc02-2g-2552-a0001"
  }
}