{
  "pages": [
    [
      [
        "ประกาศกระทรวงการคลัง",
        "เรื่อง การจำหน่ายพันธบัตรรัฐบาลตามโครงการช่วยเพิ่มเงิน",
        "กองทุนชั้นที่ ๒ ในปีงบประมาณ พ.ศ. ๒๕๔๓",
        "ครั้งที่ ๘"
      ]
    ],
    []
  ],
  "metadata": {
    "date_backmatter": "2543-03-05",
    "date_gz_old": "2543-03-09",
    "doctype": "ประกาศ",
    "editors": [
      {
        "name": "ชไมพร",
        "role": "แก้ไข",
        "date": "2545-05-17"
      }
    ],
    "tag": "cb24-2e-2543-a002"
  }
}