{
  "pages": [
    [
      [
        "ประกาศกระทรวงการคลัง",
        "เรื่อง การไถ่ถอนพันธบัตรรัฐบาลตามโครงการช่วยเพิ่มเงินกองทุนชั้นที่ ๒ ก่อนกำหนด"
      ]
    ],
    []
  ],
  "metadata": {
    "date_backmatter": "2549-08-17",
    "date_modified": "2549-08-25",
    "date_original": "2549-08-25",
    "doctype": "ประกาศ",
    "editors": [
      {
        "name": "นันทนา",
        "role": "ผู้จัดทำ",
        "date": "2549-08-29"
      }
    ],
    "tag": "cb24-2e-2549-a0001"
  }
}