{
  "pages": [
    [
      [
        "ระเบียบกรมสรรพสามิต",
        "ว่าด้วยการควบคุมโรงอุตสาหกรรมผลิตสุรา",
        "พ.ศ. ๒๕๖๐"
      ]
    ],
    []
  ],
  "metadata": {
    "date_backmatter": "2560-09-29",
    "date_modified": "2561-05-24",
    "date_original": "2561-05-24",
    "editors": [
      {
        "name": "พัชรภรณ์",
        "role": "จัดทำ",
        "date": "2561-09-27"
      }
    ],
    "tag": "c338-2g-2561-a0020"
  }
}