{
  "pages": [
    [
      [
        "ระเบียบสำนักนายกรัฐมนตรี",
        "ว่าด้วยการบริหารโครงการตามแผนปฏิบัติการไทยเข้มแข็ง ๒๕๕๕ (ฉบับที่ ๒)",
        "พ.ศ. ๒๕๕๓"
      ]
    ],
    []
  ],
  "metadata": {
    "date_backmatter": "2553-08-04",
    "date_modified": "2553-08-06",
    "date_original": "2553-08-06",
    "editors": [
      {
        "name": "ปริยานุช",
        "role": "ผู้จัดทำ",
        "date": "2553-08-16"
      },
      {
        "name": "ณัฐวดี",
        "role": "ตรวจ",
        "date": "2553-08-16"
      }
    ],
    "tag": "c338-2g-2553-a0020"
  }
}