{
  "pages": [
    [
      [
        "ระเบียบสำนักนายกรัฐมนตรี",
        "ว่าด้วยกองทุนรวมเพื่อช่วยเหลือเกษตรกร (ฉบับที่ ๓)",
        "พ.ศ. ๒๕๔๐"
      ]
    ],
    []
  ],
  "metadata": {
    "date_backmatter": "2540-08-26",
    "date_modified": "2540-08-26",
    "date_original": "2540-08-26",
    "editors": [
      {
        "name": "ปณตภร",
        "role": "ปรับปรุง",
        "date": "2555-11-26"
      }
    ],
    "tag": "c338-2g-2540-010"
  }
}