{
  "pages": [
    [
      [
        "ระเบียบสำนักงานปลัดกระทรวงการคลัง",
        "ว่าด้วยการรักษาความปลอดภัยบริเวณกระทรวงการคลัง",
        "พ.ศ. ๒๕๕๒"
      ]
    ],
    []
  ],
  "metadata": {
    "date_backmatter": "2552-02-02",
    "date_modified": "2552-05-14",
    "date_original": "2552-05-14",
    "editors": [
      {
        "name": "ปริยานุช",
        "role": "ผู้จัดทำ",
        "date": "2552-05-21"
      }
    ],
    "tag": "c338-2g-2552-a0025"
  }
}