{
  "pages": [
    [
      [
        "คำสั่งกรมการประกันภัย",
        "ที่ ๒๔๘/๒๕๔๖",
        "เรื่อง มอบอำนาจให้ผู้ว่าราชการจังหวัดปฏิบัติราชการแทน"
      ]
    ],
    []
  ],
  "metadata": {
    "date_backmatter": "2546-12-12",
    "date_modified": "2547-02-20",
    "date_original": "2547-02-20",
    "editors": [
      {
        "name": "ดลธี",
        "role": "พิมพ์",
        "date": "2550-03-21"
      }
    ],
    "tag": "c338-2f-2547-a0001"
  }
}