{
  "pages": [
    [
      [
        "ประกาศกรมศุลกากร",
        "ที่ ๑๘๙/๒๕๖๐",
        "เรื่อง หลักเกณฑ์ วิธีการ และเงื่อนไขการยื่นอุทธรณ์และวิธีพิจารณาอุทธรณ์",
        "และการขอทุเลาการเสียอากร"
      ]
    ],
    []
  ],
  "metadata": {
    "date_backmatter": "2561-01-29",
    "date_modified": "2561-04-03",
    "date_original": "2561-04-03",
    "doctype": "ประกาศ",
    "editors": [
      {
        "name": "ปุณิกา",
        "role": "จัดทำ",
        "date": "2561-07-11"
      }
    ],
    "tag": "c338-2e-2561-a0010"
  }
}