{
  "pages": [
    [
      [
        "กฎกระทรวง",
        "แบ่งส่วนราชการกรมศิลปากร",
        "กระทรวงวัฒนธรรม",
        "พ.ศ. ๒๕๔๕"
      ]
    ],
    []
  ],
  "metadata": {
    "date_backmatter": "2545-10-09",
    "date_gz_old": "2545-10-09",
    "doctype": "กฎกระทรวง",
    "editors": [
      {
        "name": "จารุวรรณ",
        "role": "แก้ไข",
        "date": "2545-11-06"
      }
    ],
    "tag": "c338-2b-2545-a0105"
  }
}