{
  "pages": [
    [
      [
        "ประกาศกรมสรรพสามิต",
        "เรื่อง กำหนดหลักเกณฑ์ วิธีการ เงื่อนไข และระยะเวลาในการนำรถยนต์ออกไป",
        "จากโรงอุตสาหกรรม หรือคลังสินค้าทัณฑ์บนเพื่อทดสอบประสิทธิภาพ"
      ]
    ],
    []
  ],
  "metadata": {
    "date_backmatter": "2560-09-16",
    "date_modified": "2561-05-24",
    "date_original": "2561-05-24",
    "doctype": "ประกาศ",
    "editors": [
      {
        "name": "พัชรภรณ์",
        "role": "จัดทำ",
        "date": "2561-10-04"
      }
    ],
    "tag": "c338-2e-2561-a0023"
  }
}