{
  "pages": [
    [
      [
        "กฎกระทรวง",
        "แบ่งส่วนราชการสำนักงานปลัดกระทรวง",
        "กระทรวงเกษตรและสหกรณ์ (ฉบับที่ ๒)",
        "พ.ศ. ๒๕๕๒"
      ]
    ],
    []
  ],
  "metadata": {
    "date_backmatter": "2552-12-23",
    "date_modified": "2552-12-28",
    "date_original": "2552-12-28",
    "doctype": "กฎกระทรวง",
    "editors": [
      {
        "name": "ปริยานุช",
        "role": "ผู้จัดทำ",
        "date": "2553-01-04"
      },
      {
        "name": "นันท์นภัสร์",
        "role": "ตรวจ",
        "date": "2553-01-04"
      }
    ],
    "tag": "c338-2b-2552-a0028"
  }
}