{
  "pages": [
    [
      [
        "ระเบียบกรมปศุสัตว์",
        "ว่าด้วยการขอรับและออกใบรับรองปศุสัตว์อินทรีย์",
        "พ.ศ. ๒๕๕๘"
      ]
    ],
    []
  ],
  "metadata": {
    "date_backmatter": "2558-09-24",
    "date_modified": "2558-10-14",
    "date_original": "2558-10-14",
    "editors": [
      {
        "name": "ปริยานุช",
        "role": "ผู้จัดทำ",
        "date": "2558-10-15"
      },
      {
        "name": "ปุณิกา",
        "role": "ผู้ตรวจ",
        "date": "2558-10-28"
      }
    ],
    "tag": "c338-2g-2558-a0052"
  }
}