{
  "pages": [
    [
      [
        "ประกาศสำนักงานคณะกรรมการคุ้มครองผู้บริโภค",
        "เรื่อง การลดขั้นตอนและระยะเวลาการปฏิบัติราชการเพื่อประชาชน"
      ]
    ],
    []
  ],
  "metadata": {
    "date_backmatter": "2547-05-24",
    "date_modified": "2547-05-27",
    "date_original": "2547-05-27",
    "doctype": "ประกาศ",
    "editors": [
      {
        "name": "มยุรี",
        "role": "พิมพ์",
        "date": "2547-08-16"
      },
      {
        "name": "อมราลักษณ์/ศุภสรณ์",
        "role": "ตรวจ",
        "date": "2547-08-25"
      }
    ],
    "tag": "c338-2e-2547-a0002"
  }
}