{
  "pages": [
    [
      [
        "ประกาศสำนักงาน ก.พ.ร.",
        "เรื่อง โครงสร้างและการจัดหน่วยงาน อำนาจหน้าที่ วิธีการดำเนินงาน",
        "และสถานที่ติดต่อเพื่อขอรับข้อมูลข่าวสารของสำนักงาน ก.พ.ร."
      ]
    ],
    []
  ],
  "metadata": {
    "date_backmatter": "2548-07-15",
    "date_modified": "2548-09-01",
    "date_original": "2548-09-01",
    "doctype": "ประกาศ",
    "editors": [
      {
        "name": "ฐิติพงษ์",
        "role": "ผู้จัดทำ",
        "date": "2548-09-07"
      }
    ],
    "tag": "c338-2e-2548-a0025"
  }
}