{
  "pages": [
    [
      [
        "ระเบียบสำนักนายกรัฐมนตรี",
        "ว่าด้วยการปฏิรูประบบสุขภาพแห่งชาติ (ฉบับที่ ๓)",
        "พ.ศ. ๒๕๔๘"
      ]
    ],
    []
  ],
  "metadata": {
    "date_backmatter": "2548-08-05",
    "date_modified": "2548-08-06",
    "date_original": "2548-08-06",
    "editors": [
      {
        "name": "ฐิติพงษ์",
        "role": "ผู้จัดทำ",
        "date": "2548-08-24"
      }
    ],
    "tag": "c338-2g-2548-a0019"
  }
}