{
  "pages": [
    [
      [
        "ระเบียบกระทรวงเกษตรและสหกรณ์",
        "ว่าด้วยการบริหารงานอาสาสมัครเกษตร",
        "พ.ศ. ๒๕๖๐"
      ]
    ],
    []
  ],
  "metadata": {
    "date_backmatter": "2560-02-06",
    "date_modified": "2560-04-05",
    "date_original": "2560-04-05",
    "editors": [
      {
        "name": "พรวิภา/ภวรรณตรี",
        "role": "จัดทำ",
        "date": "2560-04-10"
      },
      {
        "name": "นุสรา",
        "role": "ตรวจ",
        "date": "2560-05-24"
      }
    ],
    "tag": "c338-2g-2560-a0011"
  }
}