{
  "pages": [
    [
      [
        "ระเบียบสำนักนายกรัฐมนตรี",
        "ว่าด้วยกองทุนสมานฉันท์แห่งชาติ",
        "พ.ศ. ๒๕๔๘"
      ]
    ],
    []
  ],
  "metadata": {
    "date_backmatter": "2548-07-19",
    "date_modified": "2548-07-19",
    "date_original": "2548-07-19",
    "editors": [
      {
        "name": "ชัชสรัญ",
        "role": "ผู้จัดทำ",
        "date": "2548-07-28"
      }
    ],
    "tag": "c338-2g-2548-a0008"
  }
}