{
  "pages": [
    [
      [
        "ประกาศกรมทรัพย์สินทางปัญญา",
        "เรื่อง การระบุชื่อสารเคมีเป็นภาษาอังกฤษในคำขอรับสิทธิบัตรและอนุสิทธิบัตร"
      ]
    ],
    []
  ],
  "metadata": {
    "date_backmatter": "2553-12-30",
    "date_modified": "2554-03-23",
    "date_original": "2554-03-23",
    "doctype": "ประกาศ",
    "editors": [
      {
        "name": "ปริยานุช",
        "role": "ผู้จัดทำ",
        "date": "2554-04-04"
      },
      {
        "name": "ณัฐวดี",
        "role": "ตรวจ",
        "date": "2554-04-04"
      }
    ],
    "tag": "c338-2e-2554-a0004"
  }
}