{
  "pages": [
    [
      [
        "ระเบียบ",
        "ว่าด้วยการจ่ายค่าจ้างลูกจ้างของส่วนราชการ พ.ศ. ๒๕๒๖"
      ]
    ],
    []
  ],
  "metadata": {
    "date_backmatter": "2526-04-29",
    "date_modified": "2526-05-12",
    "date_original": "2526-05-12",
    "editors": [
      {
        "name": "ปณตภร",
        "role": "ผู้จัดทำ",
        "date": "2555-08-20"
      }
    ],
    "tag": "c338-2g-2526-a0001"
  }
}