{
  "pages": [
    [
      [
        "ประกาศกรมศุลกากร",
        "ที่ ๑๒๑/๒๕๖๐",
        "เรื่อง การเชื่อมโยงข้อมูลการขายของที่ได้รับสิทธิประโยชน์ทางภาษีอากร",
        "คลังสินค้าทัณฑ์บนประเภทร้านค้าปลอดอากร"
      ]
    ],
    []
  ],
  "metadata": {
    "date_backmatter": "2560-09-29",
    "date_modified": "2560-12-13",
    "date_original": "2560-12-13",
    "doctype": "ประกาศ",
    "editors": [
      {
        "name": "พัชรภรณ์/อัญชลี",
        "role": "จัดทำ",
        "date": "2560-12-18"
      },
      {
        "name": "นุสรา",
        "role": "ตรวจ",
        "date": "2560-12-30"
      }
    ],
    "tag": "c338-2e-2560-a0036"
  }
}