{
  "pages": [
    [
      [
        "กฎกระทรวง",
        "แบ่งส่วนราชการกรมพัฒนาสังคมและสวัสดิการ",
        "กระทรวงการพัฒนาสังคมและความมั่นคงของมนุษย์",
        "พ.ศ. ๒๕๕๙"
      ]
    ],
    []
  ],
  "metadata": {
    "date_backmatter": "2559-10-28",
    "date_modified": "2559-11-01",
    "date_original": "2559-11-01",
    "doctype": "กฎกระทรวง",
    "editors": [
      {
        "name": "วริญา/ปริยานุช",
        "role": "จัดทำ",
        "date": "2559-11-04"
      }
    ],
    "tag": "c338-2b-2559-a0021"
  }
}