{
  "pages": [
    [
      [
        "ระเบียบสำนักนายกรัฐมนตรี",
        "ว่าด้วยการส่งเสริมสังคมแห่งการเรียนรู้และคุณภาพเยาวชน",
        "พ.ศ. ๒๕๕๓"
      ]
    ],
    []
  ],
  "metadata": {
    "date_backmatter": "2553-09-02",
    "date_modified": "2553-09-08",
    "date_original": "2553-09-08",
    "editors": [
      {
        "name": "ปริยานุช",
        "role": "ผู้จัดทำ",
        "date": "2553-09-14"
      },
      {
        "name": "นันท์นภัสร์",
        "role": "ตรวจ",
        "date": "2553-09-14"
      }
    ],
    "tag": "c338-2g-2553-a0024"
  }
}