{
  "pages": [
    [
      [
        "ประกาศสำนักนายกรัฐมนตรี",
        "เรื่อง ระเบียบการใช้ตัวสะกด"
      ]
    ],
    []
  ],
  "metadata": {
    "date_backmatter": "2556-05-27",
    "date_modified": "2556-06-13",
    "date_original": "2556-06-13",
    "doctype": "ประกาศ",
    "editors": [
      {
        "name": "ปริยานุช",
        "role": "ผู้จัดทำ",
        "date": "2556-06-17"
      },
      {
        "name": "โชติกานต์",
        "role": "ผู้ตรวจ",
        "date": "2556-07-01"
      }
    ],
    "tag": "c338-2e-2556-a0010"
  }
}