{
  "pages": [
    [
      [
        "ระเบียบสำนักนายกรัฐมนตรี",
        "ว่าด้วยการจัดตั้งศูนย์บริการวีซ่าและใบอนุญาตทำงาน (ฉบับที่ ๖)",
        "พ.ศ. ๒๕๖๑"
      ]
    ],
    []
  ],
  "metadata": {
    "date_backmatter": "2561-01-30",
    "date_modified": "2561-01-31",
    "date_original": "2561-01-31",
    "editors": [
      {
        "name": "ปวันวิทย์",
        "role": "จัดทำ",
        "date": "2561-02-14"
      }
    ],
    "tag": "c338-2g-2561-a0001"
  }
}