{
  "pages": [
    [
      [
        "พระราชกฤษฎีกา",
        "เปลี่ยนแปลงเขตอำเภอโพทะเลและกิ่งอำเภอโพธิ์ประทับช้าง",
        "อำเภอเมืองพิจิตร จังหวัดพิจิตร",
        "พ.ศ. ๒๕๑๓",
        "------------------------",
        "ภูมิพลอดุลยเดช ป.ร.",
        "ให้ไว้ ณ วันที่ ๒๙ กันยายน พ.ศ. ๒๕๑๓",
        "เป็นปีที่ ๒๕ ในรัชกาลปัจจุบัน"
      ]
    ],
    []
  ],
  "metadata": {
    "date_gz_old": "2513-10-13",
    "date_header": "2513-09-29",
    "doctype": "พระราชกฤษฎีกา",
    "editors": [
      {
        "name": "เพ็ญพร/พิมพ์",
        "role": "แก้ไข",
        "date": "2545-10-24"
      }
    ],
    "tag": "c338-2a-2513-a0001",
    "title": "เปลี่ยนแปลงเขตอำเภอโพทะเลและกิ่งอำเภอโพธิ์ประทับช้างอำเภอเมืองพิจิตร จังหวัดพิจิตรพ.ศ. ๒๕๑๓------------------------ภูมิพลอดุลยเดช ป.ร.ให้ไว้ ณ วันที่ ๒๙ กันยายน"
  }
}