{
  "pages": [
    [
      [
        "ระเบียบเทศบาลตำบลบ้านนา",
        "ว่าด้วยข้อมูลข่าวสารของราชการ",
        "พ.ศ. ๒๕๕๗"
      ]
    ],
    []
  ],
  "metadata": {
    "date_backmatter": "2557-09-24",
    "date_modified": "2557-10-15",
    "date_original": "2557-10-15",
    "editors": [
      {
        "name": "ปริยานุช",
        "role": "ผู้จัดทำ",
        "date": "2557-10-20"
      },
      {
        "name": "ภีราพร",
        "role": "ผู้ตรวจ",
        "date": "2557-11-06"
      }
    ],
    "tag": "c338-2g-2557-a0019"
  }
}