{
  "pages": [
    [
      [
        "ประกาศกรมสรรพสามิต",
        "เรื่อง การยื่นแบบรายการภาษีผ่านระบบเครือข่ายอินเทอร์เน็ต และชำระเงินค่าภาษีสุรา",
        "และเงินค่าแสตมป์ยาสูบผ่านระบบเครือข่ายอินเทอร์เน็ตหรือผู้ให้บริการรับชำระเงิน"
      ]
    ],
    []
  ],
  "metadata": {
    "date_backmatter": "2559-05-31",
    "date_modified": "2559-07-14",
    "date_original": "2559-07-14",
    "doctype": "ประกาศ",
    "editors": [
      {
        "name": "ชวัลพร/ปริยานุช",
        "role": "จัดทำ",
        "date": "2559-07-22"
      }
    ],
    "tag": "c338-2e-2559-a0008"
  }
}