{
  "pages": [
    [
      [
        "ประกาศกระทรวงการคลัง",
        "เรื่อง กำหนดและแบ่งส่วนราชการตามกฎกระทรวงแบ่งส่วนราชการ",
        "กรมสรรพากร กระทรวงการคลัง",
        "พ.ศ. ๒๕๕๑"
      ]
    ],
    []
  ],
  "metadata": {
    "date_backmatter": "2551-01-25",
    "date_modified": "2556-12-04",
    "date_original": "2551-03-01",
    "doctype": "ประกาศ",
    "editors": [
      {
        "name": "โชติกานต์",
        "role": "ผู้จัดทำ",
        "date": "2557-01-02"
      }
    ],
    "tag": "c338-2e-9985-update"
  }
}