{
  "pages": [
    [
      [
        "กฎกระทรวง",
        "ว่าด้วยกลุ่มภารกิจ",
        "พ.ศ. ๒๕๔๕"
      ]
    ],
    []
  ],
  "metadata": {
    "date_backmatter": "2545-10-09",
    "date_modified": "2550-09-21",
    "date_original": "2545-10-09",
    "doctype": "กฎกระทรวง",
    "editors": [
      {
        "name": "ปณตภร",
        "role": "ผู้จัดทำ",
        "date": "2556-05-03"
      }
    ],
    "tag": "c338-2b-2550-a0009"
  }
}