{
  "pages": [
    [
      [
        "ระเบียบสำนักนายกรัฐมนตรี",
        "ว่าด้วยการบริหารทรัพยากรน้ำแห่งชาติ",
        "พ.ศ. ๒๕๓๑"
      ]
    ],
    []
  ],
  "metadata": {
    "date_backmatter": "2531-03-30",
    "date_gz_old": "2531-04-19",
    "editors": [
      {
        "name": "ธิดาวรรณ",
        "role": "แก้ไข",
        "date": "2545-09-23"
      }
    ],
    "tag": "c338-2g-2531-a0001"
  }
}