{
  "pages": [
    [
      [
        "กฎกระทรวง",
        "แบ่งส่วนราชการสำนักงานสถิติแห่งชาติ",
        "กระทรวงเทคโนโลยีสารสนเทศและการสื่อสาร",
        "พ.ศ. ๒๕๕๑"
      ]
    ],
    []
  ],
  "metadata": {
    "date_backmatter": "2551-10-22",
    "date_modified": "2551-10-24",
    "date_original": "2551-10-24",
    "doctype": "กฎกระทรวง",
    "editors": [
      {
        "name": "วัชศักดิ์",
        "role": "ผู้จัดทำ",
        "date": "2551-10-27"
      }
    ],
    "tag": "c338-2b-2551-a0029"
  }
}