{
  "pages": [
    [
      [
        "ระเบียบกรมปศุสัตว์",
        "ว่าด้วยการขอรับและออกใบรับรองสัตวแพทย์ผู้ควบคุมฟาร์มเลี้ยงสัตว์",
        "พ.ศ. ๒๕๖๐"
      ]
    ],
    []
  ],
  "metadata": {
    "date_backmatter": "2560-07-03",
    "date_modified": "2560-08-03",
    "date_original": "2560-08-03",
    "editors": [
      {
        "name": "พรวิภา/ภวรรณตรี",
        "role": "จัดทำ",
        "date": "2560-08-07"
      }
    ],
    "tag": "c338-2g-2560-a0021"
  }
}