{
  "pages": [
    [
      [
        "ระเบียบกระทรวงเกษตรและสหกรณ์",
        "ว่าด้วยกองทุนเพื่อพัฒนาการผลิตถั่วเหลือง (ฉบับที่ ๒)",
        "พ.ศ. ๒๕๕๔"
      ]
    ],
    []
  ],
  "metadata": {
    "date_backmatter": "2554-01-19",
    "date_modified": "2554-02-08",
    "date_original": "2554-02-08",
    "editors": [
      {
        "name": "ปริยานุช",
        "role": "ผู้จัดทำ",
        "date": "2554-02-15"
      },
      {
        "name": "ดำรง",
        "role": "ตรวจ",
        "date": "2554-02-15"
      }
    ],
    "tag": "c338-2g-2554-a0004"
  }
}