{
  "pages": [
    [
      [
        "พระราชกฤษฎีกา",
        "ตั้งอำเภอปลาปาก อำเภอเชียงกลาง อำเภอปากชม",
        "อำเภอบ้านม่วง อำเภอพังโคน อำเภอดอนสัก อำเภอพนม",
        "อำเภอเวียงสระ อำเภอสังคม และอำเภอหัวตะพาน",
        "พ.ศ. ๒๕๑๔",
        "---------------------",
        "ภูมิพลอดุลยเดช ป.ร.",
        "ให้ไว้ ณ วันที่ ๑ พฤศจิกายน พ.ศ. ๒๕๑๔",
        "เป็นปีที่ ๒๖ ในรัชกาลปัจจุบัน"
      ]
    ],
    []
  ],
  "metadata": {
    "date_gz_old": "2514-11-16",
    "date_header": "2514-11-01",
    "doctype": "พระราชกฤษฎีกา",
    "editors": [
      {
        "name": "จารุวรรณ",
        "role": "แก้ไข",
        "date": "2545-10-28"
      }
    ],
    "tag": "c338-2a-2514-a006",
    "title": "ตั้งอำเภอปลาปาก อำเภอเชียงกลาง อำเภอปากชมอำเภอบ้านม่วง อำเภอพังโคน อำเภอดอนสัก อำเภอพนมอำเภอเวียงสระ อำเภอสังคม และอำเภอหัวตะพานพ.ศ. ๒๕๑๔---------------------ภูมิพลอดุลยเดช ป.ร.ให้ไว้ ณ วันที่ ๑ พฤศจิกายน"
  }
}