{
  "pages": [
    [
      [
        "ระเบียบสำนักนายกรัฐมนตรี",
        "ว่าด้วยการอนุรักษ์และพัฒนากรุงรัตนโกสินทร์ และเมืองเก่า",
        "พ.ศ. ๒๕๔๖"
      ]
    ],
    []
  ],
  "metadata": {
    "date_backmatter": "2546-03-24",
    "date_modified": "2546-03-26",
    "date_original": "2546-03-26",
    "editors": [
      {
        "name": "สุภาพร",
        "role": "พิมพ์",
        "date": "2546-06-17"
      },
      {
        "name": "ศุภสรณ์",
        "role": "อภิสิทธิ์",
        "date": "2546-06-24"
      },
      {
        "name": "ผู้จัดทำ",
        "role": "๒๔",
        "date": "2546-06-24"
      }
    ],
    "tag": "c338-2g-2546-a0015"
  }
}