{
  "pages": [
    [
      [
        "พระราชบัญญัติ",
        "ระเบียบบริหารราชการแผ่นดิน (ฉบับที่ ๔)",
        "พ.ศ. ๒๕๔๓",
        "",
        "",
        "ภูมิพลอดุลยเดช ป.ร.",
        "ให้ไว้ ณ วันที่ ๑๓ เมษายน พ.ศ. ๒๕๔๓",
        "เป็นปีที่ ๕๕ ในรัชกาลปัจจุบัน"
      ]
    ],
    []
  ],
  "metadata": {
    "date_header": "2543-04-13",
    "date_modified": "2543-04-28",
    "date_original": "2543-04-28",
    "doctype": "พระราชบัญญัติ",
    "editors": [
      {
        "name": "สัญชัย",
        "role": "ผู้จัดทำ",
        "date": "2551-12-24"
      },
      {
        "name": "กฤษดายุทธ",
        "role": "ปรับปรุง",
        "date": "2556-02-19"
      },
      {
        "name": "วิชพงษ์",
        "role": "ตรวจ",
        "date": "2556-02-22"
      }
    ],
    "tag": "c338-20-2543-a0001",
    "title": "ระเบียบบริหารราชการแผ่นดิน (ฉบับที่ ๔)"
  }
}