{
  "pages": [
    [
      [
        "ระเบียบสำนักนายกรัฐมนตรี",
        "ว่าด้วยกองทุนพัฒนาบทบาทสตรี",
        "พ.ศ. ๒๕๕๕"
      ]
    ],
    []
  ],
  "metadata": {
    "date_backmatter": "2555-02-17",
    "date_modified": "2558-10-21",
    "date_original": "2555-02-17",
    "editors": [
      {
        "name": "วิศนี",
        "role": "ผู้จัดทำ",
        "date": "2558-09-29"
      },
      {
        "name": "วิชพงษ์",
        "role": "ผู้ตรวจ",
        "date": "2558-10-05"
      },
      {
        "name": "วริญา",
        "role": "เพิ่มเติม",
        "date": "2558-10-26"
      }
    ],
    "tag": "c338-2g-9933-update"
  }
}