{
  "pages": [
    [
      [
        "ระเบียบสำนักนายกรัฐมนตรี",
        "ว่าด้วยการปฏิบัติงานที่เกี่ยวข้องกับงานโครงการหลวง",
        "พ.ศ. ๒๕๔๗"
      ]
    ],
    []
  ],
  "metadata": {
    "date_backmatter": "2547-08-03",
    "date_modified": "2547-08-06",
    "date_original": "2547-08-06",
    "editors": [
      {
        "name": "วชิระ/ยงยุทธ",
        "role": "ตรวจ",
        "date": "2547-08-11"
      }
    ],
    "tag": "c338-2g-2547-a0025"
  }
}