{
  "pages": [
    [
      [
        "กฎกระทรวง",
        "แบ่งส่วนราชการสำนักงานเศรษฐกิจการคลัง",
        "กระทรวงการคลัง (ฉบับที่ ๒)",
        "พ.ศ. ๒๕๕๕"
      ]
    ],
    []
  ],
  "metadata": {
    "date_backmatter": "2555-06-20",
    "date_modified": "2555-06-27",
    "date_original": "2555-06-27",
    "doctype": "กฎกระทรวง",
    "editors": [
      {
        "name": "ปริยานุช",
        "role": "ผู้จัดทำ",
        "date": "2555-06-29"
      },
      {
        "name": "ปณตภร",
        "role": "ผู้ตรวจ",
        "date": "2555-07-02"
      }
    ],
    "tag": "c338-2b-2555-a0014"
  }
}