{
  "pages": [
    [
      [
        "ระเบียบสำนักนายกรัฐมนตรี",
        "ว่าด้วยการพัฒนาเด็กปฐมวัย",
        "พ.ศ. ๒๕๕๑"
      ]
    ],
    []
  ],
  "metadata": {
    "date_backmatter": "2551-01-28",
    "date_modified": "2551-02-01",
    "date_original": "2551-02-01",
    "editors": [
      {
        "name": "ปริยานุช",
        "role": "ผู้จัดทำ",
        "date": "2551-02-13"
      }
    ],
    "tag": "c338-2g-2551-a0006"
  }
}