{
  "pages": [
    [
      [
        "ระเบียบสำนักนายกรัฐมนตรี",
        "ว่าด้วยการปฏิบัติราชการในสำนักงาน ก.พ.ร.",
        "พ.ศ. ๒๕๔๖"
      ]
    ],
    []
  ],
  "metadata": {
    "date_backmatter": "2546-05-23",
    "date_modified": "2546-05-30",
    "date_original": "2546-05-30",
    "editors": [
      {
        "name": "หทัยชนก",
        "role": "พิมพ์",
        "date": "2546-09-16"
      },
      {
        "name": "สุภาพร",
        "role": "แก้ไข",
        "date": "2546-10-28"
      },
      {
        "name": "อรดา/พัชรินทร์",
        "role": "ตรวจ",
        "date": "2546-11-03"
      }
    ],
    "tag": "c338-2g-2546-a0030"
  }
}