{
  "pages": [
    [
      [
        "ระเบียบคณะกรรมการกองทุนพัฒนาบทบาทสตรีแห่งชาติ",
        "ว่าด้วยการบริหารกองทุนพัฒนาบทบาทสตรี",
        "พ.ศ. ๒๕๕๕"
      ]
    ],
    []
  ],
  "metadata": {
    "date_backmatter": "2555-09-04",
    "date_modified": "2555-09-04",
    "date_original": "2555-09-04",
    "editors": [
      {
        "name": "ปริยานุช",
        "role": "ผู้จัดทำ",
        "date": "2555-09-06"
      },
      {
        "name": "ณัฐพร",
        "role": "ผู้ตรวจ",
        "date": "2555-09-06"
      }
    ],
    "tag": "c338-2g-2555-a0021"
  }
}