{
  "pages": [
    [
      [
        "ประกาศกระทรวงแรงงาน",
        "เรื่อง การจัดตั้งสำนักงานประกันสังคมจังหวัดสาขา",
        "(ฉบับที่ ๕)"
      ]
    ],
    []
  ],
  "metadata": {
    "date_backmatter": "2557-08-14",
    "date_modified": "2557-09-09",
    "date_original": "2557-09-09",
    "doctype": "ประกาศ",
    "editors": [
      {
        "name": "ปริยานุช",
        "role": "ผู้จัดทำ",
        "date": "2557-11-04"
      },
      {
        "name": "ปริญสินีย์",
        "role": "ผู้ตรวจ",
        "date": "2557-11-04"
      }
    ],
    "tag": "c338-2e-2557-a0003"
  }
}