{
  "pages": [
    [
      [
        "กฎกระทรวง",
        "แบ่งส่วนราชการสำนักงานสภาที่ปรึกษาเศรษฐกิจและสังคมแห่งชาติ",
        "พ.ศ. ๒๕๔๙"
      ]
    ],
    []
  ],
  "metadata": {
    "date_backmatter": "2549-03-24",
    "date_modified": "2549-03-29",
    "date_original": "2549-03-29",
    "doctype": "กฎกระทรวง",
    "editors": [
      {
        "name": "นันทนา",
        "role": "ผู้จัดทำ",
        "date": "2549-04-04"
      }
    ],
    "tag": "c338-2b-2549-a0002"
  }
}