{
  "pages": [
    [
      [
        "ระเบียบสำนักนายกรัฐมนตรี",
        "ว่าด้วยการจัดทำและการตรวจสอบร่างกฎหมาย",
        "และร่างอนุบัญญัติที่เสนอคณะรัฐมนตรี (ฉบับที่ ๒)",
        "พ.ศ. ๒๕๕๘"
      ]
    ],
    []
  ],
  "metadata": {
    "date_backmatter": "2558-08-20",
    "date_modified": "2558-08-21",
    "date_original": "2558-08-21",
    "editors": [
      {
        "name": "ปริยานุช",
        "role": "ผู้จัดทำ",
        "date": "2558-08-26"
      },
      {
        "name": "วริญา",
        "role": "ผู้ตรวจ",
        "date": "2558-08-26"
      }
    ],
    "tag": "c338-2g-2558-a0045"
  }
}