{
  "pages": [
    [
      [
        "กฎกระทรวง",
        "แบ่งส่วนราชการสำนักข่าวกรองแห่งชาติ",
        "สำนักนายกรัฐมนตรี (ฉบับที่ ๒)",
        "พ.ศ. ๒๕๕๖"
      ]
    ],
    []
  ],
  "metadata": {
    "date_backmatter": "2556-07-17",
    "date_modified": "2556-07-24",
    "date_original": "2556-07-24",
    "doctype": "กฎกระทรวง",
    "editors": [
      {
        "name": "ปริยานุช",
        "role": "ผู้จัดทำ",
        "date": "2556-07-26"
      },
      {
        "name": "ปณตภร",
        "role": "ผู้ตรวจ",
        "date": "2556-08-02"
      }
    ],
    "tag": "c338-2b-2556-a0026"
  }
}