{
  "pages": [
    [
      [
        "ประกาศกรมสรรพสามิต",
        "เรื่อง หลักเกณฑ์และวิธีการเกี่ยวกับการอุทธรณ์การประเมินภาษี",
        "พ.ศ. ๒๕๖๐"
      ]
    ],
    []
  ],
  "metadata": {
    "date_backmatter": "2560-09-16",
    "date_modified": "2561-05-24",
    "date_original": "2561-05-24",
    "doctype": "ประกาศ",
    "editors": [
      {
        "name": "พัชรภรณ์",
        "role": "จัดทำ",
        "date": "2561-10-08"
      }
    ],
    "tag": "c338-2e-2561-a0033"
  }
}