{
  "pages": [
    [
      [
        "ระเบียบกระทรวงมหาดไทย",
        "ว่าด้วยการดำเนินงานโครงการเศรษฐกิจชุมชน (ฉบับที่ ๓)",
        "พ.ศ. ๒๕๕๓"
      ]
    ],
    []
  ],
  "metadata": {
    "date_backmatter": "2553-03-04",
    "date_modified": "2553-05-17",
    "date_original": "2553-05-17",
    "editors": [
      {
        "name": "ปริยานุช",
        "role": "ผู้จัดทำ",
        "date": "2553-06-07"
      },
      {
        "name": "นันท์นภัสร์",
        "role": "ตรวจ",
        "date": "2553-06-07"
      }
    ],
    "tag": "c338-2g-2553-a0012"
  }
}