{
  "pages": [
    [
      [
        "ประกาศคณะรักษาความสงบเรียบร้อยแห่งชาติ",
        "ฉบับที่ ๖",
        "เรื่อง นโยบายด้านการต่างประเทศ"
      ]
    ],
    []
  ],
  "metadata": {
    "date_backmatter": "2534-02-23",
    "date_gz_old": "2534-02-23",
    "doctype": "ประกาศ",
    "editors": [
      {
        "name": "พุทธชาด",
        "role": "แก้ไข",
        "date": "2545-10-04"
      }
    ],
    "tag": "c338-2e-2534-a010"
  }
}