{
  "pages": [
    [
      [
        "ระเบียบสำนักนายกรัฐมนตรี",
        "ว่าด้วยการมอบอำนาจในการปฏิบัติราชการของหน่วยงานซึ่งมีลักษณะพิเศษ",
        "พ.ศ. ๒๕๔๖"
      ]
    ],
    []
  ],
  "metadata": {
    "date_backmatter": "2546-01-14",
    "date_gz_old": "2546-01-16",
    "editors": [
      {
        "name": null,
        "role": null,
        "date": "2546-04-24"
      },
      {
        "name": "สุมลรัตน์",
        "role": "อรรถชัย แก้ไข",
        "date": "2546-04-28"
      }
    ],
    "tag": "c338-2g-2546-a0010"
  }
}