{
  "pages": [
    [
      [
        "ระเบียบกรมที่ดิน",
        "ว่าด้วยการมอบอำนาจให้ทำการจดทะเบียนสิทธิ",
        "และนิติกรรมหรือกิจการอื่นเกี่ยวกับอสังหาริมทรัพย์",
        "พ.ศ. ๒๕๕๕"
      ]
    ],
    []
  ],
  "metadata": {
    "date_backmatter": "2555-11-02",
    "date_modified": "2555-12-19",
    "date_original": "2555-12-19",
    "editors": [
      {
        "name": "ปริยานุช",
        "role": "ผู้จัดทำ",
        "date": "2555-12-21"
      },
      {
        "name": "ณัฐพร",
        "role": "ผู้ตรวจ",
        "date": "2555-12-21"
      }
    ],
    "tag": "c338-2g-2555-a0034"
  }
}