{
  "pages": [
    [
      [
        "พระราชกฤษฎีกา",
        "เปลี่ยนแปลงเขตอำเภอโนนไทย",
        "และกิ่งอำเภอขามทะเลสอ อำเภอสูงเนิน",
        "จังหวัดนครราชสีมา พ.ศ. ๒๕๐๘",
        "----------------------",
        "ภูมิพลอดุลยเดช ป.ร.",
        "ให้ไว้ ณ วันที่ ๗ พฤษภาคม พ.ศ. ๒๕๐๘",
        "เป็นปีที่ ๒๐ ในรัชกาลปัจจุบัน"
      ]
    ],
    []
  ],
  "metadata": {
    "date_gz_old": "2508-05-18",
    "date_header": "2508-05-07",
    "doctype": "พระราชกฤษฎีกา",
    "editors": [
      {
        "name": "ธิดาวรรณ",
        "role": "แก้ไข",
        "date": "2545-10-31"
      }
    ],
    "tag": "c338-2a-2508-a006",
    "title": "เปลี่ยนแปลงเขตอำเภอโนนไทยและกิ่งอำเภอขามทะเลสอ อำเภอสูงเนินจังหวัดนครราชสีมา พ.ศ. ๒๕๐๘----------------------ภูมิพลอดุลยเดช ป.ร.ให้ไว้ ณ วันที่ ๗ พฤษภาคม"
  }
}