{
  "pages": [
    [
      [
        "ระเบียบสำนักงานประกันสังคม",
        "ว่าด้วยการจ่ายเงินค่าบริการทางการแพทย์แก่สถานพยาบาลหรือผู้ประกันตน",
        "และการจ่ายเงินค่ายา พ.ศ. ๒๕๖๑"
      ]
    ],
    []
  ],
  "metadata": {
    "date_backmatter": "2561-06-28",
    "date_modified": "2561-08-09",
    "date_original": "2561-08-09",
    "editors": [
      {
        "name": "ปุณิกา",
        "role": "จัดทำ",
        "date": "2562-01-16"
      }
    ],
    "tag": "c338-2g-2561-a0072"
  }
}