{
  "pages": [
    [
      [
        "ระเบียบสำนักนายกรัฐมนตรี",
        "เรื่อง ยกเลิกระเบียบสำนักนายกรัฐมนตรี ว่าด้วยการจ่ายเงินสินบนและเงินรางวัล",
        "ในการดำเนินการเกี่ยวกับทรัพย์สินตามกฎหมายว่าด้วยการป้องกัน",
        "และปราบปรามการฟอกเงิน พ.ศ. ๒๕๔๖",
        "พ.ศ. ๒๕๕๐"
      ]
    ],
    []
  ],
  "metadata": {
    "date_backmatter": "2550-10-09",
    "date_modified": "2550-10-17",
    "date_original": "2550-10-17",
    "editors": [
      {
        "name": "วัชศักดิ์",
        "role": "ผู้จัดทำ",
        "date": "2550-10-30"
      }
    ],
    "tag": "c338-2g-2550-a0036"
  }
}