{
  "pages": [
    [
      [
        "ระเบียบสำนักนายกรัฐมนตรี",
        "ว่าด้วยการบริหารทรัพยากรน้ำแห่งชาติ (ฉบับที่ ๒) พ.ศ. ๒๕๓๑"
      ]
    ],
    []
  ],
  "metadata": {
    "date_backmatter": "2531-06-08",
    "date_gz_old": "2531-06-23",
    "editors": [
      {
        "name": "ธิดาวรรณ",
        "role": "แก้ไข",
        "date": "2545-09-30"
      }
    ],
    "tag": "c338-2g-2531-a002"
  }
}