{
  "pages": [
    [
      [
        "ประกาศกรมทรัพย์สินทางปัญญา",
        "เรื่อง กำหนดหลักเกณฑ์ วิธีการ และเงื่อนไขสำหรับการยื่นคำขอรับสิทธิบัตรหรืออนุสิทธิบัตร",
        "คำร้องหรือคำขออื่น ๆ ผ่านทางอินเทอร์เน็ต"
      ]
    ],
    []
  ],
  "metadata": {
    "date_backmatter": "2558-06-22",
    "date_modified": "2558-08-20",
    "date_original": "2558-08-20",
    "doctype": "ประกาศ",
    "editors": [
      {
        "name": "ปริยานุช",
        "role": "ผู้จัดทำ",
        "date": "2558-08-26"
      },
      {
        "name": "วริญา",
        "role": "ผู้ตรวจ",
        "date": "2558-08-26"
      }
    ],
    "tag": "c338-2e-2558-a0014"
  }
}