{
  "pages": [
    [
      [
        "กฎกระทรวง",
        "แบ่งส่วนราชการสำนักข่าวกรองแห่งชาติ",
        "สำนักนายกรัฐมนตรี",
        "พ.ศ. ๒๕๕๑"
      ]
    ],
    []
  ],
  "metadata": {
    "date_backmatter": "2551-01-24",
    "date_modified": "2551-01-29",
    "date_original": "2551-01-29",
    "doctype": "กฎกระทรวง",
    "editors": [
      {
        "name": "ดลธี",
        "role": "พิมพ์",
        "date": "2554-03-17"
      },
      {
        "name": "พัสสน",
        "role": "ผู้ตรวจ",
        "date": "2554-03-18"
      },
      {
        "name": "ปณตภร",
        "role": "ปรับปรุง",
        "date": "2556-08-06"
      }
    ],
    "tag": "c338-2b-2551-a0012"
  }
}