{
  "pages": [
    [
      [
        "ระเบียบกระทรวงการพัฒนาสังคม",
        "และความมั่นคงของมนุษย์",
        "ว่าด้วยการใช้ห้องสมุด",
        "พ.ศ. ๒๕๔๖"
      ]
    ],
    []
  ],
  "metadata": {
    "date_backmatter": "2546-12-31",
    "date_modified": "2547-01-13",
    "date_original": "2547-01-13",
    "editors": [
      {
        "name": "ณัฐดนัย",
        "role": "พิมพ์",
        "date": "2551-04-18"
      }
    ],
    "tag": "c338-2g-2547-a0057"
  }
}