{
  "pages": [
    [
      [
        "ระเบียบกรมการจัดหางาน",
        "ว่าด้วยการส่งเสริมการรับงานไปทำที่บ้าน พ.ศ. ๒๕๖๐"
      ]
    ],
    []
  ],
  "metadata": {
    "date_backmatter": "2560-02-08",
    "date_modified": "2560-03-03",
    "date_original": "2560-03-03",
    "editors": [
      {
        "name": "ปริยานุช",
        "role": "จัดทำ",
        "date": "2560-03-08"
      },
      {
        "name": "พรวิภา",
        "role": "ตรวจ",
        "date": "2560-03-08"
      }
    ],
    "tag": "c338-2g-2560-a0007"
  }
}