{
  "pages": [
    [
      [
        "ระเบียบสำนักนายกรัฐมนตรี",
        "ว่าด้วยกองทุนลานกีฬาต้านยาเสพติด (ฉบับที่ ๒)",
        "พ.ศ. ๒๕๔๑"
      ]
    ],
    []
  ],
  "metadata": {
    "date_backmatter": "2541-07-29",
    "date_gz_old": "2541-09-03",
    "editors": [
      {
        "name": "พรพิมล/พิมพ์",
        "role": "แก้ไข",
        "date": "2545-07-01"
      }
    ],
    "tag": "c338-2g-2541-a010"
  }
}