{
  "pages": [
    [
      [
        "พระราชบัญญัติ",
        "ระเบียบบริหารราชการแผ่นดิน (ฉบับที่ ๓)",
        "พ.ศ. ๒๕๓๖",
        "",
        "",
        "ภูมิพลอดุลยเดช ป.ร.",
        "ให้ไว้ ณ วันที่ ๒๗ สิงหาคม พ.ศ. ๒๕๓๖",
        "เป็นปีที่ ๔๘ ในรัชกาลปัจจุบัน"
      ]
    ],
    []
  ],
  "metadata": {
    "date_header": "2536-08-27",
    "date_modified": "2536-09-06",
    "date_original": "2536-09-06",
    "doctype": "พระราชบัญญัติ",
    "editors": [
      {
        "name": "สัญชัย",
        "role": "ผู้จัดทำ",
        "date": "2551-12-24"
      },
      {
        "name": "กฤษดายุทธ",
        "role": "ปรับปรุง",
        "date": "2556-02-19"
      },
      {
        "name": "วิชพงษ์",
        "role": "ตรวจ",
        "date": "2556-02-22"
      }
    ],
    "tag": "c338-20-2536-003",
    "title": "ระเบียบบริหารราชการแผ่นดิน (ฉบับที่ ๓)"
  }
}