{
  "pages": [
    [
      [
        "ระเบียบสำนักนายกรัฐมนตรี",
        "ว่าด้วยการพัฒนาและส่งเสริมการท่องเที่ยวแห่งชาติ",
        "พ.ศ. ๒๕๔๔"
      ]
    ],
    []
  ],
  "metadata": {
    "date_backmatter": "2544-05-18",
    "date_gz_old": "2544-06-07",
    "editors": [
      {
        "name": null,
        "role": null,
        "date": "2544-07-19"
      },
      {
        "name": null,
        "role": null,
        "date": "2544-09-20"
      }
    ],
    "tag": "c338-2g-2544-a009"
  }
}