{
  "pages": [
    [
      [
        "ระเบียบสำนักนายกรัฐมนตรี",
        "ว่าด้วยคณะกรรมการผู้ช่วยรัฐมนตรี",
        "พ.ศ. ๒๕๔๖"
      ]
    ],
    []
  ],
  "metadata": {
    "date_backmatter": "2546-02-06",
    "date_modified": "2546-02-06",
    "date_original": "2546-02-06",
    "editors": [
      {
        "name": "พรพิมล",
        "role": "พิมพ์",
        "date": "2557-10-27"
      },
      {
        "name": "นิลวรรณ",
        "role": "ปาจรีย์ จัดทำ",
        "date": "2557-10-27"
      },
      {
        "name": "จุฑามาศ",
        "role": "ปรับปรุง",
        "date": "2557-10-27"
      }
    ],
    "tag": "c338-2g-2546-a0060"
  }
}