{
  "pages": [
    [
      [
        "ระเบียบกระทรวงมหาดไทย",
        "ว่าด้วยการยกย่องเชิดชูเกียรติ กำนัน ผู้ใหญ่บ้าน ผู้ช่วยผู้ใหญ่บ้าน แพทย์ประจำตำบล",
        "และสารวัตรกำนัน ซึ่งปฏิบัติหน้าที่หรือช่วยเหลือเจ้าพนักงานในการปฏิบัติหน้าที่",
        "อันเป็นประโยชน์อย่างมากแก่ทางราชการและประชาชน",
        "พ.ศ. ๒๕๕๐"
      ]
    ],
    []
  ],
  "metadata": {
    "date_backmatter": "2550-04-21",
    "date_modified": "2550-05-30",
    "date_original": "2550-05-30",
    "editors": [
      {
        "name": "วัชศักดิ์",
        "role": "ผู้จัดทำ",
        "date": "2550-06-04"
      }
    ],
    "tag": "c338-2g-2550-a0015"
  }
}