{
  "pages": [
    [
      [
        "กฎกระทรวง",
        "แบ่งส่วนราชการสำนักงานปลัดกระทรวง",
        "กระทรวงมหาดไทย",
        "พ.ศ. ๒๕๔๕"
      ]
    ],
    []
  ],
  "metadata": {
    "date_backmatter": "2545-10-09",
    "doctype": "กฎกระทรวง",
    "editors": [],
    "tag": "c338-2b-2545-a0090"
  }
}