{
  "pages": [
    [
      [
        "พระราชกฤษฎีกา",
        "เปลี่ยนชื่อสำนักงานเร่งรัดพัฒนาชนบท",
        "เป็นกรมการเร่งรัดพัฒนาชนบท",
        "พ.ศ. ๒๕๔๓",
        "-----------",
        "ภูมิพลอดุลยเดช ป.ร.",
        "ให้ไว้ ณ วันที่ ๘ พฤศจิกายน พ.ศ. ๒๕๔๓",
        "เป็นปีที่ ๕๕ ในรัชกาลปัจจุบัน"
      ]
    ],
    []
  ],
  "metadata": {
    "date_backmatter": "2525-05-18",
    "date_gz_old": "2543-11-17",
    "date_header": "2543-11-08",
    "doctype": "พระราชกฤษฎีกา",
    "editors": [
      {
        "name": "อัมพิกา",
        "role": "แก้ไข"
      }
    ],
    "tag": "c338-2a-2543-a003",
    "title": "เปลี่ยนชื่อสำนักงานเร่งรัดพัฒนาชนบทเป็นกรมการเร่งรัดพัฒนาชนบทพ.ศ. ๒๕๔๓-----------ภูมิพลอดุลยเดช ป.ร.ให้ไว้ ณ วันที่ ๘ พฤศจิกายน"
  }
}