{
  "pages": [
    [
      [
        "ระเบียบกระทรวงการคลัง",
        "ว่าด้วยบำเหน็จลูกจ้าง (ฉบับที่ ๙)",
        "พ.ศ. ๒๕๕๔"
      ]
    ],
    []
  ],
  "metadata": {
    "date_backmatter": "2554-05-30",
    "date_modified": "2554-06-17",
    "date_original": "2554-06-17",
    "editors": [
      {
        "name": "ปริยานุช",
        "role": "ผู้จัดทำ",
        "date": "2554-06-29"
      },
      {
        "name": "ดำรง",
        "role": "ตรวจ",
        "date": "2554-06-29"
      }
    ],
    "tag": "c338-2g-2554-a0024"
  }
}