{
  "pages": [
    [
      [
        "กฎกระทรวง",
        "แบ่งส่วนราชการสำนักงานนโยบายและแผนการขนส่งและจราจร",
        "กระทรวงการคมนาคม",
        "พ.ศ. ๒๕๔๕"
      ]
    ],
    []
  ],
  "metadata": {
    "date_backmatter": "2545-10-09",
    "date_gz_old": "2545-10-09",
    "doctype": "กฎกระทรวง",
    "editors": [],
    "tag": "c338-2b-2545-a0018"
  }
}