{
  "pages": [
    [
      [
        "กฎกระทรวง",
        "แบ่งส่วนราชการสำนักงานปลัดกระทรวง",
        "กระทรวงพลังงาน",
        "พ.ศ. ๒๕๕๖"
      ]
    ],
    []
  ],
  "metadata": {
    "date_backmatter": "2556-06-20",
    "date_modified": "2556-06-28",
    "date_original": "2556-06-28",
    "doctype": "กฎกระทรวง",
    "editors": [
      {
        "name": "ปริยานุช",
        "role": "ผู้จัดทำ",
        "date": "2556-07-01"
      },
      {
        "name": "ปณตภร",
        "role": "ผู้ตรวจ",
        "date": "2556-07-03"
      }
    ],
    "tag": "c338-2b-2556-a0013"
  }
}