{
  "pages": [
    [
      [
        "ประกาศกระทรวงการคลัง",
        "เรื่อง กำหนดและแบ่งส่วนราชการตามกฎกระทรวงแบ่งส่วนราชการกรมสรรพากร",
        "กระทรวงการคลัง (ฉบับที่ ๒)",
        "พ.ศ. ๒๕๕๖"
      ]
    ],
    []
  ],
  "metadata": {
    "date_backmatter": "2556-10-08",
    "date_modified": "2556-12-04",
    "date_original": "2556-12-04",
    "doctype": "ประกาศ",
    "editors": [
      {
        "name": "ปริยานุช",
        "role": "ผู้จัดทำ",
        "date": "2556-12-11"
      },
      {
        "name": "โชติกานต์",
        "role": "ผู้ตรวจ",
        "date": "2556-12-16"
      }
    ],
    "tag": "c338-2e-2556-a0027"
  }
}