{
  "pages": [
    [
      [
        "ประกาศสำนักเลขาธิการคณะรัฐมนตรี",
        "เรื่อง แผนการบริหารราชการแผ่นดิน พ.ศ. ๒๕๕๕ - ๒๕๕๘",
        "รัฐบาล นางสาวยิ่งลักษณ์ ชินวัตร นายกรัฐมนตรี"
      ]
    ],
    []
  ],
  "metadata": {
    "date_backmatter": "2554-09-21",
    "date_modified": "2554-09-21",
    "date_original": "2554-09-21",
    "doctype": "ประกาศ",
    "editors": [
      {
        "name": "ปริยานุช",
        "role": "ผู้จัดทำ",
        "date": "2554-10-04"
      },
      {
        "name": "ชาญ",
        "role": "ผู้ตรวจ",
        "date": "2554-10-17"
      }
    ],
    "tag": "c338-2e-2554-a0016"
  }
}