{
  "pages": [
    [
      [
        "ประกาศสำนักนายกรัฐมนตรี",
        "เรื่อง กำหนดเวลาทำงานและวันหยุดราชการ (ฉบับที่ ๒๓) พ.ศ. ๒๕๖๐"
      ]
    ],
    []
  ],
  "metadata": {
    "date_backmatter": "2560-04-21",
    "date_modified": "2560-04-24",
    "date_original": "2560-04-24",
    "doctype": "ประกาศ",
    "editors": [
      {
        "name": "ภวรรณตรี",
        "role": "จัดทำ",
        "date": "2560-05-01"
      },
      {
        "name": "วริญา",
        "role": "ตรวจ",
        "date": "2560-05-01"
      }
    ],
    "tag": "c338-2e-2560-a0013"
  }
}