{
  "pages": [
    [
      [
        "ระเบียบสำนักนายกรัฐมนตรี",
        "ว่าด้วยคณะกรรมการนโยบายวิทยาศาสตร์และเทคโนโลยีแห่งชาติ",
        "พ.ศ. ๒๕๔๔"
      ]
    ],
    []
  ],
  "metadata": {
    "date_backmatter": "2544-01-10",
    "date_modified": "2548-06-29",
    "date_original": "2544-02-08",
    "editors": [
      {
        "name": "สัญชัย",
        "role": "จัดทำ",
        "date": "2551-06-05"
      }
    ],
    "tag": "c338-2g-9969-update"
  }
}