{
  "pages": [
    [
      [
        "ระเบียบสำนักนายกรัฐมนตรี",
        "ว่าด้วยคณะกรรมการพัฒนาสื่อปลอดภัยและสร้างสรรค์แห่งชาติ",
        "พ.ศ. ๒๕๕๑"
      ]
    ],
    []
  ],
  "metadata": {
    "date_backmatter": "2551-08-06",
    "date_modified": "2551-08-22",
    "date_original": "2551-08-22",
    "editors": [
      {
        "name": "ปริยานุช",
        "role": "ผู้จัดทำ",
        "date": "2551-08-26"
      }
    ],
    "tag": "c338-2g-2551-a0060"
  }
}