{
  "pages": [
    [
      [
        "ระเบียบสำนักนายกรัฐมนตรี",
        "ว่าด้วยการบริหารแรงงานต่างด้าวหลบหนีเข้าเมือง (ฉบับที่ ๒)",
        "พ.ศ. ๒๕๔๖"
      ]
    ],
    []
  ],
  "metadata": {
    "date_backmatter": "2546-01-16",
    "date_gz_old": "2546-01-20",
    "editors": [
      {
        "name": "มณฑาทิพย์",
        "role": "พิมพ์",
        "date": "2546-04-25"
      },
      {
        "name": "สุมลรัตน์",
        "role": "อรรถชัย แก้ไข",
        "date": "2546-04-30"
      }
    ],
    "tag": "c338-2g-2546-a0004"
  }
}