{
  "pages": [
    [
      [
        "ระเบียบสำนักนายกรัฐมนตรี",
        "ว่าด้วยการกำกับและติดตามการปฏิบัติราชการในภูมิภาค (ฉบับที่ ๓)",
        "พ.ศ. ๒๕๕๒"
      ]
    ],
    []
  ],
  "metadata": {
    "date_backmatter": "2552-08-18",
    "date_modified": "2552-08-18",
    "date_original": "2552-08-18",
    "editors": [
      {
        "name": "ปริยานุช",
        "role": "ผู้จัดทำ",
        "date": "2552-08-27"
      }
    ],
    "tag": "c338-2g-2552-a0031"
  }
}