{
  "pages": [
    [
      [
        "ประกาศกระทรวงการท่องเที่ยวและกีฬา",
        "เรื่อง หลักเกณฑ์การใช้ภาพเครื่องหมายราชการประจำกระทรวงการท่องเที่ยวและกีฬา",
        "พ.ศ. ๒๕๕๒"
      ]
    ],
    []
  ],
  "metadata": {
    "date_backmatter": "2552-04-03",
    "date_modified": "2552-06-04",
    "date_original": "2552-06-04",
    "doctype": "ประกาศ",
    "editors": [
      {
        "name": "ปริยานุช",
        "role": "ผู้จัดทำ",
        "date": "2552-06-09"
      }
    ],
    "tag": "c338-2e-2552-a0010"
  }
}