{
  "pages": [
    [
      [
        "ระเบียบกรมอุตสาหกรรมพื้นฐานและการเหมืองแร่",
        "ว่าด้วยการออกใบอนุญาตซื้อแร่ ใบอนุญาตซื้อแร่นอกสถานที่",
        "และใบอนุญาตตั้งสถานที่เก็บแร่",
        "พ.ศ. ๒๕๕๔"
      ]
    ],
    []
  ],
  "metadata": {
    "date_backmatter": "2554-04-04",
    "date_modified": "2554-05-30",
    "date_original": "2554-05-30",
    "editors": [
      {
        "name": "ปริยานุช",
        "role": "ผู้จัดทำ",
        "date": "2554-06-08"
      },
      {
        "name": "ณัฐวดี ดำรง",
        "role": "ตรวจ",
        "date": "2554-06-08"
      }
    ],
    "tag": "c338-2g-2554-a0017"
  }
}