{
  "pages": [
    [
      [
        "ประกาศสำนักนายกรัฐมนตรี",
        "เรื่อง หลักเกณฑ์การดำรงตำแหน่งและการพ้นจากตำแหน่งของกรรมการผู้ทรงคุณวุฒิ",
        "ตามระเบียบสำนักนายกรัฐมนตรี ว่าด้วยคณะกรรมการเตรียมการด้านการรักษา",
        "ความมั่นคงปลอดภัยไซเบอร์แห่งชาติ พ.ศ. ๒๕๖๐"
      ]
    ],
    []
  ],
  "metadata": {
    "date_backmatter": "2561-03-26",
    "date_modified": "2561-04-11",
    "date_original": "2561-04-11",
    "doctype": "ประกาศ",
    "editors": [
      {
        "name": "พัชรภรณ์",
        "role": "จัดทำ",
        "date": "2561-06-11"
      }
    ],
    "tag": "c338-2e-2561-a0013"
  }
}