{
  "pages": [
    [
      [
        "ประกาศกรมการท่องเที่ยว",
        "เรื่อง กำหนดมาตรฐานบริการท่องเที่ยวมาตรฐานโฮมสเตย์ไทย",
        "พ.ศ. ๒๕๕๔"
      ]
    ],
    []
  ],
  "metadata": {
    "date_backmatter": "2554-05-31",
    "date_modified": "2555-01-31",
    "date_original": "2555-01-31",
    "doctype": "ประกาศ",
    "editors": [
      {
        "name": "ปริยานุช",
        "role": "ผู้จัดทำ",
        "date": "2555-02-01"
      },
      {
        "name": "ปณตภร",
        "role": "ผู้ตรวจ",
        "date": "2555-02-10"
      }
    ],
    "tag": "c338-2e-2555-a0004"
  }
}