{
  "pages": [
    [
      [
        "ประกาศคณะรักษาความสงบเรียบร้อยแห่งชาติ",
        "ฉบับที่ ๘",
        "เรื่อง ให้อำนาจหน้าที่ของนายกรัฐมนตรี เป็นอำนาจหน้าที่ของ",
        "หัวหน้าคณะรักษาความสงบเรียบร้อยแห่งชาติ"
      ]
    ],
    []
  ],
  "metadata": {
    "date_backmatter": "2534-02-23",
    "date_gz_old": "2534-02-23",
    "doctype": "ประกาศ",
    "editors": [
      {
        "name": "พุทธชาด",
        "role": "พิมพ์",
        "date": "2545-09-20"
      }
    ],
    "tag": "c338-2e-2534-a0001"
  }
}