{
  "pages": [
    [
      [
        "กฎกระทรวง",
        "แบ่งส่วนราชการกรมเศรษฐกิจระหว่างประเทศ",
        "กระทรวงการต่างประเทศ",
        "พ.ศ. ๒๕๔๕"
      ]
    ],
    []
  ],
  "metadata": {
    "date_backmatter": "2545-10-14",
    "date_gz_old": "2545-10-14",
    "doctype": "กฎกระทรวง",
    "editors": [],
    "tag": "c338-2b-2545-a0150"
  }
}