{
  "pages": [
    [
      [
        "ระเบียบสำนักนายกรัฐมนตรี",
        "ว่าด้วยการส่งเสริมคุณธรรมแห่งชาติ",
        "พ.ศ. ๒๕๕๐"
      ]
    ],
    []
  ],
  "metadata": {
    "date_backmatter": "2550-07-13",
    "date_modified": "2550-07-25",
    "date_original": "2550-07-25",
    "editors": [
      {
        "name": "วัชศักดิ์",
        "role": "ผู้จัดทำ",
        "date": "2550-08-07"
      }
    ],
    "tag": "c338-2g-2550-a0023"
  }
}