{
  "pages": [
    [
      [
        "ระเบียบสำนักนายกรัฐมนตรี",
        "เรื่อง ยกเลิกระเบียบสำนักนายกรัฐมนตรี ว่าด้วยกองทุน",
        "เพื่อกระจายการผลิตและการจ้างงานไปสู่ภูมิภาค พ.ศ. ๒๕๓๖ และที่แก้ไขเพิ่มเติม",
        "พ.ศ. ๒๕๕๐"
      ]
    ],
    []
  ],
  "metadata": {
    "date_backmatter": "2550-04-25",
    "date_modified": "2550-05-16",
    "date_original": "2550-05-16",
    "editors": [
      {
        "name": "วัชศักดิ์",
        "role": "ผู้จัดทำ",
        "date": "2550-05-23"
      }
    ],
    "tag": "c338-2g-2550-a0013"
  }
}