{
  "pages": [
    [
      [
        "กฎกระทรวง",
        "แบ่งส่วนราชการสำนักงานนโยบายและแผนการขนส่งและจราจร",
        "กระทรวงคมนาคม",
        "พ.ศ. ๒๕๕๘"
      ]
    ],
    []
  ],
  "metadata": {
    "date_backmatter": "2558-01-12",
    "date_modified": "2558-01-27",
    "date_original": "2558-01-27",
    "doctype": "กฎกระทรวง",
    "editors": [
      {
        "name": "ปริยานุช",
        "role": "ผู้จัดทำ",
        "date": "2558-01-29"
      },
      {
        "name": "วิศนี",
        "role": "ผู้ตรวจ",
        "date": "2558-02-02"
      }
    ],
    "tag": "c338-2b-2558-a0005"
  }
}