{
  "pages": [
    [
      [
        "ระเบียบกระทรวงมหาดไทย",
        "ว่าด้วยการปฏิบัติในการควบคุมการก่อสร้างในเขตเพลิงไหม้",
        "พ.ศ. ๒๕๔๓"
      ]
    ],
    []
  ],
  "metadata": {
    "date_backmatter": "2543-02-24",
    "date_gz_old": "2543-03-09",
    "editors": [
      {
        "name": "อัมพิกา",
        "role": "แก้ไข",
        "date": "2545-04-23"
      }
    ],
    "tag": "c338-2g-2543-a016"
  }
}