{
  "pages": [
    [
      [
        "ระเบียบสำนักนายกรัฐมนตรี",
        "ว่าด้วยการประชาสัมพันธ์แห่งชาติ",
        "พ.ศ. ๒๕๕๓"
      ]
    ],
    []
  ],
  "metadata": {
    "date_backmatter": "2553-01-06",
    "date_modified": "2553-01-15",
    "date_original": "2553-01-15",
    "editors": [
      {
        "name": "ปริยานุช",
        "role": "ผู้จัดทำ",
        "date": "2553-01-21"
      },
      {
        "name": "นันท์นภัสร์",
        "role": "ตรวจ",
        "date": "2553-01-21"
      }
    ],
    "tag": "c338-2g-2553-a0005"
  }
}