{
  "pages": [
    [
      [
        "กฎกระทรวง",
        "แบ่งส่วนราชการกรมยุโรป",
        "กระทรวงการต่างประเทศ",
        "พ.ศ. ๒๕๕๘"
      ]
    ],
    []
  ],
  "metadata": {
    "date_backmatter": "2558-02-11",
    "date_modified": "2558-02-20",
    "date_original": "2558-02-20",
    "doctype": "กฎกระทรวง",
    "editors": [
      {
        "name": "ปริยานุช",
        "role": "ผู้จัดทำ",
        "date": "2558-02-23"
      },
      {
        "name": "ปริญสินีย์",
        "role": "ผู้ตรวจ",
        "date": "2558-02-25"
      }
    ],
    "tag": "c338-2b-2558-a0012"
  }
}