{
  "pages": [
    [
      [
        "ระเบียบสำนักนายกรัฐมนตรี",
        "ว่าด้วยการบริหารโครงการเงินกู้เพื่อการพัฒนาระบบบริหารจัดการทรัพยากรน้ำ",
        "และระบบขนส่งทางถนน ระยะเร่งด่วน",
        "พ.ศ. ๒๕๕๘"
      ]
    ],
    []
  ],
  "metadata": {
    "date_backmatter": "2558-05-12",
    "date_modified": "2558-05-14",
    "date_original": "2558-05-14",
    "editors": [
      {
        "name": "ปริยานุช",
        "role": "ผู้จัดทำ",
        "date": "2558-05-18"
      },
      {
        "name": "ปุณิกา",
        "role": "ผู้ตรวจ",
        "date": "2558-06-10"
      }
    ],
    "tag": "c338-2g-2558-a0033"
  }
}