{
  "pages": [
    [
      [
        "กฎกระทรวง",
        "แบ่งส่วนราชการสำนักงานปลัดกระทรวง",
        "กระทรวงเกษตรและสหกรณ์ (ฉบับที่ ๔)",
        "พ.ศ. ๒๕๕๖"
      ]
    ],
    []
  ],
  "metadata": {
    "date_backmatter": "2556-06-27",
    "date_modified": "2556-07-05",
    "date_original": "2556-07-05",
    "doctype": "กฎกระทรวง",
    "editors": [
      {
        "name": "ปริยานุช",
        "role": "ผู้จัดทำ",
        "date": "2556-07-08"
      },
      {
        "name": "ณัฐพร",
        "role": "ผู้ตรวจ",
        "date": "2556-07-08"
      }
    ],
    "tag": "c338-2b-2556-a0015"
  }
}