{
  "pages": [
    [
      [
        "ระเบียบสำนักนายกรัฐมนตรี",
        "ว่าด้วยการแก้ไขปัญหาการบุกรุกที่ดินของรัฐ",
        "พ.ศ.2535"
      ]
    ],
    []
  ],
  "metadata": {
    "date_backmatter": "2535-02-24",
    "editors": [],
    "tag": "c338-2g-2535-003"
  }
}