{
  "pages": [
    [
      [
        "ระเบียบสำนักนายกรัฐมนตรี",
        "ว่าด้วยการส่งเสริมการพัฒนาเทคโนโลยีสารสนเทศ (ฉบับที่ ๕)",
        "พ.ศ. ๒๕๔๕"
      ]
    ],
    []
  ],
  "metadata": {
    "date_backmatter": "2545-06-28",
    "date_gz_old": "2545-07-26",
    "editors": [
      {
        "name": "พุทธชาด",
        "role": "แก้ไข",
        "date": "2545-11-08"
      }
    ],
    "tag": "c338-2g-2545-a005"
  }
}