{
  "pages": [
    [
      [
        "ประกาศกรมสรรพสามิต",
        "เรื่อง หลักเกณฑ์ วิธีการ และเงื่อนไข การเสียภาษีในอัตราศูนย์สำหรับสารละลายประเภท",
        "ไฮโดรคาร์บอน (Hydrocarbon Solvent) ที่นำไปใช้ในอุตสาหกรรมต่าง ๆ"
      ]
    ],
    []
  ],
  "metadata": {
    "date_backmatter": "2560-09-16",
    "date_modified": "2561-05-24",
    "date_original": "2561-05-24",
    "doctype": "ประกาศ",
    "editors": [
      {
        "name": "พัชรภรณ์",
        "role": "จัดทำ",
        "date": "2561-10-09"
      }
    ],
    "tag": "c338-2e-2561-a0024"
  }
}