{
  "pages": [
    [
      [
        "ระเบียบกรมปศุสัตว์",
        "ว่าด้วยการขอรับและออกใบรับรองมาตรฐานศูนย์ผลิตน้ำเชื้อสำหรับผสมพันธุ์สัตว์",
        "พ.ศ. ๒๕๖๐"
      ]
    ],
    []
  ],
  "metadata": {
    "date_backmatter": "2560-11-14",
    "date_modified": "2560-12-26",
    "date_original": "2560-12-26",
    "editors": [
      {
        "name": "ปวันวิทย์/อัญชลี",
        "role": "จัดทำ",
        "date": "2561-01-04"
      }
    ],
    "tag": "c338-2g-2560-a0042"
  }
}