{
  "pages": [
    [
      [
        "ระเบียบคณะกรรมการกองทุนหมู่บ้าน",
        "และชุมชนเมืองแห่งชาติ",
        "ว่าด้วยการจัดตั้งและบริหารกองทุนหมู่บ้านและชุมชนเมืองแห่งชาติ",
        "พ.ศ. ๒๕๔๔"
      ]
    ],
    []
  ],
  "metadata": {
    "date_backmatter": "2544-05-29",
    "date_gz_old": "2544-05-30",
    "editors": [
      {
        "name": null,
        "role": null,
        "date": "2544-07-19"
      },
      {
        "name": null,
        "role": null,
        "date": "2544-11-22"
      }
    ],
    "tag": "c338-2g-2544-a008"
  }
}