{
  "pages": [
    [
      [
        "ระเบียบสำนักนายกรัฐมนตรี",
        "ว่าด้วยพนักงานราชการ (ฉบับที่ ๒)",
        "พ.ศ. ๒๕๖๐"
      ]
    ],
    []
  ],
  "metadata": {
    "date_backmatter": "2560-02-20",
    "date_modified": "2560-02-24",
    "date_original": "2560-02-24",
    "editors": [
      {
        "name": "พิมพ์มาดา/ปริยานุช",
        "role": "จัดทำ",
        "date": "2560-02-28"
      },
      {
        "name": "ปริญสินีย์",
        "role": "จัดทำ",
        "date": "2560-04-05"
      }
    ],
    "tag": "c338-2g-2560-a0006"
  }
}