{
  "pages": [
    [
      [
        "พระราชบัญญัติ",
        "ระเบียบบริหารราชการแผ่นดิน",
        "พ.ศ. ๒๕๓๔",
        "",
        "",
        "ภูมิพลอดุลยเดช ป.ร.",
        "ให้ไว้ ณ วันที่ ๒๑ สิงหาคม พ.ศ. ๒๕๓๔",
        "เป็นปีที่ ๔๖ ในรัชกาลปัจจุบัน"
      ]
    ],
    []
  ],
  "metadata": {
    "date_backmatter": "2515-09-29",
    "date_header": "2534-08-21",
    "date_modified": "2553-12-07",
    "date_original": "2534-09-04",
    "doctype": "พระราชบัญญัติ",
    "editors": [
      {
        "name": "วศิน",
        "role": "แก้ไข",
        "date": "2553-11-26"
      },
      {
        "name": "กองกฎหมายไทย",
        "role": "ปรับปรุง",
        "date": "2558-05-19"
      }
    ],
    "tag": "c338-20-9999-update",
    "title": "ระเบียบบริหารราชการแผ่นดิน"
  }
}