{
  "pages": [
    [
      [
        "ระเบียบสำนักนายกรัฐมนตรี",
        "ว่าด้วยการปฏิรูประบบสุขภาพแห่งชาติ",
        "พ.ศ. ๒๕๔๓"
      ]
    ],
    []
  ],
  "metadata": {
    "date_backmatter": "2543-07-27",
    "date_modified": "2548-08-06",
    "date_original": "2543-07-31",
    "editors": [],
    "tag": "c338-2g-9965-update"
  }
}