{
  "pages": [
    [
      [
        "กฎกระทรวง",
        "แบ่งส่วนราชการกรมเจรจาการค้าระหว่างประเทศ",
        "กระทรวงพาณิชย์",
        "พ.ศ. ๒๕๕๓"
      ]
    ],
    []
  ],
  "metadata": {
    "date_backmatter": "2553-03-16",
    "date_modified": "2553-03-31",
    "date_original": "2553-03-31",
    "doctype": "กฎกระทรวง",
    "editors": [
      {
        "name": "ปริยานุช",
        "role": "ผู้จัดทำ",
        "date": "2553-04-07"
      },
      {
        "name": "นันท์นภัสร์",
        "role": "ตรวจ",
        "date": "2553-04-07"
      }
    ],
    "tag": "c338-2b-2553-a0003"
  }
}