{
  "pages": [
    [
      [
        "กฎกระทรวง",
        "แบ่งส่วนราชการสำนักพระราชวัง",
        "พ.ศ. ๒๕๔๗"
      ]
    ],
    []
  ],
  "metadata": {
    "date_backmatter": "2547-02-18",
    "date_modified": "2558-09-15",
    "date_original": "2547-03-26",
    "doctype": "กฎกระทรวง",
    "editors": [
      {
        "name": "สัญชัย",
        "role": "จัดทำ",
        "date": "2550-03-12"
      },
      {
        "name": "ปัญจพร",
        "role": "เพิ่มเติม",
        "date": "2558-10-12"
      }
    ],
    "tag": "c338-2b-9983-update"
  }
}