{
  "pages": [
    [
      [
        "ประกาศกระทรวงแรงงาน",
        "เรื่อง กำหนดแบบและการออกบัตรประจำตัวนายทะเบียนและพนักงานเจ้าหน้าที่",
        "ตามกฎหมายว่าด้วยการทำงานของคนต่างด้าว"
      ]
    ],
    []
  ],
  "metadata": {
    "date_backmatter": "2553-12-09",
    "date_modified": "2553-12-29",
    "date_original": "2553-12-29",
    "doctype": "ประกาศ",
    "editors": [
      {
        "name": "ปริยานุช",
        "role": "ผู้จัดทำ",
        "date": "2554-01-12"
      },
      {
        "name": "ณัฐวดี",
        "role": "ตรวจ",
        "date": "2554-01-12"
      }
    ],
    "tag": "c338-2e-2553-a0024"
  }
}