{
  "pages": [
    [
      [
        "ประกาศกรมประมง",
        "เรื่อง การแลกเปลี่ยนเรือประมง สำหรับการออกใบอนุญาตทำการประมง",
        "ในปีการประมง ๒๕๖๑ - ๒๕๖๒",
        "พ.ศ. ๒๕๖๐"
      ]
    ],
    []
  ],
  "metadata": {
    "date_backmatter": "2560-11-03",
    "date_modified": "2560-11-07",
    "date_original": "2560-11-07",
    "doctype": "ประกาศ",
    "editors": [
      {
        "name": "ภวรรณตรี",
        "role": "จัดทำ",
        "date": "2560-11-15"
      },
      {
        "name": "พัชรภรณ์",
        "role": "ตรวจ",
        "date": "2560-11-15"
      }
    ],
    "tag": "c338-2e-2560-a0029"
  }
}