{
  "pages": [
    [
      [
        "ประกาศสำนักงานพัฒนาการท่องเที่ยว",
        "เรื่อง จัดตั้งสำนักงานทะเบียนธุรกิจนำเที่ยวและมัคคุเทศก์สาขา"
      ]
    ],
    []
  ],
  "metadata": {
    "date_backmatter": "2551-03-14",
    "date_modified": "2551-05-20",
    "date_original": "2551-05-20",
    "doctype": "ประกาศ",
    "editors": [
      {
        "name": "ปริยานุช",
        "role": "ผู้จัดทำ",
        "date": "2551-05-29"
      }
    ],
    "tag": "c338-2e-2551-a0009"
  }
}