{
  "pages": [
    [
      [
        "ระเบียบสำนักนายกรัฐมนตรี",
        "ว่าด้วยการจัดตั้งศูนย์บริการวีซ่าและใบอนุญาตทำงาน (ฉบับที่ ๓)",
        "พ.ศ. ๒๕๔๔"
      ]
    ],
    []
  ],
  "metadata": {
    "date_backmatter": "2544-01-24",
    "date_modified": "2544-02-07",
    "date_original": "2544-02-07",
    "editors": [
      {
        "name": "ดลธี",
        "role": "พิมพ์",
        "date": "2551-10-31"
      },
      {
        "name": "กีรติกิติ์",
        "role": "ทาน",
        "date": "2551-11-04"
      }
    ],
    "tag": "c338-2g-2544-a028"
  }
}