{
  "pages": [
    [
      [
        "ระเบียบองค์การบริหารส่วนตำบลไสหมาก",
        "ว่าด้วยข้อมูลข่าวสารของราชการ พ.ศ. ๒๕๕๙"
      ]
    ],
    []
  ],
  "metadata": {
    "date_backmatter": "2559-03-01",
    "date_modified": "2559-04-21",
    "date_original": "2559-04-21",
    "editors": [
      {
        "name": "วิศนี/ปริยานุช",
        "role": "จัดทำ",
        "date": "2559-05-02"
      }
    ],
    "tag": "c338-2g-2559-a0012"
  }
}