{
  "pages": [
    [
      [
        "ประกาศคณะรักษาความสงบเรียบร้อยแห่งชาติ",
        "ฉบับที่ ๓๔",
        "เรื่อง ขอความร่วมมือแจ้งหลักฐานเบาะแสความร่ำรวย",
        "ผิดปกติของนักการเมืองเพิ่มเติม"
      ]
    ],
    []
  ],
  "metadata": {
    "date_backmatter": "2534-02-27",
    "date_gz_old": "2534-02-28",
    "doctype": "ประกาศ",
    "editors": [
      {
        "name": "พุทธชาด",
        "role": "แก้ไข",
        "date": "2545-09-30"
      }
    ],
    "tag": "c338-2e-2534-a011"
  }
}