{
  "pages": [
    [
      [
        "ประกาศสำนักนายกรัฐมนตรี",
        "เรื่อง พระราชทานพระบรมราชานุญาตให้ใช้ตราประจำตำแหน่ง"
      ]
    ],
    []
  ],
  "metadata": {
    "date_backmatter": "2554-05-13",
    "date_modified": "2554-05-18",
    "date_original": "2554-05-18",
    "doctype": "ประกาศ",
    "editors": [
      {
        "name": "ปริยานุช",
        "role": "ผู้จัดทำ",
        "date": "2554-05-31"
      },
      {
        "name": "ณัฐวดี",
        "role": "ตรวจ",
        "date": "2554-05-31"
      }
    ],
    "tag": "c338-2e-2554-a0010"
  }
}