{
  "pages": [
    [
      [
        "ระเบียบกรมป่าไม้",
        "ว่าด้วยมาตรการควบคุม ตรวจสอบและเร่งรัดการดำเนินคดีอาญา",
        "พ.ศ. ๒๕๕๒"
      ]
    ],
    []
  ],
  "metadata": {
    "date_backmatter": "2552-04-03",
    "date_modified": "2552-04-29",
    "date_original": "2552-04-29",
    "editors": [
      {
        "name": "ปริยานุช",
        "role": "ผู้จัดทำ",
        "date": "2552-05-06"
      }
    ],
    "tag": "c338-2g-2552-a0023"
  }
}