{
  "pages": [
    [
      [
        "ระเบียบสำนักนายกรัฐมนตรี",
        "ว่าด้วยคณะกรรมการนโยบายทรัพย์สินทางปัญญาแห่งชาติ",
        "พ.ศ. ๒๕๕๕"
      ]
    ],
    []
  ],
  "metadata": {
    "date_backmatter": "2555-08-27",
    "date_modified": "2559-06-29",
    "date_original": "2555-09-01",
    "editors": [
      {
        "name": "วิศนี",
        "role": "เพิ่มเติม",
        "date": "2559-07-14"
      },
      {
        "name": "นุสรา",
        "role": "ตรวจ",
        "date": "2559-08-03"
      }
    ],
    "tag": "c338-2g-9946-update"
  }
}