{
  "pages": [
    [
      [
        "ระเบียบสำนักนายกรัฐมนตรี",
        "ว่าด้วยการประสานงานในการบังคับใช้กฎหมายเพื่อป้องปราม",
        "การละเมิดทรัพย์สินทางปัญญา",
        "พ.ศ. ๒๕๕๓"
      ]
    ],
    []
  ],
  "metadata": {
    "date_backmatter": "2553-08-06",
    "date_modified": "2553-08-31",
    "date_original": "2553-08-31",
    "editors": [
      {
        "name": "ปริยานุช",
        "role": "ผู้จัดทำ",
        "date": "2553-09-14"
      },
      {
        "name": "นันท์นภัสร์",
        "role": "ตรวจ",
        "date": "2553-09-14"
      }
    ],
    "tag": "c338-2g-2553-a0022"
  }
}