{
  "pages": [
    [
      [
        "กฎกระทรวง",
        "แบ่งส่วนราชการสำนักงานนโยบายและแผนพลังงาน",
        "กระทรวงพลังงาน",
        "พ.ศ. ๒๕๕๑"
      ]
    ],
    []
  ],
  "metadata": {
    "date_backmatter": "2551-09-12",
    "date_modified": "2551-10-02",
    "date_original": "2551-10-02",
    "doctype": "กฎกระทรวง",
    "editors": [
      {
        "name": "ปริยานุช",
        "role": "ผู้จัดทำ",
        "date": "2551-10-03"
      }
    ],
    "tag": "c338-2b-2551-a0028"
  }
}