{
  "pages": [
    [
      [
        "ระเบียบสำนักงานคณะกรรมการอาหารและยา",
        "ว่าด้วยการนำเข้าอาหารเพื่อเป็นตัวอย่างในการขึ้นทะเบียนตำรับอาหาร",
        "หรือเพื่อพิจารณาในการสั่งซื้อ พ.ศ. ๒๕๖๐"
      ]
    ],
    []
  ],
  "metadata": {
    "date_backmatter": "2560-01-25",
    "date_modified": "2560-02-22",
    "date_original": "2560-02-22",
    "editors": [
      {
        "name": "พิมพ์มาดา/ปริยานุช",
        "role": "จัดทำ",
        "date": "2560-02-27"
      },
      {
        "name": "ปริญสินีย์",
        "role": "ตรวจ",
        "date": "2560-04-05"
      }
    ],
    "tag": "c338-2g-2560-a0005"
  }
}