{
  "pages": [
    [
      [
        "กฎกระทรวง",
        "แบ่งส่วนราชการสำนักงานมาตรฐานสินค้าเกษตรและอาหารแห่งชาติ",
        "กระทรวงเกษตรและสหกรณ์",
        "พ.ศ. ๒๕๕๗"
      ]
    ],
    []
  ],
  "metadata": {
    "date_backmatter": "2557-12-19",
    "date_modified": "2557-12-30",
    "date_original": "2557-12-30",
    "doctype": "กฎกระทรวง",
    "editors": [
      {
        "name": "ปริยานุช",
        "role": "ผู้จัดทำ",
        "date": "2558-01-05"
      },
      {
        "name": "วันทิตา",
        "role": "ผู้ตรวจ",
        "date": "2558-01-15"
      }
    ],
    "tag": "c338-2b-2557-a0009"
  }
}