{
  "pages": [
    [
      [
        "ระเบียบสำนักนายกรัฐมนตรี",
        "ว่าด้วยรถราชการ พ.ศ. ๒๕๒๓"
      ]
    ],
    []
  ],
  "metadata": {
    "date_backmatter": "2523-07-02",
    "date_modified": "2530-11-19",
    "date_original": "2523-07-07",
    "editors": [
      {
        "name": "เอกฤทธิ์",
        "role": "ผู้จัดทำ",
        "date": "2552-04-01"
      }
    ],
    "tag": "c338-2g-2530-a0002"
  }
}