{
  "pages": [
    [
      [
        "กฎกระทรวง",
        "แบ่งส่วนราชการสำนักงานคณะกรรมการพิเศษ",
        "เพื่อประสานงานโครงการอันเนื่องมาจากพระราชดำริ",
        "พ.ศ. ๒๕๕๘"
      ]
    ],
    []
  ],
  "metadata": {
    "date_backmatter": "2558-09-08",
    "date_modified": "2558-09-09",
    "date_original": "2558-09-09",
    "doctype": "กฎกระทรวง",
    "editors": [
      {
        "name": "ปริยานุช",
        "role": "ผู้จัดทำ",
        "date": "2558-09-17"
      },
      {
        "name": "ปุณิกา",
        "role": "ผู้ตรวจ",
        "date": "2558-10-01"
      }
    ],
    "tag": "c338-2b-2558-a0022"
  }
}