{
  "pages": [
    [
      [
        "ระเบียบกรมสอบสวนคดีพิเศษ",
        "ว่าด้วยการคุ้มครองพยานในคดีอาญา",
        "(ฉบับที่ ๒)",
        "พ.ศ. ๒๕๖๑"
      ]
    ],
    []
  ],
  "metadata": {
    "date_backmatter": "2561-07-06",
    "date_modified": "2561-08-06",
    "date_original": "2561-08-06",
    "editors": [
      {
        "name": "ปุณิกา",
        "role": "จัดทำ",
        "date": "2562-01-07"
      }
    ],
    "tag": "c338-2g-2561-a0067"
  }
}