{
  "pages": [
    [
      [
        "กฎกระทรวง",
        "แบ่งส่วนราชการกรมส่งเสริมอุตสาหกรรม",
        "กระทรวงอุตสาหกรรม",
        "พ.ศ. ๒๕๖๐"
      ]
    ],
    []
  ],
  "metadata": {
    "date_backmatter": "2560-09-13",
    "date_modified": "2560-10-02",
    "date_original": "2560-10-02",
    "doctype": "กฎกระทรวง",
    "editors": [
      {
        "name": "พัชรภรณ์/อัญชลี",
        "role": "จัดทำ",
        "date": "2560-10-03"
      },
      {
        "name": "ปริญสินีย์",
        "role": "ตรวจ",
        "date": "2560-11-27"
      }
    ],
    "tag": "c338-2b-2560-a0053"
  }
}