{
  "pages": [
    [
      [
        "กฎกระทรวง",
        "แบ่งส่วนราชการสำนักงานป้องกันและปราบปรามการฟอกเงิน",
        "พ.ศ. ๒๕๕๖"
      ]
    ],
    []
  ],
  "metadata": {
    "date_backmatter": "2556-02-04",
    "date_modified": "2556-08-06",
    "date_original": "2556-02-08",
    "doctype": "กฎกระทรวง",
    "editors": [
      {
        "name": "ปริยานุช",
        "role": "ผู้จัดทำ",
        "date": "2556-02-11"
      },
      {
        "name": "ปณตภร",
        "role": "ผู้ตรวจ",
        "date": "2556-02-13"
      },
      {
        "name": "เอกฤทธิ์",
        "role": "ผู้ปรับปรุง",
        "date": "2556-10-25"
      }
    ],
    "tag": "c338-2b-9956-update"
  }
}