{
  "pages": [
    [
      [
        "ระเบียบกระทรวงมหาดไทย",
        "ว่าด้วยคณะกรรมการพัฒนาสตรี (ฉบับที่ ๒)",
        "พ.ศ. ๒๕๕๒"
      ]
    ],
    []
  ],
  "metadata": {
    "date_backmatter": "2552-01-30",
    "date_modified": "2555-11-23",
    "date_original": "2555-11-23",
    "editors": [
      {
        "name": "ปริยานุช",
        "role": "ผู้จัดทำ",
        "date": "2555-11-27"
      },
      {
        "name": "ณัฐพร",
        "role": "ผู้ตรวจ",
        "date": "2555-11-27"
      }
    ],
    "tag": "c338-2g-2555-a0030"
  }
}