{
  "pages": [
    [
      [
        "ระเบียบกระทรวงเกษตรและสหกรณ์",
        "ว่าด้วยกองทุนปรับโครงสร้างการผลิตภาคเกษตรเพื่อเพิ่มขีดความสามารถ",
        "การแข่งขันของประเทศ (ฉบับที่ ๒)",
        "พ.ศ. ๒๕๔๘"
      ]
    ],
    []
  ],
  "metadata": {
    "date_backmatter": "2548-09-05",
    "date_modified": "2548-09-29",
    "date_original": "2548-09-29",
    "editors": [
      {
        "name": "ชัชสรัญ",
        "role": "ผู้จัดทำ",
        "date": "2548-10-07"
      }
    ],
    "tag": "c338-2g-2548-a0029"
  }
}