{
  "pages": [
    [
      [
        "ระเบียบสำนักนายกรัฐมนตรี",
        "ว่าด้วยการส่งเสริมคุณธรรมแห่งชาติ (ฉบับที่ ๒)",
        "พ.ศ. ๒๕๖๑"
      ]
    ],
    []
  ],
  "metadata": {
    "date_backmatter": "2561-10-16",
    "date_modified": "2561-10-24",
    "date_original": "2561-10-24",
    "editors": [
      {
        "name": "พิมพ์มาดา",
        "role": "จัดทำ",
        "date": "2562-02-06"
      },
      {
        "name": "วิชพงษ์",
        "role": "ตรวจ",
        "date": "2562-03-15"
      }
    ],
    "tag": "c338-2g-2561-a0079"
  }
}