{
  "pages": [
    [
      [
        "ประกาศคณะกรรมการบริหารกองทุน",
        "เรื่อง หลักเกณฑ์ วิธีการ และเงื่อนไขการจัดสรร การพิจารณา",
        "และอนุมัติจ่ายเงินสนับสนุนโครงการของสมาชิกและการจัดทำบัญชีของกองทุน"
      ]
    ],
    []
  ],
  "metadata": {
    "date_backmatter": "2556-03-11",
    "date_modified": "2556-03-19",
    "date_original": "2556-03-19",
    "doctype": "ประกาศ",
    "editors": [
      {
        "name": "ปริยานุช",
        "role": "ผู้จัดทำ",
        "date": "2556-03-25"
      },
      {
        "name": "โชติกานต์",
        "role": "ผู้ตรวจ",
        "date": "2556-04-18"
      }
    ],
    "tag": "c338-2e-2556-a0006"
  }
}