{
  "pages": [
    [
      [
        "พระราชบัญญัติ",
        "ระเบียบบริหารราชการแผ่นดิน",
        "พ.ศ. ๒๕๓๔",
        "",
        "",
        "ภูมิพลอดุลยเดช ป.ร.",
        "ให้ไว้ ณ วันที่ ๒๑ สิงหาคม พ.ศ. ๒๕๓๔",
        "เป็นปีที่ ๔๖ ในรัชกาลปัจจุบัน"
      ]
    ],
    []
  ],
  "metadata": {
    "date_backmatter": "2515-09-29",
    "date_header": "2534-08-21",
    "date_modified": "2546-10-31",
    "date_original": "2534-09-04",
    "doctype": "พระราชบัญญัติ",
    "editors": [
      {
        "name": "สัญชัย",
        "role": "ผู้จัดทำ",
        "date": "2551-11-12"
      }
    ],
    "tag": "c338-20-2546-a0002",
    "title": "ระเบียบบริหารราชการแผ่นดิน"
  }
}