{
  "pages": [
    [
      [
        "คำสั่งกรมสรรพากร",
        "ที่ ท.ป. ๒๓๔/๒๕๕๘",
        "เรื่อง มอบอำนาจให้รองอธิบดีกรมสรรพากร หรือผู้รักษาราชการแทนรองอธิบดีสั่ง",
        "และปฏิบัติราชการแทนอธิบดีกรมสรรพากร"
      ]
    ],
    []
  ],
  "metadata": {
    "date_backmatter": "2558-01-12",
    "date_modified": "2558-03-19",
    "date_original": "2558-03-19",
    "editors": [
      {
        "name": "ปริยานุช",
        "role": "ผู้จัดทำ",
        "date": "2558-03-24"
      },
      {
        "name": "วันทิตา",
        "role": "ผู้ตรวจ",
        "date": "2558-04-24"
      }
    ],
    "tag": "c338-2f-2558-a0003"
  }
}