{
  "pages": [
    [
      [
        "กฎกระทรวง",
        "การอนุญาตประกอบธุรกิจรักษาความปลอดภัย",
        "พ.ศ. ๒๕๖๐"
      ]
    ],
    []
  ],
  "metadata": {
    "date_backmatter": "2560-03-14",
    "date_modified": "2560-04-21",
    "date_original": "2560-04-21",
    "doctype": "กฎกระทรวง",
    "editors": [
      {
        "name": "ชวัลพร/ภวรรณตรี",
        "role": "จัดทำ",
        "date": "2560-04-26"
      }
    ],
    "tag": "b813-2b-2560-a0002"
  }
}