{
  "pages": [
    [
      [
        "ระเบียบคณะกรรมการกำกับธุรกิจรักษาความปลอดภัย",
        "ว่าด้วยกำหนดมาตรฐานสถานฝึกอบรมและอัตราค่าธรรมเนียมการฝึกอบรม",
        "พ.ศ. ๒๕๖๐"
      ]
    ],
    []
  ],
  "metadata": {
    "date_backmatter": "2560-08-01",
    "date_modified": "2560-09-19",
    "date_original": "2560-09-19",
    "editors": [
      {
        "name": "พิมพ์มาดา/อัญชลี",
        "role": "จัดทำ",
        "date": "2560-09-21"
      },
      {
        "name": "นุสรา",
        "role": "ตรวจ",
        "date": "2560-09-23"
      }
    ],
    "tag": "b813-2g-2560-a0002"
  }
}