{
  "pages": [
    [
      [
        "พระราชกฤษฎีกา",
        "ระบุทบวงการชำนัญพิเศษ",
        "พ.ศ. ๒๕๐๔",
        "",
        "",
        "ภูมิพลอดุลยเดช ป.ร.",
        "ให้ไว้ ณ วันที่ ๒๔ ธันวาคม พ.ศ. ๒๕๐๔",
        "เป็นปีที่ ๑๖ ในรัชกาลปัจจุบัน"
      ]
    ],
    []
  ],
  "metadata": {
    "date_header": "2504-12-24",
    "date_modified": "2504-12-24",
    "date_original": "2504-12-24",
    "doctype": "พระราชกฤษฎีกา",
    "editors": [
      {
        "name": "ณัฐพร",
        "role": "ปรับปรุง",
        "date": "2556-05-01"
      }
    ],
    "tag": "a449-2a-2504-001",
    "title": "ระบุทบวงการชำนัญพิเศษ"
  }
}