{
  "pages": [
    [
      [
        "พระราชกฤษฎีกา",
        "ระบุทบวงการชำนัญพิเศษ (ฉบับที่ ๕)",
        "พ.ศ. ๒๕๓๓",
        "------------",
        "",
        "ภูมิพลอดุลยเดช ป.ร.",
        "ให้ไว้ ณ วันที่ ๑๘ กุมภาพันธ์ พ.ศ. ๒๕๓๓",
        "เป็นปีที่ ๔๕ ในรัชกาลปัจจุบัน"
      ]
    ],
    []
  ],
  "metadata": {
    "date_gz_old": "2533-02-26",
    "date_header": "2533-02-18",
    "editors": [],
    "tag": "a449-2a-2533-005"
  }
}