{
  "pages": [
    [
      [
        "ประกาศมหาวิทยาลัยบูรพา",
        "เรื่อง ปริญญาในสาขาวิชา อักษรย่อสำหรับสาขาวิชา ครุยวิทยฐานะ เข็มวิทยฐานะ",
        "และครุยประจำตำแหน่งของมหาวิทยาลัยบูรพา (ฉบับที่ ๓)",
        "พ.ศ. ๒๕๕๓"
      ]
    ],
    []
  ],
  "metadata": {
    "date_backmatter": "2553-04-07",
    "date_modified": "2553-07-09",
    "date_original": "2553-07-09",
    "doctype": "ประกาศ",
    "editors": [
      {
        "name": "ปริยานุช",
        "role": "ผู้จัดทำ",
        "date": "2553-07-16"
      },
      {
        "name": "นันท์นภัสร์",
        "role": "ตรวจ",
        "date": "2553-07-16"
      }
    ],
    "tag": "c114-2e-2553-a0002"
  }
}