{
  "pages": [
    [
      [
        "ประกาศมหาวิทยาลัยบูรพา",
        "เรื่อง การจัดตั้งส่วนงาน และภาระหน้าที่ของส่วนงาน",
        "พ.ศ. ๒๕๕๘"
      ]
    ],
    []
  ],
  "metadata": {
    "date_backmatter": "2558-11-18",
    "date_modified": "2558-12-11",
    "date_original": "2558-12-11",
    "doctype": "ประกาศ",
    "editors": [
      {
        "name": "ปริยานุช",
        "role": "จัดทำ",
        "date": "2558-12-14"
      },
      {
        "name": "วิศนี",
        "role": "ตรวจ",
        "date": "2559-01-15"
      }
    ],
    "tag": "c114-2e-2558-a0003"
  }
}