{
  "pages": [
    [
      [
        "ประกาศมหาวิทยาลัยบูรพา",
        "เรื่อง ประกาศนียบัตรในสาขาวิชา อักษรย่อสำหรับสาขาวิชา ของมหาวิทยาลัยบูรพา",
        "พ.ศ. ๒๕๕๖"
      ]
    ],
    []
  ],
  "metadata": {
    "date_backmatter": "2556-01-24",
    "date_modified": "2556-03-11",
    "date_original": "2556-03-11",
    "doctype": "ประกาศ",
    "editors": [
      {
        "name": "ปริยานุช",
        "role": "ผู้จัดทำ",
        "date": "2556-03-14"
      },
      {
        "name": "อุษมล",
        "role": "ผู้ตรวจ",
        "date": "2556-03-18"
      }
    ],
    "tag": "c114-2e-2556-a0004"
  }
}