{
  "pages": [
    [
      [
        "ประกาศมหาวิทยาลัยบูรพา",
        "เรื่อง การรับวิทยาลัยในสังกัดสถาบันพระบรมราชชนกเข้าสมทบในมหาวิทยาลัยบูรพา",
        "พ.ศ. ๒๕๕๕"
      ]
    ],
    []
  ],
  "metadata": {
    "date_backmatter": "2555-02-23",
    "date_modified": "2555-04-23",
    "date_original": "2555-04-23",
    "doctype": "ประกาศ",
    "editors": [
      {
        "name": "ปริยานุช",
        "role": "ผู้จัดทำ",
        "date": "2555-04-26"
      },
      {
        "name": "ปณตภร",
        "role": "ผู้ตรวจ",
        "date": "2555-05-18"
      }
    ],
    "tag": "c114-2e-2555-a0001"
  }
}