{
  "pages": [
    [
      [
        "ประกาศทบวงมหาวิทยาลัย",
        "เรื่อง การรับศูนย์ฝึกพาณิชย์นาวี ในสังกัดกรมเจ้าท่า",
        "กระทรวงคมนาคม เข้าสมทบในมหาวิทยาลัยบูรพา",
        "พ.ศ. ๒๕๔๑"
      ]
    ],
    []
  ],
  "metadata": {
    "date_backmatter": "2541-10-15",
    "date_modified": "2541-10-19",
    "date_original": "2541-10-19",
    "doctype": "ประกาศ",
    "editors": [
      {
        "name": "วิภา",
        "role": "ผู้จัดทำ",
        "date": "2554-05-04"
      }
    ],
    "tag": "c114-2e-2541-a0001"
  }
}