{
  "pages": [
    [
      [
        "พระราชกฤษฎีกา",
        "จัดตั้งส่วนราชการในมหาวิทยาลัยบูรพา",
        "ทบวงมหาวิทยาลัย",
        "พ.ศ. ๒๕๓๕",
        "",
        "",
        "ภูมิพลอดุลยเดช ป.ร.",
        "ให้ไว้ ณ วันที่ ๔ กันยายน พ.ศ. ๒๕๓๕",
        "เป็นปีที่ ๔๗ ในรัชกาลปัจจุบัน"
      ]
    ],
    []
  ],
  "metadata": {
    "date_header": "2535-09-04",
    "date_modified": "2537-03-29",
    "date_original": "2535-09-14",
    "doctype": "พระราชกฤษฎีกา",
    "editors": [
      {
        "name": "วิภา",
        "role": "ผู้จัดทำ",
        "date": "2554-05-04"
      }
    ],
    "tag": "c114-2a-2537-a005",
    "title": "จัดตั้งส่วนราชการในมหาวิทยาลัยบูรพาทบวงมหาวิทยาลัย"
  }
}