{
  "pages": [
    [
      [
        "ประกาศทบวงมหาวิทยาลัย",
        "เรื่อง ข้อบังคับมหาวิทยาลัยบูรพา"
      ]
    ],
    []
  ],
  "metadata": {
    "date_backmatter": "2533-11-30",
    "date_modified": "2533-12-27",
    "date_original": "2533-12-27",
    "doctype": "ประกาศ",
    "editors": [
      {
        "name": "วิภา",
        "role": "ผู้จัดทำ",
        "date": "2554-05-04"
      }
    ],
    "tag": "c114-2e-2533-a0001"
  }
}