{
  "pages": [
    [
      [
        "คำสั่งกรมสรรพสามิต",
        "ที่ ๒๘๘/๒๕๔๑",
        "เรื่อง ยกเลิกคำวินิจฉัยพิกัดอัตราภาษีสรรพสามิตเกี่ยวกับรถยนต์"
      ]
    ],
    []
  ],
  "metadata": {
    "date_backmatter": "2541-08-06",
    "date_gz_old": "2541-09-03",
    "editors": [
      {
        "name": "พรพิมล/พิมพ์",
        "role": "แก้ไข",
        "date": "2545-07-01"
      }
    ],
    "tag": "be08-2f-2541-a0001"
  }
}