{
  "pages": [
    [
      [
        "พระราชบัญญัติ",
        "เหรียญงานพระราชสงครามในทวีปยุโรป",
        "พ.ศ. ๒๔๙๗",
        "",
        "",
        "ภูมิพลอดุลยเดช ป.ร.",
        "ให้ไว้ ณ วันที่ ๒๐ ธันวาคม พ.ศ. ๒๔๙๗",
        "เป็นปีที่ ๙ ในราชกาลปัจจุบัน"
      ]
    ],
    []
  ],
  "metadata": {
    "date_header": "2497-12-20",
    "date_modified": "2497-12-28",
    "date_original": "2497-12-28",
    "doctype": "พระราชบัญญัติ",
    "editors": [
      {
        "name": "วิภา",
        "role": "ผู้จัดทำ",
        "date": "2556-12-13"
      },
      {
        "name": "วิชพงษ์",
        "role": "ตรวจ",
        "date": "2557-01-06"
      }
    ],
    "tag": "cb49-20-2497-a0001",
    "title": "เหรียญงานพระราชสงครามในทวีปยุโรป"
  }
}