{
  "pages": [
    [
      [
        "กฎ ก.ค.ศ.",
        "ว่าด้วยการให้ข้าราชการครูและบุคลากรทางการศึกษา",
        "ได้รับเงินเดือนสูงกว่าหรือต่ำกว่าขั้นต่ำ หรือสูงกว่าขั้นสูงของอันดับ",
        "พ.ศ. ๒๕๕๓"
      ]
    ],
    []
  ],
  "metadata": {
    "date_backmatter": "2553-08-25",
    "date_modified": "2553-09-03",
    "date_original": "2553-09-03",
    "editors": [
      {
        "name": "ปริยานุช",
        "role": "ผู้จัดทำ",
        "date": "2553-09-13"
      },
      {
        "name": "นันท์นภัสร์",
        "role": "ตรวจ",
        "date": "2553-09-13"
      }
    ],
    "tag": "c348-2c-2553-a0001"
  }
}