{
  "pages": [
    [
      [
        "พระราชบัญญัติ",
        "ระเบียบข้าราชการครูและบุคลากรทางการศึกษา",
        "พ.ศ. ๒๕๔๗",
        "",
        "",
        "ภูมิพลอดุลยเดช ป.ร.",
        "ให้ไว้ ณ วันที่ ๒๑ ธันวาคม พ.ศ. ๒๕๔๗",
        "เป็นปีที่ ๕๙ ในรัชกาลปัจจุบัน"
      ]
    ],
    []
  ],
  "metadata": {
    "date_header": "2547-12-21",
    "date_modified": "2559-03-21",
    "date_original": "2547-12-23",
    "doctype": "พระราชบัญญัติ",
    "editors": [
      {
        "name": "สุกัญญา",
        "role": "ผู้จัดทำ",
        "date": "2553-11-30"
      },
      {
        "name": "ชาญ",
        "role": "ตรวจ",
        "date": "2554-08-04"
      },
      {
        "name": "กัญฑรัตน์",
        "role": "เพิ่มเติม",
        "date": "2559-04-08"
      },
      {
        "name": "ปัญญา",
        "role": "ตรวจ",
        "date": "2559-04-19"
      }
    ],
    "tag": "c348-20-2559-a0001",
    "title": "ระเบียบข้าราชการครูและบุคลากรทางการศึกษา"
  }
}