{
  "pages": [
    [
      [
        "ระเบียบ ก.ค.ศ.",
        "ว่าด้วยระบบทะเบียนประวัติข้าราชการครูและบุคลากรทางการศึกษา",
        "พ.ศ. ๒๕๕๕"
      ]
    ],
    []
  ],
  "metadata": {
    "date_backmatter": "2555-04-20",
    "date_modified": "2560-03-21",
    "date_original": "2555-05-18",
    "editors": [
      {
        "name": "ปริญสินีย์",
        "role": "จัดทำ",
        "date": "2560-03-23"
      }
    ],
    "tag": "c348-2g-9999-update"
  }
}