{
  "pages": [
    [
      [
        "กฎ ก.ค.ศ.",
        "การเลื่อนเงินเดือนของข้าราชการครูและบุคลากรทางการศึกษา",
        "พ.ศ. ๒๕๖๑"
      ]
    ],
    []
  ],
  "metadata": {
    "date_backmatter": "2560-03-21",
    "date_modified": "2561-09-26",
    "date_original": "2561-09-26",
    "editors": [
      {
        "name": "พัชรภรณ์",
        "role": "จัดทำ",
        "date": "2562-01-31"
      },
      {
        "name": "วิชพงษ์",
        "role": "ตรวจ",
        "date": "2562-01-31"
      }
    ],
    "tag": "c348-2c-2561-a0002"
  }
}