{
  "pages": [
    [
      [
        "กฎ ก.ค.ศ.",
        "ว่าด้วยโรค",
        "พ.ศ. ๒๕๔๙"
      ]
    ],
    []
  ],
  "metadata": {
    "date_backmatter": "2549-08-28",
    "date_modified": "2549-09-14",
    "date_original": "2549-09-14",
    "editors": [
      {
        "name": "นันทนา",
        "role": "ผู้จัดทำ",
        "date": "2549-09-21"
      }
    ],
    "tag": "c348-2c-2549-a0002"
  }
}