{
  "pages": [
    [
      [
        "พระราชบัญญัติ",
        "กู้เงินเพื่อการบูรณะและวิวัฒนาการแห่งประเทศ",
        "พ.ศ. ๒๔๙๖",
        "",
        "",
        "ภูมิพลอดุลยเดช ป.ร.",
        "ให้ไว้ ณ วันที่ ๑๙ มกราคม พ.ศ. ๒๔๙๖",
        "เป็นปีที่ ๘ ในรัชกาลปัจจุบัน"
      ]
    ],
    []
  ],
  "metadata": {
    "date_header": "2496-01-19",
    "date_modified": "2496-01-20",
    "date_original": "2496-01-20",
    "doctype": "พระราชบัญญัติ",
    "editors": [
      {
        "name": "ชาตินัย",
        "role": "ผู้จัดทำ",
        "date": "2554-04-28"
      }
    ],
    "tag": "c704-20-2500-a0001",
    "title": "กู้เงินเพื่อการบูรณะและวิวัฒนาการแห่งประเทศ"
  }
}