{
  "pages": [
    [
      [
        "ประกาศกระทรวงการคลัง",
        "เรื่อง ผลการจำหน่ายตั๋วสัญญาใช้เงินเพื่อการปรับโครงสร้างหนี้",
        "(พ.ร.ก. ให้อำนาจกระทรวงการคลังกู้เงินฯ พ.ศ. ๒๕๕๒)",
        "ในปีงบประมาณ พ.ศ. ๒๕๕๙",
        "ครั้งที่ ๑"
      ]
    ],
    []
  ],
  "metadata": {
    "date_backmatter": "2559-04-08",
    "date_modified": "2559-05-04",
    "date_original": "2559-05-04",
    "doctype": "ประกาศ",
    "editors": [
      {
        "name": "ชวัลพร/ปริยานุช",
        "role": "จัดทำ",
        "date": "2559-05-11"
      },
      {
        "name": "นุสรา",
        "role": "ตรวจ",
        "date": "2559-06-16"
      }
    ],
    "tag": "c704-2e-2559-a0001"
  }
}