{
  "pages": [
    [
      [
        "ประกาศคณะกรรมการการนิคมอุตสาหกรรม",
        "แห่งประเทศไทย",
        "ที่ ๑/๒๕๔๔",
        "เรื่อง หลักเกณฑ์และเงื่อนไขการร่วมดำเนินงาน",
        "กับบุคคลอื่นในการจัดตั้งนิคมอุตสาหกรรม",
        "(แก้ไขเพิ่มเติมครั้งที่ ๒)"
      ]
    ],
    []
  ],
  "metadata": {
    "date_backmatter": "2544-11-23",
    "date_modified": "2544-12-06",
    "date_original": "2544-12-06",
    "doctype": "ประกาศ",
    "editors": [
      {
        "name": "พรพิมล/พิมพ์",
        "role": "แก้ไข",
        "date": "2545-04-24"
      },
      {
        "name": "วิภา",
        "role": "ปรับปรุง",
        "date": "2559-03-24"
      }
    ],
    "tag": "a156-2e-2544-a0001"
  }
}