{
  "pages": [
    [
      [
        "ประกาศคณะกรรมการการนิคมอุตสาหกรรมแห่งประเทศไทย",
        "เรื่อง การขอได้รับยกเว้นไม่อยู่ภายในบังคับของกฎหมายควบคุมสำหรับของหรือวัตถุดิบ",
        "ที่นำเข้าไปในเขตประกอบการเสรี"
      ]
    ],
    []
  ],
  "metadata": {
    "date_backmatter": "2555-08-16",
    "date_modified": "2555-10-10",
    "date_original": "2555-10-10",
    "doctype": "ประกาศ",
    "editors": [
      {
        "name": "ปริยานุช",
        "role": "ผู้จัดทำ",
        "date": "2555-10-12"
      },
      {
        "name": "ปณตภร",
        "role": "ผู้ตรวจ",
        "date": "2555-10-26"
      }
    ],
    "tag": "a156-2e-2555-a0004"
  }
}