{
  "pages": [
    [
      [
        "ข้อบังคับคณะกรรมการการนิคมอุตสาหกรรมแห่งประเทศไทย",
        "ว่าด้วย กำหนดประเภทโรงงานในนิคมอุตสาหกรรมที่ต้องติดตั้งเครื่องมือหรือ",
        "เครื่องอุปกรณ์พิเศษเพื่อตรวจสอบคุณภาพอากาศจากปล่องแบบอัตโนมัติ",
        "พ.ศ. ๒๕๕๓"
      ]
    ],
    []
  ],
  "metadata": {
    "date_backmatter": "2553-01-18",
    "date_modified": "2553-02-24",
    "date_original": "2553-02-24",
    "editors": [
      {
        "name": "ปริยานุช",
        "role": "ผู้จัดทำ",
        "date": "2553-03-05"
      },
      {
        "name": "นันท์นภัสร์",
        "role": "ตรวจ",
        "date": "2553-03-05"
      }
    ],
    "tag": "a156-2i-2553-a0001"
  }
}