{
  "pages": [
    [
      [
        "ประกาศคณะกรรมการการนิคมอุตสาหกรรมแห่งประเทศไทย",
        "เรื่อง การเปลี่ยนแปลงเขต เขตอุตสาหกรรมทั่วไป",
        "นิคมอุตสาหกรรมอมตะนคร (ฉบับที่ ๒๓)"
      ]
    ],
    []
  ],
  "metadata": {
    "date_backmatter": "2556-01-11",
    "date_modified": "2556-01-18",
    "date_original": "2556-01-18",
    "doctype": "ประกาศ",
    "editors": [
      {
        "name": "ปริยานุช",
        "role": "ผู้จัดทำ",
        "date": "2556-01-21"
      },
      {
        "name": "อุษมล",
        "role": "ผู้ตรวจ",
        "date": "2556-01-21"
      }
    ],
    "tag": "a156-2e-2556-a0004"
  }
}