{
  "pages": [
    [
      [
        "ประกาศคณะกรรมการการนิคมอุตสาหกรรมแห่งประเทศไทย",
        "เรื่อง การยุบเขตอุตสาหกรรมทั่วไป นิคมอุตสาหกรรมอาหารฮาลาล จังหวัดปัตตานี"
      ]
    ],
    []
  ],
  "metadata": {
    "date_backmatter": "2559-03-02",
    "date_modified": "2559-04-21",
    "date_original": "2559-04-21",
    "doctype": "ประกาศ",
    "editors": [
      {
        "name": "วิศนี/ปริยานุช",
        "role": "จัดทำ",
        "date": "2559-05-18"
      }
    ],
    "tag": "a156-2e-2559-a0002"
  }
}