{
  "pages": [
    [
      [
        "ประกาศคณะกรรมการการนิคมอุตสาหกรรมแห่งประเทศไทย",
        "เรื่อง การเปลี่ยนแปลงเขต เขตอุตสาหกรรมทั่วไป",
        "นิคมอุตสาหกรรมหลักชัยเมืองยาง จังหวัดระยอง"
      ]
    ],
    []
  ],
  "metadata": {
    "date_backmatter": "2558-08-18",
    "date_modified": "2558-09-01",
    "date_original": "2558-09-01",
    "doctype": "ประกาศ",
    "editors": [
      {
        "name": "ปริยานุช",
        "role": "ผู้จัดทำ",
        "date": "2558-09-04"
      },
      {
        "name": "วิศนี",
        "role": "ผู้ตรวจ",
        "date": "2558-09-14"
      }
    ],
    "tag": "a156-2e-2558-a0017"
  }
}