{
  "pages": [
    [
      [
        "ประกาศกระทรวงอุตสาหกรรม",
        "เรื่อง การจัดตั้งเขตอุตสาหกรรมทั่วไป นิคมอุตสาหกรรมทีเอส ๒๑"
      ]
    ],
    []
  ],
  "metadata": {
    "date_backmatter": "2543-03-27",
    "date_modified": "2549-09-29",
    "date_original": "2543-04-24",
    "doctype": "ประกาศ",
    "editors": [
      {
        "name": "ชไมพร",
        "role": "พิมพ์",
        "date": "2544-12-14"
      },
      {
        "name": "สัญชัย",
        "role": "ปรับปรุง",
        "date": "2549-09-26"
      },
      {
        "name": "ปิยะธิดา",
        "role": "ปรับปรุง",
        "date": "2561-09-06"
      }
    ],
    "tag": "a156-2e-9999-update"
  }
}