{
  "pages": [
    [
      [
        "ประกาศคณะกรรมการการนิคมอุตสาหกรรมแห่งประเทศไทย",
        "เรื่อง การเปลี่ยนแปลงเขต เขตอุตสาหกรรมทั่วไป นิคมอุตสาหกรรมสินสาคร (ฉบับที่ ๕)"
      ]
    ],
    []
  ],
  "metadata": {
    "date_backmatter": "2553-04-07",
    "date_modified": "2553-06-02",
    "date_original": "2553-06-02",
    "doctype": "ประกาศ",
    "editors": [
      {
        "name": "ปริญสินีย์",
        "role": "ปรับปรุง",
        "date": "2558-05-18"
      }
    ],
    "tag": "a156-2e-2553-a0002"
  }
}