{
  "pages": [
    [
      [
        "ประกาศกระทรวงอุตสาหกรรม",
        "เรื่อง การจัดตั้งเขตอุตสาหกรรมทั่วไป นิคมอุตสาหกรรมปิ่นทอง"
      ]
    ],
    []
  ],
  "metadata": {
    "date_backmatter": "2540-03-17",
    "date_modified": "2550-06-20",
    "date_original": "2540-04-03",
    "doctype": "ประกาศ",
    "editors": [
      {
        "name": "อุษมล",
        "role": "ผู้จัดทำ",
        "date": "2557-02-26"
      },
      {
        "name": "ชาญ",
        "role": "ผู้ตรวจ",
        "date": "2557-02-26"
      }
    ],
    "tag": "a156-2e-2550-a0019"
  }
}