{
  "pages": [
    [
      [
        "ประกาศกระทรวงอุตสาหกรรม",
        "เรื่อง จัดตั้งนิคมอุตสาหกรรมมาบตาพุดเป็นเขตอุตสาหกรรมทั่วไป"
      ]
    ],
    []
  ],
  "metadata": {
    "date_backmatter": "2528-03-01",
    "date_modified": "2528-04-01",
    "date_original": "2528-04-01",
    "doctype": "ประกาศ",
    "editors": [
      {
        "name": "วิภา",
        "role": "ปรับปรุง",
        "date": "2559-03-18"
      }
    ],
    "tag": "a156-2e-2528-006"
  }
}