{
  "pages": [
    [
      [
        "ประกาศคณะกรรมการการนิคมอุตสาหกรรมแห่งประเทศไทย",
        "เรื่อง การเปลี่ยนแปลงเขต เขตอุตสาหกรรมทั่วไป",
        "นิคมอุตสาหกรรมอีสเทิร์นซีบอร์ด (ระยอง)",
        "ส่วนขยาย (ฉบับที่ ๑๑)"
      ]
    ],
    []
  ],
  "metadata": {
    "date_backmatter": "2558-03-19",
    "date_modified": "2558-04-03",
    "date_original": "2558-04-03",
    "doctype": "ประกาศ",
    "editors": [
      {
        "name": "ปริยานุช",
        "role": "ผู้จัดทำ",
        "date": "2558-04-07"
      },
      {
        "name": "วิศนี",
        "role": "ผู้ตรวจ",
        "date": "2558-04-29"
      }
    ],
    "tag": "a156-2e-2558-a0008"
  }
}