{
  "pages": [
    [
      [
        "กฎกระทรวง",
        "กำหนดหลักเกณฑ์ วิธีการ และเงื่อนไขในการจัดตั้งนิคมอุตสาหกรรม",
        "พ.ศ. ๒๕๔๘"
      ]
    ],
    []
  ],
  "metadata": {
    "date_backmatter": "2548-01-07",
    "date_modified": "2548-01-28",
    "date_original": "2548-01-28",
    "doctype": "กฎกระทรวง",
    "editors": [
      {
        "name": "วิภา",
        "role": "ปรับปรุง",
        "date": "2559-03-15"
      }
    ],
    "tag": "a156-2b-2548-a0001"
  }
}