{
  "pages": [
    [
      [
        "ประกาศกระทรวงอุตสาหกรรม",
        "เรื่อง การจัดตั้งเขตอุตสาหกรรมทั่วไป นิคมอุตสาหกรรมบางปะอิน"
      ]
    ],
    []
  ],
  "metadata": {
    "date_backmatter": "2534-04-24",
    "date_modified": "2558-01-16",
    "date_original": "2534-05-09",
    "doctype": "ประกาศ",
    "editors": [
      {
        "name": "นุสรา",
        "role": "ปรับปรุง",
        "date": "2558-05-20"
      }
    ],
    "tag": "a156-2e-9982-update"
  }
}