{
  "pages": [
    [
      [
        "ประกาศกระทรวงอุตสาหกรรม",
        "เรื่อง การจัดให้ที่ดินในท้องที่ตำบลมาบยางพร อำเภอปลวกแดง จังหวัดระยอง",
        "เป็นที่ดินอันเป็นสาธารณสมบัติของแผ่นดินสำหรับพลเมืองใช้ร่วมกัน",
        "ในเขตอุตสาหกรรมทั่วไป นิคมอุตสาหกรรมอมตะซิตี้"
      ]
    ],
    []
  ],
  "metadata": {
    "date_backmatter": "2549-03-28",
    "date_modified": "2549-04-27",
    "date_original": "2549-04-27",
    "doctype": "ประกาศ",
    "editors": [
      {
        "name": "นันทนา",
        "role": "ผู้จัดทำ",
        "date": "2549-05-04"
      }
    ],
    "tag": "a156-2e-2549-a0002"
  }
}