{
  "pages": [
    [
      [
        "ประกาศคณะกรรมการการนิคมอุตสาหกรรมแห่งประเทศไทย",
        "เรื่อง การเปลี่ยนแปลงเขต เขตอุตสาหกรรมทั่วไป",
        "นิคมอุตสาหกรรมอีสเทิร์นซีบอร์ด (ระยอง) ส่วนขยาย (ฉบับที่ ๕)"
      ]
    ],
    []
  ],
  "metadata": {
    "date_backmatter": "2549-03-24",
    "date_modified": "2549-04-27",
    "date_original": "2549-04-27",
    "doctype": "ประกาศ",
    "editors": [
      {
        "name": "นันทนา",
        "role": "ผู้จัดทำ",
        "date": "2549-05-03"
      }
    ],
    "tag": "a156-2e-2549-a0003"
  }
}