{
  "pages": [
    [
      [
        "พระราชกฤษฎีกา",
        "เปลี่ยนแปลงสภาพสาธารณสมบัติของแผ่นดิน",
        "สำหรับพลเมืองใช้ร่วมกัน ในเขตอุตสาหกรรมทั่วไป นิคมอุตสาหกรรมอมตะนคร",
        "ในท้องที่ตำบลบ้านเก่า อำเภอพานทอง และตำบลคลองตำหรุ",
        "ตำบลหนองไม้แดง อำเภอเมืองชลบุรี จังหวัดชลบุรี",
        "ให้เป็นกรรมสิทธิ์ของการนิคมอุตสาหกรรมแห่งประเทศไทย",
        "พ.ศ. ๒๕๔๘",
        "",
        "",
        "ภูมิพลอดุลยเดช ป.ร.",
        "ให้ไว้ ณ วันที่ ๒๒ ธันวาคม พ.ศ. ๒๕๔๘",
        "เป็นปีที่ ๖๐ ในรัชกาลปัจจุบัน"
      ]
    ],
    []
  ],
  "metadata": {
    "date_header": "2548-12-22",
    "date_modified": "2548-12-30",
    "date_original": "2548-12-30",
    "doctype": "พระราชกฤษฎีกา",
    "editors": [
      {
        "name": "ชัชสรัญ",
        "role": "ผู้จัดทำ",
        "date": "2549-01-09"
      },
      {
        "name": "วิภา",
        "role": "ปรับปรุง",
        "date": "2559-03-15"
      }
    ],
    "tag": "a156-2a-2548-a0003",
    "title": "เปลี่ยนแปลงสภาพสาธารณสมบัติของแผ่นดินสำหรับพลเมืองใช้ร่วมกัน ในเขตอุตสาหกรรมทั่วไป นิคมอุตสาหกรรมอมตะนครในท้องที่ตำบลบ้านเก่า อำเภอพานทอง และตำบลคลองตำหรุตำบลหนองไม้แดง อำเภอเมืองชลบุรี จังหวัดชลบุรีให้เป็นกรรมสิทธิ์ของการนิคมอุตสาหกรรมแห่งประเทศไทย"
  }
}