{
  "pages": [
    [
      [
        "พระราชกฤษฎีกา",
        "เปลี่ยนแปลงสภาพสาธารณสมบัติของแผ่นดินสำหรับพลเมืองใช้ร่วมกัน",
        "ในเขตอุตสาหกรรมทั่วไป นิคมอุตสาหกรรมอมตะซิตี้",
        "ในท้องที่ตำบลมาบยางพร อำเภอปลวกแดง จังหวัดระยอง",
        "ให้เป็นกรรมสิทธิ์ของการนิคมอุตสาหกรรมแห่งประเทศไทย",
        "พ.ศ. ๒๕๕๐",
        "",
        "",
        "ภูมิพลอดุลยเดช ป.ร.",
        "ให้ไว้ ณ วันที่ ๒๔ พฤษภาคม พ.ศ. ๒๕๕๐",
        "เป็นปีที่ ๖๒ ในรัชกาลปัจจุบัน"
      ]
    ],
    []
  ],
  "metadata": {
    "date_header": "2550-05-24",
    "date_modified": "2550-06-06",
    "date_original": "2550-06-06",
    "doctype": "พระราชกฤษฎีกา",
    "editors": [
      {
        "name": "วัชศักดิ์",
        "role": "ผู้จัดทำ",
        "date": "2550-06-13"
      },
      {
        "name": "วิภา",
        "role": "ปรับปรุง",
        "date": "2559-03-15"
      }
    ],
    "tag": "a156-2a-2550-a0001",
    "title": "เปลี่ยนแปลงสภาพสาธารณสมบัติของแผ่นดินสำหรับพลเมืองใช้ร่วมกันในเขตอุตสาหกรรมทั่วไป นิคมอุตสาหกรรมอมตะซิตี้ในท้องที่ตำบลมาบยางพร อำเภอปลวกแดง จังหวัดระยองให้เป็นกรรมสิทธิ์ของการนิคมอุตสาหกรรมแห่งประเทศไทย"
  }
}