{
  "pages": [
    [
      [
        "ประกาศคณะกรรมการการนิคมอุตสาหกรรมแห่งประเทศไทย",
        "เรื่อง การเปลี่ยนแปลงเขต เขตอุตสาหกรรมทั่วไป",
        "นิคมอุตสาหกรรมเหมราชตะวันออก (มาบตาพุด)",
        "(ฉบับที่ ๑๐)"
      ]
    ],
    []
  ],
  "metadata": {
    "date_backmatter": "2551-07-09",
    "date_modified": "2551-10-09",
    "date_original": "2551-10-09",
    "doctype": "ประกาศ",
    "editors": [
      {
        "name": "ปริยานุช",
        "role": "จัดทำ",
        "date": "2551-10-14"
      },
      {
        "name": "ศิรวัชร์",
        "role": "ปรับปรุง",
        "date": "2559-03-02"
      }
    ],
    "tag": "a156-2e-2551-a0014"
  }
}