{
  "pages": [
    [
      [
        "ประกาศคณะกรรมการการนิคมอุตสาหกรรมแห่งประเทศไทย",
        "เรื่อง การจัดตั้งเขตอุตสาหกรรมทั่วไป นิคมอุตสาหกรรมยามาโตะ อินดัสทรีส์ จังหวัดชลบุรี"
      ]
    ],
    []
  ],
  "metadata": {
    "date_backmatter": "2557-06-11",
    "date_modified": "2557-07-17",
    "date_original": "2557-07-17",
    "doctype": "ประกาศ",
    "editors": [
      {
        "name": "ปริยานุช",
        "role": "ผู้จัดทำ",
        "date": "2557-07-22"
      },
      {
        "name": "วันทิตา",
        "role": "ผู้ตรวจ",
        "date": "2557-08-03"
      }
    ],
    "tag": "a156-2e-2557-a0007"
  }
}