{
  "pages": [
    [
      [
        "ประกาศคณะกรรมการการนิคมอุตสาหกรรมแห่งประเทศไทย",
        "เรื่อง การเปลี่ยนแปลงเขต เขตประกอบการเสรี นิคมอุตสาหกรรมบ้านหว้า"
      ]
    ],
    []
  ],
  "metadata": {
    "date_backmatter": "2551-03-18",
    "date_modified": "2551-04-18",
    "date_original": "2551-04-18",
    "doctype": "ประกาศ",
    "editors": [
      {
        "name": "วัชศักดิ์",
        "role": "ผู้จัดทำ",
        "date": "2551-04-23"
      },
      {
        "name": "นุสรา",
        "role": "ปรับปรุง",
        "date": "2558-05-20"
      }
    ],
    "tag": "a156-2e-2551-a0008"
  }
}