{
  "pages": [
    [
      [
        "ประกาศกระทรวงอุตสาหกรรม",
        "เรื่อง การเปลี่ยนแปลงเขต เขตอุตสาหกรรมทั่วไป",
        "นิคมอุตสาหกรรมบ้านหว้า (ฉบับที่ ๖)"
      ]
    ],
    []
  ],
  "metadata": {
    "date_backmatter": "2547-10-21",
    "date_modified": "2547-11-09",
    "date_original": "2547-11-09",
    "doctype": "ประกาศ",
    "editors": [
      {
        "name": "พรพิมล",
        "role": "พิมพ์",
        "date": "2548-02-08"
      },
      {
        "name": "ศุภสรณ์/ธัญกมล",
        "role": "ตรวจ",
        "date": "2548-02-16"
      },
      {
        "name": "ปิยะธิดา",
        "role": "ปรับปรุง",
        "date": "2561-08-28"
      }
    ],
    "tag": "a156-2e-2547-a0011"
  }
}