{
  "pages": [
    [
      [
        "ประกาศคณะกรรมการการนิคมอุตสาหกรรมแห่งประเทศไทย",
        "เรื่อง การจัดตั้งเขตอุตสาหกรรมทั่วไป นิคมอุตสาหกรรม วี. อาร์. เอ็ม. ราชบุรี"
      ]
    ],
    []
  ],
  "metadata": {
    "date_backmatter": "2550-10-03",
    "date_modified": "2550-10-30",
    "date_original": "2550-10-30",
    "doctype": "ประกาศ",
    "editors": [
      {
        "name": "วัชศักดิ์",
        "role": "จัดทำ",
        "date": "2550-11-06"
      },
      {
        "name": "ศิรวัชร์",
        "role": "ปรับปรุง",
        "date": "2559-02-29"
      }
    ],
    "tag": "a156-2e-2550-a0018"
  }
}