{
  "pages": [
    [
      [
        "พระราชกฤษฎีกา",
        "จัดตั้งเขตอุตสาหกรรมส่งออกบ่อวิน",
        "พ.ศ. ๒๕๓๓",
        "",
        "",
        "ภูมิพลอดุลยเดช ป.ร.",
        "ให้ไว้ ณ วันที่ ๒๑ กันยายน พ.ศ. ๒๕๓๓",
        "เป็นปีที่ ๔๕ ในรัชกาลปัจจุบัน"
      ]
    ],
    []
  ],
  "metadata": {
    "date_header": "2533-09-21",
    "date_modified": "2559-11-02",
    "date_original": "2533-10-03",
    "doctype": "พระราชกฤษฎีกา",
    "editors": [
      {
        "name": "วริญา/ปริยานุช",
        "role": "พิมพ์",
        "date": "2559-11-21"
      },
      {
        "name": "วริญา",
        "role": "เพิ่มเติม",
        "date": "2559-11-21"
      },
      {
        "name": "ปัญญา",
        "role": "ตรวจ",
        "date": "2560-01-17"
      }
    ],
    "tag": "a156-2a-9997-update",
    "title": "จัดตั้งเขตอุตสาหกรรมส่งออกบ่อวิน"
  }
}