{
  "pages": [
    [
      [
        "พระราชกฤษฎีกา",
        "เปลี่ยนแปลงสภาพสาธารณสมบัติของแผ่นดินสำหรับพลเมืองใช้ร่วมกัน",
        "ในเขตอุตสาหกรรมทั่วไป นิคมอุตสาหกรรมการพิมพ์และบรรจุภัณฑ์ สินสาคร",
        "ในท้องที่ตำบลโคกขาม อำเภอเมืองสมุทรสาคร จังหวัดสมุทรสาคร",
        "ให้เป็นกรรมสิทธิ์ของการนิคมอุตสาหกรรมแห่งประเทศไทย",
        "พ.ศ. ๒๕๕๑",
        "",
        "",
        "ภูมิพลอดุลยเดช ป.ร.",
        "ให้ไว้ ณ วันที่ ๒๗ มิถุนายน พ.ศ. ๒๕๕๑",
        "เป็นปีที่ ๖๓ ในรัชกาลปัจจุบัน"
      ]
    ],
    []
  ],
  "metadata": {
    "date_header": "2551-06-27",
    "date_modified": "2551-07-25",
    "date_original": "2551-07-25",
    "doctype": "พระราชกฤษฎีกา",
    "editors": [
      {
        "name": "วัชศักดิ์",
        "role": "ผู้จัดทำ",
        "date": "2551-07-28"
      },
      {
        "name": "วิภา",
        "role": "ปรับปรุง",
        "date": "2559-03-15"
      }
    ],
    "tag": "a156-2a-2551-a0003",
    "title": "เปลี่ยนแปลงสภาพสาธารณสมบัติของแผ่นดินสำหรับพลเมืองใช้ร่วมกันในเขตอุตสาหกรรมทั่วไป นิคมอุตสาหกรรมการพิมพ์และบรรจุภัณฑ์ สินสาครในท้องที่ตำบลโคกขาม อำเภอเมืองสมุทรสาคร จังหวัดสมุทรสาครให้เป็นกรรมสิทธิ์ของการนิคมอุตสาหกรรมแห่งประเทศไทย"
  }
}