{
  "pages": [
    [
      [
        "ประกาศคณะกรรมการการนิคมอุตสาหกรรมแห่งประเทศไทย",
        "เรื่อง การเปลี่ยนแปลงเขต เขตอุตสาหกรรมทั่วไป",
        "นิคมอุตสาหกรรมอมตะนคร (ฉบับที่ ๑๕)"
      ]
    ],
    []
  ],
  "metadata": {
    "date_backmatter": "2548-04-28",
    "date_modified": "2548-06-16",
    "date_original": "2548-06-16",
    "doctype": "ประกาศ",
    "editors": [
      {
        "name": "พัชรินทร์",
        "role": "ผู้จัดทำ",
        "date": "2548-07-29"
      }
    ],
    "tag": "a156-2e-2548-a0009"
  }
}