{
  "pages": [
    [
      [
        "ประกาศกระทรวงอุตสาหกรรม",
        "เรื่อง การจัดตั้งเขตอุตสาหกรรมทั่วไป นิคมอุตสาหกรรมทีเอส ๒๑"
      ]
    ],
    []
  ],
  "metadata": {
    "date_backmatter": "2543-03-27",
    "date_modified": "2543-12-26",
    "date_original": "2543-04-24",
    "doctype": "ประกาศ",
    "editors": [
      {
        "name": "ชไมพร",
        "role": "พิมพ์",
        "date": "2544-12-14"
      }
    ],
    "tag": "a156-2e-2543-a008"
  }
}