{
  "pages": [
    [
      [
        "ประกาศกระทรวงอุตสาหกรรม",
        "เรื่อง การเปลี่ยนแปลงเขต เขตอุตสาหกรรมทั่วไป",
        "นิคมอุตสาหกรรมแปลงยาว (เกตเวย์ซิตี้)"
      ]
    ],
    []
  ],
  "metadata": {
    "date_backmatter": "2538-05-30",
    "date_modified": "2538-06-09",
    "date_original": "2538-06-09",
    "doctype": "ประกาศ",
    "editors": [
      {
        "name": "ปิยะธิดา",
        "role": "ปรับปรุง",
        "date": "2561-08-20"
      }
    ],
    "tag": "a156-2e-2538-039"
  }
}