{
  "pages": [
    [
      [
        "ข้อบังคับคณะกรรมการการนิคมอุตสาหกรรมแห่งประเทศไทย",
        "ว่าด้วยการขอจัดตั้งโครงการนิคมอุตสาหกรรมร่วมดำเนินงาน",
        "พ.ศ. ๒๕๖๑"
      ]
    ],
    []
  ],
  "metadata": {
    "date_backmatter": "2561-06-25",
    "date_modified": "2561-08-02",
    "date_original": "2561-08-02",
    "editors": [
      {
        "name": "พิมพ์มาดา",
        "role": "จัดทำ",
        "date": "2561-10-19"
      }
    ],
    "tag": "a156-2i-2561-a0001"
  }
}