{
  "pages": [
    [
      [
        "พระราชกฤษฎีกา",
        "จัดตั้งเขตอุตสาหกรรมส่งออกภาคเหนือ",
        "พ.ศ. ๒๕๓๑",
        "",
        "",
        "ภูมิพลอดุลยเดช ป.ร.",
        "ให้ไว้ ณ วันที่ ๑๔ กุมภาพันธ์ พ.ศ. ๒๕๓๑",
        "เป็นปีที่ ๔๓ ในรัชกาลปัจจุบัน"
      ]
    ],
    []
  ],
  "metadata": {
    "date_header": "2531-02-14",
    "date_modified": "2531-03-01",
    "date_original": "2531-03-01",
    "doctype": "พระราชกฤษฎีกา",
    "editors": [],
    "tag": "a156-2a-2531-000",
    "title": "จัดตั้งเขตอุตสาหกรรมส่งออกภาคเหนือ"
  }
}