{
  "pages": [
    [
      [
        "ประกาศการนิคมอุตสาหกรรมแห่งประเทศไทย",
        "ที่ ๔๖/๒๕๔๑",
        "เรื่อง การกำหนดอัตราการปล่อยมลสารทางอากาศจากปล่อง",
        "ของโรงงานในนิคมอุตสาหกรรม"
      ]
    ],
    []
  ],
  "metadata": {
    "date_backmatter": "2541-11-11",
    "date_modified": "2542-02-10",
    "date_original": "2542-02-10",
    "doctype": "ประกาศ",
    "editors": [
      {
        "name": "วิภา",
        "role": "ปรับปรุง",
        "date": "2559-03-22"
      }
    ],
    "tag": "a156-2e-2542-a002"
  }
}