{
  "pages": [
    [
      [
        "ประกาศคณะกรรมการการนิคมอุตสาหกรรมแห่งประเทศไทย",
        "เรื่อง การเปลี่ยนแปลงเขต เขตอุตสาหกรรมทั่วไป",
        "นิคมอุตสาหกรรมอาร์ ไอ แอล (ฉบับที่ ๓)"
      ]
    ],
    []
  ],
  "metadata": {
    "date_backmatter": "2550-06-20",
    "date_modified": "2550-07-25",
    "date_original": "2550-07-25",
    "doctype": "ประกาศ",
    "editors": [
      {
        "name": "วัชศักดิ์",
        "role": "จัดทำ",
        "date": "2550-08-06"
      },
      {
        "name": "ศิรวัชร์",
        "role": "ปรับปรุง",
        "date": "2559-02-29"
      }
    ],
    "tag": "a156-2e-2550-a0009"
  }
}