{
  "pages": [
    [
      [
        "ข้อบังคับการนิคมอุตสาหกรรมแห่งประเทศไทย",
        "ฉบับที่ ๑๐๐",
        "ว่าด้วยความรับผิดทางละเมิดของพนักงาน พ.ศ. ๒๕๔๑"
      ]
    ],
    []
  ],
  "metadata": {
    "date_backmatter": "2541-08-24",
    "date_modified": "2541-09-22",
    "date_original": "2541-09-22",
    "editors": [
      {
        "name": "ธิดาวรรณ",
        "role": "แก้ไข",
        "date": "2545-07-31"
      },
      {
        "name": "ศิรวัชร์",
        "role": "ปรับปรุง",
        "date": "2559-03-07"
      }
    ],
    "tag": "a156-2i-2541-a0001"
  }
}