{
  "pages": [
    [
      [
        "ข้อบังคับคณะกรรมการการนิคมอุตสาหกรรมแห่งประเทศไทย",
        "ว่าด้วยการขอผนวกพื้นที่เข้าเป็นส่วนหนึ่งของนิคมอุตสาหกรรม",
        "พ.ศ. ๒๕๕๕"
      ]
    ],
    []
  ],
  "metadata": {
    "date_backmatter": "2555-03-09",
    "date_modified": "2555-04-05",
    "date_original": "2555-04-05",
    "editors": [
      {
        "name": "ปริยานุช",
        "role": "ผู้จัดทำ",
        "date": "2555-04-11"
      },
      {
        "name": "ปณตภร",
        "role": "ผู้ตรวจ",
        "date": "2555-04-19"
      }
    ],
    "tag": "a156-2i-2555-a0001"
  }
}