{
  "pages": [
    [
      [
        "ประกาศคณะกรรมการการนิคมอุตสาหกรรมแห่งประเทศไทย",
        "เรื่อง การจัดตั้งเขตอุตสาหกรรมทั่วไป นิคมอุตสาหกรรมบ้านบึง"
      ]
    ],
    []
  ],
  "metadata": {
    "date_backmatter": "2555-08-28",
    "date_modified": "2555-11-12",
    "date_original": "2555-11-12",
    "doctype": "ประกาศ",
    "editors": [
      {
        "name": "ปริยานุช",
        "role": "ผู้จัดทำ",
        "date": "2555-11-15"
      },
      {
        "name": "ชาญ",
        "role": "ผู้ตรวจ",
        "date": "2555-11-23"
      }
    ],
    "tag": "a156-2e-2555-a0006"
  }
}