{
  "pages": [
    [
      [
        "พระราชบัญญัติ",
        "ภาษีเงินได้ปิโตรเลียม",
        "พ.ศ. ๒๕๑๔",
        "",
        "",
        "ภูมิพลอดุลยเดช ป.ร.",
        "ให้ไว้ ณ วันที่ ๒๖ มีนาคม พ.ศ. ๒๕๑๔",
        "เป็นปีที่ ๒๖ ในรัชกาลปัจจุบัน"
      ]
    ],
    []
  ],
  "metadata": {
    "date_header": "2514-03-26",
    "date_modified": "2560-06-22",
    "date_original": "2514-04-23",
    "doctype": "พระราชบัญญัติ",
    "editors": [
      {
        "name": "ชวัลพร",
        "role": "ปรับปรุง",
        "date": "2560-02-15"
      },
      {
        "name": "นุสรา",
        "role": "ตรวจ",
        "date": "2560-02-16"
      },
      {
        "name": "ชวัลพร",
        "role": "เพิ่มเติม",
        "date": "2560-06-29"
      }
    ],
    "tag": "c002-20-2560-a0004",
    "title": "ภาษีเงินได้ปิโตรเลียม"
  }
}