{
  "pages": [
    [
      [
        "พระราชกฤษฎีกา",
        "กำหนดอัตราภาษีเงินได้ปิโตรเลียม (ฉบับที่ ๒)",
        "พ.ศ. ๒๕๒๒",
        "-------------",
        "",
        "ภูมิพลอดุลยเดช ป.ร.",
        "ให้ไว้ ณ วันที่ ๓๐ ธันวาคม พ.ศ. ๒๕๒๒",
        "เป็นปีที่ ๓๔ ในรัชกาลปัจจุบัน"
      ]
    ],
    []
  ],
  "metadata": {
    "date_header": "2522-12-30",
    "editors": [],
    "tag": "c002-2a-2522-003"
  }
}