{
  "pages": [
    [
      [
        "ประกาศกระทรวงมหาดไทย",
        "เรื่อง แต่งตั้งพนักงานเจ้าหน้าที่ปฏิบัติการตามพระราชบัญญัติ",
        "หอพัก พ.ศ. ๒๕๐๗ ในเขตจังหวัดนนทบุรี"
      ]
    ],
    []
  ],
  "metadata": {
    "date_backmatter": "2521-06-05",
    "date_modified": "2521-06-20",
    "date_original": "2521-06-20",
    "doctype": "ประกาศ",
    "editors": [
      {
        "name": "ดวงเพ็ญ",
        "role": "พิมพ์",
        "date": "2555-05-16"
      },
      {
        "name": "อุษมล",
        "role": "ผู้จัดทำ",
        "date": "2555-05-17"
      }
    ],
    "tag": "cb03-2e-2521-a0006"
  }
}