{
  "pages": [
    [
      [
        "ประกาศกระทรวงมหาดไทย",
        "เรื่อง แต่งตั้งพนักงานเจ้าหน้าที่ปฏิบัติการตามพระราชบัญญัติหอพัก",
        "พ.ศ. ๒๕๐๗",
        "ในเขตจังหวัดชุมพร"
      ]
    ],
    []
  ],
  "metadata": {
    "date_backmatter": "2524-01-05",
    "date_modified": "2524-01-27",
    "date_original": "2524-01-27",
    "doctype": "ประกาศ",
    "editors": [
      {
        "name": "อุษมล",
        "role": "ผู้จัดทำ",
        "date": "2555-05-15"
      }
    ],
    "tag": "cb03-2e-2524-a0001"
  }
}