{
  "pages": [
    [
      [
        "พระราชกฤษฎีกา",
        "ให้ใช้พระราชบัญญัติหอพัก พ.ศ. ๒๕๐๗",
        "บังคับในท้องที่บางจังหวัด (ฉบับที่ ๓)",
        "พ.ศ. ๒๕๒๓",
        "",
        "",
        "ภูมิพลอดุลยเดช ป.ร.",
        "ให้ไว้ ณ วันที่ ๑๖ กรกฎาคม พ.ศ. ๒๕๒๓",
        "เป็นปีที่ ๓๕ ในรัชกาลปัจจุบัน"
      ]
    ],
    []
  ],
  "metadata": {
    "date_header": "2523-07-16",
    "date_modified": "2523-07-25",
    "date_original": "2523-07-25",
    "doctype": "พระราชกฤษฎีกา",
    "editors": [
      {
        "name": "อุษมล",
        "role": "ผู้จัดทำ",
        "date": "2555-05-17"
      },
      {
        "name": "วิชพงษ์",
        "role": "ผู้ตรวจ",
        "date": "2555-05-21"
      }
    ],
    "tag": "cb03-2a-2523-a0001",
    "title": "ให้ใช้พระราชบัญญัติหอพัก พ.ศ. ๒๕๐๗บังคับในท้องที่บางจังหวัด (ฉบับที่ ๓)"
  }
}