{
  "pages": [
    [
      [
        "คำสั่งกระทรวงมหาดไทย",
        "ที่ ๑๐๘/๒๕๓๕",
        "เรื่อง จำกัดการออกใบอนุญาตให้บุคคลสั่ง หรือนำเข้าซึ่งอาวุธปืนบางชนิด"
      ]
    ],
    []
  ],
  "metadata": {
    "date_backmatter": "2535-02-10",
    "date_modified": "2551-06-10",
    "date_original": "2551-06-10",
    "editors": [
      {
        "name": "คณิตา",
        "role": "ผู้จัดทำ",
        "date": "2553-11-01"
      },
      {
        "name": "พัสสน",
        "role": "ผู้ตรวจ",
        "date": "2554-02-02"
      }
    ],
    "tag": "cd09-2f-2551-a0002"
  }
}