{
  "pages": [
    [
      [
        "พระราชบัญญัติ",
        "อาวุธปืน เครื่องกระสุนปืน วัตถุระเบิด",
        "ดอกไม้เพลิงและสิ่งเทียมอาวุธปืน (ฉบับที่ ๕)",
        "พ.ศ. ๒๕๑๗",
        "",
        "",
        "ภูมิพลอดุลยเดช ป.ร.",
        "ให้ไว้ ณ วันที่ ๑๙ มิถุนายน พ.ศ. ๒๕๑๗",
        "เป็นปีที่ ๒๙ ในรัชกาลปัจจุบัน"
      ]
    ],
    []
  ],
  "metadata": {
    "date_header": "2517-06-19",
    "date_modified": "2517-06-26",
    "date_original": "2517-06-26",
    "doctype": "พระราชบัญญัติ",
    "editors": [
      {
        "name": "วสุ",
        "role": "ปรับปรุง",
        "date": "2552-03-17"
      },
      {
        "name": "พิมลกร",
        "role": "ปรับปรุง",
        "date": "2556-11-14"
      }
    ],
    "tag": "cd09-20-2517-005",
    "title": "อาวุธปืน เครื่องกระสุนปืน วัตถุระเบิดดอกไม้เพลิงและสิ่งเทียมอาวุธปืน (ฉบับที่ ๕)"
  }
}