{
  "pages": [
    [
      [
        "พระราชบัญญัติ",
        "อาวุธปืน เครื่องกระสุนปืน วัตถุระเบิด",
        "ดอกไม้เพลิง และสิ่งเทียมอาวุธปืน",
        "พ.ศ. ๒๔๙๐",
        "",
        "",
        "ในพระปรมาภิไธยสมเด็จพระเจ้าอยู่หัวภูมิพลอดุลยเดช",
        "คณะผู้สำเร็จราชการแทนพระองค์",
        "รังสิต กรมขุนชัยนาทนเรนทร",
        "พระยามานวราชเสวี",
        "ให้ไว้ ณ วันที่ ๓ กันยายน พ.ศ. ๒๔๙๐",
        "เป็นปีที่ ๒ ในรัชกาลปัจจุบัน"
      ]
    ],
    []
  ],
  "metadata": {
    "date_header": "2490-09-03",
    "date_modified": "2530-07-24",
    "date_original": "2490-09-09",
    "doctype": "พระราชบัญญัติ",
    "editors": [
      {
        "name": "วสุ สรรกำเนิด",
        "role": "ผู้ปรับปรุง",
        "date": "2552-03-20"
      }
    ],
    "tag": "cd09-20-2530-a008u",
    "title": "อาวุธปืน เครื่องกระสุนปืน วัตถุระเบิดดอกไม้เพลิง และสิ่งเทียมอาวุธปืน"
  }
}