{
  "pages": [
    [
      [
        "พระราชบัญญัติ",
        "อาวุธปืน เครื่องกระสุนปืน วัตถุระเบิด ดอกไม้เพลิง",
        "และสิ่งเทียมอาวุธปืน (ฉบับที่ ๗)",
        "พ.ศ. ๒๕๒๒",
        "",
        "",
        "ภูมิพลอดุลยเดช ป.ร.",
        "ให้ไว้ ณ วันที่ ๒๔ กุมภาพันธ์ พ.ศ. ๒๕๒๒",
        "เป็นปีที่ ๓๔ ในรัชกาลปัจจุบัน"
      ]
    ],
    []
  ],
  "metadata": {
    "date_backmatter": "2519-10-21",
    "date_header": "2522-02-24",
    "date_modified": "2522-03-01",
    "date_original": "2522-03-01",
    "doctype": "พระราชบัญญัติ",
    "editors": [
      {
        "name": "วสุ",
        "role": "ปรับปรุง",
        "date": "2552-03-20"
      },
      {
        "name": "พิมลกร",
        "role": "ปรับปรุง",
        "date": "2556-11-14"
      }
    ],
    "tag": "cd09-20-2522-007",
    "title": "อาวุธปืน เครื่องกระสุนปืน วัตถุระเบิด ดอกไม้เพลิงและสิ่งเทียมอาวุธปืน (ฉบับที่ ๗)"
  }
}