{
  "pages": [
    [
      [
        "กฎกระทรวง",
        "(พ.ศ. ๒๔๙๐)",
        "ออกตามความในพระราชบัญญัติอาวุธปืน เครื่องกระสุนปืน",
        "วัตถุระเบิด ดอกไม้เพลิง และสิ่งเทียมอาวุธปืน พ.ศ. ๒๔๙๐"
      ]
    ],
    []
  ],
  "metadata": {
    "date_backmatter": "2490-09-19",
    "date_modified": "2490-12-30",
    "date_original": "2490-09-19",
    "doctype": "กฎกระทรวง",
    "editors": [
      {
        "name": "คณิตา",
        "role": "ผู้จัดทำ",
        "date": "2553-11-03"
      },
      {
        "name": "พัสสน",
        "role": "ผู้ตรวจ",
        "date": "2554-02-08"
      }
    ],
    "tag": "cd09-2b-2490-a0002"
  }
}