{
  "pages": [
    [
      [
        "กฎกระทรวง",
        "ฉบับที่ ๕ (พ.ศ. ๒๔๙๖)",
        "ออกตามความในพระราชบัญญัติอาวุธปืน เครื่องกระสุนปืน",
        "วัตถุระเบิด ดอกไม้เพลิง และสิ่งเทียมอาวุธปืน พ.ศ. ๒๔๙๐"
      ]
    ],
    []
  ],
  "metadata": {
    "date_backmatter": "2496-06-19",
    "date_modified": "2496-07-14",
    "date_original": "2496-07-14",
    "doctype": "กฎกระทรวง",
    "editors": [
      {
        "name": "คณิตา",
        "role": "ผู้จัดทำ",
        "date": "2553-10-29"
      },
      {
        "name": "พัสสน",
        "role": "ผู้ตรวจ",
        "date": "2554-01-31"
      }
    ],
    "tag": "cd09-2b-2496-005"
  }
}