{
  "pages": [
    [
      [
        "กฎกระทรวง",
        "การมีและใช้อาวุธปืน เครื่องกระสุนปืน วัตถุระเบิด ดอกไม้เพลิง และสิ่งเทียมอาวุธปืน",
        "ของหน่วยราชการและรัฐวิสาหกิจ และการมอบให้ประชาชนมีและใช้เพื่อช่วยเหลือราชการ",
        "พ.ศ. ๒๕๕๓"
      ]
    ],
    []
  ],
  "metadata": {
    "date_backmatter": "2553-01-20",
    "date_modified": "2553-03-12",
    "date_original": "2553-03-12",
    "doctype": "กฎกระทรวง",
    "editors": [
      {
        "name": "คณิตา",
        "role": "ผู้จัดทำ",
        "date": "2553-10-28"
      },
      {
        "name": "พัสสน",
        "role": "ผู้ตรวจ",
        "date": "2554-02-07"
      }
    ],
    "tag": "cd09-2b-2553-a0001"
  }
}