{
  "pages": [
    [
      [
        "คำสั่งกระทรวงมหาดไทย",
        "ที่ ๒๗๐/๒๕๑๓",
        "เรื่อง แก้ไขเพิ่มเติมคำสั่งที่ ๖๗๔/๒๔๙๐ และหนังสือกระทรวงมหาดไทย",
        "ที่ ๑๕๘๔๕/๒๕๐๐"
      ]
    ],
    []
  ],
  "metadata": {
    "date_backmatter": "2513-05-26",
    "editors": [
      {
        "name": "ดลธี",
        "role": "พิมพ์",
        "date": "2553-12-15"
      },
      {
        "name": "คณิตา",
        "role": "ผู้จัดทำ",
        "date": "2553-12-15"
      }
    ],
    "tag": "cd09-2f-2513-a0001"
  }
}