{
  "pages": [
    [
      [
        "กฎกระทรวง",
        "ฉบับที่ 19 (พ.ศ.2535)",
        "ออกตามความในพระราชบัญญัติควบคุมโภคภัณฑ์",
        "พ.ศ. 2495"
      ]
    ],
    []
  ],
  "metadata": {
    "date_backmatter": "2535-03-08",
    "doctype": "กฎกระทรวง",
    "editors": [],
    "tag": "a424-2b-2535-019"
  }
}