{
  "pages": [
    [
      [
        "กฎกระทรวง",
        "ฉบับที่ 16 ( พ.ศ. 2525 )",
        "ออกตามความในพระราชบัญญัติควบคุมโภคภัณฑ์",
        "พ.ศ. 2495"
      ]
    ],
    []
  ],
  "metadata": {
    "date_backmatter": "2525-12-20",
    "doctype": "กฎกระทรวง",
    "editors": [],
    "tag": "a424-2b-2525-016"
  }
}