{
  "pages": [
    [
      [
        "พระราชกฤษฎีกา",
        "ควบคุมโภคภัณฑ์ (ฉบับที่ ๓)",
        "พ.ศ. ๒๔๙๗",
        "-----------------",
        "",
        "ภูมิพลอดุลยเดช ป.ร.",
        "ให้ไว้ ณ วันที่ ๑๖ สิงหาคม พ.ศ. ๒๔๙๗",
        "เป็นปีที่ ๙ ในรัชกาลปัจจุบัน"
      ]
    ],
    []
  ],
  "metadata": {
    "date_gz_old": "2497-08-31",
    "date_header": "2497-08-16",
    "editors": [],
    "tag": "a424-2a-2497-031"
  }
}