{
  "pages": [
    [
      [
        "กฎกระทรวง",
        "ฉบับที่ 10 (พ.ศ. 2510)",
        "ออกตามความในพระราชบัญญัติควบคุมโภคภัณฑ์",
        "พ.ศ. 2495"
      ]
    ],
    []
  ],
  "metadata": {
    "date_backmatter": "2510-01-25",
    "doctype": "กฎกระทรวง",
    "editors": [],
    "tag": "a424-2b-2510-010"
  }
}