{
  "pages": [
    [
      [
        "ประกาศของคณะปฏิวัติ",
        "ฉบับที่ 53"
      ]
    ],
    []
  ],
  "metadata": {
    "date_backmatter": "2502-01-17",
    "doctype": "ประกาศ",
    "editors": [],
    "tag": "a424-2l-2502-a0001"
  }
}