{
  "pages": [
    [
      [
        "พระราชบัญญัติ",
        "ควบคุมโภคภัณฑ์",
        "พ.ศ. ๒๔๙๕",
        "",
        "",
        "ภูมิพลอดุลยเดช ป.ร.",
        "ให้ไว้ ณ วันที่ ๒๓ กุมภาพันธ์ พ.ศ. ๒๔๙๕",
        "เป็นปีที่ ๗ ในรัชกาลปัจจุบัน"
      ]
    ],
    []
  ],
  "metadata": {
    "date_header": "2495-02-23",
    "date_modified": "2495-02-26",
    "date_original": "2495-02-26",
    "doctype": "พระราชบัญญัติ",
    "editors": [],
    "tag": "a424-20-2495-001",
    "title": "ควบคุมโภคภัณฑ์"
  }
}