{
  "pages": [
    [
      [
        "พระราชกฤษฎีกา",
        "ยกเลิกพระราชกฤษฎีกาควบคุมโภคภัณฑ์ (ฉบับที่ ๙) พ.ศ. ๒๕๒๘",
        "พ.ศ. ๒๕๓๔",
        "------------------",
        "",
        "ภูมิพลอดุลยเดช ป.ร.",
        "ให้ไว้ ณ วันที่ ๒๙ ธันวาคม พ.ศ. ๒๕๓๔",
        "เป็นปีที่ ๔๖ ในรัชกาลปัจจุบัน"
      ]
    ],
    []
  ],
  "metadata": {
    "date_gz_old": "2534-12-31",
    "date_header": "2534-12-29",
    "editors": [],
    "tag": "a424-2a-2534-009"
  }
}