{
  "pages": [
    [
      [
        "กฎกระทรวงมหาดไทย",
        "ออกตามความในพระราชบัญญัติสัตว์พาหนะ",
        "พุทธศักราช ๒๔๘๒"
      ]
    ],
    []
  ],
  "metadata": {
    "date_backmatter": "2482-01-06",
    "date_gz_old": "2482-01-06",
    "doctype": "กฎกระทรวง",
    "editors": [],
    "tag": "ca26-2b-2482-001"
  }
}