{
  "pages": [
    [
      [
        "กฎกระทรวง",
        "กำหนดหลักเกณฑ์ วิธีการและเงื่อนไข และอัตราค่าใช้จ่าย",
        "ในการปรับปรุงดินหรือที่ดิน หรือการอนุรักษ์ดินและน้ำเป็นการเฉพาะราย",
        "พ.ศ. ๒๕๕๕"
      ]
    ],
    []
  ],
  "metadata": {
    "date_backmatter": "2555-01-13",
    "date_modified": "2555-02-15",
    "date_original": "2555-02-15",
    "doctype": "กฎกระทรวง",
    "editors": [
      {
        "name": "ปริยานุช",
        "role": "ผู้จัดทำ",
        "date": "2555-02-16"
      },
      {
        "name": "ชาญ",
        "role": "ผู้ตรวจ",
        "date": "2555-02-21"
      }
    ],
    "tag": "be12-2b-2555-a0004"
  }
}