{
  "pages": [
    [
      [
        "ประมวลกฎหมายอาญาทหาร",
        "________",
        "",
        "ศุภมัสดุ พระพุทธศาสนกาล เป็นอดีตภาคล่วงแล้ว ๒๔๕๔ พรรษา",
        "ปัตยุบันกาล จันทรคตินิยม ศุกรสังวัจฉร มาฆมาศ กัณหะปักษ์ ฉดิถีชีวะวาร สุริยคติกาล",
        "รัตนโกสินทรศก ๑๓๐ กุมภาพันธ์มาส อัฐมาศาหคุณพิเศษ บริเฉทกาลกำหนด",
        "",
        "พระบาทสมเด็จพระปรเมนทรมหาวชิราวุธ เอกอรรคมหาบุรุษบรมนราธิราช",
        "พินิตประชานารถมหาสมมตวงษ์ อติศัยพงษวิมลรัตน์ วรขัตติยราชนิกโรดม จาตุรันตบรม",
        "มหาจักรพรรดิราชสังกาศ อุภโตสุชาตสัง สุทธเคราะหณี จักรีบรมนารถ จุฬาลงกรณราช",
        "วรางกูร บรมมกุฎนเรนทร์สูร สันตติวงษวิสิฐ สุสาธิตบุรพาธิการ อดุลยกฤษฎาภินิหารอติเรก",
        "บุญฤทธิ ธัญลักษณวิจิตรโสภาคยสรรพางค์ มหาชโนตตะมางคประนตบาทบงกชยุคล",
        "ประสิทธิสรรพศุภผลอุดมบรมสุขุมาลย์ ทิพยเทพาวตารไพศาลเกียรติคุณอดุลยพิเศษ",
        "สรรพเทเวศรานุรักษ์ บุริมศักดิ์สมญาเทพทวาราวดี ศรีมหาบุรุษสุตสมบัติ เสนางคนิกรรัตน",
        "อัศวโกศล ประพนธปรีชามัทวสมาจาร บริบูรณคุณสารสยามาทินครวรุตเมกราชดิลก มหา",
        "ปริวารนายกอนันต มหันตวรฤทธิเดช สรรพวิเศษศิรินธร บรมชนกาดิศรสมมต ประสิทธิ",
        "วรยศมโหดมบรมราชสมบัติ นพปฎลเสวตฉัตราดิฉัตร ศิริรัตโนปลักษณมหาบรมราชาภิเศกา",
        "ภิสิต สรรพทศทิศวิชิตไชย สกลมไหสวริยมหาสวามินทร์ มเหศวรมหินทรมหารามาธิราชวโรดม",
        "บรมนารถชาติอาชาวไศรย พุทธาทิไตรรัตนสรณารักษ์ อดุลยศักดิ์อรรคนเรศรามาธิบดี",
        "เมตตากรุณาสีตลหฤไทย อโนบไมยบุญการ สกลไพศาลมหารัษฎาธิเบนทร์ ปรเมนทร",
        "ธรรมิกมหาราชาธิราช บรมนารถบพิตรพระมงกุฎเกล้าเจ้าอยู่หัว",
        "",
        "ทรงพระราชดำริว่า พระธรรมนูญศาลทหารบกและพระธรรมนูญศาล",
        "ทหารเรือ ซึ่งโปรดเกล้า ฯ ให้ตราเป็นพระราชบัญญัติขึ้นไว้เมื่อรัตนโกสินทรศก ๑๒๖",
        "และ ๑๒๗ นั้น เป็นแต่พระราชกำหนดสำหรับจัดการและกำหนดหน้าที่ และอำนาจศาล",
        "ทหารบกและศาลทหารเรือ และประมวลกฎหมายอาญา ซึ่งโปรดเกล้า ฯ ให้ตราเป็น",
        "พระราชบัญญัติขึ้นไว้เมื่อรัตนโกสินทรศก ๑๒๗ นั้น ก็บัญญัติแต่เฉพาะลักษณะโทษ",
        "แห่งความผิดล่วงละเมิดต่อพระราชกำหนดกฎหมายสามัญ",
        "",
        "บัดนี้สมควรจะมีพระราชบัญญัติ กำหนดลักษณะโทษแห่งความผิดต่าง ๆ",
        "อันเป็นฐานล่วงละเมิดต่อกฎหมาย และหน้าที่ฝ่ายทหารขึ้นไว้เป็นหลักฐาน แต่ทรง",
        "พระราชปรารภว่า การกระทำผิดต่อกฎหมายและหน้าที่ฝ่ายทหารนั้น แม้เป็นการ",
        "ซึ่งเกิดจากความประพฤติของบุคคลที่เป็นทหารเสียเป็นพื้นก็จริง แต่มีบางอย่างที่อาจเกิดขึ้น",
        "จากความประพฤติของบุคคลสามัญก็ได้ ในพระราชบัญญัติเช่นนี้ควรมีบทกฎหมายบางอย่าง",
        "ให้ใช้ได้ตลอดทั้งบุคคลที่เป็นทหารและบุคคลสามัญและใช่แต่เท่านั้น บุคคลซึ่งเป็นทหารย่อม",
        "ตั้งอยู่ในใต้วินัยทหารฝ่ายทหาร",
        "",
        "เมื่อกระทำผิดขึ้นต่อพระราชกำหนดกฎหมายอย่างคนสามัญ ความผิดนั้น",
        "ย่อมมีลักษณะการละเว้น ความควรประพฤติในฝ่ายทหารเจือไปด้วย สมควรมีโทษหนัก",
        "ยิ่งกว่าผู้กระทำผิดเช่นเดียวกันซึ่งเป็นคนสามัญ",
        "",
        "เพราะฉะนั้นจึงทรงพระกรุณาโปรดเกล้า ฯ ให้ตราไว้เป็นพระราชบัญญัติ",
        "สืบไปดังนี้"
      ]
    ],
    []
  ],
  "metadata": {
    "editors": [],
    "tag": "bb07-20-2470-001u"
  }
}