{
  "pages": [
    [
      [
        "พระราชบัญญัติ",
        "แก้ไขเพิ่มเติมประมวลกฎหมายอาชญาทหาร",
        "พุทธศักราช ๒๔๗๖",
        "________",
        "",
        "ประชาธิปก ป.ร.",
        "",
        "พระบาทสมเด็จพระปรมินทรมหาประชาธิปก พระปกเกล้าเจ้าอยู่หัว",
        "มีพระบรมราชโองการดำรัสเหนือเกล้า ฯ สั่งว่า",
        "",
        "โดยที่สภาผู้แทนราษฎรถวายคำปรึกษาว่า สมควรยกเลิกประมวลกฎหมาย",
        "อาชญาทหารมาตรา ๕๐ ซึ่งเป็นบทที่ให้เพิ่มโทษทหารรับอาชญาหนักกว่าบุคคลสามัญ",
        "กึ่งหนึ่ง และแก้ไขมาตรา ๕๑ อันเป็นบทเพิ่มโทษทวีคูณสำหรับผู้ทำผิดในเวลาทำหน้าที่",
        "ซึ่งมีสาตราวุธของหลวงประจำตัวให้เบาบางลงกว่าเดิม",
        "",
        "จึงทรงพระกรุณาโปรดเกล้า ฯ ให้ตราพระราชบัญญัติขึ้นไว้โดยคำแนะนำ",
        "และยินยอมของสภาผู้แทนราษฎร ดังต่อไปนี้",
        "",
        "มาตรา ๑ พระราชบัญญัตินี้ให้เรียกว่า “พระราชบัญญัติแก้ไขเพิ่มเติม",
        "ประมวลกฎหมายอาชญาทหาร พุทธศักราช ๒๔๗๖”",
        "",
        "มาตรา ๒* ให้ใช้พระราชบัญญัตินี้ตั้งแต่วันประกาศในราชกิจจานุเบกษา",
        "เป็นต้นไป",
        "*[รก. ๒๔๗๖/-/๕๓๖/๑๐ กันยายน ๒๔๗๖]",
        "",
        "มาตรา ๓ ให้ยกเลิกความในมาตรา ๕๐ และ ๕๑ แห่งประมวลกฎหมาย",
        "อาชญาทหาร รัตนโกสินทรศก ๑๓๐ และให้ใช้ความต่อไปนี้แทนเป็นมาตรา ๕๐",
        "“มาตรา ๕๐ ผู้ใดเป็นทหาร ถ้ามันกระทำผิดในเวลาที่ท่านใช้ให้เป็นยาม",
        "รักษาการ หรืออยู่ยามประจำที่ หรือให้กระทำการอย่างใด ๆ ที่มีศาสตราวุธของหลวงประจำตัว",
        "โดยความผิดที่ท่านบัญญัติไว้ในมาตราต่าง ๆ แห่งกฎหมายลักษณะอาญาดังจะกล่าวต่อไปนี้",
        "คือ",
        "มาตรา ๙๘ ถึงมาตรา ๑๐๐ ความผิดในฐานประทุษร้ายต่อพระบรมราชตระกูล",
        "มาตรา ๑๐๒ ถึงมาตรา ๑๐๔ ความผิดฐานกบฏภายในพระราชอาณาจักร",
        "มาตรา ๑๐๕ ถึงมาตรา ๑๐๘ ความผิดฐานกบฏภายนอกพระราชอาณาจักร",
        "มาตรา ๑๑๒ ถึงมาตรา ๑๑๕ ความผิดต่อทางพระราชไมตรีกับต่างประเทศ",
        "มาตรา ๑๑๖ ถึงมาตรา ๑๒๘ ความผิดต่อเจ้าพนักงาน",
        "มาตรา ๑๕๑ ความผิดฐานกระทำให้เสื่อมเสียอำนาจศาล",
        "มาตรา ๑๕๔ ความผิดฐานช่วยผู้อื่นให้พ้นอาชญาอันควรรับโทษตามกฎหมาย",
        "มาตรา ๑๖๕ ถึงมาตรา ๑๖๙ ความผิดฐานหลบหนีจากที่คุมขัง",
        "มาตรา ๑๗๗ ถึงมาตรา ๑๘๒ ความผิดฐานสมคบกันเป็นอั้งยี่และเป็น",
        "ซ่องโจรผู้ร้าย",
        "มาตรา ๑๘๓ และมาตรา ๑๘๔ ความผิดฐานก่อการจลาจล",
        "มาตรา ๑๘๕ และมาตรา ๒๐๑ ความผิดฐานกระทำให้เกิดภยันตรายแก่",
        "สาธารณชนฐานกระทำให้สาธารณชนปราศจากความสะดวกในการไปมาและการส่งข่าวและ",
        "ของถึงกัน และฐานกระทำให้สาธารณชนปราศจากความสุขสบาย",
        "มาตรา ๒๕๓ ความผิดฐานเกี่ยวข้องในที่วิวาทต่อสู้กันซึ่งมีผู้ถึงแก่ความตาย",
        "มาตรา ๒๕๔ ถึงมาตรา ๒๕๙ ความผิดฐานประทุษร้ายแก่ร่างกาย",
        "มาตรา ๒๖๘ ถึงมาตรา ๒๗๗ ความผิดฐานกระทำให้เสื่อมเสียอิสรภาพ",
        "มาตรา ๒๘๘ ถึงมาตรา ๒๙๖ ความผิดฐานลักทรัพย์",
        "มาตรา ๒๙๗ ถึงมาตรา ๓๐๒ ความผิดฐานวิ่งราว ฐานชิงทรัพย์ ฐานปล้น",
        "ทรัพย์ และฐานสลัด",
        "มาตรา ๓๐๓ ความผิดฐานกรรโชก",
        "มาตรา ๓๒๗ ถึงมาตรา ๓๓๐ ความผิดฐานบุกรุก",
        "ท่านว่ามันผู้กระทำผิดต้องระวางโทษตามที่ท่านบัญญัติไว้สำหรับความผิด",
        "เช่นนั้น และให้เพิ่มโทษขึ้นอีกกึ่งหนึ่ง”",
        "",
        "ประกาศมา ณ วันที่ ๒ กันยายน พุทธศักราช ๒๔๗๖ เป็นปีที่ ๙ ในรัชกาลปัจจุบัน",
        "",
        "ผู้รับสนองพระบรมราชโองการ",
        "นายพันเอก พระยาพหลพลพยุหเสนา",
        "นายกรัฐมนตรี",
        "",
        "ปรียนันท์/แก้ไข",
        "๕ / ๓ / ๔๕",
        "A+B ( C )"
      ]
    ],
    []
  ],
  "metadata": {
    "date_header": "2476-09-10",
    "editors": [],
    "tag": "bb07-20-2476-001"
  }
}