{
  "pages": [
    [
      [
        "ประกาศคณะกรรมการพิจารณามาตรการปกป้อง",
        "เรื่อง มาตรการปกป้องจากการนำเข้าสินค้าเหล็กแผ่นรีดร้อนเจืออื่น ๆ",
        "ชนิดเป็นม้วนและไม่เป็นม้วนที่เพิ่มขึ้น",
        "(ฉบับที่ ๒)",
        "พ.ศ. ๒๕๕๗"
      ]
    ],
    []
  ],
  "metadata": {
    "date_backmatter": "2557-02-24",
    "date_modified": "2557-03-04",
    "date_original": "2557-03-04",
    "doctype": "ประกาศ",
    "editors": [
      {
        "name": "ปริยานุช",
        "role": "ผู้จัดทำ",
        "date": "2557-03-11"
      },
      {
        "name": "โชติกานต์",
        "role": "ผู้ตรวจ",
        "date": "2557-03-26"
      }
    ],
    "tag": "c139-2e-2557-a0002"
  }
}