{
  "pages": [
    [
      [
        "ประกาศคณะกรรมการพิจารณามาตรการปกป้อง",
        "เรื่อง มาตรการปกป้องจากการนำเข้าสินค้าเหล็กแผ่นรีดร้อนเจืออื่น ๆ",
        "ชนิดเป็นม้วนและไม่เป็นม้วนที่เพิ่มขึ้น",
        "พ.ศ. ๒๕๕๖"
      ]
    ],
    []
  ],
  "metadata": {
    "date_backmatter": "2556-09-12",
    "date_modified": "2559-01-12",
    "date_original": "2556-09-13",
    "doctype": "ประกาศ",
    "editors": [
      {
        "name": "กัญฑรัตน์",
        "role": "เพิ่มเติม",
        "date": "2559-02-09"
      },
      {
        "name": "นุสรา",
        "role": "ตรวจ",
        "date": "2559-02-16"
      }
    ],
    "tag": "c139-2e-2559-a0006"
  }
}