{
  "pages": [
    [
      [
        "ประกาศคณะกรรมการพิจารณามาตรการปกป้อง",
        "เรื่อง มาตรการปกป้องจากการนำเข้าสินค้าเหล็กแผ่นรีดร้อนไม่เจือชนิดเป็นม้วนและไม่เป็นม้วนที่เพิ่มขึ้น",
        "(ฉบับที่ ๒)",
        "พ.ศ. ๒๕๕๘"
      ]
    ],
    []
  ],
  "metadata": {
    "date_backmatter": "2558-09-23",
    "date_modified": "2558-09-28",
    "date_original": "2558-09-28",
    "doctype": "ประกาศ",
    "editors": [
      {
        "name": "ปริยานุช",
        "role": "ผู้จัดทำ",
        "date": "2558-10-01"
      },
      {
        "name": "ปริญสินีย์",
        "role": "ผู้ตรวจ",
        "date": "2558-10-12"
      }
    ],
    "tag": "c139-2e-2558-a0009"
  }
}