{
  "pages": [
    [
      [
        "ประกาศคณะกรรมการพิจารณามาตรการปกป้อง",
        "เรื่อง ผลการพิจารณาทบทวนความจำเป็นเพื่อขยายเวลาการบังคับใช้มาตรการปกป้องจากการนำเข้า",
        "สินค้าเหล็กแผ่นรีดร้อนเจืออื่น ๆ ชนิดเป็นม้วนและไม่เป็นม้วนที่เพิ่มขึ้น",
        "พ.ศ. ๒๕๕๙"
      ]
    ],
    []
  ],
  "metadata": {
    "date_backmatter": "2559-02-23",
    "date_modified": "2560-04-26",
    "date_original": "2559-02-26",
    "doctype": "ประกาศ",
    "editors": [
      {
        "name": "ชวัลพร/ปริยานุช",
        "role": "จัดทำ",
        "date": "2559-03-03"
      },
      {
        "name": "วริญา",
        "role": "เพิ่มเติม",
        "date": "2559-11-15"
      },
      {
        "name": "ปัญญา",
        "role": "ตรวจ",
        "date": "2560-01-17"
      },
      {
        "name": "วริญา",
        "role": "เพิ่มเติม",
        "date": "2560-03-13"
      },
      {
        "name": "วริญา",
        "role": "เพิ่มเติม",
        "date": "2560-05-25"
      }
    ],
    "tag": "c139-2e-2560-a0026"
  }
}