{
  "pages": [
    [
      [
        "ประกาศกระทรวงพาณิชย์",
        "เรื่อง กำหนดระยะเวลาในการยื่นคำร้องขอขยายเวลาการบังคับใช้มาตรการปกป้องจากการนำเข้าสินค้าที่เพิ่มขึ้น",
        "พ.ศ. ๒๕๕๘"
      ]
    ],
    []
  ],
  "metadata": {
    "date_backmatter": "2558-07-24",
    "date_modified": "2558-07-29",
    "date_original": "2558-07-29",
    "doctype": "ประกาศ",
    "editors": [
      {
        "name": "ปริยานุช",
        "role": "ผู้จัดทำ",
        "date": "2558-08-03"
      },
      {
        "name": "นุสรา",
        "role": "ผู้ตรวจ",
        "date": "2558-08-27"
      }
    ],
    "tag": "c139-2e-2558-a0006"
  }
}