{
  "pages": [
    [
      [
        "ประกาศกรมการค้าต่างประเทศ",
        "เรื่อง แสดงผลและรายละเอียดคำวินิจฉัยชั้นที่สุดผลการพิจารณาทบทวนความจำเป็น",
        "เพื่อขยายเวลาการบังคับใช้มาตรการปกป้องจากการนำเข้าสินค้าเหล็กแผ่นรีดร้อนเจืออื่น ๆ",
        "ชนิดเป็นม้วนและไม่เป็นม้วนที่เพิ่มขึ้น",
        "พ.ศ. ๒๕๕๙"
      ]
    ],
    []
  ],
  "metadata": {
    "date_backmatter": "2559-03-22",
    "date_modified": "2559-03-29",
    "date_original": "2559-03-29",
    "doctype": "ประกาศ",
    "editors": [
      {
        "name": "ปริยานุช",
        "role": "จัดทำ",
        "date": "2559-04-04"
      },
      {
        "name": "ชวัลพร",
        "role": "ตรวจ",
        "date": "2559-04-04"
      }
    ],
    "tag": "c139-2e-2559-a0007"
  }
}