{
  "pages": [
    [
      [
        "ประกาศคณะกรรมการพิจารณามาตรการปกป้อง",
        "เรื่อง มาตรการปกป้องจากการนำเข้าสินค้าเหล็กแผ่นรีดร้อนไม่เจือชนิดเป็นม้วนและไม่เป็นม้วนที่เพิ่มขึ้น",
        "(ฉบับที่ ๓)",
        "พ.ศ. ๒๕๕๙"
      ]
    ],
    []
  ],
  "metadata": {
    "date_backmatter": "2559-02-08",
    "date_modified": "2559-02-19",
    "date_original": "2559-02-19",
    "doctype": "ประกาศ",
    "editors": [
      {
        "name": "ปริยานุช",
        "role": "จัดทำ",
        "date": "2559-02-23"
      },
      {
        "name": "กัญฑรัตน์",
        "role": "ตรวจ",
        "date": "2559-02-29"
      }
    ],
    "tag": "c139-2e-2559-a0004"
  }
}