{
  "pages": [
    [
      [
        "ประกาศกรมการค้าต่างประเทศ",
        "เรื่อง แสดงผลและรายละเอียดคำวินิจฉัยชั้นที่สุดให้กำหนดมาตรการปกป้อง",
        "จากการนำเข้าสินค้าเหล็กโครงสร้างรูปพรรณรีดร้อนเจืออัลลอยหน้าตัดรูปตัว H ที่เพิ่มขึ้น",
        "พ.ศ. ๒๕๖๐"
      ]
    ],
    []
  ],
  "metadata": {
    "date_backmatter": "2560-03-27",
    "date_modified": "2560-04-03",
    "date_original": "2560-04-03",
    "doctype": "ประกาศ",
    "editors": [
      {
        "name": "พรวิภา/ภวรรณตรี",
        "role": "จัดทำ",
        "date": "2560-04-10"
      }
    ],
    "tag": "c139-2e-2560-a0005"
  }
}