{
  "pages": [
    [
      [
        "ประกาศคณะกรรมการพิจารณามาตรการปกป้อง",
        "เรื่อง มาตรการปกป้องชั่วคราวจากการนำเข้าสินค้าเหล็กแผ่นรีดร้อนไม่เจือชนิดเป็นม้วน",
        "และไม่เป็นม้วนที่เพิ่มขึ้น",
        "พ.ศ. ๒๕๕๗"
      ]
    ],
    []
  ],
  "metadata": {
    "date_backmatter": "2557-05-26",
    "date_modified": "2557-06-06",
    "date_original": "2557-06-06",
    "doctype": "ประกาศ",
    "editors": [
      {
        "name": "ปริยานุช",
        "role": "ผู้จัดทำ",
        "date": "2557-06-11"
      },
      {
        "name": "นุสรา",
        "role": "ผู้ตรวจ",
        "date": "2557-07-29"
      }
    ],
    "tag": "c139-2e-2557-a0004"
  }
}