{
  "pages": [
    [
      [
        "พระราชบัญญัติ",
        "จัดตั้งศาลล้มละลายและวิธีพิจารณาคดีล้มละลาย",
        "พ.ศ. ๒๕๔๒",
        "",
        "",
        "ภูมิพลอดุลยเดช ป.ร.",
        "ให้ไว้ ณ วันที่ ๕ เมษายน พ.ศ. ๒๕๔๒",
        "เป็นปีที่ ๕๔ ในรัชกาลปัจจุบัน"
      ]
    ],
    []
  ],
  "metadata": {
    "date_header": "2542-04-05",
    "date_modified": "2548-11-28",
    "date_original": "2542-04-08",
    "doctype": "พระราชบัญญัติ",
    "editors": [
      {
        "name": "ปัทมา",
        "role": "แก้ไข",
        "date": "2553-03-05"
      },
      {
        "name": "วศิน",
        "role": "ตรวจ",
        "date": "2553-03-05"
      },
      {
        "name": "วิมล",
        "role": "ปรับปรุง",
        "date": "2556-11-20"
      },
      {
        "name": "ณัฐพร",
        "role": "ตรวจ",
        "date": "2556-12-18"
      }
    ],
    "tag": "a827-20-2548-a0002",
    "title": "จัดตั้งศาลล้มละลายและวิธีพิจารณาคดีล้มละลาย"
  }
}