{
  "pages": [
    [
      [
        "ประกาศกระทรวงทรัพยากรธรรมชาติและสิ่งแวดล้อม",
        "เรื่อง ตั้งด่านป่าไม้และกำหนดเขตแห่งด่านป่าไม้",
        "ตามพระราชบัญญัติป่าไม้ พุทธศักราช ๒๔๘๔"
      ]
    ],
    []
  ],
  "metadata": {
    "date_backmatter": "2554-05-03",
    "date_modified": "2554-06-08",
    "date_original": "2554-06-08",
    "doctype": "ประกาศ",
    "editors": [
      {
        "name": "ปริยานุช",
        "role": "ผู้จัดทำ",
        "date": "2554-06-21"
      },
      {
        "name": "ณัฐวดี",
        "role": "ตรวจ",
        "date": "2554-06-21"
      }
    ],
    "tag": "bb26-2e-2554-a0001"
  }
}