{
  "pages": [
    [
      [
        "ประกาศกระทรวงเกษตรและสหกรณ์",
        "เรื่อง ตั้งด่านป่าไม้และกำหนดเขตแห่งด่านป่าไม้",
        "ตามพระราชบัญญัติป่าไม้ พุทธศักราช ๒๔๘๔1"
      ]
    ],
    []
  ],
  "metadata": {
    "date_backmatter": "2518-07-28",
    "doctype": "ประกาศ",
    "editors": [],
    "tag": "bb26-2e-2518-a0009"
  }
}