{
  "pages": [
    [
      [
        "ประกาศกระทรวงเกษตร",
        "เรื่องกำหนดอัตราค่าภาคหลวงไม้หวงห้ามประเภท ข.",
        "ตามพระราชบัญญัติป่าไม้ พุทธศักราช ๒๔๘๔"
      ]
    ],
    []
  ],
  "metadata": {
    "date_backmatter": "2502-05-29",
    "doctype": "ประกาศ",
    "editors": [],
    "tag": "bb26-2e-2502-a0002"
  }
}