{
  "pages": [
    [
      [
        "ประกาศกระทรวงเกษตรและสหกรณ์",
        "เรื่อง กำหนดอัตราค่าภาคหลวงไม้หวงห้าม ตามพระราชบัญญัติป่าไม้",
        "พุทธศักราช ๒๕๑๘1"
      ]
    ],
    []
  ],
  "metadata": {
    "date_backmatter": "2518-02-03",
    "doctype": "ประกาศ",
    "editors": [],
    "tag": "bb26-2e-2518-a0006"
  }
}