{
  "pages": [
    [
      [
        "ประกาศกระทรวงเกษตรและสหกรณ์",
        "เรื่อง กำหนดปริมาณของป่าหวงห้ามที่ให้ค้าหรือมีไว้ในครอบครอง",
        "เพื่อการค้าหรือมีไว้ในครอบครองเพื่อใช้สอยในครัวเรือนแห่งตน",
        "ได้โดยไม่ต้องรับอนุญาตจากพนักงานเจ้าหน้าที่",
        "ตามพระราชบัญญัติป่าไม้ พุทธศักราช ๒๔๘๔ (ฉบับที่ ๓)",
        "พ.ศ. ๒๕๒๖"
      ]
    ],
    []
  ],
  "metadata": {
    "date_backmatter": "2526-07-20",
    "date_gz_old": "2526-10-18",
    "doctype": "ประกาศ",
    "editors": [],
    "tag": "bb26-2e-2526-a002"
  }
}