{
  "pages": [
    [
      [
        "ประกาศกระทรวงทรัพยากรธรรมชาติและสิ่งแวดล้อม",
        "เรื่อง แต่งตั้งพนักงานเจ้าหน้าที่ตามพระราชบัญญัติป่าไม้ พุทธศักราช ๒๔๘๔"
      ]
    ],
    []
  ],
  "metadata": {
    "date_backmatter": "2554-12-27",
    "date_modified": "2555-04-03",
    "date_original": "2555-04-03",
    "doctype": "ประกาศ",
    "editors": [
      {
        "name": "ปริยานุช",
        "role": "ผู้จัดทำ",
        "date": "2555-04-10"
      },
      {
        "name": "ปณตภร",
        "role": "ผู้ตรวจ",
        "date": "2555-04-12"
      }
    ],
    "tag": "bb26-2e-2555-a0001"
  }
}