{
  "pages": [
    [
      [
        "ประกาศกระทรวงเกษตร",
        "เรื่อง กำหนดอัตราค่าภาคหลวง ของป่าหวงห้าม",
        "ตามพระราชบัญญัติป่าไม้ พุทธศักราช ๒๔๘๔"
      ]
    ],
    []
  ],
  "metadata": {
    "date_backmatter": "2501-12-16",
    "doctype": "ประกาศ",
    "editors": [],
    "tag": "bb26-2e-2501-a0002"
  }
}