{
  "pages": [
    [
      [
        "พระราชบัญญัติ",
        "ป่าไม้ (ฉบับที่ ๖)",
        "พ.ศ. ๒๕๒๒",
        "",
        "",
        "ภูมิพลอดุลยเดช ป.ร.",
        "ให้ไว้ ณ วันที่ ๒๑ เมษายน พ.ศ. ๒๕๒๒",
        "เป็นปีที่ ๓๔ ในรัชกาลปัจจุบัน"
      ]
    ],
    []
  ],
  "metadata": {
    "date_header": "2522-04-21",
    "date_modified": "2522-04-28",
    "date_original": "2522-04-28",
    "doctype": "พระราชบัญญัติ",
    "editors": [
      {
        "name": "สุรินทร์",
        "role": "แก้ไข",
        "date": "2545-01-08"
      },
      {
        "name": "ปัญญา",
        "role": "แก้ไข",
        "date": "2552-06-26"
      },
      {
        "name": "อุดมการณ์",
        "role": "ปรับปรุง",
        "date": "2556-01-18"
      },
      {
        "name": "วิชพงษ์",
        "role": "ตรวจ",
        "date": "2556-01-25"
      }
    ],
    "tag": "bb26-20-2522-006",
    "title": "ป่าไม้ (ฉบับที่ ๖)"
  }
}