{
  "pages": [
    [
      [
        "ประกาศกรมป่าไม้",
        "เรื่อง มอบหมายให้พนักงานเจ้าหน้าที่พิจารณา",
        "เรื่องขอทำการแปรรูปไม้เพื่อทำการค้าหรือตั้งโรงค้าไม้แปรรูป",
        "หรือตั้งโรงงานไม้แปรรูป1"
      ]
    ],
    []
  ],
  "metadata": {
    "date_backmatter": "2522-02-13",
    "doctype": "ประกาศ",
    "editors": [],
    "tag": "bb26-2e-2522-a0003"
  }
}