{
  "pages": [
    [
      [
        "เรื่องกำหนดลักสนะและความหมาย",
        "การไช้ตราประทับไม้ของรัถบาล",
        "ตามพระราชบัญญัติป่าไม้ พุทธสักราช 2484"
      ]
    ],
    []
  ],
  "metadata": {
    "date_backmatter": "2486-01-21",
    "editors": [],
    "tag": "bb26-2e-2486-a0006"
  }
}