{
  "pages": [
    [
      [
        "พระราชบัญญัติ",
        "ป่าไม้",
        "พุทธศักราช ๒๔๘๔",
        "",
        "",
        "ในพระปรมาภิไธยสมเด็จพระเจ้าอยู่หัวอานันทมหิดล",
        "คณะผู้สำเร็จราชการแทนพระองค์",
        "(ตามประกาศประธานสภาผู้แทนราษฎร",
        "ลงวันที่ ๔ สิงหาคม พุทธศักราช ๒๔๘๐)",
        "อาทิตย์ทิพอาภา",
        "พล.อ.พิชเยนทรโยธิน",
        "ตราไว้ ณ วันที่ ๑๔ ตุลาคม พุทธศักราช ๒๔๘๔",
        "เป็นปีที่ ๘ ในรัชกาลปัจจุบัน"
      ]
    ],
    []
  ],
  "metadata": {
    "date_header": "2480-08-04",
    "date_modified": "2503-07-25",
    "date_original": "2484-10-15",
    "doctype": "พระราชบัญญัติ",
    "editors": [
      {
        "name": "สุรินทร์",
        "role": "แก้ไข",
        "date": "2545-01-07"
      },
      {
        "name": "ปัญญา",
        "role": "แก้ไข",
        "date": "2552-06-26"
      }
    ],
    "tag": "bb26-20-2503-a0001u",
    "title": "ป่าไม้"
  }
}