{
  "pages": [
    [
      [
        "คำสั่งหัวหน้าคณะรักษาความสงบแห่งชาติ",
        "ที่ ๓๕/๒๕๕๙",
        "เรื่อง มาตรการในการแก้ไขปัญหาการครอบครองและใช้ประโยชน์ที่ดินป่าภูทับเบิก",
        "ในท้องที่ตำบลวังบาลและตำบลบ้านเนิน อำเภอหล่มเก่า จังหวัดเพชรบูรณ์"
      ]
    ],
    []
  ],
  "metadata": {
    "date_backmatter": "2559-07-05",
    "date_modified": "2559-07-05",
    "date_original": "2559-07-05",
    "editors": [
      {
        "name": "กัญฑรัตน์/ปริยานุช",
        "role": "จัดทำ",
        "date": "2559-08-05"
      },
      {
        "name": "วิชพงษ์",
        "role": "ตรวจ",
        "date": "2559-08-15"
      }
    ],
    "tag": "bb26-2f-2559-a0001"
  }
}