{
  "pages": [
    [
      [
        "ข้อบังคับองค์การอุตสาหกรรมป่าไม้",
        "ว่าด้วยข้อจำกัดอำนาจผู้อำนวยการในการทำนิติกรรมสัญญา",
        "พ.ศ. ๒๕๔๘"
      ]
    ],
    []
  ],
  "metadata": {
    "date_backmatter": "2548-03-28",
    "date_modified": "2550-06-01",
    "date_original": "2550-06-01",
    "editors": [
      {
        "name": "วัชศักดิ์",
        "role": "ผู้จัดทำ",
        "date": "2550-06-13"
      }
    ],
    "tag": "bb26-2i-2550-a0001"
  }
}