{
  "pages": [
    [
      [
        "ข้อกำหนด",
        "ฉบับที่ ๒๐ (พ.ศ. ๒๕๕๙)",
        "ออกตามความในพระราชบัญญัติป่าไม้ พุทธศักราช ๒๔๘๔",
        "ว่าด้วยการควบคุมการตั้งโรงงานแปรรูปไม้โดยใช้เครื่องจักรเพื่อทำการแปรรูปไม้ยางพารา"
      ]
    ],
    []
  ],
  "metadata": {
    "date_backmatter": "2559-06-14",
    "date_modified": "2560-05-23",
    "date_original": "2560-05-23",
    "editors": [
      {
        "name": "ภวรรณตรี",
        "role": "จัดทำ",
        "date": "2560-05-25"
      },
      {
        "name": "ชวัลพร",
        "role": "ตรวจ",
        "date": "2560-05-25"
      }
    ],
    "tag": "bb26-2h-2560-a0001"
  }
}