{
  "pages": [
    [
      [
        "ระเบียบกรมป่าไม้",
        "ว่าด้วยการอนุญาตให้นำไม้สักที่เคยอยู่ในสภาพเป็นสิ่ง",
        "ปลูกสร้าง หรือเคยอยู่ในสภาพเป็นเครื่องใช้และพ้นจาก",
        "สภาพเป็นสิ่งปลูกสร้างหรือเครื่องใช้มาแล้วกว่า 5 ปี",
        "เคลื่อนย้ายออกนอกเขตจังหวัด",
        "พ.ศ. 2515"
      ]
    ],
    []
  ],
  "metadata": {
    "date_backmatter": "2515-11-22",
    "editors": [],
    "tag": "bb26-2g-2516-001"
  }
}