{
  "pages": [
    [
      [
        "พระราชบัญญัติ",
        "ป่าไม้ (ฉบับที่ ๔)",
        "พ.ศ. ๒๕๐๓",
        "",
        "",
        "ในพระปรมาภิไธย",
        "พระบาทสมเด็จพระปรมินทรมหาภูมิพลอดุลยเดช",
        "สังวาลย์",
        "ผู้สำเร็จราชการแทนพระองค์",
        "ให้ไว้ ณ วันที่ ๑๙ กรกฎาคม พ.ศ. ๒๕๐๓",
        "เป็นปีที่ ๑๕ ในรัชกาลปัจจุบัน",
        "โดยที่เป็นการสมควรแก้ไขเพิ่มเติมกฎหมายว่าด้วยป่าไม้",
        "",
        "พระมหากษัตริย์โดยคำแนะนำและยินยอมของสภาร่างรัฐธรรมนูญในฐานะรัฐสภา จึงมีพระบรมราชโองการให้ตราพระราชบัญญัติขึ้นไว้ ดังต่อไปนี้"
      ]
    ],
    []
  ],
  "metadata": {
    "date_header": "2503-07-19",
    "date_modified": "2503-07-25",
    "date_original": "2503-07-25",
    "doctype": "พระราชบัญญัติ",
    "editors": [
      {
        "name": "สุรินทร์",
        "role": "แก้ไข",
        "date": "2545-01-08"
      },
      {
        "name": "ปัญญา",
        "role": "แก้ไข",
        "date": "2552-06-15"
      },
      {
        "name": "อุดมการณ์",
        "role": "ปรับปรุง",
        "date": "2556-01-18"
      },
      {
        "name": "วิชพงษ์",
        "role": "ตรวจ",
        "date": "2556-01-25"
      }
    ],
    "tag": "bb26-20-2503-004",
    "title": "ป่าไม้ (ฉบับที่ ๔)"
  }
}