{
  "pages": [
    [
      [
        "พระราชกฤษฎีกา",
        "กำหนดเขตที่ดินในท้องที่อำเภอเมืองสุโขทัย",
        "จังหวัดสุโขทัย ให้เป็นเขตปฏิรูปที่ดิน",
        "พ.ศ. ๒๕๒๘",
        "",
        "",
        "ภูมิพลอดุลยเดช ป.ร.",
        "ให้ไว้ ณ วันที่ ๑๐ ตุลาคม พ.ศ. ๒๕๒๘",
        "เป็นปีที่ ๔๐ ในรัชกาลปัจจุบัน"
      ]
    ],
    []
  ],
  "metadata": {
    "date_header": "2528-10-10",
    "date_modified": "2528-10-24",
    "date_original": "2528-10-24",
    "doctype": "พระราชกฤษฎีกา",
    "editors": [
      {
        "name": "ชไมพร",
        "role": "พิมพ์",
        "date": "2544-10-19"
      },
      {
        "name": "วริญา",
        "role": "ปรับปรุง",
        "date": "2560-06-13"
      }
    ],
    "tag": "bb26-2a-2528-a0001",
    "title": "กำหนดเขตที่ดินในท้องที่อำเภอเมืองสุโขทัยจังหวัดสุโขทัย ให้เป็นเขตปฏิรูปที่ดิน"
  }
}