{
  "pages": [
    [
      [
        "ประกาศกรมป่าไม้",
        "เรื่อง กำหนดแบบคำขอ แบบใบอนุญาต และแบบอื่น ๆ ตามกฎกระทรวง การขออนุญาต",
        "และการอนุญาตทำประโยชน์ในเขตป่า",
        "พ.ศ. ๒๕๕๘"
      ]
    ],
    []
  ],
  "metadata": {
    "date_backmatter": "2559-04-11",
    "date_modified": "2559-04-28",
    "date_original": "2559-04-28",
    "doctype": "ประกาศ",
    "editors": [
      {
        "name": "ปริยานุช",
        "role": "จัดทำ",
        "date": "2559-05-03"
      },
      {
        "name": "กัญฑรัตน์",
        "role": "ตรวจ",
        "date": "2559-05-03"
      }
    ],
    "tag": "bb26-2e-2559-a0001"
  }
}