{
  "pages": [
    [
      [
        "ประกาศกระทรวงเกษตรและสหกรณ์",
        "เรื่อง แต่งตั้งพนักงานเจ้าหน้าที่ตามพระราชบัญญัติป่าไม้",
        "พุทธศักราช ๒๔๘๔1"
      ]
    ],
    []
  ],
  "metadata": {
    "date_backmatter": "2518-08-13",
    "doctype": "ประกาศ",
    "editors": [],
    "tag": "bb26-2e-2518-a0015"
  }
}