{
  "pages": [
    [
      [
        "พระราชกฤษฎีกา",
        "กำหนดเขตที่ดินในท้องที่อำเภอกงไกรลาศ",
        "จังหวัดสุโขทัย ให้เป็นเขตปฏิรูปที่ดิน",
        "พ.ศ. ๒๕๒๗",
        "",
        "",
        "ภูมิพลอดุลยเดช ป.ร.",
        "ให้ไว้ ณ วันที่ ๑๑ พฤศจิกายน พ.ศ. ๒๕๒๗",
        "เป็นปีที่ ๓๙ ในรัชกาลปัจจุบัน"
      ]
    ],
    []
  ],
  "metadata": {
    "date_header": "2527-11-11",
    "date_modified": "2527-11-22",
    "date_original": "2527-11-22",
    "doctype": "พระราชกฤษฎีกา",
    "editors": [
      {
        "name": "ชไมพร",
        "role": "พิมพ์",
        "date": "2544-10-22"
      },
      {
        "name": "วริญา",
        "role": "ปรับปรุง",
        "date": "2560-06-13"
      }
    ],
    "tag": "bb26-2a-2527-a0001",
    "title": "กำหนดเขตที่ดินในท้องที่อำเภอกงไกรลาศจังหวัดสุโขทัย ให้เป็นเขตปฏิรูปที่ดิน"
  }
}