{
  "pages": [
    [
      [
        "ประกาศกระทรวงเกษตรและสหกรณ์",
        "เรื่อง เปลี่ยนแปลงอาณาเขตด่านป่าไม้กรุงเทพ",
        "ตามพระราชบัญญัติป่าไม้ พุทธศักราช ๒๔๘๔1"
      ]
    ],
    []
  ],
  "metadata": {
    "date_backmatter": "2526-02-07",
    "doctype": "ประกาศ",
    "editors": [],
    "tag": "bb26-2e-2526-a0004"
  }
}