{
  "pages": [
    [
      [
        "ประกาศคณะกรรมการส่งเสริมการพัฒนาฝีมือแรงงาน",
        "เรื่อง มาตรฐานฝีมือแรงงานแห่งชาติ สาขาอาชีพช่างหล่อโลหะ (ช่างทำแบบหล่อถาวร)"
      ]
    ],
    []
  ],
  "metadata": {
    "date_backmatter": "2552-08-07",
    "date_modified": "2552-11-20",
    "date_original": "2552-11-20",
    "doctype": "ประกาศ",
    "editors": [
      {
        "name": "วิชชุตา",
        "role": "ผู้จัดทำ",
        "date": "2554-12-26"
      },
      {
        "name": "ปริญสินีย์",
        "role": "ปรับปรุง",
        "date": "2556-09-13"
      }
    ],
    "tag": "ca63-2e-2552-a0032"
  }
}