{
  "pages": [
    [
      [
        "ประกาศคณะกรรมการส่งเสริมการพัฒนาฝีมือแรงงาน",
        "เรื่อง วิธีการทดสอบมาตรฐานฝีมือแรงงาน และการออกหนังสือรับรองว่าเป็นผู้ผ่านการทดสอบ",
        "มาตรฐานฝีมือแรงงานแห่งชาติ สาขาอาชีพนักส่งเสริมสุขภาพแบบองค์รวม ไทยสัปปายะ",
        "(โภชนบำบัด) ระดับ ๑"
      ]
    ],
    []
  ],
  "metadata": {
    "date_backmatter": "2553-01-13",
    "date_modified": "2553-08-23",
    "date_original": "2553-08-23",
    "doctype": "ประกาศ",
    "editors": [
      {
        "name": "วิชชุตา",
        "role": "ผู้จัดทำ",
        "date": "2555-01-13"
      },
      {
        "name": "ปริญสินีย์",
        "role": "ปรับปรุง",
        "date": "2556-09-16"
      }
    ],
    "tag": "ca63-2e-2553-a0066"
  }
}