{
  "pages": [
    [
      [
        "ประกาศคณะกรรมการส่งเสริมการพัฒนาฝีมือแรงงาน",
        "เรื่อง มาตรฐานฝีมือแรงงานแห่งชาติ สาขาอาชีพช่างเครื่องกล สาขาช่างติดตั้งอุปกรณ์เพื่อใช้เชื้อเพลิง",
        "ก๊าซปิโตรเลียมเหลว (LPG, Liquefied Petroleum Gas)"
      ]
    ],
    []
  ],
  "metadata": {
    "date_backmatter": "2560-06-05",
    "date_modified": "2560-08-01",
    "date_original": "2560-08-01",
    "doctype": "ประกาศ",
    "editors": [
      {
        "name": "พรวิภา/ภวรรณตรี",
        "role": "จัดทำ",
        "date": "2560-08-04"
      }
    ],
    "tag": "ca63-2e-2560-a0067"
  }
}