{
  "pages": [
    [
      [
        "ประกาศกระทรวงแรงงาน",
        "เรื่อง กำหนดประเภท ขนาด และท้องที่ที่ผู้ประกอบกิจการต้องส่งเงินสมทบ",
        "เข้ากองทุนพัฒนาฝีมือแรงงาน"
      ]
    ],
    []
  ],
  "metadata": {
    "date_backmatter": "2558-04-09",
    "date_modified": "2558-05-15",
    "date_original": "2558-05-15",
    "doctype": "ประกาศ",
    "editors": [
      {
        "name": "ปริยานุช",
        "role": "ผู้จัดทำ",
        "date": "2558-05-18"
      },
      {
        "name": "ปุณิกา",
        "role": "ผู้ตรวจ",
        "date": "2558-06-10"
      }
    ],
    "tag": "ca63-2e-2558-a0057"
  }
}