{
  "pages": [
    [
      [
        "ประกาศคณะกรรมการส่งเสริมการพัฒนาฝีมือแรงงาน",
        "เรื่อง มาตรฐานฝีมือแรงงานแห่งชาติ สาขาอาชีพช่างเครื่องกล",
        "สาขาพนักงานควบคุมเครื่องจักรรถบรรทุกเทท้าย"
      ]
    ],
    []
  ],
  "metadata": {
    "date_backmatter": "2558-12-16",
    "date_modified": "2559-02-01",
    "date_original": "2559-02-01",
    "doctype": "ประกาศ",
    "editors": [
      {
        "name": "ปริยานุช",
        "role": "จัดทำ",
        "date": "2559-02-15"
      },
      {
        "name": "ปุณิกา",
        "role": "ตรวจ",
        "date": "2559-02-15"
      }
    ],
    "tag": "ca63-2e-2559-a0006"
  }
}