{
  "pages": [
    [
      [
        "ประกาศคณะกรรมการส่งเสริมการพัฒนาฝีมือแรงงาน",
        "เรื่อง วิธีการทดสอบมาตรฐานฝีมือแรงงาน และการออกหนังสือรับรองว่าเป็นผู้ผ่านการทดสอบ",
        "มาตรฐานฝีมือแรงงานแห่งชาติ สาขาอาชีพช่างสีตกแต่ง ระดับ ๒"
      ]
    ],
    []
  ],
  "metadata": {
    "date_backmatter": "2555-10-30",
    "date_modified": "2556-02-08",
    "date_original": "2556-02-08",
    "doctype": "ประกาศ",
    "editors": [
      {
        "name": "ปริยานุช",
        "role": "ผู้จัดทำ",
        "date": "2556-02-11"
      },
      {
        "name": "โชติกานต์",
        "role": "ผู้ตรวจ",
        "date": "2556-02-27"
      }
    ],
    "tag": "ca63-2e-2556-a0004"
  }
}