{
  "pages": [
    [
      [
        "ประกาศคณะกรรมการส่งเสริมการพัฒนาฝีมือแรงงาน",
        "เรื่อง วิธีการทดสอบมาตรฐานฝีมือแรงงาน และการออกหนังสือรับรองว่าเป็นผู้ผ่านการทดสอบ",
        "มาตรฐานฝีมือแรงงานแห่งชาติ สาขาอาชีพช่างซ่อมรถยนต์ ระดับ ๓"
      ]
    ],
    []
  ],
  "metadata": {
    "date_backmatter": "2554-08-31",
    "date_modified": "2554-11-04",
    "date_original": "2554-11-04",
    "doctype": "ประกาศ",
    "editors": [
      {
        "name": "ปริยานุช",
        "role": "ผู้จัดทำ",
        "date": "2554-11-09"
      },
      {
        "name": "ชาญ",
        "role": "ผู้ตรวจ",
        "date": "2554-11-16"
      }
    ],
    "tag": "ca63-2e-2554-a0072"
  }
}