{
  "pages": [
    [
      [
        "ประกาศคณะกรรมการส่งเสริมการพัฒนาฝีมือแรงงาน",
        "เรื่อง คุณสมบัติของผู้เข้ารับการทดสอบ วิธีการทดสอบ และการออกหนังสือรับรอง",
        "ว่าเป็นผู้ผ่านการทดสอบมาตรฐานฝีมือแรงงานแห่งชาติ"
      ]
    ],
    []
  ],
  "metadata": {
    "date_backmatter": "2560-03-24",
    "date_modified": "2560-05-07",
    "date_original": "2560-05-07",
    "doctype": "ประกาศ",
    "editors": [
      {
        "name": "ภวรรณตรี",
        "role": "จัดทำ",
        "date": "2560-05-16"
      },
      {
        "name": "พรวิภา",
        "role": "ตรวจ",
        "date": "2560-06-09"
      }
    ],
    "tag": "ca63-2e-2560-a0059"
  }
}