{
  "pages": [
    [
      [
        "ประกาศคณะกรรมการส่งเสริมการพัฒนาฝีมือแรงงาน",
        "เรื่อง มาตรฐานฝีมือแรงงานแห่งชาติ สาขาอาชีพช่างเทคนิคบำรุงรักษาเครื่องจักรกล",
        "สำหรับอุตสาหกรรมไฟฟ้าและอิเล็กทรอนิกส์"
      ]
    ],
    []
  ],
  "metadata": {
    "date_backmatter": "2557-02-13",
    "date_modified": "2557-07-16",
    "date_original": "2557-07-16",
    "doctype": "ประกาศ",
    "editors": [
      {
        "name": "ปริยานุช",
        "role": "ผู้จัดทำ",
        "date": "2557-07-18"
      },
      {
        "name": "โชติกานต์",
        "role": "ผู้ตรวจ",
        "date": "2557-08-08"
      }
    ],
    "tag": "ca63-2e-2557-a0024"
  }
}