{
  "pages": [
    [
      [
        "ประกาศคณะกรรมการส่งเสริมการพัฒนาฝีมือแรงงาน",
        "เรื่อง มาตรฐานฝีมือแรงงานแห่งชาติ สาขาอาชีพช่างไฟฟ้า อิเล็กทรอนิกส์และคอมพิวเตอร์",
        "สาขาช่างเทคนิคระบบไฟฟ้า"
      ]
    ],
    []
  ],
  "metadata": {
    "date_backmatter": "2559-05-19",
    "date_modified": "2560-03-06",
    "date_original": "2560-03-06",
    "doctype": "ประกาศ",
    "editors": [
      {
        "name": "ภวรรณตรี",
        "role": "จัดทำ",
        "date": "2560-03-10"
      },
      {
        "name": "พิมพ์มาดา",
        "role": "ตรวจ",
        "date": "2560-04-10"
      }
    ],
    "tag": "ca63-2e-2560-a0038"
  }
}