{
  "pages": [
    [
      [
        "ประกาศคณะกรรมการส่งเสริมการพัฒนาฝีมือแรงงาน",
        "เรื่อง มาตรฐานฝีมือแรงงานแห่งชาติ สาขาอาชีพพนักงานอัดพื้นรองเท้า"
      ]
    ],
    []
  ],
  "metadata": {
    "date_backmatter": "2557-02-13",
    "date_modified": "2557-07-16",
    "date_original": "2557-07-16",
    "doctype": "ประกาศ",
    "editors": [
      {
        "name": "ปริยานุช",
        "role": "ผู้จัดทำ",
        "date": "2557-07-21"
      },
      {
        "name": "โชติกานต์",
        "role": "ผู้ตรวจ",
        "date": "2557-08-18"
      }
    ],
    "tag": "ca63-2e-2557-a0063"
  }
}