{
  "pages": [
    [
      [
        "ประกาศคณะกรรมการส่งเสริมการพัฒนาฝีมือแรงงาน",
        "เรื่อง หลักเกณฑ์ของผู้ประกอบกิจการที่ไม่ต้องส่งเงินสมทบเข้ากองทุนพัฒนาฝีมือแรงงาน"
      ]
    ],
    []
  ],
  "metadata": {
    "date_backmatter": "2558-04-22",
    "date_modified": "2558-05-28",
    "date_original": "2558-05-28",
    "doctype": "ประกาศ",
    "editors": [
      {
        "name": "ปริยานุช",
        "role": "ผู้จัดทำ",
        "date": "2558-06-02"
      },
      {
        "name": "ปริญสินีย์",
        "role": "ผู้ตรวจ",
        "date": "2558-06-02"
      }
    ],
    "tag": "ca63-2e-2558-a0064"
  }
}