{
  "pages": [
    [
      [
        "ประกาศคณะกรรมการส่งเสริมการพัฒนาฝีมือแรงงาน",
        "เรื่อง กำหนดวงเงินกู้ยืมและการชำระเงินคืนกองทุนพัฒนาฝีมือแรงงาน (ฉบับที่ ๓)"
      ]
    ],
    []
  ],
  "metadata": {
    "date_backmatter": "2560-06-08",
    "date_modified": "2560-07-06",
    "date_original": "2560-07-06",
    "doctype": "ประกาศ",
    "editors": [
      {
        "name": "ภวรรณตรี",
        "role": "จัดทำ",
        "date": "2560-07-11"
      },
      {
        "name": "พรวิภา",
        "role": "ตรวจ",
        "date": "2560-08-01"
      }
    ],
    "tag": "ca63-2e-2560-a0063"
  }
}