{
  "pages": [
    [
      [
        "ประกาศคณะกรรมการส่งเสริมการพัฒนาฝีมือแรงงาน",
        "เรื่อง มาตรฐานฝีมือแรงงานแห่งชาติ สาขาอาชีพภาคบริการ สาขานักปฏิบัติการขนส่งสินค้าทางถนน"
      ]
    ],
    []
  ],
  "metadata": {
    "date_backmatter": "2558-01-21",
    "date_modified": "2558-03-11",
    "date_original": "2558-03-11",
    "doctype": "ประกาศ",
    "editors": [
      {
        "name": "ปริยานุช",
        "role": "ผู้จัดทำ",
        "date": "2558-03-13"
      },
      {
        "name": "นุสรา",
        "role": "ผู้ตรวจ",
        "date": "2558-03-19"
      }
    ],
    "tag": "ca63-2e-2558-a0031"
  }
}