{
  "pages": [
    [
      [
        "ประกาศคณะกรรมการส่งเสริมการพัฒนาฝีมือแรงงาน",
        "เรื่อง มาตรฐานฝีมือแรงงานแห่งชาติ สาขาอาชีพช่างก่อสร้าง สาขาช่างก่อและติดตั้งคอนกรีตมวลเบา"
      ]
    ],
    []
  ],
  "metadata": {
    "date_backmatter": "2561-08-01",
    "date_modified": "2561-09-10",
    "date_original": "2561-09-10",
    "doctype": "ประกาศ",
    "editors": [
      {
        "name": "พิมพ์มาดา",
        "role": "จัดทำ",
        "date": "2561-12-17"
      }
    ],
    "tag": "ca63-2e-2561-a0011"
  }
}