{
  "pages": [
    [
      [
        "ประกาศคณะกรรมการส่งเสริมการพัฒนาฝีมือแรงงาน",
        "เรื่อง วิธีการทดสอบมาตรฐานฝีมือแรงงาน และการออกหนังสือรับรองว่าเป็นผู้ผ่านการทดสอบมาตรฐานฝีมือแรงงานแห่งชาติ สาขาอาชีพช่างตกแต่งเครื่องประดับ ระดับ ๑"
      ]
    ],
    []
  ],
  "metadata": {
    "date_backmatter": "2557-07-28",
    "date_modified": "2557-10-09",
    "date_original": "2557-10-09",
    "doctype": "ประกาศ",
    "editors": [
      {
        "name": "ปริยานุช",
        "role": "ผู้จัดทำ",
        "date": "2557-10-14"
      },
      {
        "name": "กฤษดายุทธ",
        "role": "ผู้ตรวจ",
        "date": "2557-10-15"
      }
    ],
    "tag": "ca63-2e-2557-a0161"
  }
}