{
  "pages": [
    [
      [
        "ประกาศคณะกรรมการส่งเสริมการพัฒนาฝีมือแรงงาน",
        "เรื่อง คุณสมบัติของผู้เข้ารับการทดสอบ สาขาอาชีพช่างเครื่องกล สาขาช่างติดตั้งอุปกรณ์เพื่อใช้เชื้อเพลิงก๊าซธรรมชาติอัด (CNG) สำหรับเครื่องยนต์เบนซิน"
      ]
    ],
    []
  ],
  "metadata": {
    "date_backmatter": "2560-08-31",
    "date_modified": "2560-10-24",
    "date_original": "2560-10-24",
    "doctype": "ประกาศ",
    "editors": [
      {
        "name": "พิมพ์มาดา/ภวรรณตรี",
        "role": "จัดทำ",
        "date": "2560-11-08"
      },
      {
        "name": "วิชพงษ์",
        "role": "ตรวจ",
        "date": "2560-11-20"
      }
    ],
    "tag": "ca63-2e-2560-a0086"
  }
}