{
  "pages": [
    [
      [
        "ประกาศคณะกรรมการส่งเสริมการพัฒนาฝีมือแรงงาน",
        "เรื่อง วิธีการทดสอบมาตรฐานฝีมือแรงงาน และการออกหนังสือรับรองว่าเป็นผู้ผ่านการทดสอบ",
        "มาตรฐานฝีมือแรงงานแห่งชาติ สาขาอาชีพช่างก่อสร้าง สาขาช่างสีอาคาร ระดับ ๑"
      ]
    ],
    []
  ],
  "metadata": {
    "date_backmatter": "2557-12-16",
    "date_modified": "2558-02-02",
    "date_original": "2558-02-02",
    "doctype": "ประกาศ",
    "editors": [
      {
        "name": "ปริยานุช",
        "role": "ผู้จัดทำ",
        "date": "2558-02-05"
      },
      {
        "name": "กฤษดายุทธ",
        "role": "ผู้ตรวจ",
        "date": "2558-02-05"
      }
    ],
    "tag": "ca63-2e-2558-a0021"
  }
}