{
  "pages": [
    [
      [
        "ประกาศคณะกรรมการส่งเสริมการพัฒนาฝีมือแรงงาน",
        "เรื่อง มาตรฐานฝีมือแรงงานแห่งชาติ สาขาอาชีพช่างตรวจสอบเครื่องมือกล"
      ]
    ],
    []
  ],
  "metadata": {
    "date_backmatter": "2555-07-06",
    "date_modified": "2555-10-03",
    "date_original": "2555-10-03",
    "doctype": "ประกาศ",
    "editors": [
      {
        "name": "ปริยานุช",
        "role": "ผู้จัดทำ",
        "date": "2555-10-08"
      },
      {
        "name": "ชาญ",
        "role": "ผู้ตรวจ",
        "date": "2555-10-16"
      }
    ],
    "tag": "ca63-2e-2555-a0057"
  }
}