{
  "pages": [
    [
      [
        "ประกาศคณะกรรมการส่งเสริมการพัฒนาฝีมือแรงงาน",
        "เรื่อง คุณสมบัติของผู้เข้ารับการทดสอบ สาขาอาชีพภาคบริการ สาขาช่างเครื่องช่วยคนพิการ"
      ]
    ],
    []
  ],
  "metadata": {
    "date_backmatter": "2557-12-16",
    "date_modified": "2558-01-07",
    "date_original": "2558-01-07",
    "doctype": "ประกาศ",
    "editors": [
      {
        "name": "ปริยานุช",
        "role": "ผู้จัดทำ",
        "date": "2558-01-15"
      },
      {
        "name": "วันทิตา",
        "role": "ผู้ตรวจ",
        "date": "2558-02-05"
      }
    ],
    "tag": "ca63-2e-2558-a0002"
  }
}