{
  "pages": [
    [
      [
        "ประกาศคณะกรรมการส่งเสริมการพัฒนาฝีมือแรงงาน",
        "เรื่อง กำหนดวงเงินกู้ยืมและการชำระเงินคืนกองทุนพัฒนาฝีมือแรงงาน (ฉบับที่ ๓)",
        "พ.ศ. ๒๕๕๖"
      ]
    ],
    []
  ],
  "metadata": {
    "date_backmatter": "2556-03-18",
    "date_modified": "2556-04-29",
    "date_original": "2556-04-29",
    "doctype": "ประกาศ",
    "editors": [
      {
        "name": "ปริยานุช",
        "role": "ผู้จัดทำ",
        "date": "2556-05-02"
      },
      {
        "name": "โชติกานต์",
        "role": "ผู้ตรวจ",
        "date": "2556-05-09"
      }
    ],
    "tag": "ca63-2e-2556-a0009"
  }
}