{
  "pages": [
    [
      [
        "ประกาศคณะกรรมการส่งเสริมการพัฒนาฝีมือแรงงาน",
        "เรื่อง มาตรฐานฝีมือแรงงานแห่งชาติ สาขาอาชีพช่างอุตสาหการ สาขาช่างประกอบโครงสร้างเหล็ก"
      ]
    ],
    []
  ],
  "metadata": {
    "date_backmatter": "2558-03-20",
    "date_modified": "2558-04-27",
    "date_original": "2558-04-27",
    "doctype": "ประกาศ",
    "editors": [
      {
        "name": "ปริยานุช",
        "role": "ผู้จัดทำ",
        "date": "2558-04-30"
      },
      {
        "name": "นุสรา",
        "role": "ผู้ตรวจ",
        "date": "2558-06-29"
      }
    ],
    "tag": "ca63-2e-2558-a0039"
  }
}