{
  "pages": [
    [
      [
        "ประกาศคณะกรรมการส่งเสริมการพัฒนาฝีมือแรงงาน",
        "เรื่อง วิธีการทดสอบมาตรฐานฝีมือแรงงาน และการออกหนังสือรับรองว่าเป็นผู้ผ่านการทดสอบ",
        "มาตรฐานฝีมือแรงงานแห่งชาติ สาขาอาชีพช่างซ่อมไมโครคอมพิวเตอร์ ระดับ ๑"
      ]
    ],
    []
  ],
  "metadata": {
    "date_backmatter": "2554-06-28",
    "date_modified": "2554-07-27",
    "date_original": "2554-07-27",
    "doctype": "ประกาศ",
    "editors": [
      {
        "name": "วิชชุตา",
        "role": "ผู้จัดทำ",
        "date": "2555-01-17"
      },
      {
        "name": "ปริญสินีย์",
        "role": "ปรับปรุง",
        "date": "2556-09-17"
      }
    ],
    "tag": "ca63-2e-2554-a0062"
  }
}