{
  "pages": [
    [
      [
        "ประกาศคณะกรรมการส่งเสริมการพัฒนาฝีมือแรงงาน",
        "เรื่อง คุณสมบัติของผู้เข้ารับการทดสอบ สาขาอาชีพช่างไฟฟ้า อิเล็กทรอนิกส์ และคอมพิวเตอร์",
        "สาขาพนักงานการใช้คอมพิวเตอร์ (การนำเสนอผลงาน)"
      ]
    ],
    []
  ],
  "metadata": {
    "date_backmatter": "2557-02-28",
    "date_modified": "2557-04-21",
    "date_original": "2557-04-21",
    "doctype": "ประกาศ",
    "editors": [
      {
        "name": "ปริยานุช",
        "role": "ผู้จัดทำ",
        "date": "2557-04-23"
      },
      {
        "name": "จุฑามาศ",
        "role": "ผู้ตรวจ",
        "date": "2557-04-24"
      }
    ],
    "tag": "ca63-2e-2557-a0017"
  }
}