{
  "pages": [
    [
      [
        "ประกาศคณะกรรมการส่งเสริมการพัฒนาฝีมือแรงงาน",
        "เรื่อง คุณสมบัติของผู้เข้ารับการทดสอบ สาขาอาชีพผู้ประกอบขนมอบ"
      ]
    ],
    []
  ],
  "metadata": {
    "date_backmatter": "2553-02-10",
    "date_modified": "2553-08-23",
    "date_original": "2553-08-23",
    "doctype": "ประกาศ",
    "editors": [
      {
        "name": "วิชชุตา",
        "role": "ผู้จัดทำ",
        "date": "2555-01-13"
      },
      {
        "name": "ปริญสินีย์",
        "role": "ปรับปรุง",
        "date": "2556-09-16"
      }
    ],
    "tag": "ca63-2e-2553-a0054"
  }
}