{
  "pages": [
    [
      [
        "ประกาศคณะกรรมการส่งเสริมการพัฒนาฝีมือแรงงาน",
        "เรื่อง มาตรฐานฝีมือแรงงานแห่งชาติ สาขาอาชีพช่างเชื่อมทิก"
      ]
    ],
    []
  ],
  "metadata": {
    "date_backmatter": "2555-01-11",
    "date_modified": "2555-02-23",
    "date_original": "2555-02-23",
    "doctype": "ประกาศ",
    "editors": [
      {
        "name": "ปริยานุช",
        "role": "ผู้จัดทำ",
        "date": "2555-02-27"
      },
      {
        "name": "ปณตภร",
        "role": "ผู้ตรวจ",
        "date": "2555-03-07"
      }
    ],
    "tag": "ca63-2e-2555-a0004"
  }
}