{
  "pages": [
    [
      [
        "ประกาศคณะกรรมการส่งเสริมการพัฒนาฝีมือแรงงาน",
        "เรื่อง วิธีการทดสอบมาตรฐานฝีมือแรงงาน และการออกหนังสือรับรองว่าเป็นผู้ผ่านการทดสอบ",
        "มาตรฐานฝีมือแรงงานแห่งชาติ สาขาอาชีพภาคบริการ สาขาช่างเครื่องช่วยคนพิการ ระดับ ๒"
      ]
    ],
    []
  ],
  "metadata": {
    "date_backmatter": "2560-05-22",
    "date_modified": "2560-08-01",
    "date_original": "2560-08-01",
    "doctype": "ประกาศ",
    "editors": [
      {
        "name": "พรวิภา/ภวรรณตรี",
        "role": "จัดทำ",
        "date": "2560-08-04"
      }
    ],
    "tag": "ca63-2e-2560-a0065"
  }
}