{
  "pages": [
    [
      [
        "ประกาศคณะกรรมการส่งเสริมการพัฒนาฝีมือแรงงาน",
        "เรื่อง มาตรฐานฝีมือแรงงานแห่งชาติ สาขาอาชีพช่างเทคโนโลยีอุปกรณ์ช่วยเย็บอุตสาหกรรม"
      ]
    ],
    []
  ],
  "metadata": {
    "date_backmatter": "2552-09-16",
    "date_modified": "2553-01-08",
    "date_original": "2553-01-08",
    "doctype": "ประกาศ",
    "editors": [
      {
        "name": "วิชชุตา",
        "role": "ผู้จัดทำ",
        "date": "2555-01-12"
      },
      {
        "name": "ปริญสินีย์",
        "role": "ปรับปรุง",
        "date": "2556-09-16"
      }
    ],
    "tag": "ca63-2e-2553-a0006"
  }
}