{
  "pages": [
    [
      [
        "ประกาศคณะกรรมการส่งเสริมการพัฒนาฝีมือแรงงาน",
        "เรื่อง วิธีการทดสอบมาตรฐานฝีมือแรงงาน และการออกหนังสือรับรองว่าเป็นผู้ผ่านการทดสอบ",
        "มาตรฐานฝีมือแรงงานแห่งชาติ สาขาอาชีพช่างเครื่องกล สาขาพนักงานขับรถบรรทุก",
        "ระดับ ๑"
      ]
    ],
    []
  ],
  "metadata": {
    "date_backmatter": "2558-03-20",
    "date_modified": "2558-04-27",
    "date_original": "2558-04-27",
    "doctype": "ประกาศ",
    "editors": [
      {
        "name": "ปริยานุช",
        "role": "ผู้จัดทำ",
        "date": "2558-04-30"
      },
      {
        "name": "นุสรา",
        "role": "ผู้ตรวจ",
        "date": "2558-06-29"
      }
    ],
    "tag": "ca63-2e-2558-a0052"
  }
}