{
  "pages": [
    [
      [
        "ประกาศคณะกรรมการส่งเสริมการพัฒนาฝีมือแรงงาน",
        "เรื่อง หลักเกณฑ์ วิธีการ และเงื่อนไขในการให้ความเห็นชอบ",
        "รายละเอียดเกี่ยวกับการฝึกเตรียมเข้าทำงาน"
      ]
    ],
    []
  ],
  "metadata": {
    "date_backmatter": "2557-02-10",
    "date_modified": "2557-03-21",
    "date_original": "2557-03-21",
    "doctype": "ประกาศ",
    "editors": [
      {
        "name": "ปริยานุช",
        "role": "ผู้จัดทำ",
        "date": "2557-03-26"
      },
      {
        "name": "กฤษดายุทธ",
        "role": "ผู้ตรวจ",
        "date": "2557-03-26"
      }
    ],
    "tag": "ca63-2e-2557-a0012"
  }
}