{
  "pages": [
    [
      [
        "ประกาศคณะกรรมการส่งเสริมการพัฒนาฝีมือแรงงาน",
        "เรื่อง มาตรฐานฝีมือแรงงานแห่งชาติ สาขาอาชีพช่างตัดเย็บเสื้อผ้าสตรี"
      ]
    ],
    []
  ],
  "metadata": {
    "date_backmatter": "2550-02-01",
    "date_modified": "2550-03-02",
    "date_original": "2550-03-02",
    "doctype": "ประกาศ",
    "editors": [
      {
        "name": "วิชชุตา",
        "role": "ผู้จัดทำ",
        "date": "2554-12-22"
      },
      {
        "name": "ปริญสินีย์",
        "role": "ปรับปรุง",
        "date": "2556-09-12"
      }
    ],
    "tag": "ca63-2e-2550-a0004"
  }
}