{
  "pages": [
    [
      [
        "ประกาศคณะกรรมการส่งเสริมการพัฒนาฝีมือแรงงาน",
        "เรื่อง วิธีการทดสอบมาตรฐานฝีมือแรงงาน และการออกหนังสือรับรอง",
        "ว่าเป็นผู้ผ่านการทดสอบมาตรฐานฝีมือแรงงานแห่งชาติ สาขาอาชีพช่างเครื่องทำความเย็น",
        "ในบ้านและการพาณิชย์ ระดับ ๑"
      ]
    ],
    []
  ],
  "metadata": {
    "date_backmatter": "2552-10-02",
    "date_modified": "2552-12-23",
    "date_original": "2552-12-23",
    "doctype": "ประกาศ",
    "editors": [
      {
        "name": "วิชชุตา",
        "role": "ผู้จัดทำ",
        "date": "2554-12-27"
      },
      {
        "name": "ปริญสินีย์",
        "role": "ปรับปรุง",
        "date": "2556-09-13"
      }
    ],
    "tag": "ca63-2e-2552-a0064"
  }
}