{
  "pages": [
    [
      [
        "กฎกระทรวง",
        "กำหนดค่าธรรมเนียมเกี่ยวกับการรับรองความรู้ความสามารถ",
        "พ.ศ. ๒๕๕๙"
      ]
    ],
    []
  ],
  "metadata": {
    "date_backmatter": "2559-01-18",
    "date_modified": "2559-02-04",
    "date_original": "2559-02-04",
    "doctype": "กฎกระทรวง",
    "editors": [
      {
        "name": "ปุณิกา/ปริยานุช",
        "role": "จัดทำ",
        "date": "2559-02-08"
      },
      {
        "name": "ปุณิกา",
        "role": "ตรวจ",
        "date": "2559-02-08"
      }
    ],
    "tag": "ca63-2b-2559-a0003"
  }
}