{
  "pages": [
    [
      [
        "พระราชกฤษฎีกา",
        "ให้ใช้พระราชบัญญัติควบคุมการโฆษณา",
        "โดยใช้เครื่องขยายเสียง พ.ศ. ๒๔๙๓ (ฉบับที่ ๓)",
        "พ.ศ. ๒๔๙๙",
        "",
        "",
        "ภูมิพลอดุลยเดช ป.ร.",
        "ให้ไว้ ณ วันที่ ๒๐ มีนาคม พ.ศ. ๒๔๙๙",
        "เป็นปีที่ ๑๑ ในรัชกาลปัจจุบัน"
      ]
    ],
    []
  ],
  "metadata": {
    "date_header": "2499-03-20",
    "date_modified": "2499-04-03",
    "date_original": "2499-04-03",
    "doctype": "พระราชกฤษฎีกา",
    "editors": [
      {
        "name": "ปริยานุช",
        "role": "ผู้พิมพ์",
        "date": "2551-08-07"
      },
      {
        "name": "ก้องเกียรติ",
        "role": "ผู้จัดทำ",
        "date": "2551-08-07"
      },
      {
        "name": "วิภา",
        "role": "ปรับปรุง",
        "date": "2556-08-22"
      },
      {
        "name": "วิชพงษ์",
        "role": "ตรวจ",
        "date": "2556-08-23"
      }
    ],
    "tag": "a410-2a-2499-003",
    "title": "ให้ใช้พระราชบัญญัติควบคุมการโฆษณาโดยใช้เครื่องขยายเสียง พ.ศ. ๒๔๙๓ (ฉบับที่ ๓)"
  }
}