{
  "pages": [
    [
      [
        "เทศบัญญัติเทศบาลตำบลโป่ง",
        "เรื่อง การควบคุมการจำหน่ายสินค้าในที่หรือทางสาธารณะ",
        "พ.ศ. ๒๕๕๑"
      ]
    ],
    []
  ],
  "metadata": {
    "date_backmatter": "2551-12-29",
    "date_modified": "2552-08-13",
    "date_original": "2552-08-13",
    "editors": [
      {
        "name": "ปริยานุช",
        "role": "ผู้จัดทำ",
        "date": "2552-08-25"
      },
      {
        "name": "จุฑามาศ",
        "role": "ปรับปรุง",
        "date": "2558-03-13"
      }
    ],
    "tag": "a136-2k-2552-a0012"
  }
}