{
  "pages": [
    [
      [
        "ข้อบัญญัติองค์การบริหารส่วนตำบลบ้านเหล่า",
        "เรื่อง การกำจัดสิ่งปฏิกูลและมูลฝอย",
        "พ.ศ. ๒๕๕๘"
      ]
    ],
    []
  ],
  "metadata": {
    "date_backmatter": "2558-12-15",
    "date_modified": "2559-06-08",
    "date_original": "2559-06-08",
    "editors": [
      {
        "name": "ปริยานุช",
        "role": "จัดทำ",
        "date": "2559-06-10"
      },
      {
        "name": "ชวัลพร",
        "role": "ตรวจ",
        "date": "2559-06-20"
      }
    ],
    "tag": "a136-2j-2559-a0199"
  }
}