{
  "pages": [
    [
      [
        "ข้อบัญญัติองค์การบริหารส่วนตำบลดอกคำใต้",
        "เรื่อง การควบคุมควันไฟและฝุ่นละอองจากการเผา",
        "พ.ศ. ๒๕๕๖"
      ]
    ],
    []
  ],
  "metadata": {
    "date_backmatter": "2556-10-28",
    "date_modified": "2557-04-24",
    "date_original": "2557-04-24",
    "editors": [
      {
        "name": "ปริยานุช",
        "role": "ผู้จัดทำ",
        "date": "2557-04-28"
      },
      {
        "name": "จุฑามาศ",
        "role": "ผู้ตรวจ",
        "date": "2557-04-30"
      }
    ],
    "tag": "a136-2j-2557-a0066"
  }
}