{
  "pages": [
    [
      [
        "ข้อบัญญัติองค์การบริหารส่วนตำบลป่าเลา",
        "เรื่อง การกำจัดสิ่งปฏิกูลและมูลฝอย พ.ศ. ๒๕๕๗"
      ]
    ],
    []
  ],
  "metadata": {
    "date_backmatter": "2557-12-23",
    "date_modified": "2558-09-10",
    "date_original": "2558-09-10",
    "editors": [
      {
        "name": "ปริยานุช",
        "role": "ผู้จัดทำ",
        "date": "2558-09-18"
      },
      {
        "name": "ปุณิกา",
        "role": "ผู้ตรวจ",
        "date": "2558-10-08"
      }
    ],
    "tag": "a136-2j-2558-a0372"
  }
}