{
  "pages": [
    [
      [
        "ข้อบัญญัติองค์การบริหารส่วนตำบลหน้าประดู่",
        "เรื่อง การจัดการมูลฝอยติดเชื้อ",
        "พ.ศ. ๒๕๖๐"
      ]
    ],
    []
  ],
  "metadata": {
    "date_backmatter": "2560-09-18",
    "date_modified": "2561-07-16",
    "date_original": "2561-07-16",
    "editors": [
      {
        "name": "ปวันวิทย์",
        "role": "จัดทำ",
        "date": "2561-09-03"
      }
    ],
    "tag": "a136-2j-2561-a0401"
  }
}