{
  "pages": [
    [
      [
        "ประกาศกระทรวงสาธารณสุข",
        "เรื่อง แต่งตั้งเจ้าพนักงานสาธารณสุขตามพระราชบัญญัติการสาธารณสุข พ.ศ. ๒๕๓๕"
      ]
    ],
    []
  ],
  "metadata": {
    "date_backmatter": "2553-10-13",
    "date_modified": "2553-11-30",
    "date_original": "2553-11-30",
    "doctype": "ประกาศ",
    "editors": [
      {
        "name": "ปริยานุช",
        "role": "ผู้จัดทำ",
        "date": "2553-12-13"
      },
      {
        "name": "ณัฐวดี",
        "role": "ตรวจ",
        "date": "2553-12-13"
      }
    ],
    "tag": "a136-2e-2553-a0002"
  }
}