{
  "pages": [
    [
      [
        "ข้อบัญญัติองค์การบริหารส่วนตำบลบางขัน",
        "เรื่อง การควบคุมแหล่งเพาะพันธุ์ยุงลาย",
        "พ.ศ. ๒๕๕๘"
      ]
    ],
    []
  ],
  "metadata": {
    "date_backmatter": "2558-12-01",
    "date_modified": "2560-01-11",
    "date_original": "2560-01-11",
    "editors": [
      {
        "name": "วริญา/ปริยานุช",
        "role": "จัดทำ",
        "date": "2560-01-13"
      },
      {
        "name": "นุสรา",
        "role": "ตรวจ",
        "date": "2560-03-07"
      }
    ],
    "tag": "a136-2j-2560-a0021"
  }
}