{
  "pages": [
    [
      [
        "ข้อบัญญัติองค์การบริหารส่วนตำบลในเมือง",
        "เรื่อง การควบคุมกิจการที่เป็นอันตรายต่อสุขภาพ พ.ศ. ๒๕๕๑",
        "ประเภทการประกอบกิจการผลิตและสะสมปุ๋ย"
      ]
    ],
    []
  ],
  "metadata": {
    "date_backmatter": "2551-02-22",
    "date_modified": "2552-02-04",
    "date_original": "2552-02-04",
    "editors": [
      {
        "name": "วัชศักดิ์",
        "role": "ผู้จัดทำ",
        "date": "2552-02-11"
      },
      {
        "name": "จุฑามาศ",
        "role": "ปรับปรุง",
        "date": "2557-11-18"
      }
    ],
    "tag": "a136-2j-2552-a0015"
  }
}