{
  "pages": [
    [
      [
        "ข้อบัญญัติองค์การบริหารส่วนตำบลออนกลาง",
        "เรื่อง การควบคุมควันไฟและฝุ่นละอองจากการเผา",
        "พ.ศ. ๒๕๕๖"
      ]
    ],
    []
  ],
  "metadata": {
    "date_backmatter": "2556-11-21",
    "date_modified": "2557-01-23",
    "date_original": "2557-01-23",
    "editors": [
      {
        "name": "ปริยานุช",
        "role": "ผู้จัดทำ",
        "date": "2557-01-29"
      },
      {
        "name": "จุฑามาศ",
        "role": "ผู้ตรวจ",
        "date": "2557-02-19"
      }
    ],
    "tag": "a136-2j-2557-a0008"
  }
}