{
  "pages": [
    [
      [
        "ข้อบัญญัติองค์การบริหารส่วนตำบลบ้านปิน",
        "เรื่อง การควบคุมแหล่งเพาะพันธุ์ยุงลาย",
        "พ.ศ. ๒๕๕๙"
      ]
    ],
    []
  ],
  "metadata": {
    "date_backmatter": "2559-07-21",
    "date_modified": "2560-01-13",
    "date_original": "2560-01-13",
    "editors": [
      {
        "name": "วริญา/ปริยานุช",
        "role": "จัดทำ",
        "date": "2560-01-17"
      },
      {
        "name": "นุสรา",
        "role": "ตรวจ",
        "date": "2560-03-09"
      }
    ],
    "tag": "a136-2j-2560-a0052"
  }
}