{
  "pages": [
    [
      [
        "ข้อบัญญัติองค์การบริหารส่วนตำบลบ้านโพธิ์",
        "เรื่อง ตลาด",
        "พ.ศ. ๒๕๕๙"
      ]
    ],
    []
  ],
  "metadata": {
    "date_backmatter": "2559-06-15",
    "date_modified": "2560-02-17",
    "date_original": "2560-02-17",
    "editors": [
      {
        "name": "วริญา/ปริยานุช",
        "role": "จัดทำ",
        "date": "2560-02-21"
      }
    ],
    "tag": "a136-2j-2560-a0158"
  }
}