{
  "pages": [
    [
      [
        "ข้อบัญญัติองค์การบริหารส่วนตำบลห้วยยาง",
        "เรื่อง กิจการที่เป็นอันตรายต่อสุขภาพ",
        "พ.ศ. ๒๕๕๙"
      ]
    ],
    []
  ],
  "metadata": {
    "date_backmatter": "2559-07-07",
    "date_modified": "2559-12-15",
    "date_original": "2559-12-15",
    "editors": [
      {
        "name": "ปุณิกา/ปริยานุช",
        "role": "จัดทำ",
        "date": "2559-12-19"
      },
      {
        "name": "นุสรา",
        "role": "ตรวจ",
        "date": "2560-01-13"
      }
    ],
    "tag": "a136-2j-2559-a0481"
  }
}