{
  "pages": [
    [
      [
        "ข้อบัญญัติองค์การบริหารส่วนตำบลพิมลราช",
        "เรื่อง สถานที่จำหน่ายอาหารและสถานที่สะสมอาหาร",
        "พ.ศ. ๒๕๕๕"
      ]
    ],
    []
  ],
  "metadata": {
    "date_backmatter": "2555-08-09",
    "date_modified": "2556-02-08",
    "date_original": "2556-02-08",
    "editors": [
      {
        "name": "ปริยานุช",
        "role": "ผู้จัดทำ",
        "date": "2556-02-11"
      },
      {
        "name": "โชติกานต์",
        "role": "ผู้ตรวจ",
        "date": "2556-02-27"
      }
    ],
    "tag": "a136-2j-2556-a0016"
  }
}