{
  "pages": [
    [
      [
        "ข้อบังคับตำบลบ้านทาม",
        "เรื่อง การควบคุมกิจการที่เป็นอันตรายต่อสุขภาพ",
        "พ.ศ. ๒๕๔๐"
      ]
    ],
    []
  ],
  "metadata": {
    "date_backmatter": "2540-10-01",
    "date_modified": "2552-12-03",
    "date_original": "2552-12-03",
    "editors": [
      {
        "name": "ปริยานุช",
        "role": "ผู้จัดทำ",
        "date": "2552-12-14"
      },
      {
        "name": "นันท์นภัสร์",
        "role": "ตรวจ",
        "date": "2552-12-14"
      },
      {
        "name": "จุฑามาศ",
        "role": "ปรับปรุง",
        "date": "2557-10-10"
      }
    ],
    "tag": "a136-2i-2552-a0015"
  }
}