{
  "pages": [
    [
      [
        "ข้อบัญญัติองค์การบริหารส่วนตำบลขุนพิทักษ์",
        "เรื่อง กิจการที่เป็นอันตรายต่อสุขภาพ",
        "พ.ศ. ๒๕๕๘"
      ]
    ],
    []
  ],
  "metadata": {
    "date_backmatter": "2558-12-28",
    "date_modified": "2559-09-09",
    "date_original": "2559-09-09",
    "editors": [
      {
        "name": "วิศนี/ปริยานุช",
        "role": "จัดทำ",
        "date": "2559-09-23"
      }
    ],
    "tag": "a136-2j-2559-a0343"
  }
}