{
  "pages": [
    [
      [
        "ข้อบัญญัติองค์การบริหารส่วนตำบลธงชัยเหนือ",
        "เรื่อง การจำหน่ายสินค้าในที่หรือทางสาธารณะ",
        "พ.ศ. ๒๕๕๒"
      ]
    ],
    []
  ],
  "metadata": {
    "date_backmatter": "2552-10-14",
    "date_modified": "2552-12-09",
    "date_original": "2552-12-09",
    "editors": [
      {
        "name": "ปริยานุช",
        "role": "ผู้จัดทำ",
        "date": "2552-12-16"
      },
      {
        "name": "นันท์นภัสร์",
        "role": "ตรวจ",
        "date": "2552-12-16"
      },
      {
        "name": "จุฑามาศ",
        "role": "ปรับปรุง",
        "date": "2558-02-03"
      }
    ],
    "tag": "a136-2j-2552-a0261"
  }
}