{
  "pages": [
    [
      [
        "ข้อบัญญัติองค์การบริหารส่วนตำบลหนองปลิง",
        "เรื่อง กิจการที่เป็นอันตรายต่อสุขภาพ",
        "พ.ศ. ๒๕๕๘"
      ]
    ],
    []
  ],
  "metadata": {
    "date_backmatter": "2558-08-07",
    "date_modified": "2559-06-08",
    "date_original": "2559-06-08",
    "editors": [
      {
        "name": "ปริยานุช",
        "role": "จัดทำ",
        "date": "2559-06-10"
      },
      {
        "name": "ชวัลพร",
        "role": "ตรวจ",
        "date": "2559-06-20"
      }
    ],
    "tag": "a136-2j-2559-a0192"
  }
}