{
  "pages": [
    [
      [
        "ข้อบัญญัติองค์การบริหารส่วนตำบลบ้านแพ้ว",
        "เรื่อง การจัดการสิ่งปฏิกูลและมูลฝอย",
        "พ.ศ. ๒๕๕๘"
      ]
    ],
    []
  ],
  "metadata": {
    "date_backmatter": "2559-11-30",
    "date_modified": "2560-01-23",
    "date_original": "2560-01-23",
    "editors": [
      {
        "name": "พรวิภา/ปริยานุช",
        "role": "จัดทำ",
        "date": "2560-01-27"
      }
    ],
    "tag": "a136-2j-2560-a0123"
  }
}