{
  "pages": [
    [
      [
        "กฎกระทรวง",
        "ว่าด้วยการกำจัดมูลฝอยติดเชื้อ",
        "พ.ศ. ๒๕๔๕"
      ]
    ],
    []
  ],
  "metadata": {
    "date_backmatter": "2545-07-25",
    "date_modified": "2545-09-05",
    "date_original": "2545-09-05",
    "doctype": "กฎกระทรวง",
    "editors": [
      {
        "name": "จารุวรรณ",
        "role": "แก้ไข",
        "date": "2545-10-24"
      },
      {
        "name": "จุฑามาศ",
        "role": "ปรับปรุง",
        "date": "2557-10-03"
      }
    ],
    "tag": "a136-2b-2545-a0003"
  }
}