{
  "pages": [
    [
      [
        "ข้อบัญญัติองค์การบริหารส่วนตำบลวังตะเคียน",
        "เรื่อง การจัดการสิ่งปฏิกูลและมูลฝอย",
        "พ.ศ. ๒๕๕๓"
      ]
    ],
    []
  ],
  "metadata": {
    "date_backmatter": "2553-03-10",
    "date_modified": "2553-05-11",
    "date_original": "2553-05-11",
    "editors": [
      {
        "name": "ปริยานุช",
        "role": "ผู้จัดทำ",
        "date": "2553-06-01"
      },
      {
        "name": "นันท์นภัสร์",
        "role": "ตรวจ",
        "date": "2553-06-01"
      },
      {
        "name": "จุฑามาศ",
        "role": "ปรับปรุง",
        "date": "2558-02-06"
      }
    ],
    "tag": "a136-2j-2553-a0027"
  }
}