{
  "pages": [
    [
      [
        "ข้อบัญญัติองค์การบริหารส่วนตำบลบ้านเกาะ",
        "เรื่อง สถานที่จำหน่ายอาหารและสถานที่สะสมอาหาร พ.ศ. ๒๕๕๘"
      ]
    ],
    []
  ],
  "metadata": {
    "date_backmatter": "2558-07-29",
    "date_modified": "2558-09-24",
    "date_original": "2558-09-24",
    "editors": [
      {
        "name": "ปริยานุช",
        "role": "จัดทำ",
        "date": "2558-09-29"
      },
      {
        "name": "วริญา",
        "role": "ตรวจ",
        "date": "2558-09-29"
      }
    ],
    "tag": "a136-2j-2558-a0440"
  }
}