{
  "pages": [
    [
      [
        "ข้อบัญญัติองค์การบริหารส่วนตำบลกกแรต",
        "เรื่อง การจัดการสิ่งปฏิกูลและมูลฝอย",
        "พ.ศ. ๒๕๕๙"
      ]
    ],
    []
  ],
  "metadata": {
    "date_backmatter": "2559-07-25",
    "date_modified": "2560-05-09",
    "date_original": "2560-05-09",
    "editors": [
      {
        "name": "ภวรรณตรี",
        "role": "จัดทำ",
        "date": "2560-05-16"
      },
      {
        "name": "พรวิภา",
        "role": "ตรวจ",
        "date": "2560-06-09"
      }
    ],
    "tag": "a136-2j-2560-a0363"
  }
}