{
  "pages": [
    [
      [
        "ข้อบัญญัติองค์การบริหารส่วนตำบลน้ำพุ",
        "เรื่อง การควบคุมกิจการที่เป็นอันตรายต่อสุขภาพ",
        "พ.ศ. ๒๕๖๐"
      ]
    ],
    []
  ],
  "metadata": {
    "date_backmatter": "2560-10-09",
    "date_modified": "2561-09-25",
    "date_original": "2561-09-25",
    "editors": [
      {
        "name": "พัชรภรณ์",
        "role": "จัดทำ",
        "date": "2562-02-22"
      }
    ],
    "tag": "a136-2j-2561-a0530"
  }
}