{
  "pages": [
    [
      [
        "ข้อบัญญัติองค์การบริหารส่วนตำบลท่าตาล",
        "เรื่อง กิจการที่เป็นอันตรายต่อสุขภาพ",
        "พ.ศ. ๒๕๕๙"
      ]
    ],
    []
  ],
  "metadata": {
    "date_backmatter": "2560-01-12",
    "date_modified": "2560-08-18",
    "date_original": "2560-08-18",
    "editors": [
      {
        "name": "ภวรรณตรี",
        "role": "จัดทำ",
        "date": "2560-08-22"
      },
      {
        "name": "พิมพ์มาดา",
        "role": "ตรวจ",
        "date": "2560-08-22"
      }
    ],
    "tag": "a136-2j-2560-a0556"
  }
}