{
  "pages": [
    [
      [
        "ข้อบัญญัติองค์การบริหารส่วนตำบลชะแล",
        "เรื่อง การกำจัดสิ่งปฏิกูลและมูลฝอย",
        "พ.ศ. ๒๕๕๕"
      ]
    ],
    []
  ],
  "metadata": {
    "date_backmatter": "2555-07-31",
    "date_modified": "2555-10-05",
    "date_original": "2555-10-05",
    "editors": [
      {
        "name": "ปริยานุช",
        "role": "ผู้จัดทำ",
        "date": "2555-10-10"
      },
      {
        "name": "ชาญ",
        "role": "ผู้ตรวจ",
        "date": "2555-10-17"
      }
    ],
    "tag": "a136-2j-2555-a0113"
  }
}