{
  "pages": [
    [
      [
        "ข้อบัญญัติองค์การบริหารส่วนตำบลบ้านผือ",
        "เรื่อง การจำหน่ายสินค้าในที่หรือทางสาธารณะ",
        "พ.ศ. ๒๕๕๙"
      ]
    ],
    []
  ],
  "metadata": {
    "date_backmatter": "2559-06-29",
    "date_modified": "2560-11-23",
    "date_original": "2560-11-23",
    "editors": [
      {
        "name": "ภวรรณตรี",
        "role": "จัดทำ",
        "date": "2560-11-29"
      },
      {
        "name": "ปวันวิทย์",
        "role": "ตรวจ",
        "date": "2560-12-26"
      }
    ],
    "tag": "a136-2j-2560-a0805"
  }
}