{
  "pages": [
    [
      [
        "ข้อบัญญัติองค์การบริหารส่วนตำบลโพธิ์สามต้น",
        "เรื่อง การจำหน่ายสินค้าในที่หรือทางสาธารณะ",
        "พ.ศ. ๒๕๕๒"
      ]
    ],
    []
  ],
  "metadata": {
    "date_backmatter": "2552-06-03",
    "date_modified": "2553-01-20",
    "date_original": "2553-01-20",
    "editors": [
      {
        "name": "ปริยานุช",
        "role": "ผู้จัดทำ",
        "date": "2553-01-28"
      },
      {
        "name": "นันท์นภัสร์",
        "role": "ตรวจ",
        "date": "2553-01-28"
      },
      {
        "name": "จุฑามาศ",
        "role": "ปรับปรุง",
        "date": "2558-02-05"
      }
    ],
    "tag": "a136-2j-2553-a0016"
  }
}