{
  "pages": [
    [
      [
        "ข้อบัญญัติองค์การบริหารส่วนตำบลสนามคลี",
        "เรื่อง ควบคุมกิจการเผาถ่านหรือสะสมถ่าน",
        "พ.ศ. ๒๕๖๑"
      ]
    ],
    []
  ],
  "metadata": {
    "date_backmatter": "2561-03-12",
    "date_modified": "2561-07-16",
    "date_original": "2561-07-16",
    "editors": [
      {
        "name": "ปวันวิทย์",
        "role": "จัดทำ",
        "date": "2561-09-03"
      }
    ],
    "tag": "a136-2j-2561-a0407"
  }
}