{
  "pages": [
    [
      [
        "ข้อบัญญัติองค์การบริหารส่วนตำบลพลูตาหลวง",
        "เรื่อง การควบคุมแหล่งเพาะพันธุ์ยุงลายเพื่อป้องกันโรคไข้เลือดออก",
        "พ.ศ. ๒๕๕๒"
      ]
    ],
    []
  ],
  "metadata": {
    "date_backmatter": "2552-02-25",
    "date_modified": "2552-10-08",
    "date_original": "2552-10-08",
    "editors": [
      {
        "name": "ปริยานุช",
        "role": "ผู้จัดทำ",
        "date": "2552-10-14"
      },
      {
        "name": "นันท์นภัสร์",
        "role": "ตรวจ",
        "date": "2552-10-14"
      },
      {
        "name": "จุฑามาศ",
        "role": "ปรับปรุง",
        "date": "2558-01-14"
      }
    ],
    "tag": "a136-2j-2552-a0193"
  }
}