{
  "pages": [
    [
      [
        "ข้อบัญญัติองค์การบริหารส่วนตำบลบ้านควน",
        "เรื่อง การควบคุมการเลี้ยงหรือปล่อยสัตว์",
        "พ.ศ. ๒๕๕๘"
      ]
    ],
    []
  ],
  "metadata": {
    "date_backmatter": "2559-01-07",
    "date_modified": "2559-07-27",
    "date_original": "2559-07-27",
    "editors": [
      {
        "name": "ปุณิกา/ปริยานุช",
        "role": "จัดทำ",
        "date": "2559-08-01"
      },
      {
        "name": "นุสรา",
        "role": "ตรวจ",
        "date": "2559-11-07"
      }
    ],
    "tag": "a136-2j-2559-a0260"
  }
}