{
  "pages": [
    [
      [
        "ข้อบัญญัติกรุงเทพมหานคร",
        "เรื่อง ค่าธรรมเนียมสำหรับการดำเนินกิจการตามกฎหมายว่าด้วยการสาธารณสุข (ฉบับที่ ๒)",
        "พ.ศ. ๒๕๔๘"
      ]
    ],
    []
  ],
  "metadata": {
    "date_backmatter": "2548-05-24",
    "date_modified": "2548-07-27",
    "date_original": "2548-07-27",
    "editors": [
      {
        "name": "ชัชสรัญ",
        "role": "ผู้จัดทำ",
        "date": "2548-08-16"
      },
      {
        "name": "จุฑามาศ",
        "role": "ปรับปรุง",
        "date": "2557-10-15"
      }
    ],
    "tag": "a136-2j-2548-a0003"
  }
}