{
  "pages": [
    [
      [
        "ข้อบัญญัติองค์การบริหารส่วนตำบลถ้ำสิงห์",
        "เรื่อง กิจการที่เป็นอันตรายต่อสุขภาพ",
        "พ.ศ. ๒๕๕๒"
      ]
    ],
    []
  ],
  "metadata": {
    "date_backmatter": "2552-01-28",
    "date_modified": "2552-10-01",
    "date_original": "2552-10-01",
    "editors": [
      {
        "name": "ปริยานุช",
        "role": "ผู้จัดทำ",
        "date": "2552-10-08"
      },
      {
        "name": "นันท์นภัสร์",
        "role": "ตรวจ",
        "date": "2552-10-18"
      },
      {
        "name": "จุฑามาศ",
        "role": "ปรับปรุง",
        "date": "2558-01-08"
      }
    ],
    "tag": "a136-2j-2552-a0179"
  }
}