{
  "pages": [
    [
      [
        "ข้อบัญญัติองค์การบริหารส่วนตำบลบางขันหมาก",
        "เรื่อง การควบคุมแหล่งเพาะพันธุ์ยุงลาย พ.ศ. ๒๕๕๘"
      ]
    ],
    []
  ],
  "metadata": {
    "date_backmatter": "2558-03-18",
    "date_modified": "2558-10-30",
    "date_original": "2558-10-30",
    "editors": [
      {
        "name": "ปริยานุช",
        "role": "จัดทำ",
        "date": "2558-11-03"
      },
      {
        "name": "ปริญสินีย์",
        "role": "ตรวจ",
        "date": "2558-11-30"
      }
    ],
    "tag": "a136-2j-2558-a0564"
  }
}