{
  "pages": [
    [
      [
        "ข้อบัญญัติองค์การบริหารส่วนตำบลบ้านเพชร",
        "เรื่อง กิจการที่เป็นอันตรายต่อสุขภาพ",
        "พ.ศ. ๒๕๕๙"
      ]
    ],
    []
  ],
  "metadata": {
    "date_backmatter": "2559-06-29",
    "date_modified": "2560-06-14",
    "date_original": "2560-06-14",
    "editors": [
      {
        "name": "อัญชลี",
        "role": "จัดทำ",
        "date": "2560-06-15"
      },
      {
        "name": "พิมพ์มาดา",
        "role": "ตรวจ",
        "date": "2560-07-25"
      }
    ],
    "tag": "a136-2j-2560-a0421"
  }
}