{
  "pages": [
    [
      [
        "ข้อบัญญัติองค์การบริหารส่วนตำบลทรัพย์อนันต์",
        "เรื่อง เหตุรำคาญ พ.ศ. ๒๕๕๗"
      ]
    ],
    []
  ],
  "metadata": {
    "date_backmatter": "2557-09-19",
    "date_modified": "2558-02-27",
    "date_original": "2558-02-27",
    "editors": [
      {
        "name": "ปริยานุช",
        "role": "ผู้จัดทำ",
        "date": "2558-03-03"
      },
      {
        "name": "วิศนี",
        "role": "ผู้ตรวจ",
        "date": "2558-03-25"
      }
    ],
    "tag": "a136-2j-2558-a0090"
  }
}