{
  "pages": [
    [
      [
        "ข้อบัญญัติองค์การบริหารส่วนตำบลท่าทราย",
        "เรื่อง การจัดการสิ่งปฏิกูลและมูลฝอย",
        "พ.ศ. ๒๕๖๐"
      ]
    ],
    []
  ],
  "metadata": {
    "date_backmatter": "2561-03-28",
    "date_modified": "2561-07-04",
    "date_original": "2561-07-04",
    "editors": [
      {
        "name": "พัชรภรณ์",
        "role": "จัดทำ",
        "date": "2561-11-27"
      }
    ],
    "tag": "a136-2j-2561-a0361"
  }
}