{
  "pages": [
    [
      [
        "ข้อบัญญัติองค์การบริหารส่วนตำบลคลองประเวศ",
        "เรื่อง ตลาด",
        "พ.ศ. ๒๕๔๗"
      ]
    ],
    []
  ],
  "metadata": {
    "date_backmatter": "2547-02-24",
    "date_modified": "2552-04-09",
    "date_original": "2552-04-09",
    "editors": [
      {
        "name": "ปริยานุช",
        "role": "ผู้จัดทำ",
        "date": "2552-04-28"
      },
      {
        "name": "จุฑามาศ",
        "role": "ปรับปรุง",
        "date": "2557-12-22"
      }
    ],
    "tag": "a136-2j-2552-a0095"
  }
}