{
  "pages": [
    [
      [
        "ข้อบัญญัติองค์การบริหารส่วนตำบลหินดาด",
        "เรื่อง การจัดการสิ่งปฏิกูลและมูลฝอย",
        "พ.ศ. ๒๕๖๑"
      ]
    ],
    []
  ],
  "metadata": {
    "date_backmatter": "2561-04-23",
    "date_modified": "2561-08-31",
    "date_original": "2561-08-31",
    "editors": [
      {
        "name": "ปวันวิทย์",
        "role": "จัดทำ",
        "date": "2561-10-01"
      }
    ],
    "tag": "a136-2j-2561-a0493"
  }
}