{
  "pages": [
    [
      [
        "ข้อบัญญัติองค์การบริหารส่วนตำบลชัยนารายณ์",
        "เรื่อง การควบคุมกิจการที่เป็นอันตรายต่อสุขภาพ",
        "พ.ศ. ๒๕๕๘"
      ]
    ],
    []
  ],
  "metadata": {
    "date_backmatter": "2558-08-31",
    "date_modified": "2558-12-17",
    "date_original": "2558-12-17",
    "editors": [
      {
        "name": "ปริยานุช",
        "role": "จัดทำ",
        "date": "2558-12-23"
      },
      {
        "name": "กัญฑรัตน์",
        "role": "ตรวจ",
        "date": "2558-12-23"
      }
    ],
    "tag": "a136-2j-2558-a0709"
  }
}