{
  "pages": [
    [
      [
        "ข้อบัญญัติองค์การบริหารส่วนตำบลวังประจัน",
        "เรื่อง การจำหน่ายสินค้าในที่หรือทางสาธารณะ",
        "พ.ศ. ๒๕๕๙"
      ]
    ],
    []
  ],
  "metadata": {
    "date_backmatter": "2559-06-13",
    "date_modified": "2560-04-11",
    "date_original": "2560-04-11",
    "editors": [
      {
        "name": "ภวรรณตรี",
        "role": "จัดทำ",
        "date": "2560-04-18"
      },
      {
        "name": "พิมพ์มาดา",
        "role": "ตรวจ",
        "date": "2560-05-08"
      }
    ],
    "tag": "a136-2j-2560-a0282"
  }
}