{
  "pages": [
    [
      [
        "ข้อบัญญัติองค์การบริหารส่วนตำบลปลายโพงพาง",
        "เรื่อง การควบคุมกิจการที่เป็นอันตรายต่อสุขภาพ",
        "พ.ศ. ๒๕๖๐"
      ]
    ],
    []
  ],
  "metadata": {
    "date_backmatter": "2560-03-16",
    "date_modified": "2561-03-23",
    "date_original": "2561-03-23",
    "editors": [
      {
        "name": "ภูมิกิติ",
        "role": "จัดทำ",
        "date": "2561-04-19"
      }
    ],
    "tag": "a136-2j-2561-a0131"
  }
}