{
  "pages": [
    [
      [
        "ข้อบัญญัติองค์การบริหารส่วนตำบลทุ่งนนทรี",
        "เรื่อง การควบคุมกิจการที่เป็นอันตรายต่อสุขภาพ",
        "พ.ศ. ๒๕๔๙"
      ]
    ],
    []
  ],
  "metadata": {
    "date_backmatter": "2549-12-29",
    "date_modified": "2552-10-29",
    "date_original": "2552-10-29",
    "editors": [
      {
        "name": "ปริยานุช",
        "role": "ผู้จัดทำ",
        "date": "2552-11-02"
      },
      {
        "name": "นันท์นภัสร์",
        "role": "ตรวจ",
        "date": "2552-11-02"
      },
      {
        "name": "โชติกานต์",
        "role": "ปรับปรุง",
        "date": "2556-08-23"
      }
    ],
    "tag": "a136-2j-2552-a0227"
  }
}