{
  "pages": [
    [
      [
        "ข้อบัญญัติองค์การบริหารส่วนตำบลหนองปลิง",
        "เรื่อง ตลาด",
        "พ.ศ. ๒๕๕๘"
      ]
    ],
    []
  ],
  "metadata": {
    "date_backmatter": "2558-02-06",
    "date_modified": "2558-10-21",
    "date_original": "2558-10-21",
    "editors": [
      {
        "name": "ปริยานุช",
        "role": "จัดทำ",
        "date": "2558-10-22"
      },
      {
        "name": "วริญา",
        "role": "ตรวจ",
        "date": "2558-10-22"
      }
    ],
    "tag": "a136-2j-2558-a0506"
  }
}