{
  "pages": [
    [
      [
        "ข้อบัญญัติองค์การบริหารส่วนตำบลห้วยปูลิง",
        "เรื่อง การควบคุมการเลี้ยงหรือปล่อยสัตว์",
        "พ.ศ. ๒๕๖๐"
      ]
    ],
    []
  ],
  "metadata": {
    "date_backmatter": "2560-02-27",
    "date_modified": "2560-07-21",
    "date_original": "2560-07-21",
    "editors": [
      {
        "name": "ภวรรณตรี",
        "role": "จัดทำ",
        "date": "2560-07-27"
      },
      {
        "name": "ชวัลพร",
        "role": "ตรวจ",
        "date": "2560-07-27"
      }
    ],
    "tag": "a136-2j-2560-a0508"
  }
}