{
  "pages": [
    [
      [
        "ข้อบัญญัติองค์การบริหารส่วนตำบลเสาหิน",
        "เรื่อง การกำจัดสิ่งปฏิกูลและมูลฝอย",
        "พ.ศ. ๒๕๕๘"
      ]
    ],
    []
  ],
  "metadata": {
    "date_backmatter": "2558-07-08",
    "date_modified": "2558-12-30",
    "date_original": "2558-12-30",
    "editors": [
      {
        "name": "ปุณิกา/ปริยานุช",
        "role": "จัดทำ",
        "date": "2559-01-07"
      }
    ],
    "tag": "a136-2j-2558-a0781"
  }
}