{
  "pages": [
    [
      [
        "ข้อบัญญัติองค์การบริหารส่วนตำบลท้ายน้ำ",
        "เรื่อง การควบคุมกิจการสีข้าวด้วยเครื่องจักร พ.ศ. ๒๕๕๕"
      ]
    ],
    []
  ],
  "metadata": {
    "date_backmatter": "2555-08-31",
    "date_modified": "2556-03-11",
    "date_original": "2556-03-11",
    "editors": [
      {
        "name": "ปริยานุช",
        "role": "ผู้จัดทำ",
        "date": "2556-03-14"
      },
      {
        "name": "อุษมล",
        "role": "ผู้ตรวจ",
        "date": "2556-03-18"
      }
    ],
    "tag": "a136-2j-2556-a0027"
  }
}