{
  "pages": [
    [
      [
        "ข้อบัญญัติองค์การบริหารส่วนตำบลไทรย้อย",
        "เรื่อง การเก็บ ขน และกำจัดสิ่งปฏิกูลหรือมูลฝอย (ฉบับที่ ๒)",
        "พ.ศ. ๒๕๕๘"
      ]
    ],
    []
  ],
  "metadata": {
    "date_backmatter": "2558-05-22",
    "date_modified": "2559-05-04",
    "date_original": "2559-05-04",
    "editors": [
      {
        "name": "ชวัลพร/ปริยานุช",
        "role": "จัดทำ",
        "date": "2559-05-10"
      },
      {
        "name": "นุสรา",
        "role": "ตรวจ",
        "date": "2559-06-09"
      }
    ],
    "tag": "a136-2j-2559-a0144"
  }
}