{
  "pages": [
    [
      [
        "ข้อบัญญัติองค์การบริหารส่วนตำบลแก่งโสภา",
        "เรื่อง กิจการที่เป็นอันตรายต่อสุขภาพ พ.ศ. ๒๕๕๘"
      ]
    ],
    []
  ],
  "metadata": {
    "date_backmatter": "2558-08-25",
    "date_modified": "2558-10-22",
    "date_original": "2558-10-22",
    "editors": [
      {
        "name": "ปริยานุช",
        "role": "จัดทำ",
        "date": "2558-10-26"
      },
      {
        "name": "วริญา",
        "role": "ตรวจ",
        "date": "2558-10-26"
      }
    ],
    "tag": "a136-2j-2558-a0522"
  }
}