{
  "pages": [
    [
      [
        "ข้อบัญญัติองค์การบริหารส่วนตำบลท่าโรงช้าง",
        "เรื่อง ตลาด",
        "พ.ศ. ๒๕๕๘"
      ]
    ],
    []
  ],
  "metadata": {
    "date_backmatter": "2558-05-01",
    "date_modified": "2558-11-09",
    "date_original": "2558-11-09",
    "editors": [
      {
        "name": "ปริยานุช",
        "role": "จัดทำ",
        "date": "2558-11-27"
      },
      {
        "name": "ปุณิกา",
        "role": "ตรวจ",
        "date": "2558-11-27"
      }
    ],
    "tag": "a136-2j-2558-a0585"
  }
}