{
  "pages": [
    [
      [
        "ข้อบังคับตำบลคลองประเวศ",
        "เรื่อง ควบคุมกิจการที่เป็นอันตรายต่อสุขภาพ",
        "พุทธศักราช ๒๕๔๑"
      ]
    ],
    []
  ],
  "metadata": {
    "date_backmatter": "2540-11-01",
    "date_modified": "2552-04-09",
    "date_original": "2552-04-09",
    "editors": [
      {
        "name": "ปริยานุช",
        "role": "ผู้จัดทำ",
        "date": "2552-04-28"
      },
      {
        "name": "จุฑามาศ",
        "role": "ปรับปรุง",
        "date": "2557-10-10"
      }
    ],
    "tag": "a136-2i-2552-a0010"
  }
}