{
  "pages": [
    [
      [
        "ข้อบัญญัติองค์การบริหารส่วนตำบลนาจักร",
        "เรื่อง การควบคุมควันไฟและฝุ่นละอองจากการเผา",
        "พ.ศ. ๒๕๕๔"
      ]
    ],
    []
  ],
  "metadata": {
    "date_backmatter": "2554-08-01",
    "date_modified": "2555-08-30",
    "date_original": "2555-08-30",
    "editors": [
      {
        "name": "ปริยานุช",
        "role": "ผู้จัดทำ",
        "date": "2555-09-04"
      },
      {
        "name": "ปณตภร",
        "role": "ผู้ตรวจ",
        "date": "2555-09-14"
      }
    ],
    "tag": "a136-2j-2555-a0106"
  }
}