{
  "pages": [
    [
      [
        "ข้อบัญญัติองค์การบริหารส่วนตำบลการะเกด",
        "เรื่อง สถานที่จำหน่ายอาหารและสถานที่สะสมอาหาร",
        "พ.ศ. ๒๕๕๒"
      ]
    ],
    []
  ],
  "metadata": {
    "date_backmatter": "2552-03-12",
    "date_modified": "2553-01-28",
    "date_original": "2553-01-28",
    "editors": [
      {
        "name": "ปริยานุช",
        "role": "ผู้จัดทำ",
        "date": "2553-02-02"
      },
      {
        "name": "นันท์นภัสร์",
        "role": "ตรวจ",
        "date": "2553-02-02"
      },
      {
        "name": "จุฑามาศ",
        "role": "ปรับปรุง",
        "date": "2558-02-06"
      }
    ],
    "tag": "a136-2j-2553-a0021"
  }
}