{
  "pages": [
    [
      [
        "ข้อบัญญัติองค์การบริหารส่วนตำบลอุดมพร",
        "เรื่อง การจัดการสิ่งปฏิกูล",
        "พ.ศ. ๒๕๕๙"
      ]
    ],
    []
  ],
  "metadata": {
    "date_backmatter": "2559-06-10",
    "date_modified": "2560-06-26",
    "date_original": "2560-06-26",
    "editors": [
      {
        "name": "ปุณิกา/อัญชลี",
        "role": "จัดทำ",
        "date": "2560-06-27"
      },
      {
        "name": "นุสรา",
        "role": "ตรวจ",
        "date": "2560-09-09"
      }
    ],
    "tag": "a136-2j-2560-a0452"
  }
}