{
  "pages": [
    [
      [
        "ข้อบัญญัติองค์การบริหารส่วนตำบลหน้าสตน",
        "เรื่อง ท่าเทียบเรือองค์การบริหารส่วนตำบลหน้าสตน",
        "พ.ศ. ๒๕๕๔"
      ]
    ],
    []
  ],
  "metadata": {
    "date_backmatter": "2554-04-25",
    "date_modified": "2555-04-11",
    "date_original": "2555-04-11",
    "editors": [
      {
        "name": "ปริยานุช",
        "role": "ผู้จัดทำ",
        "date": "2555-04-19"
      },
      {
        "name": "ณัฐพร",
        "role": "ผู้ตรวจ",
        "date": "2555-04-19"
      }
    ],
    "tag": "a136-2j-2555-a0043"
  }
}