{
  "pages": [
    [
      [
        "ข้อบัญญัติองค์การบริหารส่วนตำบลกาเกาะ",
        "เรื่อง กิจการที่เป็นอันตรายต่อสุขภาพ",
        "พ.ศ. ๒๕๕๘"
      ]
    ],
    []
  ],
  "metadata": {
    "date_backmatter": "2558-10-01",
    "date_modified": "2559-06-16",
    "date_original": "2559-06-16",
    "editors": [
      {
        "name": "วริญา/ปริยานุช",
        "role": "จัดทำ",
        "date": "2559-06-22"
      }
    ],
    "tag": "a136-2j-2559-a0212"
  }
}