{
  "pages": [
    [
      [
        "เทศบัญญัติเทศบาลตำบลขัวมุง",
        "เรื่อง การควบคุมควันไฟและฝุ่นละอองจากการเผา พ.ศ. ๒๕๕๔"
      ]
    ],
    []
  ],
  "metadata": {
    "date_backmatter": "2554-07-22",
    "date_modified": "2554-12-22",
    "date_original": "2554-12-22",
    "editors": [
      {
        "name": "ปริยานุช",
        "role": "ผู้จัดทำ",
        "date": "2554-12-27"
      },
      {
        "name": "ปณตภร",
        "role": "ผู้ตรวจ",
        "date": "2554-12-28"
      }
    ],
    "tag": "a136-2k-2554-a0001"
  }
}