{
  "pages": [
    [
      [
        "ข้อบัญญัติองค์การบริหารส่วนตำบลท่าอุแท",
        "เรื่อง การกำจัดสิ่งปฏิกูลและขยะมูลฝอย",
        "พ.ศ. ๒๕๕๗"
      ]
    ],
    []
  ],
  "metadata": {
    "date_backmatter": "2557-07-29",
    "date_modified": "2558-02-27",
    "date_original": "2558-02-27",
    "editors": [
      {
        "name": "ปริยานุช",
        "role": "ผู้จัดทำ",
        "date": "2558-03-03"
      },
      {
        "name": "วิศนี",
        "role": "ผู้ตรวจ",
        "date": "2558-03-18"
      }
    ],
    "tag": "a136-2j-2558-a0082"
  }
}