{
  "pages": [
    [
      [
        "ข้อบัญญัติองค์การบริหารส่วนตำบลกระแสบน",
        "เรื่อง กิจการที่เป็นอันตรายต่อสุขภาพ",
        "พ.ศ. ๒๕๕๙"
      ]
    ],
    []
  ],
  "metadata": {
    "date_backmatter": "2559-06-27",
    "date_modified": "2559-11-03",
    "date_original": "2559-11-03",
    "editors": [
      {
        "name": "วริญา/ปริยานุช",
        "role": "จัดทำ",
        "date": "2559-11-11"
      }
    ],
    "tag": "a136-2j-2559-a0410"
  }
}