{
  "pages": [
    [
      [
        "ข้อบัญญัติองค์การบริหารส่วนตำบลบึงคำพร้อย",
        "เรื่อง การกำจัดสิ่งปฏิกูลและมูลฝอย",
        "พ.ศ. ๒๕๕๐"
      ]
    ],
    []
  ],
  "metadata": {
    "date_backmatter": "2550-09-04",
    "date_modified": "2552-03-26",
    "date_original": "2552-03-26",
    "editors": [
      {
        "name": "ปริยานุช",
        "role": "ผู้จัดทำ",
        "date": "2552-04-03"
      },
      {
        "name": "จุฑามาศ",
        "role": "ปรับปรุง",
        "date": "2557-12-18"
      }
    ],
    "tag": "a136-2j-2552-a0075"
  }
}