{
  "pages": [
    [
      [
        "ข้อบัญญัติองค์การบริหารส่วนตำบลบ้านปรก",
        "เรื่อง สถานที่จำหน่ายอาหารและสถานที่สะสมอาหาร",
        "พ.ศ. ๒๕๕๙"
      ]
    ],
    []
  ],
  "metadata": {
    "date_backmatter": "2559-08-31",
    "date_modified": "2560-01-12",
    "date_original": "2560-01-12",
    "editors": [
      {
        "name": "วริญา/ปริยานุช",
        "role": "จัดทำ",
        "date": "2560-01-16"
      },
      {
        "name": "นุสรา",
        "role": "ตรวจ",
        "date": "2560-03-08"
      }
    ],
    "tag": "a136-2j-2560-a0039"
  }
}