{
  "pages": [
    [
      [
        "ข้อบัญญัติองค์การบริหารส่วนตำบลคลองขลุง",
        "เรื่อง สถานที่จำหน่ายอาหารและสถานที่สะสมอาหาร",
        "พ.ศ. ๒๕๕๙"
      ]
    ],
    []
  ],
  "metadata": {
    "date_backmatter": "2559-10-20",
    "date_modified": "2560-09-29",
    "date_original": "2560-09-29",
    "editors": [
      {
        "name": "ภวรรณตรี",
        "role": "จัดทำ",
        "date": "2560-10-12"
      },
      {
        "name": "ปุณิกา",
        "role": "ตรวจ",
        "date": "2560-10-12"
      }
    ],
    "tag": "a136-2j-2560-a0730"
  }
}