{
  "pages": [
    [
      [
        "ข้อบัญญัติองค์การบริหารส่วนตำบลห้วยเกตุ",
        "เรื่อง กิจการที่เป็นอันตรายต่อสุขภาพ",
        "พ.ศ. ๒๕๕๔"
      ]
    ],
    []
  ],
  "metadata": {
    "date_backmatter": "2555-09-15",
    "date_modified": "2555-11-01",
    "date_original": "2555-11-01",
    "editors": [
      {
        "name": "ปริยานุช",
        "role": "ผู้จัดทำ",
        "date": "2555-11-05"
      },
      {
        "name": "ปณตภร",
        "role": "ผู้ตรวจ",
        "date": "2555-11-20"
      }
    ],
    "tag": "a136-2j-2555-a0126"
  }
}