{
  "pages": [
    [
      [
        "ข้อบัญญัติองค์การบริหารส่วนตำบลบางแก้ว",
        "เรื่อง สถานที่จำหน่ายอาหารและสถานที่สะสมอาหาร",
        "พ.ศ. ๒๕๕๘"
      ]
    ],
    []
  ],
  "metadata": {
    "date_backmatter": "2558-09-21",
    "date_modified": "2559-02-08",
    "date_original": "2559-02-08",
    "editors": [
      {
        "name": "วิศนี/ปริยานุช",
        "role": "จัดทำ",
        "date": "2559-02-23"
      },
      {
        "name": "นุสรา",
        "role": "ตรวจ",
        "date": "2559-05-02"
      }
    ],
    "tag": "a136-2j-2559-a0036"
  }
}