{
  "pages": [
    [
      [
        "ข้อบัญญัติองค์การบริหารส่วนตำบลเขาย้อย",
        "เรื่อง การติดตั้งบ่อดักไขมันบำบัดน้ำเสียในอาคาร",
        "พ.ศ. ๒๕๕๓"
      ]
    ],
    []
  ],
  "metadata": {
    "date_backmatter": "2553-03-15",
    "date_modified": "2555-11-01",
    "date_original": "2555-11-01",
    "editors": [
      {
        "name": "ปริยานุช",
        "role": "ผู้จัดทำ",
        "date": "2555-11-05"
      },
      {
        "name": "ปณตภร",
        "role": "ผู้ตรวจ",
        "date": "2555-11-19"
      }
    ],
    "tag": "a136-2j-2555-a0121"
  }
}