{
  "pages": [
    [
      [
        "ข้อบัญญัติองค์การบริหารส่วนตำบลบ้านเจียง",
        "เรื่อง การควบคุมแหล่งเพาะพันธุ์ยุงลายเพื่อป้องกันโรคไข้เลือดออก",
        "พ.ศ. ๒๕๕๖"
      ]
    ],
    []
  ],
  "metadata": {
    "date_backmatter": "2556-09-30",
    "date_modified": "2556-12-23",
    "date_original": "2556-12-23",
    "editors": [
      {
        "name": "ปริยานุช",
        "role": "ผู้จัดทำ",
        "date": "2557-05-06"
      },
      {
        "name": "เอกฤทธิ์",
        "role": "ผู้ตรวจ",
        "date": "2557-05-08"
      }
    ],
    "tag": "a136-2j-2556-a0148"
  }
}