{
  "pages": [
    [
      [
        "ข้อบัญญัติองค์การบริหารส่วนตำบลเทพา",
        "เรื่อง การกำจัดสิ่งปฏิกูลและมูลฝอย พ.ศ. ๒๕๕๗"
      ]
    ],
    []
  ],
  "metadata": {
    "date_backmatter": "2557-08-04",
    "date_modified": "2557-12-17",
    "date_original": "2557-12-17",
    "editors": [
      {
        "name": "ปริยานุช",
        "role": "ผู้จัดทำ",
        "date": "2558-01-05"
      },
      {
        "name": "ภีราพร",
        "role": "ผู้ตรวจ",
        "date": "2558-01-28"
      }
    ],
    "tag": "a136-2j-2557-a0164"
  }
}