{
  "pages": [
    [
      [
        "ข้อบัญญัติองค์การบริหารส่วนตำบลหนองยาว",
        "เรื่อง กิจการที่เป็นอันตรายต่อสุขภาพ",
        "พ.ศ. ๒๕๖๐"
      ]
    ],
    []
  ],
  "metadata": {
    "date_backmatter": "2560-05-05",
    "date_modified": "2560-09-14",
    "date_original": "2560-09-14",
    "editors": [
      {
        "name": "ปวันวิทย์/ภวรรณตรี",
        "role": "จัดทำ",
        "date": "2560-09-19"
      }
    ],
    "tag": "a136-2j-2560-a0703"
  }
}