{
  "pages": [
    [
      [
        "ข้อบัญญัติองค์การบริหารส่วนตำบลโป่งตาลอง",
        "เรื่อง การจัดการมูลฝอย",
        "พ.ศ. ๒๕๕๔"
      ]
    ],
    []
  ],
  "metadata": {
    "date_backmatter": "2554-01-28",
    "date_modified": "2554-07-28",
    "date_original": "2554-07-28",
    "editors": [
      {
        "name": "ปริยานุช",
        "role": "ผู้จัดทำ",
        "date": "2554-08-16"
      },
      {
        "name": "ณัฐวดี",
        "role": "ตรวจ",
        "date": "2554-08-16"
      },
      {
        "name": "จุฑามาศ",
        "role": "ปรับปรุง",
        "date": "2558-03-09"
      }
    ],
    "tag": "a136-2j-2554-a0097"
  }
}