{
  "pages": [
    [
      [
        "ข้อบัญญัติองค์การบริหารส่วนตำบลท่าก๊อ",
        "เรื่อง การควบคุมมลพิษจากควันไฟและฝุ่นละอองจากการเผา",
        "พ.ศ. ๒๕๕๘"
      ]
    ],
    []
  ],
  "metadata": {
    "date_backmatter": "2558-07-22",
    "date_modified": "2558-11-27",
    "date_original": "2558-11-27",
    "editors": [
      {
        "name": "ปริยานุช",
        "role": "จัดทำ",
        "date": "2558-11-30"
      },
      {
        "name": "วริญา",
        "role": "ตรวจ",
        "date": "2558-12-09"
      }
    ],
    "tag": "a136-2j-2558-a0679"
  }
}