{
  "pages": [
    [
      [
        "เทศบัญญัติเทศบาลเมืองหนองปรือ",
        "เรื่อง การควบคุมการเลี้ยงหรือปล่อยสุนัข",
        "พ.ศ. ๒๕๕๒"
      ]
    ],
    []
  ],
  "metadata": {
    "date_backmatter": "2552-02-04",
    "date_modified": "2552-10-15",
    "date_original": "2552-10-15",
    "editors": [
      {
        "name": "ปริยานุช",
        "role": "ผู้จัดทำ",
        "date": "2552-10-22"
      },
      {
        "name": "นันท์นภัสร์",
        "role": "ตรวจ",
        "date": "2552-10-22"
      },
      {
        "name": "จุฑามาศ",
        "role": "ปรับปรุง",
        "date": "2558-03-26"
      }
    ],
    "tag": "a136-2k-2552-a0037"
  }
}