{
  "pages": [
    [
      [
        "ข้อบัญญัติองค์การบริหารส่วนตำบลอ่าวตง",
        "เรื่อง การควบคุมการเลี้ยงหรือปล่อยสัตว์",
        "พ.ศ. ๒๕๖๑"
      ]
    ],
    []
  ],
  "metadata": {
    "date_backmatter": "2561-09-03",
    "date_modified": "2561-10-26",
    "date_original": "2561-10-26",
    "editors": [
      {
        "name": "พิมพ์มาดา",
        "role": "จัดทำ",
        "date": "2562-02-12"
      }
    ],
    "tag": "a136-2j-2561-a0594"
  }
}