{
  "pages": [
    [
      [
        "ข้อบัญญัติองค์การบริหารส่วนตำบลนครสวรรค์ตก",
        "เรื่อง กิจการที่เป็นอันตรายต่อสุขภาพ",
        "พ.ศ. ๒๕๕๖"
      ]
    ],
    []
  ],
  "metadata": {
    "date_backmatter": "2556-09-25",
    "date_modified": "2557-03-07",
    "date_original": "2557-03-07",
    "editors": [
      {
        "name": "ปริยานุช",
        "role": "ผู้จัดทำ",
        "date": "2557-03-11"
      },
      {
        "name": "โชติกานต์",
        "role": "ผู้ตรวจ",
        "date": "2557-03-26"
      }
    ],
    "tag": "a136-2j-2557-a0040"
  }
}