{
  "pages": [
    [
      [
        "ข้อบัญญัติองค์การบริหารส่วนตำบลหอมเกร็ด",
        "เรื่อง ตลาด พ.ศ. ๒๕๕๖"
      ]
    ],
    []
  ],
  "metadata": {
    "date_backmatter": "2557-01-10",
    "date_modified": "2557-07-10",
    "date_original": "2557-07-10",
    "editors": [
      {
        "name": "ปริยานุช",
        "role": "ผู้จัดทำ",
        "date": "2557-07-23"
      },
      {
        "name": "กฤษดายุทธ",
        "role": "ผู้ตรวจ",
        "date": "2557-07-23"
      }
    ],
    "tag": "a136-2j-2557-a0103"
  }
}