{
  "pages": [
    [
      [
        "ข้อบัญญัติองค์การบริหารส่วนตำบลท่าไร่",
        "เรื่อง การจัดการสิ่งปฏิกูลและมูลฝอย",
        "พ.ศ. ๒๕๕๗"
      ]
    ],
    []
  ],
  "metadata": {
    "date_backmatter": "2557-05-27",
    "date_modified": "2557-08-21",
    "date_original": "2557-08-21",
    "editors": [
      {
        "name": "ปริยานุช",
        "role": "ผู้จัดทำ",
        "date": "2557-08-22"
      },
      {
        "name": "ปริญสินีย์",
        "role": "ผู้ตรวจ",
        "date": "2557-08-22"
      }
    ],
    "tag": "a136-2j-2557-a0118"
  }
}