{
  "pages": [
    [
      [
        "ข้อบัญญัติองค์การบริหารส่วนตำบลทุ่งนนทรี",
        "เรื่อง การควบคุมกิจการที่เป็นอันตรายต่อสุขภาพ (ฉบับที่ ๓) พ.ศ. ๒๕๕๖"
      ]
    ],
    []
  ],
  "metadata": {
    "date_backmatter": "2556-06-17",
    "date_modified": "2556-08-08",
    "date_original": "2556-08-08",
    "editors": [
      {
        "name": "ปริยานุช",
        "role": "ผู้จัดทำ",
        "date": "2556-08-14"
      },
      {
        "name": "โชติกานต์",
        "role": "ผู้ตรวจ",
        "date": "2556-08-14"
      }
    ],
    "tag": "a136-2j-2556-a0071"
  }
}