{
  "pages": [
    [
      [
        "ข้อบัญญัติองค์การบริหารส่วนตำบลลำไทร",
        "เรื่อง การควบคุมการเลี้ยง หรือปล่อยสัตว์",
        "พ.ศ. ๒๕๕๑"
      ]
    ],
    []
  ],
  "metadata": {
    "date_backmatter": "2551-07-31",
    "date_modified": "2552-01-15",
    "date_original": "2552-01-15",
    "editors": [
      {
        "name": "วัชศักดิ์",
        "role": "ผู้จัดทำ",
        "date": "2552-01-20"
      },
      {
        "name": "จุฑามาศ",
        "role": "ปรับปรุง",
        "date": "2557-11-17"
      }
    ],
    "tag": "a136-2j-2552-a0011"
  }
}