{
  "pages": [
    [
      [
        "ข้อบัญญัติองค์การบริหารส่วนตำบลเขื่อน",
        "เรื่อง การกำจัดสิ่งปฏิกูล พ.ศ. ๒๕๕๕"
      ]
    ],
    []
  ],
  "metadata": {
    "date_backmatter": "2555-05-03",
    "date_modified": "2557-03-27",
    "date_original": "2557-03-27",
    "editors": [
      {
        "name": "ปริยานุช",
        "role": "ผู้จัดทำ",
        "date": "2557-03-31"
      },
      {
        "name": "โชติกานต์",
        "role": "ผู้ตรวจ",
        "date": "2557-03-31"
      }
    ],
    "tag": "a136-2j-2557-a0054"
  }
}