{
  "pages": [
    [
      [
        "ข้อบัญญัติองค์การบริหารส่วนตำบลบึงสามัคคี",
        "เรื่อง ตลาด",
        "พ.ศ. ๒๕๕๗"
      ]
    ],
    []
  ],
  "metadata": {
    "date_backmatter": "2557-03-10",
    "date_modified": "2557-06-13",
    "date_original": "2557-06-13",
    "editors": [
      {
        "name": "ปริยานุช",
        "role": "ผู้จัดทำ",
        "date": "2557-06-18"
      },
      {
        "name": "ปริญสินีย์",
        "role": "ผู้ตรวจ",
        "date": "2557-06-18"
      }
    ],
    "tag": "a136-2j-2557-a0086"
  }
}