{
  "pages": [
    [
      [
        "พระราชบัญญัติ",
        "การสาธารณสุข (ฉบับที่ ๒)",
        "พ.ศ. ๒๕๕๐",
        "",
        "",
        "ภูมิพลอดุลยเดช ป.ร.",
        "ให้ไว้ ณ วันที่ ๑๐ มิถุนายน พ.ศ. ๒๕๕๐",
        "เป็นปีที่ ๖๒ ในรัชกาลปัจจุบัน"
      ]
    ],
    []
  ],
  "metadata": {
    "date_header": "2550-06-10",
    "date_modified": "2550-06-27",
    "date_original": "2550-06-27",
    "doctype": "พระราชบัญญัติ",
    "editors": [
      {
        "name": "วัชศักดิ์",
        "role": "ผู้จัดทำ",
        "date": "2550-07-05"
      },
      {
        "name": "วศิน",
        "role": "แก้ไข",
        "date": "2552-05-13"
      }
    ],
    "tag": "a136-20-2550-a0001",
    "title": "การสาธารณสุข (ฉบับที่ ๒)"
  }
}