{
  "pages": [
    [
      [
        "ข้อบัญญัติองค์การบริหารส่วนตำบลเวียงทอง",
        "เรื่อง การจัดการสิ่งปฏิกูล และมูลฝอย",
        "พ.ศ. ๒๕๕๘"
      ]
    ],
    []
  ],
  "metadata": {
    "date_backmatter": "2558-04-29",
    "date_modified": "2558-07-09",
    "date_original": "2558-07-09",
    "editors": [
      {
        "name": "ปริยานุช",
        "role": "ผู้จัดทำ",
        "date": "2558-07-14"
      },
      {
        "name": "ปุณิกา",
        "role": "ผู้ตรวจ",
        "date": "2558-07-24"
      }
    ],
    "tag": "a136-2j-2558-a0227"
  }
}