{
  "pages": [
    [
      [
        "ข้อบัญญัติองค์การบริหารส่วนตำบลท่านา",
        "เรื่อง การควบคุมกิจการที่เป็นอันตรายต่อสุขภาพ",
        "พ.ศ. ๒๕๕๗"
      ]
    ],
    []
  ],
  "metadata": {
    "date_backmatter": "2557-11-21",
    "date_modified": "2558-03-27",
    "date_original": "2558-03-27",
    "editors": [
      {
        "name": "ปริยานุช",
        "role": "ผู้จัดทำ",
        "date": "2558-03-30"
      },
      {
        "name": "ปริญสินีย์",
        "role": "ผู้ตรวจ",
        "date": "2558-03-30"
      }
    ],
    "tag": "a136-2j-2558-a0107"
  }
}