{
  "pages": [
    [
      [
        "ข้อบัญญัติองค์การบริหารส่วนตำบลคลองยาง",
        "เรื่อง กิจการที่เป็นอันตรายต่อสุขภาพ",
        "พ.ศ. ๒๕๕๙"
      ]
    ],
    []
  ],
  "metadata": {
    "date_backmatter": "2559-06-30",
    "date_modified": "2560-03-23",
    "date_original": "2560-03-23",
    "editors": [
      {
        "name": "วริญา/ภวรรณตรี",
        "role": "จัดทำ",
        "date": "2560-03-28"
      }
    ],
    "tag": "a136-2j-2560-a0247"
  }
}