{
  "pages": [
    [
      [
        "ข้อบัญญัติองค์การบริหารส่วนตำบลแหลมผักเบี้ย",
        "เรื่อง การจัดการสิ่งปฏิกูลและมูลฝอย",
        "พ.ศ. ๒๕๕๙"
      ]
    ],
    []
  ],
  "metadata": {
    "date_backmatter": "2559-10-10",
    "date_modified": "2560-12-25",
    "date_original": "2560-12-25",
    "editors": [
      {
        "name": "ปวันวิทย์/อัญชลี",
        "role": "จัดทำ",
        "date": "2561-01-04"
      }
    ],
    "tag": "a136-2j-2560-a0872"
  }
}