{
  "pages": [
    [
      [
        "ข้อบัญญัติองค์การบริหารส่วนตำบลท่าสายลวด",
        "เรื่อง การควบคุมมลพิษจากควันไฟและฝุ่นละอองจากการเผา พ.ศ. ๒๕๕๗"
      ]
    ],
    []
  ],
  "metadata": {
    "date_backmatter": "2557-09-09",
    "date_modified": "2558-06-26",
    "date_original": "2558-06-26",
    "editors": [
      {
        "name": "ปริยานุช",
        "role": "ผู้จัดทำ",
        "date": "2558-06-30"
      },
      {
        "name": "ปริญสินีย์",
        "role": "ผู้ตรวจ",
        "date": "2558-06-30"
      }
    ],
    "tag": "a136-2j-2558-a0194"
  }
}