{
  "pages": [
    [
      [
        "พระราชบัญญัติ",
        "การสาธารณสุข",
        "พ.ศ. ๒๕๓๕",
        "",
        "",
        "ภูมิพลอดุลยเดช ป.ร.",
        "ให้ไว้ ณ วันที่ ๒๙ มีนาคม พ.ศ. ๒๕๓๕",
        "เป็นปีที่ ๔๗ ในรัชกาลปัจจุบัน"
      ]
    ],
    []
  ],
  "metadata": {
    "date_header": "2535-03-29",
    "date_modified": "2560-06-22",
    "date_original": "2535-04-05",
    "doctype": "พระราชบัญญัติ",
    "editors": [
      {
        "name": "วศิน",
        "role": "ผู้จัดทำ",
        "date": "2552-05-13"
      },
      {
        "name": "ชวัลพร",
        "role": "เพิ่มเติม",
        "date": "2560-06-29"
      }
    ],
    "tag": "a136-20-9999-update",
    "title": "การสาธารณสุข"
  }
}