{
  "pages": [
    [
      [
        "ข้อบัญญัติองค์การบริหารส่วนตำบลลานกระบือ",
        "เรื่อง การกำจัดสิ่งปฏิกูลและมูลฝอย",
        "พ.ศ. ๒๕๕๑"
      ]
    ],
    []
  ],
  "metadata": {
    "date_backmatter": "2551-09-09",
    "date_modified": "2558-10-07",
    "date_original": "2551-12-11",
    "editors": [
      {
        "name": "ปริยานุช",
        "role": "ผู้จัดทำ",
        "date": "2551-12-16"
      },
      {
        "name": "วิศนี",
        "role": "เพิ่มเติม",
        "date": "2558-10-30"
      },
      {
        "name": "ปัญญา",
        "role": "ตรวจ",
        "date": "2558-10-30"
      }
    ],
    "tag": "a136-2j-9990-update"
  }
}