{
  "pages": [
    [
      [
        "ข้อบัญญัติองค์การบริหารส่วนตำบลหนองบัว",
        "เรื่อง การควบคุมการประกอบกิจการที่เป็นอันตรายต่อสุขภาพ",
        "พ.ศ. ๒๕๕๖"
      ]
    ],
    []
  ],
  "metadata": {
    "date_backmatter": "2556-09-04",
    "date_modified": "2557-03-13",
    "date_original": "2557-03-13",
    "editors": [
      {
        "name": "ปริยานุช",
        "role": "ผู้จัดทำ",
        "date": "2557-03-25"
      },
      {
        "name": "อุษมล",
        "role": "ผู้ตรวจ",
        "date": "2557-04-08"
      }
    ],
    "tag": "a136-2j-2557-a0052"
  }
}