{
  "pages": [
    [
      [
        "กฎกระทรวง",
        "กำหนดแบบบัตรประจำตัวเจ้าพนักงานท้องถิ่น",
        "เจ้าพนักงานสาธารณสุข และผู้ซึ่งได้รับแต่งตั้งจากเจ้าพนักงานท้องถิ่น",
        "ตามกฎหมายว่าด้วยการสาธารณสุข",
        "พ.ศ. ๒๕๔๘"
      ]
    ],
    []
  ],
  "metadata": {
    "date_backmatter": "2548-03-03",
    "date_modified": "2548-03-29",
    "date_original": "2548-03-29",
    "doctype": "กฎกระทรวง",
    "editors": [
      {
        "name": "จุฑามาศ",
        "role": "ปรับปรุง",
        "date": "2557-10-06"
      }
    ],
    "tag": "a136-2b-2548-a0001"
  }
}