{
  "pages": [
    [
      [
        "ข้อบัญญัติองค์การบริหารส่วนตำบลถ้ำฉลอง",
        "เรื่อง การควบคุมแหล่งเพาะพันธุ์ยุงลาย",
        "พ.ศ. ๒๕๕๖"
      ]
    ],
    []
  ],
  "metadata": {
    "date_backmatter": "2556-07-11",
    "date_modified": "2556-10-14",
    "date_original": "2556-10-14",
    "editors": [
      {
        "name": "ปริยานุช",
        "role": "ผู้จัดทำ",
        "date": "2556-10-16"
      },
      {
        "name": "โชติกานต์",
        "role": "ผู้ตรวจ",
        "date": "2556-10-21"
      }
    ],
    "tag": "a136-2j-2556-a0107"
  }
}