{
  "pages": [
    [
      [
        "ข้อบัญญัติองค์การบริหารส่วนตำบลม่วงงาม",
        "เรื่อง ตลาด",
        "พ.ศ. ๒๕๕๓"
      ]
    ],
    []
  ],
  "metadata": {
    "date_backmatter": "2553-06-25",
    "date_modified": "2553-10-11",
    "date_original": "2553-10-11",
    "editors": [
      {
        "name": "ปริยานุช",
        "role": "ผู้จัดทำ",
        "date": "2553-10-20"
      },
      {
        "name": "ณัฐวดี",
        "role": "ตรวจ",
        "date": "2553-10-20"
      },
      {
        "name": "จุฑามาศ",
        "role": "ปรับปรุง",
        "date": "2558-02-11"
      }
    ],
    "tag": "a136-2j-2553-a0050"
  }
}