{
  "pages": [
    [
      [
        "ข้อบัญญัติองค์การบริหารส่วนตำบลตลาดไทร",
        "เรื่อง กิจการที่เป็นอันตรายต่อสุขภาพ",
        "พ.ศ. ๒๕๕๙"
      ]
    ],
    []
  ],
  "metadata": {
    "date_backmatter": "2559-06-30",
    "date_modified": "2560-03-03",
    "date_original": "2560-03-03",
    "editors": [
      {
        "name": "ปริยานุช",
        "role": "จัดทำ",
        "date": "2560-03-07"
      },
      {
        "name": "พรวิภา",
        "role": "ตรวจ",
        "date": "2560-03-07"
      }
    ],
    "tag": "a136-2j-2560-a0216"
  }
}