{
  "pages": [
    [
      [
        "เทศบัญญัติเทศบาลเมืองหนองปรือ",
        "เรื่อง การควบคุมการจำหน่ายสินค้าในที่หรือทางสาธารณะ",
        "พ.ศ. ๒๕๕๑"
      ]
    ],
    []
  ],
  "metadata": {
    "date_backmatter": "2551-06-10",
    "date_modified": "2552-01-01",
    "date_original": "2552-01-01",
    "editors": [
      {
        "name": "วัชศักดิ์",
        "role": "ผู้จัดทำ",
        "date": "2552-01-13"
      },
      {
        "name": "จุฑามาศ",
        "role": "ปรับปรุง",
        "date": "2558-03-13"
      }
    ],
    "tag": "a136-2k-2552-a0004"
  }
}