{
  "pages": [
    [
      [
        "ข้อบัญญัติองค์การบริหารส่วนตำบลลาดขวาง",
        "เรื่อง การควบคุม การเก็บขน หรือกำจัดสิ่งปฏิกูล หรือมูลฝอย",
        "พ.ศ. ๒๕๕๑"
      ]
    ],
    []
  ],
  "metadata": {
    "date_backmatter": "2551-09-02",
    "date_modified": "2552-09-17",
    "date_original": "2552-09-17",
    "editors": [
      {
        "name": "ปริยานุช",
        "role": "ผู้จัดทำ",
        "date": "2552-10-01"
      },
      {
        "name": "จุฑามาศ",
        "role": "ปรับปรุง",
        "date": "2558-01-05"
      }
    ],
    "tag": "a136-2j-2552-a0161"
  }
}