{
  "pages": [
    [
      [
        "ข้อบัญญัติองค์การบริหารส่วนตำบลลำเหย",
        "เรื่อง การกำจัดสิ่งปฏิกูลและมูลฝอย",
        "พ.ศ. ๒๕๔๘"
      ]
    ],
    []
  ],
  "metadata": {
    "date_backmatter": "2548-06-27",
    "date_modified": "2552-08-13",
    "date_original": "2552-08-13",
    "editors": [
      {
        "name": "ปริยานุช",
        "role": "ผู้จัดทำ",
        "date": "2552-08-25"
      },
      {
        "name": "จุฑามาศ",
        "role": "ปรับปรุง",
        "date": "2557-12-29"
      }
    ],
    "tag": "a136-2j-2552-a0143"
  }
}