{
  "pages": [
    [
      [
        "เทศบัญญัติเทศบาลตำบลขุนทะเล",
        "เรื่อง ตลาด",
        "พ.ศ. ๒๕๕๓"
      ]
    ],
    []
  ],
  "metadata": {
    "date_backmatter": "2553-03-23",
    "date_modified": "2553-07-15",
    "date_original": "2553-07-15",
    "editors": [
      {
        "name": "ปริยานุช",
        "role": "ผู้จัดทำ",
        "date": "2553-07-21"
      },
      {
        "name": "นันท์นภัสร์",
        "role": "ตรวจ",
        "date": "2553-07-21"
      },
      {
        "name": "จุฑามาศ",
        "role": "ปรับปรุง",
        "date": "2558-04-01"
      }
    ],
    "tag": "a136-2k-2553-a0037"
  }
}