{
  "pages": [
    [
      [
        "ข้อบัญญัติองค์การบริหารส่วนตำบลเฉนียง",
        "เรื่อง การควบคุมการเลี้ยงหรือปล่อยสัตว์",
        "พ.ศ. ๒๕๖๑"
      ]
    ],
    []
  ],
  "metadata": {
    "date_backmatter": "2561-05-25",
    "date_modified": "2561-08-31",
    "date_original": "2561-08-31",
    "editors": [
      {
        "name": "ปวันวิทย์",
        "role": "จัดทำ",
        "date": "2561-10-01"
      }
    ],
    "tag": "a136-2j-2561-a0494"
  }
}