{
  "pages": [
    [
      [
        "ข้อบัญญัติองค์การบริหารส่วนตำบลทุ่งน้าว",
        "เรื่อง การควบคุมเหตุรำคาญ",
        "พ.ศ. ๒๕๕๘"
      ]
    ],
    []
  ],
  "metadata": {
    "date_backmatter": "2558-09-14",
    "date_modified": "2559-05-04",
    "date_original": "2559-05-04",
    "editors": [
      {
        "name": "ชวัลพร/ปริยานุช",
        "role": "จัดทำ",
        "date": "2559-05-10"
      },
      {
        "name": "นุสรา",
        "role": "ตรวจ",
        "date": "2559-06-14"
      }
    ],
    "tag": "a136-2j-2559-a0141"
  }
}