{
  "pages": [
    [
      [
        "ข้อบัญญัติองค์การบริหารส่วนตำบลย่านซื่อ",
        "เรื่อง การควบคุมการเลี้ยงหรือปล่อยสัตว์",
        "พ.ศ. ๒๕๕๙"
      ]
    ],
    []
  ],
  "metadata": {
    "date_backmatter": "2559-07-14",
    "date_modified": "2559-12-27",
    "date_original": "2559-12-27",
    "editors": [
      {
        "name": "ชนิกา/ปริยานุช",
        "role": "จัดทำ",
        "date": "2560-01-05"
      }
    ],
    "tag": "a136-2j-2559-a0515"
  }
}