{
  "pages": [
    [
      [
        "เทศบัญญัติเทศบาลตำบลบ้านโข้ง",
        "เรื่อง การจัดการสิ่งปฏิกูลและมูลฝอย",
        "พ.ศ. ๒๕๕๒"
      ]
    ],
    []
  ],
  "metadata": {
    "date_backmatter": "2552-10-01",
    "date_modified": "2553-01-16",
    "date_original": "2553-01-16",
    "editors": [
      {
        "name": "ปริยานุช",
        "role": "ผู้จัดทำ",
        "date": "2553-01-27"
      },
      {
        "name": "นันท์นภัสร์",
        "role": "ตรวจ",
        "date": "2553-01-27"
      },
      {
        "name": "จุฑามาศ",
        "role": "ปรับปรุง",
        "date": "2558-03-30"
      }
    ],
    "tag": "a136-2k-2553-a0011"
  }
}