{
  "pages": [
    [
      [
        "ข้อบัญญัติองค์การบริการส่วนตำบลสำนักทอง",
        "เรื่อง ตลาด",
        "พ.ศ. ๒๕๕๙"
      ]
    ],
    []
  ],
  "metadata": {
    "date_backmatter": "2559-03-23",
    "date_modified": "2559-12-22",
    "date_original": "2559-12-22",
    "editors": [
      {
        "name": "ปริยานุช",
        "role": "จัดทำ",
        "date": "2559-12-27"
      },
      {
        "name": "ชวัลพร",
        "role": "ตรวจ",
        "date": "2560-01-31"
      }
    ],
    "tag": "a136-2j-2559-a0483"
  }
}