{
  "pages": [
    [
      [
        "ข้อบัญญัติองค์การบริหารส่วนตำบลหนองกุง",
        "เรื่อง การจัดการสิ่งปฏิกูลและมูลฝอย",
        "พ.ศ. ๒๕๕๓"
      ]
    ],
    []
  ],
  "metadata": {
    "date_backmatter": "2553-05-12",
    "date_modified": "2553-06-25",
    "date_original": "2553-06-25",
    "editors": [
      {
        "name": "ปริยานุช",
        "role": "ผู้จัดทำ",
        "date": "2553-06-30"
      },
      {
        "name": "นันท์นภัสร์",
        "role": "ตรวจ",
        "date": "2553-06-30"
      },
      {
        "name": "จุฑามาศ",
        "role": "ปรับปรุง",
        "date": "2558-02-09"
      }
    ],
    "tag": "a136-2j-2553-a0032"
  }
}