{
  "pages": [
    [
      [
        "ข้อบัญญัติองค์การบริหารส่วนตำบลเขาดิน",
        "เรื่อง การกำจัดสิ่งปฏิกูลและขยะมูลฝอย",
        "พ.ศ. ๒๕๕๗"
      ]
    ],
    []
  ],
  "metadata": {
    "date_backmatter": "2558-01-30",
    "date_modified": "2560-04-25",
    "date_original": "2560-04-25",
    "editors": [
      {
        "name": "ภวรรณตรี",
        "role": "จัดทำ",
        "date": "2560-05-03"
      },
      {
        "name": "วริญา",
        "role": "ตรวจ",
        "date": "2560-05-03"
      }
    ],
    "tag": "a136-2j-2560-a0312"
  }
}