{
  "pages": [
    [
      [
        "ข้อบัญญัติองค์การบริหารส่วนตำบลปลวกแดง",
        "เรื่อง การจัดการสิ่งปฏิกูล",
        "พ.ศ. ๒๕๕๕"
      ]
    ],
    []
  ],
  "metadata": {
    "date_backmatter": "2555-03-09",
    "date_modified": "2556-03-14",
    "date_original": "2556-03-14",
    "editors": [
      {
        "name": "ปริยานุช",
        "role": "ผู้จัดทำ",
        "date": "2556-03-18"
      },
      {
        "name": "อุษมล",
        "role": "ผู้ตรวจ",
        "date": "2556-03-26"
      }
    ],
    "tag": "a136-2j-2556-a0033"
  }
}