{
  "pages": [
    [
      [
        "ข้อบัญญัติองค์การบริหารส่วนตำบลบ้านแดง",
        "เรื่อง การควบคุมการเลี้ยงหรือปล่อยสุนัขและแมว",
        "พ.ศ. ๒๕๖๐"
      ]
    ],
    []
  ],
  "metadata": {
    "date_backmatter": "2560-09-27",
    "date_modified": "2561-08-31",
    "date_original": "2561-08-31",
    "editors": [
      {
        "name": "ปวันวิทย์",
        "role": "จัดทำ",
        "date": "2561-10-01"
      }
    ],
    "tag": "a136-2j-2561-a0490"
  }
}