{
  "pages": [
    [
      [
        "ข้อบัญญัติองค์การบริหารส่วนตำบลหนองไผ่แก้ว",
        "เรื่อง สถานที่จำหน่ายอาหาร และสถานที่สะสมอาหาร",
        "พ.ศ. ๒๕๕๘"
      ]
    ],
    []
  ],
  "metadata": {
    "date_backmatter": "2558-12-08",
    "date_modified": "2559-03-24",
    "date_original": "2559-03-24",
    "editors": [
      {
        "name": "กัญฑรัตน์/ปริยานุช",
        "role": "จัดทำ",
        "date": "2559-04-01"
      }
    ],
    "tag": "a136-2j-2559-a0099"
  }
}