{
  "pages": [
    [
      [
        "ข้อบัญญัติองค์การบริหารส่วนตำบลค่ายบกหวาน",
        "เรื่อง สถานที่จำหน่ายอาหารและสถานที่สะสมอาหาร",
        "พ.ศ. ๒๕๕๙"
      ]
    ],
    []
  ],
  "metadata": {
    "date_backmatter": "2559-06-01",
    "date_modified": "2561-02-01",
    "date_original": "2561-02-01",
    "editors": [
      {
        "name": "ปวันวิทย์",
        "role": "จัดทำ",
        "date": "2561-02-26"
      }
    ],
    "tag": "a136-2j-2561-a0027"
  }
}