{
  "pages": [
    [
      [
        "ข้อบัญญัติองค์การบริหารส่วนตำบลบ้านขาม",
        "เรื่อง การจัดการสิ่งปฏิกูล",
        "พ.ศ. ๒๕๕๙"
      ]
    ],
    []
  ],
  "metadata": {
    "date_backmatter": "2560-03-27",
    "date_modified": "2561-02-19",
    "date_original": "2561-02-19",
    "editors": [
      {
        "name": "ปุณิกา",
        "role": "จัดทำ",
        "date": "2561-05-19"
      }
    ],
    "tag": "a136-2j-2561-a0060"
  }
}