{
  "pages": [
    [
      [
        "ข้อบัญญัติองค์การบริหารส่วนตำบลกุดยาลวน",
        "เรื่อง การกำจัดสิ่งปฏิกูล",
        "พ.ศ. ๒๕๕๙"
      ]
    ],
    []
  ],
  "metadata": {
    "date_backmatter": "2559-05-30",
    "date_modified": "2560-04-28",
    "date_original": "2560-04-28",
    "editors": [
      {
        "name": "ภวรรณตรี",
        "role": "จัดทำ",
        "date": "2560-05-01"
      },
      {
        "name": "วริญา",
        "role": "ตรวจ",
        "date": "2560-05-01"
      }
    ],
    "tag": "a136-2j-2560-a0332"
  }
}