{
  "pages": [
    [
      [
        "ข้อบัญญัติองค์การบริหารส่วนตำบลชนแดน",
        "เรื่อง การควบคุมการเลี้ยงสัตว์หรือปล่อยสัตว์",
        "พ.ศ. ๒๕๕๐"
      ]
    ],
    []
  ],
  "metadata": {
    "date_backmatter": "2550-03-20",
    "date_modified": "2552-03-05",
    "date_original": "2552-03-05",
    "editors": [
      {
        "name": "ปริยานุช",
        "role": "ผู้จัดทำ",
        "date": "2552-03-10"
      },
      {
        "name": "จุฑามาศ",
        "role": "ปรับปรุง",
        "date": "2557-11-21"
      }
    ],
    "tag": "a136-2j-2552-a0038"
  }
}