{
  "pages": [
    [
      [
        "ข้อบัญญัติองค์การบริหารส่วนตำบลแม่กาษา",
        "เรื่อง สถานที่จำหน่ายอาหารและสถานที่สะสมอาหาร",
        "พ.ศ. ๒๕๕๘"
      ]
    ],
    []
  ],
  "metadata": {
    "date_backmatter": "2558-08-11",
    "date_modified": "2558-11-30",
    "date_original": "2558-11-30",
    "editors": [
      {
        "name": "ปริยานุช",
        "role": "จัดทำ",
        "date": "2558-12-28"
      },
      {
        "name": "ปริญสินีย์",
        "role": "ตรวจ",
        "date": "2558-12-28"
      }
    ],
    "tag": "a136-2j-2558-a0691"
  }
}