{
  "pages": [
    [
      [
        "ข้อบัญญัติองค์การบริหารส่วนตำบลเชียงงา",
        "เรื่อง กิจการที่เป็นอันตรายต่อสุขภาพ",
        "พ.ศ. ๒๕๖๐"
      ]
    ],
    []
  ],
  "metadata": {
    "date_backmatter": "2560-01-27",
    "date_modified": "2560-10-12",
    "date_original": "2560-10-12",
    "editors": [
      {
        "name": "ภวรรณตรี",
        "role": "จัดทำ",
        "date": "2560-10-30"
      },
      {
        "name": "พรวิภา",
        "role": "ตรวจ",
        "date": "2560-10-30"
      }
    ],
    "tag": "a136-2j-2560-a0751"
  }
}