{
  "pages": [
    [
      [
        "ข้อบัญญัติองค์การบริหารส่วนตำบลเกาะเทโพ",
        "เรื่อง การจำหน่ายสินค้าในที่หรือทางสาธารณะ",
        "พ.ศ. ๒๕๕๘"
      ]
    ],
    []
  ],
  "metadata": {
    "date_backmatter": "2558-12-28",
    "date_modified": "2559-03-16",
    "date_original": "2559-03-16",
    "editors": [
      {
        "name": "ปริยานุช",
        "role": "จัดทำ",
        "date": "2559-03-23"
      },
      {
        "name": "วิศนี",
        "role": "ตรวจ",
        "date": "2559-03-30"
      }
    ],
    "tag": "a136-2j-2559-a0082"
  }
}