{
  "pages": [
    [
      [
        "ข้อบัญญัติองค์การบริหารส่วนตำบลงิ้วราย",
        "เรื่อง การควบคุมการประกอบกิจการที่เป็นอันตรายต่อสุขภาพ",
        "พ.ศ. ๒๕๕๙"
      ]
    ],
    []
  ],
  "metadata": {
    "date_backmatter": "2559-01-12",
    "date_modified": "2560-06-29",
    "date_original": "2560-06-29",
    "editors": [
      {
        "name": "ปุณิกา/อัญชลี",
        "role": "จัดทำ",
        "date": "2560-07-03"
      },
      {
        "name": "นุสรา",
        "role": "ตรวจ",
        "date": "2560-11-06"
      }
    ],
    "tag": "a136-2j-2560-a0466"
  }
}