{
  "pages": [
    [
      [
        "ข้อบัญญัติองค์การบริหารส่วนตำบลเสิงสาง",
        "เรื่อง การจัดการสิ่งปฏิกูล",
        "พ.ศ. ๒๕๕๘"
      ]
    ],
    []
  ],
  "metadata": {
    "date_backmatter": "2558-03-12",
    "date_modified": "2558-07-09",
    "date_original": "2558-07-09",
    "editors": [
      {
        "name": "ปริยานุช",
        "role": "ผู้จัดทำ",
        "date": "2558-07-14"
      },
      {
        "name": "ปุณิกา",
        "role": "ผู้ตรวจ",
        "date": "2558-07-23"
      }
    ],
    "tag": "a136-2j-2558-a0226"
  }
}