{
  "pages": [
    [
      [
        "ข้อบัญญัติองค์การบริหารส่วนตำบลนนทรี",
        "เรื่อง กิจการที่เป็นอันตรายต่อสุขภาพ (ฉบับที่ ๒)",
        "พ.ศ. ๒๕๕๙"
      ]
    ],
    []
  ],
  "metadata": {
    "date_backmatter": "2559-12-19",
    "date_modified": "2560-06-26",
    "date_original": "2560-06-26",
    "editors": [
      {
        "name": "ปุณิกา/อัญชลี",
        "role": "จัดทำ",
        "date": "2560-06-27"
      },
      {
        "name": "นุสรา",
        "role": "ตรวจ",
        "date": "2560-09-10"
      }
    ],
    "tag": "a136-2j-2560-a0462"
  }
}