{
  "pages": [
    [
      [
        "ข้อบัญญัติองค์การบริหารส่วนตำบลคลองหลวงแพ่ง",
        "เรื่อง การจัดการสิ่งปฏิกูลและมูลฝอย",
        "พ.ศ. ๒๕๕๙"
      ]
    ],
    []
  ],
  "metadata": {
    "date_backmatter": "2559-02-10",
    "date_modified": "2559-06-27",
    "date_original": "2559-06-27",
    "editors": [
      {
        "name": "วิศนี/ปริยานุช",
        "role": "จัดทำ",
        "date": "2559-06-30"
      },
      {
        "name": "นุสรา",
        "role": "ตรวจ",
        "date": "2559-08-09"
      }
    ],
    "tag": "a136-2j-2559-a0232"
  }
}