{
  "pages": [
    [
      [
        "ข้อบัญญัติองค์การบริหารส่วนตำบลหนองแวง",
        "เรื่อง กิจการที่เป็นอันตรายต่อสุขภาพ",
        "พ.ศ. ๒๕๖๐"
      ]
    ],
    []
  ],
  "metadata": {
    "date_backmatter": "2560-05-15",
    "date_modified": "2560-12-13",
    "date_original": "2560-12-13",
    "editors": [
      {
        "name": "พัชรภรณ์/อัญชลี",
        "role": "จัดทำ",
        "date": "2560-12-18"
      },
      {
        "name": "นุสรา",
        "role": "ตรวจ",
        "date": "2560-12-30"
      }
    ],
    "tag": "a136-2j-2560-a0849"
  }
}