{
  "pages": [
    [
      [
        "ข้อบัญญัติองค์การบริหารส่วนตำบลนาข่า",
        "เรื่อง ตลาด",
        "พ.ศ. ๒๕๕๙"
      ]
    ],
    []
  ],
  "metadata": {
    "date_backmatter": "2559-07-25",
    "date_modified": "2561-03-21",
    "date_original": "2561-03-21",
    "editors": [
      {
        "name": "ภูมิกิติ",
        "role": "จัดทำ",
        "date": "2561-04-17"
      }
    ],
    "tag": "a136-2j-2561-a0123"
  }
}