{
  "pages": [
    [
      [
        "ข้อบัญญัติองค์การบริหารส่วนตำบลโนนผึ้ง",
        "เรื่อง การควบคุมการเลี้ยงหรือปล่อยสัตว์",
        "พ.ศ. ๒๕๖๐"
      ]
    ],
    []
  ],
  "metadata": {
    "date_backmatter": "2560-03-07",
    "date_modified": "2560-10-12",
    "date_original": "2560-10-12",
    "editors": [
      {
        "name": "ภวรรณตรี",
        "role": "จัดทำ",
        "date": "2560-10-30"
      },
      {
        "name": "พรวิภา",
        "role": "ตรวจ",
        "date": "2560-10-30"
      }
    ],
    "tag": "a136-2j-2560-a0755"
  }
}