{
  "pages": [
    [
      [
        "ข้อบัญญัติองค์การบริหารส่วนตำบลบ่อวิน",
        "เรื่อง ตลาด (ฉบับที่ ๒)",
        "พ.ศ. ๒๕๕๕"
      ]
    ],
    []
  ],
  "metadata": {
    "date_backmatter": "2555-11-26",
    "date_modified": "2556-02-08",
    "date_original": "2556-02-08",
    "editors": [
      {
        "name": "ปริยานุช",
        "role": "ผู้จัดทำ",
        "date": "2556-02-11"
      },
      {
        "name": "โชติกานต์",
        "role": "ผู้ตรวจ",
        "date": "2556-02-27"
      }
    ],
    "tag": "a136-2j-2556-a0023"
  }
}