{
  "pages": [
    [
      [
        "ข้อบัญญัติองค์การบริหารส่วนตำบลซับสมอทอด",
        "เรื่อง กิจการที่เป็นอันตรายต่อสุขภาพ",
        "พ.ศ. ๒๕๕๕"
      ]
    ],
    []
  ],
  "metadata": {
    "date_backmatter": "2555-08-24",
    "date_modified": "2556-01-03",
    "date_original": "2556-01-03",
    "editors": [
      {
        "name": "อุษมล",
        "role": "ผู้จัดทำ",
        "date": "2556-01-09"
      },
      {
        "name": "ชาญ",
        "role": "ผู้ตรวจ",
        "date": "2556-01-09"
      }
    ],
    "tag": "a136-2j-2556-a0001"
  }
}