{
  "pages": [
    [
      [
        "ข้อบัญญัติองค์การบริหารส่วนตำบลศรีมหาโพธิ",
        "เรื่อง การควบคุมกิจการที่เป็นอันตรายต่อสุขภาพ",
        "พ.ศ. ๒๕๕๘"
      ]
    ],
    []
  ],
  "metadata": {
    "date_backmatter": "2558-03-09",
    "date_modified": "2558-12-22",
    "date_original": "2558-12-22",
    "editors": [
      {
        "name": "ปริยานุช",
        "role": "จัดทำ",
        "date": "2558-12-28"
      },
      {
        "name": "วริญา",
        "role": "ตรวจ",
        "date": "2559-01-04"
      }
    ],
    "tag": "a136-2j-2558-a0731"
  }
}