{
  "pages": [
    [
      [
        "ข้อบัญญัติองค์การบริหารส่วนตำบลจอมหมอกแก้ว",
        "เรื่อง สถานที่จำหน่ายอาหารและสถานที่สะสมอาหาร",
        "พ.ศ. ๒๕๕๙"
      ]
    ],
    []
  ],
  "metadata": {
    "date_backmatter": "2559-09-20",
    "date_modified": "2560-06-16",
    "date_original": "2560-06-16",
    "editors": [
      {
        "name": "ภวรรณตรี",
        "role": "จัดทำ",
        "date": "2560-06-19"
      },
      {
        "name": "พิมพ์มาดา",
        "role": "ตรวจ",
        "date": "2560-07-19"
      }
    ],
    "tag": "a136-2j-2560-a0445"
  }
}