{
  "pages": [
    [
      [
        "ข้อบัญญัติองค์การบริหารส่วนตำบลดอนแก้ว",
        "เรื่อง การจำหน่ายสินค้าในที่หรือทางสาธารณะ",
        "พ.ศ. ๒๕๔๙"
      ]
    ],
    []
  ],
  "metadata": {
    "date_backmatter": "2549-04-17",
    "date_modified": "2550-02-19",
    "date_original": "2550-02-19",
    "editors": [
      {
        "name": "โสรศ",
        "role": "ผู้จัดทำ",
        "date": "2550-03-02"
      },
      {
        "name": "จุฑามาศ",
        "role": "ปรับปรุง",
        "date": "2557-10-15"
      }
    ],
    "tag": "a136-2j-2550-a0004"
  }
}