{
  "pages": [
    [
      [
        "ข้อบัญญัติองค์การบริหารส่วนตำบลไกรกลาง",
        "เรื่อง การจำหน่ายสินค้าในที่หรือทางสาธารณะ",
        "พ.ศ. ๒๕๕๙"
      ]
    ],
    []
  ],
  "metadata": {
    "date_backmatter": "2559-10-18",
    "date_modified": "2560-05-05",
    "date_original": "2560-05-05",
    "editors": [
      {
        "name": "ปุณิกา/ภวรรณตรี",
        "role": "จัดทำ",
        "date": "2560-05-08"
      },
      {
        "name": "นุสรา",
        "role": "ตรวจ",
        "date": "2560-07-20"
      }
    ],
    "tag": "a136-2j-2560-a0345"
  }
}