{
  "pages": [
    [
      [
        "ข้อบัญญัติองค์การบริหารส่วนตำบลสี่ขีด",
        "เรื่อง การควบคุมการประกอบกิจการ การระเบิด การโม่ การป่นหินด้วยเครื่องจักร",
        "พ.ศ. ๒๕๕๖"
      ]
    ],
    []
  ],
  "metadata": {
    "date_backmatter": "2556-12-03",
    "date_modified": "2558-01-22",
    "date_original": "2558-01-22",
    "editors": [
      {
        "name": "ปริยานุช",
        "role": "ผู้จัดทำ",
        "date": "2558-01-28"
      },
      {
        "name": "ปริญสินีย์",
        "role": "ผู้ตรวจ",
        "date": "2558-01-28"
      }
    ],
    "tag": "a136-2j-2558-a0019"
  }
}