{
  "pages": [
    [
      [
        "ข้อบัญญัติองค์การบริหารส่วนตำบลคลองนครเนื่องเขต",
        "เรื่อง กิจการที่เป็นอันตรายต่อสุขภาพ",
        "พ.ศ. ๒๕๕๐"
      ]
    ],
    []
  ],
  "metadata": {
    "date_backmatter": "2550-11-22",
    "date_modified": "2551-02-25",
    "date_original": "2551-02-25",
    "editors": [
      {
        "name": "วัชศักดิ์",
        "role": "ผู้จัดทำ",
        "date": "2551-03-05"
      },
      {
        "name": "จุฑามาศ",
        "role": "ปรับปรุง",
        "date": "2557-10-28"
      }
    ],
    "tag": "a136-2j-2551-a0014"
  }
}