{
  "pages": [
    [
      [
        "ข้อบัญญัติองค์การบริหารส่วนตำบลคำโตนด",
        "เรื่อง การกำจัดสิ่งปฏิกูล และมูลฝอย แก้ไขเพิ่มเติม (ฉบับที่ ๓)",
        "พ.ศ. ๒๕๕๖"
      ]
    ],
    []
  ],
  "metadata": {
    "date_backmatter": "2557-01-13",
    "date_modified": "2557-06-05",
    "date_original": "2557-06-05",
    "editors": [
      {
        "name": "ปริยานุช",
        "role": "ผู้จัดทำ",
        "date": "2557-06-11"
      },
      {
        "name": "นุสรา",
        "role": "ผู้ตรวจ",
        "date": "2557-08-13"
      }
    ],
    "tag": "a136-2j-2557-a0085"
  }
}