{
  "pages": [
    [
      [
        "ข้อบัญญัติองค์การบริหารส่วนตำบลวัดตูม",
        "เรื่อง การควบคุมสถานที่จำหน่ายอาหารและสถานที่สะสมอาหาร",
        "พ.ศ. ๒๕๕๘"
      ]
    ],
    []
  ],
  "metadata": {
    "date_backmatter": "2559-01-25",
    "date_modified": "2559-04-19",
    "date_original": "2559-04-19",
    "editors": [
      {
        "name": "วิศนี/ปริยานุช",
        "role": "จัดทำ",
        "date": "2559-05-23"
      }
    ],
    "tag": "a136-2j-2559-a0125"
  }
}