{
  "pages": [
    [
      [
        "ข้อบัญญัติองค์การบริหารส่วนตำบลบางบัวทอง",
        "เรื่อง การควบคุมแหล่งเพาะพันธุ์ยุงลาย",
        "พ.ศ. ๒๕๕๙"
      ]
    ],
    []
  ],
  "metadata": {
    "date_backmatter": "2559-05-30",
    "date_modified": "2560-01-16",
    "date_original": "2560-01-16",
    "editors": [
      {
        "name": "วริญา/ปริยานุช",
        "role": "จัดทำ",
        "date": "2560-01-18"
      },
      {
        "name": "นุสรา",
        "role": "ตรวจ",
        "date": "2560-03-22"
      }
    ],
    "tag": "a136-2j-2560-a0065"
  }
}