{
  "pages": [
    [
      [
        "ข้อบัญญัติองค์การบริหารส่วนตำบลโคกคอน",
        "เรื่อง การควบคุมแหล่งเพาะพันธุ์ยุงลาย",
        "พ.ศ. ๒๕๕๙"
      ]
    ],
    []
  ],
  "metadata": {
    "date_backmatter": "2559-07-22",
    "date_modified": "2560-01-18",
    "date_original": "2560-01-18",
    "editors": [
      {
        "name": "ปุณิกา/ปริยานุช",
        "role": "จัดทำ",
        "date": "2560-01-20"
      },
      {
        "name": "นุสรา",
        "role": "ตรวจ",
        "date": "2560-03-22"
      }
    ],
    "tag": "a136-2j-2560-a0091"
  }
}