{
  "pages": [
    [
      [
        "ข้อบัญญัติองค์การบริหารส่วนตำบลคำโตนด",
        "เรื่อง การควบคุมการเลี้ยงหรือปล่อยสัตว์",
        "พ.ศ. ๒๕๕๓"
      ]
    ],
    []
  ],
  "metadata": {
    "date_backmatter": "2553-12-29",
    "date_modified": "2554-07-21",
    "date_original": "2554-07-21",
    "editors": [
      {
        "name": "ปริยานุช",
        "role": "ผู้จัดทำ",
        "date": "2554-08-16"
      },
      {
        "name": "ณัฐวดี",
        "role": "ตรวจ",
        "date": "2554-08-16"
      },
      {
        "name": "จุฑามาศ",
        "role": "ปรับปรุง",
        "date": "2558-03-06"
      }
    ],
    "tag": "a136-2j-2554-a0095"
  }
}