{
  "pages": [
    [
      [
        "ข้อบัญญัติองค์การบริหารส่วนตำบลยางตลาด",
        "เรื่อง สถานที่จำหน่ายอาหารและสถานที่สะสมอาหาร พ.ศ. ๒๕๕๖"
      ]
    ],
    []
  ],
  "metadata": {
    "date_backmatter": "2556-02-04",
    "date_modified": "2556-07-04",
    "date_original": "2556-07-04",
    "editors": [
      {
        "name": "ปริยานุช",
        "role": "ผู้จัดทำ",
        "date": "2556-07-09"
      },
      {
        "name": "อุษมล",
        "role": "ผู้ตรวจ",
        "date": "2556-07-09"
      }
    ],
    "tag": "a136-2j-2556-a0061"
  }
}