{
  "pages": [
    [
      [
        "ข้อบัญญัติองค์การบริหารส่วนตำบลบ้านบ่อ",
        "เรื่อง การจัดการมูลฝอยติดเชื้อ",
        "พ.ศ. ๒๕๖๐"
      ]
    ],
    []
  ],
  "metadata": {
    "date_backmatter": "2560-11-24",
    "date_modified": "2561-05-18",
    "date_original": "2561-05-18",
    "editors": [
      {
        "name": "ปุณิกา",
        "role": "จัดทำ",
        "date": "2562-02-25"
      }
    ],
    "tag": "a136-2j-2561-a0233"
  }
}