{
  "pages": [
    [
      [
        "ข้อบัญญัติองค์การบริหารส่วนตำบลนาม่วง",
        "เรื่อง การจัดการมูลฝอยติดเชื้อ",
        "พ.ศ. ๒๕๖๐"
      ]
    ],
    []
  ],
  "metadata": {
    "date_backmatter": "2560-10-31",
    "date_modified": "2561-06-04",
    "date_original": "2561-06-04",
    "editors": [
      {
        "name": "ปวันวิทย์",
        "role": "จัดทำ",
        "date": "2561-08-09"
      }
    ],
    "tag": "a136-2j-2561-a0269"
  }
}