{
  "pages": [
    [
      [
        "ข้อบัญญัติองค์การบริหารส่วนตำบลนาตงวัฒนา",
        "เรื่อง ตลาด",
        "พ.ศ. ๒๕๖๑"
      ]
    ],
    []
  ],
  "metadata": {
    "date_backmatter": "2561-03-05",
    "date_modified": "2561-07-11",
    "date_original": "2561-07-11",
    "editors": [
      {
        "name": "พรวิภา",
        "role": "จัดทำ",
        "date": "2561-10-02"
      }
    ],
    "tag": "a136-2j-2561-a0372"
  }
}