{
  "pages": [
    [
      [
        "ข้อบัญญัติองค์การบริหารส่วนตำบลหนองแหย่ง",
        "เรื่อง การควบคุมกิจการที่เป็นอันตรายต่อสุขภาพ พ.ศ. ๒๕๕๑",
        "ประเภทการประกอบกิจการทั่วไป"
      ]
    ],
    []
  ],
  "metadata": {
    "date_backmatter": "2551-05-18",
    "date_modified": "2552-03-26",
    "date_original": "2552-03-26",
    "editors": [
      {
        "name": "ปริยานุช",
        "role": "ผู้จัดทำ",
        "date": "2552-04-07"
      },
      {
        "name": "จุฑามาศ",
        "role": "ปรับปรุง",
        "date": "2557-12-18"
      }
    ],
    "tag": "a136-2j-2552-a0070"
  }
}