{
  "pages": [
    [
      [
        "ข้อบัญญัติองค์การบริหารส่วนตำบลคือเวียง",
        "เรื่อง การจัดการสิ่งปฏิกูลและมูลฝอย (ฉบับที่ ๒)",
        "พ.ศ. ๒๕๕๙"
      ]
    ],
    []
  ],
  "metadata": {
    "date_backmatter": "2559-01-19",
    "date_modified": "2559-07-27",
    "date_original": "2559-07-27",
    "editors": [
      {
        "name": "ปุณิกา/ปริยานุช",
        "role": "จัดทำ",
        "date": "2559-08-01"
      },
      {
        "name": "นุสรา",
        "role": "ตรวจ",
        "date": "2559-10-28"
      }
    ],
    "tag": "a136-2j-2559-a0262"
  }
}