{
  "pages": [
    [
      [
        "ข้อบัญญัติองค์การบริหารส่วนตำบลแกลง",
        "เรื่อง กิจการที่เป็นอันตรายต่อสุขภาพ",
        "พ.ศ. ๒๕๕๙"
      ]
    ],
    []
  ],
  "metadata": {
    "date_backmatter": "2559-09-30",
    "date_modified": "2560-06-29",
    "date_original": "2560-06-29",
    "editors": [
      {
        "name": "ปุณิกา/อัญชลี",
        "role": "จัดทำ",
        "date": "2560-07-03"
      },
      {
        "name": "นุสรา",
        "role": "ตรวจ",
        "date": "2560-11-08"
      }
    ],
    "tag": "a136-2j-2560-a0470"
  }
}