{
  "pages": [
    [
      [
        "ข้อบัญญัติตำบลนิคมพัฒนา",
        "เรื่อง การจัดการสิ่งปฏิกูลและมูลฝอย (ฉบับที่ ๒)",
        "พ.ศ. ๒๕๕๑"
      ]
    ],
    []
  ],
  "metadata": {
    "date_backmatter": "2551-09-15",
    "date_modified": "2552-05-21",
    "date_original": "2552-05-21",
    "editors": [
      {
        "name": "ปริยานุช",
        "role": "ผู้จัดทำ",
        "date": "2552-05-27"
      },
      {
        "name": "จุฑามาศ",
        "role": "ปรับปรุง",
        "date": "2557-12-29"
      }
    ],
    "tag": "a136-2j-2552-a0140"
  }
}