{
  "pages": [
    [
      [
        "ข้อบัญญัติองค์การบริหารส่วนตำบลลือ",
        "เรื่อง การบริหารกิจการสถานีสูบน้ำด้วยไฟฟ้า",
        "พ.ศ. ๒๕๕๙"
      ]
    ],
    []
  ],
  "metadata": {
    "date_backmatter": "2559-11-30",
    "date_modified": "2560-10-30",
    "date_original": "2560-10-30",
    "editors": [
      {
        "name": "ปุณิกา/อัญชลี",
        "role": "จัดทำ",
        "date": "2560-11-01"
      }
    ],
    "tag": "a136-2j-2560-a0759"
  }
}