{
  "pages": [
    [
      [
        "ข้อบัญญัติองค์การบริหารส่วนตำบลกระแจะ",
        "เรื่อง การควบคุมแหล่งเพาะพันธุ์ยุงลาย พ.ศ. ๒๕๕๗"
      ]
    ],
    []
  ],
  "metadata": {
    "date_backmatter": "2557-07-15",
    "date_modified": "2557-12-25",
    "date_original": "2557-12-25",
    "editors": [
      {
        "name": "ปริยานุช",
        "role": "ผู้จัดทำ",
        "date": "2558-01-08"
      },
      {
        "name": "วิศนี",
        "role": "ผู้ตรวจ",
        "date": "2558-01-12"
      }
    ],
    "tag": "a136-2j-2557-a0199"
  }
}