{
  "pages": [
    [
      [
        "ข้อบัญญัติกรุงเทพมหานคร",
        "เรื่อง การควบคุมการเลี้ยงหรือปล่อยสัตว์",
        "พ.ศ. ๒๕๔๕"
      ]
    ],
    []
  ],
  "metadata": {
    "date_backmatter": "2545-02-08",
    "date_modified": "2545-03-26",
    "date_original": "2545-03-26",
    "editors": [
      {
        "name": "พรพิมล",
        "role": "แก้ไข",
        "date": "2545-08-05"
      },
      {
        "name": "จุฑามาศ",
        "role": "ปรับปรุง",
        "date": "2557-10-10"
      }
    ],
    "tag": "a136-2j-2545-a004"
  }
}