{
  "pages": [
    [
      [
        "ข้อบัญญัติองค์การบริหารส่วนตำบลเมืองคง",
        "เรื่อง การจำหน่ายสินค้าที่หรือทางสาธารณะ",
        "พ.ศ. ๒๕๕๙"
      ]
    ],
    []
  ],
  "metadata": {
    "date_backmatter": "2559-08-16",
    "date_modified": "2560-06-07",
    "date_original": "2560-06-07",
    "editors": [
      {
        "name": "พรวิภา/ภวรรณตรี",
        "role": "จัดทำ",
        "date": "2560-06-09"
      },
      {
        "name": "ปริญสินีย์",
        "role": "ตรวจ",
        "date": "2560-07-31"
      }
    ],
    "tag": "a136-2j-2560-a0414"
  }
}