{
  "pages": [
    [
      [
        "ข้อบัญญัติองค์การบริหารส่วนตำบลทุ่งแล้ง",
        "เรื่อง การควบคุมกิจการที่เป็นอันตรายต่อสุขภาพ",
        "พ.ศ. ๒๕๕๘"
      ]
    ],
    []
  ],
  "metadata": {
    "date_backmatter": "2559-02-10",
    "date_modified": "2559-09-02",
    "date_original": "2559-09-02",
    "editors": [
      {
        "name": "ปริยานุช",
        "role": "จัดทำ",
        "date": "2559-09-05"
      },
      {
        "name": "ปุณิกา",
        "role": "ตรวจ",
        "date": "2559-10-05"
      }
    ],
    "tag": "a136-2j-2559-a0338"
  }
}