{
  "pages": [
    [
      [
        "ข้อบัญญัติองค์การบริหารส่วนตำบลบ้านฝาง",
        "เรื่อง กิจการที่เป็นอันตรายต่อสุขภาพ",
        "พ.ศ. ๒๕๕๘"
      ]
    ],
    []
  ],
  "metadata": {
    "date_backmatter": "2559-08-01",
    "date_modified": "2560-01-13",
    "date_original": "2560-01-13",
    "editors": [
      {
        "name": "วริญา/ปริยานุช",
        "role": "จัดทำ",
        "date": "2560-01-17"
      },
      {
        "name": "นุสรา",
        "role": "ตรวจ",
        "date": "2560-03-09"
      }
    ],
    "tag": "a136-2j-2560-a0060"
  }
}