{
  "pages": [
    [
      [
        "ข้อบัญญัติองค์การบริหารส่วนตำบลอ่างทอง",
        "เรื่อง กิจการที่เป็นอันตรายต่อสุขภาพ",
        "พ.ศ. ๒๕๖๐"
      ]
    ],
    []
  ],
  "metadata": {
    "date_backmatter": "2560-03-22",
    "date_modified": "2561-08-31",
    "date_original": "2561-08-31",
    "editors": [
      {
        "name": "ปวันวิทย์",
        "role": "จัดทำ",
        "date": "2561-10-01"
      }
    ],
    "tag": "a136-2j-2561-a0481"
  }
}