{
  "pages": [
    [
      [
        "ข้อบัญญัติองค์การบริหารส่วนตำบลผาช้างน้อย",
        "เรื่อง สถานที่จำหน่ายอาหารและสถานที่สะสมอาหาร",
        "พ.ศ. ๒๕๕๙"
      ]
    ],
    []
  ],
  "metadata": {
    "date_backmatter": "2559-08-11",
    "date_modified": "2560-12-13",
    "date_original": "2560-12-13",
    "editors": [
      {
        "name": "พัชรภรณ์/อัญชลี",
        "role": "จัดทำ",
        "date": "2560-12-18"
      },
      {
        "name": "นุสรา",
        "role": "ตรวจ",
        "date": "2560-12-30"
      }
    ],
    "tag": "a136-2j-2560-a0839"
  }
}