{
  "pages": [
    [
      [
        "ข้อบัญญัติองค์การบริหารส่วนตำบลห้วยยั้ง",
        "เรื่อง การควบคุมกิจการที่เป็นอันตรายต่อสุขภาพ",
        "พ.ศ. ๒๕๕๙"
      ]
    ],
    []
  ],
  "metadata": {
    "date_backmatter": "2559-09-14",
    "date_modified": "2560-04-19",
    "date_original": "2560-04-19",
    "editors": [
      {
        "name": "ชวัลพร/ภวรรณตรี",
        "role": "จัดทำ",
        "date": "2560-04-24"
      }
    ],
    "tag": "a136-2j-2560-a0297"
  }
}