{
  "pages": [
    [
      [
        "ข้อบัญญัติองค์การบริหารส่วนตำบลชุมแสง",
        "เรื่อง การควบคุมแหล่งเพาะพันธุ์ยุงลาย",
        "พ.ศ. ๒๕๕๘"
      ]
    ],
    []
  ],
  "metadata": {
    "date_backmatter": "2558-09-04",
    "date_modified": "2558-11-26",
    "date_original": "2558-11-26",
    "editors": [
      {
        "name": "ปริยานุช",
        "role": "จัดทำ",
        "date": "2558-12-01"
      },
      {
        "name": "วริญา",
        "role": "ตรวจ",
        "date": "2558-12-18"
      }
    ],
    "tag": "a136-2j-2558-a0663"
  }
}