{
  "pages": [
    [
      [
        "ข้อบัญญัติองค์การบริหารส่วนตำบลโนนสะอาด",
        "เรื่อง การบริหารกิจการสถานีสูบน้ำด้วยไฟฟ้า",
        "พ.ศ. ๒๕๖๐"
      ]
    ],
    []
  ],
  "metadata": {
    "date_backmatter": "2560-04-25",
    "date_modified": "2561-07-11",
    "date_original": "2561-07-11",
    "editors": [
      {
        "name": "พรวิภา",
        "role": "จัดทำ",
        "date": "2561-10-02"
      }
    ],
    "tag": "a136-2j-2561-a0380"
  }
}