{
  "pages": [
    [
      [
        "เทศบัญญัติเทศบาลตำบลไชยปราการ",
        "เรื่อง การควบคุมกิจการที่เป็นอันตรายต่อสุขภาพ",
        "พ.ศ. ๒๕๔๓"
      ]
    ],
    []
  ],
  "metadata": {
    "date_backmatter": "2543-07-19",
    "date_modified": "2552-10-08",
    "date_original": "2552-10-08",
    "editors": [
      {
        "name": "ปริยานุช",
        "role": "ผู้จัดทำ",
        "date": "2552-10-14"
      },
      {
        "name": "นันท์นภัสร์",
        "role": "ตรวจ",
        "date": "2552-10-14"
      },
      {
        "name": "จุฑามาศ",
        "role": "ปรับปรุง",
        "date": "2558-03-25"
      }
    ],
    "tag": "a136-2k-2552-a0030"
  }
}