{
  "pages": [
    [
      [
        "ข้อบัญญัติองค์การบริหารส่วนตำบลคอกช้าง",
        "เรื่อง การจัดการมูลฝอยทั่วไป",
        "พ.ศ. ๒๕๕๙"
      ]
    ],
    []
  ],
  "metadata": {
    "date_backmatter": "2559-06-28",
    "date_modified": "2560-01-04",
    "date_original": "2560-01-04",
    "editors": [
      {
        "name": "ชวัลพร/ปริยานุช",
        "role": "จัดทำ",
        "date": "2560-01-10"
      }
    ],
    "tag": "a136-2j-2560-a0020"
  }
}