{
  "pages": [
    [
      [
        "ข้อบัญญัติองค์การบริหารส่วนตำบลนนทรี",
        "เรื่อง หลักเกณฑ์การประกอบกิจการที่เป็นอันตรายต่อสุขภาพประเภทกิจการเลี้ยงไก่",
        "และกิจการเลี้ยงสุกรในพื้นที่ตำบลนนทรี",
        "พ.ศ. ๒๕๕๕"
      ]
    ],
    []
  ],
  "metadata": {
    "date_backmatter": "2555-03-05",
    "date_modified": "2555-05-10",
    "date_original": "2555-05-10",
    "editors": [
      {
        "name": "ปริยานุช",
        "role": "ผู้จัดทำ",
        "date": "2555-05-16"
      },
      {
        "name": "ชาญ",
        "role": "ผู้ตรวจ",
        "date": "2555-05-18"
      }
    ],
    "tag": "a136-2j-2555-a0064"
  }
}