{
  "pages": [
    [
      [
        "ข้อบัญญัติองค์การบริหารส่วนตำบลกกสะทอน",
        "เรื่อง การควบคุมสถานประกอบกิจการและการดำเนินกิจการ รับซื้อ",
        "หรือ สะสมยางก้อนหรือยางก้อนถ้วย พ.ศ. ๒๕๕๗"
      ]
    ],
    []
  ],
  "metadata": {
    "date_backmatter": "2557-09-26",
    "date_modified": "2558-07-16",
    "date_original": "2558-07-16",
    "editors": [
      {
        "name": "ปริยานุช",
        "role": "ผู้จัดทำ",
        "date": "2558-07-22"
      },
      {
        "name": "ปัญจพร",
        "role": "ผู้ตรวจ",
        "date": "2558-07-22"
      }
    ],
    "tag": "a136-2j-2558-a0258"
  }
}