{
  "pages": [
    [
      [
        "ประกาศกระทรวงสาธารณสุข",
        "เรื่อง กำหนดหลักเกณฑ์และเงื่อนไขว่าด้วยการขนและการกำจัดมูลฝอยติดเชื้อ",
        "ในท้องที่เทศบาลตำบลและองค์การบริหารส่วนตำบล",
        "พ.ศ. ๒๕๕๘"
      ]
    ],
    []
  ],
  "metadata": {
    "date_backmatter": "2558-09-09",
    "date_modified": "2558-12-30",
    "date_original": "2558-12-30",
    "doctype": "ประกาศ",
    "editors": [
      {
        "name": "ปุณิกา/ปริยานุช",
        "role": "จัดทำ",
        "date": "2559-01-08"
      }
    ],
    "tag": "a136-2e-2558-a0003"
  }
}