{
  "pages": [
    [
      [
        "ข้อบัญญัติองค์การบริหารส่วนตำบลใหม่นาเพียง",
        "เรื่อง การควบคุมกิจการที่เป็นอันตรายต่อสุขภาพ",
        "พ.ศ. ๒๕๕๗"
      ]
    ],
    []
  ],
  "metadata": {
    "date_backmatter": "2557-03-01",
    "date_modified": "2557-08-21",
    "date_original": "2557-08-21",
    "editors": [
      {
        "name": "ปริยานุช",
        "role": "ผู้จัดทำ",
        "date": "2557-08-22"
      },
      {
        "name": "ปริญสินีย์",
        "role": "ผู้ตรวจ",
        "date": "2557-08-22"
      }
    ],
    "tag": "a136-2j-2557-a0117"
  }
}