{
  "pages": [
    [
      [
        "ข้อบัญญัติองค์การบริหารส่วนตำบลนาพรุ",
        "เรื่อง การบริหารกิจการประปา",
        "พ.ศ. ๒๕๖๐"
      ]
    ],
    []
  ],
  "metadata": {
    "date_backmatter": "2560-10-31",
    "date_modified": "2561-05-18",
    "date_original": "2561-05-18",
    "editors": [
      {
        "name": "ปุณิกา",
        "role": "จัดทำ",
        "date": "2562-02-25"
      }
    ],
    "tag": "a136-2j-2561-a0226"
  }
}