{
  "pages": [
    [
      [
        "ข้อบัญญัติองค์การบริหารส่วนตำบลหนองจอก",
        "เรื่อง กิจการที่เป็นอันตรายต่อสุขภาพ",
        "พ.ศ. ๒๕๕๘"
      ]
    ],
    []
  ],
  "metadata": {
    "date_backmatter": "2558-11-06",
    "date_modified": "2559-03-24",
    "date_original": "2559-03-24",
    "editors": [
      {
        "name": "กัญฑรัตน์/ปริยานุช",
        "role": "จัดทำ",
        "date": "2559-04-01"
      }
    ],
    "tag": "a136-2j-2559-a0094"
  }
}