{
  "pages": [
    [
      [
        "พระราชบัญญัติ",
        "เหรียญที่ระลึกพระราชพิธีสถาปนา",
        "สมเด็จพระบรมโอรสาธิราช สยามมกุฎราชกุมาร",
        "พ.ศ. ๒๕๓๙",
        "",
        "",
        "ภูมิพลอดุลยเดช ป.ร.",
        "ให้ไว้ ณ วันที่ ๕ กันยายน พ.ศ. ๒๕๓๙",
        "เป็นปีที่ ๕๑ ในรัชกาลปัจจุบัน"
      ]
    ],
    []
  ],
  "metadata": {
    "date_backmatter": "2515-12-13",
    "date_header": "2539-09-05",
    "date_modified": "2539-09-17",
    "date_original": "2539-09-17",
    "doctype": "พระราชบัญญัติ",
    "editors": [
      {
        "name": "วสุ สรรกำเนิด",
        "role": "ผู้ปรับปรุง",
        "date": "2552-04-20"
      },
      {
        "name": "วิมล",
        "role": "ผู้จัดทำ",
        "date": "2556-11-01"
      }
    ],
    "tag": "cb19-20-2539-a0001",
    "title": "เหรียญที่ระลึกพระราชพิธีสถาปนาสมเด็จพระบรมโอรสาธิราช สยามมกุฎราชกุมาร"
  }
}