{
  "pages": [
    [
      [
        "ประกาศกระทรวงเกษตรและสหกรณ์",
        "เรื่อง กำหนดปุ๋ยที่ได้รับการยกเว้นไม่ต้องขึ้นทะเบียน",
        "ตามพระราชบัญญัติปุ๋ย พ.ศ. ๒๕๑๘ ซึ่งแก้ไขเพิ่มเติมโดยพระราชบัญญัติปุ๋ย (ฉบับที่ ๒) พ.ศ. ๒๕๕๐",
        "พ.ศ. ๒๕๕๔"
      ]
    ],
    []
  ],
  "metadata": {
    "date_backmatter": "2554-08-01",
    "date_modified": "2554-08-30",
    "date_original": "2554-08-30",
    "doctype": "ประกาศ",
    "editors": [
      {
        "name": "ปริยานุช",
        "role": "ผู้จัดทำ",
        "date": "2554-09-15"
      },
      {
        "name": "ปณตภร",
        "role": "ผู้ตรวจ",
        "date": "2554-10-10"
      }
    ],
    "tag": "bb30-2e-2554-a0001"
  }
}