{
  "pages": [
    [
      [
        "ประกาศกรมวิชาการเกษตร",
        "เรื่อง หลักเกณฑ์ วิธีการนำปุ๋ยหรือวัตถุที่สงสัยว่าเป็นปุ๋ยในปริมาณพอสมควร",
        "ไปเป็นตัวอย่างเพื่อตรวจสอบหรือวิเคราะห์ตามพระราชบัญญัติปุ๋ย พ.ศ. ๒๕๑๘",
        "ซึ่งแก้ไขเพิ่มเติมโดยพระราชบัญญัติปุ๋ย (ฉบับที่ ๒) พ.ศ. ๒๕๕๐",
        "พ.ศ. ๒๕๕๔"
      ]
    ],
    []
  ],
  "metadata": {
    "date_backmatter": "2554-09-09",
    "date_modified": "2554-10-14",
    "date_original": "2554-10-14",
    "doctype": "ประกาศ",
    "editors": [
      {
        "name": "ปริยานุช",
        "role": "ผู้จัดทำ",
        "date": "2554-10-19"
      },
      {
        "name": "ปณตภร",
        "role": "ผู้ตรวจ",
        "date": "2554-10-25"
      }
    ],
    "tag": "bb30-2e-2554-a0005"
  }
}