{
  "pages": [
    [
      [
        "ประกาศกระทรวงเกษตรและสหกรณ์",
        "เรื่อง ข้อความอื่นที่รัฐมนตรีกำหนดให้มีในฉลากปุ๋ย (ฉบับที่ ๒)",
        "พ.ศ. ๒๕๕๘"
      ]
    ],
    []
  ],
  "metadata": {
    "date_backmatter": "2558-06-25",
    "date_modified": "2558-07-09",
    "date_original": "2558-07-09",
    "doctype": "ประกาศ",
    "editors": [
      {
        "name": "ปริยานุช",
        "role": "ผู้จัดทำ",
        "date": "2558-07-13"
      },
      {
        "name": "ปุณิกา",
        "role": "ผู้ตรวจ",
        "date": "2558-07-27"
      },
      {
        "name": "ชุติมา",
        "role": "ปรับปรุง",
        "date": "2560-06-26"
      }
    ],
    "tag": "bb30-2e-2558-a0001"
  }
}