{
  "pages": [
    [
      [
        "ประกาศกระทรวงเกษตรและสหกรณ์",
        "เรื่อง กำหนดกรรมวิธีการตรวจวิเคราะห์ปุ๋ยเคมี",
        "พ.ศ. ๒๕๕๙"
      ]
    ],
    []
  ],
  "metadata": {
    "date_backmatter": "2559-11-25",
    "date_modified": "2560-01-04",
    "date_original": "2560-01-04",
    "doctype": "ประกาศ",
    "editors": [
      {
        "name": "ปริยานุช",
        "role": "จัดทำ",
        "date": "2560-01-10"
      },
      {
        "name": "ชวัลพร",
        "role": "ตรวจ",
        "date": "2560-02-27"
      }
    ],
    "tag": "bb30-2e-2560-a0002"
  }
}