{
  "pages": [
    [
      [
        "ประกาศกระทรวงเกษตรและสหกรณ์",
        "เรื่อง แต่งตั้งพนักงานเจ้าหน้าที่ตามพระราชบัญญัติปุ๋ย พ.ศ. ๒๕๑๘"
      ]
    ],
    []
  ],
  "metadata": {
    "date_backmatter": "2550-08-30",
    "date_modified": "2550-09-27",
    "date_original": "2550-09-27",
    "doctype": "ประกาศ",
    "editors": [
      {
        "name": "วัชศักดิ์",
        "role": "ผู้จัดทำ",
        "date": "2550-10-10"
      },
      {
        "name": "ชุติมา",
        "role": "ปรับปรุง",
        "date": "2560-06-26"
      }
    ],
    "tag": "bb30-2e-2550-a0002"
  }
}