{
  "pages": [
    [
      [
        "ประกาศคณะกรรมการกำกับหลักทรัพย์และตลาดหลักทรัพย์",
        "ที่ กจ. ๑๖/๒๕๖๑",
        "เรื่อง หลักเกณฑ์ เงื่อนไขและวิธีการให้ความเห็นชอบ",
        "ผู้ให้บริการระบบเสนอขายโทเคนดิจิทัล"
      ]
    ],
    []
  ],
  "metadata": {
    "date_backmatter": "2561-07-03",
    "date_modified": "2561-07-16",
    "date_original": "2561-07-16",
    "doctype": "ประกาศ",
    "editors": [
      {
        "name": "ปวันวิทย์",
        "role": "จัดทำ",
        "date": "2561-09-03"
      }
    ],
    "tag": "a1173-2e-2561-a0006"
  }
}