{
  "pages": [
    [
      [
        "ประกาศสำนักงานคณะกรรมการกำกับหลักทรัพย์และตลาดหลักทรัพย์",
        "ที่ สลธ. ๓๖/๒๕๖๑",
        "เรื่อง การจัดการและจัดเก็บข้อมูลที่เกี่ยวข้องกับ",
        "การประกอบธุรกิจสินทรัพย์ดิจิทัล"
      ]
    ],
    []
  ],
  "metadata": {
    "date_backmatter": "2561-07-11",
    "date_modified": "2561-07-19",
    "date_original": "2561-07-19",
    "doctype": "ประกาศ",
    "editors": [
      {
        "name": "ปวันวิทย์",
        "role": "จัดทำ",
        "date": "2561-09-03"
      }
    ],
    "tag": "a1173-2e-2561-a0012"
  }
}