{
  "pages": [
    [
      [
        "ระเบียบคณะกรรมการกองทุนเงินให้กู้ยืมเพื่อการศึกษา",
        "ว่าด้วย การดำเนินงาน หลักเกณฑ์ และวิธีการกู้ยืมเงิน",
        "กองทุนเงินให้กู้ยืมเพื่อการศึกษา (ฉบับที่ ๓) พ.ศ. ๒๕๕๕"
      ]
    ],
    []
  ],
  "metadata": {
    "date_backmatter": "2555-04-20",
    "date_modified": "2555-07-31",
    "date_original": "2555-07-31",
    "editors": [
      {
        "name": "ปริยานุช",
        "role": "ผู้จัดทำ",
        "date": "2555-08-07"
      },
      {
        "name": "ชาญ",
        "role": "ผู้ตรวจ",
        "date": "2555-08-14"
      }
    ],
    "tag": "a189-2g-2555-a0002"
  }
}