{
  "pages": [
    [
      [
        "ประกาศสถาบันคุ้มครองเงินฝาก",
        "เรื่อง โครงสร้างและการจัดองค์กรในการดำเนินงาน สรุปอำนาจหน้าที่ที่สำคัญ วิธีดำเนินงาน",
        "และสถานที่ติดต่อเพื่อขอรับข้อมูลข่าวสารของสถาบันคุ้มครองเงินฝาก"
      ]
    ],
    []
  ],
  "metadata": {
    "date_backmatter": "2556-03-26",
    "date_modified": "2556-04-19",
    "date_original": "2556-04-19",
    "doctype": "ประกาศ",
    "editors": [
      {
        "name": "ปริยานุช",
        "role": "ผู้จัดทำ",
        "date": "2556-04-24"
      },
      {
        "name": "โชติกานต์",
        "role": "ผู้ตรวจ",
        "date": "2556-05-20"
      }
    ],
    "tag": "ca78-2e-2556-a0002"
  }
}