{
  "pages": [
    [
      [
        "ประกาศกระทรวงพาณิชย์",
        "เรื่อง แต่งตั้งพนักงานเจ้าหน้าที่และบัตรประจำตัวพนักงานเจ้าหน้าที่",
        "ตามพระราชบัญญัติการผลิตผลิตภัณฑ์ซีดี พ.ศ. ๒๕๔๘"
      ]
    ],
    []
  ],
  "metadata": {
    "date_backmatter": "2548-08-24",
    "date_modified": "2548-08-29",
    "date_original": "2548-08-29",
    "doctype": "ประกาศ",
    "editors": [
      {
        "name": "ฐิติพงษ์",
        "role": "ผู้จัดทำ",
        "date": "2548-09-07"
      },
      {
        "name": "ดลธี",
        "role": "ผู้จัดทำ",
        "date": "2552-02-23"
      },
      {
        "name": "พัชรินทร์",
        "role": "ตรวจ",
        "date": "2552-02-23"
      },
      {
        "name": "ภัทรวีร์",
        "role": "ปรับปรุง",
        "date": "2560-08-31"
      }
    ],
    "tag": "a1118-2e-2548-a0002"
  }
}