{
  "pages": [
    [
      [
        "ประกาศคณะกรรมการการกระจายอำนาจให้แก่องค์กรปกครองส่วนท้องถิ่น",
        "เรื่อง หลักเกณฑ์ วิธีการ และอัตราการจัดสรรเงินภาษีมูลค่าเพิ่มตามพระราชบัญญัติกำหนดแผน",
        "และขั้นตอนการกระจายอำนาจให้แก่องค์กรปกครองส่วนท้องถิ่น พ.ศ. ๒๕๔๒",
        "ให้แก่องค์กรปกครองส่วนท้องถิ่น",
        "สำหรับปีงบประมาณ พ.ศ. ๒๕๕๓"
      ]
    ],
    []
  ],
  "metadata": {
    "date_backmatter": "2552-11-05",
    "date_modified": "2552-11-27",
    "date_original": "2552-11-27",
    "doctype": "ประกาศ",
    "editors": [
      {
        "name": "ปริยานุช",
        "role": "จัดทำ",
        "date": "2552-12-03"
      },
      {
        "name": "นันท์นภัสร์",
        "role": "ตรวจ",
        "date": "2552-12-03"
      },
      {
        "name": "จุฑามาศ",
        "role": "ปรับปรุง",
        "date": "2559-06-27"
      }
    ],
    "tag": "a1100-2e-2552-a0012"
  }
}