{
  "pages": [
    [
      [
        "ข้อบัญญัติองค์การบริหารส่วนตำบลท่าขึ้น",
        "เรื่อง การบริหารกิจการและการบำรุงรักษาระบบประปาหมู่บ้าน",
        "พ.ศ. ๒๕๕๖"
      ]
    ],
    []
  ],
  "metadata": {
    "date_backmatter": "2556-08-29",
    "date_modified": "2556-12-12",
    "date_original": "2556-12-12",
    "editors": [
      {
        "name": "ปริยานุช",
        "role": "ผู้จัดทำ",
        "date": "2556-12-13"
      },
      {
        "name": "จุฑามาศ",
        "role": "ผู้ตรวจ",
        "date": "2556-12-24"
      }
    ],
    "tag": "a1100-2j-2556-a0005"
  }
}