{
  "pages": [
    [
      [
        "ข้อบัญญัติองค์การบริหารส่วนตำบลบ่อแดง",
        "เรื่อง การใช้น้ำประปาขององค์การบริหารส่วนตำบลบ่อแดง",
        "พ.ศ. ๒๕๕๙"
      ]
    ],
    []
  ],
  "metadata": {
    "date_backmatter": "2559-12-30",
    "date_modified": "2560-11-27",
    "date_original": "2560-11-27",
    "editors": [
      {
        "name": "พิมพ์มาดา/อัญชลี",
        "role": "จัดทำ",
        "date": "2560-12-06"
      }
    ],
    "tag": "a1100-2j-2560-a0021"
  }
}