{
  "pages": [
    [
      [
        "ประกาศคณะกรรมการการกระจายอำนาจให้แก่องค์กรปกครองส่วนท้องถิ่น",
        "เรื่อง หลักเกณฑ์การจัดสรรเงินภาษีมูลค่าเพิ่มตามพระราชบัญญัติกำหนดแผนและขั้นตอน",
        "การกระจายอำนาจให้แก่องค์กรปกครองส่วนท้องถิ่น พ.ศ. ๒๕๔๒",
        "ให้แก่องค์กรปกครองส่วนท้องถิ่น สำหรับปีงบประมาณ",
        "พ.ศ. ๒๕๕๙"
      ]
    ],
    []
  ],
  "metadata": {
    "date_backmatter": "2558-10-09",
    "date_modified": "2558-10-20",
    "date_original": "2558-10-20",
    "doctype": "ประกาศ",
    "editors": [
      {
        "name": "ปริยานุช",
        "role": "จัดทำ",
        "date": "2558-10-22"
      },
      {
        "name": "วริญา",
        "role": "ตรวจ",
        "date": "2558-10-22"
      }
    ],
    "tag": "a1100-2e-2558-a0006"
  }
}