{
  "pages": [
    [
      [
        "ข้อบัญญัติองค์การบริหารส่วนตำบลเทพกระษัตรี",
        "เรื่อง ท่าเทียบเรือบ้านแหลมทราย พ.ศ. ๒๕๕๗"
      ]
    ],
    []
  ],
  "metadata": {
    "date_backmatter": "2557-07-28",
    "date_modified": "2557-12-09",
    "date_original": "2557-12-09",
    "editors": [
      {
        "name": "ปริยานุช",
        "role": "ผู้จัดทำ",
        "date": "2557-12-12"
      },
      {
        "name": "ปริญสินีย์",
        "role": "ผู้ตรวจ",
        "date": "2557-12-12"
      }
    ],
    "tag": "a1100-2j-2557-a0010"
  }
}