{
  "pages": [
    [
      [
        "ประกาศกรมธุรกิจพลังงาน",
        "เรื่อง การถ่ายโอนภารกิจงานควบคุมน้ำมันเชื้อเพลิง",
        "ตามพระราชบัญญัติกำหนดแผนและขั้นตอนการกระจายอำนาจ",
        "ให้แก่องค์กรปกครองส่วนท้องถิ่น",
        "พ.ศ. ๒๕๔๒"
      ]
    ],
    []
  ],
  "metadata": {
    "date_backmatter": "2546-12-01",
    "date_modified": "2547-01-28",
    "date_original": "2547-01-28",
    "doctype": "ประกาศ",
    "editors": [
      {
        "name": "ปณตภร",
        "role": "ผู้จัดทำ",
        "date": "2554-09-30"
      }
    ],
    "tag": "a1100-2e-2547-a0001"
  }
}