{
  "pages": [
    [
      [
        "ประกาศกำหนดหลักเกณฑ์และวิธีการการเลือก",
        "กรรมการผู้แทนองค์กรปกครองส่วนท้องถิ่น",
        "และการสรรหากรรมการผู้ทรงคุณวุฒิในคณะกรรมการ",
        "การกระจายอำนาจให้แก่องค์กรปกครองส่วนท้องถิ่น",
        "พ.ศ. ๒๕๔๒"
      ]
    ],
    []
  ],
  "metadata": {
    "date_backmatter": "2542-12-22",
    "date_modified": "2542-12-23",
    "date_original": "2542-12-23",
    "doctype": "ประกาศ",
    "editors": [
      {
        "name": "ปณตภร",
        "role": "ผู้จัดทำ",
        "date": "2554-09-30"
      }
    ],
    "tag": "a1100-2e-2542-a0001"
  }
}