{
  "pages": [
    [
      [
        "ข้อบัญญัติองค์การบริหารส่วนตำบลคำด้วง",
        "เรื่อง การประปาองค์การบริหารส่วนตำบลคำด้วง พ.ศ. ๒๕๕๖"
      ]
    ],
    []
  ],
  "metadata": {
    "date_backmatter": "2556-09-05",
    "date_modified": "2558-08-26",
    "date_original": "2558-08-26",
    "editors": [
      {
        "name": "ปริยานุช",
        "role": "จัดทำ",
        "date": "2558-08-28"
      },
      {
        "name": "ปริญสินีย์",
        "role": "ตรวจ",
        "date": "2558-08-28"
      }
    ],
    "tag": "a1100-2j-2558-a0021"
  }
}