{
  "pages": [
    [
      [
        "ประกาศคณะกรรมการการกระจายอำนาจ",
        "ให้แก่องค์กรปกครองส่วนท้องถิ่น",
        "เรื่อง การจัดสรรเงินภาษีมูลค่าเพิ่มตามพระราชบัญญัติกำหนดแผน",
        "และขั้นตอนการกระจายอำนาจให้แก่องค์กรปกครองส่วนท้องถิ่น",
        "พ.ศ. ๒๕๔๒ ให้แก่องค์กรปกครองส่วนท้องถิ่น",
        "สำหรับปีงบประมาณ พ.ศ. ๒๕๔๗"
      ]
    ],
    []
  ],
  "metadata": {
    "date_backmatter": "2546-08-19",
    "date_modified": "2546-09-09",
    "date_original": "2546-09-09",
    "doctype": "ประกาศ",
    "editors": [
      {
        "name": "มัตติกา",
        "role": "พิมพ์",
        "date": "2546-12-09"
      },
      {
        "name": "สุมลรัตน์/อรรถชัย",
        "role": "ตรวจ",
        "date": "2546-12-12"
      },
      {
        "name": "บรรณพต",
        "role": "แก้ไข",
        "date": "2546-12-12"
      },
      {
        "name": "ปาจรีย์",
        "role": "ปรับปรุง",
        "date": "2549-03-29"
      },
      {
        "name": "จุฑามาศ",
        "role": "ปรับปรุง",
        "date": "2559-06-24"
      }
    ],
    "tag": "a1100-2e-2546-a0009"
  }
}