{
  "pages": [
    [
      [
        "ประกาศคณะกรรมการการกระจายอำนาจ",
        "ให้แก่องค์กรปกครองส่วนท้องถิ่น",
        "เรื่อง การจัดสรรเงินอุดหนุนทั่วไปเพื่อแก้ไขปัญหาการกระจายอำนาจ",
        "ปีงบประมาณ พ.ศ. ๒๕๔๘"
      ]
    ],
    []
  ],
  "metadata": {
    "date_backmatter": "2548-01-14",
    "date_modified": "2548-02-11",
    "date_original": "2548-02-11",
    "doctype": "ประกาศ",
    "editors": [
      {
        "name": "พุทธพัท",
        "role": "จัดทำ",
        "date": "2548-06-03"
      },
      {
        "name": "ปาจรีย์",
        "role": "ปรับปรุง",
        "date": "2549-03-24"
      },
      {
        "name": "จุฑามาศ",
        "role": "ปรับปรุง",
        "date": "2559-06-25"
      }
    ],
    "tag": "a1100-2e-2548-a0001"
  }
}