{
  "pages": [
    [
      [
        "ข้อบัญญัติองค์การบริหารส่วนตำบลป่ายุบใน",
        "เรื่อง การบริหารกิจการประปา",
        "พ.ศ. ๒๕๖๐"
      ]
    ],
    []
  ],
  "metadata": {
    "date_backmatter": "2560-03-14",
    "date_modified": "2561-02-19",
    "date_original": "2561-02-19",
    "editors": [
      {
        "name": "ปุณิกา",
        "role": "จัดทำ",
        "date": "2561-05-25"
      }
    ],
    "tag": "a1100-2j-2561-a0027"
  }
}