{
  "pages": [
    [
      [
        "ประกาศคณะกรรมการการกระจายอำนาจ",
        "ให้แก่องค์กรปกครองส่วนท้องถิ่น",
        "เรื่อง การจัดสรรเงินอุดหนุนทั่วไปเพื่อดำเนินภารกิจถ่ายโอนตามแผนปฏิบัติการกำหนดขั้นตอน",
        "การกระจายอำนาจให้แก่องค์กรปกครองส่วนท้องถิ่น ปีงบประมาณ พ.ศ. ๒๕๔๗",
        "(ฉบับที่ ๓)"
      ]
    ],
    []
  ],
  "metadata": {
    "date_backmatter": "2547-06-15",
    "date_modified": "2548-07-29",
    "date_original": "2548-07-29",
    "doctype": "ประกาศ",
    "editors": [
      {
        "name": "ชัชสรัญ",
        "role": "จัดทำ",
        "date": "2548-08-11"
      },
      {
        "name": "ปาจรีย์",
        "role": "ปรับปรุง",
        "date": "2549-03-24"
      },
      {
        "name": "จุฑามาศ",
        "role": "ปรับปรุง",
        "date": "2559-06-25"
      }
    ],
    "tag": "a1100-2e-2548-a0004"
  }
}