{
  "pages": [
    [
      [
        "ระเบียบสำนักสวัสดิการสังคม",
        "ว่าด้วยการเข้ารับบริการในสถานสงเคราะห์คนชรา พ.ศ. ๒๕๔๗",
        "",
        "",
        "ตามแผนปฏิบัติการกำหนดขั้นตอนการกระจายอำนาจให้แก่องค์กรปกครองส่วนท้องถิ่น กรุงเทพมหานคร ได้รับการถ่ายโอนภารกิจสถานสงเคราะห์คนชราบ้านบางแค ๒ จากกรมพัฒนาสังคมและสวัสดิการ กระทรวงการพัฒนาสังคมและความมั่นคงของมนุษย์ ตั้งแต่วันที่ ๓๐ ธันวาคม ๒๕๔๖"
      ]
    ],
    []
  ],
  "metadata": {
    "date_backmatter": "2547-04-12",
    "date_header": "2546-12-30",
    "date_modified": "2547-05-20",
    "date_original": "2547-05-20",
    "editors": [
      {
        "name": "ศุภชัย",
        "role": "พิมพ์",
        "date": "2547-08-20"
      },
      {
        "name": "สุนันทา/ปาลิน",
        "role": "ตรวจ",
        "date": "2547-08-24"
      },
      {
        "name": "ปาจรีย์",
        "role": "ปรับปรุง",
        "date": "2549-04-05"
      },
      {
        "name": "จุฑามาศ",
        "role": "ปรับปรุง",
        "date": "2559-06-27"
      }
    ],
    "tag": "a1100-2g-2547-a0001"
  }
}