{
  "pages": [
    [
      [
        "ประกาศคณะกรรมการการกระจายอำนาจ",
        "ให้แก่องค์กรปกครองส่วนท้องถิ่น",
        "เรื่อง แผนปฏิบัติการกำหนดขั้นตอนการกระจายอำนาจทางการเงิน การคลัง",
        "และงบประมาณให้แก่องค์กรปกครองส่วนท้องถิ่น และแผนปฏิบัติการ",
        "ถ่ายโอนบุคลากรให้แก่องค์กรปกครองส่วนท้องถิ่น"
      ]
    ],
    []
  ],
  "metadata": {
    "date_backmatter": "2547-09-24",
    "date_modified": "2547-10-13",
    "date_original": "2547-10-13",
    "doctype": "ประกาศ",
    "editors": [
      {
        "name": "พรพิมล",
        "role": "พิมพ์",
        "date": "2548-02-01"
      },
      {
        "name": "ศุภสรณ์/ธัญกมล",
        "role": "ตรวจ",
        "date": "2548-02-16"
      },
      {
        "name": "ปาจรีย์",
        "role": "ปรับปรุง",
        "date": "2549-03-27"
      },
      {
        "name": "จุฑามาศ",
        "role": "ปรับปรุง",
        "date": "2559-06-25"
      }
    ],
    "tag": "a1100-2e-2547-a0006"
  }
}