{
  "pages": [
    [
      [
        "ประกาศคณะกรรมการการกระจายอำนาจ",
        "ให้แก่องค์กรปกครองส่วนท้องถิ่น",
        "เรื่อง การจัดสรรเงินภาษีมูลค่าเพิ่มตามพระราชบัญญัติกำหนดแผนและขั้นตอนการกระจายอำนาจ",
        "ให้แก่องค์กรปกครองส่วนท้องถิ่น พ.ศ. ๒๕๔๒ ให้แก่องค์กรปกครองส่วนท้องถิ่น",
        "สำหรับปีงบประมาณ พ.ศ. ๒๕๕๐"
      ]
    ],
    []
  ],
  "metadata": {
    "date_backmatter": "2550-02-09",
    "date_modified": "2550-02-28",
    "date_original": "2550-02-28",
    "doctype": "ประกาศ",
    "editors": [
      {
        "name": "โสรศ",
        "role": "จัดทำ",
        "date": "2550-03-08"
      },
      {
        "name": "จุฑามาศ",
        "role": "ปรับปรุง",
        "date": "2559-06-27"
      }
    ],
    "tag": "a1100-2e-2550-a0002"
  }
}