{
  "pages": [
    [
      [
        "ข้อบัญญัติองค์การบริหารส่วนตำบลแก่งกระจาน",
        "ว่าด้วยการควบคุมอาคาร และสิ่งปลูกสร้าง",
        "พ.ศ. ๒๕๕๐"
      ]
    ],
    []
  ],
  "metadata": {
    "date_backmatter": "2550-05-25",
    "date_modified": "2550-08-03",
    "date_original": "2550-08-03",
    "editors": [
      {
        "name": "โสรศ",
        "role": "จัดทำ",
        "date": "2550-08-24"
      },
      {
        "name": "จุฑามาศ",
        "role": "ปรับปรุง",
        "date": "2559-06-27"
      }
    ],
    "tag": "a1100-2j-2550-a0002"
  }
}