{
  "pages": [
    [
      [
        "ข้อบัญญัติองค์การบริหารส่วนตำบลยายชา",
        "เรื่อง การบริหารกิจการและการบำรุงรักษาระบบประปา",
        "พ.ศ. ๒๕๕๗"
      ]
    ],
    []
  ],
  "metadata": {
    "date_backmatter": "2557-07-17",
    "date_modified": "2557-12-17",
    "date_original": "2557-12-17",
    "editors": [
      {
        "name": "ปริยานุช",
        "role": "ผู้จัดทำ",
        "date": "2558-01-05"
      },
      {
        "name": "ภีราพร",
        "role": "ผู้ตรวจ",
        "date": "2558-01-28"
      }
    ],
    "tag": "a1100-2j-2557-a0011"
  }
}