{
  "pages": [
    [
      [
        "ระเบียบกระทรวงมหาดไทย",
        "ว่าด้วยการบริหารกิจการและการบำรุงรักษาระบบประปาหมู่บ้าน",
        "พ.ศ. ๒๕๔๘"
      ]
    ],
    []
  ],
  "metadata": {
    "date_backmatter": "2548-10-12",
    "date_modified": "2548-11-03",
    "date_original": "2548-11-03",
    "editors": [
      {
        "name": "ฐิติพงษ์",
        "role": "จัดทำ",
        "date": "2548-11-10"
      },
      {
        "name": "ปาจรีย์",
        "role": "ปรับปรุง",
        "date": "2549-03-13"
      },
      {
        "name": "จุฑามาศ",
        "role": "ปรับปรุง",
        "date": "2559-06-27"
      }
    ],
    "tag": "a1100-2g-2548-a0003"
  }
}