{
  "pages": [
    [
      [
        "ประกาศคณะกรรมการการกระจายอำนาจให้แก่องค์กรปกครองส่วนท้องถิ่น",
        "เรื่อง การจัดสรรเงินอุดหนุนทั่วไปเพื่อสนับสนุนการกระจายอำนาจให้แก่องค์กรปกครองส่วนท้องถิ่น",
        "ปีงบประมาณ พ.ศ. ๒๕๕๙",
        "(ฉบับที่ ๒)"
      ]
    ],
    []
  ],
  "metadata": {
    "date_backmatter": "2559-08-29",
    "date_modified": "2559-09-29",
    "date_original": "2559-09-29",
    "doctype": "ประกาศ",
    "editors": [
      {
        "name": "ปริยานุช",
        "role": "จัดทำ",
        "date": "2559-10-05"
      },
      {
        "name": "วริญา",
        "role": "ตรวจ",
        "date": "2559-10-18"
      }
    ],
    "tag": "a1100-2e-2559-a0006"
  }
}