{
  "pages": [
    [
      [
        "ประกาศคณะกรรมการการกระจายอำนาจ",
        "ให้แก่องค์กรปกครองส่วนท้องถิ่น",
        "เรื่อง การจัดสรรเงินภาษีธุรกิจเฉพาะให้แก่องค์กรปกครองส่วนท้องถิ่น",
        "สำหรับปีงบประมาณ พ.ศ. ๒๕๔๖"
      ]
    ],
    []
  ],
  "metadata": {
    "date_backmatter": "2546-01-08",
    "date_modified": "2546-01-14",
    "date_original": "2546-01-14",
    "doctype": "ประกาศ",
    "editors": [
      {
        "name": "มณฑาทิพย์",
        "role": "พิมพ์",
        "date": "2546-04-23"
      },
      {
        "name": "สุมลรัตน์",
        "role": "อรรถชัย แก้ไข",
        "date": "2546-04-25"
      },
      {
        "name": "ปาจรีย์",
        "role": "ปรับปรุง",
        "date": "2549-03-31"
      },
      {
        "name": "จุฑามาศ",
        "role": "ปรับปรุง",
        "date": "2559-06-24"
      }
    ],
    "tag": "a1100-2e-2546-a0002"
  }
}