{
  "pages": [
    [
      [
        "ประกาศคณะกรรมการการกระจายอำนาจ",
        "ให้แก่องค์กรปกครองส่วนท้องถิ่น",
        "เรื่อง การจัดสรรเงินอุดหนุนเฉพาะกิจสำหรับสนับสนุนองค์กรปกครองส่วนท้องถิ่น",
        "ตามยุทธศาสตร์การพัฒนาขององค์กรปกครองส่วนท้องถิ่น",
        "ปีงบประมาณ พ.ศ. ๒๕๕๒"
      ]
    ],
    []
  ],
  "metadata": {
    "date_backmatter": "2551-12-01",
    "date_modified": "2552-01-08",
    "date_original": "2552-01-08",
    "doctype": "ประกาศ",
    "editors": [
      {
        "name": "ปริยานุช",
        "role": "จัดทำ",
        "date": "2552-01-13"
      },
      {
        "name": "จุฑามาศ",
        "role": "ปรับปรุง",
        "date": "2559-06-27"
      }
    ],
    "tag": "a1100-2e-2552-a0004"
  }
}