{
  "pages": [
    [
      [
        "ข้อบัญญัติองค์การบริหารส่วนตำบลวังใหม่",
        "เรื่อง การใช้น้ำประปา",
        "พ.ศ. ๒๕๕๙"
      ]
    ],
    []
  ],
  "metadata": {
    "date_backmatter": "2559-10-19",
    "date_modified": "2559-11-16",
    "date_original": "2559-11-16",
    "editors": [
      {
        "name": "ปริยานุช",
        "role": "จัดทำ",
        "date": "2559-11-22"
      },
      {
        "name": "วิศนี",
        "role": "ตรวจ",
        "date": "2559-11-22"
      }
    ],
    "tag": "a1100-2j-2559-a0002"
  }
}