{
  "pages": [
    [
      [
        "ประกาศคณะกรรมการการกระจายอำนาจ",
        "ให้แก่องค์กรปกครองส่วนท้องถิ่น",
        "เรื่อง การจัดสรรเงินภาษีธุรกิจเฉพาะให้แก่องค์กรปกครองส่วนท้องถิ่น",
        "(ฉบับที่ ๓) พ.ศ. ๒๕๔๔"
      ]
    ],
    []
  ],
  "metadata": {
    "date_backmatter": "2544-12-13",
    "date_modified": "2544-12-27",
    "date_original": "2544-12-27",
    "doctype": "ประกาศ",
    "editors": [
      {
        "name": "พรพิมล",
        "role": "พิมพ์",
        "date": "2545-04-30"
      },
      {
        "name": "ปาจรีย์",
        "role": "ปรับปรุง",
        "date": "2549-03-31"
      },
      {
        "name": "จุฑามาศ",
        "role": "ปรับปรุง",
        "date": "2559-06-24"
      }
    ],
    "tag": "a1100-2e-2544-a006"
  }
}