{
  "pages": [
    [
      [
        "ประกาศคณะกรรมการการกระจายอำนาจ",
        "ให้แก่องค์กรปกครองส่วนท้องถิ่น",
        "เรื่อง การจัดสรรเงินภาษีธุรกิจเฉพาะให้แก่องค์กรปกครองส่วนท้องถิ่น",
        "พ.ศ. ๒๕๔๔"
      ]
    ],
    []
  ],
  "metadata": {
    "date_backmatter": "2544-05-01",
    "date_modified": "2544-05-03",
    "date_original": "2544-05-03",
    "doctype": "ประกาศ",
    "editors": [
      {
        "name": "ปณตภร",
        "role": "ผู้จัดทำ",
        "date": "2554-09-30"
      }
    ],
    "tag": "a1100-2e-2544-a003"
  }
}