{
  "pages": [
    [
      [
        "ข้อบัญญัติองค์การบริหารส่วนตำบลเสวียด",
        "เรื่อง การบริหารกิจการประปาหมู่บ้าน",
        "พ.ศ. ๒๕๕๕"
      ]
    ],
    []
  ],
  "metadata": {
    "date_backmatter": "2555-02-29",
    "date_modified": "2560-04-25",
    "date_original": "2555-07-26",
    "editors": [
      {
        "name": "ปริยานุช",
        "role": "ผู้จัดทำ",
        "date": "2555-07-30"
      },
      {
        "name": "ณัฐพร",
        "role": "ผู้ตรวจ",
        "date": "2555-07-30"
      },
      {
        "name": "วริญา",
        "role": "เพิ่มเติม",
        "date": "2560-05-26"
      }
    ],
    "tag": "a1100-2j-9998-update"
  }
}