{
  "pages": [
    [
      [
        "ประกาศคณะกรรมการการกระจายอำนาจให้แก่องค์กรปกครองส่วนท้องถิ่น",
        "เรื่อง หลักเกณฑ์ วิธีการ และอัตราการจัดสรรเงินอุดหนุนเพื่อเป็นรางวัลสำหรับ",
        "องค์กรปกครองส่วนท้องถิ่นจูงใจเพื่อเพิ่มประสิทธิภาพการบริหารจัดการของท้องถิ่น",
        "ปีงบประมาณ พ.ศ. ๒๕๕๘"
      ]
    ],
    []
  ],
  "metadata": {
    "date_backmatter": "2558-08-17",
    "date_modified": "2558-08-21",
    "date_original": "2558-08-21",
    "doctype": "ประกาศ",
    "editors": [
      {
        "name": "ปริยานุช",
        "role": "ผู้จัดทำ",
        "date": "2558-08-26"
      },
      {
        "name": "วริญา",
        "role": "ผู้ตรวจ",
        "date": "2558-08-26"
      }
    ],
    "tag": "a1100-2e-2558-a0004"
  }
}