{
  "pages": [
    [
      [
        "ระเบียบเทศบาลตำบลห้วยไคร้",
        "ว่าด้วยคณะกรรมการชุมชน",
        "พ.ศ. ๒๕๕๒"
      ]
    ],
    []
  ],
  "metadata": {
    "date_backmatter": "2552-10-30",
    "date_modified": "2553-01-19",
    "date_original": "2553-01-19",
    "editors": [
      {
        "name": "ปริยานุช",
        "role": "จัดทำ",
        "date": "2553-01-27"
      },
      {
        "name": "นันท์นภัสร์",
        "role": "ตรวจ",
        "date": "2553-01-27"
      },
      {
        "name": "จุฑามาศ",
        "role": "ปรับปรุง",
        "date": "2559-06-27"
      }
    ],
    "tag": "a1100-2g-2553-a0001"
  }
}