{
  "pages": [
    [
      [
        "ประกาศคณะกรรมการการกระจายอำนาจ",
        "ให้แก่องค์กรปกครองส่วนท้องถิ่น",
        "เรื่อง การจัดสรรค่าภาคหลวงแร่และค่าภาคหลวงปิโตรเลียม",
        "ให้แก่องค์กรปกครองส่วนท้องถิ่น"
      ]
    ],
    []
  ],
  "metadata": {
    "date_backmatter": "2544-08-06",
    "date_modified": "2544-08-14",
    "date_original": "2544-08-14",
    "doctype": "ประกาศ",
    "editors": [
      {
        "name": "ภคินี",
        "role": "แก้ไข",
        "date": "2545-05-08"
      },
      {
        "name": "ปาจรีย์",
        "role": "ปรับปรุง",
        "date": "2549-03-31"
      },
      {
        "name": "จุฑามาศ",
        "role": "ปรับปรุง",
        "date": "2559-06-24"
      }
    ],
    "tag": "a1100-2e-2544-a005"
  }
}