{
  "pages": [
    [
      [
        "พระราชบัญญัติ",
        "การพนัน (ฉบับที่ ๗)",
        "พ.ศ. ๒๕๐๔",
        "",
        "",
        "ภูมิพลอดุลยเดช ป.ร.",
        "ให้ไว้ ณ วันที่ ๔ เมษายน พ.ศ. ๒๕๐๔",
        "เป็นปีที่ ๑๖ ในรัชกาลปัจจุบัน"
      ]
    ],
    []
  ],
  "metadata": {
    "date_header": "2504-04-04",
    "date_modified": "2504-04-18",
    "date_original": "2504-04-18",
    "doctype": "พระราชบัญญัติ",
    "editors": [
      {
        "name": "ดวงใจ",
        "role": "แก้ไข",
        "date": "2544-08-28"
      },
      {
        "name": "พัชรินทร์",
        "role": "แก้ไข",
        "date": "2548-01-24"
      },
      {
        "name": "วศิน",
        "role": "แก้ไข",
        "date": "2552-04-09"
      },
      {
        "name": "ปริญสินีย์",
        "role": "ปรับปรุง",
        "date": "2556-11-13"
      },
      {
        "name": "ชาญ",
        "role": "ตรวจ",
        "date": "2556-11-13"
      }
    ],
    "tag": "a127-20-2504-007",
    "title": "การพนัน (ฉบับที่ ๗)"
  }
}