{
  "pages": [
    [
      [
        "กฎกระทรวง",
        "ฉบับที่ ๒๖ (พ.ศ. ๒๕๓๓)",
        "ออกตามความในพระราชบัญญัติการพนัน",
        "พุทธศักราช ๒๔๗๘"
      ]
    ],
    []
  ],
  "metadata": {
    "date_backmatter": "2533-07-02",
    "date_modified": "2533-07-13",
    "date_original": "2533-07-13",
    "doctype": "กฎกระทรวง",
    "editors": [
      {
        "name": "คณิตา",
        "role": "ผู้จัดทำ",
        "date": "2554-01-17"
      }
    ],
    "tag": "a127-2b-2533-026"
  }
}