{
  "pages": [
    [
      [
        "พระราชบัญญัติ",
        "การพนัน (ฉบับที่ ๓)",
        "พุทธศักราช ๒๔๘๕",
        "",
        "",
        "ในพระปรมาภิไธยสมเด็จพระเจ้าอยู่หัวอานันทมหิดล",
        "คณะผู้สำเร็จราชการแทนพระองค์",
        "(ตามประกาศประธานสภาผู้แทนราษฎร",
        "ลงวันที่ ๔ สิงหาคม พุทธศักราช ๒๔๘๐",
        "และวันที่ ๑๖ ธันวาคม พุทธศักราช ๒๔๘๔)",
        "อาทิตย์ทิพอาภา",
        "พล.อ. พิชเยนทรโยธิน",
        "ปรีดี พนมยงค์",
        "ตราไว้ ณ วันที่ ๑๖ มกราคม พุทธศักราช ๒๔๘๕",
        "เป็นปีที่ ๙ ในรัชกาลปัจจุบัน"
      ]
    ],
    []
  ],
  "metadata": {
    "date_header": "2480-08-04",
    "date_modified": "2485-01-27",
    "date_original": "2485-01-27",
    "doctype": "พระราชบัญญัติ",
    "editors": [
      {
        "name": "ดวงใจ",
        "role": "แก้ไข",
        "date": "2544-12-19"
      },
      {
        "name": "พัชรินทร์",
        "role": "แก้ไข",
        "date": "2548-01-24"
      },
      {
        "name": "วศิน",
        "role": "แก้ไข",
        "date": "2552-04-09"
      },
      {
        "name": "ปริญสินีย์",
        "role": "ปรับปรุง",
        "date": "2556-11-13"
      },
      {
        "name": "ชาญ",
        "role": "ตรวจ",
        "date": "2556-11-13"
      }
    ],
    "tag": "a127-20-2485-003",
    "title": "การพนัน (ฉบับที่ ๓)"
  }
}