{
  "pages": [
    [
      [
        "กฎกระทรวง",
        "ฉบับที่ ๔๐ (พ.ศ. ๒๕๓๙)",
        "ออกตามความในพระราชบัญญัติการพนัน",
        "พุทธศักราช ๒๔๗๘"
      ]
    ],
    []
  ],
  "metadata": {
    "date_backmatter": "2539-05-29",
    "date_modified": "2539-06-19",
    "date_original": "2539-06-19",
    "doctype": "กฎกระทรวง",
    "editors": [
      {
        "name": "คณิตา",
        "role": "ผู้จัดทำ",
        "date": "2554-02-09"
      }
    ],
    "tag": "a127-2b-2539-040"
  }
}