{
  "pages": [
    [
      [
        "ประกาศกระทรวงการคลัง",
        "เรื่อง ออกใช้เหรียญกษาปณ์ที่ระลึก ๕๐ ปี เทคนิคการแพทย์ไทย",
        "พ.ศ. ๒๕๕๐"
      ]
    ],
    []
  ],
  "metadata": {
    "date_backmatter": "2550-07-05",
    "date_modified": "2550-07-25",
    "date_original": "2550-07-25",
    "doctype": "ประกาศ",
    "editors": [
      {
        "name": "วัชศักดิ์",
        "role": "ผู้จัดทำ",
        "date": "2550-08-07"
      }
    ],
    "tag": "a703-2e-2550-a0006"
  }
}