{
  "pages": [
    [
      [
        "ประกาศกระทรวงการคลัง",
        "เรื่อง ออกใช้เหรียญกษาปณ์ที่ระลึก",
        "เฉลิมพระเกียรติสมเด็จพระเจ้าบรมวงศ์เธอ กรมพระยาดำรงราชานุภาพ",
        "ในโอกาสที่วันประสูติครบ ๑๕๐ ปี",
        "พ.ศ. ๒๕๕๕"
      ]
    ],
    []
  ],
  "metadata": {
    "date_backmatter": "2555-03-26",
    "date_modified": "2555-03-30",
    "date_original": "2555-03-30",
    "doctype": "ประกาศ",
    "editors": [
      {
        "name": "ปริยานุช",
        "role": "ผู้จัดทำ",
        "date": "2555-04-05"
      },
      {
        "name": "ชาญ",
        "role": "ผู้ตรวจ",
        "date": "2555-04-11"
      }
    ],
    "tag": "a703-2e-2555-a0002"
  }
}