{
  "pages": [
    [
      [
        "กฎกระทรวง",
        "กำหนดลักษณะของเหรียญกษาปณ์ที่ระลึก",
        "พระราชพิธีมหามงคลเฉลิมพระชนมพรรษา ๘๐ พรรษา",
        "๕ ธันวาคม ๒๕๕๐",
        "พ.ศ. ๒๕๕๐"
      ]
    ],
    []
  ],
  "metadata": {
    "date_backmatter": "2550-12-05",
    "date_header": "2550-12-05",
    "date_modified": "2550-08-21",
    "date_original": "2550-08-21",
    "doctype": "กฎกระทรวง",
    "editors": [
      {
        "name": "วัชศักดิ์",
        "role": "ผู้จัดทำ",
        "date": "2550-08-30"
      }
    ],
    "tag": "a703-2b-2550-a0009"
  }
}