{
  "pages": [
    [
      [
        "ประกาศกระทรวงการคลัง",
        "เรื่อง ออกใช้เหรียญกษาปณ์ที่ระลึก ๑๐๐ ปี",
        "กรมทหารม้าที่ ๑ รักษาพระองค์ฯ",
        "พ.ศ. ๒๕๕๐"
      ]
    ],
    []
  ],
  "metadata": {
    "date_backmatter": "2550-02-06",
    "date_modified": "2550-02-16",
    "date_original": "2550-02-16",
    "doctype": "ประกาศ",
    "editors": [
      {
        "name": "โสรศ",
        "role": "ผู้จัดทำ",
        "date": "2550-02-28"
      }
    ],
    "tag": "a703-2e-2550-a0002"
  }
}