{
  "pages": [
    [
      [
        "กฎกระทรวง",
        "ฉบับที่ ๙ (พ.ศ. ๒๕๑๓)",
        "ออกตามความในพระราชบัญญัติเงินตรา",
        "พ.ศ. ๒๕๐๑"
      ]
    ],
    []
  ],
  "metadata": {
    "date_backmatter": "2513-12-00",
    "date_gz_old": "2513-10-07",
    "doctype": "กฎกระทรวง",
    "editors": [],
    "tag": "a703-2b-2513-009"
  }
}