{
  "pages": [
    [
      [
        "กฎกระทรวง",
        "กำหนดลักษณะของเหรียญกษาปณ์ที่ระลึก ๑๐๐ ปี กรมจเรทหารบก",
        "พ.ศ. ๒๕๔๖"
      ]
    ],
    []
  ],
  "metadata": {
    "date_backmatter": "2546-05-06",
    "date_modified": "2546-05-01",
    "date_original": "2546-05-01",
    "doctype": "กฎกระทรวง",
    "editors": [
      {
        "name": "พัชรินทร์/สุนันทา",
        "role": "จัดทำ",
        "date": "2546-09-19"
      },
      {
        "name": "ปิยะธิดา",
        "role": "ปรับปรุง",
        "date": "2561-06-21"
      }
    ],
    "tag": "a703-2b-2546-a0001"
  }
}