{
  "pages": [
    [
      [
        "กฎกระทรวง",
        "ฉบับที่ ๑๐๑ (พ.ศ. ๒๕๓๔)",
        "ออกตามความในพระราชบัญญัติเงินตรา",
        "พ.ศ. ๒๕๐๑"
      ]
    ],
    []
  ],
  "metadata": {
    "date_backmatter": "2534-04-02",
    "date_gz_old": "2534-04-01",
    "doctype": "กฎกระทรวง",
    "editors": [],
    "tag": "a703-2b-2534-101"
  }
}