{
  "pages": [
    [
      [
        "ประกาศกระทรวงการคลัง",
        "เรื่อง ออกใช้เหรียญกษาปณ์ที่ระลึก ๕๐ ปี สำนักงานคณะกรรมการวิจัยแห่งชาติ",
        "พ.ศ. ๒๕๕๒"
      ]
    ],
    []
  ],
  "metadata": {
    "date_backmatter": "2552-07-15",
    "date_modified": "2552-07-27",
    "date_original": "2552-07-27",
    "doctype": "ประกาศ",
    "editors": [
      {
        "name": "ปริยานุช",
        "role": "ผู้จัดทำ",
        "date": "2552-08-10"
      }
    ],
    "tag": "a703-2e-2552-a0003"
  }
}