{
  "pages": [
    [
      [
        "กฎกระทรวง",
        "ฉบับที่ ๖๙ (พ.ศ. ๒๕๒๖)",
        "ออกตามความในพระราชบัญญัติเงินตรา",
        "พ.ศ. ๒๕๐๑"
      ]
    ],
    []
  ],
  "metadata": {
    "date_backmatter": "2526-07-06",
    "date_gz_old": "2526-07-14",
    "doctype": "กฎกระทรวง",
    "editors": [],
    "tag": "a703-2b-2526-069"
  }
}