{
  "pages": [
    [
      [
        "กฎกระทรวง",
        "ฉบับที่ ๑๓๖ (พ.ศ. ๒๕๓๘)",
        "ออกตามความในพระราชบัญญัติเงินตรา",
        "พ.ศ. ๒๕๐๑"
      ]
    ],
    []
  ],
  "metadata": {
    "date_backmatter": "2538-10-27",
    "date_modified": "2538-11-08",
    "date_original": "2538-11-08",
    "doctype": "กฎกระทรวง",
    "editors": [
      {
        "name": "ปิยะธิดา",
        "role": "ปรับปรุง",
        "date": "2561-06-11"
      }
    ],
    "tag": "a703-2b-2538-136"
  }
}