{
  "pages": [
    [
      [
        "ประกาศกระทรวงการคลัง",
        "เรื่อง ออกใช้เหรียญกษาปณ์ที่ระลึก",
        "สมเด็จพระเจ้าพี่นางเธอ เจ้าฟ้ากัลยาณิวัฒนา กรมหลวงนราธิวาสราชนครินทร์",
        "ฉลองพระชนมายุ ๘๔ พรรษา",
        "พ.ศ. ๒๕๕๐"
      ]
    ],
    []
  ],
  "metadata": {
    "date_backmatter": "2550-04-30",
    "date_modified": "2550-05-04",
    "date_original": "2550-05-04",
    "doctype": "ประกาศ",
    "editors": [
      {
        "name": "วัชศักดิ์",
        "role": "ผู้จัดทำ",
        "date": "2550-05-16"
      }
    ],
    "tag": "a703-2e-2550-a0004"
  }
}