{
  "pages": [
    [
      [
        "กฎกระทรวง",
        "ถอนคืนเหรียญกษาปณ์อลูมิเนียมราคาห้าสตางค์",
        "พ.ศ. ๒๕๕๑"
      ]
    ],
    []
  ],
  "metadata": {
    "date_backmatter": "2551-01-29",
    "date_modified": "2551-02-05",
    "date_original": "2551-02-05",
    "doctype": "กฎกระทรวง",
    "editors": [
      {
        "name": "วัชศักดิ์",
        "role": "ผู้จัดทำ",
        "date": "2551-02-13"
      }
    ],
    "tag": "a703-2b-2551-a0001"
  }
}