{
  "pages": [
    [
      [
        "กฎกระทรวง",
        "ฉบับที่ ๑๐ (พ.ศ. ๒๕๑๔)",
        "ออกตามความในพระราชบัญญัติเงินตรา",
        "พ.ศ. ๒๕๐๑"
      ]
    ],
    []
  ],
  "metadata": {
    "date_backmatter": "2514-04-27",
    "date_gz_old": "2514-05-11",
    "doctype": "กฎกระทรวง",
    "editors": [],
    "tag": "a703-2b-2514-010"
  }
}