{
  "pages": [
    [
      [
        "กฎกระทรวง",
        "ฉบับที่ ๖๔ (พ.ศ. ๒๕๒๕)",
        "ออกตามความในพระราชบัญญัติเงินตรา",
        "พ.ศ. ๒๕๐๑"
      ]
    ],
    []
  ],
  "metadata": {
    "date_backmatter": "2525-05-31",
    "date_gz_old": "2525-06-10",
    "doctype": "กฎกระทรวง",
    "editors": [],
    "tag": "a703-2b-2525-064"
  }
}