{
  "pages": [
    [
      [
        "กฎกระทรวง",
        "กำหนดลักษณะของเหรียญกษาปณ์ที่ระลึก",
        "เฉลิมพระเกียรติสมเด็จพระบรมโอรสาธิราช เจ้าฟ้ามหาวชิราลงกรณ สยามมกุฎราชกุมาร",
        "เนื่องในโอกาสพระราชพิธีมหามงคลเฉลิมพระชนมพรรษา ๕ รอบ ๒๘ กรกฎาคม ๒๕๕๕",
        "พ.ศ. ๒๕๕๕"
      ]
    ],
    []
  ],
  "metadata": {
    "date_backmatter": "2555-07-28",
    "date_header": "2555-07-28",
    "date_modified": "2555-07-17",
    "date_original": "2555-07-17",
    "doctype": "กฎกระทรวง",
    "editors": [
      {
        "name": "ปริยานุช",
        "role": "ผู้จัดทำ",
        "date": "2555-07-19"
      },
      {
        "name": "ปณตภร",
        "role": "ผู้ตรวจ",
        "date": "2555-07-19"
      }
    ],
    "tag": "a703-2b-2555-a0005"
  }
}