{
  "pages": [
    [
      [
        "กฎกระทรวง",
        "กำหนดลักษณะของเหรียญกษาปณ์ที่ระลึก",
        "การประชุมใหญ่สมาคมศาลปกครองสูงสุดระหว่างประเทศ ครั้งที่ ๙",
        "พ.ศ. ๒๕๕๐"
      ]
    ],
    []
  ],
  "metadata": {
    "date_backmatter": "2550-11-24",
    "date_modified": "2550-02-05",
    "date_original": "2550-02-05",
    "doctype": "กฎกระทรวง",
    "editors": [
      {
        "name": "โสรศ",
        "role": "ผู้จัดทำ",
        "date": "2550-02-07"
      }
    ],
    "tag": "a703-2b-2550-a0001"
  }
}