{
  "pages": [
    [
      [
        "กฎกระทรวง",
        "ฉบับที่ ๑๒๔ (พ.ศ. ๒๕๓๗)",
        "ออกตามความในพระราชบัญญัติเงินตรา",
        "พ.ศ. ๒๕๐๑"
      ]
    ],
    []
  ],
  "metadata": {
    "date_backmatter": "2537-06-14",
    "date_modified": "2537-06-13",
    "date_original": "2537-06-13",
    "doctype": "กฎกระทรวง",
    "editors": [
      {
        "name": "ปิยะธิดา",
        "role": "ปรับปรุง",
        "date": "2561-06-06"
      }
    ],
    "tag": "a703-2b-2537-124"
  }
}