{
  "pages": [
    [
      [
        "กฎกระทรวง",
        "ฉบับที่ ๙๒ (พ.ศ. ๒๕๓๑)",
        "ออกตามความในพระราชบัญญัติเงินตรา",
        "พ.ศ. ๒๕๐๑"
      ]
    ],
    []
  ],
  "metadata": {
    "date_backmatter": "2531-04-26",
    "date_gz_old": "2531-07-25",
    "doctype": "กฎกระทรวง",
    "editors": [],
    "tag": "a703-2b-2531-092"
  }
}