{
  "pages": [
    [
      [
        "กฎกระทรวง",
        "กำหนดลักษณะของเหรียญกษาปณ์ที่ระลึก",
        "สมเด็จพระนางเจ้าสิริกิติ์ พระบรมราชินีนาถ เฉลิมพระชนมพรรษา ๗๕ พรรษา",
        "๑๒ สิงหาคม ๒๕๕๐",
        "พ.ศ. ๒๕๕๐"
      ]
    ],
    []
  ],
  "metadata": {
    "date_backmatter": "2550-08-12",
    "date_header": "2550-08-12",
    "date_modified": "2550-08-08",
    "date_original": "2550-08-08",
    "doctype": "กฎกระทรวง",
    "editors": [
      {
        "name": "วัชศักดิ์",
        "role": "ผู้จัดทำ",
        "date": "2550-08-23"
      }
    ],
    "tag": "a703-2b-2550-a0008"
  }
}