{
  "pages": [
    [
      [
        "กฎกระทรวง",
        "ฉบับที่ ๒๗ (พ.ศ. ๒๕๑๘)",
        "ออกตามความในพระราชบัญญัติเงินตรา",
        "พ.ศ. ๒๕๐๑"
      ]
    ],
    []
  ],
  "metadata": {
    "date_backmatter": "2518-06-30",
    "date_modified": "2518-07-15",
    "date_original": "2518-07-15",
    "doctype": "กฎกระทรวง",
    "editors": [],
    "tag": "a703-2b-2518-027"
  }
}