{
  "pages": [
    [
      [
        "กฎกระทรวง",
        "ฉบับที่ ๗๓ (พ.ศ. ๒๕๒๗)",
        "ออกตามความในพระราชบัญญัติเงินตรา",
        "พ.ศ. ๒๕๐๑"
      ]
    ],
    []
  ],
  "metadata": {
    "date_backmatter": "2527-09-18",
    "date_gz_old": "2527-09-21",
    "doctype": "กฎกระทรวง",
    "editors": [],
    "tag": "a703-2b-2527-073"
  }
}