{
  "pages": [
    [
      [
        "กฎกระทรวง",
        "กำหนดลักษณะของเหรียญกษาปณ์ที่ระลึกการประชุม",
        "ผู้นำเศรษฐกิจเอเปค ครั้งที่ ๑๑",
        "พ.ศ. ๒๕๔๖"
      ]
    ],
    []
  ],
  "metadata": {
    "date_backmatter": "2546-10-21",
    "date_modified": "2546-10-10",
    "date_original": "2546-10-10",
    "doctype": "กฎกระทรวง",
    "editors": [
      {
        "name": "มัตติกา",
        "role": "พิมพ์",
        "date": "2546-12-19"
      },
      {
        "name": "สุมลรัตน์/ศุภสรณ์",
        "role": "ตรวจ",
        "date": "2546-12-22"
      },
      {
        "name": "มัตติกา",
        "role": "แก้ไข",
        "date": "2546-12-23"
      },
      {
        "name": "ปิยะธิดา",
        "role": "ปรับปรุง",
        "date": "2561-06-22"
      }
    ],
    "tag": "a703-2b-2546-a0005"
  }
}