{
  "pages": [
    [
      [
        "กฎกระทรวง",
        "ฉบับที่ ๙๙ (พ.ศ. ๒๕๓๓)",
        "ออกตามความในพระราชบัญญัติเงินตรา",
        "พ.ศ. ๒๕๐๑"
      ]
    ],
    []
  ],
  "metadata": {
    "date_backmatter": "2533-10-07",
    "date_gz_old": "2533-10-04",
    "doctype": "กฎกระทรวง",
    "editors": [],
    "tag": "a703-2b-2533-099"
  }
}