{
  "pages": [
    [
      [
        "กฎกระทรวง",
        "กำหนดลักษณะของเหรียญกษาปณ์ที่ระลึก ๙๐ ปี กรมทางหลวง",
        "พ.ศ. ๒๕๔๕"
      ]
    ],
    []
  ],
  "metadata": {
    "date_backmatter": "2545-04-01",
    "date_modified": "2545-10-01",
    "date_original": "2545-10-01",
    "doctype": "กฎกระทรวง",
    "editors": [
      {
        "name": "โซเฟีย",
        "role": "พิมพ์",
        "date": "2549-06-06"
      },
      {
        "name": "ฐิติพงษ์/สุนันทา",
        "role": "ตรวจ",
        "date": "2549-06-22"
      },
      {
        "name": "ปิยะธิดา",
        "role": "ปรับปรุง",
        "date": "2561-06-21"
      }
    ],
    "tag": "a703-2b-2545-a0010"
  }
}