{
  "pages": [
    [
      [
        "กฎกระทรวง",
        "ฉบับที่ ๔๒ (พ.ศ. ๒๕๒๑)",
        "ออกตามความในพระราชบัญญัติเงินตรา",
        "พ.ศ. ๒๕๐๑"
      ]
    ],
    []
  ],
  "metadata": {
    "date_backmatter": "2521-01-25",
    "date_gz_old": "2521-01-17",
    "doctype": "กฎกระทรวง",
    "editors": [],
    "tag": "a703-2b-2521-042"
  }
}