{
  "pages": [
    [
      [
        "กฎกระทรวง",
        "กำหนดลักษณะของเหรียญกษาปณ์ที่ระลึกพลังแผ่นดินขจัดสิ้นยาเสพติด",
        "พ.ศ. ๒๕๔๗"
      ]
    ],
    []
  ],
  "metadata": {
    "date_backmatter": "2546-12-03",
    "date_modified": "2547-09-27",
    "date_original": "2547-09-27",
    "doctype": "กฎกระทรวง",
    "editors": [
      {
        "name": "ปิยะธิดา",
        "role": "พิมพ์",
        "date": "2561-06-26"
      }
    ],
    "tag": "a703-2b-2547-a0006"
  }
}