{
  "pages": [
    [
      [
        "กฎกระทรวง",
        "ฉบับที่ ๒๙ (พ.ศ. ๒๕๑๘)",
        "ออกตามความในพระราชบัญญัติเงินตรา",
        "พ.ศ. ๒๕๐๑"
      ]
    ],
    []
  ],
  "metadata": {
    "date_backmatter": "2518-08-29",
    "date_gz_old": "2518-09-11",
    "doctype": "กฎกระทรวง",
    "editors": [],
    "tag": "a703-2b-2518-029"
  }
}