{
  "pages": [
    [
      [
        "กฎกระทรวง",
        "กำหนดลักษณะของเหรียญกษาปณ์ที่ระลึก ๑๐๐ ปี กรมที่ดิน",
        "พ.ศ. ๒๕๔๔"
      ]
    ],
    []
  ],
  "metadata": {
    "date_backmatter": "2444-02-17",
    "date_modified": "2544-02-07",
    "date_original": "2544-02-07",
    "doctype": "กฎกระทรวง",
    "editors": [
      {
        "name": "ละออง",
        "role": "พิมพ์",
        "date": "2544-07-19"
      },
      {
        "name": "ปิยะธิดา",
        "role": "ปรับปรุง",
        "date": "2561-06-19"
      }
    ],
    "tag": "a703-2b-2544-a003"
  }
}