{
  "pages": [
    [
      [
        "ประกาศกระทรวงการคลัง",
        "เรื่อง ลักษณะ สี และขนาดธนบัตรที่ระลึก",
        "ชนิดราคา ๑๐๐ บาท ที่จะนำออกใช้"
      ]
    ],
    []
  ],
  "metadata": {
    "date_backmatter": "2558-01-27",
    "date_modified": "2558-01-29",
    "date_original": "2558-01-29",
    "doctype": "ประกาศ",
    "editors": [
      {
        "name": "ปริยานุช",
        "role": "ผู้จัดทำ",
        "date": "2558-02-02"
      },
      {
        "name": "วิศนี",
        "role": "ผู้ตรวจ",
        "date": "2558-02-09"
      },
      {
        "name": "ปิยะธิดา",
        "role": "ปรับปรุง",
        "date": "2561-10-05"
      }
    ],
    "tag": "a703-2e-2558-a0001"
  }
}