{
  "pages": [
    [
      [
        "กฎกระทรวง",
        "ฉบับที่ ๘๗ (พ.ศ. ๒๕๓๐)",
        "ออกตามความในพระราชบัญญัติเงินตรา",
        "พ.ศ. ๒๕๐๑"
      ]
    ],
    []
  ],
  "metadata": {
    "date_backmatter": "2530-08-05",
    "date_gz_old": "2530-08-04",
    "doctype": "กฎกระทรวง",
    "editors": [],
    "tag": "a703-2b-2530-087"
  }
}