{
  "pages": [
    [
      [
        "ประกาศกระทรวงการคลัง",
        "เรื่อง ออกใช้เหรียญกษาปณ์",
        "ราคาสิบบาท ห้าบาท สองบาท หนึ่งบาท",
        "ห้าสิบสตางค์ ยี่สิบห้าสตางค์ สิบสตางค์ ห้าสตางค์ และหนึ่งสตางค์",
        "พ.ศ. ๒๕๖๑"
      ]
    ],
    []
  ],
  "metadata": {
    "date_backmatter": "2561-03-16",
    "date_modified": "2561-04-04",
    "date_original": "2561-04-04",
    "doctype": "ประกาศ",
    "editors": [
      {
        "name": "ปุณิกา",
        "role": "จัดทำ",
        "date": "2561-07-31"
      }
    ],
    "tag": "a703-2e-2561-a0003"
  }
}