{
  "pages": [
    [
      [
        "กฎกระทรวง",
        "ฉบับที่ ๑๖๒ (พ.ศ. ๒๕๔๓)",
        "ออกตามความในพระราชบัญญัติเงินตรา",
        "พ.ศ. ๒๕๐๑"
      ]
    ],
    []
  ],
  "metadata": {
    "date_backmatter": "2543-10-03",
    "date_modified": "2543-10-11",
    "date_original": "2543-10-11",
    "doctype": "กฎกระทรวง",
    "editors": [
      {
        "name": "ปิยะธิดา",
        "role": "ปรับปรุง",
        "date": "2561-06-18"
      }
    ],
    "tag": "a703-2b-2543-a010"
  }
}