{
  "pages": [
    [
      [
        "ประกาศกรมศุลกากร",
        "ที่ ๑๖๒/๒๕๖๐",
        "เรื่อง หลักเกณฑ์และพิธีการการยกเว้นอากรและ",
        "ลดอัตราอากรศุลกากรสำหรับเขตการค้าเสรีอาเซียน - ออสเตรเลีย - นิวซีแลนด์"
      ]
    ],
    []
  ],
  "metadata": {
    "date_backmatter": "2560-11-10",
    "date_modified": "2560-11-12",
    "date_original": "2560-11-12",
    "doctype": "ประกาศ",
    "editors": [
      {
        "name": "พรวิภา/อัญชลี",
        "role": "จัดทำ",
        "date": "2560-11-14"
      },
      {
        "name": "นุสรา",
        "role": "ตรวจ",
        "date": "2561-08-14"
      }
    ],
    "tag": "c801-2e-2560-a0028"
  }
}