{
  "pages": [
    [
      [
        "ประกาศกรมศุลกากร",
        "ที่ ๑๔๕/๒๕๖๑",
        "เรื่อง หลักเกณฑ์ วิธีการ และเงื่อนไขการนำของเข้าและส่งของออกโดยใช้เอกสารค้ำประกัน (เอ.ที.เอ. คาร์เนท์)"
      ]
    ],
    []
  ],
  "metadata": {
    "date_backmatter": "2561-05-31",
    "date_modified": "2561-07-09",
    "date_original": "2561-07-09",
    "doctype": "ประกาศ",
    "editors": [
      {
        "name": "พรวิภา",
        "role": "จัดทำ",
        "date": "2561-10-02"
      }
    ],
    "tag": "c801-2e-2561-a0041"
  }
}