{
  "pages": [
    [
      [
        "กฎกระทรวง",
        "ฉบับที่ ๔๐ (พ.ศ. ๒๕๐๕)",
        "ออกตามความในพระราชบัญญัติศุลกากร",
        "พุทธศักราช ๒๔๖๙"
      ]
    ],
    []
  ],
  "metadata": {
    "date_backmatter": "2505-09-04",
    "date_gz_old": "2505-09-07",
    "doctype": "กฎกระทรวง",
    "editors": [],
    "tag": "c801-2b-2505-040"
  }
}