{
  "pages": [
    [
      [
        "ประกาศกรมศุลกากร",
        "ที่ ๑๐๐/๒๕๖๐",
        "เรื่อง หลักเกณฑ์และพิธีการสำหรับการขอใช้หนังสือธนาคารค้ำประกันแทนการชำระเงินอากร",
        "กรณีผู้นำของเข้าประสงค์จะขอรับของออกไปก่อนที่จะได้รับอนุมัติให้ลดอัตราอากรและ",
        "ยกเว้นอากรศุลกากร"
      ]
    ],
    []
  ],
  "metadata": {
    "date_backmatter": "2560-08-18",
    "date_modified": "2560-08-25",
    "date_original": "2560-08-25",
    "doctype": "ประกาศ",
    "editors": [
      {
        "name": "ชวัลพร/อัญชลี",
        "role": "จัดทำ",
        "date": "2560-08-28"
      },
      {
        "name": "นุสรา",
        "role": "ตรวจ",
        "date": "2561-01-24"
      }
    ],
    "tag": "c801-2e-2560-a0005"
  }
}