{
  "pages": [
    [
      [
        "ประกาศกรมศุลกากร",
        "ที่ ๑๒๐/๒๕๖๑",
        "เรื่อง กำหนดหลักเกณฑ์ วิธีการ และเงื่อนไขในการเป็นผู้นำของเข้า ผู้ส่งของออกระดับมาตรฐานเออีโอ"
      ]
    ],
    []
  ],
  "metadata": {
    "date_backmatter": "2561-05-08",
    "date_modified": "2561-06-14",
    "date_original": "2561-06-14",
    "doctype": "ประกาศ",
    "editors": [
      {
        "name": "วิวรรธน์",
        "role": "จัดทำ",
        "date": "2561-06-19"
      }
    ],
    "tag": "c801-2e-2561-a0033"
  }
}