{
  "pages": [
    [
      [
        "ระเบียบกรมศุลกากร",
        "ว่าด้วยการอายัดทรัพย์สินของผู้ค้างชำระอากร",
        "พ.ศ. ๒๕๖๐"
      ]
    ],
    []
  ],
  "metadata": {
    "date_backmatter": "2560-11-22",
    "date_modified": "2560-12-26",
    "date_original": "2560-12-26",
    "editors": [
      {
        "name": "ปวันวิทย์/อัญชลี",
        "role": "จัดทำ",
        "date": "2561-01-04"
      }
    ],
    "tag": "c801-2g-2560-a0002"
  }
}