{
  "pages": [
    [
      [
        "กฎกระทรวง",
        "กำหนดท่าหรือที่ สนามบินศุลกากร ทางอนุมัติ ด่านพรมแดน และด่านศุลกากร",
        "พ.ศ. ๒๕๕๓"
      ]
    ],
    []
  ],
  "metadata": {
    "date_backmatter": "2553-04-01",
    "date_modified": "2559-05-19",
    "date_original": "2553-04-21",
    "doctype": "กฎกระทรวง",
    "editors": [
      {
        "name": "ปณตภร",
        "role": "จัดทำ",
        "date": "2556-10-25"
      },
      {
        "name": "วิศนี",
        "role": "เพิ่มเติม",
        "date": "2558-07-13"
      },
      {
        "name": "นุสรา",
        "role": "ตรวจ",
        "date": "2558-07-27"
      },
      {
        "name": "ปริญสินีย์",
        "role": "เพิ่มเติม",
        "date": "2558-09-15"
      },
      {
        "name": "นุสรา",
        "role": "ตรวจ",
        "date": "2558-12-25"
      },
      {
        "name": "ปุณิกา",
        "role": "เพิ่มเติม",
        "date": "2559-05-31"
      }
    ],
    "tag": "c801-2b-2560-a0002"
  }
}