{
  "pages": [
    [
      [
        "กฎกระทรวง",
        "ฉบับที่ ๓๑ (พ.ศ. ๒๕๐๐)",
        "ออกตามความในพระราชบัญญัติศุลกากร",
        "พุทธศักราช ๒๔๖๙"
      ]
    ],
    []
  ],
  "metadata": {
    "date_backmatter": "2500-12-18",
    "date_gz_old": "2500-12-31",
    "doctype": "กฎกระทรวง",
    "editors": [],
    "tag": "c801-2b-2500-031"
  }
}