{
  "pages": [
    [
      [
        "พระราชกฤษฎีกา",
        "กำหนดเขตบางท้องที่ในจังหวัดสงขลา จังหวัดยะลา",
        "จังหวัดนราธิวาส จังหวัดตรัง และจังหวัดสตูล",
        "เป็นเขตควบคุมศุลกากร",
        "พ.ศ. ๒๕๑๗",
        "------------",
        "",
        "ภูมิพลอดุลยเดช ป.ร.",
        "ให้ไว้ ณ วันที่ ๘ กุมภาพันธ์ พ.ศ. ๒๕๑๗",
        "เป็นปีที่ ๒๙ ในรัชกาลปัจจุบัน"
      ]
    ],
    []
  ],
  "metadata": {
    "date_header": "2517-02-08",
    "editors": [],
    "tag": "c801-2a-2517-001"
  }
}