{
  "pages": [
    [
      [
        "ประกาศกรมศุลกากร",
        "ที่ ๒๒/๒๕๖๑",
        "เรื่อง ข้อกำหนดและขอบเขตกระบวนการทดสอบครั้งที่สองของกรมศุลกากร"
      ]
    ],
    []
  ],
  "metadata": {
    "date_backmatter": "2561-01-29",
    "date_modified": "2561-04-03",
    "date_original": "2561-04-03",
    "doctype": "ประกาศ",
    "editors": [
      {
        "name": "ปุณิกา",
        "role": "จัดทำ",
        "date": "2561-07-11"
      }
    ],
    "tag": "c801-2e-2561-a0021"
  }
}