{
  "pages": [
    [
      [
        "กฎกระทรวง",
        "ฉบับที่ ๖๗ (พ.ศ. ๒๕๑๘)",
        "ออกตามความในพระราชบัญญัติศุลกากร",
        "พุทธศักราช ๒๔๖๙"
      ]
    ],
    []
  ],
  "metadata": {
    "date_backmatter": "2483-11-29",
    "date_gz_old": "2518-07-29",
    "doctype": "กฎกระทรวง",
    "editors": [],
    "tag": "c801-2b-2518-067"
  }
}