{
  "pages": [
    [
      [
        "ประกาศกรมศุลกากร",
        "ที่ ๓๖/๒๕๖๑",
        "เรื่อง การจัดเก็บและรักษาบัญชี เอกสาร หลักฐาน และข้อมูลอื่นใด",
        "ที่เกี่ยวข้องกับการนำเข้าหรือส่งออก"
      ]
    ],
    []
  ],
  "metadata": {
    "date_backmatter": "2561-01-31",
    "date_modified": "2561-07-09",
    "date_original": "2561-07-09",
    "doctype": "ประกาศ",
    "editors": [
      {
        "name": "พรวิภา",
        "role": "จัดทำ",
        "date": "2561-10-02"
      }
    ],
    "tag": "c801-2e-2561-a0040"
  }
}