{
  "pages": [
    [
      [
        "กฎกระทรวง",
        "กำหนดท่าหรือที่ สนามบินศุลกากร ทางอนุมัติ",
        "ด่านพรมแดน และด่านศุลกากร (ฉบับที่ ๖)",
        "พ.ศ. ๒๕๕๖"
      ]
    ],
    []
  ],
  "metadata": {
    "date_backmatter": "2556-07-01",
    "date_modified": "2556-07-12",
    "date_original": "2556-07-12",
    "doctype": "กฎกระทรวง",
    "editors": [
      {
        "name": "ปริยานุช",
        "role": "ผู้จัดทำ",
        "date": "2556-07-15"
      },
      {
        "name": "เอกฤทธิ์",
        "role": "ผู้ตรวจ",
        "date": "2556-07-16"
      }
    ],
    "tag": "c801-2b-2556-a0003"
  }
}