{
  "pages": [
    [
      [
        "ประกาศกรมศุลกากร",
        "ที่ ๘๗/๒๕๖๐",
        "เรื่อง การดำเนินการกับของที่นำเข้ามาในราชอาณาจักร",
        "และได้นำเข้าเก็บในเขตปลอดอากรหรือเขตประกอบการเสรี"
      ]
    ],
    []
  ],
  "metadata": {
    "date_backmatter": "2560-07-31",
    "date_modified": "2560-09-08",
    "date_original": "2560-09-08",
    "doctype": "ประกาศ",
    "editors": [
      {
        "name": "พรวิภา/อัญชลี",
        "role": "จัดทำ",
        "date": "2560-09-11"
      }
    ],
    "tag": "c801-2e-2560-a0007"
  }
}