{
  "pages": [
    [
      [
        "กฎกระทรวง",
        "กำหนดท่าหรือที่ สนามบินศุลกากร ทางอนุมัติ ด่านพรมแดน และด่านศุลกากร",
        "พ.ศ. ๒๕๕๓"
      ]
    ],
    []
  ],
  "metadata": {
    "date_backmatter": "2553-04-01",
    "date_modified": "2556-10-17",
    "date_original": "2553-04-21",
    "doctype": "กฎกระทรวง",
    "editors": [
      {
        "name": "ปณตภร",
        "role": "ผู้จัดทำ",
        "date": "2556-10-25"
      }
    ],
    "tag": "c801-2b-2556-a0008"
  }
}