{
  "pages": [
    [
      [
        "ประกาศกรมศุลกากร",
        "ที่ ๓๕/๒๕๖๑",
        "เรื่อง การปฏิบัติพิธีการศุลกากรเกี่ยวกับการนำเข้าไม้และของทำด้วยไม้"
      ]
    ],
    []
  ],
  "metadata": {
    "date_backmatter": "2561-01-31",
    "date_modified": "2561-07-09",
    "date_original": "2561-07-09",
    "doctype": "ประกาศ",
    "editors": [
      {
        "name": "พรวิภา",
        "role": "จัดทำ",
        "date": "2561-10-02"
      }
    ],
    "tag": "c801-2e-2561-a0039"
  }
}