{
  "pages": [
    [
      [
        "ระเบียบกระทรวงการพัฒนาสังคมและความมั่นคงของมนุษย์",
        "ว่าด้วยหลักเกณฑ์การประชุมของสภาเด็กและเยาวชน",
        "พ.ศ. ๒๕๖๐"
      ]
    ],
    []
  ],
  "metadata": {
    "date_backmatter": "2560-09-21",
    "date_modified": "2560-10-10",
    "date_original": "2560-10-10",
    "editors": [
      {
        "name": "ภวรรณตรี",
        "role": "จัดทำ",
        "date": "2560-10-30"
      },
      {
        "name": "พรวิภา",
        "role": "ตรวจ",
        "date": "2560-10-30"
      }
    ],
    "tag": "ca36-2g-2560-a0001"
  }
}