{
  "pages": [
    [
      [
        "ประกาศอธิบดีกรมสรรพากร",
        "เกี่ยวกับอากรแสตมป์ (ฉบับที่ ๔๘)",
        "เรื่อง กำหนดวิธีการชำระอากรเป็นตัวเงินแทนการปิดแสตมป์อากร",
        "สำหรับตราสารบางลักษณะ"
      ]
    ],
    []
  ],
  "metadata": {
    "date_backmatter": "2547-08-05",
    "date_modified": "2547-09-30",
    "date_original": "2547-09-30",
    "doctype": "ประกาศ",
    "editors": [
      {
        "name": "นุสรา",
        "role": "ปรับปรุง",
        "date": "2559-12-07"
      }
    ],
    "tag": "bb08-2e-2547-a0056"
  }
}