{
  "pages": [
    [
      [
        "พระราชกฤษฎีกา",
        "ออกตามความในประมวลรัษฎากร",
        "ว่าด้วยการยกเว้นรัษฎากร (ฉบับที่ ๔๑๘)",
        "พ.ศ. ๒๕๔๗",
        "",
        "",
        "ภูมิพลอดุลยเดช ป.ร.",
        "ให้ไว้ ณ วันที่ ๒๒ มกราคม พ.ศ. ๒๕๔๗",
        "เป็นปีที่ ๕๙ ในรัชกาลปัจจุบัน"
      ]
    ],
    []
  ],
  "metadata": {
    "date_header": "2547-01-22",
    "date_modified": "2547-01-26",
    "date_original": "2547-01-26",
    "doctype": "พระราชกฤษฎีกา",
    "editors": [
      {
        "name": "ศุภชัย",
        "role": "พิมพ์",
        "date": "2547-04-20"
      },
      {
        "name": "พัชรินทร์/สุมลรัตน์",
        "role": "ตรวจ",
        "date": "2547-04-27"
      }
    ],
    "tag": "bb08-2a-2547-a0001",
    "title": "ออกตามความในประมวลรัษฎากรว่าด้วยการยกเว้นรัษฎากร (ฉบับที่ ๔๑๘)"
  }
}