{
  "pages": [
    [
      [
        "ประกาศของคณะปฏิวัติ",
        "ฉบับที่ ๒๐๖"
      ]
    ],
    []
  ],
  "metadata": {
    "date_backmatter": "2545-02-13",
    "doctype": "ประกาศ",
    "editors": [],
    "tag": "bb08-2l-2515-206"
  }
}