{
  "pages": [
    [
      [
        "ประกาศอธิบดีกรมสรรพากร",
        "เกี่ยวกับภาษีเงินได้ (ฉบับที่ ๔๔)",
        "เรื่อง กำหนดรายจ่ายเพื่อการสาธารณประโยชน์ รายจ่ายเพื่อการศึกษา",
        "และรายจ่ายเพื่อการกีฬา ตามมาตรา ๖๕ ตรี (๓) แห่งประมวลรัษฎากร"
      ]
    ],
    []
  ],
  "metadata": {
    "date_backmatter": "2535-09-09",
    "date_gz_old": "2535-10-01",
    "doctype": "ประกาศ",
    "editors": [
      {
        "name": "ธิดาวรรณ",
        "role": "แก้ไข",
        "date": "2545-09-19"
      }
    ],
    "tag": "bb08-2e-2535-a036"
  }
}