{
  "pages": [
    [
      [
        "พระราชบัญญัติ",
        "ให้ใช้บทบัญญัติแห่งประมวลรัษฎากร",
        "พุทธศักราช ๒๔๘๑",
        "",
        "",
        "ในพระปรมาภิไธยสมเด็จพระเจ้าอยู่หัวอานันทมหิดล",
        "คณะผู้สำเร็จราชการแทนพระองค์",
        "(ตามประกาศประธานสภาผู้แทนราษฎร",
        "ลงวันที่ ๔ สิงหาคม พุทธศักราช ๒๔๘๐)",
        "อาทิตย์ทิพอาภา",
        "พล. อ.เจ้าพระยาพิชเยนทรโยธิน",
        "ตราไว้ ณ วันที่ ๓๑ มีนาคม พุทธศักราช ๒๔๘๑",
        "เป็นปีที่ ๕ ในรัชกาลปัจจุบัน",
        "",
        "โดยที่สภาผู้แทนราษฎรลงมติว่า สมควรตราประมวลรัษฎากรเพื่อปรับปรุงการรัษฎากรตามหลักความเป็นธรรมแก่สังคม",
        "",
        "จึงมีพระบรมราชโองการให้ตราพระราชบัญญัติขึ้นไว้โดยคำแนะนำและยินยอมของสภาผู้แทนราษฎร ดังต่อไปนี้",
        "",
        "มาตรา ๑ พระราชบัญญัตินี้ให้เรียกว่า “พระราชบัญญัติให้ใช้บทบัญญัติแห่งประมวลรัษฎากร พุทธศักราช ๒๔๘๑”",
        "",
        "มาตรา ๒ ให้ใช้พระราชบัญญัตินี้ตั้งแต่วันที่ ๑ เมษายน พุทธศักราช ๒๔๘๒ เป็นต้นไป",
        "",
        "มาตรา ๓ ให้ใช้ประมวลรัษฎากรตามที่ตราไว้ต่อท้ายพระราชบัญญัตินี้เป็นกฎหมายตั้งแต่วันที่ ๑ เมษายน พุทธศักราช ๒๔๘๒ เป็นต้นไป เว้นแต่บทบัญญัติในลักษณะ ๒ หมวด ๖ ว่าด้วยอากรแสตมป์นั้น ให้ใช้เป็นกฎหมายตั้งแต่วันที่ ๑ มิถุนายน พุทธศักราช ๒๔๘๒ เป็นต้นไป",
        "",
        "มาตรา ๔ นับแต่วันใช้พระราชบัญญัตินี้ ให้ยกเลิก",
        "(๑) พระราชบัญญัติเงินรัชชูปการ พุทธศักราช ๒๔๖๘",
        "(๒) พระราชบัญญัติลักษณะเก็บเงินค่านา ร.ศ. ๑๑๙",
        "(๓) พระราชบัญญัติลักษณะการเก็บภาษีค่าที่ไร่อ้อย พุทธศักราช ๒๔๖๔",
        "(๔) พระราชบัญญัติเปลี่ยนวิธีเก็บภาษียา ร.ศ. ๑๑๙",
        "(๕) ประกาศพระราชทานยกเงินอากรสวนใหญ่ค้างเก่าและเดินสำรวจต้นผลไม้ใหม่ สำหรับเก็บเงินอากรสวนใหญ่ รัตนโกสินทรศก ๑๓๐",
        "(๖) พระราชบัญญัติภาษีเงินได้ พุทธศักราช ๒๔๗๕",
        "(๗) พระราชบัญญัติภาษีการค้า พุทธศักราช ๒๔๗๕",
        "(๘) พระราชบัญญัติภาษีการธนาคารและการประกันภัย พุทธศักราช ๒๔๗๖",
        "(๙) บรรดาพิกัดอัตรา ข้อบังคับ กฎ ประกาศและบทกฎหมายอื่น ซึ่งออกเพื่อแก้ไขเพิ่มเติมหรือดำเนินการตามกฎหมายดังกล่าวข้างต้น",
        "และนับตั้งแต่วันใช้บทบัญญัติในลักษณะ ๒ หมวด ๖ แห่งประมวลรัษฎากรว่าด้วยอากรแสตมป์ ให้ยกเลิกพระราชบัญญัติอากรแสตมป์ พุทธศักราช ๒๔๗๕ กับบรรดาพิกัดอัตรา ข้อบังคับ กฎและบทกฎหมายอื่น ซึ่งออกเพื่อแก้ไขเพิ่มเติมหรือดำเนินการตามพระราชบัญญัตินั้น",
        "",
        "มาตรา ๕ บรรดาพระราชบัญญัติ ประกาศ พิกัดอัตรา ข้อบังคับ กฎและบทกฎหมายที่ให้ยกเลิกตามความในมาตรา ๔ วรรคแรกนั้น ยังคงให้ใช้บังคับได้ในการเก็บภาษีอากรจำนวนพุทธศักราชต่าง ๆ ก่อนใช้ประมวลรัษฎากร",
        "ส่วนพระราชบัญญัติ พิกัดอัตรา ข้อบังคับ กฎและบทกฎหมายที่ให้ยกเลิกตามความในมาตรา ๔ วรรคสุดท้าย ก็ยังคงให้ใช้บังคับได้ในการเก็บอากรที่จะพึงเรียกเก็บได้ก่อนใช้บทบัญญัติในลักษณะ ๒ หมวด ๖ แห่งประมวลรัษฎากรว่าด้วยอากรแสตมป์",
        "",
        "มาตรา ๖ ให้รัฐมนตรีว่าการกระทรวงการคลังมีหน้าที่รักษาการให้เป็นไปตามพระราชบัญญัตินี้",
        "",
        "",
        "ผู้รับสนองพระบรมราชโองการ",
        "พิบูลสงคราม",
        "นายกรัฐมนตรี"
      ]
    ],
    []
  ],
  "metadata": {
    "date_header": "2480-08-04",
    "date_modified": "2558-08-05",
    "date_original": "2482-04-01",
    "doctype": "พระราชบัญญัติ",
    "editors": [
      {
        "name": "ศรตม์, ธิติกานต์",
        "role": "ปรับปรุง",
        "date": "2556-02-00"
      },
      {
        "name": "อุดมลักษณ์",
        "role": "ตรวจ",
        "date": "2556-06-00"
      },
      {
        "name": "นุสรา",
        "role": "เพิ่มเติม",
        "date": "2559-02-29"
      }
    ],
    "tag": "bb08-20-2558-a0002",
    "title": "ให้ใช้บทบัญญัติแห่งประมวลรัษฎากร"
  }
}