{
  "pages": [
    [
      [
        "ประกาศอธิบดีกรมสรรพากร",
        "เกี่ยวกับภาษีมูลค่าเพิ่ม (ฉบับที่ ๖)",
        "เรื่อง กำหนดลักษณะและเงื่อนไขของการประกอบกิจการขายสินค้า",
        "ในลักษณะขายปลีกหรือประกอบกิจการให้บริการในลักษณะบริการ",
        "รายย่อยแก่บุคคลจำนวนมาก ให้เป็นกิจการค้าปลีกตามมาตรา",
        "๘๖/๖ แห่งประมวลรัษฎากร"
      ]
    ],
    []
  ],
  "metadata": {
    "date_backmatter": "2534-12-25",
    "date_gz_old": "2535-05-25",
    "doctype": "ประกาศ",
    "editors": [
      {
        "name": "พุทธชาด",
        "role": "แก้ไข",
        "date": "2545-09-17"
      }
    ],
    "tag": "bb08-2e-2535-a011"
  }
}