{
  "pages": [
    [
      [
        "กฎกระทรวง",
        "ฉบับที่ ๒๐๔ (พ.ศ. ๒๕๓๙)",
        "ออกตามความในประมวลรัษฎากร",
        "ว่าด้วยการยกเว้นรัษฎากร"
      ]
    ],
    []
  ],
  "metadata": {
    "date_backmatter": "2539-09-25",
    "date_gz_old": "2539-10-03",
    "doctype": "กฎกระทรวง",
    "editors": [],
    "tag": "bb08-2b-2539-204"
  }
}