{
  "pages": [
    [
      [
        "คำสั่งกรมสรรพากร",
        "ที่ ป. ๑๕๖/๒๕๖๑",
        "เรื่อง การเสียภาษีเงินได้นิติบุคคลสำหรับรายจ่ายจากการดำเนินการ",
        "ตามพระราชบัญญัติส่งเสริมและพัฒนาคุณภาพชีวิตคนพิการ พ.ศ. ๒๕๕๐"
      ]
    ],
    []
  ],
  "metadata": {
    "date_backmatter": "2561-01-16",
    "date_modified": "2561-02-15",
    "date_original": "2561-02-15",
    "editors": [
      {
        "name": "พิมพ์มาดา",
        "role": "จัดทำ",
        "date": "2561-03-12"
      }
    ],
    "tag": "bb08-2f-2561-a0004"
  }
}