{
  "pages": [
    [
      [
        "กฎกระทรวง",
        "ฉบับที่ ๑๕๑ (พ.ศ. ๒๕๒๓)",
        "ออกตามความในประมวลรัษฎากร",
        "ว่าด้วยการยกเว้นรัษฎากร"
      ]
    ],
    []
  ],
  "metadata": {
    "date_backmatter": "2523-08-27",
    "date_gz_old": "2523-09-03",
    "doctype": "กฎกระทรวง",
    "editors": [],
    "tag": "bb08-2b-2523-151"
  }
}