{
  "pages": [
    [
      [
        "พระราชกฤษฎีกา",
        "ออกตามความในประมวลรัษฎากร",
        "ว่าด้วยการลดอัตราภาษีการค้า (ฉบับที่ ๑๕๖)",
        "พ.ศ. ๒๕๒๘",
        "------------",
        "ภูมิพลอดุลยเดช ป.ร.",
        "ให้ไว้ ณ วันที่ ๓๑ มกราคม พ.ศ. ๒๕๒๘",
        "เป็นปีที่ ๔๐ ในรัชกาลปัจจุบัน"
      ]
    ],
    []
  ],
  "metadata": {
    "date_gz_old": "2528-02-04",
    "date_header": "2528-01-31",
    "doctype": "พระราชกฤษฎีกา",
    "editors": [],
    "tag": "bb08-2a-2528-156",
    "title": "ออกตามความในประมวลรัษฎากรว่าด้วยการลดอัตราภาษีการค้า (ฉบับที่ ๑๕๖)พ.ศ. ๒๕๒๘------------ภูมิพลอดุลยเดช ป.ร.ให้ไว้ ณ วันที่ ๓๑ มกราคม"
  }
}