{
  "pages": [
    [
      [
        "คำสั่งกรมบังคับคดี",
        "ที่ ๖๗/๒๕๔๘",
        "เรื่อง การหักภาษีเงินได้จากการขายทอดตลาดทรัพย์สิน"
      ]
    ],
    []
  ],
  "metadata": {
    "date_backmatter": "2548-02-07",
    "date_modified": "2550-09-26",
    "date_original": "2550-09-26",
    "editors": [
      {
        "name": "วัชศักดิ์",
        "role": "ผู้จัดทำ",
        "date": "2550-10-10"
      }
    ],
    "tag": "bb08-2f-2550-a0007"
  }
}