{
  "pages": [
    [
      [
        "กฎกระทรวง",
        "ฉบับที่ ๘๒ (พ.ศ. ๒๔๘๖)",
        "ออกตามความในประมวลรัษฎากร",
        "ว่าด้วยอากรแสตมป์"
      ]
    ],
    []
  ],
  "metadata": {
    "date_backmatter": "2486-04-25",
    "date_gz_old": "2486-04-28",
    "doctype": "กฎกระทรวง",
    "editors": [],
    "tag": "bb08-2b-2496-082"
  }
}