{
  "pages": [
    [
      [
        "ประกาศอธิบดีกรมสรรพากร",
        "เกี่ยวกับภาษีมูลค่าเพิ่ม (ฉบับที่ ๑๘๑)",
        "เรื่อง กำหนดประเภท หลักเกณฑ์ วิธีการ และเงื่อนไขกรณีการให้บริการที่กระทำ",
        "ในราชอาณาจักรและได้มีการใช้บริการนั้นในต่างประเทศ",
        "ตามมาตรา ๘๐/๑ (๒) แห่งประมวลรัษฎากร"
      ]
    ],
    []
  ],
  "metadata": {
    "date_backmatter": "2554-03-29",
    "date_modified": "2554-05-11",
    "date_original": "2554-05-11",
    "doctype": "ประกาศ",
    "editors": [
      {
        "name": "ปริยานุช",
        "role": "ผู้จัดทำ",
        "date": "2554-05-30"
      },
      {
        "name": "ณัฐวดี",
        "role": "ตรวจ",
        "date": "2554-05-30"
      }
    ],
    "tag": "bb08-2e-2554-a0022"
  }
}