{
  "pages": [
    [
      [
        "ประกาศกระทรวงการคลัง",
        "ว่าด้วยภาษีเงินได้และภาษีมูลค่าเพิ่ม (ฉบับที่ ๖๗๖)",
        "เรื่อง กำหนดองค์การ สถานสาธารณกุศล สถานพยาบาล และสถานศึกษา",
        "ตามมาตรา ๔๗ (๗) (ข) แห่งประมวลรัษฎากร และมาตรา ๓ (๔) (ข)",
        "แห่งพระราชกฤษฎีกาออกตามความในประมวลรัษฎากร",
        "ว่าด้วยการยกเว้นภาษีมูลค่าเพิ่ม (ฉบับที่ ๒๓๙) พ.ศ. ๒๕๓๔",
        "ซึ่งแก้ไขเพิ่มเติมโดยพระราชกฤษฎีกาออกตามความในประมวลรัษฎากร",
        "ว่าด้วยการยกเว้นภาษีมูลค่าเพิ่ม (ฉบับที่ ๒๕๔)",
        "พ.ศ. ๒๕๓๕"
      ]
    ],
    []
  ],
  "metadata": {
    "date_backmatter": "2560-02-02",
    "date_modified": "2560-02-17",
    "date_original": "2560-02-17",
    "doctype": "ประกาศ",
    "editors": [
      {
        "name": "ปริยานุช",
        "role": "จัดทำ",
        "date": "2560-02-20"
      },
      {
        "name": "วริญา",
        "role": "ตรวจ",
        "date": "2560-03-10"
      }
    ],
    "tag": "bb08-2e-2560-a0006"
  }
}