{
  "pages": [
    [
      [
        "ประกาศอธิบดีกรมสรรพากร",
        "เรื่อง รายชื่อผู้รับทำการวิจัยและพัฒนาเทคโนโลยีและนวัตกรรม (ฉบับที่ ๖)"
      ]
    ],
    []
  ],
  "metadata": {
    "date_backmatter": "2559-08-30",
    "date_modified": "2560-11-09",
    "date_original": "2560-11-09",
    "doctype": "ประกาศ",
    "editors": [
      {
        "name": "ภวรรณตรี",
        "role": "จัดทำ",
        "date": "2560-11-23"
      },
      {
        "name": "พัชรภรณ์",
        "role": "ตรวจ",
        "date": "2560-11-23"
      }
    ],
    "tag": "bb08-2e-2560-a0070"
  }
}