{
  "pages": [
    [
      [
        "พระราชกฤษฎีกา",
        "ออกตามความในประมวลรัษฎากร",
        "ว่าด้วยการยกเว้นภาษีมูลค่าเพิ่ม (ฉบับที่ ๒๕๕)",
        "พ.ศ. ๒๕๓๕",
        "-------------",
        "",
        "ภูมิพลอดุลยเดช ป.ร.",
        "ให้ไว้ ณ วันที่ ๒๑ สิงหาคม พ.ศ. ๒๕๓๕",
        "เป็นปีที่ ๔๗ ในรัชกาลปัจจุบัน"
      ]
    ],
    []
  ],
  "metadata": {
    "date_gz_old": "2535-08-28",
    "date_header": "2535-08-21",
    "editors": [],
    "tag": "bb08-2a-2535-255"
  }
}