{
  "pages": [
    [
      [
        "กฎกระทรวง",
        "ฉบับที่ ๖๔ (พ.ศ. ๒๔๙๔)",
        "ออกตามความในประมวลรัษฎากร",
        "ว่าด้วยเงินเพิ่มภาษีการซื้อน้ำตาล"
      ]
    ],
    []
  ],
  "metadata": {
    "date_backmatter": "2494-07-13",
    "date_gz_old": "2494-07-24",
    "doctype": "กฎกระทรวง",
    "editors": [],
    "tag": "bb08-2b-2494-064"
  }
}