{
  "pages": [
    [
      [
        "ประกาศอธิบดีกรมสรรพากร",
        "เกี่ยวกับภาษีเงินได้ (ฉบับที่ ๒๙๒)",
        "เรื่อง กำหนดการยื่นแบบแสดงรายการภาษี การชำระภาษี",
        "และสถานที่ยื่นแบบแสดงรายการภาษี"
      ]
    ],
    []
  ],
  "metadata": {
    "date_backmatter": "2560-03-23",
    "date_modified": "2560-04-04",
    "date_original": "2560-04-04",
    "doctype": "ประกาศ",
    "editors": [
      {
        "name": "พรวิภา/ภวรรณตรี",
        "role": "จัดทำ",
        "date": "2560-04-10"
      },
      {
        "name": "นุสรา",
        "role": "ตรวจ",
        "date": "2560-05-23"
      }
    ],
    "tag": "bb08-2e-2560-a0012"
  }
}