{
  "pages": [
    [
      [
        "ประกาศอธิบดีกรมสรรพากร",
        "เกี่ยวกับภาษีมูลค่าเพิ่ม (ฉบับที่ ๙๘)",
        "เรื่อง การกำหนดภาษีซื้อที่ไม่ให้นำไปหักในการคำนวณภาษีมูลค่าเพิ่ม",
        "ตามมาตรา ๘๒/๕ (๖) แห่งประมวลรัษฎากร"
      ]
    ],
    []
  ],
  "metadata": {
    "date_backmatter": "2543-01-13",
    "doctype": "ประกาศ",
    "editors": [
      {
        "name": "ปรียนันท์",
        "role": "แก้ไข"
      },
      {
        "name": "๒๖/๔",
        "role": "๔๕"
      }
    ],
    "tag": "bb08-2e-2543-a012"
  }
}