{
  "pages": [
    [
      [
        "ประกาศกรมสรรพากร",
        "เกี่ยวกับภาษีเงินได้ (ฉบับที่ ๓)",
        "เรื่อง กำหนดกองทุนสวัสดิการภายในส่วนราชการที่จัดตั้งขึ้น",
        "ตามระเบียบสำนักนายกรัฐมนตรี ว่าด้วยการจัดสวัสดิการภายในส่วนราชการ",
        "ตามพระราชกฤษฎีกาออกตามความในประมวลรัษฎากร ว่าด้วยการยกเว้นรัษฎากร",
        "(ฉบับที่ ๔๒๔) พ.ศ. ๒๕๔๗ และประกาศอธิบดีกรมสรรพากรเกี่ยวกับภาษีเงินได้",
        "(ฉบับที่ ๑๓๔) เรื่อง กำหนดหลักเกณฑ์ วิธีการ และเงื่อนไขการยกเว้นภาษีเงินได้",
        "สำหรับการบริจาคให้แก่ กองทุนสวัสดิการภายในส่วนราชการ",
        "ลงวันที่ ๒๓ พฤศจิกายน พ.ศ. ๒๕๔๗"
      ]
    ],
    []
  ],
  "metadata": {
    "date_backmatter": "2548-02-16",
    "date_header": "2547-11-23",
    "date_modified": "2548-04-07",
    "date_original": "2548-04-07",
    "doctype": "ประกาศ",
    "editors": [
      {
        "name": "พุทธพัท",
        "role": "ผู้จัดทำ",
        "date": "2548-06-13"
      }
    ],
    "tag": "bb08-2e-2548-a0011"
  }
}