{
  "pages": [
    [
      [
        "ประกาศอธิบดีกรมสรรพากร",
        "เรื่อง กำหนดหลักเกณฑ์ วิธีการ และเงื่อนไขการโอนกิจการบางส่วน",
        "ให้แก่กันของบริษัทมหาชนจำกัดหรือบริษัทจำกัด เพื่อยกเว้นรัษฎากร",
        "(ฉบับที่ ๒ )"
      ]
    ],
    []
  ],
  "metadata": {
    "date_backmatter": "2542-12-09",
    "date_gz_old": "2543-01-27",
    "doctype": "ประกาศ",
    "editors": [
      {
        "name": "ปรียนันท์",
        "role": "แก้ไข"
      },
      {
        "name": "๒๖/๔",
        "role": "๔๕"
      }
    ],
    "tag": "bb08-2e-2543-a011"
  }
}