{
  "pages": [
    [
      [
        "พระราชกฤษฎีกา",
        "ออกตามความในประมวลรัษฎากร",
        "ว่าด้วยการกำหนดกิจการที่ได้รับยกเว้นภาษีธุรกิจเฉพาะ (ฉบับที่ ๓๒๒)",
        "พ.ศ. ๒๕๔๑",
        "-------------",
        "",
        "ภูมิพลอดุลยเดช ป.ร.",
        "ให้ไว้ ณ วันที่ ๒๒ สิงหาคม พ.ศ. ๒๕๔๑",
        "เป็นปีที่ ๕๓ ในรัชกาลปัจจุบัน"
      ]
    ],
    []
  ],
  "metadata": {
    "date_gz_old": "2541-09-04",
    "date_header": "2541-08-22",
    "editors": [],
    "tag": "bb08-2a-2541-a018"
  }
}