{
  "pages": [
    [
      [
        "กฎกระทรวง",
        "ฉบับที่ 209 (พ.ศ.2540)",
        "ออกตามความในประมวลรัษฎากร",
        "ว่าด้วยการยกเว้นรัษฎากร"
      ]
    ],
    []
  ],
  "metadata": {
    "date_backmatter": "2540-12-09",
    "doctype": "กฎกระทรวง",
    "editors": [],
    "tag": "bb08-2b-2540-209"
  }
}