{
  "pages": [
    [
      [
        "ประกาศอธิบดีกรมสรรพากร",
        "เกี่ยวกับอากรแสตมป์ (ฉบับที่ ๑๕)",
        "เรื่อง ยกเลิกการยกเว้นการออกใบรับให้แก่ผู้ประกอบ",
        "การค้าสุรา หรือผู้ประกอบการค้ายาสูบ"
      ]
    ],
    []
  ],
  "metadata": {
    "date_backmatter": "2515-11-29",
    "date_gz_old": "2515-12-19",
    "doctype": "ประกาศ",
    "editors": [
      {
        "name": "ฐาปนี",
        "role": "แก้ไข",
        "date": "2545-10-29"
      }
    ],
    "tag": "bb08-2e-2515-a002"
  }
}