{
  "pages": [
    [
      [
        "ประกาศกระทรวงการคลัง",
        "เกี่ยวกับภาษีเงินได้ (ฉบับที่ ๒๕๓)",
        "เรื่อง รายชื่อผู้รับทำการวิจัยและพัฒนาเทคโนโลยี"
      ]
    ],
    []
  ],
  "metadata": {
    "date_backmatter": "2555-04-20",
    "date_modified": "2555-05-25",
    "date_original": "2555-05-25",
    "doctype": "ประกาศ",
    "editors": [
      {
        "name": "ปริยานุช",
        "role": "ผู้จัดทำ",
        "date": "2555-05-29"
      },
      {
        "name": "ณัฐพร",
        "role": "ผู้ตรวจ",
        "date": "2555-05-29"
      }
    ],
    "tag": "bb08-2e-2555-a0070"
  }
}