{
  "pages": [
    [
      [
        "ประกาศอธิบดีกรมสรรพากร",
        "เกี่ยวกับภาษีมูลค่าเพิ่ม (ฉบับที่ ๘)",
        "เรื่อง กำหนดหลักเกณฑ์ วิธีการ และเงื่อนไข ของสัญญาการตั้งตัวแทนเพื่อขาย",
        "ตามประเภทของสินค้า ตามมาตรา ๗๘ (๓) แห่งประมวลรัษฎากร"
      ]
    ],
    []
  ],
  "metadata": {
    "date_backmatter": "2534-12-27",
    "date_gz_old": "2535-05-25",
    "doctype": "ประกาศ",
    "editors": [
      {
        "name": "พุทธชาด",
        "role": "พิมพ์",
        "date": "2545-09-11"
      }
    ],
    "tag": "bb08-2e-2535-a009"
  }
}