{
  "pages": [
    [
      [
        "กฎกระทรวง",
        "ฉบับที่ ๒๗๕ (พ.ศ. ๒๕๕๓)",
        "ออกตามความในประมวลรัษฎากร",
        "ว่าด้วยการยกเว้นรัษฎากร"
      ]
    ],
    []
  ],
  "metadata": {
    "date_backmatter": "2553-07-08",
    "date_modified": "2553-09-17",
    "date_original": "2553-09-17",
    "doctype": "กฎกระทรวง",
    "editors": [
      {
        "name": "ปริยานุช",
        "role": "ผู้จัดทำ",
        "date": "2553-09-20"
      },
      {
        "name": "ณัฐวดี",
        "role": "ตรวจ",
        "date": "2553-09-20"
      }
    ],
    "tag": "bb08-2b-2553-a0003"
  }
}