{
  "pages": [
    [
      [
        "พระราชกฤษฎีกา",
        "ออกตามความในประมวลรัษฎากร",
        "ว่าด้วยการลดอัตราภาษีการค้า (ฉบับที่ ๖๔)",
        "พ.ศ. ๒๕๑๙",
        "----------------",
        "ภูมิพลอดุลยเดช ป.ร.",
        "ให้ไว้ ณ วันที่ ๑ กันยายน พ.ศ. ๒๕๑๙",
        "เป็นปีที่ ๓๑ ในรัชกาลปัจจุบัน"
      ]
    ],
    []
  ],
  "metadata": {
    "date_gz_old": "2519-09-08",
    "date_header": "2519-09-01",
    "doctype": "พระราชกฤษฎีกา",
    "editors": [],
    "tag": "bb08-2a-2519-064",
    "title": "ออกตามความในประมวลรัษฎากรว่าด้วยการลดอัตราภาษีการค้า (ฉบับที่ ๖๔)พ.ศ. ๒๕๑๙----------------ภูมิพลอดุลยเดช ป.ร.ให้ไว้ ณ วันที่ ๑ กันยายน"
  }
}