{
  "pages": [
    [
      [
        "ประกาศอธิบดีกรมสรรพากร",
        "เรื่อง กำหนดให้บริษัทหรือห้างหุ้นส่วนนิติบุคคลที่ตั้งขึ้นตามกฎหมายของต่างประเทศ",
        "ประกอบกิจการขนส่งระหว่างประเทศโดยเรือเดินทะเล มีและใช้เลขประจำตัวในการปฏิบัติการ",
        "ตามประมวลรัษฎากรเกินกว่าหนึ่งหมายเลข"
      ]
    ],
    []
  ],
  "metadata": {
    "date_backmatter": "2549-05-24",
    "date_modified": "2549-07-06",
    "date_original": "2549-07-06",
    "doctype": "ประกาศ",
    "editors": [
      {
        "name": "นันทนา",
        "role": "ผู้จัดทำ",
        "date": "2549-07-13"
      }
    ],
    "tag": "bb08-2e-2549-a0026"
  }
}