{
  "pages": [
    [
      [
        "พระราชกฤษฎีกา",
        "ออกตามความในประมวลรัษฎากร",
        "ว่าด้วยการยกเว้นรัษฎากร (ฉบับที่ ๓๐)",
        "พ.ศ. ๒๕๑๒",
        "------------------",
        "ภูมิพลอดุลยเดช ป.ร.",
        "ให้ไว้ ณ วันที่ ๒๐ มกราคม พ.ศ. ๒๕๑๒",
        "เป็นปีที่ ๒๔ ในรัชกาลปัจจุบัน"
      ]
    ],
    []
  ],
  "metadata": {
    "date_gz_old": "2512-01-28",
    "date_header": "2512-01-20",
    "doctype": "พระราชกฤษฎีกา",
    "editors": [],
    "tag": "bb08-2a-2512-030",
    "title": "ออกตามความในประมวลรัษฎากรว่าด้วยการยกเว้นรัษฎากร (ฉบับที่ ๓๐)พ.ศ. ๒๕๑๒------------------ภูมิพลอดุลยเดช ป.ร.ให้ไว้ ณ วันที่ ๒๐ มกราคม"
  }
}