{
  "pages": [
    [
      [
        "ประกาศกระทรวงการคลัง",
        "เรื่อง ขยายกำหนดเวลาการยื่นแบบแสดงรายการและชำระภาษีอากรให้แก่",
        "ผู้มีหน้าที่เสียภาษีหรือนำส่งภาษีในท้องที่ที่เกิดภัยพิบัติอุทกภัย",
        "(ฉบับที่ ๑)"
      ]
    ],
    []
  ],
  "metadata": {
    "date_backmatter": "2560-10-24",
    "date_modified": "2560-11-02",
    "date_original": "2560-11-02",
    "doctype": "ประกาศ",
    "editors": [
      {
        "name": "ปุณิกา/อัญชลี",
        "role": "จัดทำ",
        "date": "2560-11-06"
      }
    ],
    "tag": "bb08-2e-2560-a0065"
  }
}