{
  "pages": [
    [
      [
        "ประกาศอธิบดีกรมสรรพากร",
        "เกี่ยวกับภาษีเงินได้ (ฉบับที่ ๑๖๑)",
        "เรื่อง กำหนดให้ผู้มีหน้าที่เสียภาษีเงินได้บุคคลธรรมดา และมิได้เป็นผู้ประกอบการ",
        "จดทะเบียนภาษีมูลค่าเพิ่ม จัดทำบัญชีหรือรายงานแสดงรายได้และรายจ่าย"
      ]
    ],
    []
  ],
  "metadata": {
    "date_backmatter": "2549-12-21",
    "date_modified": "2550-02-01",
    "date_original": "2550-02-01",
    "doctype": "ประกาศ",
    "editors": [
      {
        "name": "โสรศ",
        "role": "ผู้จัดทำ",
        "date": "2550-02-08"
      }
    ],
    "tag": "bb08-2e-2550-a0005"
  }
}