{
  "pages": [
    [
      [
        "ประกาศอธิบดีกรมสรรพากร",
        "เกี่ยวกับภาษีมูลค่าเพิ่ม (ฉบับที่ ๑๘๙)",
        "เรื่อง กำหนดหลักเกณฑ์ วิธีการ และเงื่อนไขในการจำหน่ายหนี้สูญ และหลักเกณฑ์ วิธีการ",
        "และเงื่อนไขในการคำนวณส่วนของหนี้สูญ เพื่อนำมาหักออกจากภาษีขาย",
        "ตามมาตรา ๘๒/๑๑ แห่งประมวลรัษฎากร"
      ]
    ],
    []
  ],
  "metadata": {
    "date_backmatter": "2555-11-14",
    "date_modified": "2556-01-11",
    "date_original": "2556-01-11",
    "doctype": "ประกาศ",
    "editors": [
      {
        "name": "ปริยานุช",
        "role": "ผู้จัดทำ",
        "date": "2556-01-14"
      },
      {
        "name": "อุษมล",
        "role": "ผู้ตรวจ",
        "date": "2556-01-14"
      }
    ],
    "tag": "bb08-2e-2556-a0009"
  }
}