{
  "pages": [
    [
      [
        "คำสั่งกรมสรรพากร",
        "ที่ ท.ป. ๑๓๐/๒๕๔๖",
        "เรื่อง มอบอำนาจให้สรรพากรภาคสั่งและปฏิบัติราชการแทน",
        "อธิบดีกรมสรรพากร"
      ]
    ],
    []
  ],
  "metadata": {
    "date_backmatter": "2546-09-10",
    "date_modified": "2558-08-06",
    "date_original": "2546-10-21",
    "editors": [
      {
        "name": "จุฑามาศ",
        "role": "ผู้จัดทำ",
        "date": "2557-10-29"
      },
      {
        "name": "นุสรา",
        "role": "ปรับปรุง",
        "date": "2558-03-20"
      },
      {
        "name": "นุสรา",
        "role": "เพิ่มเติม",
        "date": "2558-11-05"
      }
    ],
    "tag": "bb08-2f-9997-update"
  }
}