{
  "pages": [
    [
      [
        "ประกาศอธิบดีกรมสรรพากร",
        "เกี่ยวกับภาษีมูลค่าเพิ่ม (ฉบับที่ ๔๐)",
        "เรื่อง กำหนดลักษณะ และเงื่อนไข ค่าตอบแทนที่ไม่ต้องนำมารวมคำนวณ",
        "มูลค่าของฐานภาษี ตามมาตรา ๗๙ (๔) แห่งประมวลรัษฎากร"
      ]
    ],
    []
  ],
  "metadata": {
    "date_backmatter": "2535-08-26",
    "date_gz_old": "2535-09-22",
    "doctype": "ประกาศ",
    "editors": [
      {
        "name": "จารุวรรณ",
        "role": "พิมพ์",
        "date": "2545-09-06"
      }
    ],
    "tag": "bb08-2e-2535-a003"
  }
}