{
  "pages": [
    [
      [
        "คำสั่งกรมสรรพากร",
        "ที่ ป. ๓๓ / ๒๕๓๖",
        "เรื่อง การส่งออกสินค้า ซึ่งผู้ประกอบการจดทะเบียนได้รับสิทธิเสีย",
        "ภาษีมูลค่าเพิ่มในอัตราร้อยละ ๐"
      ]
    ],
    []
  ],
  "metadata": {
    "date_backmatter": "2536-06-24",
    "date_gz_old": "2536-07-29",
    "editors": [
      {
        "name": "ธิดาวรรณ",
        "role": "แก้ไข",
        "date": "2545-09-16"
      }
    ],
    "tag": "bb08-2f-2536-a006"
  }
}