{
  "pages": [
    [
      [
        "ประกาศอธิบดีกรมสรรพากร",
        "เกี่ยวกับอากรแสตมป์ (ฉบับที่ ๕๐)",
        "เรื่อง กำหนดหลักเกณฑ์ วิธีการ และเงื่อนไขเพื่อการยกเว้นอากรแสตมป์",
        "สำหรับรายรับจากการกระทำตราสารอันเนื่องมาจากการขายอสังหาริมทรัพย์",
        "ที่ใช้เป็นที่อยู่อาศัยแห่งเดิมและต้องซื้ออสังหาริมทรัพย์แห่งใหม่เพื่อใช้เป็นที่อยู่อาศัย"
      ]
    ],
    []
  ],
  "metadata": {
    "date_backmatter": "2548-12-27",
    "date_modified": "2549-02-02",
    "date_original": "2549-02-02",
    "doctype": "ประกาศ",
    "editors": [
      {
        "name": "ชัชสรัญ",
        "role": "ผู้จัดทำ",
        "date": "2549-02-07"
      }
    ],
    "tag": "bb08-2e-2549-a0002"
  }
}