{
  "pages": [
    [
      [
        "พระราชกฤษฎีกา",
        "ออกตามความในประมวลรัษฎากร",
        "ว่าด้วยการลดอัตราภาษีการค้า (ฉบับที่ ๒๒๒)",
        "พ.ศ. ๒๕๓๔",
        "-------------",
        "",
        "ภูมิพลอดุลยเดช ป.ร.",
        "ให้ไว้ ณ วันที่ ๑๐ กรกฎาคม พ.ศ. ๒๕๓๔",
        "เป็นปีที่ ๔๖ ในรัชกาลปัจจุบัน"
      ]
    ],
    []
  ],
  "metadata": {
    "date_gz_old": "2534-07-11",
    "date_header": "2534-07-10",
    "editors": [],
    "tag": "bb08-2a-2534-222"
  }
}