{
  "pages": [
    [
      [
        "กฎกระทรวง",
        "ออกตามความในประมวลรัษฎากร (ฉบับที่ ๑๘)",
        "ว่าด้วยอากรแสตมป์"
      ]
    ],
    []
  ],
  "metadata": {
    "date_backmatter": "2484-04-22",
    "doctype": "กฎกระทรวง",
    "editors": [],
    "tag": "bb08-2b-2484-018"
  }
}