{
  "pages": [
    [
      [
        "กฎกระทรวง",
        "ฉบับที่ ๒๘๗ (พ.ศ. ๒๕๕๕)",
        "ออกตามความในประมวลรัษฎากร",
        "ว่าด้วยการยกเว้นรัษฎากร"
      ]
    ],
    []
  ],
  "metadata": {
    "date_backmatter": "2555-02-29",
    "date_modified": "2555-04-04",
    "date_original": "2555-04-04",
    "doctype": "กฎกระทรวง",
    "editors": [
      {
        "name": "ปริยานุช",
        "role": "ผู้จัดทำ",
        "date": "2555-04-05"
      },
      {
        "name": "ปณตภร",
        "role": "ผู้ตรวจ",
        "date": "2555-04-10"
      }
    ],
    "tag": "bb08-2b-2555-a0001"
  }
}