{
  "pages": [
    [
      [
        "คำสั่งกรมสรรพากร",
        "ที่ ท.ป. ๑๗๘/๒๕๕๒",
        "เรื่อง กำหนดสถานที่รับแบบแสดงรายการ และรับชำระเงินภาษีอากรตามประมวลรัษฎากร"
      ]
    ],
    []
  ],
  "metadata": {
    "date_backmatter": "2552-12-29",
    "date_modified": "2553-02-02",
    "date_original": "2553-02-02",
    "editors": [
      {
        "name": "ปริยานุช",
        "role": "ผู้จัดทำ",
        "date": "2553-02-10"
      },
      {
        "name": "นันท์นภัสร์",
        "role": "ตรวจ",
        "date": "2553-02-10"
      }
    ],
    "tag": "bb08-2f-2553-a0002"
  }
}