{
  "pages": [
    [
      [
        "กฎกระทรวง",
        "ฉบับที่ ๑๗๓ (พ.ศ. ๒๕๓๐)",
        "ออกตามความในประมวลรัษฎากร",
        "ว่าด้วยการยกเว้นรัษฎากร"
      ]
    ],
    []
  ],
  "metadata": {
    "date_backmatter": "2529-11-22",
    "date_gz_old": "2530-07-17",
    "doctype": "กฎกระทรวง",
    "editors": [],
    "tag": "bb08-2b-2530-173"
  }
}