{
  "pages": [
    [
      [
        "ประกาศอธิบดีกรมสรรพากร",
        "เกี่ยวกับภาษีมูลค่าเพิ่ม (ฉบับที่ ๘๕)",
        "เรื่อง กำหนดหลักเกณฑ์ วิธีการ และเงื่อนไขในการจำหน่ายหนี้สูญ",
        "และหลักเกณฑ์ วิธีการ และเงื่อนไขในการคำนวณส่วนของหนี้สูญ",
        "เพื่อนำมาหักออกจากภาษีขายตามมาตรา ๘๒/๑๑ แห่งประมวลรัษฎากร"
      ]
    ],
    []
  ],
  "metadata": {
    "date_backmatter": "2542-02-09",
    "date_modified": "2548-03-31",
    "date_original": "2542-03-23",
    "doctype": "ประกาศ",
    "editors": [
      {
        "name": "ปณตภร",
        "role": "ผู้จัดทำ",
        "date": "2556-06-21"
      }
    ],
    "tag": "bb08-2e-2548-a0103"
  }
}