{
  "pages": [
    [
      [
        "พระราชกฤษฎีกา",
        "ออกตามความในประมวลรัษฎากร",
        "ว่าด้วยการยกเว้นรัษฎากร (ฉบับที่ ๔๙๕)",
        "พ.ศ. ๒๕๕๓",
        "",
        "",
        "ภูมิพลอดุลยเดช ป.ร.",
        "ให้ไว้ ณ วันที่ ๒๑ เมษายน พ.ศ. ๒๕๕๓",
        "เป็นปีที่ ๖๕ ในรัชกาลปัจจุบัน"
      ]
    ],
    []
  ],
  "metadata": {
    "date_header": "2553-04-21",
    "date_modified": "2553-04-30",
    "date_original": "2553-04-30",
    "doctype": "พระราชกฤษฎีกา",
    "editors": [
      {
        "name": "ปริยานุช",
        "role": "จัดทำ",
        "date": "2553-05-24"
      },
      {
        "name": "นันท์นภัสร์",
        "role": "ตรวจ",
        "date": "2553-05-24"
      }
    ],
    "tag": "bb08-2a-2553-a0004",
    "title": "ออกตามความในประมวลรัษฎากรว่าด้วยการยกเว้นรัษฎากร (ฉบับที่ ๔๙๕)"
  }
}