{
  "pages": [
    [
      [
        "ประกาศอธิบดีกรมสรรพากร",
        "เรื่อง รายชื่อหน่วยงานรับรองการเป็นวิสาหกิจเพื่อสังคม (ฉบับที่ ๑)"
      ]
    ],
    []
  ],
  "metadata": {
    "date_backmatter": "2560-03-03",
    "date_modified": "2560-05-04",
    "date_original": "2560-05-04",
    "doctype": "ประกาศ",
    "editors": [
      {
        "name": "ปุณิกา/ภวรรณตรี",
        "role": "จัดทำ",
        "date": "2560-05-08"
      },
      {
        "name": "นุสรา",
        "role": "ตรวจ",
        "date": "2560-06-08"
      }
    ],
    "tag": "bb08-2e-2560-a0024"
  }
}