{
  "pages": [
    [
      [
        "ประกาศอธิบดีกรมสรรพากร",
        "เกี่ยวกับภาษีมูลค่าเพิ่ม (ฉบับที่ ๑๗๔)",
        "เรื่อง กำหนดหลักเกณฑ์ วิธีการ และเงื่อนไขการออกใบกำกับภาษีโดยตัวแทน",
        "และกำหนดรายการในใบกำกับภาษี ตามมาตรา ๘๖/๕ (๔) แห่งประมวลรัษฎากร"
      ]
    ],
    []
  ],
  "metadata": {
    "date_backmatter": "2552-11-18",
    "date_modified": "2553-01-22",
    "date_original": "2553-01-22",
    "doctype": "ประกาศ",
    "editors": [
      {
        "name": "ปริยานุช",
        "role": "ผู้จัดทำ",
        "date": "2553-01-29"
      },
      {
        "name": "นันท์นภัสร์",
        "role": "ตรวจ",
        "date": "2553-01-29"
      }
    ],
    "tag": "bb08-2e-2553-a0002"
  }
}