{
  "pages": [
    [
      [
        "คำสั่งกรมสรรพากร",
        "ที่ ท.ป. ๒๘๙/๒๕๖๑",
        "เรื่อง กำหนดสถานที่รับแบบแสดงรายการ และรับชำระเงินภาษีอากรตามประมวลรัษฎากร"
      ]
    ],
    []
  ],
  "metadata": {
    "date_backmatter": "2561-01-12",
    "date_modified": "2561-02-22",
    "date_original": "2561-02-22",
    "editors": [
      {
        "name": "ปุณิกา",
        "role": "จัดทำ",
        "date": "2561-03-09"
      }
    ],
    "tag": "bb08-2f-2561-a0005"
  }
}