{
  "pages": [
    [
      [
        "คำสั่งกรมสรรพากร",
        "ที่ ท.ป. ๑๘๐/๒๕๕๓",
        "เรื่อง กำหนดสถานที่รับแบบแสดงรายการ และรับชำระเงินภาษีอากรตามประมวลรัษฎากร"
      ]
    ],
    []
  ],
  "metadata": {
    "date_backmatter": "2553-01-27",
    "date_modified": "2553-03-26",
    "date_original": "2553-03-26",
    "editors": [
      {
        "name": "ปริยานุช",
        "role": "พิมพ์",
        "date": "2553-04-09"
      },
      {
        "name": "นันท์นภัสร์",
        "role": "ตรวจ",
        "date": "2553-04-09"
      }
    ],
    "tag": "bb08-2f-2553-a0005"
  }
}