{
  "pages": [
    [
      [
        "ประกาศอธิบดีกรมสรรพากร",
        "เรื่อง กำหนดให้ผู้มีหน้าที่เสียภาษีเงินได้บุคคลธรรมดา บริษัท หรือห้างหุ้นส่วนนิติบุคคล",
        "และผู้จ่ายเงินได้ ซึ่งมีหน้าที่หักภาษี ณ ที่จ่าย มีและใช้เลขประจำตัว",
        "ในการปฏิบัติการตามประมวลรัษฎากร (ฉบับที่ ๖)"
      ]
    ],
    []
  ],
  "metadata": {
    "date_backmatter": "2560-09-14",
    "date_modified": "2560-11-02",
    "date_original": "2560-11-02",
    "doctype": "ประกาศ",
    "editors": [
      {
        "name": "ปุณิกา/อัญชลี",
        "role": "จัดทำ",
        "date": "2560-11-06"
      }
    ],
    "tag": "bb08-2e-2560-a0060"
  }
}