{
  "pages": [
    [
      [
        "ประกาศอธิบดีกรมสรรพากร",
        "เกี่ยวกับภาษีเงินได้ (ฉบับที่ ๑๙๗)",
        "เรื่อง กำหนดหลักเกณฑ์ วิธีการ และเงื่อนไข การยกเว้นภาษีเงินได้สำหรับเงินได้ที่ผู้มีเงินได้",
        "เป็นคนพิการที่มีบัตรประจำตัวคนพิการตามกฎหมายว่าด้วยการส่งเสริม",
        "และพัฒนาคุณภาพชีวิตคนพิการ"
      ]
    ],
    []
  ],
  "metadata": {
    "date_backmatter": "2554-05-09",
    "date_modified": "2556-02-22",
    "date_original": "2554-06-10",
    "doctype": "ประกาศ",
    "editors": [
      {
        "name": "โชติกานต์",
        "role": "ผู้จัดทำ",
        "date": "2556-05-21"
      }
    ],
    "tag": "bb08-2e-9989-update"
  }
}