{
  "pages": [
    [
      [
        "ประกาศกระทรวงการคลัง",
        "ว่าด้วยภาษีเงินได้ (ฉบับที่ ๗๖)",
        "เรื่อง กำหนดองค์การ สถานสาธารณกุศล สถานพยาบาล",
        "และสถานศึกษา ตามมาตรา ๔๗ (๗) (ข)",
        "แห่งประมวลรัษฎากร"
      ]
    ],
    []
  ],
  "metadata": {
    "date_backmatter": "2535-04-17",
    "date_modified": "2535-04-28",
    "date_original": "2535-04-28",
    "doctype": "ประกาศ",
    "editors": [
      {
        "name": "พรพิมล",
        "role": "พิมพ์",
        "date": "2546-09-12"
      },
      {
        "name": "นวพร+อรรถชัย",
        "role": "แก้ไข",
        "date": "2546-09-18"
      }
    ],
    "tag": "bb08-2e-2535-a049"
  }
}