{
  "pages": [
    [
      [
        "คำสั่งกรมสรรพากร",
        "ที่ ท.ป. ๔๕/๒๕๓๖",
        "เรื่อง ระเบียบการงดหรือลดเบี้ยปรับภาษีมูลค่าเพิ่ม ตามมาตรตรา ๘๙",
        "และภาษีธุรกิจเฉพาะตามมาตรา ๙ / ๒๑ (๖) แห่งประมวลรัษฎากร"
      ]
    ],
    []
  ],
  "metadata": {
    "date_backmatter": "2536-12-03",
    "date_gz_old": "2536-12-20",
    "editors": [
      {
        "name": "ธิดาวรรณ",
        "role": "แก้ไข",
        "date": "2545-09-18"
      }
    ],
    "tag": "bb08-2f-2536-a007"
  }
}