{
  "pages": [
    [
      [
        "ประกาศกรมสรรพากร",
        "เกี่ยวกับภาษีเงินได้ (ฉบับที่ ๑๙)",
        "เรื่อง กำหนดกองทุนสวัสดิการภายในส่วนราชการที่จัดตั้งขึ้นตามระเบียบสำนักนายกรัฐมนตรี",
        "ว่าด้วยการจัดสวัสดิการภายในส่วนราชการ ตามพระราชกฤษฎีกาออกตามความในประมวลรัษฎากร",
        "ว่าด้วยการยกเว้นรัษฎากร (ฉบับที่ ๔๒๔) พ.ศ. ๒๕๔๗",
        "และประกาศอธิบดีกรมสรรพากร เกี่ยวกับภาษีเงินได้ (ฉบับที่ ๑๓๔)",
        "เรื่อง กำหนดหลักเกณฑ์ วิธีการ และเงื่อนไขการยกเว้นภาษีเงินได้สำหรับ",
        "การบริจาคให้แก่กองทุนสวัสดิการภายในส่วนราชการ",
        "ลงวันที่ ๒๓ พฤศจิกายน พ.ศ. ๒๕๔๗"
      ]
    ],
    []
  ],
  "metadata": {
    "date_backmatter": "2551-12-26",
    "date_header": "2547-11-23",
    "date_modified": "2552-02-25",
    "date_original": "2552-02-25",
    "doctype": "ประกาศ",
    "editors": [
      {
        "name": "ปริยานุช",
        "role": "ผู้จัดทำ",
        "date": "2552-03-05"
      }
    ],
    "tag": "bb08-2e-2552-a0006"
  }
}