{
  "pages": [
    [
      [
        "คำสั่งกรมสรรพากร",
        "ที่ ป. ๗๓/๒๕๔๑",
        "เรื่อง การเสียภาษีเงินได้นิติบุคคล และภาษีมูลค่าเพิ่ม",
        "สำหรับการเรียกเก็บเงินจ่ายล่วงหน้า เงินประกัน เงินมัดจำ หรือเงินจอง"
      ]
    ],
    []
  ],
  "metadata": {
    "date_backmatter": "2541-06-30",
    "date_gz_old": "2541-07-30",
    "editors": [
      {
        "name": "ปรียนันท์",
        "role": "พิมพ์",
        "date": "2545-07-04"
      },
      {
        "name": "พรพิมล",
        "role": "แก้ไข",
        "date": "2545-07-04"
      }
    ],
    "tag": "bb08-2f-2541-a005"
  }
}