{
  "pages": [
    [
      [
        "ประกาศกระทรวงการคลัง",
        "ว่าด้วยภาษีการค้า (ฉบับที่ ๑๘)",
        "เรื่อง กำหนดหลักเกณฑ์และเงื่อนไข เพื่อการลดอัตราภาษีการค้าสำหรับสินค้า",
        "ตามประเภทการค้า ๑. ชนิด ๒ (ฌ) แห่งบัญชีอัตราภาษีการค้า",
        "เฉพาะที่นำเข้าในราชอาณาจักร"
      ]
    ],
    []
  ],
  "metadata": {
    "date_backmatter": "2524-02-09",
    "date_gz_old": "2524-02-09",
    "doctype": "ประกาศ",
    "editors": [
      {
        "name": "ธิดาวรรณ",
        "role": "แก้ไข",
        "date": "2545-10-08"
      }
    ],
    "tag": "bb08-2e-2524-a007"
  }
}