{
  "pages": [
    [
      [
        "พระราชบัญญัติ",
        "แก้ไขเพิ่มเติมประมวลรัษฎากร (ฉบับที่ ๓๒)",
        "พ.ศ. ๒๕๔๐",
        "",
        "",
        "ภูมิพลอดุลยเดช ป.ร.",
        "ให้ไว้ ณ วันที่ ๑๖ มีนาคม พ.ศ. ๒๕๔๐",
        "เป็นปีที่ ๕๒ ในรัชกาลปัจจุบัน",
        "",
        "พระบาทสมเด็จพระปรมินทรมหาภูมิพลอดุลยเดช มีพระบรมราชโองการ",
        "โปรดเกล้าฯ ให้ประกาศว่า",
        "",
        "โดยที่เป็นการสมควรแก้ไขเพิ่มเติมประมวลรัษฎากร",
        "",
        "จึงทรงพระกรุณาโปรดเกล้าฯ ให้ตราพระราชบัญญัติขึ้นไว้โดยคำแนะนำและ",
        "ยินยอมของรัฐสภา ดังต่อไปนี้",
        "",
        "มาตรา ๑ พระราชบัญญัตินี้เรียกว่า “พระราชบัญญัติแก้ไขเพิ่มเติมประมวล",
        "รัษฎากร (ฉบับที่ ๓๒) พ.ศ. ๒๕๔๐”",
        "",
        "มาตรา ๒* พระราชบัญญัตินี้ให้ใช้บังคับตั้งแต่วันถัดจากวันประกาศใน",
        "ราชกิจจานุเบกษาเป็นต้นไป",
        "*[รก. ๒๕๔๐/๙ก/๑/๑ เมษายน ๒๕๔๐]",
        "",
        "มาตรา ๓ ให้ยกเลิกความในวรรคหนึ่งของมาตรา ๔๗ ทวิ แห่งประมวล",
        "รัษฎากร ซึ่งแก้ไขเพิ่มเติมโดยพระราชกำหนดแก้ไขเพิ่มเติมประมวลรัษฎากร (ฉบับที่ ๑๖)",
        "พ.ศ. ๒๕๓๔ และให้ใช้ความต่อไปนี้แทน",
        "“มาตรา ๔๗ ทวิ ให้ผู้มีเงินได้ตามมาตรา ๔๐ (๔) (ข) ซึ่งได้รับจากบริษัทหรือ",
        "ห้างหุ้นส่วนนิติบุคคลที่ตั้งขึ้นตามกฎหมายไทย ได้รับเครดิตในการคำนวณภาษี โดยให้นำอัตรา",
        "ภาษีเงินได้ที่บริษัทหรือห้างหุ้นส่วนนิติบุคคลนั้นต้องเสียหารด้วยผลต่างของหนึ่งร้อยลบด้วยอัตรา",
        "ภาษีเงินได้ดังกล่าวนั้นได้ผลลัพธ์เท่าใดให้คูณด้วยจำนวนเงินปันผลหรือเงินส่วนแบ่งของกำไรที่",
        "ได้รับ ผลลัพธ์ที่ได้เป็นเครดิตในการคำนวณภาษี ในกรณีที่บริษัทหรือห้างหุ้นส่วนนิติบุคคลผู้จ่าย",
        "เงินได้ประกอบกิจการที่ต้องเสียภาษีเงินได้หลายอัตรา ผู้จ่ายเงินได้ต้องระบุในหนังสือรับรองการ",
        "หักภาษี ณ ที่จ่ายให้ชัดเจนว่าเงินได้ที่จ่ายนั้นจำนวนใดได้มาจากกิจการที่ต้องเสียภาษีเงินได้ใน",
        "อัตราใด”",
        "มาตรา ๔ ให้เพิ่มความต่อไปนี้เป็นวรรคสี่ของมาตรา ๔๗ ทวิ แห่งประมวล",
        "รัษฎากร ซึ่งแก้ไขเพิ่มเติมโดยพระราชกำหนดแก้ไขเพิ่มเติมประมวลรัษฎากร (ฉบับที่ ๑๖)",
        "พ.ศ. ๒๕๓๔",
        "“ในกรณีที่บริษัทหรือห้างหุ้นส่วนนิติบุคคลผู้จ่ายเงินได้แสดงข้อความที่กำหนด",
        "ให้ต้องระบุในหนังสือรับรองการหักภาษี ณ ที่จ่ายตามวรรคหนึ่งไม่ถูกต้องอันเป็นเหตุให้เครดิตภาษี",
        "ที่คำนวณได้มีจำนวนเกินกว่าที่ผู้มีเงินได้พึงได้รับ ให้ผู้จ่ายเงินได้รับผิดร่วมกับผู้มีเงินได้เท่ากับ",
        "จำนวนเงินที่ได้รับคืนเกินไปหรือที่ชำระไว้ไม่ครบ และถ้าผู้จ่ายเงินได้หรือผู้มีเงินได้ไม่ชำระเงิน",
        "ดังกล่าวภายในเจ็ดวันนับแต่ได้รับหนังสือแจ้งจากเจ้าพนักงานประเมิน ให้ถือว่าเงินจำนวนที่เรียก",
        "ให้ชำระเป็นภาษีอากรค้าง ในกรณีที่เจ้าพนักงานประเมินตรวจสอบพบว่า เครดิตภาษีที่คำนวณได้",
        "มีจำนวนน้อยกว่าที่ผู้มีเงินได้พึงได้รับให้แจ้งผู้มีเงินได้ทราบถึงสิทธิที่จะได้รับเงินที่เหลือนั้นคืนตาม",
        "กฎหมาย”",
        "",
        "ผู้รับสนองพระบรมราชโองการ",
        "พลเอก ชวลิต ยงใจยุทธ",
        "นายกรัฐมนตรี",
        "",
        "",
        "",
        "",
        "",
        "",
        "",
        "",
        "",
        "",
        "",
        "",
        "",
        "",
        "",
        "",
        "",
        "",
        "",
        "",
        "",
        "หมายเหตุ:- เหตุผลในการประกาศใช้พระราชบัญญัติฉบับนี้ คือ เนื่องจากในปัจจุบันนี้ประมวล",
        "รัษฎากรได้บัญญัติให้ผู้มีเงินได้จากเงินปันผลหรือเงินส่วนแบ่งของกำไรซึ่งได้รับจากบริษัทหรือ",
        "ห้างหุ้นส่วนนิติบุคคลที่ตั้งขึ้นตามกฎหมายไทยได้รับเครดิตในการคำนวณภาษีสามในเจ็ดส่วน",
        "ของเงินปันผลหรือเงินส่วนแบ่งของกำไรที่ได้รับทุกกรณี ในขณะที่การประกอบกิจการของบริษัท",
        "หรือห้างหุ้นส่วนนิติบุคคลที่ตั้งขึ้นตามกฎหมายไทยต้องเสียภาษีเงินได้จากกำไรสุทธิในกิจการ",
        "ต่าง ๆ ในอัตราที่แตกต่างกัน สมควรแก้ไขให้ผู้มีเงินได้จากเงินปันผลหรือเงินส่วนแบ่งของกำไรที่",
        "ได้รับจากบริษัทหรือห้างหุ้นส่วนนิติบุคคลดังกล่าวได้รับเครดิตในการคำนวณภาษีให้สอดคล้องกับ",
        "การเสียภาษีของบริษัทหรือห้างหุ้นส่วนนิติบุคคลซึ่งมีอยู่หลายอัตราเพื่อความเป็นธรรมในการ",
        "จัดเก็บภาษี และสมควรกำหนดความรับผิดของบริษัทหรือห้างหุ้นส่วนนิติบุคคลผู้จ่ายเงินได้",
        "ซึ่งแสดงข้อความในหนังสือรับรองการหักภาษี ณ ที่จ่ายไม่ถูกต้อง เพื่อให้การเครดิตภาษีเป็นไป",
        "โดยรอบคอบและถูกต้อง จึงจำเป็นต้องตราพระราชบัญญัตินี้",
        "",
        "",
        "สุรินทร์ / แก้ไข",
        "๒๐/๐๒/๒๕๔๕",
        "A+B (C)"
      ]
    ],
    []
  ],
  "metadata": {
    "date_header": "2540-03-16",
    "doctype": "พระราชบัญญัติ",
    "editors": [],
    "tag": "bb08-20-2540-032",
    "title": "แก้ไขเพิ่มเติมประมวลรัษฎากร (ฉบับที่ ๓๒)"
  }
}