{
  "pages": [
    [
      [
        "พระราชกฤษฎีกา",
        "ออกตามความในประมวลรัษฎากร ว่าด้วยการยกเว้นรัษฎากร (ฉบับที่ ๔๒๗)",
        "พ.ศ. ๒๕๔๘",
        "",
        "",
        "ภูมิพลอดุลยเดช ป.ร.",
        "ให้ไว้ ณ วันที่ ๘ มกราคม พ.ศ. ๒๕๔๘",
        "เป็นปีที่ ๖๐ ในรัชกาลปัจจุบัน"
      ]
    ],
    []
  ],
  "metadata": {
    "date_header": "2548-01-08",
    "date_modified": "2548-01-24",
    "date_original": "2548-01-24",
    "doctype": "พระราชกฤษฎีกา",
    "editors": [
      {
        "name": "ฐิติพงษ์",
        "role": "ผู้จัดทำ",
        "date": "2549-05-10"
      }
    ],
    "tag": "bb08-2a-2548-a0001",
    "title": "ออกตามความในประมวลรัษฎากร ว่าด้วยการยกเว้นรัษฎากร (ฉบับที่ ๔๒๗)"
  }
}