{
  "pages": [
    [
      [
        "ประกาศอธิบดีกรมสรรพากร",
        "เกี่ยวกับอากรแสตมป์ (ฉบับที่ ๓๐)",
        "เรื่อง แก้ไขเพิ่มเติมประกาศอธิบดีกรมสรรพากร",
        "เกี่ยวกับอากรแสตมป์ (ฉบับที่ ๒๙) ฯ"
      ]
    ],
    []
  ],
  "metadata": {
    "date_backmatter": "2531-09-19",
    "date_gz_old": "2531-09-22",
    "doctype": "ประกาศ",
    "editors": [
      {
        "name": "ธิดาวรรณ",
        "role": "แก้ไข",
        "date": "2545-09-23"
      }
    ],
    "tag": "bb08-2e-2531-a004"
  }
}