{
  "pages": [
    [
      [
        "ประกาศอธิบดีกรมสรรพากร",
        "เรื่อง กำหนดสถาบันการเงิน ตามกฎกระทรวง",
        "ฉบับที่ ๑๘๖ (พ.ศ. ๒๕๓๔) ออกตามความในประมวลรัษฎากร",
        "ว่าด้วยการจำหน่ายหนี้สูญจากบัญชีลูกหนี้"
      ]
    ],
    []
  ],
  "metadata": {
    "date_backmatter": "2545-05-01",
    "date_gz_old": "2545-06-25",
    "doctype": "ประกาศ",
    "editors": [
      {
        "name": "พรพิมล/พิมพ์",
        "role": "แก้ไข",
        "date": "2545-09-24"
      }
    ],
    "tag": "bb08-2e-2545-a018"
  }
}