{
  "pages": [
    [
      [
        "กฎกระทรวง",
        "ฉบับที่ ๑๖๕ (พ.ศ. ๒๕๒๗)",
        "ออกตามความในประมวลรัษฎากร",
        "ว่าด้วยภาษีการค้า"
      ]
    ],
    []
  ],
  "metadata": {
    "date_backmatter": "2527-12-14",
    "date_gz_old": "2527-12-20",
    "doctype": "กฎกระทรวง",
    "editors": [],
    "tag": "bb08-2b-2527-165"
  }
}