{
  "pages": [
    [
      [
        "ประกาศอธิบดีกรมสรรพากร",
        "เกี่ยวกับภาษีเงินได้ (ฉบับที่ ๑๕๖)",
        "เรื่อง กำหนดหลักเกณฑ์ วิธีการ และเงื่อนไขการยกเว้นภาษีเงินได้นิติบุคคล",
        "ให้แก่ บริษัทที่มีหลักทรัพย์จดทะเบียนในตลาดหลักทรัพย์แห่งประเทศไทย",
        "ตามกฎหมายว่าด้วยหลักทรัพย์และตลาดหลักทรัพย์ สำหรับเงินได้",
        "ที่ได้จ่ายเพื่อการลงทุน หรือการต่อเติม เปลี่ยนแปลง ขยายออก",
        "หรือทำให้ดีขึ้นซึ่งทรัพย์สิน แต่ไม่ใช่เป็นการซ่อมแซมให้คงสภาพเดิม",
        "ตามมาตรา ๖๕ ตรี (๕) แห่งประมวลรัษฎากร"
      ]
    ],
    []
  ],
  "metadata": {
    "date_backmatter": "2549-09-15",
    "date_modified": "2549-11-16",
    "date_original": "2549-11-16",
    "doctype": "ประกาศ",
    "editors": [
      {
        "name": "โสรศ",
        "role": "ผู้จัดทำ",
        "date": "2549-11-23"
      }
    ],
    "tag": "bb08-2e-2549-a0040"
  }
}