{
  "pages": [
    [
      [
        "คำสั่งกรมสรรพากร",
        "ที่ ป. ๑๔๓/๒๕๕๕",
        "เรื่อง ภาษีเงินได้นิติบุคคล การพิจารณาเหตุอันสมควร ตามมาตรา ๖๕ ทวิ (๔)",
        "และกรณีคำนวณรายได้รายจ่าย ตามมาตรา ๖๕ วรรคสาม",
        "แห่งประมวลรัษฎากร"
      ]
    ],
    []
  ],
  "metadata": {
    "date_backmatter": "2555-11-14",
    "date_modified": "2556-01-11",
    "date_original": "2556-01-11",
    "editors": [
      {
        "name": "ปริยานุช",
        "role": "ผู้จัดทำ",
        "date": "2556-01-14"
      },
      {
        "name": "อุษมล",
        "role": "ผู้ตรวจ",
        "date": "2556-01-14"
      }
    ],
    "tag": "bb08-2f-2556-a0004"
  }
}