{
  "pages": [
    [
      [
        "ประกาศอธิบดีกรมสรรพากร",
        "เกี่ยวกับภาษีเงินได้ (ฉบับที่ ๑๙๕)",
        "เรื่อง กำหนดแบบเกี่ยวกับภาษีเงินได้บุคคลธรรมดา"
      ]
    ],
    []
  ],
  "metadata": {
    "date_backmatter": "2554-03-18",
    "date_modified": "2554-05-03",
    "date_original": "2554-05-03",
    "doctype": "ประกาศ",
    "editors": [
      {
        "name": "ปริยานุช",
        "role": "ผู้จัดทำ",
        "date": "2554-05-24"
      },
      {
        "name": "ณัฐวดี",
        "role": "ตรวจ",
        "date": "2554-05-24"
      }
    ],
    "tag": "bb08-2e-2554-a0021"
  }
}