{
  "pages": [
    [
      [
        "คำสั่งกรมสรรพากร",
        "ที่ ท.ป. ๒๓๒/๒๕๕๗",
        "เรื่อง กำหนดสถานที่รับแบบแสดงรายการ และรับชำระเงินภาษีอากรตามประมวลรัษฎากร"
      ]
    ],
    []
  ],
  "metadata": {
    "date_backmatter": "2557-12-25",
    "date_modified": "2558-02-12",
    "date_original": "2558-02-12",
    "editors": [
      {
        "name": "ปริยานุช",
        "role": "ผู้จัดทำ",
        "date": "2558-02-16"
      },
      {
        "name": "นุสรา",
        "role": "ผู้ตรวจ",
        "date": "2558-02-16"
      }
    ],
    "tag": "bb08-2f-2558-a0004"
  }
}