{
  "pages": [
    [
      [
        "กฎกระทรวง",
        "ฉบับที่ ๑๙๖ (พ.ศ. ๒๕๓๘)",
        "ออกตามความในประมวลรัษฎากร",
        "ว่าด้วยการยกเว้นรัษฎากร"
      ]
    ],
    []
  ],
  "metadata": {
    "date_backmatter": "2538-06-30",
    "date_gz_old": "2538-07-10",
    "doctype": "กฎกระทรวง",
    "editors": [],
    "tag": "bb08-2b-2538-196"
  }
}