{
  "pages": [
    [
      [
        "ประกาศกระทรวงการคลัง",
        "ว่าด้วยภาษีเงินได้และภาษีมูลค่าเพิ่ม(ฉบับที่ 60)",
        "เรื่อง กำหนดองค์การ สถานสาธารณกุศล สถานพยาบาล และสถานศึกษา",
        "ตามมาตรา 47 (7) (ข) แห่งประมวลรัษฎากร และมาตรา 3(4)(ข)",
        "แห่งพระราชกฤษฎีกา ออกตามความในประมวลรัษฎากร ว่าด้วยการ",
        "ยกเว้นภาษีมูลค่าเพิ่ม (ฉบับที่ 239) พ.ศ. 2534 ซึ่งแก้ไขเพิ่มเติมโดย",
        "พระราชกฤษฎีกาออกตามความในประมวลรัษฎากร ว่าด้วยการยกเว้น",
        "ภาษีมูลค่าเพิ่ม (ฉบับที่ 254) พ.ศ. 2535"
      ]
    ],
    []
  ],
  "metadata": {
    "date_backmatter": "2539-12-16",
    "doctype": "ประกาศ",
    "editors": [],
    "tag": "bb08-2e-2540-002"
  }
}