{
  "pages": [
    [
      [
        "ประกาศอธิบดีกรมสรรพากร",
        "เกี่ยวกับภาษีเงินได้ (ฉบับที่ ๓๑๗)",
        "เรื่อง กำหนดหลักเกณฑ์ วิธีการ และเงื่อนไข การยกเว้นภาษีเงินได้",
        "ที่เกี่ยวข้องกับอุปกรณ์รับชำระเงินทางอิเล็กทรอนิกส์"
      ]
    ],
    []
  ],
  "metadata": {
    "date_backmatter": "2561-03-14",
    "date_modified": "2561-04-26",
    "date_original": "2561-04-26",
    "doctype": "ประกาศ",
    "editors": [
      {
        "name": "ปวันวิทย์",
        "role": "จัดทำ",
        "date": "2561-06-01"
      }
    ],
    "tag": "bb08-2e-2561-a0041"
  }
}