{
  "pages": [
    [
      [
        "ประกาศอธิบดีกรมสรรพากร",
        "เกี่ยวกับภาษีมูลค่าเพิ่ม (ฉบับที่ ๑๒๕)",
        "เรื่อง กำหนดหลักเกณฑ์ วิธีการ และเงื่อนไขการนำสินค้าในราชอาณาจักร",
        "เข้าไปในเขตปลอดอากรและการขายสินค้าของคลังสินค้าทัณฑ์บน",
        "ประเภทร้านค้าปลอดอากร ตามกฎหมายว่าด้วยศุลกากร",
        "ตามมาตรา ๗๗/๑ (๑๔) (ก) และ (ข) แห่งประมวลรัษฎากร"
      ]
    ],
    []
  ],
  "metadata": {
    "date_backmatter": "2545-01-15",
    "date_gz_old": "2545-02-14",
    "doctype": "ประกาศ",
    "editors": [
      {
        "name": "พรพิมล",
        "role": "แก้ไข",
        "date": "2545-06-13"
      }
    ],
    "tag": "bb08-2e-2545-a005"
  }
}