{
  "pages": [
    [
      [
        "ประกาศอธิบดีกรมสรรพากร",
        "เกี่ยวกับภาษีมูลค่าเพิ่ม (ฉบับที่ ๒๑๓)",
        "เรื่อง กำหนดลักษณะ และเงื่อนไขค่าตอบแทนที่ไม่ต้องนำมารวมคำนวณ",
        "มูลค่าของฐานภาษี ตามมาตรา ๗๙ (๔) แห่งประมวลรัษฎากร"
      ]
    ],
    []
  ],
  "metadata": {
    "date_backmatter": "2560-02-16",
    "date_modified": "2560-03-23",
    "date_original": "2560-03-23",
    "doctype": "ประกาศ",
    "editors": [
      {
        "name": "วริญา/ภวรรณตรี",
        "role": "จัดทำ",
        "date": "2560-03-27"
      }
    ],
    "tag": "bb08-2e-2560-a0011"
  }
}