{
  "pages": [
    [
      [
        "ประกาศอธิบดีกรมสรรพากร",
        "เกี่ยวกับภาษีมูลค่าเพิ่ม (ฉบับที่ ๒๑๔)",
        "เรื่อง กำหนดหลักเกณฑ์ วิธีการ และเงื่อนไขเกี่ยวกับการยื่นคำขอจดทะเบียนภาษีมูลค่าเพิ่ม",
        "ผ่านระบบเครือข่ายอินเทอร์เน็ต และการออกใบทะเบียนภาษีมูลค่าเพิ่ม"
      ]
    ],
    []
  ],
  "metadata": {
    "date_backmatter": "2560-04-27",
    "date_modified": "2560-05-25",
    "date_original": "2560-05-25",
    "doctype": "ประกาศ",
    "editors": [
      {
        "name": "ภวรรณตรี",
        "role": "จัดทำ",
        "date": "2560-05-31"
      },
      {
        "name": "ชวัลพร",
        "role": "ตรวจ",
        "date": "2560-05-31"
      }
    ],
    "tag": "bb08-2e-2560-a0030"
  }
}