{
  "pages": [
    [
      [
        "คำสั่งกรมสรรพากร",
        "ที่ ท.ป. ๒๐๕/๒๕๕๖",
        "เรื่อง สั่งให้ผู้จ่ายเงินได้พึงประเมินตามมาตรา ๔๐ แห่งประมวลรัษฎากร",
        "มีหน้าที่หักภาษีเงินได้ ณ ที่จ่าย"
      ]
    ],
    []
  ],
  "metadata": {
    "date_backmatter": "2556-01-29",
    "date_modified": "2556-03-11",
    "date_original": "2556-03-11",
    "editors": [
      {
        "name": "ปริยานุช",
        "role": "ผู้จัดทำ",
        "date": "2556-03-14"
      },
      {
        "name": "อุษมล",
        "role": "ผู้ตรวจ",
        "date": "2556-03-19"
      }
    ],
    "tag": "bb08-2f-2556-a0008"
  }
}