{
  "pages": [
    [
      [
        "ประกาศอธิบดีกรมสรรพากร",
        "เกี่ยวกับภาษีมูลค่าเพิ่ม (ฉบับที่ ๑)",
        "เรื่อง กำหนดหลักเกณฑ์ วิธีการ และเงื่อนไขการนำสินค้าไปใช้เพื่อ",
        "การประกอบกิจการของตนเองโดยตรง ตามมาตรา ๗๗/๑ (๘) (ง)",
        "แห่งประมวลรัษฎากร"
      ]
    ],
    []
  ],
  "metadata": {
    "date_backmatter": "2534-12-25",
    "date_gz_old": "2535-05-25",
    "doctype": "ประกาศ",
    "editors": [
      {
        "name": "จารุวรรณ",
        "role": "พิมพ์",
        "date": "2545-09-09"
      }
    ],
    "tag": "bb08-2e-2535-a024"
  }
}