{
  "pages": [
    [
      [
        "ประกาศอธิบดีกรมสรรพากร",
        "เกี่ยวกับภาษีมูลค่าเพิ่ม (ฉบับที่ ๑๖๘)",
        "เรื่อง การกำหนดภาษีซื้อที่ไม่ให้นำไปหักในการคำนวณภาษีมูลค่าเพิ่ม",
        "ตามมาตรา ๘๒/๕ (๖) แห่งประมวลรัษฎากร"
      ]
    ],
    []
  ],
  "metadata": {
    "date_backmatter": "2549-10-27",
    "date_modified": "2549-12-14",
    "date_original": "2549-12-14",
    "doctype": "ประกาศ",
    "editors": [
      {
        "name": "โสรศ",
        "role": "ผู้จัดทำ",
        "date": "2549-12-26"
      }
    ],
    "tag": "bb08-2e-2549-a0051"
  }
}