{
  "pages": [
    [
      [
        "ประกาศอธิบดีกรมสรรพากร",
        "เรื่อง รายชื่อผู้รับทำการวิจัยและพัฒนาเทคโนโลยีและนวัตกรรม (ฉบับที่ ๔๔)"
      ]
    ],
    []
  ],
  "metadata": {
    "date_backmatter": "2560-06-13",
    "date_modified": "2560-11-09",
    "date_original": "2560-11-09",
    "doctype": "ประกาศ",
    "editors": [
      {
        "name": "พัชรภรณ์/ภวรรณตรี",
        "role": "จัดทำ",
        "date": "2560-11-23"
      }
    ],
    "tag": "bb08-2e-2560-a0108"
  }
}