{
  "pages": [
    [
      [
        "ประกาศกรมสรรพากร",
        "เรื่อง หลักฐานการหักลดหย่อนสำหรับดอกเบี้ยเงินกู้ยืม"
      ]
    ],
    []
  ],
  "metadata": {
    "date_backmatter": "2551-03-10",
    "date_modified": "2551-04-01",
    "date_original": "2551-04-01",
    "doctype": "ประกาศ",
    "editors": [
      {
        "name": "ปริยานุช",
        "role": "ผู้จัดทำ",
        "date": "2551-04-03"
      }
    ],
    "tag": "bb08-2e-2551-a0005"
  }
}