{
  "pages": [
    [
      [
        "กฎกระทรวง",
        "ฉบับที่ ๒๗๙ (พ.ศ. ๒๕๕๔)",
        "ออกตามความในประมวลรัษฎากร",
        "ว่าด้วยการยกเว้นรัษฎากร"
      ]
    ],
    []
  ],
  "metadata": {
    "date_backmatter": "2554-02-16",
    "date_modified": "2554-02-23",
    "date_original": "2554-02-23",
    "doctype": "กฎกระทรวง",
    "editors": [
      {
        "name": "ปริยานุช",
        "role": "ผู้จัดทำ",
        "date": "2554-02-24"
      },
      {
        "name": "ณัฐวดี",
        "role": "ตรวจ",
        "date": "2554-02-24"
      }
    ],
    "tag": "bb08-2b-2554-a0001"
  }
}