{
  "pages": [
    [
      [
        "คำสั่งกรมสรรพากร",
        "ที่ ท.ป. ๑๙๔/๒๕๕๕",
        "เรื่อง กำหนดหลักเกณฑ์การปฏิบัติงาน และการรายงานการตรวจสอบและรับรองบัญชี",
        "ของผู้สอบบัญชีภาษีอากร ตามมาตรา ๓ สัตต แห่งประมวลรัษฎากร"
      ]
    ],
    []
  ],
  "metadata": {
    "date_backmatter": "2555-02-07",
    "date_modified": "2555-03-23",
    "date_original": "2555-03-23",
    "editors": [
      {
        "name": "ปริยานุช",
        "role": "ผู้จัดทำ",
        "date": "2555-03-27"
      },
      {
        "name": "ณัฐพร",
        "role": "ผู้ตรวจ",
        "date": "2555-03-27"
      }
    ],
    "tag": "bb08-2f-2555-a0005"
  }
}