{
  "pages": [
    [
      [
        "ประกาศสำนักนายกรัฐมนตรี",
        "เรื่อง การอนุมัติพระราชกำหนดแก้ไขเพิ่มเติมประมวลรัษฎากร",
        "(ฉบับที่ ๘) พ.ศ. ๒๕๒๔"
      ]
    ],
    []
  ],
  "metadata": {
    "date_backmatter": "2524-05-26",
    "date_gz_old": "2524-05-27",
    "doctype": "ประกาศ",
    "editors": [],
    "tag": "bb08-2e-2524-a002"
  }
}