{
  "pages": [
    [
      [
        "ประกาศอธิบดีกรมสรรพากร",
        "เรื่อง กำหนดสถาบันการเงิน ตามมาตรา ๓ (๗)",
        "แห่งพระราชกฤษฎีกาออกตามความในประมวลรัษฎากร",
        "ว่าด้วยการยกเว้นรัษฎากร (ฉบับที่ ๔๑๐)",
        "พ.ศ. ๒๕๔๕"
      ]
    ],
    []
  ],
  "metadata": {
    "date_backmatter": "2546-12-17",
    "date_modified": "2547-01-20",
    "date_original": "2547-01-20",
    "doctype": "ประกาศ",
    "editors": [
      {
        "name": "มยุรี",
        "role": "พิมพ์",
        "date": "2547-04-30"
      },
      {
        "name": "สุนันทา/จีระ",
        "role": "ตรวจ",
        "date": "2547-05-14"
      }
    ],
    "tag": "bb08-2e-2547-a0001"
  }
}