{
  "pages": [
    [
      [
        "ประกาศอธิบดีกรมสรรพากร",
        "เกี่ยวกับภาษีเงินได้ (ฉบับที่ ๗๙)",
        "เรื่อง กำหนดหลักเกณฑ์ วิธีการ และเงื่อนไข",
        "เพื่อการยกเว้นภาษีเงินได้นิติบุคคลให้แก่บริษัทบริหารสินทรัพย์"
      ]
    ],
    []
  ],
  "metadata": {
    "date_backmatter": "2543-01-14",
    "date_gz_old": "2543-03-02",
    "doctype": "ประกาศ",
    "editors": [
      {
        "name": "ปรียนันท์",
        "role": "แก้ไข"
      },
      {
        "name": "๒๕/๔",
        "role": "๔๕"
      }
    ],
    "tag": "bb08-2e-2543-a037"
  }
}