{
  "pages": [
    [
      [
        "กฎกระทรวง",
        "ฉบับที่ ๒๘๖ (พ.ศ. ๒๕๕๔)",
        "ออกตามความในประมวลรัษฎากร",
        "ว่าด้วยการยกเว้นรัษฎากร"
      ]
    ],
    []
  ],
  "metadata": {
    "date_backmatter": "2554-10-21",
    "date_modified": "2554-12-13",
    "date_original": "2554-12-13",
    "doctype": "กฎกระทรวง",
    "editors": [
      {
        "name": "ปริยานุช",
        "role": "ผู้จัดทำ",
        "date": "2554-12-14"
      },
      {
        "name": "ชาญ",
        "role": "ผู้ตรวจ",
        "date": "2554-12-14"
      }
    ],
    "tag": "bb08-2b-2554-a0008"
  }
}