{
  "pages": [
    [
      [
        "กฎกระทรวง",
        "ฉบับที่ ๑๕๓ (พ.ศ. ๒๕๒๔)",
        "ออกตามความในประมวลรัษฎากร",
        "ว่าด้วยภาษีเงินได้"
      ]
    ],
    []
  ],
  "metadata": {
    "date_backmatter": "2524-03-31",
    "date_gz_old": "2524-03-31",
    "doctype": "กฎกระทรวง",
    "editors": [],
    "tag": "bb08-2b-2524-153"
  }
}