{
  "pages": [
    [
      [
        "ประกาศอธิบดีกรมสรรพากร",
        "เรื่อง กำหนดสถาบันการเงินตามกฎกระทรวง ฉบับที่ ๑๘๖",
        "(พ.ศ. ๒๕๓๔) ออกตามความในประมวลรัษฎากร",
        "ว่าด้วยการจำหน่ายหนี้สูญจากบัญชีลูกหนี้"
      ]
    ],
    []
  ],
  "metadata": {
    "date_backmatter": "2544-02-13",
    "date_gz_old": "2544-04-05",
    "doctype": "ประกาศ",
    "editors": [
      {
        "name": "พรพิมล",
        "role": "พิมพ์",
        "date": "2544-07-16"
      }
    ],
    "tag": "bb08-2e-2544-a011"
  }
}