{
  "pages": [
    [
      [
        "คำสั่งกรมสรรพากร",
        "ที่ ท.ป. ๙๙/๒๕๔๔",
        "เรื่อง กำหนดมรรยาท การปฏิบัติงาน การรายงาน และบทลงโทษสำหรับ",
        "ผู้ตรวจสอบและรับรองบัญชี ตามมาตรา ๓ สัตต แห่งประมวลรัษฎากร"
      ]
    ],
    []
  ],
  "metadata": {
    "date_backmatter": "2544-03-12",
    "date_gz_old": "2544-05-03",
    "editors": [
      {
        "name": null,
        "role": null,
        "date": "2544-09-24"
      }
    ],
    "tag": "bb08-2f-2544-a008"
  }
}