{
  "pages": [
    [
      [
        "คำสั่งกรมสรรพากร",
        "ที่ ป. ๑๑๒/๒๕๔๕",
        "เรื่อง การหักภาษีเงินได้ ณ ที่จ่าย กรณีการจ่ายเงินได้พึงประเมิน",
        "ตามมาตรา ๔๐ (๘) แห่งประมวลรัษฎากร เฉพาะที่เป็นการจ่ายเงินได้",
        "จากการให้บริการของธนาคาร ตามกฎหมายว่าด้วยการธนาคารพาณิชย์",
        "และบริษัท ตามกฎหมายว่าด้วยการประกอบธุรกิจเงินทุน",
        "ธุรกิจหลักทรัพย์ และธุรกิจเครดิตฟองซิเอร์"
      ]
    ],
    []
  ],
  "metadata": {
    "date_backmatter": "2545-05-01",
    "date_gz_old": "2545-06-11",
    "editors": [
      {
        "name": "พรพิมล/พิมพ์",
        "role": "แก้ไข",
        "date": "2545-08-28"
      }
    ],
    "tag": "bb08-2f-2545-a003"
  }
}