{
  "pages": [
    [
      [
        "ประกาศอธิบดีกรมสรรพากร",
        "เกี่ยวกับภาษีมูลค่าเพิ่ม (ฉบับที่ ๖๑)",
        "เรื่อง กำหนดรายการในใบกำกับภาษีของสินค้าหรือบริการบางกรณี",
        "ตามมาตรา ๘๖/๕ (๑) และ (๒) แห่งประมวลรัษฎากร"
      ]
    ],
    []
  ],
  "metadata": {
    "date_backmatter": "2538-03-27",
    "date_gz_old": "2538-08-01",
    "doctype": "ประกาศ",
    "editors": [
      {
        "name": "จารุวรรณ",
        "role": "พิมพ์",
        "date": "2545-08-19"
      }
    ],
    "tag": "bb08-2e-2538-a008"
  }
}