{
  "pages": [
    [
      [
        "ประกาศกรมสรรพากร",
        "เกี่ยวกับภาษีเงินได้ (ฉบับที่ ๔๔)",
        "เรื่อง กำหนดกองทุนสวัสดิการภายในส่วนราชการที่จัดตั้งขึ้น",
        "ตามระเบียบสำนักนายกรัฐมนตรี ว่าด้วยการจัดสวัสดิการภายในส่วนราชการ",
        "ตามพระราชกฤษฎีกาออกตามความในประมวลรัษฎากร",
        "ว่าด้วยการยกเว้นรัษฎากร (ฉบับที่ ๔๒๔) พ.ศ. ๒๕๔๗",
        "และประกาศอธิบดีกรมสรรพากรเกี่ยวกับภาษีเงินได้ (ฉบับที่ ๑๓๔)",
        "เรื่อง กำหนดหลักเกณฑ์ วิธีการ และเงื่อนไขการยกเว้นภาษีเงินได้",
        "สำหรับการบริจาคให้แก่กองทุนสวัสดิการภายในส่วนราชการ",
        "ลงวันที่ ๒๓ พฤศจิกายน พ.ศ. ๒๕๔๗"
      ]
    ],
    []
  ],
  "metadata": {
    "date_backmatter": "2557-12-26",
    "date_header": "2547-11-23",
    "date_modified": "2558-01-26",
    "date_original": "2558-01-26",
    "doctype": "ประกาศ",
    "editors": [
      {
        "name": "ปริยานุช",
        "role": "ผู้จัดทำ",
        "date": "2558-01-29"
      },
      {
        "name": "วิศนี",
        "role": "ผู้ตรวจ",
        "date": "2558-02-02"
      }
    ],
    "tag": "bb08-2e-2558-a0008"
  }
}