{
  "pages": [
    [
      [
        "ประกาศกรมสรรพากร",
        "เรื่อง การกำหนดแบบคำอุทธรณ์ (ภ.ส.๖)"
      ]
    ],
    []
  ],
  "metadata": {
    "date_backmatter": "2548-03-15",
    "date_modified": "2548-05-19",
    "date_original": "2548-05-19",
    "doctype": "ประกาศ",
    "editors": [
      {
        "name": "พุทธพัท",
        "role": "ผู้จัดทำ",
        "date": "2548-06-14"
      }
    ],
    "tag": "bb08-2e-2548-a0023"
  }
}