{
  "pages": [
    [
      [
        "ประกาศกระทรวงการคลัง",
        "ว่าด้วยภาษีเงินได้และภาษีมูลค่าเพิ่ม (ฉบับที่ ๕๑๒)",
        "เรื่อง กำหนดองค์การ สถานสาธารณกุศล สถานพยาบาล และสถานศึกษา",
        "ตามมาตรา ๔๗ (๗) (ข) แห่งประมวลรัษฎากร และมาตรา ๓ (๔) (ข) แห่งพระราชกฤษฎีกา",
        "ออกตามความในประมวลรัษฎากร ว่าด้วยการยกเว้นภาษีมูลค่าเพิ่ม (ฉบับที่ ๒๓๙) พ.ศ. ๒๕๓๔",
        "ซึ่งแก้ไขเพิ่มเติมโดยพระราชกฤษฎีกา ออกตามความในประมวลรัษฎากร",
        "ว่าด้วยการยกเว้นภาษีมูลค่าเพิ่ม (ฉบับที่ ๒๕๔) พ.ศ. ๒๕๓๕"
      ]
    ],
    []
  ],
  "metadata": {
    "date_backmatter": "2555-06-08",
    "date_modified": "2555-07-02",
    "date_original": "2555-07-02",
    "doctype": "ประกาศ",
    "editors": [
      {
        "name": "ปริยานุช",
        "role": "ผู้จัดทำ",
        "date": "2555-07-04"
      },
      {
        "name": "ณัฐพร",
        "role": "ผู้ตรวจ",
        "date": "2555-07-04"
      }
    ],
    "tag": "bb08-2e-2555-a0080"
  }
}