{
  "pages": [
    [
      [
        "ประกาศอธิบดีกรมสรรพากร",
        "เกี่ยวกับภาษีเงินได้ (ฉบับที่ ๒๓๙)",
        "เรื่อง กำหนดหลักเกณฑ์ วิธีการ และเงื่อนไขการยกเว้นภาษีเงินได้",
        "สำหรับเงินได้พึงประเมินจากการขายพลอย ทับทิม มรกต บุษราคัม โกเมน โอปอล",
        "นิล เพทาย ไพฑูรย์ หยก และอัญมณีที่มีลักษณะทำนองเดียวกัน เฉพาะที่ยังมิได้เจียระไน",
        "แต่ไม่รวมถึงสิ่งทำเทียมวัตถุดังกล่าวหรือที่ทำขึ้นใหม่ เพชร ไข่มุก และสิ่งทำเทียมเพชร หรือไข่มุก",
        "หรือที่ทำขึ้นใหม่"
      ]
    ],
    []
  ],
  "metadata": {
    "date_backmatter": "2556-02-20",
    "date_modified": "2556-05-02",
    "date_original": "2556-05-02",
    "doctype": "ประกาศ",
    "editors": [
      {
        "name": "ปริยานุช",
        "role": "ผู้จัดทำ",
        "date": "2556-05-07"
      },
      {
        "name": "โชติกานต์",
        "role": "ผู้ตรวจ",
        "date": "2556-05-14"
      }
    ],
    "tag": "bb08-2e-2556-a0048"
  }
}