{
  "pages": [
    [
      [
        "คำสั่งกรมสรรพากร",
        "ที่ ป. ๑๐๓/๒๕๔๔",
        "เรื่อง ภาษีเงินได้ รายจ่ายเพื่อการวิจัยอุตสาหกรรมขั้นพื้นฐาน",
        "หรือการวิจัยเชิงประยุกต์"
      ]
    ],
    []
  ],
  "metadata": {
    "date_backmatter": "2544-02-05",
    "date_gz_old": "2544-03-22",
    "editors": [
      {
        "name": "สุรินทร์",
        "role": "แก้ไข",
        "date": "2544-09-27"
      }
    ],
    "tag": "bb08-2f-2544-a006"
  }
}