{
  "pages": [
    [
      [
        "ประกาศกระทรวงการคลัง",
        "เกี่ยวกับภาษีเงินได้ (ฉบับที่ ๓๑๗)",
        "เรื่อง รายชื่อผู้รับทำการวิจัยและพัฒนาเทคโนโลยี"
      ]
    ],
    []
  ],
  "metadata": {
    "date_backmatter": "2556-12-25",
    "date_modified": "2557-03-07",
    "date_original": "2557-03-07",
    "doctype": "ประกาศ",
    "editors": [
      {
        "name": "ปริยานุช",
        "role": "ผู้จัดทำ",
        "date": "2557-03-11"
      },
      {
        "name": "โชติกานต์",
        "role": "ผู้ตรวจ",
        "date": "2557-03-26"
      }
    ],
    "tag": "bb08-2e-2557-a0015"
  }
}