{
  "pages": [
    [
      [
        "คำสั่งกรมสรรพากร",
        "ที่ อ.ป. ๕๐/๒๕๓๗",
        "เรื่อง ระเบียบการงดหรือลดเบี้ยปรับภาษีมูลค่าเพิ่ม ตามมาตรา ๘๙",
        "และภาษีธุรกิจเฉพาะ ตามมาตรา ๙๑/๒๑(๖) แห่งประมวลรัษฎากร"
      ]
    ],
    []
  ],
  "metadata": {
    "date_backmatter": "2537-09-07",
    "date_gz_old": "2537-09-28",
    "editors": [
      {
        "name": "ฐาปนี",
        "role": "แก้ไข",
        "date": "2545-09-10"
      }
    ],
    "tag": "bb08-2f-2537-a009"
  }
}