{
  "pages": [
    [
      [
        "พระราชกฤษฎีกา",
        "ออกตามความในประมวลรัษฎากร",
        "ว่าด้วยการลดอัตราและยกเว้นรัษฎากร (ฉบับที่ ๓๗๗)",
        "พ.ศ. ๒๕๔๔",
        "------------",
        "ภูมิพลอดุลยเดช ป.ร.",
        "ให้ไว้ ณ วันที่ ๒๘ เมษายน พ.ศ. ๒๕๔๔",
        "เป็นปีที่ ๕๖ ในรัชกาลปัจจุบัน",
        "พระบามสมเด็จพระปรมินทรมหาภูมิพลอดุลยเดช มีพระบรมราชโองการโปรดเกล้า",
        "ฯ ให้ประกาศว่า",
        "โดยที่เป็นการสมควรลดอัตราและยกเว้นรัษฎากรบางกรณี"
      ]
    ],
    []
  ],
  "metadata": {
    "date_gz_old": "2544-05-01",
    "date_header": "2544-04-28",
    "editors": [
      {
        "name": "อัมพิกา",
        "role": "แก้ไข",
        "date": "2544-10-01"
      }
    ],
    "tag": "bb08-2a-2544-a009"
  }
}