{
  "pages": [
    [
      [
        "ประกาศอธิบดีกรมสรรพากร",
        "เกี่ยวกับภาษีเงินได้ (ฉบับที่ 66)",
        "เรื่อง กำหนดแบบหนังสือรับการหักภาษี ณ ที่จ่าย"
      ]
    ],
    []
  ],
  "metadata": {
    "date_backmatter": "2540-04-01",
    "doctype": "ประกาศ",
    "editors": [],
    "tag": "bb08-2e-2540-021"
  }
}