{
  "pages": [
    [
      [
        "ประกาศอธิบดีกรมสรรพากร",
        "เกี่ยวกับภาษีมูลค่าเพิ่ม (ฉบับที่ ๓๘)",
        "เรื่อง กำหนดหลักเกณฑ์การขออนุมัติให้เครื่องบันทึกการเก็บเงิน",
        "เพื่อออกใบกำกับภาษีอย่างย่อ และหลักเกณฑ์ วิธีการ และเงื่อนไข",
        "เกี่ยวกับการใช้เครื่องบันทึกการเก็บเงินตามมาตรา ๘๖ / ๖ แห่งประมวลรัษฎากร"
      ]
    ],
    []
  ],
  "metadata": {
    "date_backmatter": "2535-07-28",
    "date_gz_old": "2535-08-25",
    "doctype": "ประกาศ",
    "editors": [
      {
        "name": "ธิดาวรรณ",
        "role": "แก้ไข",
        "date": "2545-09-19"
      }
    ],
    "tag": "bb08-2e-2535-a035"
  }
}