{
  "pages": [
    [
      [
        "กฎกระทรวง",
        "ฉบับที่ ๑๒๐ (พ.ศ. ๒๕๐๓)",
        "ออกตามความในประมวลรัษฎากร",
        "ว่าด้วยการยกเว้นรัษฎากร"
      ]
    ],
    []
  ],
  "metadata": {
    "date_backmatter": "2503-06-22",
    "date_gz_old": "2503-06-28",
    "doctype": "กฎกระทรวง",
    "editors": [],
    "tag": "bb08-2b-2503-120"
  }
}