{
  "pages": [
    [
      [
        "ประกาศอธิบดีกรมสรรพากร",
        "เกี่ยวกับภาษีเงินได้ (ฉบับที่ ๗๐)",
        "เรื่อง กำหนดหลักเกณฑ์ เงื่อนไข และวิธีการ สำหรับกรณีสมาชิก",
        "กองทุนบำเหน็จบำนาญข้าราชการออกจากราชการเพราะ",
        "เหตุสูงอายุ เหตุทุพพลภาพ เหตุทดแทน หรือตาย"
      ]
    ],
    []
  ],
  "metadata": {
    "date_backmatter": "2541-01-19",
    "date_gz_old": "2541-02-12",
    "doctype": "ประกาศ",
    "editors": [],
    "tag": "bb08-2e-2541-001"
  }
}