{
  "pages": [
    [
      [
        "พระราชกฤษฎีกา",
        "ออกตามความในประมวลรัษฎากร",
        "ว่าด้วยการยกเว้นรัษฎากร (ฉบับที่ ๖๐๔)",
        "พ.ศ. ๒๕๕๙",
        "",
        "",
        "ภูมิพลอดุลยเดช ป.ร.",
        "ให้ไว้ ณ วันที่ ๑๘ เมษายน พ.ศ. ๒๕๕๙",
        "เป็นปีที่ ๗๑ ในรัชกาลปัจจุบัน"
      ]
    ],
    []
  ],
  "metadata": {
    "date_header": "2559-04-18",
    "date_modified": "2559-08-30",
    "date_original": "2559-04-21",
    "doctype": "พระราชกฤษฎีกา",
    "editors": [
      {
        "name": "ปุณิกา",
        "role": "จัดทำ",
        "date": "2559-09-12"
      }
    ],
    "tag": "bb08-2a-2559-a0031",
    "title": "ออกตามความในประมวลรัษฎากรว่าด้วยการยกเว้นรัษฎากร (ฉบับที่ ๖๐๔)"
  }
}