{
  "pages": [
    [
      [
        "ประกาศกระทรวงการคลัง",
        "ว่าด้วยภาษีเงินได้ (ฉบับที่ ๗๕)",
        "เรื่อง กำหนดองค์การ สถานสาธารณกุศล",
        "สถานพยาบาลและสถานศึกษา",
        "ตามมาตรา ๔๗ (๗) (ข) แห่งประมวลรัษฎากร"
      ]
    ],
    []
  ],
  "metadata": {
    "date_backmatter": "2535-04-27",
    "date_modified": "2535-05-07",
    "date_original": "2535-05-07",
    "doctype": "ประกาศ",
    "editors": [
      {
        "name": "พรพิมล",
        "role": "พิมพ์",
        "date": "2546-09-12"
      }
    ],
    "tag": "bb08-2e-2535-a048"
  }
}