{
  "pages": [
    [
      [
        "พระราชกฤษฎีกา",
        "ออกตามความในประมวลรัษฎากร",
        "ว่าด้วยการยกเว้นรัษฎากร (ฉบับที่ ๒๘๔)",
        "พ.ศ. ๒๕๓๘",
        "-------------",
        "",
        "ภูมิพลอดุลยเดช ป.ร.",
        "ให้ไว้ ณ วันที่ ๓๐ มิถุนายน พ.ศ. ๒๕๓๘",
        "เป็นปีที่ ๕๐ ในรัชกาลปัจจุบัน"
      ]
    ],
    []
  ],
  "metadata": {
    "date_gz_old": "2538-07-10",
    "date_header": "2538-06-30",
    "editors": [],
    "tag": "bb08-2a-2538-284"
  }
}