{
  "pages": [
    [
      [
        "พระราชกฤษฎีกา",
        "ออกตามความในประมวลรัษฎากร",
        "ว่าด้วยการขายอสังหาริมทรัพย์เป็นทางค้าหรือหากำไร (ฉบับที่ ๓๔๒)",
        "พ.ศ. ๒๕๔๑",
        "-------------",
        "",
        "ภูมิพลอดุลยเดช ป.ร.",
        "ให้ไว้ ณ วันที่ ๒๔ ธันวาคม พ.ศ. ๒๕๔๑",
        "เป็นปีที่ ๕๓ ในรัชกาลปัจจุบัน"
      ]
    ],
    []
  ],
  "metadata": {
    "date_gz_old": "2541-12-31",
    "date_header": "2541-12-24",
    "editors": [],
    "tag": "bb08-2a-2541-a016"
  }
}