{
  "pages": [
    [
      [
        "ประกาศอธิบดีกรมสรรพากร",
        "เกี่ยวกับภาษีการค้า (ฉบับที่ ๔๗)",
        "เรื่อง ให้ถือว่าผู้ประกอบการค้าที่เป็นผู้นำเข้าหรือผู้ส่งออก",
        "ได้ขายสินค้าในวันนำเข้าในราชอาณาจักรหรือวันส่งออกนอกราชอาณาจักร"
      ]
    ],
    []
  ],
  "metadata": {
    "date_backmatter": "2531-04-01",
    "date_gz_old": "2531-04-05",
    "doctype": "ประกาศ",
    "editors": [
      {
        "name": "ธิดาวรรณ",
        "role": "แก้ไข",
        "date": "2545-09-19"
      }
    ],
    "tag": "bb08-2e-2531-a008"
  }
}