{
  "pages": [
    [
      [
        "ประกาศกระทรวงการคลัง",
        "เรื่อง การกำหนดสถานศึกษาหรือสถานฝึกอบรมฝีมือแรงงานที่รับ",
        "ลูกจ้างของบริษัทหรือห้างหุ้นส่วนนิติบุคคลเข้าศึกษาหรือฝึกอบรม"
      ]
    ],
    []
  ],
  "metadata": {
    "date_backmatter": "2548-11-23",
    "date_modified": "2548-12-29",
    "date_original": "2548-12-29",
    "doctype": "ประกาศ",
    "editors": [
      {
        "name": "พชร",
        "role": "ผู้จัดทำ",
        "date": "2549-01-09"
      }
    ],
    "tag": "bb08-2e-2548-a0099"
  }
}