{
  "pages": [
    [
      [
        "ประกาศกระทรวงการคลัง",
        "เกี่ยวกับภาษีเงินได้ (ฉบับที่ ๓๘๗)",
        "เรื่อง รายชื่อผู้รับทำการวิจัยและพัฒนาเทคโนโลยี"
      ]
    ],
    []
  ],
  "metadata": {
    "date_backmatter": "2559-01-04",
    "date_modified": "2559-03-01",
    "date_original": "2559-03-01",
    "doctype": "ประกาศ",
    "editors": [
      {
        "name": "ปริยานุช",
        "role": "จัดทำ",
        "date": "2559-03-08"
      },
      {
        "name": "วริญา",
        "role": "ตรวจ",
        "date": "2559-03-08"
      }
    ],
    "tag": "bb08-2e-2559-a0010"
  }
}