{
  "pages": [
    [
      [
        "พระราชกฤษฎีกา",
        "ออกตามความในประมวลรัษฎากร",
        "ว่าด้วยการยกเว้นภาษีการค้า (ฉบับที่ ๒๒๔)",
        "พ.ศ. ๒๕๓๔",
        "----------------",
        "",
        "ภูมิพลอดุลยเดช ป.ร.",
        "ให้ไว้ ณ วันที่ ๒๐ สิงหาคม พ.ศ. ๒๕๓๔",
        "เป็นปีที่ ๔๖ ในรัชกาลปัจจุบัน"
      ]
    ],
    []
  ],
  "metadata": {
    "date_gz_old": "2534-08-29",
    "date_header": "2534-08-20",
    "editors": [],
    "tag": "bb08-2a-2534-224"
  }
}