{
  "pages": [
    [
      [
        "คำสั่งกรมสรรพากร",
        "ที่ ท.ป. ๒๙๖/๒๕๖๑",
        "เรื่อง กำหนดสถานที่รับแบบแสดงรายการ และรับชำระเงินภาษีอากรตามประมวลรัษฎากร"
      ]
    ],
    []
  ],
  "metadata": {
    "date_backmatter": "2561-03-22",
    "date_modified": "2561-04-26",
    "date_original": "2561-04-26",
    "editors": [
      {
        "name": "ปวันวิทย์",
        "role": "จัดทำ",
        "date": "2561-06-01"
      }
    ],
    "tag": "bb08-2f-2561-a0009"
  }
}