{
  "pages": [
    [
      [
        "ประกาศอธิบดีกรมสรรพากร",
        "เกี่ยวกับภาษีมูลค่าเพิ่ม (ฉบับที่ ๖๕)",
        "เรื่อง กำหนดแบบเกี่ยวกับภาษีมูลค่าเพิ่ม"
      ]
    ],
    []
  ],
  "metadata": {
    "date_backmatter": "2538-11-22",
    "date_gz_old": "2538-12-28",
    "doctype": "ประกาศ",
    "editors": [
      {
        "name": "จารุวรรณ",
        "role": "แก้ไข",
        "date": "2545-08-22"
      }
    ],
    "tag": "bb08-2e-2538-a015"
  }
}