{
  "pages": [
    [
      [
        "ประกาศกระทรวงการคลัง",
        "ว่าด้วยภาษีเงินได้และภาษีมูลค่าเพิ่ม (ฉบับที่ ๕๒๕)",
        "เรื่อง กำหนดองค์การ สถานสาธารณกุศล สถานพยาบาล",
        "และสถานศึกษา ตามมาตรา ๔๗ (๗) (ข) แห่งประมวลรัษฎากร",
        "และมาตรา ๓ (๔) (ข) แห่งพระราชกฤษฎีกาออกตามความในประมวลรัษฎากร",
        "ว่าด้วยการยกเว้นภาษีมูลค่าเพิ่ม (ฉบับที่ ๒๓๙) พ.ศ. ๒๕๓๔",
        "ซึ่งแก้ไขเพิ่มเติมโดยพระราชกฤษฎีกาออกตามความในประมวลรัษฎากร",
        "ว่าด้วยการยกเว้นภาษีมูลค่าเพิ่ม (ฉบับที่ ๒๕๔)",
        "พ.ศ. ๒๕๓๕"
      ]
    ],
    []
  ],
  "metadata": {
    "date_backmatter": "2555-09-05",
    "date_modified": "2555-12-04",
    "date_original": "2555-12-04",
    "doctype": "ประกาศ",
    "editors": [
      {
        "name": "ปริยานุช",
        "role": "ผู้จัดทำ",
        "date": "2555-12-06"
      },
      {
        "name": "ชาญ",
        "role": "ผู้ตรวจ",
        "date": "2555-12-17"
      }
    ],
    "tag": "bb08-2e-2555-a0119"
  }
}