{
  "pages": [
    [
      [
        "ประกาศคณะรักษาความสงบเรียบร้อยแห่งชาติ",
        "ฉบับที่ ๓๗",
        "เรื่อง การแก้ไขเพิ่มเติมประมวลรัษฎากร"
      ]
    ],
    []
  ],
  "metadata": {
    "date_backmatter": "2534-02-28",
    "date_gz_old": "2534-02-28",
    "doctype": "ประกาศ",
    "editors": [
      {
        "name": "จารุวรรณ",
        "role": "แก้ไข",
        "date": "2545-09-23"
      }
    ],
    "tag": "bb08-2e-2534-a008"
  }
}