{
  "pages": [
    [
      [
        "ประกาศอธิบดีกรมสรรพากร",
        "เกี่ยวกับอากรแสตมป์ (ฉบับที่ ๔๒)",
        "เรื่อง กำหนดหลักเกณฑ์ วิธีการ และเงื่อนไขการยกเว้น",
        "อากรแสตมป์เกี่ยวกับกิจการซื้อหรือขายหลักทรัพย์",
        "โดยมีสัญญาขายหรือซื้อคืน"
      ]
    ],
    []
  ],
  "metadata": {
    "date_backmatter": "2545-04-19",
    "date_gz_old": "2545-06-25",
    "doctype": "ประกาศ",
    "editors": [
      {
        "name": "พรพิมล",
        "role": "พิมพ์",
        "date": "2545-09-13"
      }
    ],
    "tag": "bb08-2e-2545-a027"
  }
}