{
  "pages": [
    [
      [
        "พระราชกฤษฎีกา",
        "ออกตามความในประมวลรัษฎากร",
        "ว่าด้วยการยกเว้นรัษฎากร (ฉบับที่ ๑๐๑)",
        "พ.ศ. ๒๕๒๓",
        "------------------",
        "ภูมิพลอดุลยเดช ป.ร.",
        "ให้ไว้ ณ วันที่ ๒๔ กันยายน พ.ศ. ๒๕๒๓",
        "เป็นปีที่ ๓๕ ในรัชกาลปัจจุบัน"
      ]
    ],
    []
  ],
  "metadata": {
    "date_gz_old": "2523-09-26",
    "date_header": "2523-09-24",
    "doctype": "พระราชกฤษฎีกา",
    "editors": [],
    "tag": "bb08-2a-2523-101",
    "title": "ออกตามความในประมวลรัษฎากรว่าด้วยการยกเว้นรัษฎากร (ฉบับที่ ๑๐๑)พ.ศ. ๒๕๒๓------------------ภูมิพลอดุลยเดช ป.ร.ให้ไว้ ณ วันที่ ๒๔ กันยายน"
  }
}