{
  "pages": [
    [
      [
        "ประกาศอธิบดีกรมสรรพากร",
        "เกี่ยวกับภาษีเงินได้ (ฉบับที่ ๒๙๘)",
        "เรื่อง กำหนดวิธีการและเงื่อนไข เพื่อการยกเว้นภาษีเงินได้ สำหรับเงินได้เท่าที่ได้จ่าย",
        "เป็นค่าซ่อมแซมหรือค่าวัสดุหรืออุปกรณ์ในการซ่อมแซมทรัพย์สินซึ่งเป็นอสังหาริมทรัพย์",
        "หรือทรัพย์สินที่ประกอบติดตั้งในลักษณะถาวรกับอสังหาริมทรัพย์",
        "ที่ได้รับความเสียหายจากเหตุอุทกภัย"
      ]
    ],
    []
  ],
  "metadata": {
    "date_backmatter": "2560-05-31",
    "date_modified": "2560-07-06",
    "date_original": "2560-07-06",
    "doctype": "ประกาศ",
    "editors": [
      {
        "name": "ภวรรณตรี",
        "role": "จัดทำ",
        "date": "2560-07-11"
      },
      {
        "name": "พรวิภา",
        "role": "ตรวจ",
        "date": "2560-08-09"
      }
    ],
    "tag": "bb08-2e-2560-a0041"
  }
}