{
  "pages": [
    [
      [
        "พระราชกฤษฎีกา",
        "ออกตามความในประมวลรัษฎากร",
        "ว่าด้วยการกำหนดกิจการที่ได้รับยกเว้นภาษีธุรกิจเฉพาะ (ฉบับที่ ๖๐๕)",
        "พ.ศ. ๒๕๕๙",
        "",
        "",
        "ภูมิพลอดุลยเดช ป.ร.",
        "ให้ไว้ ณ วันที่ ๒๗ เมษายน พ.ศ. ๒๕๕๙",
        "เป็นปีที่ ๗๑ ในรัชกาลปัจจุบัน"
      ]
    ],
    []
  ],
  "metadata": {
    "date_header": "2559-04-27",
    "date_modified": "2559-04-29",
    "date_original": "2559-04-29",
    "doctype": "พระราชกฤษฎีกา",
    "editors": [
      {
        "name": "ปริยานุช",
        "role": "จัดทำ",
        "date": "2559-05-03"
      },
      {
        "name": "กัญฑรัตน์",
        "role": "ตรวจ",
        "date": "2559-05-03"
      }
    ],
    "tag": "bb08-2a-2559-a0011",
    "title": "ออกตามความในประมวลรัษฎากรว่าด้วยการกำหนดกิจการที่ได้รับยกเว้นภาษีธุรกิจเฉพาะ (ฉบับที่ ๖๐๕)"
  }
}