{
  "pages": [
    [
      [
        "ประกาศอธิบดีกรมสรรพากร",
        "เกี่ยวกับภาษีมูลค่าเพิ่ม (ฉบับที่ ๒๐)",
        "เรื่อง กำหนดหลักเกณฑ์ วิธีการ และเงื่อนไข การวางประกันและการถอนประกัน",
        "ภาษีมูลค่าเพิ่ม ตามมาตรา ๘๓ / ๘ แห่งประมวลรัษฎากร"
      ]
    ],
    []
  ],
  "metadata": {
    "date_backmatter": "2534-12-27",
    "date_gz_old": "2535-05-25",
    "doctype": "ประกาศ",
    "editors": [
      {
        "name": "ธิดาวรรณ",
        "role": "แก้ไข",
        "date": "2545-09-16"
      }
    ],
    "tag": "bb08-2e-2535-a017"
  }
}