{
  "pages": [
    [
      [
        "ประกาศอธิบดีกรมสรรพากร",
        "เกี่ยวกับภาษีเงินได้ (ฉบับที่ ๑๔๕)",
        "เรื่อง กำหนดหลักเกณฑ์ วิธีการ และเงื่อนไขเพื่อการยกเว้นภาษีเงินได้",
        "สำหรับเงินได้ที่จ่ายเป็นค่าใช้จ่ายเพื่อการได้มาซึ่งทรัพย์สินประเภทอุปกรณ์",
        "ที่มีผลต่อการประหยัดพลังงาน ซึ่งเป็นการปรับเปลี่ยนแทนอุปกรณ์เดิม"
      ]
    ],
    []
  ],
  "metadata": {
    "date_backmatter": "2548-10-06",
    "date_modified": "2548-11-22",
    "date_original": "2548-11-22",
    "doctype": "ประกาศ",
    "editors": [
      {
        "name": "พชร",
        "role": "ผู้จัดทำ",
        "date": "2548-11-28"
      }
    ],
    "tag": "bb08-2e-2548-a0092"
  }
}