{
  "pages": [
    [
      [
        "กฎกระทรวง",
        "ออกตามความในประมวลรัษฎากร (ฉบับที่ ๑๗)",
        "ว่าด้วยการใช้จ่ายเงินช่วยบำรุงท้องที่"
      ]
    ],
    []
  ],
  "metadata": {
    "date_backmatter": "2484-01-28",
    "doctype": "กฎกระทรวง",
    "editors": [],
    "tag": "bb08-2b-2484-017"
  }
}