{
  "pages": [
    [
      [
        "ประกาศอธิบดีกรมสรรพากร",
        "เกี่ยวกับภาษีเงินได้ (ฉบับที่ ๒๔)",
        "เรื่อง กำหนดหลักเกณฑ์และวิธีการ การหักลดหย่อนสำหรับดอกเบี้ยเงินกู้ยืม",
        "ตามมาตรา ๔๗ (๑) (ซ) แห่งประมวลรัษฎากร"
      ]
    ],
    []
  ],
  "metadata": {
    "date_backmatter": "2529-06-12",
    "date_gz_old": "2529-06-19",
    "doctype": "ประกาศ",
    "editors": [
      {
        "name": "ธิดาวรรณ",
        "role": "แก้ไข",
        "date": "2545-10-02"
      }
    ],
    "tag": "bb08-2e-2529-a002"
  }
}