{
  "pages": [
    [
      [
        "ประกาศอธิบดีกรมสรรพากร",
        "เกี่ยวกับภาษีธุรกิจเฉพาะ",
        "เรื่อง การกำหนดกิจการที่ไม่ต้องจดทะเบียนภาษีธุรกิจเฉพาะ"
      ]
    ],
    []
  ],
  "metadata": {
    "date_backmatter": "2535-12-30",
    "date_gz_old": "2536-02-23",
    "doctype": "ประกาศ",
    "editors": [
      {
        "name": "ธิดาวรรณ",
        "role": "แก้ไข",
        "date": "2545-09-18"
      }
    ],
    "tag": "bb08-2e-2536-a006"
  }
}