{
  "pages": [
    [
      [
        "พระราชกฤษฎีกา",
        "ออกตามความในประมวลรัษฎากร",
        "ว่าด้วยการยกเว้นภาษีการค้า (ฉบับที่ ๑๕๑)",
        "พ.ศ. ๒๕๒๗",
        "-----------",
        "ภูมิพลอดุลยเดช ป.ร.",
        "ให้ไว้ ณ วันที่ ๒๗ สิงหาคม พ.ศ. ๒๕๒๗",
        "เป็นปีที่ ๓๙ ในรัชกาลปัจจุบัน"
      ]
    ],
    []
  ],
  "metadata": {
    "date_gz_old": "2527-09-05",
    "date_header": "2527-08-27",
    "doctype": "พระราชกฤษฎีกา",
    "editors": [],
    "tag": "bb08-2a-2527-151",
    "title": "ออกตามความในประมวลรัษฎากรว่าด้วยการยกเว้นภาษีการค้า (ฉบับที่ ๑๕๑)พ.ศ. ๒๕๒๗-----------ภูมิพลอดุลยเดช ป.ร.ให้ไว้ ณ วันที่ ๒๗ สิงหาคม"
  }
}