{
  "pages": [
    [
      [
        "ประกาศอธิบดีกรมสรรพากร",
        "เกี่ยวกับอากรแสตมป์ (ฉบับที่ ๓๓)",
        "เรื่อง กำหนดวิธีการชำระอากรเป็นตัวเงินแทนการปิดแสตมป์อากร",
        "สำหรับตราสารบางลักษณะ"
      ]
    ],
    []
  ],
  "metadata": {
    "date_backmatter": "2534-09-16",
    "date_gz_old": "2534-09-26",
    "doctype": "ประกาศ",
    "editors": [
      {
        "name": "พรพิมล/พิมพ์",
        "role": "แก้ไข",
        "date": "2545-09-17"
      }
    ],
    "tag": "bb08-2e-2534-a014"
  }
}