{
  "pages": [
    [
      [
        "กฎกระทรวง",
        "ฉบับที่ ๕๑ (พ.ศ. ๒๔๙๒)",
        "ออกตามความในประมวลรัษฎากร",
        "ว่าด้วย เงินช่วยการประถมศึกษา"
      ]
    ],
    []
  ],
  "metadata": {
    "date_backmatter": "2492-03-11",
    "date_gz_old": "2492-03-22",
    "doctype": "กฎกระทรวง",
    "editors": [],
    "tag": "bb08-2b-2492-051"
  }
}