{
  "pages": [
    [
      [
        "คำสั่งกรมสรรพากร",
        "ที่ ป. ๒๗/๒๕๓๕",
        "เรื่อง การเสนอหรือแสดงราคาค่าบริการในราคาที่รวมภาษีมูลค่าเพิ่มไว้แล้ว"
      ]
    ],
    []
  ],
  "metadata": {
    "date_backmatter": "2535-01-08",
    "date_modified": "2535-05-25",
    "date_original": "2535-05-25",
    "editors": [
      {
        "name": "พรพิมล",
        "role": "พิมพ์",
        "date": "2546-09-12"
      },
      {
        "name": "พรพิมล",
        "role": "แก้ไข",
        "date": "2546-09-17"
      }
    ],
    "tag": "bb08-2f-2535-a010"
  }
}