{
  "pages": [
    [
      [
        "คำสั่งกรมสรรพากร",
        "ที่ ท.ป. ๗/๒๕๒๘",
        "เรื่อง กำหนดสถานที่ยื่นแบบแสดงรายการและชำระเงินภาษีอากรตามประมวลรัษฎากร"
      ]
    ],
    []
  ],
  "metadata": {
    "date_backmatter": "2528-12-30",
    "date_modified": "2558-01-29",
    "date_original": "2558-01-29",
    "editors": [
      {
        "name": "ปริยานุช",
        "role": "ผู้จัดทำ",
        "date": "2558-02-02"
      },
      {
        "name": "วิศนี",
        "role": "ผู้ตรวจ",
        "date": "2558-02-06"
      }
    ],
    "tag": "bb08-2f-2558-a0001"
  }
}