{
  "pages": [
    [
      [
        "กฎกระทรวง",
        "ฉบับที่ ๑๕๖ (พ.ศ. ๒๕๒๖)",
        "ออกตามความในประมวลรัษฎากร",
        "ว่าด้วยการยกเว้นรัษฎากร"
      ]
    ],
    []
  ],
  "metadata": {
    "date_backmatter": "2526-03-11",
    "date_gz_old": "2526-03-16",
    "doctype": "กฎกระทรวง",
    "editors": [],
    "tag": "bb08-2b-2526-156"
  }
}