{
  "pages": [
    [
      [
        "คำสั่งกรมสรรพากร",
        "ที่ ป. ๑๕๕/๒๕๖๐",
        "เรื่อง หลักเกณฑ์การจัดทำใบกำกับภาษีตามมาตรา ๘๖/๔ และมาตรา ๘๖/๕",
        "แห่งประมวลรัษฎากร เฉพาะที่มีลักษณะเป็นแบบเต็มรูป"
      ]
    ],
    []
  ],
  "metadata": {
    "date_backmatter": "2560-01-26",
    "date_modified": "2560-03-02",
    "date_original": "2560-03-02",
    "editors": [
      {
        "name": "ปริยานุช",
        "role": "จัดทำ",
        "date": "2560-03-08"
      },
      {
        "name": "พรวิภา",
        "role": "ตรวจ",
        "date": "2560-03-08"
      }
    ],
    "tag": "bb08-2f-2560-a0006"
  }
}