{
  "pages": [
    [
      [
        "พระราชกฤษฎีกา",
        "ออกตามความในประมวลรัษฎากร",
        "ว่าด้วยการยกเว้นภาษีมูลค่าเพิ่ม (ฉบับที่ ๔๔๘)",
        "พ.ศ. ๒๕๔๙",
        "",
        "",
        "ภูมิพลอดุลยเดช ป.ร.",
        "ให้ไว้ ณ วันที่ ๙ มกราคม พ.ศ. ๒๕๔๙",
        "เป็นปีที่ ๖๑ ในรัชกาลปัจจุบัน"
      ]
    ],
    []
  ],
  "metadata": {
    "date_header": "2549-01-09",
    "date_modified": "2549-01-23",
    "date_original": "2549-01-23",
    "doctype": "พระราชกฤษฎีกา",
    "editors": [
      {
        "name": "ชัชสรัญ",
        "role": "ผู้จัดทำ",
        "date": "2549-01-26"
      }
    ],
    "tag": "bb08-2a-2549-a0001",
    "title": "ออกตามความในประมวลรัษฎากรว่าด้วยการยกเว้นภาษีมูลค่าเพิ่ม (ฉบับที่ ๔๔๘)"
  }
}