{
  "pages": [
    [
      [
        "กฎกระทรวง",
        "ฉบับที่ ๒๔๘ (พ.ศ. ๒๕๔๗)",
        "ออกตามความในประมวลรัษฎากร",
        "ว่าด้วยการยกเว้นรัษฎากร"
      ]
    ],
    []
  ],
  "metadata": {
    "date_backmatter": "2547-12-30",
    "date_modified": "2547-12-30",
    "date_original": "2547-12-30",
    "doctype": "กฎกระทรวง",
    "editors": [
      {
        "name": "ศุภชัย",
        "role": "พิมพ์",
        "date": "2548-03-17"
      },
      {
        "name": "ฐิติพงษ์/พัชรินทร์",
        "role": "ตรวจ",
        "date": "2548-04-22"
      }
    ],
    "tag": "bb08-2b-2547-a0006"
  }
}