{
  "pages": [
    [
      [
        "คำสั่งกรมสรรพากร",
        "ที่ ท.ป. ๑๐๘/๒๕๔๕",
        "เรื่อง การใช้เกณฑ์สิทธิในการคำนวณรายได้และรายจ่ายของบริษัทหรือห้างหุ้นส่วนนิติบุคคล"
      ]
    ],
    []
  ],
  "metadata": {
    "date_backmatter": "2545-06-26",
    "date_modified": "2545-08-20",
    "date_original": "2545-08-20",
    "editors": [
      {
        "name": "ปริยานุช",
        "role": "พิมพ์",
        "date": "2557-11-24"
      },
      {
        "name": "กฤษดายุทธ",
        "role": "ตรวจ",
        "date": "2557-11-24"
      }
    ],
    "tag": "bb08-2f-2545-a004"
  }
}