{
  "pages": [
    [
      [
        "ประกาศกรมสรรพากร",
        "เกี่ยวกับภาษีเงินได้ (ฉบับที่ ๑๔)",
        "เรื่อง กำหนดกองทุนสวัสดิการภายในส่วนราชการที่จัดตั้งขึ้น",
        "ตามระเบียบสำนักนายกรัฐมนตรี ว่าด้วยการจัดสวัสดิการภายในส่วนราชการ",
        "ตามพระราชกฤษฎีกาออกตามความในประมวลรัษฎากร ว่าด้วยการยกเว้นรัษฎากร",
        "(ฉบับที่ ๔๒๔) พ.ศ. ๒๕๔๗ และประกาศอธิบดีกรมสรรพากรเกี่ยวกับภาษีเงินได้",
        "(ฉบับที่ ๑๓๔) เรื่อง กำหนดหลักเกณฑ์ วิธีการและเงื่อนไขการยกเว้นภาษีเงินได้",
        "สำหรับการบริจาคให้แก่ กองทุนสวัสดิการภายในส่วนราชการ",
        "ลงวันที่ ๒๓ พฤศจิกายน พ.ศ. ๒๕๔๗"
      ]
    ],
    []
  ],
  "metadata": {
    "date_backmatter": "2550-09-03",
    "date_header": "2547-11-23",
    "date_modified": "2550-10-25",
    "date_original": "2550-10-25",
    "doctype": "ประกาศ",
    "editors": [
      {
        "name": "ปริยานุช",
        "role": "ผู้จัดทำ",
        "date": "2550-11-06"
      }
    ],
    "tag": "bb08-2e-2550-a0028"
  }
}