{
  "pages": [
    [
      [
        "ประกาศอธิบดีกรมสรรพากร",
        "เรื่อง รายชื่อผู้รับทำการวิจัยและพัฒนาเทคโนโลยีและนวัตกรรม",
        "(ฉบับที่ ๙๑)"
      ]
    ],
    []
  ],
  "metadata": {
    "date_backmatter": "2561-03-07",
    "date_modified": "2561-04-26",
    "date_original": "2561-04-26",
    "doctype": "ประกาศ",
    "editors": [
      {
        "name": "ปวันวิทย์",
        "role": "จัดทำ",
        "date": "2561-06-01"
      }
    ],
    "tag": "bb08-2e-2561-a0036"
  }
}