{
  "pages": [
    [
      [
        "ประกาศอธิบดีกรมสรรพากร",
        "เกี่ยวกับภาษีมูลค่าเพิ่ม (ฉบับที่ ๑๐๗)",
        "เรื่อง กำหนดข้อความอื่นในใบกำกับภาษี",
        "ตามมาตรา ๘๖/๔ (๘) แห่งประมวลรัษฎากร"
      ]
    ],
    []
  ],
  "metadata": {
    "date_backmatter": "2543-08-11",
    "date_gz_old": "2543-08-31",
    "doctype": "ประกาศ",
    "editors": [
      {
        "name": "ปรียนันท์",
        "role": "แก้ไข"
      },
      {
        "name": "๒๕/๔",
        "role": "๔๕"
      }
    ],
    "tag": "bb08-2e-2543-a029"
  }
}