{
  "pages": [
    [
      [
        "กฎกระทรวง",
        "ฉบับที่ ๑๐๘ (พ.ศ. ๒๔๙๙)",
        "ออกตามความในประมวลรัษฎากร",
        "ว่าด้วยอากรมหรสพ"
      ]
    ],
    []
  ],
  "metadata": {
    "date_backmatter": "2499-05-03",
    "date_gz_old": "2499-05-22",
    "doctype": "กฎกระทรวง",
    "editors": [],
    "tag": "bb08-2b-2499-108"
  }
}