{
  "pages": [
    [
      [
        "ประกาศอธิบดีกรมสรรพากร",
        "เกี่ยวกับภาษีเงินได้ (ฉบับที่ ๙๒)",
        "เรื่อง กำหนดหลักเกณฑ์ วิธีการ และเงื่อนไขการยกเว้นภาษีเงินได้",
        "สำหรับดอกเบี้ยเงินกู้ยืมเพื่อซื้อหรือให้ได้มาซึ่งทรัพย์สิน",
        "ของบริษัทหรือห้างหุ้นส่วนนิติบุคคล"
      ]
    ],
    []
  ],
  "metadata": {
    "date_backmatter": "2544-03-16",
    "date_gz_old": "2544-05-03",
    "doctype": "ประกาศ",
    "editors": [
      {
        "name": "อัมพิกา",
        "role": "แก้ไข",
        "date": "2544-09-14"
      }
    ],
    "tag": "bb08-2e-2544-a009"
  }
}