{
  "pages": [
    [
      [
        "พระราชกฤษฎีกา",
        "ออกตามความในประมวลรัษฎากร",
        "ว่าด้วยการหักค่าสึกหรอและค่าเสื่อมราคาของทรัพย์สิน (ฉบับที่ ๔๐๖)",
        "พ.ศ. ๒๕๔๕",
        "",
        "",
        "ภูมิพลอดุลยเดช ป.ร.",
        "ให้ไว้ ณ วันที่ ๕ สิงหาคม พ.ศ. ๒๕๔๕",
        "เป็นปีที่ ๕๗ ในรัชกาลปัจจุบัน"
      ]
    ],
    []
  ],
  "metadata": {
    "date_header": "2545-08-05",
    "date_modified": "2545-08-15",
    "date_original": "2545-08-15",
    "doctype": "พระราชกฤษฎีกา",
    "editors": [
      {
        "name": "ศิริยา",
        "role": "พิมพ์",
        "date": "2549-05-25"
      },
      {
        "name": "สุนันทา/ฐิติพงษ์",
        "role": "ตรวจ",
        "date": "2549-05-31"
      },
      {
        "name": null,
        "role": null,
        "date": "2549-05-31"
      }
    ],
    "tag": "bb08-2a-2545-a012",
    "title": "ออกตามความในประมวลรัษฎากรว่าด้วยการหักค่าสึกหรอและค่าเสื่อมราคาของทรัพย์สิน (ฉบับที่ ๔๐๖)"
  }
}