{
  "pages": [
    [
      [
        "ประกาศอธิบดีกรมสรรพากร",
        "เรื่อง กำหนดหลักเกณฑ์ วิธีการ และเงื่อนไขการยกเว้นภาษีเงินได้ ภาษีธุรกิจเฉพาะ และ",
        "อากรแสตมป์ สำหรับจำนวนเงินที่ได้รับจากการโอนอสังหาริมทรัพย์ของลูกหนี้ของสถาบันการเงิน",
        "ที่นำมาจำนองเป็นประกันหนี้ของเจ้าหนี้ที่เป็นสถาบันการเงินให้แก่ผู้อื่นซึ่งมิใช่เจ้าหนี้ที่เป็นสถาบัน",
        "การเงิน เพื่อนำไปชำระหนี้ที่ค้างชำระแก่เจ้าหนี้ที่เป็นสถาบันการเงิน ซึ่งได้ดำเนินการปรับปรุง",
        "โครงสร้างหนี้ตามหลักเกณฑ์การปรับปรุงโครงสร้างหนี้ของสถาบันการเงินที่ธนาคารแห่งประเทศไทย",
        "ประกาศกำหนด"
      ]
    ],
    []
  ],
  "metadata": {
    "date_backmatter": "2552-05-29",
    "date_modified": "2552-07-27",
    "date_original": "2552-07-27",
    "doctype": "ประกาศ",
    "editors": [
      {
        "name": "ปริยานุช",
        "role": "ผู้จัดทำ",
        "date": "2552-08-10"
      }
    ],
    "tag": "bb08-2e-2552-a0039"
  }
}