{
  "pages": [
    [
      [
        "กฎกระทรวง",
        "ฉบับที่ ๑๖๗ (พ.ศ. ๒๕๒๘)",
        "ออกตามความในประมวลรัษฎากร",
        "ว่าด้วยการยกเว้นรัษฎากร"
      ]
    ],
    []
  ],
  "metadata": {
    "date_backmatter": "2528-04-08",
    "date_gz_old": "2528-04-17",
    "doctype": "กฎกระทรวง",
    "editors": [],
    "tag": "bb08-2b-2528-167"
  }
}