{
  "pages": [
    [
      [
        "กฎกระทรวง",
        "ฉบับที่ ๑๙๐ (พ.ศ. ๒๕๓๕)",
        "ออกตามความในประมวลรัษฎากร",
        "ว่าด้วยการยกเว้นรัษฎากร"
      ]
    ],
    []
  ],
  "metadata": {
    "date_backmatter": "2535-03-05",
    "date_gz_old": "2535-03-13",
    "doctype": "กฎกระทรวง",
    "editors": [],
    "tag": "bb08-2b-2535-190"
  }
}