{
  "pages": [
    [
      [
        "ประกาศอธิบดีกรมสรรพากร",
        "เกี่ยวกับภาษีเงินได้ (ฉบับที่ ๒๐๗)",
        "เรื่อง กำหนดหลักเกณฑ์ วิธีการ และเงื่อนไข เพื่อการยกเว้นภาษีเงินได้",
        "สำหรับเงินได้ที่ผู้ประสบอุทกภัย วาตภัย อัคคีภัย หรือภัยธรรมชาติอื่นที่เกิดขึ้น",
        "ตั้งแต่วันที่ ๑ มกราคม พ.ศ. ๒๕๕๔ เป็นต้นไป ได้รับ"
      ]
    ],
    []
  ],
  "metadata": {
    "date_backmatter": "2554-10-12",
    "date_header": "2554-01-01",
    "date_modified": "2554-10-26",
    "date_original": "2554-10-26",
    "doctype": "ประกาศ",
    "editors": [
      {
        "name": "ปริยานุช",
        "role": "ผู้จัดทำ",
        "date": "2554-11-04"
      },
      {
        "name": "ปณตภร",
        "role": "ผู้ตรวจ",
        "date": "2554-11-08"
      }
    ],
    "tag": "bb08-2e-2554-a0054"
  }
}