{
  "pages": [
    [
      [
        "ประกาศอธิบดีกรมสรรพากร",
        "เกี่ยวกับภาษีเงินได้ (ฉบับที่ ๒๘๔)",
        "เรื่อง กำหนดหลักเกณฑ์ วิธีการ และเงื่อนไขการยกเว้นภาษีเงินได้",
        "ของบริษัทหรือห้างหุ้นส่วนนิติบุคคลในเขตพัฒนาพิเศษเฉพาะกิจ",
        "สำหรับกิจการที่ประกอบอุตสาหกรรมเป้าหมาย"
      ]
    ],
    []
  ],
  "metadata": {
    "date_backmatter": "2560-02-09",
    "date_modified": "2560-03-16",
    "date_original": "2560-03-16",
    "doctype": "ประกาศ",
    "editors": [
      {
        "name": "ปริยานุช",
        "role": "จัดทำ",
        "date": "2560-03-20"
      },
      {
        "name": "ชวัลพร",
        "role": "ตรวจ",
        "date": "2560-04-20"
      }
    ],
    "tag": "bb08-2e-2560-a0010"
  }
}