{
  "pages": [
    [
      [
        "พระราชบัญญัติ",
        "แก้ไขเพิ่มเติมประมวลรัษฎากร (ฉบับที่ ๓)",
        "พุทธศักราช ๒๔๘๕",
        "",
        "",
        "ในพระปรมาภิไธยสมเด็จพระเจ้าอยู่หัวอานันทมหิดล",
        "คณะผู้สำเร็จราชการแทนพระองค์",
        "(ตามประกาศประธานสภาผู้แทนราษฎร",
        "ลงวันที่ ๔ สิงหาคม พุทธศักราช ๒๔๘๐",
        "และวันที่ ๑๖ ธันวาคม พุทธศักราช ๒๔๘๔)",
        "อาทิตย์ทิพอาภา",
        "พล.อ.พิชเยนทรโยธิน",
        "ปรีดี พนมยงค์",
        "ตราไว้ ณ วันที่ ๑๖ มกราคม พุทธศักราช ๒๔๘๕",
        "เป็นปีที่ ๙ ในรัชกาลปัจจุบัน",
        "",
        "โดยที่สภาผู้แทนราษฎรลงมติว่า สมควรแก้ไขเพิ่มเติมประมวลรัษฎากร",
        "",
        "จึงมีพระบรมราชโองการให้ตราพระราชบัญญัติขึ้นไว้โดยคำแนะนำและยินยอม",
        "ของสภาผู้แทนราษฎร ดังต่อไปนี้",
        "",
        "มาตรา ๑ พระราชบัญญัตินี้ให้เรียกว่า “พระราชบัญญัติแก้ไขเพิ่มเติมประมวล",
        "รัษฎากร (ฉบับที่ ๓) พุทธศักราช ๒๔๘๕”",
        "",
        "มาตรา ๒* ให้ใช้พระราชบัญญัตินี้ตั้งแต่วันประกาศในราชกิจจานุเบกษา",
        "เป็นต้นไป",
        "*[รก.๒๔๘๕/๖/๒๕๒/๒๗ มกราคม ๒๔๘๕]",
        "",
        "มาตรา ๓ ให้เพิ่มความต่อไปนี้เป็นวรรค ๒ ของมาตรา ๑๕๖ แห่งประมวล",
        "รัษฎากร",
        "“ในกรณีที่ไม่มีสภาจังหวัด เมื่อคณะกรรมการตีราคาปานกลางแล้วให้เสนอการ",
        "ตีราคานั้นต่อคณะกรรมการจังหวัดพิจารณา เมื่อคณะกรรมการจังหวัดเห็นชอบด้วยหรือแก้ไข",
        "ประการใดแล้ว ก็ให้คณะกรรมการจังหวัดประกาศประเภทและชั้นของที่ดินนั้นไว้ ณ ศาลากลาง",
        "จังหวัด ที่ว่าการอำเภอ และตำบลนั้น ๆ”",
        "",
        "มาตรา ๔ ให้รัฐมนตรีว่าการกระทรวงการคลังรักษาการตามพระราชบัญญัตินี้",
        "",
        "ผู้รับสนองพระบรมราชโองการ",
        "จอมพล ป. พิบูลสงคราม",
        "นายกรัฐมนตรี",
        "",
        "",
        "ภคินี/แก้ไข",
        "๑๓/๓/๒๕๔๕",
        "A+B"
      ]
    ],
    []
  ],
  "metadata": {
    "date_header": "2480-08-04",
    "doctype": "พระราชบัญญัติ",
    "editors": [],
    "tag": "bb08-20-2485-003",
    "title": "แก้ไขเพิ่มเติมประมวลรัษฎากร (ฉบับที่ ๓)"
  }
}