{
  "pages": [
    [
      [
        "ประกาศอธิบดีกรมสรรพากร",
        "เกี่ยวกับภาษีเงินได้ (ฉบับที่ ๖๐)",
        "เรื่อง กำหนดหลักเกณฑ์ วิธีการ และเงื่อนไขการยกเว้นภาษีเงินได้ของบริษัท หรือห้างหุ้นส่วน",
        "นิติบุคคลสำหรับเงินได้ที่ได้จ่ายไปเป็นค่าใช้จ่ายในการฝึกอบรมให้แก่ลูกจ้างของบริษัท หรือ",
        "ห้างหุ้นส่วนนิติบุคคลนั้น"
      ]
    ],
    []
  ],
  "metadata": {
    "date_backmatter": "2539-01-04",
    "date_gz_old": "2539-02-13",
    "doctype": "ประกาศ",
    "editors": [
      {
        "name": "ฐาปนี",
        "role": "แก้ไข",
        "date": "2545-08-01"
      }
    ],
    "tag": "bb08-2e-2539-a002"
  }
}