{
  "pages": [
    [
      [
        "ประกาศอธิบดีกรมสรรพากร",
        "เกี่ยวกับภาษีมูลค่าเพิ่ม (ฉบับที่ ๑๑๒)",
        "เรื่อง กำหนดลักษณะเละวิธีการประกอบกิจการในราชอาณาจักร",
        "เป็นครั้งคราวและกำหนดแบบ หลักเกณฑ์ วิธีการ และเงื่อนไข",
        "การยื่นคำขอจดทะเบียนภาษีมูลค่าเพิ่มชั่วคราวและ",
        "การออกใบทะเบียนภาษีมูลค่าเพิ่มชั่วคราว",
        "ตามมาตรา ๘๕/๓ แห่งประมวลรัษฎากร"
      ]
    ],
    []
  ],
  "metadata": {
    "date_backmatter": "2543-12-08",
    "date_gz_old": "2544-02-13",
    "doctype": "ประกาศ",
    "editors": [
      {
        "name": "อาภาณ์",
        "role": "พิมพ์",
        "date": "2544-10-05"
      }
    ],
    "tag": "bb08-2e-2544-a017"
  }
}