{
  "pages": [
    [
      [
        "คำสั่งกรมสรรพากร",
        "ที่ ท.ป. ๒๑๕/๒๕๕๗",
        "เรื่อง มอบอำนาจให้ผู้อำนวยการสำนักบริหารภาษีธุรกิจขนาดใหญ่สั่งและปฏิบัติราชการ",
        "แทนอธิบดีกรมสรรพากร"
      ]
    ],
    []
  ],
  "metadata": {
    "date_backmatter": "2557-01-14",
    "date_modified": "2557-02-21",
    "date_original": "2557-02-21",
    "editors": [
      {
        "name": "ปริยานุช",
        "role": "ผู้จัดทำ",
        "date": "2557-02-25"
      },
      {
        "name": "อุษมล",
        "role": "ผู้ตรวจ",
        "date": "2557-03-04"
      }
    ],
    "tag": "bb08-2f-2557-a0004"
  }
}