{
  "pages": [
    [
      [
        "พระราชกฤษฎีกา",
        "ออกตามความในประมวลรัษฎากร",
        "ว่าด้วยการยกเว้นรัษฎากร (ฉบับที่ ๑๗๐)",
        "พ.ศ. ๒๕๒๙",
        "----------",
        "ภูมิพลอดุลยเดช ป.ร.",
        "ให้ไว้ ณ วันที่ ๕ มีนาคม พ.ศ. ๒๕๒๙",
        "เป็นปีที่ ๔๑ ในรัชกาลปัจจุบัน"
      ]
    ],
    []
  ],
  "metadata": {
    "date_gz_old": "2529-03-12",
    "date_header": "2529-03-05",
    "doctype": "พระราชกฤษฎีกา",
    "editors": [],
    "tag": "bb08-2a-2529-170",
    "title": "ออกตามความในประมวลรัษฎากรว่าด้วยการยกเว้นรัษฎากร (ฉบับที่ ๑๗๐)พ.ศ. ๒๕๒๙----------ภูมิพลอดุลยเดช ป.ร.ให้ไว้ ณ วันที่ ๕ มีนาคม"
  }
}