{
  "pages": [
    [
      [
        "ประกาศกระทรวงการคลัง",
        "ว่าด้วยภาษีเงินได้และภาษีการค้า (ฉบับที่ ๕๔)",
        "เรื่อง กำหนดองค์การ สถานสาธารณกุศล สถานพยาบาล และสถานศึกษา",
        "ตามมาตรา ๔๗ (๗) (ข) และมาตรา ๗๙ ตรี (๘) (ข) แห่งประมวลรัษฎากร"
      ]
    ],
    []
  ],
  "metadata": {
    "date_backmatter": "2531-11-28",
    "date_modified": "2531-11-29",
    "date_original": "2531-11-29",
    "doctype": "ประกาศ",
    "editors": [
      {
        "name": "มณฑาทิพย์",
        "role": "พิมพ์",
        "date": "2546-09-03"
      },
      {
        "name": "นิลวรรณ",
        "role": "พชร แก้ไข",
        "date": "2546-09-05"
      }
    ],
    "tag": "bb08-2e-2531-a010"
  }
}