{
  "pages": [
    [
      [
        "ประกาศกรมสรรพากร",
        "เกี่ยวกับภาษีเงินได้ (ฉบับที่ ๒๔)",
        "เรื่อง กำหนดกองทุนสวัสดิการภายในส่วนราชการที่จัดตั้งขึ้นตามระเบียบสำนักนายกรัฐมนตรี",
        "ว่าด้วยการจัดสวัสดิการภายในส่วนราชการตามพระราชกฤษฎีกาออกตามความในประมวลรัษฎากร",
        "ว่าด้วยการยกเว้นรัษฎากร (ฉบับที่ ๔๒๔) พ.ศ. ๒๕๔๗ และประกาศอธิบดีกรมสรรพากร",
        "เกี่ยวกับภาษีเงินได้ (ฉบับที่ ๑๓๔) เรื่อง กำหนดหลักเกณฑ์ วิธีการ และเงื่อนไขการยกเว้นภาษีเงินได้",
        "สำหรับการบริจาคให้แก่กองทุนสวัสดิการภายในส่วนราชการ",
        "ลงวันที่ ๒๓ พฤศจิกายน พ.ศ. ๒๕๔๗"
      ]
    ],
    []
  ],
  "metadata": {
    "date_backmatter": "2552-12-22",
    "date_header": "2547-11-23",
    "date_modified": "2553-03-26",
    "date_original": "2553-03-26",
    "doctype": "ประกาศ",
    "editors": [
      {
        "name": "ปริยานุช",
        "role": "พิมพ์",
        "date": "2553-04-07"
      },
      {
        "name": "นันท์นภัสร์",
        "role": "ตรวจ",
        "date": "2553-04-07"
      }
    ],
    "tag": "bb08-2e-2553-a0009"
  }
}