{
  "pages": [
    [
      [
        "พระราชกฤษฎีกา",
        "ออกตามความในประมวลรัษฎากร",
        "ว่าด้วยการกำหนดกิจการที่ได้รับยกเว้นภาษีธุรกิจเฉพาะ (ฉบับที่ ๕๗๒)",
        "พ.ศ. ๒๕๕๖",
        "",
        "",
        "ภูมิพลอดุลยเดช ป.ร.",
        "ให้ไว้ ณ วันที่ ๘ ธันวาคม พ.ศ. ๒๕๕๖",
        "เป็นปีที่ ๖๘ ในรัชกาลปัจจุบัน"
      ]
    ],
    []
  ],
  "metadata": {
    "date_header": "2556-12-08",
    "date_modified": "2556-12-23",
    "date_original": "2556-12-23",
    "doctype": "พระราชกฤษฎีกา",
    "editors": [
      {
        "name": "ปริยานุช",
        "role": "ผู้จัดทำ",
        "date": "2557-05-06"
      },
      {
        "name": "เอกฤทธิ์",
        "role": "ผู้ตรวจ",
        "date": "2557-05-07"
      }
    ],
    "tag": "bb08-2a-2556-a0015",
    "title": "ออกตามความในประมวลรัษฎากรว่าด้วยการกำหนดกิจการที่ได้รับยกเว้นภาษีธุรกิจเฉพาะ (ฉบับที่ ๕๗๒)"
  }
}