{
  "pages": [
    [
      [
        "ประกาศอธิบดีกรมสรรพากร",
        "เกี่ยวกับภาษีมูลค่าเพิ่ม (ฉบับที่ ๑๙๐)",
        "เรื่อง กำหนดลักษณะและเงื่อนไขของการประกอบกิจการขายสินค้าหรือให้บริการรายย่อย",
        "การออกใบกำกับภาษีของผู้ประกอบการจดทะเบียน ตามมาตรา ๘๖/๘ แห่งประมวลรัษฎากร",
        "และการเก็บรักษารายงาน ตามมาตรา ๘๗/๓ แห่งประมวลรัษฎากร"
      ]
    ],
    []
  ],
  "metadata": {
    "date_backmatter": "2556-01-02",
    "date_modified": "2556-02-15",
    "date_original": "2556-02-15",
    "doctype": "ประกาศ",
    "editors": [
      {
        "name": "ปริยานุช",
        "role": "ผู้จัดทำ",
        "date": "2556-02-19"
      },
      {
        "name": "อุษมล",
        "role": "ผู้ตรวจ",
        "date": "2556-02-28"
      }
    ],
    "tag": "bb08-2e-2556-a0015"
  }
}