{
  "pages": [
    [
      [
        "ประกาศอธิบดีกรมสรรพากร",
        "เกี่ยวกับภาษีมูลค่าเพิ่ม (ฉบับที่ ๑๒)",
        "เรื่อง กำหนดสาขาและลักษณะการประกอบกิจการ การให้บริการวิจัย",
        "หรือการให้บริการทางวิชาการ ตามมาตรา ๘๑ (๑) (ฎ)",
        "แห่งประมวลรัษฎากร"
      ]
    ],
    []
  ],
  "metadata": {
    "date_backmatter": "2534-12-27",
    "date_gz_old": "2535-05-25",
    "doctype": "ประกาศ",
    "editors": [
      {
        "name": "จารุวรรณ",
        "role": "แก้ไข",
        "date": "2545-09-18"
      }
    ],
    "tag": "bb08-2e-2535-a031"
  }
}