{
  "pages": [
    [
      [
        "พระราชกฤษฎีกา",
        "ออกตามความในประมวลรัษฎากร",
        "ว่าด้วยการยกเว้นรัษฎากร (ฉบับที่ ๔๘๓)",
        "พ.ศ. ๒๕๕๒",
        "",
        "",
        "ภูมิพลอดุลยเดช ป.ร.",
        "ให้ไว้ ณ วันที่ ๑๗ พฤษภาคม พ.ศ. ๒๕๕๒",
        "เป็นปีที่ ๖๔ ในรัชกาลปัจจุบัน"
      ]
    ],
    []
  ],
  "metadata": {
    "date_header": "2552-05-17",
    "date_modified": "2552-05-18",
    "date_original": "2552-05-18",
    "doctype": "พระราชกฤษฎีกา",
    "editors": [
      {
        "name": "ปริยานุช",
        "role": "ผู้จัดทำ",
        "date": "2552-05-19"
      }
    ],
    "tag": "bb08-2a-2552-a0004",
    "title": "ออกตามความในประมวลรัษฎากรว่าด้วยการยกเว้นรัษฎากร (ฉบับที่ ๔๘๓)"
  }
}