{
  "pages": [
    [
      [
        "กฎกระทรวง",
        "ฉบับที่ ๓๐๓ (พ.ศ. ๒๕๕๗)",
        "ออกตามความในประมวลรัษฎากร",
        "ว่าด้วยการยกเว้นรัษฎากร"
      ]
    ],
    []
  ],
  "metadata": {
    "date_backmatter": "2557-03-04",
    "date_modified": "2557-03-12",
    "date_original": "2557-03-12",
    "doctype": "กฎกระทรวง",
    "editors": [
      {
        "name": "ปริยานุช",
        "role": "ผู้จัดทำ",
        "date": "2557-03-25"
      },
      {
        "name": "ณัฐพร",
        "role": "ผู้ตรวจ",
        "date": "2557-03-25"
      }
    ],
    "tag": "bb08-2b-2557-a0001"
  }
}