{
  "pages": [
    [
      [
        "พระราชกฤษฎีกา",
        "ออกตามความในประมวลรัษฎากร",
        "ว่าด้วยการยกเว้นรัษฎากร (ฉบับที่ ๑๖๖)",
        "พ.ศ. ๒๕๒๙",
        "----------",
        "ภูมิพลอดุลยเดช ป.ร.",
        "ให้ไว้ ณ วันที่ ๒๘ มกราคม พ.ศ. ๒๕๒๙",
        "เป็นปีที่ ๔๑ ในรัชกาลปัจจุบัน"
      ]
    ],
    []
  ],
  "metadata": {
    "date_gz_old": "2529-01-31",
    "date_header": "2529-01-28",
    "doctype": "พระราชกฤษฎีกา",
    "editors": [],
    "tag": "bb08-2a-2529-166",
    "title": "ออกตามความในประมวลรัษฎากรว่าด้วยการยกเว้นรัษฎากร (ฉบับที่ ๑๖๖)พ.ศ. ๒๕๒๙----------ภูมิพลอดุลยเดช ป.ร.ให้ไว้ ณ วันที่ ๒๘ มกราคม"
  }
}