{
  "pages": [
    [
      [
        "คำสั่งกรมสรรพากร",
        "ที่ ท.ป. ๑๒๘/๒๕๔๖",
        "เรื่อง กำหนดสถานที่รับแบบแสดงรายการและรับชำระเงินภาษีอากร",
        "ตามประมวลรัษฎากร"
      ]
    ],
    []
  ],
  "metadata": {
    "date_backmatter": "2546-06-12",
    "date_modified": "2546-07-31",
    "date_original": "2546-07-31",
    "editors": [
      {
        "name": "พรพิมล",
        "role": "พิมพ์",
        "date": "2546-10-24"
      },
      {
        "name": "พรพิมล",
        "role": "แก้ไข",
        "date": "2546-10-29"
      },
      {
        "name": "อรรถชัย/นิลวรรณ",
        "role": "ตรวจ",
        "date": "2546-11-03"
      }
    ],
    "tag": "bb08-2f-2546-a0008"
  }
}