{
  "pages": [
    [
      [
        "ประกาศอธิบดีกรมสรรพากร",
        "เกี่ยวกับภาษีเงินได้ (ฉบับที่ ๒๓๘)",
        "เรื่อง กำหนดหลักเกณฑ์และวิธีการการหักลดหย่อนสำหรับดอกเบี้ยเงินกู้ยืม",
        "ตามมาตรา ๔๗ (๑) (ซ) แห่งประมวลรัษฎากร"
      ]
    ],
    []
  ],
  "metadata": {
    "date_backmatter": "2556-02-13",
    "date_modified": "2556-03-18",
    "date_original": "2556-03-18",
    "doctype": "ประกาศ",
    "editors": [
      {
        "name": "ปริยานุช",
        "role": "ผู้จัดทำ",
        "date": "2556-03-20"
      },
      {
        "name": "โชติกานต์",
        "role": "ผู้ตรวจ",
        "date": "2556-04-18"
      }
    ],
    "tag": "bb08-2e-2556-a0040"
  }
}