{
  "pages": [
    [
      [
        "ประกาศอธิบดีกรมสรรพากร",
        "เกี่ยวกับอากรแสตมป์ (ฉบับที่ ๓๘)",
        "เรื่อง กำหนดวิธีการชำระอากรเป็นตัวเงินแทนการปิดแสตมป์อากร",
        "สำหรับตราสารบางลักษณะ"
      ]
    ],
    []
  ],
  "metadata": {
    "date_backmatter": "2540-03-20",
    "date_gz_old": "2540-05-01",
    "doctype": "ประกาศ",
    "editors": [],
    "tag": "bb08-2e-2540-020"
  }
}