{
  "pages": [
    [
      [
        "คำสั่งกรมสรรพากร",
        "ที่ ป. ๕๙/๒๕๓๘",
        "เรื่อง ภาษีเงินได้บุคคลธรรมดา กรณีค่าเบี้ยเลี้ยงเดินทางที่ได้รับยกเว้น",
        "ไม่ต้องรวมคำนวณเพื่อเสียภาษีเงินได้บุคคลธรรมดา",
        "ตามมาตรา ๔๒ (๑) แห่งประมวลรัษฎากร"
      ]
    ],
    []
  ],
  "metadata": {
    "date_backmatter": "2539-12-26",
    "date_gz_old": "2539-02-22",
    "editors": [
      {
        "name": "ฐาปนี",
        "role": "แก้ไข",
        "date": "2545-07-31"
      }
    ],
    "tag": "bb08-2f-2539-a005"
  }
}