{
  "pages": [
    [
      [
        "ประกาศอธิบดีกรมสรรพากร",
        "เกี่ยวกับภาษีเงินได้ (ฉบับที่ ๒๒๓)",
        "เรื่อง กำหนดหลักเกณฑ์ วิธีการ และเงื่อนไข เพื่อการยกเว้นภาษีเงินได้",
        "สำหรับเงินหรือผลประโยชน์ใด ๆ ที่ได้รับจากกองทุนสำรองเลี้ยงชีพ",
        "ตามกฎหมายว่าด้วยกองทุนสำรองเลี้ยงชีพ"
      ]
    ],
    []
  ],
  "metadata": {
    "date_backmatter": "2555-10-25",
    "date_modified": "2556-01-11",
    "date_original": "2556-01-11",
    "doctype": "ประกาศ",
    "editors": [
      {
        "name": "ปริยานุช",
        "role": "ผู้จัดทำ",
        "date": "2556-01-14"
      },
      {
        "name": "อุษมล",
        "role": "ผู้ตรวจ",
        "date": "2556-01-14"
      }
    ],
    "tag": "bb08-2e-2556-a0010"
  }
}