{
  "pages": [
    [
      [
        "ประกาศอธิบดีกรมสรรพากร",
        "เกี่ยวกับภาษีการค้า (ฉบับที่ ๕๕)",
        "เรื่อง กำหนดหลักเกณฑ์และเงื่อนไขในการกำหนดรายรับขั้นต่ำ",
        "สำหรับผู้ประกอบการค้าตามประเภทการค้า ๕. ชนิด ๑ (ข)",
        "แห่งบัญชีอัตราภาษีการค้า กรณีการให้เช่ารถยนต์รับจ้าง",
        "สาธารณะโดยสารไม่เกิน ๗ คน"
      ]
    ],
    []
  ],
  "metadata": {
    "date_backmatter": "2534-10-24",
    "date_gz_old": "2534-10-31",
    "doctype": "ประกาศ",
    "editors": [
      {
        "name": "เพ็ญพร/พิมพ์",
        "role": "แก้ไข",
        "date": "2545-09-26"
      }
    ],
    "tag": "bb08-2e-2534-a010"
  }
}