{
  "pages": [
    [
      [
        "ประกาศอธิบดีกรมสรรพากร",
        "เกี่ยวกับภาษีมูลค่าเพิ่ม (ฉบับที่ ๑๑๗)",
        "เรื่อง กำหนดลักษณะ และเงื่อนไขค่าตอบแทนที่ไม่ต้องนำมารวมคำนวณ",
        "มูลค่าของฐานภาษี ตามมาตรา ๗๙ (๔) แห่งประมวลรัษฎากร"
      ]
    ],
    []
  ],
  "metadata": {
    "date_backmatter": "2544-08-17",
    "date_gz_old": "2544-09-14",
    "doctype": "ประกาศ",
    "editors": [
      {
        "name": "ภคินี",
        "role": "แก้ไข",
        "date": "2545-05-08"
      }
    ],
    "tag": "bb08-2e-2544-a030"
  }
}