{
  "pages": [
    [
      [
        "ประกาศอธิบดีกรมสรรพากร",
        "เกี่ยวกับภาษีมูลค่าเพิ่ม (ฉบับที่ ๗)",
        "เรื่อง กำหนดลักษณะ และเงื่อนไขของการประกอบกิจการ",
        "ขายสินค้าหรือให้บริการรายย่อย และการออกใบกำกับ",
        "ภาษีของผู้ประกอบการจดทะเบียน ตามมาตรา ๘๖ / ๘",
        "แห่งประมวลรัษฎากร"
      ]
    ],
    []
  ],
  "metadata": {
    "date_backmatter": "2534-12-25",
    "date_gz_old": "2535-05-25",
    "doctype": "ประกาศ",
    "editors": [
      {
        "name": "ธิดาวรรณ",
        "role": "แก้ไข",
        "date": "2545-09-16"
      }
    ],
    "tag": "bb08-2e-2535-a037"
  }
}