{
  "pages": [
    [
      [
        "พระราชกฤษฎีกา",
        "ออกตามความในประมวลรัษฎากร",
        "ว่าด้วยการกำหนดค่าใช้จ่ายที่ยอมให้หักจากเงินได้",
        "พึงประเมิน (ฉบับที่ ๗๐)",
        "พ.ศ. ๒๕๒๐",
        "------------------",
        "ภูมิพลอดุลยเดช ป.ร.",
        "ให้ไว้ ณ วันที่ ๑๙ ตุลาคม พ.ศ. ๒๕๒๐",
        "เป็นปีที่ ๓๒ ในรัชกาลปัจจุบัน"
      ]
    ],
    []
  ],
  "metadata": {
    "date_header": "2520-10-19",
    "doctype": "พระราชกฤษฎีกา",
    "editors": [],
    "tag": "bb08-2a-2520-070",
    "title": "ออกตามความในประมวลรัษฎากรว่าด้วยการกำหนดค่าใช้จ่ายที่ยอมให้หักจากเงินได้พึงประเมิน (ฉบับที่ ๗๐)พ.ศ. ๒๕๒๐------------------ภูมิพลอดุลยเดช ป.ร.ให้ไว้ ณ วันที่ ๑๙ ตุลาคม"
  }
}