{
  "pages": [
    [
      [
        "คำสั่งกรมสรรพากร",
        "ที่ ป. ๕๐/๒๕๓๗",
        "เรื่อง แนวทางการพิจารณา “เหตุอันสมควร” กรณีแสดงประมาณการ",
        "กำไรสุทธิขาดไป ตามมาตรา ๖๗ ตรี แห่งประมวลรัษฎากร"
      ]
    ],
    []
  ],
  "metadata": {
    "date_backmatter": "2537-08-31",
    "date_modified": "2558-10-22",
    "date_original": "2537-09-28",
    "editors": [
      {
        "name": "วริญา",
        "role": "จัดทำ",
        "date": "2558-10-26"
      },
      {
        "name": "นุสรา",
        "role": "ตรวจ",
        "date": "2559-01-25"
      }
    ],
    "tag": "bb08-2f-9995-update"
  }
}