{
  "pages": [
    [
      [
        "พระราชบัญญัติ",
        "แก้ไขเพิ่มเติมบทบัญญัติแห่งกฎหมาย",
        "ที่เกี่ยวกับความรับผิดในทางอาญาของผู้แทนนิติบุคคล",
        "พ.ศ. ๒๕๖๐",
        "",
        "",
        "สมเด็จพระเจ้าอยู่หัวมหาวชิราลงกรณ บดินทรเทพยวรางกูร",
        "ให้ไว้ ณ วันที่ ๑๐ กุมภาพันธ์ พ.ศ. ๒๕๖๐",
        "เป็นปีที่ ๒ ในรัชกาลปัจจุบัน",
        "",
        "สมเด็จพระเจ้าอยู่หัวมหาวชิราลงกรณ บดินทรเทพยวรางกูร มีพระราชโองการโปรดเกล้าฯ ให้ประกาศว่า",
        "",
        "โดยที่เป็นการสมควรแก้ไขเพิ่มเติมบทบัญญัติแห่งกฎหมายที่เกี่ยวกับความรับผิดในทางอาญาของผู้แทนนิติบุคคล",
        "",
        "จึงทรงพระกรุณาโปรดเกล้าฯ ให้ตราพระราชบัญญัติขึ้นไว้โดยคำแนะนำและยินยอมของสภานิติบัญญัติแห่งชาติ ดังต่อไปนี้",
        "",
        "มาตรา ๑ พระราชบัญญัตินี้เรียกว่า “พระราชบัญญัติแก้ไขเพิ่มเติมบทบัญญัติแห่งกฎหมายที่เกี่ยวกับความรับผิดในทางอาญาของผู้แทนนิติบุคคล พ.ศ. ๒๕๖๐”",
        "",
        "มาตรา ๒ พระราชบัญญัตินี้ให้ใช้บังคับตั้งแต่วันถัดจากวันประกาศในราชกิจจานุเบกษาเป็นต้นไป",
        "",
        "มาตรา ๓ ให้ยกเลิกความในมาตราแห่งประมวลกฎหมาย พระราชบัญญัติและพระราชกำหนด จำนวนเจ็ดสิบหกฉบับ ดังต่อไปนี้ และให้ใช้ความตามที่ปรากฏในบัญชีท้ายพระราชบัญญัตินี้แทนตามลำดับ",
        "(๑) มาตรา ๑๒ จัตวา แห่งพระราชบัญญัติควบคุมการขายทอดตลาดและค้าของเก่า พุทธศักราช ๒๔๗ ซึ่งแก้ไขเพิ่มเติมโดยพระราชบัญญัติควบคุมการขายทอดตลาดและค้าของเก่า (ฉบับที่ ๕) พ.ศ. ๒๕๓๕",
        "(๒) มาตรา ๓๕ ทวิ แห่งประมวลรัษฎากร ซึ่งแก้ไขเพิ่มเติมโดยพระราชกำหนดแก้ไขเพิ่มเติมประมวลรัษฎากร (ฉบับที่ ๑๑) พ.ศ. ๒๕๒๕ และมาตรา ๙๐/๕ แห่งประมวลรัษฎากร ซึ่งแก้ไขเพิ่มเติมโดยพระราชบัญญัติแก้ไขเพิ่มเติมประมวลรัษฎากร (ฉบับที่ ๓๐) พ.ศ. ๒๕๓๔",
        "(๓) มาตรา ๖๒ ตรี แห่งพระราชบัญญัติเรือไทย พุทธศักราช ๒๔๘๑ ซึ่งแก้ไขเพิ่มเติมโดยพระราชบัญญัติเรือไทย (ฉบับที่ ๕) พ.ศ. ๒๕๓๔",
        "(๔) มาตรา ๑๑๘ แห่งพระราชบัญญัติการเดินอากาศ พ.ศ. ๒๔๙๗ ซึ่งแก้ไขเพิ่มเติมโดยพระราชบัญญัติการเดินอากาศ (ฉบับที่ ๑๑) พ.ศ. ๒๕๕๑",
        "(๕) มาตรา ๒๕ แห่งพระราชบัญญัติกำหนดความผิดเกี่ยวกับห้างหุ้นส่วนจดทะเบียน ห้างหุ้นส่วนจำกัด บริษัทจำกัด สมาคม และมูลนิธิ พ.ศ. ๒๔๙๙ ซึ่งแก้ไขเพิ่มเติมโดยพระราชบัญญัติกำหนดความผิดเกี่ยวกับห้างหุ้นส่วนจดทะเบียน ห้างหุ้นส่วนจำกัด บริษัทจำกัด สมาคม และมูลนิธิ (ฉบับที่ ๒) พ.ศ. ๒๕๓๕",
        "(๖) มาตรา ๒๘/๔ แห่งพระราชบัญญัติสถานบริการ พ.ศ. ๒๕๐๙ ซึ่งแก้ไขเพิ่มเติมโดยพระราชบัญญัติสถานบริการ (ฉบับที่ ๔) พ.ศ. ๒๕๔๖",
        "(๗) มาตรา ๓๙ ทวิ แห่งพระราชบัญญัติภาษีป้าย พ.ศ. ๒๕๑๐ ซึ่งแก้ไขเพิ่มเติมโดยพระราชบัญญัติภาษีป้าย (ฉบับที่ ๒) พ.ศ. ๒๕๓๔",
        "(๘) มาตรา ๓๓ แห่งพระราชบัญญัติองค์การสงเคราะห์ทหารผ่านศึก พ.ศ. ๒๕๑๐",
        "(๙) มาตรา ๗๖ แห่งพระราชบัญญัติภาษีเงินได้ปิโตรเลียม พ.ศ. ๒๕๑๔",
        "(๑๐) มาตรา ๗๒/๕ แห่งพระราชบัญญัติปุ๋ย พ.ศ. ๒๕๑๘ ซึ่งแก้ไขเพิ่มเติมโดยพระราชบัญญัติปุ๋ย (ฉบับที่ ๒) พ.ศ. ๒๕๕๐",
        "(๑๑) มาตรา ๘๓ แห่งพระราชบัญญัติคนเข้าเมือง พ.ศ. ๒๕๒๒",
        "(๑๒) มาตรา ๘๘ แห่งพระราชบัญญัติสิทธิบัตร พ.ศ. ๒๕๒๒",
        "(๑๓) มาตรา ๓๘ แห่งพระราชบัญญัติการรับเด็กเป็นบุตรบุญธรรม พ.ศ. ๒๕๒๒",
        "(๑๔) มาตรา ๗๑ แห่งพระราชบัญญัติอาคารชุด พ.ศ. ๒๕๒๒ ซึ่งแก้ไขเพิ่มเติมโดยพระราชบัญญัติอาคารชุด (ฉบับที่ ๔) พ.ศ. ๒๕๕๑",
        "(๑๕) มาตรา ๕๙ แห่งพระราชบัญญัติคุ้มครองผู้บริโภค พ.ศ. ๒๕๒๒",
        "(๑๖) มาตรา ๗๒ แห่งพระราชบัญญัติควบคุมอาคาร พ.ศ. ๒๕๒๒",
        "(๑๗) มาตรา ๓๒ แห่งพระราชบัญญัติชดเชยค่าภาษีอากรสินค้าส่งออกที่ผลิตในราชอาณาจักร พ.ศ. ๒๕๒๔",
        "(๑๘) มาตรา ๒๓ แห่งพระราชกำหนดควบคุมสินค้าตามชายแดน พ.ศ. ๒๕๒๔",
        "(๑๙) มาตรา ๗๖ แห่งพระราชบัญญัติอ้อยและน้ำตาลทราย พ.ศ. ๒๕๒๗",
        "(๒๐) มาตรา ๑๕ แห่งพระราชกำหนดการกู้ยืมเงินที่เป็นการฉ้อโกงประชาชน พ.ศ. ๒๕๒๗ ซึ่งแก้ไขเพิ่มเติมโดยพระราชบัญญัติแก้ไขเพิ่มเติมพระราชกำหนดการกู้ยืมเงินที่เป็นการฉ้อโกงประชาชน พ.ศ. ๒๕๒๗ (ฉบับที่ ๒) พ.ศ. ๒๕๔๕",
        "(๒๑) มาตรา ๙๒ แห่งพระราชบัญญัติจัดหางานและคุ้มครองคนหางาน พ.ศ. ๒๕๒๘",
        "(๒๒) มาตรา ๔๑ แห่งพระราชบัญญัติกองทุนสำรองเลี้ยงชีพ พ.ศ. ๒๕๓๐",
        "(๒๓) มาตรา ๑๐๑ แห่งพระราชบัญญัติประกันสังคม พ.ศ. ๒๕๓๓",
        "(๒๔) มาตรา ๒๖ แห่งพระราชบัญญัติการเล่นแชร์ พ.ศ. ๒๕๓๔",
        "(๒๕) มาตรา ๔๘/๑ แห่งพระราชบัญญัติการทะเบียนราษฎร พ.ศ. ๒๕๓๔ ซึ่งแก้ไขเพิ่มเติมโดยพระราชบัญญัติการทะเบียนราษฎร (ฉบับที่ ๒) พ.ศ. ๒๕๕๑ และมาตรา ๔๙ แห่งพระราชบัญญัติการทะเบียนราษฎร พ.ศ. ๒๕๓๔",
        "(๒๖) มาตรา ๕๙ แห่งพระราชบัญญัติสงวนและคุ้มครองสัตว์ป่า พ.ศ. ๒๕๓๕",
        "(๒๗) มาตรา ๖๐ แห่งพระราชบัญญัติการส่งเสริมการอนุรักษ์พลังงาน พ.ศ. ๒๕๓๕",
        "(๒๘) มาตรา ๑๑๑ แห่งพระราชบัญญัติส่งเสริมและรักษาคุณภาพสิ่งแวดล้อมแห่งชาติ พ.ศ. ๒๕๓๕",
        "(๒๙) มาตรา ๘๗/๒ แห่งพระราชบัญญัติวัตถุอันตราย พ.ศ. ๒๕๓๕ ซึ่งแก้ไขเพิ่มเติมโดยพระราชบัญญัติวัตถุอันตราย (ฉบับที่ ๓) พ.ศ. ๒๕๕๑",
        "(๓๐) มาตรา ๖๓ แห่งพระราชบัญญัติโรงงาน พ.ศ. ๒๕๓๕",
        "(๓๑) มาตรา ๑๑๔ แห่งพระราชบัญญัติประกันชีวิต พ.ศ. ๒๕๓๕ ซึ่งแก้ไขเพิ่มเติมโดยพระราชบัญญัติประกันชีวิต (ฉบับที่ ๒) พ.ศ. ๒๕๕๑",
        "(๓๒) มาตรา ๑๐๘ แห่งพระราชบัญญัติประกันวินาศภัย พ.ศ. ๒๕๓๕ ซึ่งแก้ไขเพิ่มเติมโดยพระราชบัญญัติประกันวินาศภัย (ฉบับที่ ๒) พ.ศ. ๒๕๕๑",
        "(๓๓) มาตรา ๓๙ แห่งพระราชบัญญัติสภาผู้ส่งสินค้าทางเรือแห่งประเทศไทย พ.ศ. ๒๕๓๗",
        "(๓๔) มาตรา ๗๔ แห่งพระราชบัญญัติลิขสิทธิ์ พ.ศ. ๒๕๓๗",
        "(๓๕) มาตรา ๘๙ แห่งพระราชบัญญัติกองทุนบำเหน็จบำนาญข้าราชการ พ.ศ. ๒๕๓๙",
        "(๓๖) มาตรา ๑๓ แห่งพระราชกำหนดบริษัทบริหารสินทรัพย์ พ.ศ. ๒๕๔๑ ซึ่งแก้ไขเพิ่มเติมโดยพระราชบัญญัติแก้ไขเพิ่มเติมพระราชกำหนดบริษัทบริหารสินทรัพย์ พ.ศ. ๒๕๔๑ พ.ศ. ๒๕๕๐",
        "(๓๗) มาตรา ๔๒ แห่งพระราชบัญญัติว่าด้วยราคาสินค้าและบริการ พ.ศ. ๒๕๔๒",
        "(๓๘) มาตรา ๖๑ แห่งพระราชบัญญัติป้องกันและปราบปรามการฟอกเงิน พ.ศ. ๒๕๔๒",
        "(๓๙) มาตรา ๘๘ แห่งพระราชบัญญัติมาตราชั่งตวงวัด พ.ศ. ๒๕๔๒",
        "(๔๐) มาตรา ๖๙ แห่งพระราชบัญญัติคุ้มครองพันธุ์พืช พ.ศ. ๒๕๔๒",
        "(๔๑) มาตรา ๘๒ แห่งพระราชบัญญัติคุ้มครองและส่งเสริมภูมิปัญญาการแพทย์แผนไทย พ.ศ. ๒๕๔๒",
        "(๔๒) มาตรา ๗๔ แห่งพระราชบัญญัติวิศวกร พ.ศ. ๒๕๔๒",
        "(๔๓) มาตรา ๗๘ แห่งพระราชบัญญัติควบคุมน้ำมันเชื้อเพลิง พ.ศ. ๒๕๔๒",
        "(๔๔) มาตรา ๗๔ แห่งพระราชบัญญัติสถาปนิก พ.ศ. ๒๕๔๓",
        "(๔๕) มาตรา ๔๓ แห่งพระราชบัญญัติการขุดดินและถมดิน พ.ศ. ๒๕๔๓",
        "(๔๖) มาตรา ๔๐ แห่งพระราชบัญญัติการบัญชี พ.ศ. ๒๕๔๓",
        "(๔๗) มาตรา ๕๒ แห่งพระราชบัญญัติคุ้มครองแบบผังภูมิของวงจรรวม พ.ศ. ๒๕๔๓",
        "(๔๘) มาตรา ๖๖ แห่งพระราชบัญญัติการจัดสรรที่ดิน พ.ศ. ๒๕๔๓",
        "(๔๙) มาตรา ๑๘ แห่งพระราชบัญญัติการจัดการหุ้นส่วนและหุ้นของรัฐมนตรี พ.ศ. ๒๕๔๓",
        "(๕๐) มาตรา ๖๐ แห่งพระราชบัญญัติการค้าน้ำมันเชื้อเพลิง พ.ศ. ๒๕๔๓",
        "(๕๑) มาตรา ๘๖ แห่งพระราชบัญญัติการรถไฟฟ้าขนส่งมวลชนแห่งประเทศไทย พ.ศ. ๒๕๔๓",
        "(๕๒) มาตรา ๔๑ แห่งพระราชบัญญัติกองทุนสนับสนุนการสร้างเสริมสุขภาพ พ.ศ. ๒๕๔๔",
        "(๕๓) มาตรา ๗๘ แห่งพระราชบัญญัติการประกอบกิจการโทรคมนาคม พ.ศ. ๒๕๔๔",
        "(๕๔) มาตรา ๔๖ แห่งพระราชบัญญัติว่าด้วยธุรกรรมทางอิเล็กทรอนิกส์ พ.ศ. ๒๕๔๔",
        "(๕๕) มาตรา ๖๔ แห่งพระราชบัญญัติการฌาปนกิจสงเคราะห์ พ.ศ. ๒๕๔๕",
        "(๕๖) มาตรา ๑๓๕ แห่งพระราชบัญญัติสัญญาซื้อขายล่วงหน้า พ.ศ. ๒๕๔๖",
        "(๕๗) มาตรา ๑๑๕ แห่งพระราชบัญญัติสถาบันอุดมศึกษาเอกชน พ.ศ. ๒๕๔๖",
        "(๕๘) มาตรา ๔๒ แห่งพระราชบัญญัติคุ้มครองสิ่งบ่งชี้ทางภูมิศาสตร์ พ.ศ. ๒๕๔๖",
        "(๕๙) มาตรา ๗๒ แห่งพระราชบัญญัติวิชาชีพบัญชี พ.ศ. ๒๕๔๗",
        "(๖๐) มาตรา ๓๖ แห่งพระราชบัญญัติการผลิตผลิตภัณฑ์ซีดี พ.ศ. ๒๕๔๘",
        "(๖๑) มาตรา ๗๗ แห่งพระราชบัญญัติการขนส่งต่อเนื่องหลายรูปแบบ พ.ศ. ๒๕๔๘",
        "(๖๒) มาตรา ๖๐ แห่งพระราชบัญญัติโรงงานผลิตอาวุธของเอกชน พ.ศ. ๒๕๕๐",
        "(๖๓) มาตรา ๑๔๑ แห่งพระราชบัญญัติการประกอบกิจการพลังงาน พ.ศ. ๒๕๕๐",
        "(๖๔) มาตรา ๑๕๓ แห่งพระราชบัญญัติโรงเรียนเอกชน พ.ศ. ๒๕๕๐",
        "(๖๕) มาตรา ๘๐ แห่งพระราชบัญญัติทรัสต์เพื่อธุรกรรมในตลาดทุน พ.ศ. ๒๕๕๐",
        "(๖๖) มาตรา ๕๔ แห่งพระราชบัญญัติองค์การกระจายเสียงและแพร่ภาพสาธารณะแห่งประเทศไทย พ.ศ. ๒๕๕๑",
        "(๖๗) มาตรา ๑๓๒ และมาตรา ๑๓๙ แห่งพระราชบัญญัติธุรกิจสถาบันการเงิน พ.ศ. ๒๕๕๑",
        "(๖๘) มาตรา ๖๒ แห่งพระราชบัญญัติคุ้มครองซากดึกดำบรรพ์ พ.ศ. ๒๕๕๑",
        "(๖๙) มาตรา ๖๕ และมาตรา ๖๖ แห่งพระราชบัญญัติสถาบันคุ้มครองเงินฝาก พ.ศ. ๒๕๕๑",
        "(๗๐) มาตรา ๕๐ แห่งพระราชบัญญัติการดูแลผลประโยชน์ของคู่สัญญา พ.ศ. ๒๕๕๑",
        "(๗๑) มาตรา ๗๖ แห่งพระราชบัญญัติมาตรฐานสินค้าเกษตร พ.ศ. ๒๕๕๑",
        "(๗๒) มาตรา ๕๘ แห่งพระราชบัญญัติการมาตรฐานแห่งชาติ พ.ศ. ๒๕๕๑",
        "(๗๓) มาตรา ๘๕ แห่งพระราชบัญญัติภาพยนตร์และวีดิทัศน์ พ.ศ. ๒๕๕๑",
        "(๗๔) มาตรา ๑๒๒ แห่งพระราชบัญญัติเครื่องมือแพทย์ พ.ศ. ๒๕๕๑",
        "(๗๕) มาตรา ๔๘ แห่งพระราชบัญญัติคุ้มครองผู้รับงานไปทำที่บ้าน พ.ศ. ๒๕๕๓",
        "(๗๖) มาตรา ๖๒ แห่งพระราชบัญญัติกองทุนการออมแห่งชาติ พ.ศ. ๒๕๕๔",
        "",
        "",
        "ผู้รับสนองพระราชโองการ",
        "พลเอก ประยุทธ์ จันทร์โอชา",
        "นายกรัฐมนตรี",
        "",
        "บัญชีท้ายพระราชบัญญัติ",
        "แก้ไขเพิ่มเติมบทบัญญัติแห่งกฎหมายที่เกี่ยวกับความรับผิดในทางอาญาของผู้แทนนิติบุคคล",
        "พ.ศ. ๒๕๖๐",
        "",
        "",
        "๑. พระราชบัญญัติควบคุมการขายทอดตลาดและค้าของเก่า พุทธศักราช ๒๔๗๔",
        "“มาตรา ๑๒ จัตวา ในกรณีที่ผู้กระทำความผิดเป็นนิติบุคคล ถ้าการกระทำความผิดของนิติบุคคลนั้นเกิดจากการสั่งการหรือการกระทำของกรรมการ หรือผู้จัดการ หรือบุคคลใดซึ่งรับผิดชอบในการดำเนินงานของนิติบุคคลนั้น หรือในกรณีที่บุคคลดังกล่าวมีหน้าที่ต้องสั่งการหรือกระทำการและละเว้นไม่สั่งการหรือไม่กระทำการจนเป็นเหตุให้นิติบุคคลนั้นกระทำความผิด ผู้นั้นต้องรับโทษตามที่บัญญัติไว้สำหรับความผิดนั้น ๆ ด้วย”",
        "",
        "๒. ประมวลรัษฎากร",
        "“มาตรา ๓๕ ทวิ ผู้ใดฝ่าฝืนมาตรา ๑๒ ทวิ ต้องระวางโทษจำคุกไม่เกินสองปี และปรับไม่เกินสองแสนบาท",
        "ในกรณีที่ผู้กระทำความผิดตามวรรคหนึ่งเป็นนิติบุคคล ถ้าการกระทำความผิดของนิติบุคคลนั้นเกิดจากการสั่งการหรือการกระทำของกรรมการ หรือผู้จัดการ หรือบุคคลใดซึ่งรับผิดชอบในการดำเนินงานของนิติบุคคลนั้น หรือในกรณีที่บุคคลดังกล่าวมีหน้าที่ต้องสั่งการหรือกระทำการและละเว้นไม่สั่งการหรือไม่กระทำการจนเป็นเหตุให้นิติบุคคลนั้นกระทำความผิด ผู้นั้นต้องรับโทษตามที่บัญญัติไว้ในวรรคหนึ่งด้วย”",
        "",
        "“มาตรา ๙๐/๕ ในกรณีที่ผู้กระทำความผิดตามหมวดนี้เป็นนิติบุคคล ถ้าการกระทำความผิดของนิติบุคคลนั้นเกิดจากการสั่งการหรือการกระทำของกรรมการหรือผู้จัดการ หรือบุคคลใดซึ่งรับผิดชอบในการดำเนินงานของนิติบุคคลนั้น หรือในกรณีที่บุคคลดังกล่าวมีหน้าที่ต้องสั่งการหรือกระทำการและละเว้นไม่สั่งการหรือไม่กระทำการจนเป็นเหตุให้นิติบุคคลนั้นกระทำความผิด ผู้นั้นต้องรับโทษตามที่บัญญัติไว้สำหรับความผิดนั้น ๆ ด้วย”",
        "",
        "๓. พระราชบัญญัติเรือไทย พุทธศักราช ๒๔๘๑",
        "“มาตรา ๖๒ ตรี ในกรณีที่ผู้กระทำความผิดตามมาตรา ๖๒ ทวิ เป็นนิติบุคคล ถ้าการกระทำความผิดของนิติบุคคลนั้นเกิดจากการสั่งการหรือการกระทำของกรรมการ หรือผู้จัดการ หรือบุคคลใดซึ่งรับผิดชอบในการดำเนินงานของนิติบุคคลนั้นหรือในกรณีที่บุคคลดังกล่าวมีหน้าที่ต้องสั่งการหรือกระทำการและละเว้นไม่สั่งการหรือไม่กระทำการจนเป็นเหตุให้นิติบุคคลนั้นกระทำความผิด ผู้นั้นต้องรับโทษตามที่บัญญัติไว้ในมาตรา ๖๒ ทวิ ด้วย”",
        "",
        "๔. พระราชบัญญัติการเดินอากาศ พ.ศ. ๒๔๙๗",
        "“มาตรา ๑๑๘ ในกรณีที่ผู้กระทำความผิดเป็นนิติบุคคล ถ้าการกระทำความผิดของนิติบุคคลนั้นเกิดจากการสั่งการหรือการกระทำของกรรมการ หรือผู้จัดการหรือบุคคลใดซึ่งรับผิดชอบในการดำเนินงานของนิติบุคคลนั้น หรือในกรณีที่บุคคลดังกล่าวมีหน้าที่ต้องสั่งการหรือกระทำการและละเว้นไม่สั่งการหรือไม่กระทำการจนเป็นเหตุให้นิติบุคคลนั้นกระทำความผิด ผู้นั้นต้องรับโทษตามที่บัญญัติไว้สำหรับความผิดนั้น ๆ ด้วย”",
        "",
        "๕. พระราชบัญญัติกำหนดความผิดเกี่ยวกับห้างหุ้นส่วนจดทะเบียน ห้างหุ้นส่วนจำกัด บริษัทจำกัด สมาคม และมูลนิธิ พ.ศ. ๒๔๙๙",
        "“มาตรา ๒๕ ในกรณีที่บริษัทจำกัดใดกระทำความผิดตามมาตรา ๗ ถึงมาตรา ๒๔ ถ้าการกระทำความผิดของบริษัทจำกัดนั้นเกิดจากการสั่งการหรือการกระทำของกรรมการ หรือผู้จัดการ หรือบุคคลใดซึ่งรับผิดชอบในการดำเนินงานของบริษัทจำกัดนั้นหรือในกรณีที่บุคคลดังกล่าวมีหน้าที่ต้องสั่งการหรือกระทำการและละเว้นไม่สั่งการหรือไม่กระทำการจนเป็นเหตุให้บริษัทจำกัดนั้นกระทำความผิด ผู้นั้นต้องระวางโทษปรับไม่เกินห้าหมื่นบาท”",
        "",
        "๖. พระราชบัญญัติสถานบริการ พ.ศ. ๒๕๐๙",
        "“มาตรา ๒๘/๔ ในกรณีที่ผู้กระทำความผิดเป็นนิติบุคคล ถ้าการกระทำความผิดของนิติบุคคลนั้นเกิดจากการสั่งการหรือการกระทำของกรรมการ หรือผู้จัดการ หรือบุคคลใดซึ่งรับผิดชอบในการดำเนินงานของนิติบุคคลนั้น หรือในกรณีที่บุคคลดังกล่าวมีหน้าที่ต้องสั่งการหรือกระทำการและละเว้นไม่สั่งการหรือไม่กระทำการจนเป็นเหตุให้นิติบุคคลนั้นกระทำความผิด ผู้นั้นต้องรับโทษตามที่บัญญัติไว้สำหรับความผิดนั้น ๆ ด้วย”",
        "",
        "๗. พระราชบัญญัติภาษีป้าย พ.ศ. ๒๕๑๐",
        "“มาตรา ๓๙ ทวิ ในกรณีที่ผู้กระทำความผิดเป็นนิติบุคคล ถ้าการกระทำความผิดของนิติบุคคลนั้นเกิดจากการสั่งการหรือการกระทำของกรรมการ หรือผู้จัดการ หรือบุคคลใดซึ่งรับผิดชอบในการดำเนินงานของนิติบุคคลนั้น หรือในกรณีที่บุคคลดังกล่าวมีหน้าที่ต้องสั่งการหรือกระทำการและละเว้นไม่สั่งการหรือไม่กระทำการจนเป็นเหตุให้นิติบุคคลนั้นกระทำความผิด ผู้นั้นต้องรับโทษตามที่บัญญัติไว้สำหรับความผิดนั้น ๆ ด้วย”",
        "",
        "๘. พระราชบัญญัติองค์การสงเคราะห์ทหารผ่านศึก พ.ศ. ๒๕๑๐",
        "“มาตรา ๓๓ ผู้ใดมิใช่ในกิจการของ อผศ. หรือโดยมิได้รับอนุญาตเป็นหนังสือจาก อผศ. ใช้ชื่อหรือถ้อยคำในประการที่น่าจะทำให้ประชาชนเข้าใจว่าเป็นกิจการของ อผศ. หรือเกี่ยวเนื่องกับกิจการของ อผศ. ต้องระวางโทษจำคุกไม่เกินหนึ่งปี หรือปรับไม่เกินสองพันบาทหรือทั้งจำทั้งปรับ",
        "นิติบุคคลใดมิใช่กระทรวง ทบวง กรม หรือโดยมิได้รับอนุญาตเป็นหนังสือจาก อผศ. ใช้คำว่า “อผศ.” “ทหารผ่านศึก” “ผ่านศึก” “นอกประจำการ” หรือคำว่า“ทหาร” เป็นชื่อหรือประกอบชื่อของนิติบุคคลนั้น ถ้าการกระทำความผิดของนิติบุคคลนั้นเกิดจากการสั่งการหรือการกระทำของกรรมการ หรือผู้จัดการ หรือบุคคลใดซึ่งรับผิดชอบในการดำเนินงานของนิติบุคคลนั้น หรือในกรณีที่บุคคลดังกล่าวมีหน้าที่ต้องสั่งการหรือกระทำการและละเว้นไม่สั่งการหรือไม่กระทำการจนเป็นเหตุให้นิติบุคคลนั้นกระทำความผิดผู้นั้นต้องรับโทษตามที่บัญญัติไว้ในวรรคหนึ่งด้วย”",
        "",
        "๙. พระราชบัญญัติภาษีเงินได้ปิโตรเลียม พ.ศ. ๒๕๑๔",
        "“มาตรา ๗๖ ในกรณีที่บริษัทใดกระทำความผิด ถ้าการกระทำความผิดของบริษัทนั้นเกิดจากการสั่งการหรือการกระทำของกรรมการ หรือผู้จัดการ หรือบุคคลใด ซึ่งรับผิดชอบในการดำเนินงานของบริษัทนั้น หรือในกรณีที่บุคคลดังกล่าวมีหน้าที่ต้องสั่งการหรือกระทำการและละเว้นไม่สั่งการหรือไม่กระทำการจนเป็นเหตุให้บริษัทนั้นกระทำความผิด ผู้นั้นต้องรับโทษตามที่บัญญัติไว้สำหรับความผิดนั้น ๆ ด้วย”",
        "",
        "๑๐. พระราชบัญญัติปุ๋ย พ.ศ. ๒๕๑๘",
        "“มาตรา ๗๒/๕ ในกรณีที่ผู้กระทำความผิดเป็นนิติบุคคล เว้นแต่กรณีตามมาตรา ๗๒/๒ ถ้าการกระทำความผิดของนิติบุคคลนั้นเกิดจากการสั่งการหรือการกระทำของกรรมการ หรือผู้จัดการ หรือบุคคลใดซึ่งรับผิดชอบในการดำเนินงานของนิติบุคคลนั้น หรือในกรณีที่บุคคลดังกล่าวมีหน้าที่ต้องสั่งการหรือกระทำการและละเว้นไม่สั่งการหรือไม่กระทำการจนเป็นเหตุให้นิติบุคคลนั้นกระทำความผิด ผู้นั้นต้องรับโทษตามที่บัญญัติไว้สำหรับความผิดนั้น ๆ ด้วย”",
        "",
        "๑๑. พระราชบัญญัติคนเข้าเมือง พ.ศ. ๒๕๒๒",
        "“มาตรา ๘๓ ในกรณีที่ผู้กระทำความผิดเป็นนิติบุคคล ถ้าการกระทำความผิดของนิติบุคคลนั้นเกิดจากการสั่งการหรือการกระทำของกรรมการ หรือผู้จัดการ หรือบุคคลใดซึ่งรับผิดชอบในการดำเนินงานของนิติบุคคลนั้น หรือในกรณีที่บุคคลดังกล่าวมีหน้าที่ต้องสั่งการหรือกระทำการและละเว้นไม่สั่งการหรือไม่กระทำการจนเป็นเหตุให้นิติบุคคลนั้นกระทำความผิด ผู้นั้นต้องรับโทษตามที่บัญญัติไว้สำหรับความผิดนั้น ๆ ด้วย”",
        "",
        "๑๒. พระราชบัญญัติสิทธิบัตร พ.ศ. ๒๕๒๒",
        "“มาตรา ๘๘ ในกรณีที่ผู้กระทำความผิดเป็นนิติบุคคล ถ้าการกระทำความผิดของนิติบุคคลนั้นเกิดจากการสั่งการหรือการกระทำของกรรมการ หรือผู้จัดการ หรือบุคคลใดซึ่งรับผิดชอบในการดำเนินงานของนิติบุคคลนั้น หรือในกรณีที่บุคคลดังกล่าวมีหน้าที่ต้องสั่งการหรือกระทำการและละเว้นไม่สั่งการหรือไม่กระทำการจนเป็นเหตุให้นิติบุคคลนั้นกระทำความผิด ผู้นั้นต้องรับโทษตามที่บัญญัติไว้สำหรับความผิดนั้น ๆ ด้วย”",
        "",
        "๑๓. พระราชบัญญัติการรับเด็กเป็นบุตรบุญธรรม พ.ศ. ๒๕๒๒",
        "“มาตรา ๓๘ ในกรณีที่ผู้กระทำความผิดเป็นนิติบุคคล ถ้าการกระทำความผิดของนิติบุคคลนั้นเกิดจากการสั่งการหรือการกระทำของกรรมการ หรือผู้จัดการ หรือบุคคลใดซึ่งรับผิดชอบในการดำเนินงานของนิติบุคคลนั้น หรือในกรณีที่บุคคลดังกล่าวมีหน้าที่ต้องสั่งการหรือกระทำการและละเว้นไม่สั่งการหรือไม่กระทำการจนเป็นเหตุให้นิติบุคคลนั้นกระทำความผิด ผู้นั้นต้องรับโทษตามที่บัญญัติไว้สำหรับความผิดนั้น ๆ ด้วย”",
        "",
        "๑๔ . พระราชบัญญัติอาคารชุด พ.ศ. ๒๕๒๒",
        "“มาตรา ๗๑ นิติบุคคลอาคารชุดใดฝ่าฝืนหรือไม่ปฏิบัติตามมาตรา ๓๘/๑ มาตรา ๓๘/๒ และมาตรา ๓๘/๓ ต้องระวางโทษปรับไม่เกินหนึ่งหมื่นบาท",
        "ในกรณีที่นิติบุคคลอาคารชุดกระทำความผิดตามวรรคหนึ่ง ถ้าการกระทำความผิดของนิติบุคคลอาคารชุดนั้นเกิดจากการสั่งการหรือการกระทำของผู้จัดการของนิติบุคคลอาคารชุดนั้น หรือในกรณีที่ผู้จัดการของนิติบุคคลอาคารชุดนั้นมีหน้าที่ต้องสั่งการหรือกระทำการและละเว้นไม่สั่งการหรือไม่กระทำการจนเป็นเหตุให้นิติบุคคลอาคารชุดนั้นกระทำความผิด ผู้จัดการของนิติบุคคลอาคารชุดนั้นต้องรับโทษตามที่บัญญัติไว้ตามวรรคหนึ่งด้วย”",
        "",
        "๑๕. พระราชบัญญัติคุ้มครองผู้บริโภค พ.ศ. ๒๕๒๒",
        "“มาตรา ๕๙ ในกรณีที่ผู้กระทำความผิดเป็นนิติบุคคล ถ้าการกระทำความผิดของนิติบุคคลนั้นเกิดจากการสั่งการหรือการกระทำของกรรมการ หรือผู้จัดการ หรือบุคคลใดซึ่งรับผิดชอบในการดำเนินงานของนิติบุคคลนั้น หรือในกรณีที่บุคคลดังกล่าวมีหน้าที่ต้องสั่งการหรือกระทำการและละเว้นไม่สั่งการหรือไม่กระทำการจนเป็นเหตุให้นิติบุคคลนั้นกระทำความผิด ผู้นั้นต้องรับโทษตามที่บัญญัติไว้สำหรับความผิดนั้น ๆ ด้วย”",
        "",
        "๑๖. พระราชบัญญัติควบคุมอาคาร พ.ศ. ๒๕๒๒",
        "“มาตรา ๗๒ ในกรณีที่ผู้กระทำความผิดเป็นนิติบุคคล ถ้าการกระทำความผิดของนิติบุคคลนั้นเกิดจากการสั่งการหรือการกระทำของกรรมการ หรือผู้จัดการ หรือบุคคลใดซึ่งรับผิดชอบในการดำเนินงานของนิติบุคคลนั้น หรือในกรณีที่บุคคลดังกล่าวมีหน้าที่ต้องสั่งการหรือกระทำการและละเว้นไม่สั่งการหรือไม่กระทำการจนเป็นเหตุให้นิติบุคคลนั้นกระทำความผิด ผู้นั้นต้องรับโทษตามที่บัญญัติไว้สำหรับความผิดนั้น ๆ ด้วย”",
        "",
        "๑๗. พระราชบัญญัติชดเชยค่าภาษีอากรสินค้าส่งออกที่ผลิตในราชอาณาจักร พ.ศ. ๒๕๒๔",
        "“มาตรา ๓๒ ในกรณีที่ผู้กระทำความผิดตามมาตรา ๓๐ หรือมาตรา ๓๑ เป็นนิติบุคคล ถ้าการกระทำความผิดของนิติบุคคลนั้นเกิดจากการสั่งการหรือการกระทำของกรรมการ หรือผู้จัดการ หรือบุคคลใดซึ่งรับผิดชอบในการดำเนินงานของนิติบุคคลนั้น หรือในกรณีที่บุคคลดังกล่าวมีหน้าที่ต้องสั่งการหรือกระทำการและละเว้นไม่สั่งการหรือไม่กระทำการจนเป็นเหตุให้นิติบุคคลนั้นกระทำความผิด ผู้นั้นต้องรับโทษตามที่บัญญัติไว้สำหรับความผิดนั้น ๆ ด้วย”",
        "",
        "๑๘. พระราชกำหนดควบคุมสินค้าตามชายแดน พ.ศ. ๒๕๒๔",
        "“มาตรา ๒๓ ในกรณีที่ผู้กระทำความผิดเป็นนิติบุคคล ถ้าการกระทำความผิดของนิติบุคคลนั้นเกิดจากการสั่งการหรือการกระทำของกรรมการ หรือผู้จัดการ หรือบุคคลใดซึ่งรับผิดชอบในการดำเนินงานของนิติบุคคลนั้น หรือในกรณีที่บุคคลดังกล่าวมีหน้าที่ต้องสั่งการหรือกระทำการและละเว้นไม่สั่งการหรือไม่กระทำการจนเป็นเหตุให้นิติบุคคลนั้นกระทำความผิด ผู้นั้นต้องรับโทษตามที่บัญญัติไว้สำหรับความผิดนั้น ๆ ด้วย”",
        "",
        "๑๙. พระราชบัญญัติอ้อยและน้ำตาลทราย พ.ศ. ๒๕๒๗",
        "“มาตรา ๗๖ ในกรณีที่ผู้กระทำความผิดเป็นนิติบุคคล ถ้าการกระทำความผิดของนิติบุคคลนั้นเกิดจากการสั่งการหรือการกระทำของกรรมการ หรือผู้จัดการ หรือบุคคลใดซึ่งรับผิดชอบในการดำเนินงานของนิติบุคคลนั้น หรือในกรณีที่บุคคลดังกล่าวมีหน้าที่ต้องสั่งการหรือกระทำการและละเว้นไม่สั่งการหรือไม่กระทำการจนเป็นเหตุให้นิติบุคคลนั้นกระทำความผิด ผู้นั้นต้องรับโทษตามที่บัญญัติไว้สำหรับความผิดนั้น ๆ ด้วย”",
        "",
        "๒๐. พระราชกำหนดการกู้ยืมเงินที่เป็นการฉ้อโกงประชาชน พ.ศ. ๒๕๒๗",
        "“มาตรา ๑๕ ในกรณีที่ผู้กระทำความผิดเป็นนิติบุคคล ถ้าการกระทำความผิดของนิติบุคคลนั้นเกิดจากการสั่งการหรือการกระทำของกรรมการ หรือผู้จัดการ หรือบุคคลใดซึ่งรับผิดชอบในการดำเนินงานของนิติบุคคลนั้น หรือในกรณีที่บุคคลดังกล่าวมีหน้าที่ต้องสั่งการหรือกระทำการและละเว้นไม่สั่งการหรือไม่กระทำการจนเป็นเหตุให้นิติบุคคลนั้นกระทำความผิด ผู้นั้นต้องรับโทษตามที่บัญญัติไว้สำหรับความผิดนั้น ๆ ด้วย",
        "ความในวรรคหนึ่งให้ใช้บังคับแก่พนักงานหรือลูกจ้างของนิติบุคคลซึ่งปรากฏพยานหลักฐานว่ามีพฤติกรรมเป็นผู้รับผิดชอบในการดำเนินงานของนิติบุคคลด้วย”",
        "",
        "๒๑. พระราชบัญญัติจัดหางานและคุ้มครองคนหางาน พ.ศ. ๒๕๒๘",
        "“มาตรา ๙๒ ในกรณีที่ผู้กระทำความผิดเป็นนิติบุคคล ถ้าการกระทำความผิดของนิติบุคคลนั้นเกิดจากการสั่งการหรือการกระทำของกรรมการ หรือผู้จัดการ หรือบุคคลใดซึ่งรับผิดชอบในการดำเนินงานของนิติบุคคลนั้น หรือในกรณีที่บุคคลดังกล่าวมีหน้าที่ต้องสั่งการหรือกระทำการและละเว้นไม่สั่งการหรือไม่กระทำการจนเป็นเหตุให้นิติบุคคลนั้นกระทำความผิด ผู้นั้นต้องรับโทษตามที่บัญญัติไว้สำหรับความผิดนั้น ๆ ด้วย”",
        "",
        "๒๒. พระราชบัญญัติกองทุนสำรองเลี้ยงชีพ พ.ศ. ๒๕๓๐",
        "“มาตรา ๔๑ ในกรณีที่คณะกรรมการกองทุนกระทำความผิดตามมาตรา ๓๔ ถ้าการกระทำความผิดของคณะกรรมการกองทุนนั้นเกิดจากการสั่งการหรือการกระทำของกรรมการผู้ใด หรือในกรณีที่กรรมการดังกล่าวมีหน้าที่ต้องสั่งการหรือกระทำการและละเว้นไม่สั่งการหรือไม่กระทำการจนเป็นเหตุให้คณะกรรมการกองทุนนั้นกระทำความผิด กรรมการผู้นั้นต้องรับโทษตามที่บัญญัติไว้สำหรับความผิดนั้น ๆ ด้วย”",
        "",
        "๒๓. พระราชบัญญัติประกันสังคม พ.ศ. ๒๕๓๓",
        "“มาตรา ๑๐๑ ในกรณีที่ผู้กระทำความผิดเป็นนิติบุคคลและถูกลงโทษ ถ้าการกระทำความผิดของนิติบุคคลนั้นเกิดจากการสั่งการหรือการกระทำของกรรมการ หรือผู้จัดการ หรือบุคคลใดซึ่งรับผิดชอบในการดำเนินงานของนิติบุคคลนั้น หรือในกรณีที่บุคคลดังกล่าวมีหน้าที่ต้องสั่งการหรือกระทำการและละเว้นไม่สั่งการหรือไม่กระทำการจนเป็นเหตุให้นิติบุคคลนั้นกระทำความผิด ผู้นั้นต้องรับโทษตามที่บัญญัติไว้สำหรับความผิดนั้น ๆ ด้วย”",
        "",
        "๒๔. พระราชบัญญัติการเล่นแชร์ พ.ศ. ๒๕๓๔",
        "“มาตรา ๒๖ ในกรณีที่ผู้กระทำความผิดตามมาตรา ๕ หรือมาตรา ๘ เป็นนิติบุคคล ถ้าการกระทำความผิดของนิติบุคคลนั้นเกิดจากการสั่งการหรือการกระทำของกรรมการ หรือผู้จัดการ หรือบุคคลใดซึ่งรับผิดชอบในการดำเนินงานของนิติบุคคลนั้น หรือในกรณีที่บุคคลดังกล่าวมีหน้าที่ต้องสั่งการหรือกระทำการและละเว้นไม่สั่งการหรือไม่กระทำการจนเป็นเหตุให้นิติบุคคลนั้นกระทำความผิด ผู้นั้นต้องระวางโทษจำคุกไม่เกินหนึ่งปี หรือปรับไม่เกินสามแสนบาท หรือทั้งจำทั้งปรับ”",
        "",
        "๒๕. พระราชบัญญัติการทะเบียนราษฎร พ.ศ. ๒๕๓๔",
        "“มาตรา ๔๘/๑ ผู้ใดฝ่าฝืนมาตรา ๑๕ วรรคสี่ ต้องระวางโทษจำคุกตั้งแต่หกเดือน ถึงห้าปี และปรับตั้งแต่หนึ่งหมื่นบาทถึงหนึ่งแสนบาท",
        "ในกรณีที่ส่วนราชการหรือหน่วยงานของรัฐกระทำผิดตามวรรคหนึ่ง ถ้าการกระทำความผิดของส่วนราชการหรือหน่วยงานของรัฐนั้นเกิดจากการสั่งการหรือการกระทำของหัวหน้าส่วนราชการหรือหัวหน้าหน่วยงานของรัฐ หรือในกรณีที่บุคคลดังกล่าวมีหน้าที่ต้องสั่งการหรือกระทำการและละเว้นไม่สั่งการหรือไม่กระทำการจนเป็นเหตุให้ส่วนราชการหรือหน่วยงานของรัฐนั้นกระทำความผิด หัวหน้าส่วนราชการหรือหัวหน้าหน่วยงานของรัฐนั้นต้องรับโทษตามที่บัญญัติไว้สำหรับความผิดนั้น ๆ ด้วย",
        "",
        "มาตรา ๔๙ ผู้ใดฝ่าฝืนมาตรา ๑๗ ต้องระวางโทษจำคุกไม่เกินหกเดือน หรือปรับไม่เกินสองหมื่นบาท หรือทั้งจำทั้งปรับ",
        "ในกรณีที่ผู้กระทำความผิดตามวรรคหนึ่งเป็นนิติบุคคล ถ้าการกระทำความผิดของนิติบุคคลนั้นเกิดจากการสั่งการหรือการกระทำของกรรมการ หรือผู้จัดการ หรือบุคคลใดซึ่งรับผิดชอบในการดำเนินงานของนิติบุคคลนั้น หรือในกรณีที่บุคคลดังกล่าวมีหน้าที่ต้องสั่งการหรือกระทำการและละเว้นไม่สั่งการหรือไม่กระทำการจนเป็นเหตุให้นิติบุคคลนั้นกระทำความผิด ผู้นั้นต้องรับโทษตามที่บัญญัติไว้สำหรับความผิดนั้น ๆ ด้วย”",
        "",
        "๒๖. พระราชบัญญัติสงวนและคุ้มครองสัตว์ป่า พ.ศ. ๒๕๓๕",
        "“มาตรา ๕๙ ในกรณีที่ผู้กระทำความผิดเป็นนิติบุคคล ถ้าการกระทำความผิดของนิติบุคคลนั้นเกิดจากการสั่งการหรือการกระทำของกรรมการ หรือผู้จัดการ หรือบุคคลใดซึ่งรับผิดชอบในการดำเนินงานของนิติบุคคลนั้น หรือในกรณีที่บุคคลดังกล่าวมีหน้าที่ต้องสั่งการหรือกระทำการและละเว้นไม่สั่งการหรือไม่กระทำการจนเป็นเหตุให้นิติบุคคลนั้นกระทำความผิด ผู้นั้นต้องรับโทษตามที่บัญญัติไว้สำหรับความผิดนั้น ๆ ด้วย”",
        "",
        "๒๗. พระราชบัญญัติการส่งเสริมการอนุรักษ์พลังงาน พ.ศ. ๒๕๓๕",
        "“มาตรา ๖๐ ในกรณีที่ผู้กระทำความผิดเป็นนิติบุคคล ถ้าการกระทำความผิดของนิติบุคคลนั้นเกิดจากการสั่งการหรือการกระทำของกรรมการ หรือผู้จัดการ หรือบุคคลใดซึ่งรับผิดชอบในการดำเนินงานของนิติบุคคลนั้น หรือในกรณีที่บุคคลดังกล่าวมีหน้าที่ต้องสั่งการหรือกระทำการและละเว้นไม่สั่งการหรือไม่กระทำการจนเป็นเหตุให้นิติบุคคลนั้นกระทำความผิด ผู้นั้นต้องรับโทษตามที่บัญญัติไว้สำหรับความผิดนั้น ๆ ด้วย”",
        "",
        "๒๘. พระราชบัญญัติส่งเสริมและรักษาคุณภาพสิ่งแวดล้อมแห่งชาติ พ.ศ. ๒๕๓๕",
        "“มาตรา ๑๑๑ ในกรณีที่ผู้กระทำความผิดเป็นนิติบุคคล ถ้าการกระทำความผิดของนิติบุคคลนั้นเกิดจากการสั่งการหรือการกระทำของกรรมการ หรือผู้จัดการ หรือบุคคลใดซึ่งรับผิดชอบในการดำเนินงานของนิติบุคคลนั้น หรือในกรณีที่บุคคลดังกล่าวมีหน้าที่ต้องสั่งการหรือกระทำการและละเว้นไม่สั่งการหรือไม่กระทำการจนเป็นเหตุให้นิติบุคคลนั้นกระทำความผิด ผู้นั้นต้องรับโทษตามที่บัญญัติไว้สำหรับความผิดนั้น ๆ ด้วย”",
        "",
        "๒๙. พระราชบัญญัติวัตถุอันตราย พ.ศ. ๒๕๓๕",
        "“มาตรา ๘๗/๒ ในกรณีที่ผู้กระทำความผิดเป็นนิติบุคคล ถ้าการกระทำความผิดของนิติบุคคลนั้นเกิดจากการสั่งการหรือการกระทำของกรรมการหรือผู้จัดการ ผู้เชี่ยวชาญ บุคลากรเฉพาะ หรือบุคคลใดซึ่งรับผิดชอบในการดำเนินงานของนิติบุคคลนั้น หรือในกรณีที่บุคคลดังกล่าวมีหน้าที่ต้องสั่งการหรือกระทำการและละเว้นไม่สั่งการหรือไม่กระทำการจนเป็นเหตุให้นิติบุคคลนั้นกระทำความผิด ผู้นั้นต้องรับโทษตามที่บัญญัติไว้สำหรับความผิดนั้น ๆ ด้วย”",
        "",
        "๓๐. พระราชบัญญัติโรงงาน พ.ศ. ๒๕๓๕",
        "“มาตรา ๖๓ ในกรณีที่ผู้กระทำความผิดเป็นนิติบุคคล ถ้าการกระทำความผิดของนิติบุคคลนั้นเกิดจากการสั่งการหรือการกระทำของกรรมการ หรือผู้จัดการ หรือบุคคลใดซึ่งรับผิดชอบในการดำเนินงานของนิติบุคคลนั้น หรือในกรณีที่บุคคลดังกล่าวมีหน้าที่ต้องสั่งการหรือกระทำการและละเว้นไม่สั่งการหรือไม่กระทำการจนเป็นเหตุให้นิติบุคคลนั้นกระทำความผิด ผู้นั้นต้องรับโทษตามที่บัญญัติไว้สำหรับความผิดนั้น ๆ ด้วย”",
        "",
        "๓๑. พระราชบัญญัติประกันชีวิต พ.ศ. ๒๕๓๕",
        "“มาตรา ๑๑๔ ในกรณีที่บริษัทใดกระทำความผิดตามมาตรา ๒๓ มาตรา ๒๘ มาตรา ๓๖ หรือมาตรา ๕๑ วรรคหนึ่ง หรือแสดงข้อความอันเป็นเท็จหรือปกปิดความจริงที่ต้องบอกให้แจ้งหรือให้ทำคำชี้แจงตามมาตรา ๔๕ ถ้าการกระทำความผิดดังกล่าวของบริษัทนั้นเกิดจากการสั่งการหรือการกระทำของกรรมการ หรือผู้จัดการ หรือบุคคลใดซึ่งรับผิดชอบในการดำเนินงานของบริษัทนั้น หรือในกรณีที่บุคคลดังกล่าวมีหน้าที่ต้องสั่งการหรือกระทำการและละเว้นไม่สั่งการหรือไม่กระทำการจนเป็นเหตุให้บริษัทนั้นกระทำความผิดผู้นั้นต้องระวางโทษจำคุกไม่เกินหนึ่งปี หรือปรับไม่เกินหนึ่งแสนบาท หรือทั้งจำทั้งปรับ”",
        "",
        "๓๒. พระราชบัญญัติประกันวินาศภัย พ.ศ. ๒๕๓๕",
        "“มาตรา ๑๐๘ ในกรณีที่บริษัทใดกระทำความผิดตามมาตรา ๒๓ มาตรา ๒๘ มาตรา ๓๕ หรือมาตรา ๕๗ วรรคหนึ่ง หรือแสดงข้อความอันเป็นเท็จ หรือปกปิดความจริงที่ต้องบอกให้แจ้งหรือให้ทำคำชี้แจงตามมาตรา ๔๙ หรือไม่หยุดรับประกันวินาศภัยเป็นการชั่วคราวตามมาตรา ๕๒ วรรคหนึ่ง ถ้าการกระทำความผิดดังกล่าวของบริษัทนั้นเกิดจากการสั่งการหรือการกระทำของกรรมการ หรือผู้จัดการ หรือบุคคลใดซึ่งรับผิดชอบในการดำเนินงานของบริษัทนั้น หรือในกรณีที่บุคคลดังกล่าวมีหน้าที่ต้องสั่งการหรือกระทำการและละเว้นไม่สั่งการหรือไม่กระทำการจนเป็นเหตุให้บริษัทนั้นกระทำความผิด ผู้นั้นต้องระวางโทษจำคุกไม่เกินหนึ่งปี หรือปรับไม่เกินหนึ่งแสนบาทหรือทั้งจำทั้งปรับ”",
        "",
        "๓๓. พระราชบัญญัติสภาผู้ส่งสินค้าทางเรือแห่งประเทศไทย พ.ศ. ๒๕๓๗",
        "“มาตรา ๓๙ ในกรณีที่สภากระทำความผิดและถูกลงโทษ ถ้าการกระทำความผิดของสภานั้นเกิดจากการสั่งการหรือการกระทำของกรรมการผู้ใด หรือในกรณีที่กรรมการผู้ใดมีหน้าที่ต้องสั่งการหรือกระทำการและละเว้นไม่สั่งการหรือไม่กระทำการจนเป็นเหตุให้สภานั้นกระทำความผิด กรรมการผู้นั้นต้องระวางโทษปรับไม่เกินห้าหมื่นบาท”",
        "",
        "๓๔. พระราชบัญญัติลิขสิทธิ์ พ.ศ. ๒๕๓๗",
        "“มาตรา ๗๔ ในกรณีที่ผู้กระทำความผิดเป็นนิติบุคคล ถ้าการกระทำความผิดของนิติบุคคลนั้นเกิดจากการสั่งการหรือการกระทำของกรรมการ หรือผู้จัดการ หรือบุคคลใดซึ่งรับผิดชอบในการดำเนินงานของนิติบุคคลนั้น หรือในกรณีที่บุคคลดังกล่าวมีหน้าที่ต้องสั่งการหรือกระทำการและละเว้นไม่สั่งการหรือไม่กระทำการจนเป็นเหตุให้นิติบุคคลนั้นกระทำความผิด ผู้นั้นต้องรับโทษตามที่บัญญัติไว้สำหรับความผิดนั้น ๆ ด้วย”",
        "",
        "๓๕. พระราชบัญญัติกองทุนบำเหน็จบำนาญข้าราชการ พ.ศ. ๒๕๓๙",
        "“มาตรา ๘๙ ผู้ได้รับมอบหมายให้ดำเนินการจัดการกองทุนรายใดไม่ปฏิบัติตามมาตรา ๘๕ ต้องระวางโทษปรับไม่เกินหนึ่งล้านบาท และปรับอีกไม่เกินวันละหนึ่งแสนบาท จนกว่าจะได้ปฏิบัติให้ถูกต้อง",
        "ในกรณีที่ผู้ได้รับมอบหมายให้ดำเนินการจัดการกองทุนกระทำความผิดตามวรรคหนึ่ง ถ้าการกระทำความผิดของผู้ได้รับมอบหมายให้ดำเนินการจัดการกองทุนนั้นเกิดจากการสั่งการหรือการกระทำของกรรมการ หรือผู้จัดการ หรือบุคคลใดซึ่งรับผิดชอบในการดำเนินงานของผู้ได้รับมอบหมายให้ดำเนินการจัดการกองทุนนั้น หรือในกรณีที่บุคคลดังกล่าวมีหน้าที่ต้องสั่งการหรือกระทำการและละเว้นไม่สั่งการหรือไม่กระทำการจนเป็นเหตุให้ผู้ได้รับมอบหมายให้ดำเนินการจัดการกองทุนนั้นกระทำความผิด ผู้นั้นต้องระวางโทษจำคุกไม่เกินสามปี หรือปรับไม่เกินหนึ่งล้านห้าแสนบาท หรือทั้งจำทั้งปรับ”",
        "",
        "๓๖. พระราชกำหนดบริษัทบริหารสินทรัพย์ พ.ศ. ๒๕๔๑",
        "“มาตรา ๑๓ บริษัทบริหารสินทรัพย์ใดฝ่าฝืนหรือไม่ปฏิบัติตามมาตรา ๔/๑ วรรคหนึ่ง มาตรา ๑๐ มาตรา ๑๑ หรือมาตรา ๑๑/๑ วรรคสอง หรือฝ่าฝืนหรือไม่ปฏิบัติตามหลักเกณฑ์หรือคำสั่งหรือเงื่อนไขที่กำหนดตามมาตรา ๔/๑ วรรคสอง มาตรา ๕ มาตรา ๑๐ มาตรา ๑๑ มาตรา ๑๑/๑ วรรคหนึ่ง หรือมาตรา ๑๒ ต้องระวางโทษปรับไม่เกินสามแสนบาท และปรับอีกไม่เกินวันละสามพันบาทตลอดเวลาที่ยังมิได้ปฏิบัติให้ถูกต้อง",
        "ในกรณีที่บริษัทบริหารสินทรัพย์ใดกระทำความผิดตามวรรคหนึ่ง ถ้าการกระทำความผิดของบริษัทบริหารสินทรัพย์นั้นเกิดจากการสั่งการหรือการกระทำของกรรมการ หรือผู้จัดการ หรือบุคคลใดซึ่งรับผิดชอบในการดำเนินงานของบริษัทบริหารสินทรัพย์นั้น หรือในกรณีที่บุคคลดังกล่าวมีหน้าที่ต้องสั่งการหรือกระทำการและละเว้นไม่สั่งการหรือไม่กระทำการจนเป็นเหตุให้บริษัทบริหารสินทรัพย์นั้นกระทำความผิด ผู้นั้นต้องระวางโทษจำคุกไม่เกินสามปี หรือปรับไม่เกินสามแสนบาท หรือทั้งจำทั้งปรับ”",
        "",
        "๓๗. พระราชบัญญัติว่าด้วยราคาสินค้าและบริการ พ.ศ. ๒๕๔๒",
        "“มาตรา ๔๒ ในกรณีที่ผู้กระทำความผิดเป็นนิติบุคคล ถ้าการกระทำความผิดของนิติบุคคลนั้นเกิดจากการสั่งการหรือการกระทำของกรรมการ หรือผู้จัดการ หรือบุคคลใดซึ่งรับผิดชอบในการดำเนินงานของนิติบุคคลนั้น หรือในกรณีที่บุคคลดังกล่าวมีหน้าที่ต้องสั่งการหรือกระทำการและละเว้นไม่สั่งการหรือไม่กระทำการจนเป็นเหตุให้นิติบุคคลนั้นกระทำความผิด ผู้นั้นต้องรับโทษตามที่บัญญัติไว้สำหรับความผิดนั้น ๆ ด้วย”",
        "",
        "๓๘. พระราชบัญญัติป้องกันและปราบปรามการฟอกเงิน พ.ศ. ๒๕๔๒",
        "“มาตรา ๖๑ นิติบุคคลใดกระทำความผิดตามมาตรา ๕ มาตรา ๗ มาตรา ๘ หรือมาตรา ๙ ต้องระวางโทษปรับตั้งแต่สองแสนบาทถึงหนึ่งล้านบาท",
        "ในกรณีที่การกระทำความผิดตามวรรคหนึ่งของนิติบุคคลเกิดจากการสั่งการหรือการกระทำของกรรมการ หรือผู้จัดการ หรือบุคคลใดซึ่งรับผิดชอบในการดำเนินงานของนิติบุคคลนั้น หรือในกรณีที่บุคคลดังกล่าวมีหน้าที่ต้องสั่งการหรือกระทำการและละเว้นไม่สั่งการหรือไม่กระทำการจนเป็นเหตุให้นิติบุคคลนั้นกระทำความผิด ผู้นั้นต้องระวางโทษจำคุกตั้งแต่หนึ่งปีถึงสิบปีหรือปรับตั้งแต่สองหมื่นบาทถึงสองแสนบาท หรือทั้งจำทั้งปรับ”",
        "",
        "๓๙. พระราชบัญญัติมาตราชั่งตวงวัด พ.ศ. ๒๕๔๒",
        "“มาตรา ๘๘ ในกรณีที่ผู้กระทำความผิดเป็นนิติบุคคล ถ้าการกระทำความผิดของนิติบุคคลนั้นเกิดจากการสั่งการหรือการกระทำของกรรมการ หรือผู้จัดการ หรือบุคคลใดซึ่งรับผิดชอบในการดำเนินงานของนิติบุคคลนั้น หรือในกรณีที่บุคคลดังกล่าวมีหน้าที่ต้องสั่งการหรือกระทำการและละเว้นไม่สั่งการหรือไม่กระทำการจนเป็นเหตุให้นิติบุคคลนั้นกระทำความผิด ผู้นั้นต้องรับโทษตามที่บัญญัติไว้สำหรับความผิดนั้น ๆ ด้วย”",
        "",
        "๔๐. พระราชบัญญัติคุ้มครองพันธุ์พืช พ.ศ. ๒๕๔๒",
        "“มาตรา ๖๙ ในกรณีที่ผู้กระทำความผิดเป็นนิติบุคคล ถ้าการกระทำความผิดของนิติบุคคลนั้นเกิดจากการสั่งการหรือการกระทำของกรรมการ หรือผู้จัดการ หรือบุคคลใดซึ่งรับผิดชอบในการดำเนินงานของนิติบุคคลนั้น หรือในกรณีที่บุคคลดังกล่าวมีหน้าที่ต้องสั่งการหรือกระทำการและละเว้นไม่สั่งการหรือไม่กระทำการจนเป็นเหตุให้นิติบุคคลนั้นกระทำความผิด ผู้นั้นต้องรับโทษตามที่บัญญัติไว้สำหรับความผิดนั้น ๆ ด้วย”",
        "",
        "๔๑. พระราชบัญญัติคุ้มครองและส่งเสริมภูมิปัญญาการแพทย์แผนไทย พ.ศ. ๒๕๔๒",
        "“มาตรา ๘๒ ในกรณีที่ผู้กระทำความผิดเป็นนิติบุคคล ถ้าการกระทำความผิดของนิติบุคคลนั้นเกิดจากการสั่งการหรือการกระทำของกรรมการ หรือผู้จัดการ หรือบุคคลใดซึ่งรับผิดชอบในการดำเนินงานของนิติบุคคลนั้น หรือในกรณีที่บุคคลดังกล่าวมีหน้าที่ต้องสั่งการหรือกระทำการและละเว้นไม่สั่งการหรือไม่กระทำการจนเป็นเหตุให้นิติบุคคลนั้นกระทำความผิด ผู้นั้นต้องรับโทษตามที่บัญญัติไว้สำหรับความผิดนั้น ๆ ด้วย”",
        "",
        "๔๒. พระราชบัญญัติวิศวกร พ.ศ. ๒๕๔๒",
        "“มาตรา ๗๔ ในกรณีที่ผู้กระทำความผิดเป็นนิติบุคคล ถ้าการกระทำความผิดของนิติบุคคลนั้นเกิดจากการสั่งการหรือการกระทำของกรรมการ หรือผู้จัดการ หรือบุคคลใดซึ่งรับผิดชอบในการดำเนินงานของนิติบุคคลนั้น หรือในกรณีที่บุคคลดังกล่าวมีหน้าที่ต้องสั่งการหรือกระทำการและละเว้นไม่สั่งการหรือไม่กระทำการจนเป็นเหตุให้นิติบุคคลนั้นกระทำความผิด ผู้นั้นต้องรับโทษตามที่บัญญัติไว้สำหรับความผิดนั้น และสำหรับนิติบุคคลต้องระวางโทษปรับไม่เกินสิบเท่าของอัตราโทษปรับสำหรับความผิดนั้นด้วย”",
        "",
        "๔๓. พระราชบัญญัติควบคุมน้ำมันเชื้อเพลิง พ.ศ. ๒๕๔๒",
        "“มาตรา ๗๘ ในกรณีที่ผู้กระทำความผิดเป็นนิติบุคคล ถ้าการกระทำความผิดของนิติบุคคลนั้นเกิดจากการสั่งการหรือการกระทำของกรรมการ หรือผู้จัดการ หรือบุคคลใดซึ่งรับผิดชอบในการดำเนินงานของนิติบุคคลนั้น หรือในกรณีที่บุคคลดังกล่าวมีหน้าที่ต้องสั่งการหรือกระทำการและละเว้นไม่สั่งการหรือไม่กระทำการจนเป็นเหตุให้นิติบุคคลนั้นกระทำความผิด ผู้นั้นต้องรับโทษตามที่บัญญัติไว้สำหรับความผิดนั้น ๆ ด้วย”",
        "",
        "๔๔. พระราชบัญญัติสถาปนิก พ.ศ. ๒๕๔๓",
        "“มาตรา ๗๔ ในกรณีที่ผู้กระทำความผิดเป็นนิติบุคคล ถ้าการกระทำความผิดของนิติบุคคลนั้นเกิดจากการสั่งการหรือการกระทำของกรรมการ หรือผู้จัดการ หรือบุคคลใดซึ่งรับผิดชอบในการดำเนินงานของนิติบุคคลนั้น หรือในกรณีที่บุคคลดังกล่าวมีหน้าที่ต้องสั่งการหรือกระทำการและละเว้นไม่สั่งการหรือไม่กระทำการจนเป็นเหตุให้นิติบุคคลนั้นกระทำความผิด ผู้นั้นต้องรับโทษตามที่บัญญัติไว้สำหรับความผิดนั้น และสำหรับนิติบุคคลต้องระวางโทษปรับไม่เกินสิบเท่าของอัตราโทษปรับสำหรับความผิดนั้นด้วย”",
        "",
        "๔๕. พระราชบัญญัติการขุดดินและถมดิน พ.ศ. ๒๕๔๓",
        "“มาตรา ๔๓ ในกรณีที่ผู้กระทำความผิดเป็นนิติบุคคล ถ้าการกระทำความผิดของนิติบุคคลนั้นเกิดจากการสั่งการหรือการกระทำของกรรมการ หรือผู้จัดการ หรือบุคคลใดซึ่งรับผิดชอบในการดำเนินงานของนิติบุคคลนั้น หรือในกรณีที่บุคคลดังกล่าวมีหน้าที่ต้องสั่งการหรือกระทำการและละเว้นไม่สั่งการหรือไม่กระทำการจนเป็นเหตุให้นิติบุคคลนั้นกระทำความผิด ผู้นั้นต้องรับโทษตามที่บัญญัติไว้สำหรับความผิดนั้น ๆ ด้วย”",
        "",
        "๔๖. พระราชบัญญัติการบัญชี พ.ศ. ๒๕๔๓",
        "“มาตรา ๔๐ ในกรณีที่ผู้กระทำความผิดเป็นนิติบุคคล ถ้าการกระทำความผิดของนิติบุคคลนั้นเกิดจากการสั่งการหรือการกระทำของกรรมการ หรือผู้จัดการ หรือบุคคลใดซึ่งรับผิดชอบในการดำเนินงานของนิติบุคคลนั้น หรือในกรณีที่บุคคลดังกล่าวมีหน้าที่ต้องสั่งการหรือกระทำการและละเว้นไม่สั่งการหรือไม่กระทำการจนเป็นเหตุให้นิติบุคคลนั้นกระทำความผิด ผู้นั้นต้องรับโทษตามที่บัญญัติไว้สำหรับความผิดนั้น ๆ ด้วย”",
        "",
        "๔๗. พระราชบัญญัติคุ้มครองแบบผังภูมิของวงจรรวม พ.ศ. ๒๕๔๓",
        "“มาตรา ๕๒ ในกรณีที่ผู้กระทำความผิดเป็นนิติบุคคล ถ้าการกระทำความผิดของนิติบุคคลนั้นเกิดจากการสั่งการหรือการกระทำของกรรมการ หรือผู้จัดการ หรือบุคคลใดซึ่งรับผิดชอบในการดำเนินงานของนิติบุคคลนั้น หรือในกรณีที่บุคคลดังกล่าวมีหน้าที่ต้องสั่งการหรือกระทำการและละเว้นไม่สั่งการหรือไม่กระทำการจนเป็นเหตุให้นิติบุคคลนั้นกระทำความผิด ผู้นั้นต้องรับโทษตามที่บัญญัติไว้สำหรับความผิดนั้น ๆ ด้วย”",
        "",
        "๔๘. พระราชบัญญัติการจัดสรรที่ดิน พ.ศ. ๒๕๔๓",
        "“มาตรา ๖๖ ในกรณีที่ผู้กระทำความผิดเป็นนิติบุคคล ถ้าการกระทำความผิดของนิติบุคคลนั้นเกิดจากการสั่งการหรือการกระทำของกรรมการ หรือผู้จัดการ หรือบุคคลใดซึ่งรับผิดชอบในการดำเนินงานของนิติบุคคลนั้น หรือในกรณีที่บุคคลดังกล่าวมีหน้าที่ต้องสั่งการหรือกระทำการและละเว้นไม่สั่งการหรือไม่กระทำการจนเป็นเหตุให้นิติบุคคลนั้นกระทำความผิด ผู้นั้นต้องรับโทษตามที่บัญญัติไว้สำหรับความผิดนั้น ๆ ด้วย”",
        "",
        "๔๙. พระราชบัญญัติการจัดการหุ้นส่วนและหุ้นของรัฐมนตรี พ.ศ. ๒๕๔๓",
        "“มาตรา ๑๘ ในกรณีที่ผู้กระทำความผิดเป็นนิติบุคคล ถ้าการกระทำความผิดของนิติบุคคลนั้นเกิดจากการสั่งการหรือการกระทำของกรรมการ หรือผู้จัดการ หรือบุคคลใดซึ่งรับผิดชอบในการดำเนินงานของนิติบุคคลนั้น หรือในกรณีที่บุคคลดังกล่าวมีหน้าที่ต้องสั่งการหรือกระทำการและละเว้นไม่สั่งการหรือไม่กระทำการจนเป็นเหตุให้นิติบุคคลนั้นกระทำความผิด ผู้นั้นต้องรับโทษตามที่บัญญัติไว้สำหรับความผิดนั้น ๆ ด้วย”",
        "",
        "๕๐. พระราชบัญญัติการค้าน้ำมันเชื้อเพลิง พ.ศ. ๒๕๔๓",
        "“มาตรา ๖๐ ในกรณีที่ผู้กระทำความผิดเป็นนิติบุคคล ถ้าการกระทำความผิดของนิติบุคคลนั้นเกิดจากการสั่งการหรือการกระทำของกรรมการ หรือผู้จัดการ หรือบุคคลใดซึ่งรับผิดชอบในการดำเนินงานของนิติบุคคลนั้น หรือในกรณีที่บุคคลดังกล่าวมีหน้าที่ต้องสั่งการหรือกระทำการและละเว้นไม่สั่งการหรือไม่กระทำการจนเป็นเหตุให้นิติบุคคลนั้นกระทำความผิด ผู้นั้นต้องรับโทษตามที่บัญญัติไว้สำหรับความผิดนั้น ๆ ด้วย”",
        "",
        "๕๑. พระราชบัญญัติการรถไฟฟ้าขนส่งมวลชนแห่งประเทศไทย พ.ศ. ๒๕๔๓",
        "“มาตรา ๘๖ ในกรณีที่ผู้กระทำความผิดเป็นนิติบุคคล ถ้าการกระทำความผิดของนิติบุคคลนั้นเกิดจากการสั่งการหรือการกระทำของกรรมการ หรือผู้จัดการ หรือบุคคลใดซึ่งรับผิดชอบในการดำเนินงานของนิติบุคคลนั้น หรือในกรณีที่บุคคลดังกล่าวมีหน้าที่ต้องสั่งการหรือกระทำการและละเว้นไม่สั่งการหรือไม่กระทำการจนเป็นเหตุให้นิติบุคคลนั้นกระทำความผิด ผู้นั้นต้องรับโทษตามที่บัญญัติไว้สำหรับความผิดนั้น ๆ ด้วย”",
        "",
        "๕๒. พระราชบัญญัติกองทุนสนับสนุนการสร้างเสริมสุขภาพ พ.ศ. ๒๕๔๔",
        "“มาตรา ๔๑ ในกรณีที่ผู้กระทำความผิดเป็นนิติบุคคล ถ้าการกระทำความผิดของนิติบุคคลนั้นเกิดจากการสั่งการหรือการกระทำของกรรมการ หรือผู้จัดการ หรือบุคคลใดซึ่งรับผิดชอบในการดำเนินงานของนิติบุคคลนั้น หรือในกรณีที่บุคคลดังกล่าวมีหน้าที่ต้องสั่งการหรือกระทำการและละเว้นไม่สั่งการหรือไม่กระทำการจนเป็นเหตุให้นิติบุคคลนั้นกระทำความผิด ผู้นั้นต้องรับโทษตามที่บัญญัติไว้สำหรับความผิดนั้น ๆ ด้วย”",
        "",
        "๕๓. พระราชบัญญัติการประกอบกิจการโทรคมนาคม พ.ศ. ๒๕๔๔",
        "“มาตรา ๗๘ ในกรณีที่ผู้กระทำความผิดเป็นนิติบุคคล ถ้าการกระทำความผิดของนิติบุคคลนั้นเกิดจากการสั่งการหรือการกระทำของกรรมการ หรือผู้จัดการ หรือบุคคลใดซึ่งรับผิดชอบในการดำเนินงานของนิติบุคคลนั้น หรือในกรณีที่บุคคลดังกล่าวมีหน้าที่ต้องสั่งการหรือกระทำการและละเว้นไม่สั่งการหรือไม่กระทำการจนเป็นเหตุให้นิติบุคคลนั้นกระทำความผิด ผู้นั้นต้องรับโทษตามที่บัญญัติไว้สำหรับความผิดนั้น ๆ ด้วย”",
        "",
        "๕๔. พระราชบัญญัติว่าด้วยธุรกรรมทางอิเล็กทรอนิกส์ พ.ศ. ๒๕๔๔",
        "“มาตรา ๔๖ ในกรณีที่ผู้กระทำความผิดเป็นนิติบุคคล ถ้าการกระทำความผิดของนิติบุคคลนั้นเกิดจากการสั่งการหรือการกระทำของกรรมการ หรือผู้จัดการ หรือบุคคลใดซึ่งรับผิดชอบในการดำเนินงานของนิติบุคคลนั้น หรือในกรณีที่บุคคลดังกล่าวมีหน้าที่ต้องสั่งการหรือกระทำการและละเว้นไม่สั่งการหรือไม่กระทำการจนเป็นเหตุให้นิติบุคคลนั้นกระทำความผิด ผู้นั้นต้องรับโทษตามที่บัญญัติไว้สำหรับความผิดนั้น ๆ ด้วย”",
        "",
        "๕๕. พระราชบัญญัติการฌาปนกิจสงเคราะห์ พ.ศ. ๒๕๔๕",
        "“มาตรา ๖๔ ในกรณีที่สมาคมฌาปนกิจสงเคราะห์ไม่ปฏิบัติตามมาตรา ๑๖ วรรคหนึ่ง มาตรา ๑๗ มาตรา ๒๐ มาตรา ๓๖ มาตรา ๓๗ มาตรา ๓๘ หรือมาตรา ๓๙ หรือฝ่าฝืนมาตรา ๓๐ หรือมาตรา ๓๑ ถ้าการกระทำความผิดของสมาคมฌาปนกิจสงเคราะห์นั้นเกิดจากการสั่งการหรือการกระทำของกรรมการผู้ใด หรือในกรณีที่กรรมการดังกล่าวมีหน้าที่ต้องสั่งการหรือกระทำการและละเว้นไม่สั่งการหรือไม่กระทำการจนเป็นเหตุให้สมาคมฌาปนกิจสงเคราะห์นั้นกระทำความผิด กรรมการผู้นั้นต้องระวางโทษปรับไม่เกินหนึ่งหมื่นบาท”",
        "",
        "๕๖. พระราชบัญญัติสัญญาซื้อขายล่วงหน้า พ.ศ. ๒๕๔๖",
        "“มาตรา ๑๓๕ ในกรณีที่ผู้กระทำความผิดตามมาตรา ๑๒๖ มาตรา ๑๒๗ มาตรา ๑๒๘ มาตรา ๑๒๙ มาตรา ๑๓๐ มาตรา ๑๓๑ มาตรา ๑๓๓ หรือมาตรา ๑๓๘ เป็นนิติบุคคล ถ้าการกระทำความผิดของนิติบุคคลนั้นเกิดจากการสั่งการหรือการกระทำของกรรมการ หรือผู้จัดการ หรือบุคคลใดซึ่งรับผิดชอบในการดำเนินงานของนิติบุคคลนั้น หรือในกรณีที่บุคคลดังกล่าวมีหน้าที่ต้องสั่งการหรือกระทำการและละเว้นไม่สั่งการหรือไม่กระทำการจนเป็นเหตุให้นิติบุคคลนั้นกระทำความผิด ผู้นั้นต้องรับโทษจำคุกไม่เกินหนึ่งปี หรือปรับตามที่บัญญัติไว้สำหรับความผิดนั้น ๆ หรือทั้งจำทั้งปรับ”",
        "",
        "๕๗. พระราชบัญญัติสถาบันอุดมศึกษาเอกชน พ.ศ. ๒๕๔๖",
        "“มาตรา ๑๑๕ สถาบันอุดมศึกษาเอกชนใดไม่ปฏิบัติตามมาตรา ๗๔ หรือมาตรา ๗๕ ต้องระวางโทษปรับไม่เกินหนึ่งล้านบาท",
        "ในกรณีที่สถาบันอุดมศึกษาเอกชนใดกระทำความผิดตามมาตรา ๗๔ หรือมาตรา ๗๕ ถ้าการกระทำความผิดของสถาบันอุดมศึกษาเอกชนนั้นเกิดจากการสั่งการหรือการกระทำของกรรมการสภาสถาบัน อธิการบดี หรือบุคคลใดซึ่งรับผิดชอบในการดำเนินงานของสถาบันอุดมศึกษาเอกชนนั้น หรือในกรณีที่บุคคลดังกล่าวมีหน้าที่ต้องสั่งการหรือกระทำการและละเว้นไม่สั่งการหรือไม่กระทำการจนเป็นเหตุให้สถาบันอุดมศึกษาเอกชนนั้นกระทำความผิด ผู้นั้นต้องรับโทษตามที่บัญญัติไว้สำหรับความผิดนั้น ๆ ด้วย”",
        "",
        "๕๘. พระราชบัญญัติคุ้มครองสิ่งบ่งชี้ทางภูมิศาสตร์ พ.ศ. ๒๕๔๖",
        "“มาตรา ๔๒ ในกรณีที่ผู้กระทำความผิดเป็นนิติบุคคล ถ้าการกระทำความผิดของนิติบุคคลนั้นเกิดจากการสั่งการหรือการกระทำของกรรมการ หรือผู้จัดการ หรือบุคคลใดซึ่งรับผิดชอบในการดำเนินงานของนิติบุคคลนั้น หรือในกรณีที่บุคคลดังกล่าวมีหน้าที่ต้องสั่งการหรือกระทำการและละเว้นไม่สั่งการหรือไม่กระทำการจนเป็นเหตุให้นิติบุคคลนั้นกระทำความผิด ผู้นั้นต้องรับโทษตามที่บัญญัติไว้สำหรับความผิดนั้น ๆ ด้วย”",
        "",
        "๕๙. พระราชบัญญัติวิชาชีพบัญชี พ.ศ. ๒๕๔๗",
        "“มาตรา ๗๒ ในกรณีที่ผู้กระทำความผิดเป็นนิติบุคคล ถ้าการกระทำความผิดของนิติบุคคลนั้นเกิดจากการสั่งการหรือการกระทำของกรรมการ หรือผู้จัดการ หรือบุคคลใดซึ่งรับผิดชอบในการดำเนินงานของนิติบุคคลนั้น หรือในกรณีที่บุคคลดังกล่าวมีหน้าที่ต้องสั่งการหรือกระทำการและละเว้นไม่สั่งการหรือไม่กระทำการจนเป็นเหตุให้นิติบุคคลนั้นกระทำความผิด ผู้นั้นต้องรับโทษตามที่บัญญัติไว้สำหรับความผิดนั้น ๆ ด้วย”",
        "",
        "๖๐. พระราชบัญญัติการผลิตผลิตภัณฑ์ซีดี พ.ศ. ๒๕๔๘",
        "“มาตรา ๓๖ ในกรณีที่ผู้กระทำความผิดเป็นนิติบุคคล ถ้าการกระทำความผิดของนิติบุคคลนั้นเกิดจากการสั่งการหรือการกระทำของกรรมการ หรือผู้จัดการ หรือบุคคลใดซึ่งรับผิดชอบในการดำเนินงานของนิติบุคคลนั้น หรือในกรณีที่บุคคลดังกล่าวมีหน้าที่ต้องสั่งการหรือกระทำการและละเว้นไม่สั่งการหรือไม่กระทำการจนเป็นเหตุให้นิติบุคคลนั้นกระทำความผิด ผู้นั้นต้องรับโทษตามที่บัญญัติไว้สำหรับความผิดนั้น ๆ ด้วย”",
        "",
        "๖๑. พระราชบัญญัติการขนส่งต่อเนื่องหลายรูปแบบ พ.ศ. ๒๕๔๘",
        "“มาตรา ๗๗ ในกรณีที่ผู้กระทำความผิดซึ่งต้องรับโทษตามมาตรา ๗๐ หรือมาตรา ๗๑ เป็นนิติบุคคล ถ้าการกระทำความผิดของนิติบุคคลนั้นเกิดจากการสั่งการหรือการกระทำของกรรมการ หรือผู้จัดการ หรือบุคคลใดซึ่งรับผิดชอบในการดำเนินงานของนิติบุคคลนั้น หรือในกรณีที่บุคคลดังกล่าวมีหน้าที่ต้องสั่งการหรือกระทำการและละเว้นไม่สั่งการหรือไม่กระทำการจนเป็นเหตุให้นิติบุคคลนั้นกระทำความผิด ผู้นั้นต้องรับโทษตามที่บัญญัติไว้สำหรับความผิดนั้น ๆ ด้วย”",
        "",
        "๖๒. พระราชบัญญัติโรงงานผลิตอาวุธของเอกชน พ.ศ. ๒๕๕๐",
        "“มาตรา ๖๐ ในกรณีที่ผู้รับใบอนุญาตหรือผู้รับอนุญาตตามมาตรา ๓๓ ซึ่งเป็นนิติบุคคลกระทำความผิด ถ้าการกระทำความผิดของนิติบุคคลนั้นเกิดจากการสั่งการหรือการกระทำของกรรมการ หรือผู้จัดการ หรือบุคคลใดซึ่งรับผิดชอบในการดำเนินงานของนิติบุคคลนั้น หรือในกรณีที่บุคคลดังกล่าวมีหน้าที่ต้องสั่งการหรือกระทำการและละเว้นไม่สั่งการหรือไม่กระทำการจนเป็นเหตุให้นิติบุคคลนั้นกระทำความผิด ผู้นั้นต้องรับโทษตามที่บัญญัติไว้สำหรับความผิดนั้น ๆ ด้วย”",
        "",
        "๖๓. พระราชบัญญัติการประกอบกิจการพลังงาน พ.ศ. ๒๕๕๐",
        "“มาตรา ๑๔๑ ในกรณีที่ผู้กระทำความผิดเป็นนิติบุคคล ถ้าการกระทำความผิดของนิติบุคคลนั้นเกิดจากการสั่งการหรือการกระทำของกรรมการ หรือผู้จัดการ หรือบุคคลใดซึ่งรับผิดชอบในการดำเนินงานของนิติบุคคลนั้น หรือในกรณีที่บุคคลดังกล่าวมีหน้าที่ต้องสั่งการหรือกระทำการและละเว้นไม่สั่งการหรือไม่กระทำการจนเป็นเหตุให้นิติบุคคลนั้นกระทำความผิด ผู้นั้นต้องรับโทษตามที่บัญญัติไว้สำหรับความผิดนั้น ๆ ด้วย”",
        "",
        "๖๔. พระราชบัญญัติโรงเรียนเอกชน พ.ศ. ๒๕๕๐",
        "“มาตรา ๑๕๓ ในกรณีที่ผู้รับใบอนุญาตเป็นนิติบุคคลกระทำความผิดและถูกลงโทษ ถ้าการกระทำความผิดของนิติบุคคลนั้นเกิดจากการสั่งการหรือการกระทำของกรรมการ หรือผู้จัดการ หรือบุคคลใดซึ่งรับผิดชอบในการดำเนินงานของนิติบุคคลนั้นหรือในกรณีที่บุคคลดังกล่าวมีหน้าที่ต้องสั่งการหรือกระทำการและละเว้นไม่สั่งการหรือไม่กระทำการจนเป็นเหตุให้นิติบุคคลนั้นกระทำความผิด ผู้นั้นต้องรับโทษตามที่บัญญัติไว้สำหรับความผิดนั้น ๆ ด้วย”",
        "",
        "๖๕. พระราชบัญญัติทรัสต์เพื่อธุรกรรมในตลาดทุน พ.ศ. ๒๕๕๐",
        "“มาตรา ๘๐ ผู้ใดให้ถ้อยคำอันเป็นเท็จต่อพนักงานเจ้าหน้าที่ ซึ่งความเท็จนั้นเป็นข้อสำคัญในการตรวจสอบหรือการดำเนินการตามพระราชบัญญัตินี้ ต้องระวางโทษจำคุกไม่เกินหนึ่งปี หรือปรับไม่เกินหนึ่งแสนบาท หรือทั้งจำทั้งปรับ",
        "ในกรณีที่ผู้ให้ถ้อยคำอันเป็นเท็จต่อพนักงานเจ้าหน้าที่ตามวรรคหนึ่งเป็นทรัสตี ถ้าการกระทำความผิดของทรัสตีนั้นเกิดจากการสั่งการหรือการกระทำของกรรมการ หรือผู้จัดการ หรือบุคคลใดซึ่งรับผิดชอบในการดำเนินงานของทรัสตีนั้น หรือในกรณีที่บุคคลดังกล่าวมีหน้าที่ต้องสั่งการหรือกระทำการและละเว้นไม่สั่งการหรือไม่กระทำการจนเป็นเหตุให้ทรัสตีนั้นกระทำความผิด ผู้นั้นต้องระวางโทษจำคุกไม่เกินสองปี หรือปรับไม่เกินสองแสนบาท หรือทั้งจำทั้งปรับ”",
        "",
        "๖๖. พระราชบัญญัติองค์การกระจายเสียงและแพร่ภาพสาธารณะแห่งประเทศไทย พ.ศ. ๒๕๕๑",
        "“มาตรา ๕๔ ในกรณีที่ผู้กระทำความผิดเป็นนิติบุคคล ถ้าการกระทำความผิดของนิติบุคคลนั้นเกิดจากการสั่งการหรือการกระทำของกรรมการ หรือผู้จัดการหรือบุคคลใดซึ่งรับผิดชอบในการดำเนินงานของนิติบุคคลนั้น หรือในกรณีที่บุคคลดังกล่าวมีหน้าที่ต้องสั่งการหรือกระทำการและละเว้นไม่สั่งการหรือไม่กระทำการจนเป็นเหตุให้นิติบุคคลนั้นกระทำความผิด ผู้นั้นต้องรับโทษตามที่บัญญัติไว้สำหรับความผิดนั้น ๆ ด้วย”",
        "",
        "๖๗. พระราชบัญญัติธุรกิจสถาบันการเงิน พ.ศ. ๒๕๕๑",
        "“มาตรา ๑๓๒ ในกรณีที่ผู้กระทำความผิดตามมาตรา ๑๒๑ หรือมาตรา ๑๒๓ เป็นนิติบุคคล ถ้าการกระทำความผิดของนิติบุคคลนั้นเกิดจากการสั่งการหรือการกระทำของกรรมการหรือผู้จัดการ หรือผู้มีอำนาจในการจัดการของนิติบุคคล หรือบุคคลใดซึ่งรับผิดชอบในการดำเนินงานของนิติบุคคลนั้น หรือในกรณีที่บุคคลดังกล่าวมีหน้าที่ต้องสั่งการหรือกระทำการและละเว้นไม่สั่งการหรือไม่กระทำการจนเป็นเหตุให้นิติบุคคลนั้นกระทำความผิด ผู้นั้นต้องรับโทษตามที่บัญญัติไว้สำหรับความผิดนั้น ๆ ด้วย",
        "ภายใต้บังคับมาตรา ๑๓๙ ในกรณีที่สถาบันการเงินกระทำความผิดตามมาตรา ๑๒๒ มาตรา ๑๒๔ มาตรา ๑๒๕ หรือมาตรา ๑๒๘ ถ้าการกระทำความผิดของสถาบันการเงินนั้นเกิดจากการสั่งการหรือการกระทำของกรรมการ หรือผู้จัดการ หรือผู้มีอำนาจในการจัดการของสถาบันการเงิน หรือบุคคลใดซึ่งรับผิดชอบในการดำเนินงานของสถาบันการเงินนั้น หรือในกรณีที่บุคคลดังกล่าวมีหน้าที่ต้องสั่งการหรือกระทำการและละเว้นไม่สั่งการหรือไม่กระทำการจนเป็นเหตุให้สถาบันการเงินนั้นกระทำความผิด ผู้นั้นต้องรับโทษตามที่บัญญัติไว้สำหรับความผิดนั้น ๆ ด้วย”",
        "",
        "“มาตรา ๑๓๙ ในกรณีที่สถาบันการเงินใดฝ่าฝืนหรือไม่ปฏิบัติตามมาตรา ๓๖ มาตรา ๕๐ มาตรา ๖๖ มาตรา ๘๐ มาตรา ๙๓ มาตรา ๙๔ หรือมาตรา ๙๕ หรือฝ่าฝืนหรือไม่ปฏิบัติตามประกาศ ข้อกำหนด หลักเกณฑ์ หรือคำสั่งที่กำหนดตามมาตรา ๙ วรรคหนึ่ง มาตรา ๑๐ วรรคหนึ่ง มาตรา ๓๓ มาตรา ๓๖ มาตรา ๕๐ มาตรา ๖๖ มาตรา ๗๑ มาตรา ๘๐ มาตรา ๙๐ หรือมาตรา ๙๕ ถ้าการกระทำความผิดของสถาบันการเงินนั้นเกิดจากการสั่งการหรือการกระทำของกรรมการหรือผู้จัดการ หรือผู้มีอำนาจในการจัดการของสถาบันการเงิน หรือบุคคลใดซึ่งรับผิดชอบในการดำเนินงานของสถาบันการเงินนั้น หรือในกรณีที่บุคคลดังกล่าวมีหน้าที่ต้องสั่งการหรือกระทำการและละเว้นไม่สั่งการหรือไม่กระทำการจนเป็นเหตุให้สถาบันการเงินนั้นกระทำความผิด ผู้นั้นต้องระวางโทษจำคุกไม่เกินหนึ่งปี หรือปรับตั้งแต่ห้าแสนบาทถึงหนึ่งล้านบาท หรือทั้งจำทั้งปรับ”",
        "",
        "๖๘. พระราชบัญญัติคุ้มครองซากดึกดำบรรพ์ พ.ศ. ๒๕๕๑",
        "“มาตรา ๖๒ ในกรณีที่ผู้กระทำความผิดเป็นนิติบุคคลและถูกลงโทษ ถ้าการกระทำความผิดของนิติบุคคลนั้นเกิดจากการสั่งการหรือการกระทำของกรรมการ หรือผู้จัดการ หรือบุคคลใดซึ่งรับผิดชอบในการดำเนินงานของนิติบุคคลนั้น หรือในกรณีที่บุคคลดังกล่าวมีหน้าที่ต้องสั่งการหรือกระทำการและละเว้นไม่สั่งการหรือไม่กระทำการจนเป็นเหตุให้นิติบุคคลนั้นกระทำความผิด ผู้นั้นต้องรับโทษตามที่บัญญัติไว้สำหรับความผิดนั้น ๆ ด้วย”",
        "",
        "๖๙. พระราชบัญญัติสถาบันคุ้มครองเงินฝาก พ.ศ. ๒๕๕๑",
        "“มาตรา ๖๕ ผู้ใดนอกจากสถาบันการเงิน ใช้ข้อความ เครื่องหมาย หรือสัญลักษณ์ เพื่อแสดงว่าธุรกิจของตนเป็นสถาบันการเงินที่เงินฝากได้รับการคุ้มครองตามพระราชบัญญัตินี้ต้องระวางโทษจำคุกไม่เกินสองปี หรือปรับไม่เกินสองแสนบาทหรือทั้งจำทั้งปรับ และปรับอีกไม่เกินวันละห้าพันบาทตลอดเวลาที่ยังฝ่าฝืน",
        "ในกรณีที่ผู้กระทำความผิดตามวรรคหนึ่งเป็นนิติบุคคล ถ้าการกระทำความผิดของนิติบุคคลนั้นเกิดจากการสั่งการหรือการกระทำของกรรมการ หรือผู้จัดการ หรือบุคคลใดซึ่งรับผิดชอบในการดำเนินงานของนิติบุคคลนั้น หรือในกรณีที่บุคคลดังกล่าวมีหน้าที่ต้องสั่งการหรือกระทำการและละเว้นไม่สั่งการหรือไม่กระทำการจนเป็นเหตุให้นิติบุคคลนั้นกระทำความผิด ผู้นั้นต้องรับโทษตามที่บัญญัติไว้สำหรับความผิดนั้น ๆ ด้วย",
        "",
        "มาตรา ๖๖ สถาบันการเงินใดฝ่าฝืนหรือไม่ปฏิบัติตามมาตรา ๔๐ ต้องระวางโทษปรับไม่เกินห้าแสนบาท และปรับอีกไม่เกินวันละห้าพันบาทตลอดเวลาที่ยังฝ่าฝืน",
        "ในกรณีที่การกระทำความผิดตามวรรคหนึ่งเกิดจากการสั่งการหรือการกระทำของกรรมการ หรือผู้จัดการ หรือบุคคลใดซึ่งรับผิดชอบในการดำเนินงานของสถาบันการเงินนั้น หรือในกรณีที่บุคคลดังกล่าวมีหน้าที่ต้องสั่งการหรือกระทำการและละเว้นไม่สั่งการหรือไม่กระทำการจนเป็นเหตุให้สถาบันการเงินนั้นกระทำความผิด ผู้นั้นต้องรับโทษตามที่บัญญัติไว้ในวรรคหนึ่งด้วย”",
        "",
        "๗๐. พระราชบัญญัติการดูแลผลประโยชน์ของคู่สัญญา พ.ศ. ๒๕๕๑",
        "“มาตรา ๕๐ ในกรณีที่ผู้กระทำความผิดในส่วนที่ ๒ นี้ ยกเว้นมาตรา ๔๘ เป็นนิติบุคคล ถ้าการกระทำความผิดของนิติบุคคลนั้นเกิดจากการสั่งการหรือการกระทำของกรรมการ หรือผู้จัดการ หรือบุคคลใดซึ่งรับผิดชอบในการดำเนินงานของนิติบุคคลนั้น หรือในกรณีที่บุคคลดังกล่าวมีหน้าที่ต้องสั่งการหรือกระทำการและละเว้นไม่สั่งการหรือไม่กระทำการจนเป็นเหตุให้นิติบุคคลนั้นกระทำความผิด ผู้นั้นต้องรับโทษตามที่บัญญัติไว้สำหรับความผิดนั้น ๆ ด้วย”",
        "",
        "๗๑. พระราชบัญญัติมาตรฐานสินค้าเกษตร พ.ศ. ๒๕๕๑",
        "“มาตรา ๗๖ ในกรณีที่ผู้กระทำความผิดเป็นนิติบุคคล ถ้าการกระทำความผิดของนิติบุคคลนั้นเกิดจากการสั่งการหรือการกระทำของกรรมการ หรือผู้จัดการ หรือบุคคลใดซึ่งรับผิดชอบในการดำเนินงานของนิติบุคคลนั้น หรือในกรณีที่บุคคลดังกล่าวมีหน้าที่ต้องสั่งการหรือกระทำการและละเว้นไม่สั่งการหรือไม่กระทำการจนเป็นเหตุให้นิติบุคคลนั้นกระทำความผิด ผู้นั้นต้องรับโทษตามที่บัญญัติไว้สำหรับความผิดนั้น ๆ ด้วย”",
        "",
        "๗๒. พระราชบัญญัติการมาตรฐานแห่งชาติ พ.ศ. ๒๕๕๑",
        "“มาตรา ๕๘ ในกรณีที่ผู้กระทำความผิดเป็นนิติบุคคล ถ้าการกระทำความผิดของนิติบุคคลนั้นเกิดจากการสั่งการหรือการกระทำของกรรมการ หรือผู้จัดการ หรือบุคคลใดซึ่งรับผิดชอบในการดำเนินงานของนิติบุคคลนั้น หรือในกรณีที่บุคคลดังกล่าวมีหน้าที่ต้องสั่งการหรือกระทำการและละเว้นไม่สั่งการหรือไม่กระทำการจนเป็นเหตุให้นิติบุคคลนั้นกระทำความผิด ผู้นั้นต้องรับโทษตามที่บัญญัติไว้สำหรับความผิดนั้น ๆ ด้วย”",
        "",
        "๗๓. พระราชบัญญัติภาพยนตร์และวีดิทัศน์ พ.ศ. ๒๕๕๑",
        "“มาตรา ๘๕ ในกรณีที่ผู้กระทำความผิดซึ่งต้องรับโทษอาญาตามส่วนนี้เป็นนิติบุคคล ถ้าการกระทำความผิดของนิติบุคคลนั้นเกิดจากการสั่งการหรือการกระทำของกรรมการ หรือผู้จัดการ หรือบุคคลใดซึ่งรับผิดชอบในการดำเนินงานของนิติบุคคลนั้น หรือในกรณีที่บุคคลดังกล่าวมีหน้าที่ต้องสั่งการหรือกระทำการและละเว้นไม่สั่งการหรือไม่กระทำการจนเป็นเหตุให้นิติบุคคลนั้นกระทำความผิด ผู้นั้นต้องรับโทษตามที่บัญญัติไว้สำหรับความผิดนั้น ๆ ด้วย”",
        "",
        "๗๔. พระราชบัญญัติเครื่องมือแพทย์ พ.ศ. ๒๕๕๑",
        "“มาตรา ๑๒๒ ในกรณีที่ผู้กระทำความผิดเป็นนิติบุคคล ถ้าการกระทำความผิดของนิติบุคคลนั้นเกิดจากการสั่งการหรือการกระทำของกรรมการ หรือผู้จัดการ หรือบุคคลใดซึ่งรับผิดชอบในการดำเนินงานของนิติบุคคลนั้น หรือในกรณีที่บุคคลดังกล่าวมีหน้าที่ต้องสั่งการหรือกระทำการและละเว้นไม่สั่งการหรือไม่กระทำการจนเป็นเหตุให้นิติบุคคลนั้นกระทำความผิด ผู้นั้นต้องรับโทษตามที่บัญญัติไว้สำหรับความผิดนั้น ๆ ด้วย”",
        "",
        "๗๕. พระราชบัญญัติคุ้มครองผู้รับงานไปทำที่บ้าน พ.ศ. ๒๕๕๓",
        "“มาตรา ๔๘ ในกรณีที่ผู้กระทำความผิดเป็นนิติบุคคล ถ้าการกระทำความผิดของนิติบุคคลนั้นเกิดจากการสั่งการหรือการกระทำของกรรมการ หรือผู้จัดการ หรือบุคคลใดซึ่งรับผิดชอบในการดำเนินงานของนิติบุคคลนั้น หรือในกรณีที่บุคคลดังกล่าวมีหน้าที่ต้องสั่งการหรือกระทำการและละเว้นไม่สั่งการหรือไม่กระทำการจนเป็นเหตุให้นิติบุคคลนั้นกระทำความผิด ผู้นั้นต้องรับโทษตามที่บัญญัติไว้สำหรับความผิดนั้น ๆ ด้วย”",
        "",
        "๗๖. พระราชบัญญัติกองทุนการออมแห่งชาติ พ.ศ. ๒๕๕๔",
        "“มาตรา ๖๒ ผู้ได้รับมอบหมายให้จัดการเงินของกองทุนรายใดไม่ปฏิบัติตามมาตรา ๕๗ วรรคสาม ต้องระวางโทษปรับไม่เกินสองล้านบาท และปรับอีกไม่เกินวันละหนึ่งแสนห้าหมื่นบาทจนกว่าจะได้ปฏิบัติให้ถูกต้อง",
        "ในกรณีที่การกระทำความผิดตามวรรคหนึ่งเกิดจากการสั่งการหรือการกระทำของกรรมการ หรือผู้จัดการ หรือบุคคลใดซึ่งรับผิดชอบในการดำเนินงานของผู้ได้รับมอบหมายให้จัดการเงินของกองทุนนั้น หรือในกรณีที่บุคคลดังกล่าวมีหน้าที่ต้องสั่งการหรือกระทำการและละเว้นไม่สั่งการหรือไม่กระทำการจนเป็นเหตุให้ผู้ได้รับมอบหมายให้จัดการเงินของกองทุนนั้นกระทำความผิด ผู้นั้นต้องระวางโทษจำคุกไม่เกินสามปี หรือปรับไม่เกินสองล้านบาท หรือทั้งจำทั้งปรับ”",
        "",
        "หมายเหตุ :- เหตุผลในการประกาศใช้พระราชบัญญัติฉบับนี้ คือ โดยที่ศาลรัฐธรรมนูญได้มีคำวินิจฉัยว่าพระราชบัญญัติขายตรงและตลาดแบบตรง พ.ศ. ๒๕๔๕ มาตรา ๕๔ เฉพาะในส่วนที่สันนิษฐานให้กรรมการผู้จัดการ ผู้จัดการ หรือบุคคลใดซึ่งรับผิดชอบในการดำเนินงานของนิติบุคคลนั้น ต้องรับโทษทางอาญาร่วมกับการกระทำความผิดของนิติบุคคล โดยไม่ปรากฏว่ามีการกระทำหรือเจตนาประการใดอันเกี่ยวกับการกระทำความผิดของนิติบุคคลนั้น ขัดหรือแย้งต่อรัฐธรรมนูญแห่งราชอาณาจักรไทย พุทธศักราช ๒๕๕๐ มาตรา ๓๙ วรรคสอง เป็นอันใช้บังคับไม่ได้ตามรัฐธรรมนูญแห่งราชอาณาจักรไทย พุทธศักราช ๒๕๕๐ มาตรา ๖ และต่อมาศาลรัฐธรรมนูญได้มีคำวินิจฉัยในลักษณะดังกล่าวทำนองเดียวกัน คือ พระราชบัญญัติลิขสิทธิ์ พ.ศ. ๒๕๓๗ มาตรา ๗๔ พระราชบัญญัติการประกอบกิจการโทรคมนาคม พ.ศ. ๒๕๔๔ มาตรา ๗๘ พระราชบัญญัติสถานบริการ พ.ศ. ๒๕๐๙ มาตรา ๒๘/๔ และพระราชบัญญัติปุ๋ย พ.ศ. ๒๕๑๘ มาตรา ๗๒/๕ ขัดหรือแย้งต่อรัฐธรรมนูญแห่งราชอาณาจักรไทย พุทธศักราช ๒๕๕๐ มาตรา ๓๙ วรรคสอง เป็นอันใช้บังคับไม่ได้ตามรัฐธรรมนูญแห่งราชอาณาจักรไทย พุทธศักราช ๒๕๕๐ มาตรา ๖ ดังนั้น เพื่อแก้ไขบทบัญญัติของกฎหมายดังกล่าวและกฎหมายอื่นที่มีบทบัญญัติในลักษณะเดียวกันมิให้ขัดหรือแย้งต่อรัฐธรรมนูญ จึงจำเป็นต้องตราพระราชบัญญัตินี้",
        "",
        "ชวัลพร/ปริยานุช/จัดทำ",
        "๑๔ กุมภาพันธ์ ๒๕๖๐",
        "",
        "นุสรา/ตรวจ",
        "๑๔ กุมภาพันธ์ ๒๕๖๐"
      ]
    ],
    []
  ],
  "metadata": {
    "date_header": "2560-02-10",
    "date_modified": "2560-02-11",
    "date_original": "2560-02-11",
    "doctype": "พระราชบัญญัติ",
    "editors": [],
    "tag": "bb08-20-2560-a0002",
    "title": "แก้ไขเพิ่มเติมบทบัญญัติแห่งกฎหมายที่เกี่ยวกับความรับผิดในทางอาญาของผู้แทนนิติบุคคล"
  }
}