{
  "pages": [
    [
      [
        "ประกาศอธิบดีกรมสรรพากร",
        "เรื่อง รายชื่อผู้รับทำการวิจัยและพัฒนาเทคโนโลยีและนวัตกรรม (ฉบับที่ ๗๐)"
      ]
    ],
    []
  ],
  "metadata": {
    "date_backmatter": "2560-12-12",
    "date_modified": "2561-02-01",
    "date_original": "2561-02-01",
    "doctype": "ประกาศ",
    "editors": [
      {
        "name": "ปวันวิทย์",
        "role": "จัดทำ",
        "date": "2561-02-20"
      }
    ],
    "tag": "bb08-2e-2561-a0009"
  }
}