{
  "pages": [
    [
      [
        "ประกาศกรมสรรพากร",
        "เกี่ยวกับภาษีเงินได้ (ฉบับที่ ๒๗)",
        "เรื่อง กำหนดกองทุนสวัสดิการภายในส่วนราชการ",
        "ที่จัดตั้งขึ้นตามระเบียบสำนักนายกรัฐมนตรี ว่าด้วยการจัดสวัสดิการภายในส่วนราชการ",
        "ตามพระราชกฤษฎีกาออกตามความในประมวลรัษฎากร ว่าด้วยการยกเว้นรัษฎากร (ฉบับที่ ๔๒๔)",
        "พ.ศ. ๒๕๔๗ และประกาศอธิบดีกรมสรรพากร เกี่ยวกับภาษีเงินได้ (ฉบับที่ ๑๓๔)",
        "เรื่อง กำหนดหลักเกณฑ์ วิธีการ และเงื่อนไขการยกเว้นภาษีเงินได้สำหรับการบริจาค",
        "ให้แก่กองทุนสวัสดิการภายในส่วนราชการ ลงวันที่ ๒๓ พฤศจิกายน พ.ศ. ๒๕๔๗"
      ]
    ],
    []
  ],
  "metadata": {
    "date_backmatter": "2554-03-29",
    "date_header": "2547-11-23",
    "date_modified": "2554-05-18",
    "date_original": "2554-05-18",
    "doctype": "ประกาศ",
    "editors": [
      {
        "name": "ปริยานุช",
        "role": "ผู้จัดทำ",
        "date": "2554-05-31"
      },
      {
        "name": "ณัฐวดี",
        "role": "ตรวจ",
        "date": "2554-05-31"
      }
    ],
    "tag": "bb08-2e-2554-a0024"
  }
}