{
  "pages": [
    [
      [
        "พระราชกฤษฎีกา",
        "ออกตามความในประมวลรัษฎากร",
        "ว่าด้วยการลดอัตรารัษฎากร (ฉบับที่ ๖๔๑)",
        "พ.ศ. ๒๕๖๐",
        "",
        "",
        "สมเด็จพระเจ้าอยู่หัวมหาวชิราลงกรณ บดินทรเทพยวรางกูร",
        "ให้ไว้ ณ วันที่ ๙ กรกฎาคม พ.ศ. ๒๕๖๐",
        "เป็นปีที่ ๒ ในรัชกาลปัจจุบัน"
      ]
    ],
    []
  ],
  "metadata": {
    "date_backmatter": "2559-06-28",
    "date_header": "2560-07-09",
    "date_modified": "2560-07-10",
    "date_original": "2560-07-10",
    "doctype": "พระราชกฤษฎีกา",
    "editors": [
      {
        "name": "พิมพ์มาดา/อัญชลี",
        "role": "จัดทำ",
        "date": "2560-07-13"
      }
    ],
    "tag": "bb08-2a-2560-a0019",
    "title": "ออกตามความในประมวลรัษฎากรว่าด้วยการลดอัตรารัษฎากร (ฉบับที่ ๖๔๑)"
  }
}