{
  "pages": [
    [
      [
        "ประกาศกระทรวงการคลัง",
        "ว่าด้วยภาษีเงินได้และภาษีมูลค่าเพิ่ม (ฉบับที่ ๑๖๔)",
        "เรื่อง กำหนดองค์การ สถานสาธารณกุศล สถานพยาบาล และสถานศึกษา",
        "ตามมาตรา ๔๗ (๗) (ข) แห่งประมวลรัษฎากร และมาตรา ๓ (๔) (ข)",
        "แห่งพระราชกฤษฎีกาออกตามความในประมวลรัษฎากร",
        "ว่าด้วยการยกเว้นภาษีมูลค่าเพิ่ม (ฉบับที่ ๒๓๙) พ.ศ. ๒๕๓๔",
        "ซึ่งแก้ไขเพิ่มเติมโดยพระราชกฤษฎีกาออกตามความในประมวลรัษฎากร",
        "ว่าด้วยการยกเว้นภาษีมูลค่าเพิ่ม (ฉบับที่ ๒๕๔) พ.ศ. ๒๕๓๕"
      ]
    ],
    []
  ],
  "metadata": {
    "date_backmatter": "2545-01-04",
    "date_gz_old": "2545-02-12",
    "doctype": "ประกาศ",
    "editors": [
      {
        "name": "พรพิมล",
        "role": "แก้ไข",
        "date": "2545-06-21"
      }
    ],
    "tag": "bb08-2e-2545-a016"
  }
}