{
  "pages": [
    [
      [
        "กฎกระทรวง",
        "ฉบับที่ ๒๘๓ (พ.ศ. ๒๕๕๔)",
        "ออกตามความในประมวลรัษฎากร",
        "ว่าด้วยการจำหน่ายหนี้สูญจากบัญชีลูกหนี้"
      ]
    ],
    []
  ],
  "metadata": {
    "date_backmatter": "2554-09-28",
    "date_modified": "2554-10-21",
    "date_original": "2554-10-21",
    "doctype": "กฎกระทรวง",
    "editors": [
      {
        "name": "นุสรา",
        "role": "ปรับปรุง",
        "date": "2559-10-27"
      }
    ],
    "tag": "bb08-2b-2554-a0005"
  }
}