{
  "pages": [
    [
      [
        "ประกาศสำนักงานคณะกรรมการส่วนจังหวัดว่าด้วยราคาสินค้าและบริการ",
        "จังหวัดพระนครศรีอยุธยา",
        "เรื่อง การกำหนดช่วงระยะเวลากำกับดูแล",
        "และติดตามความเคลื่อนไหวราคาสินค้าและบริการเป็นกรณีพิเศษ",
        "(ฉบับที่ ๒) พ.ศ. ๒๕๕๙"
      ]
    ],
    []
  ],
  "metadata": {
    "date_backmatter": "2559-05-16",
    "date_modified": "2559-06-23",
    "date_original": "2559-06-23",
    "doctype": "ประกาศ",
    "editors": [
      {
        "name": "ปริยานุช",
        "role": "จัดทำ",
        "date": "2559-06-28"
      },
      {
        "name": "ปุณิกา",
        "role": "ตรวจ",
        "date": "2559-06-28"
      }
    ],
    "tag": "bb08-2f-2559-a0037"
  }
}