{
  "pages": [
    [
      [
        "พระราชกฤษฎีกา",
        "ออกตามความในประมวลรัษฎากร",
        "ว่าด้วยการกำหนดกิจการที่ได้รับยกเว้นภาษีธุรกิจเฉพาะ (ฉบับที่ ๓๕๕)",
        "พ.ศ. ๒๕๔๒",
        "-------------",
        "",
        "ภูมิพลอดุลยเดช ป.ร.",
        "ให้ไว้ ณ วันที่ ๑๕ พฤษภาคม พ.ศ. ๒๕๔๒",
        "เป็นปีที่ ๕๔ ในรัชกาลปัจจุบัน"
      ]
    ],
    []
  ],
  "metadata": {
    "date_gz_old": "2542-05-21",
    "date_header": "2542-05-15",
    "editors": [],
    "tag": "bb08-2a-2542-a010"
  }
}