{
  "pages": [
    [
      [
        "พระราชกฤษฎีกา",
        "ออกตามความในประมวลรัษฎากร",
        "ว่าด้วยการยกเว้นภาษีมูลค่าเพิ่ม (ฉบับที่ ๓๑๑)",
        "พ.ศ. ๒๕๔๐",
        "-------------",
        "",
        "ภูมิพลอดุลยเดช ป.ร.",
        "ให้ไว้ ณ วันที่ ๑๕ กันยายน พ.ศ. ๒๕๔๐",
        "เป็นปีที่ ๕๒ ในรัชกาลปัจจุบัน"
      ]
    ],
    []
  ],
  "metadata": {
    "date_gz_old": "2540-10-02",
    "date_header": "2540-09-15",
    "editors": [],
    "tag": "bb08-2a-2540-311"
  }
}