{
  "pages": [
    [
      [
        "กฎกระทรวง",
        "ฉบับที่ ๒๙๙ (พ.ศ. ๒๕๕๖)",
        "ออกตามความในประมวลรัษฎากร",
        "ว่าด้วยการยกเว้นรัษฎากร"
      ]
    ],
    []
  ],
  "metadata": {
    "date_backmatter": "2556-08-30",
    "date_modified": "2556-09-12",
    "date_original": "2556-09-12",
    "doctype": "กฎกระทรวง",
    "editors": [
      {
        "name": "ปริยานุช",
        "role": "ผู้จัดทำ",
        "date": "2556-09-13"
      },
      {
        "name": "ชาญ",
        "role": "ผู้ตรวจ",
        "date": "2556-09-24"
      }
    ],
    "tag": "bb08-2b-2556-a0005"
  }
}