{
  "pages": [
    [
      [
        "ประกาศกระทรวงการคลัง",
        "ว่าด้วยเงินภาษีเงินได้และภาษีมูลค่าเพิ่ม (ฉบับที่ ๑๒๒)",
        "เรื่อง กำหนดองค์การ สถานสาธารณกุศล สถานพยาบาล และสถานศึกษา",
        "ตามมาตรา ๔๗ (๗) (ข) แห่งประมวลรัษฎากร และมาตรา ๓ (๔) (ข)",
        "แห่งพระราชกฤษฎีกาออกตามความในประมวลรัษฎากร ว่าด้วยการยกเว้น",
        "ภาษีมูลค่าเพิ่ม (ฉบับที่ ๒๓๙) พ.ศ. ๒๕๓๔ ซึ่งแก้ไขเพิ่มเติม",
        "โดยพระราชกฤษฎีกาออกตามความในประมวลรัษฎากร ว่าด้วย",
        "การยกเว้นภาษีมูลค่าเพิ่ม (ฉบับที่ ๒๕๔) พ.ศ. ๒๕๓๕"
      ]
    ],
    []
  ],
  "metadata": {
    "date_backmatter": "2542-12-28",
    "date_gz_old": "2543-02-15",
    "doctype": "ประกาศ",
    "editors": [
      {
        "name": "ปรียนันท์",
        "role": "แก้ไข"
      },
      {
        "name": "๒๖/๔",
        "role": "๔๕"
      }
    ],
    "tag": "bb08-2e-2543-a008"
  }
}