{
  "pages": [
    [
      [
        "ประกาศอธิบดีกรมสรรพากร",
        "เกี่ยวกับภาษีเงินได้ (ฉบับที่ ๑๖๒)",
        "เรื่อง กำหนดหลักเกณฑ์และวิธีการเพื่อการยกเว้นภาษีเงินได้สำหรับเงินได้เท่าที่ผู้มีเงินได้",
        "จ่ายเป็นเบี้ยประกันภัย สำหรับการประกันสุขภาพบิดามารดาของผู้มีเงินได้",
        "รวมทั้งบิดามารดาของสามีหรือภริยาของผู้มีเงินได้"
      ]
    ],
    []
  ],
  "metadata": {
    "date_backmatter": "2549-12-26",
    "date_modified": "2550-02-01",
    "date_original": "2550-02-01",
    "doctype": "ประกาศ",
    "editors": [
      {
        "name": "โชติกานต์",
        "role": "ผู้จัดทำ",
        "date": "2556-05-21"
      }
    ],
    "tag": "bb08-2e-2550-a0006"
  }
}