{
  "pages": [
    [
      [
        "กฎกระทรวง",
        "ฉบับที่ ๑๗๗ (พ.ศ. ๒๕๓๑)",
        "ออกตามความในประมวลรัษฎากร",
        "ว่าด้วยการยกเว้นรัษฎากร"
      ]
    ],
    []
  ],
  "metadata": {
    "date_backmatter": "2531-12-09",
    "date_gz_old": "2531-12-09",
    "doctype": "กฎกระทรวง",
    "editors": [],
    "tag": "bb08-2b-2531-177"
  }
}