{
  "pages": [
    [
      [
        "ประกาศกระทรวงการคลัง",
        "เกี่ยวกับภาษีเงินได้ (ฉบับที่ ๓๕๘)",
        "เรื่อง รายชื่อผู้รับทำการวิจัยและพัฒนาเทคโนโลยี"
      ]
    ],
    []
  ],
  "metadata": {
    "date_backmatter": "2558-05-14",
    "date_modified": "2558-06-25",
    "date_original": "2558-06-25",
    "doctype": "ประกาศ",
    "editors": [
      {
        "name": "ปริยานุช",
        "role": "ผู้จัดทำ",
        "date": "2558-06-30"
      },
      {
        "name": "ปริญสินีย์",
        "role": "ผู้ตรวจ",
        "date": "2558-06-30"
      }
    ],
    "tag": "bb08-2e-2558-a0055"
  }
}