{
  "pages": [
    [
      [
        "ประกาศกระทรวงการคลัง",
        "เกี่ยวกับภาษีเงินได้ (ฉบับที่ 3)",
        "เรื่อง กำหนดหน่วยงานของรัฐหรือเอกชน",
        "ที่รับทำการวิจัยและพัฒนาเทคโนโลยี"
      ]
    ],
    []
  ],
  "metadata": {
    "date_backmatter": "2539-12-16",
    "doctype": "ประกาศ",
    "editors": [],
    "tag": "bb08-2e-2540-003"
  }
}