{
  "pages": [
    [
      [
        "คำสั่งกรมสรรพากร",
        "ที่ ป. ๓๐ / ๒๕๓๕",
        "เรื่อง การคำนวณเบี้ยปรับหรือเงินเพิ่มภาษีมูลค่าเพิ่ม",
        "ตามมาตรา ๘๙ และมาตรา ๘๙/๑ แห่งประมวลรัษฎากร"
      ]
    ],
    []
  ],
  "metadata": {
    "date_backmatter": "2535-12-18",
    "date_gz_old": "2536-01-12",
    "editors": [
      {
        "name": "ธิดาวรรณ",
        "role": "แก้ไข",
        "date": "2545-09-16"
      }
    ],
    "tag": "bb08-2f-2536-a009"
  }
}