{
  "pages": [
    [
      [
        "ประกาศอธิบดีกรมสรรพากร",
        "เกี่ยวกับภาษีเงินได้ (ฉบับที่ ๙๔)",
        "เรื่อง กำหนดแบบแสดงรายการเกี่ยวกับภาษีเงินได้",
        "บุคคลธรรมดา หัก ณ ที่จ่าย"
      ]
    ],
    []
  ],
  "metadata": {
    "date_backmatter": "2544-09-03",
    "date_gz_old": "2544-10-01",
    "doctype": "ประกาศ",
    "editors": [
      {
        "name": "อัมพิกา",
        "role": "แก้ไข",
        "date": "2545-05-08"
      }
    ],
    "tag": "bb08-2e-2544-a032"
  }
}