{
  "pages": [
    [
      [
        "ประกาศอธิบดีกรมสรรพากร",
        "เกี่ยวกับอากรแสตมป์ (ฉบับที่ ๓๗)",
        "เรื่อง กำหนดวิธีการชำระอากรเป็นตัวเงินแทนการปิดแสตมป์อากร",
        "สำหรับตราสารบางลักษณะ"
      ]
    ],
    []
  ],
  "metadata": {
    "date_backmatter": "2538-12-02",
    "date_modified": "2538-12-11",
    "date_original": "2538-12-11",
    "doctype": "ประกาศ",
    "editors": [
      {
        "name": "นุสรา",
        "role": "ปรับปรุง",
        "date": "2559-12-07"
      }
    ],
    "tag": "bb08-2e-2538-a021"
  }
}