{
  "pages": [
    [
      [
        "ประกาศกองทุนบำเหน็จบำนาญข้าราชการ",
        "เรื่อง แบบขอรับเงินจากกองทุน",
        "และแบบแจ้งเปลี่ยนแปลงข้อมูลผู้แจ้งความประสงค์ให้กองทุนบริหารต่อหรือขอทยอยรับเงิน"
      ]
    ],
    []
  ],
  "metadata": {
    "date_backmatter": "2555-01-26",
    "date_modified": "2557-12-11",
    "date_original": "2557-12-11",
    "doctype": "ประกาศ",
    "editors": [
      {
        "name": "ปริยานุช",
        "role": "ผู้จัดทำ",
        "date": "2557-12-16"
      },
      {
        "name": "ปริญสินีย์",
        "role": "ผู้ตรวจ",
        "date": "2557-12-16"
      }
    ],
    "tag": "a186-2e-2557-a0017"
  }
}