{
  "pages": [
    [
      [
        "ประกาศกระทรวงการคลัง",
        "เรื่อง กำหนดหลักทรัพย์ที่กองทุนบำเหน็จบำนาญข้าราชการอาจลงทุนได้"
      ]
    ],
    []
  ],
  "metadata": {
    "date_backmatter": "2554-04-29",
    "date_modified": "2554-05-30",
    "date_original": "2554-05-30",
    "doctype": "ประกาศ",
    "editors": [
      {
        "name": "ปริยานุช",
        "role": "ผู้จัดทำ",
        "date": "2554-06-08"
      },
      {
        "name": "ณัฐวดี",
        "role": "ตรวจ",
        "date": "2554-06-08"
      }
    ],
    "tag": "a186-2e-2554-a0002"
  }
}