{
  "pages": [
    [
      [
        "พระราชบัญญัติ",
        "กองทุนบำเหน็จบำนาญข้าราชการ (ฉบับที่ ๔)",
        "พ.ศ. ๒๕๔๙",
        "",
        "",
        "ภูมิพลอดุลยเดช ป.ร.",
        "ให้ไว้ ณ วันที่ ๙ มกราคม พ.ศ. ๒๕๔๙",
        "เป็นปีที่ ๖๑ ในรัชกาลปัจจุบัน"
      ]
    ],
    []
  ],
  "metadata": {
    "date_header": "2549-01-09",
    "date_modified": "2549-01-17",
    "date_original": "2549-01-17",
    "doctype": "พระราชบัญญัติ",
    "editors": [
      {
        "name": "ชัชสรัญ",
        "role": "ผู้จัดทำ",
        "date": "2549-01-24"
      },
      {
        "name": "กฤษดายุทธ",
        "role": "ปรับปรุง",
        "date": "2556-11-27"
      },
      {
        "name": "ปณตภร",
        "role": "ตรวจ",
        "date": "2557-03-31"
      }
    ],
    "tag": "a186-20-2549-a0001",
    "title": "กองทุนบำเหน็จบำนาญข้าราชการ (ฉบับที่ ๔)"
  }
}