{
  "pages": [
    [
      [
        "กฎกระทรวง",
        "กำหนดอัตราและวิธีการรับบำเหน็จดำรงชีพ",
        "พ.ศ. ๒๕๔๖"
      ]
    ],
    []
  ],
  "metadata": {
    "date_backmatter": "2546-12-09",
    "date_modified": "2546-12-16",
    "date_original": "2546-12-16",
    "doctype": "กฎกระทรวง",
    "editors": [
      {
        "name": "ศุภชัย",
        "role": "พิมพ์",
        "date": "2547-02-13"
      },
      {
        "name": "พัชรินทร์/สุมลรัตน์",
        "role": "ตรวจ",
        "date": "2547-02-17"
      },
      {
        "name": "โชติกานต์",
        "role": "ปรับปรุง",
        "date": "2559-04-28"
      }
    ],
    "tag": "a186-2b-2546-a0002"
  }
}