{
  "pages": [
    [
      [
        "ประกาศคณะกรรมการกองทุนบำเหน็จบำนาญข้าราชการ",
        "เรื่อง หลักเกณฑ์การขอรับและการตรวจสอบสิทธิในการได้รับเงินจากกองทุนบำเหน็จบำนาญข้าราชการ"
      ]
    ],
    []
  ],
  "metadata": {
    "date_backmatter": "2555-01-09",
    "date_modified": "2557-12-11",
    "date_original": "2557-12-11",
    "doctype": "ประกาศ",
    "editors": [
      {
        "name": "ปริยานุช",
        "role": "ผู้จัดทำ",
        "date": "2557-12-16"
      },
      {
        "name": "ปริญสินีย์",
        "role": "ผู้ตรวจ",
        "date": "2557-12-16"
      }
    ],
    "tag": "a186-2e-2557-a0009"
  }
}