{
  "pages": [
    [
      [
        "พระราชบัญญัติ",
        "ว่าด้วยลักษณ ฐานะ ของวัดบาดหลวง",
        "โรมันคาทอลิกในกรุงสยาม ตามกฎหมาย"
      ]
    ],
    []
  ],
  "metadata": {
    "date_backmatter": "2452-08-27",
    "date_modified": "2461-10-20",
    "date_original": "2452-08-29",
    "editors": [
      {
        "name": "วศิน",
        "role": "จัดทำ",
        "date": "2557-06-13"
      }
    ],
    "tag": "c718-20-2461-a0002"
  }
}