{
  "pages": [
    [
      [
        "พระราชบัญญัติเพิ่มเติมพระราชบัญญัติ",
        "ลงวันที่ ๒๗ สิงหาคม ร.ศ. ๑๒๘ (พ.ศ. ๒๔๕๒)",
        "ว่าด้วยลักษณฐานะของวัดบาดหลวงโรมันคาโทลิค",
        "ในกรุงสยาม ตามกฎหมาย"
      ]
    ],
    []
  ],
  "metadata": {
    "date_backmatter": "2466-11-24",
    "date_header": "2452-08-27",
    "date_modified": "2466-12-09",
    "date_original": "2466-12-09",
    "editors": [],
    "tag": "c718-20-2466-a0001"
  }
}