{
  "pages": [
    [
      [
        "ข้อบังคับคณะกรรมการการแข่งขันทางการค้า",
        "ว่าด้วยการมอบอำนาจ",
        "พ.ศ. ๒๕๖๑"
      ]
    ],
    []
  ],
  "metadata": {
    "date_backmatter": "2561-01-11",
    "date_modified": "2561-01-23",
    "date_original": "2561-01-23",
    "editors": [
      {
        "name": "พรวิภา",
        "role": "จัดทำ",
        "date": "2561-01-23"
      }
    ],
    "tag": "a193-2i-2561-a0001"
  }
}