{
  "pages": [
    [
      [
        "กฎกระทรวง",
        "การคัดเลือกกรรมการการแข่งขันทางการค้า",
        "พ.ศ. ๒๕๖๑"
      ]
    ],
    []
  ],
  "metadata": {
    "date_backmatter": "2561-03-12",
    "date_modified": "2561-03-16",
    "date_original": "2561-03-16",
    "doctype": "กฎกระทรวง",
    "editors": [
      {
        "name": "ปวันวิทย์",
        "role": "จัดทำ",
        "date": "2561-04-20"
      }
    ],
    "tag": "a193-2b-2561-a0001"
  }
}