{
  "pages": [
    [
      [
        "พระราชบัญญัติ",
        "เปลี่ยนแปลงเขตอำนาจศาลจังหวัดชัยภูมิและศาลจังหวัดภูเขียว",
        "พ.ศ. ๒๕๔๒",
        "",
        "",
        "ภูมิพลอดุลยเดช ป.ร.",
        "ให้ไว้ ณ วันที่ ๒๙ ธันวาคม พ.ศ. ๒๕๔๒",
        "เป็นปีที่ ๕๔ ในรัชกาลปัจจุบัน"
      ]
    ],
    []
  ],
  "metadata": {
    "date_header": "2542-12-29",
    "date_modified": "2542-12-30",
    "date_original": "2542-12-30",
    "doctype": "พระราชบัญญัติ",
    "editors": [
      {
        "name": "สุกัญญา",
        "role": "พิมพ์",
        "date": "2554-02-15"
      },
      {
        "name": "สุนันทา",
        "role": "ตรวจ",
        "date": "2554-02-21"
      }
    ],
    "tag": "bb49-20-2542-a0001",
    "title": "เปลี่ยนแปลงเขตอำนาจศาลจังหวัดชัยภูมิและศาลจังหวัดภูเขียว"
  }
}