{
  "pages": [
    [
      [
        "ประกาศธนาคารออมสิน",
        "เรื่อง เปิดสำนักงานธนาคารออมสินสาขาชัยบุรี"
      ]
    ],
    []
  ],
  "metadata": {
    "date_backmatter": "2556-02-13",
    "date_modified": "2556-05-09",
    "date_original": "2556-05-09",
    "doctype": "ประกาศ",
    "editors": [
      {
        "name": "ปริยานุช",
        "role": "ผู้จัดทำ",
        "date": "2556-05-14"
      },
      {
        "name": "อุษมล",
        "role": "ผู้ตรวจ",
        "date": "2556-05-14"
      }
    ],
    "tag": "b805-2e-2556-a0103"
  }
}