{
  "pages": [
    [
      [
        "ประกาศธนาคารออมสิน",
        "เรื่อง อัตราการจ่ายเงินปันผลของบริการทางการเงินตามหลักศาสนาอิสลาม",
        "เดือนมกราคม ๒๕๕๒"
      ]
    ],
    []
  ],
  "metadata": {
    "date_backmatter": "2552-01-26",
    "date_header": "2552-01-00",
    "date_modified": "2552-04-16",
    "date_original": "2552-04-16",
    "doctype": "ประกาศ",
    "editors": [
      {
        "name": "ปริยานุช",
        "role": "ผู้จัดทำ",
        "date": "2552-05-01"
      }
    ],
    "tag": "b805-2e-2552-a0062"
  }
}