{
  "pages": [
    [
      [
        "ระเบียบธนาคารออมสิน ฉบับที่ ๕๖๓",
        "ว่าด้วยการให้สินเชื่อ",
        "(แก้ไขเพิ่มเติมครั้งที่ ๓)"
      ]
    ],
    []
  ],
  "metadata": {
    "date_backmatter": "2558-07-14",
    "date_modified": "2558-10-15",
    "date_original": "2558-10-15",
    "editors": [
      {
        "name": "ปริยานุช/ปุณิกา",
        "role": "จัดทำ",
        "date": "2558-11-10"
      },
      {
        "name": "พจนา",
        "role": "ตรวจ",
        "date": "2558-11-10"
      }
    ],
    "tag": "b805-2g-2558-a0004"
  }
}