{
  "pages": [
    [
      [
        "ประกาศธนาคารออมสิน",
        "เรื่อง ให้ธนาคารออมสินสาขาเปิดให้บริการโอนเงินด่วนระหว่างประเทศ Xpress Money"
      ]
    ],
    []
  ],
  "metadata": {
    "date_backmatter": "2555-08-09",
    "date_modified": "2555-11-22",
    "date_original": "2555-11-22",
    "doctype": "ประกาศ",
    "editors": [
      {
        "name": "ปริยานุช",
        "role": "ผู้จัดทำ",
        "date": "2555-11-23"
      },
      {
        "name": "ปณตภร",
        "role": "ผู้ตรวจ",
        "date": "2556-01-04"
      }
    ],
    "tag": "b805-2e-2555-a0391"
  }
}