{
  "pages": [
    [
      [
        "ประกาศธนาคารออมสิน",
        "เรื่อง เปิดสำนักงานธนาคารออมสินสาขากมลา"
      ]
    ],
    []
  ],
  "metadata": {
    "date_backmatter": "2555-03-26",
    "date_modified": "2555-06-21",
    "date_original": "2555-06-21",
    "doctype": "ประกาศ",
    "editors": [
      {
        "name": "ปริยานุช",
        "role": "ผู้จัดทำ",
        "date": "2555-06-26"
      },
      {
        "name": "ชาญ",
        "role": "ผู้ตรวจ",
        "date": "2555-06-29"
      }
    ],
    "tag": "b805-2e-2555-a0245"
  }
}