{
  "pages": [
    [
      [
        "ประกาศธนาคารออมสิน",
        "เรื่อง เปิดสำนักงานธนาคารออมสินสาขาพัทยาใต้"
      ]
    ],
    []
  ],
  "metadata": {
    "date_backmatter": "2553-04-30",
    "date_modified": "2556-09-05",
    "date_original": "2553-07-08",
    "doctype": "ประกาศ",
    "editors": [
      {
        "name": "โชติกานต์",
        "role": "ผู้จัดทำ",
        "date": "2556-10-09"
      }
    ],
    "tag": "b805-2e-9995-update"
  }
}