{
  "pages": [
    [
      [
        "ประกาศธนาคารออมสิน",
        "เรื่อง เปิดสำนักงานธนาคารออมสินสาขาคำตากล้า"
      ]
    ],
    []
  ],
  "metadata": {
    "date_backmatter": "2554-07-11",
    "date_modified": "2554-09-29",
    "date_original": "2554-09-29",
    "doctype": "ประกาศ",
    "editors": [
      {
        "name": "ปริยานุช",
        "role": "ผู้จัดทำ",
        "date": "2554-10-13"
      },
      {
        "name": "ปณตภร",
        "role": "ผู้ตรวจ",
        "date": "2554-10-19"
      }
    ],
    "tag": "b805-2e-2554-a0294"
  }
}