{
  "pages": [
    [
      [
        "ประกาศธนาคารออมสิน",
        "เรื่อง เปิดสำนักงานธนาคารออมสินสาขาศูนย์การค้าสลากไทย"
      ]
    ],
    []
  ],
  "metadata": {
    "date_backmatter": "2557-03-05",
    "date_modified": "2557-07-17",
    "date_original": "2557-07-17",
    "doctype": "ประกาศ",
    "editors": [
      {
        "name": "ปริยานุช",
        "role": "ผู้จัดทำ",
        "date": "2557-07-22"
      },
      {
        "name": "วันทิตา",
        "role": "ผู้ตรวจ",
        "date": "2557-08-07"
      }
    ],
    "tag": "b805-2e-2557-a0120"
  }
}