{
  "pages": [
    [
      [
        "ระเบียบธนาคารออมสิน",
        "ฉบับที่ ๔๕๗",
        "ว่าด้วยการพัสดุ"
      ]
    ],
    []
  ],
  "metadata": {
    "date_backmatter": "2553-09-20",
    "date_modified": "2557-04-17",
    "date_original": "2554-02-03",
    "editors": [
      {
        "name": "โชติกานต์",
        "role": "ผู้จัดทำ",
        "date": "2557-05-30"
      }
    ],
    "tag": "b805-2g-9999-update"
  }
}