{
  "pages": [
    [
      [
        "ประกาศธนาคารออมสิน",
        "เรื่อง การให้บริการจัดทำสิ่งพิมพ์ออกภาพเช็คจากระบบการจัดเก็บภาพเช็ค"
      ]
    ],
    []
  ],
  "metadata": {
    "date_backmatter": "2559-04-29",
    "date_modified": "2559-06-23",
    "date_original": "2559-06-23",
    "doctype": "ประกาศ",
    "editors": [
      {
        "name": "ปริยานุช",
        "role": "จัดทำ",
        "date": "2559-06-28"
      },
      {
        "name": "ปุณิกา",
        "role": "ตรวจ",
        "date": "2559-06-28"
      }
    ],
    "tag": "b805-2e-2559-a0036"
  }
}