{
  "pages": [
    [
      [
        "พระราชบัญญัติ",
        "ธนาคารออมสิน (ฉบับที่ ๒)",
        "พ.ศ. ๒๕๔๒",
        "",
        "",
        "ภูมิพลอดุลยเดช ป.ร.",
        "ให้ไว้ ณ วันที่ ๑๒ เมษายน พ.ศ. ๒๕๔๒",
        "เป็นปีที่ ๕๔ ในรัชกาลปัจจุบัน"
      ]
    ],
    []
  ],
  "metadata": {
    "date_header": "2542-04-12",
    "date_modified": "2542-04-27",
    "date_original": "2542-04-27",
    "doctype": "พระราชบัญญัติ",
    "editors": [
      {
        "name": "ดวงใจ",
        "role": "แก้ไข",
        "date": "2544-12-19"
      },
      {
        "name": "ปัญญา",
        "role": "ตรวจ",
        "date": "2552-03-23"
      }
    ],
    "tag": "b805-20-2542-a0001",
    "title": "ธนาคารออมสิน (ฉบับที่ ๒)"
  }
}