{
  "pages": [
    [
      [
        "ประกาศธนาคารออมสิน",
        "เรื่อง การรับฝากเงินประเภทสงเคราะห์ชีวิตและครอบครัว แบบมีเงินปันผล"
      ]
    ],
    []
  ],
  "metadata": {
    "date_backmatter": "2523-12-31",
    "date_gz_old": "2523-12-31",
    "doctype": "ประกาศ",
    "editors": [
      {
        "name": "จารุวรรณ",
        "role": "แก้ไข",
        "date": "2545-10-24"
      }
    ],
    "tag": "b805-2e-2523-a012"
  }
}