{
  "pages": [
    [
      [
        "ประกาศธนาคารออมสิน",
        "เรื่อง อัตราดอกเบี้ยเงินกู้สินเชื่อสำหรับผู้ผลิต ผู้ประกอบการ OTOP",
        "ตลอดจนวิสาหกิจชุมชน และผู้ประกอบการตามห่วงโซ่อุปทาน (Supply Chain)"
      ]
    ],
    []
  ],
  "metadata": {
    "date_backmatter": "2557-06-20",
    "date_modified": "2557-08-28",
    "date_original": "2557-08-28",
    "doctype": "ประกาศ",
    "editors": [
      {
        "name": "ปริยานุช",
        "role": "ผู้จัดทำ",
        "date": "2557-09-10"
      },
      {
        "name": "ภีราพร",
        "role": "ผู้ตรวจ",
        "date": "2557-10-13"
      }
    ],
    "tag": "b805-2e-2557-a0179"
  }
}