{
  "pages": [
    [
      [
        "ประกาศกระทรวงการคลัง",
        "เรื่อง ฐานะการเงินโดยย่อของธนาคารออมสินประจำไตรมาส"
      ]
    ],
    []
  ],
  "metadata": {
    "date_backmatter": "2553-01-22",
    "date_modified": "2553-02-18",
    "date_original": "2553-02-18",
    "doctype": "ประกาศ",
    "editors": [
      {
        "name": "ปริยานุช",
        "role": "ผู้จัดทำ",
        "date": "2553-02-24"
      },
      {
        "name": "นันท์นภัสร์",
        "role": "ตรวจ",
        "date": "2553-02-24"
      }
    ],
    "tag": "b805-2e-2553-a0023"
  }
}