{
  "pages": [
    [
      [
        "ประกาศธนาคารออมสิน",
        "เรื่อง อัตราดอกเบี้ยเงินฝากในธุรกิจธนาคารออมสิน",
        "สำหรับส่วนราชการและรัฐวิสาหกิจ"
      ]
    ],
    []
  ],
  "metadata": {
    "date_backmatter": "2558-05-27",
    "date_modified": "2558-08-13",
    "date_original": "2558-08-13",
    "doctype": "ประกาศ",
    "editors": [
      {
        "name": "ปริยานุช",
        "role": "ผู้จัดทำ",
        "date": "2558-08-19"
      },
      {
        "name": "ปุณิกา",
        "role": "ผู้ตรวจ",
        "date": "2558-08-28"
      }
    ],
    "tag": "b805-2e-2558-a0089"
  }
}