{
  "pages": [
    [
      [
        "ประกาศธนาคารออมสิน",
        "เรื่อง ให้ธนาคารออมสินสาขาเปิดให้บริการโอนเงินด่วนระหว่างประเทศ Xpress Money"
      ]
    ],
    []
  ],
  "metadata": {
    "date_backmatter": "2556-11-27",
    "date_modified": "2557-02-06",
    "date_original": "2557-02-06",
    "doctype": "ประกาศ",
    "editors": [
      {
        "name": "ปริยานุช",
        "role": "ผู้จัดทำ",
        "date": "2557-02-12"
      },
      {
        "name": "อังศุมาลี",
        "role": "ผู้ตรวจ",
        "date": "2557-02-12"
      }
    ],
    "tag": "b805-2e-2557-a0050"
  }
}