{
  "pages": [
    [
      [
        "ประกาศธนาคารออมสิน",
        "เรื่อง เปิดสำนักงานธนาคารออมสินสาขาบิ๊กซี วงศ์สว่าง",
        "(แก้ไขเพิ่มเติมครั้งที่ ๑)"
      ]
    ],
    []
  ],
  "metadata": {
    "date_backmatter": "2555-05-29",
    "date_modified": "2555-08-09",
    "date_original": "2555-08-09",
    "doctype": "ประกาศ",
    "editors": [
      {
        "name": "ปริยานุช",
        "role": "ผู้จัดทำ",
        "date": "2555-08-16"
      },
      {
        "name": "ปณตภร",
        "role": "ผู้ตรวจ",
        "date": "2555-08-17"
      }
    ],
    "tag": "b805-2e-2555-a0340"
  }
}