{
  "pages": [
    [
      [
        "ประกาศธนาคารออมสิน",
        "เรื่อง อัตราการจ่ายเงินปันผลของบริการทางการเงินตามหลักศาสนาอิสลาม",
        "เดือนสิงหาคม ๒๕๕๔"
      ]
    ],
    []
  ],
  "metadata": {
    "date_backmatter": "2554-08-29",
    "date_header": "2554-08-00",
    "date_modified": "2554-10-27",
    "date_original": "2554-10-27",
    "doctype": "ประกาศ",
    "editors": [
      {
        "name": "ปริยานุช",
        "role": "ผู้จัดทำ",
        "date": "2554-11-07"
      },
      {
        "name": "ปณตภร",
        "role": "ผู้ตรวจ",
        "date": "2554-11-08"
      }
    ],
    "tag": "b805-2e-2554-a0347"
  }
}