{
  "pages": [
    [
      [
        "ประกาศธนาคารออมสิน",
        "เรื่อง เปิดสำนักงานธนาคารออมสินสาขาไอที สแควร์"
      ]
    ],
    []
  ],
  "metadata": {
    "date_backmatter": "2552-12-24",
    "date_modified": "2553-03-04",
    "date_original": "2553-03-04",
    "doctype": "ประกาศ",
    "editors": [
      {
        "name": "โชติกานต์",
        "role": "ผู้จัดทำ",
        "date": "2556-05-21"
      }
    ],
    "tag": "b805-2e-2553-a0036"
  }
}