{
  "pages": [
    [
      [
        "ประกาศธนาคารออมสิน",
        "เรื่อง อัตราดอกเบี้ยเงินฝากในธุรกิจธนาคารออมสิน",
        "สำหรับส่วนราชการและรัฐวิสาหกิจ"
      ]
    ],
    []
  ],
  "metadata": {
    "date_backmatter": "2542-07-27",
    "date_gz_old": "2542-09-14",
    "doctype": "ประกาศ",
    "editors": [
      {
        "name": "อัมพิกา",
        "role": "แก้ไข",
        "date": "2545-05-28"
      }
    ],
    "tag": "b805-2e-2542-a003"
  }
}