{
  "pages": [
    [
      [
        "ประกาศธนาคารออมสิน",
        "เรื่อง เปิดสำนักงานธนาคารออมสินสาขาโฮมโปร ห้าแยกฉลอง",
        "(แก้ไขเพิ่มเติม ครั้งที่ ๑)"
      ]
    ],
    []
  ],
  "metadata": {
    "date_backmatter": "2553-08-02",
    "date_modified": "2553-12-02",
    "date_original": "2553-12-02",
    "doctype": "ประกาศ",
    "editors": [
      {
        "name": "ปริยานุช",
        "role": "ผู้จัดทำ",
        "date": "2553-12-16"
      },
      {
        "name": "ณัฐวดี",
        "role": "ตรวจ",
        "date": "2553-12-16"
      }
    ],
    "tag": "b805-2e-2553-a0124"
  }
}