{
  "pages": [
    [
      [
        "ประกาศธนาคารออมสิน",
        "เรื่อง เปิดสำนักงานธนาคารออมสินสาขาบ้านตาขุน"
      ]
    ],
    []
  ],
  "metadata": {
    "date_backmatter": "2556-03-11",
    "date_modified": "2556-05-30",
    "date_original": "2556-05-30",
    "doctype": "ประกาศ",
    "editors": [
      {
        "name": "ปริยานุช",
        "role": "ผู้จัดทำ",
        "date": "2556-06-05"
      },
      {
        "name": "โชติกานต์",
        "role": "ผู้ตรวจ",
        "date": "2556-06-11"
      }
    ],
    "tag": "b805-2e-2556-a0122"
  }
}