{
  "pages": [
    [
      [
        "ประกาศธนาคารออมสิน",
        "เรื่อง อัตราการจ่ายเงินปันผลของบริการทางการเงินตามหลักศาสนาอิสลาม",
        "เดือนธันวาคม ๒๕๕๒"
      ]
    ],
    []
  ],
  "metadata": {
    "date_backmatter": "2553-01-05",
    "date_header": "2552-12-00",
    "date_modified": "2553-04-01",
    "date_original": "2553-04-01",
    "doctype": "ประกาศ",
    "editors": [
      {
        "name": "ปริยานุช",
        "role": "พิมพ์",
        "date": "2553-04-20"
      },
      {
        "name": "นันท์นภัสร์",
        "role": "ตรวจ",
        "date": "2553-04-20"
      }
    ],
    "tag": "b805-2e-2553-a0054"
  }
}