{
  "pages": [
    [
      [
        "ประกาศธนาคารออมสิน",
        "เรื่อง การรับฝากเงินประเภทสลากออมสินพิเศษ ๓ ปี งวดที่ ๗๑"
      ]
    ],
    []
  ],
  "metadata": {
    "date_backmatter": "2557-12-26",
    "date_modified": "2558-03-05",
    "date_original": "2558-03-05",
    "doctype": "ประกาศ",
    "editors": [
      {
        "name": "ปริยานุช",
        "role": "ผู้จัดทำ",
        "date": "2558-03-10"
      },
      {
        "name": "กฤษดายุทธ",
        "role": "ผู้ตรวจ",
        "date": "2558-03-10"
      }
    ],
    "tag": "b805-2e-2558-a0033"
  }
}