{
  "pages": [
    [
      [
        "ประกาศธนาคารออมสิน",
        "เรื่อง อัตราการจ่ายเงินปันผลของบริการทางการเงินตามหลักศาสนาอิสลาม",
        "เดือนมิถุนายน ๒๕๕๕"
      ]
    ],
    []
  ],
  "metadata": {
    "date_backmatter": "2555-06-27",
    "date_header": "2555-06-00",
    "date_modified": "2555-09-06",
    "date_original": "2555-09-06",
    "doctype": "ประกาศ",
    "editors": [
      {
        "name": "ปริยานุช",
        "role": "ผู้จัดทำ",
        "date": "2555-09-10"
      },
      {
        "name": "ณัฐพร",
        "role": "ผู้ตรวจ",
        "date": "2555-09-10"
      }
    ],
    "tag": "b805-2e-2555-a0356"
  }
}