{
  "pages": [
    [
      [
        "ประกาศธนาคารออมสิน",
        "เรื่อง อัตราดอกเบี้ยเงินกู้สินเชื่อบุคคล",
        "(โครงการสินเชื่อพลังงานครัวเรือน)"
      ]
    ],
    []
  ],
  "metadata": {
    "date_backmatter": "2551-08-27",
    "date_modified": "2551-12-04",
    "date_original": "2551-12-04",
    "doctype": "ประกาศ",
    "editors": [
      {
        "name": "วัชศักดิ์",
        "role": "ผู้จัดทำ",
        "date": "2551-12-12"
      }
    ],
    "tag": "b805-2e-2551-a0032"
  }
}