{
  "pages": [
    [
      [
        "ประกาศธนาคารออมสิน",
        "เรื่อง เปิดสำนักงานธนาคารออมสินสาขาห้วยแถลง"
      ]
    ],
    []
  ],
  "metadata": {
    "date_backmatter": "2553-12-15",
    "date_modified": "2554-03-17",
    "date_original": "2554-03-17",
    "doctype": "ประกาศ",
    "editors": [
      {
        "name": "ปริยานุช",
        "role": "ผู้จัดทำ",
        "date": "2554-03-31"
      },
      {
        "name": "ณัฐวดี",
        "role": "ตรวจ",
        "date": "2554-03-31"
      }
    ],
    "tag": "b805-2e-2554-a0098"
  }
}