{
  "pages": [
    [
      [
        "ประกาศธนาคารออมสิน",
        "เรื่อง อัตราดอกเบี้ยเงินกู้สินเชื่อโครงการสินเชื่อเพื่อส่งเสริมคุณภาพชีวิต",
        "พนักงานหน่วยงานเอกชน"
      ]
    ],
    []
  ],
  "metadata": {
    "date_backmatter": "2551-11-27",
    "date_modified": "2552-03-19",
    "date_original": "2552-03-19",
    "doctype": "ประกาศ",
    "editors": [
      {
        "name": "ปริยานุช",
        "role": "ผู้จัดทำ",
        "date": "2552-03-26"
      }
    ],
    "tag": "b805-2e-2552-a0044"
  }
}