{
  "pages": [
    [
      [
        "ประกาศธนาคารออมสิน",
        "เรื่อง เปิดสำนักงานธนาคารออมสินสาขาบัวทองสแควร์"
      ]
    ],
    []
  ],
  "metadata": {
    "date_backmatter": "2554-08-29",
    "date_modified": "2556-09-05",
    "date_original": "2554-10-27",
    "doctype": "ประกาศ",
    "editors": [
      {
        "name": "โชติกานต์",
        "role": "ผู้จัดทำ",
        "date": "2556-10-09"
      }
    ],
    "tag": "b805-2e-9990-update"
  }
}