{
  "pages": [
    [
      [
        "ประกาศธนาคารออมสิน",
        "เรื่อง อัตราดอกเบี้ยเงินฝากในธุรกิจธนาคารออมสิน",
        "สำหรับสถาบันการเงิน"
      ]
    ],
    []
  ],
  "metadata": {
    "date_backmatter": "2558-03-18",
    "date_modified": "2558-05-21",
    "date_original": "2558-05-21",
    "doctype": "ประกาศ",
    "editors": [
      {
        "name": "ปริยานุช",
        "role": "ผู้จัดทำ",
        "date": "2558-05-29"
      },
      {
        "name": "วริญา",
        "role": "ผู้ตรวจ",
        "date": "2558-06-02"
      }
    ],
    "tag": "b805-2e-2558-a0057"
  }
}