{
  "pages": [
    [
      [
        "ระเบียบธนาคารออมสิน ฉบับที่ ๕๒๙",
        "ว่าด้วยการพัสดุ",
        "(แก้ไขเพิ่มเติมครั้งที่ ๒)"
      ]
    ],
    []
  ],
  "metadata": {
    "date_backmatter": "2557-01-23",
    "date_modified": "2557-04-17",
    "date_original": "2557-04-17",
    "editors": [
      {
        "name": "ปริยานุช",
        "role": "ผู้จัดทำ",
        "date": "2557-04-22"
      },
      {
        "name": "โชติกานต์",
        "role": "ผู้ตรวจ",
        "date": "2557-05-30"
      }
    ],
    "tag": "b805-2g-2557-a0002"
  }
}