{
  "pages": [
    [
      [
        "ประกาศธนาคารออมสิน",
        "เรื่อง การให้สินเชื่อเพื่อพัฒนาชนบท"
      ]
    ],
    []
  ],
  "metadata": {
    "date_backmatter": "2556-10-09",
    "date_modified": "2557-01-02",
    "date_original": "2557-01-02",
    "doctype": "ประกาศ",
    "editors": [
      {
        "name": "ปริยานุช",
        "role": "ผู้จัดทำ",
        "date": "2557-01-08"
      },
      {
        "name": "จุฑามาศ",
        "role": "ผู้ตรวจ",
        "date": "2557-01-13"
      }
    ],
    "tag": "b805-2e-2557-a0007"
  }
}