{
  "pages": [
    [
      [
        "ประกาศกระทรวงการคลัง",
        "เรื่อง การเปลี่ยนแปลงอัตราดอกเบี้ยเงินกู้จากธนาคารออมสินประจำปีงบประมาณ พ.ศ. ๒๕๔๔",
        "ในปีงบประมาณ พ.ศ. ๒๕๕๐"
      ]
    ],
    []
  ],
  "metadata": {
    "date_backmatter": "2550-03-15",
    "date_modified": "2550-04-05",
    "date_original": "2550-04-05",
    "doctype": "ประกาศ",
    "editors": [
      {
        "name": "วัชศักดิ์",
        "role": "ผู้จัดทำ",
        "date": "2550-04-10"
      }
    ],
    "tag": "b805-2e-2550-a0035"
  }
}