{
  "pages": [
    [
      [
        "ประกาศธนาคารออมสิน",
        "เรื่อง เปิดสำนักงานธนาคารออมสินสาขาบ้านพรุ"
      ]
    ],
    []
  ],
  "metadata": {
    "date_backmatter": "2554-12-07",
    "date_modified": "2555-02-23",
    "date_original": "2555-02-23",
    "doctype": "ประกาศ",
    "editors": [
      {
        "name": "ปริยานุช",
        "role": "ผู้จัดทำ",
        "date": "2555-02-28"
      },
      {
        "name": "ปณตภร",
        "role": "ผู้ตรวจ",
        "date": "2555-03-07"
      }
    ],
    "tag": "b805-2e-2555-a0092"
  }
}