{
  "pages": [
    [
      [
        "ประกาศธนาคารออมสิน",
        "เรื่อง การรับฝากเงินประเภทสลากออมสินพิเศษ ๕ ปี",
        "งวดที่ ๑"
      ]
    ],
    []
  ],
  "metadata": {
    "date_backmatter": "2552-10-29",
    "date_modified": "2552-12-10",
    "date_original": "2552-12-10",
    "doctype": "ประกาศ",
    "editors": [
      {
        "name": "ปริยานุช",
        "role": "ผู้จัดทำ",
        "date": "2552-12-15"
      },
      {
        "name": "นันท์นภัสร์",
        "role": "ตรวจ",
        "date": "2552-12-15"
      }
    ],
    "tag": "b805-2e-2552-a0166"
  }
}