{
  "pages": [
    [
      [
        "ประกาศธนาคารออมสิน",
        "เรื่อง อัตราดอกเบี้ยเงินกู้สินเชื่อชีวิตสุขสันต์"
      ]
    ],
    []
  ],
  "metadata": {
    "date_backmatter": "2560-11-09",
    "date_modified": "2561-02-01",
    "date_original": "2561-02-01",
    "doctype": "ประกาศ",
    "editors": [
      {
        "name": "ปวันวิทย์",
        "role": "จัดทำ",
        "date": "2561-02-20"
      }
    ],
    "tag": "b805-2e-2561-a0002"
  }
}