{
  "pages": [
    [
      [
        "ประกาศธนาคารออมสิน",
        "เรื่อง ให้ธนาคารออมสินสาขาเปิดให้บริการธุรกิจเงินตราต่างประเทศ",
        "และให้บริการรับชำระ Online Payment"
      ]
    ],
    []
  ],
  "metadata": {
    "date_backmatter": "2556-05-15",
    "date_modified": "2556-08-08",
    "date_original": "2556-08-08",
    "doctype": "ประกาศ",
    "editors": [
      {
        "name": "ปริยานุช",
        "role": "ผู้จัดทำ",
        "date": "2556-08-14"
      },
      {
        "name": "โชติกานต์",
        "role": "ผู้ตรวจ",
        "date": "2556-08-14"
      }
    ],
    "tag": "b805-2e-2556-a0179"
  }
}