{
  "pages": [
    [
      [
        "ประกาศธนาคารออมสิน",
        "เรื่อง ขยายเวลายกเว้นค่าธรรมเนียมการทำรายการของธนาคารสมาชิก SFI"
      ]
    ],
    []
  ],
  "metadata": {
    "date_backmatter": "2556-07-05",
    "date_modified": "2556-10-03",
    "date_original": "2556-10-03",
    "doctype": "ประกาศ",
    "editors": [
      {
        "name": "ปริยานุช",
        "role": "ผู้จัดทำ",
        "date": "2556-10-09"
      },
      {
        "name": "โชติกานต์",
        "role": "ผู้ตรวจ",
        "date": "2556-10-14"
      }
    ],
    "tag": "b805-2e-2556-a0218"
  }
}