{
  "pages": [
    [
      [
        "ประกาศธนาคารออมสิน",
        "เรื่อง ให้ธนาคารออมสินสาขาเปิดให้บริการธุรกิจเงินตราต่างประเทศ"
      ]
    ],
    []
  ],
  "metadata": {
    "date_backmatter": "2554-11-21",
    "date_modified": "2555-01-26",
    "date_original": "2555-01-26",
    "doctype": "ประกาศ",
    "editors": [
      {
        "name": "ปริยานุช",
        "role": "ผู้จัดทำ",
        "date": "2555-01-31"
      },
      {
        "name": "ชาญ",
        "role": "ผู้ตรวจ",
        "date": "2555-02-06"
      }
    ],
    "tag": "b805-2e-2555-a0050"
  }
}