{
  "pages": [
    [
      [
        "ประกาศธนาคารออมสิน",
        "เรื่อง กำหนดหน่วยงานเปิดให้บริการโอนเงินตราต่างประเทศผ่านธนาคารตัวแทน",
        "(แก้ไขเพิ่มเติมครั้งที่ ๕๔)"
      ]
    ],
    []
  ],
  "metadata": {
    "date_backmatter": "2555-10-17",
    "date_modified": "2556-01-10",
    "date_original": "2556-01-10",
    "doctype": "ประกาศ",
    "editors": [
      {
        "name": "ปริยานุช",
        "role": "ผู้จัดทำ",
        "date": "2556-01-28"
      },
      {
        "name": "โชติกานต์",
        "role": "ผู้ตรวจ",
        "date": "2556-01-28"
      }
    ],
    "tag": "b805-2e-2556-a0007"
  }
}