{
  "pages": [
    [
      [
        "ประกาศธนาคารออมสิน",
        "เรื่อง อัตราดอกเบี้ยเงินฝากในธุรกิจธนาคารออมสิน",
        "สำหรับส่วนราชการและรัฐวิสาหกิจ"
      ]
    ],
    []
  ],
  "metadata": {
    "date_backmatter": "2552-03-03",
    "date_modified": "2552-06-18",
    "date_original": "2552-06-18",
    "doctype": "ประกาศ",
    "editors": [
      {
        "name": "ปริยานุช",
        "role": "ผู้จัดทำ",
        "date": "2552-06-25"
      }
    ],
    "tag": "b805-2e-2552-a0073"
  }
}