{
  "pages": [
    [
      [
        "ประกาศธนาคารออมสิน",
        "เรื่อง อัตราค่าธรรมเนียมบริการ การประเมินราคาหลักทรัพย์"
      ]
    ],
    []
  ],
  "metadata": {
    "date_backmatter": "2557-08-07",
    "date_modified": "2557-10-30",
    "date_original": "2557-10-30",
    "doctype": "ประกาศ",
    "editors": [
      {
        "name": "ปริยานุช",
        "role": "ผู้จัดทำ",
        "date": "2557-11-05"
      },
      {
        "name": "กฤษดายุทธ",
        "role": "ผู้ตรวจ",
        "date": "2557-11-05"
      }
    ],
    "tag": "b805-2e-2557-a0200"
  }
}