{
  "pages": [
    [
      [
        "ประกาศธนาคารออมสิน",
        "เรื่อง กำหนดหน่วยงานเปิดให้บริการโอนเงินตราต่างประเทศผ่านธนาคารตัวแทน",
        "(แก้ไขเพิ่มเติม ครั้งที่ ๓๐)"
      ]
    ],
    []
  ],
  "metadata": {
    "date_backmatter": "2555-02-14",
    "date_modified": "2555-04-26",
    "date_original": "2555-04-26",
    "doctype": "ประกาศ",
    "editors": [
      {
        "name": "ปริยานุช",
        "role": "ผู้จัดทำ",
        "date": "2555-05-01"
      },
      {
        "name": "ปณตภร",
        "role": "ผู้ตรวจ",
        "date": "2555-05-15"
      }
    ],
    "tag": "b805-2e-2555-a0189"
  }
}