{
  "pages": [
    [
      [
        "ประกาศธนาคารออมสิน",
        "เรื่อง การรับฝากเงินประเภทสงเคราะห์ชีวิตและครอบครัว",
        "แบบออมสินบำนาญ ๘๕/๑ (บำนาญแบบลดหย่อนได้)"
      ]
    ],
    []
  ],
  "metadata": {
    "date_backmatter": "2557-11-05",
    "date_modified": "2558-01-29",
    "date_original": "2558-01-29",
    "doctype": "ประกาศ",
    "editors": [
      {
        "name": "ปริยานุช",
        "role": "ผู้จัดทำ",
        "date": "2558-02-02"
      },
      {
        "name": "วิศนี",
        "role": "ผู้ตรวจ",
        "date": "2558-02-06"
      }
    ],
    "tag": "b805-2e-2558-a0018"
  }
}