{
  "pages": [
    [
      [
        "ประกาศธนาคารออมสิน",
        "เรื่อง อัตราดอกเบี้ยเงินกู้สินเชื่อชีวิตสุขสันต์"
      ]
    ],
    []
  ],
  "metadata": {
    "date_backmatter": "2557-09-29",
    "date_modified": "2557-11-27",
    "date_original": "2557-11-27",
    "doctype": "ประกาศ",
    "editors": [
      {
        "name": "ปริยานุช",
        "role": "ผู้จัดทำ",
        "date": "2557-12-02"
      },
      {
        "name": "ภีราพร",
        "role": "ผู้ตรวจ",
        "date": "2557-12-11"
      }
    ],
    "tag": "b805-2e-2557-a0221"
  }
}