{
  "pages": [
    [
      [
        "ประกาศธนาคารออมสิน",
        "เรื่อง การรับฝากเงินประเภทเผื่อเรียกพิเศษ ๑๕ เดือน",
        "(แก้ไขเพิ่มเติมครั้งที่ ๑)"
      ]
    ],
    []
  ],
  "metadata": {
    "date_backmatter": "2558-02-13",
    "date_modified": "2558-04-30",
    "date_original": "2558-04-30",
    "doctype": "ประกาศ",
    "editors": [
      {
        "name": "ปริยานุช",
        "role": "ผู้จัดทำ",
        "date": "2558-05-12"
      },
      {
        "name": "นุสรา",
        "role": "ผู้ตรวจ",
        "date": "2558-05-12"
      }
    ],
    "tag": "b805-2e-2558-a0045"
  }
}