{
  "pages": [
    [
      [
        "ประกาศธนาคารออมสิน",
        "เรื่อง เปิดสำนักงานธนาคารออมสินสาขานิมมานเหมินทร์"
      ]
    ],
    []
  ],
  "metadata": {
    "date_backmatter": "2553-10-13",
    "date_modified": "2554-02-03",
    "date_original": "2554-02-03",
    "doctype": "ประกาศ",
    "editors": [
      {
        "name": "ปริยานุช",
        "role": "ผู้จัดทำ",
        "date": "2554-02-08"
      },
      {
        "name": "ณัฐวดี",
        "role": "ตรวจ",
        "date": "2554-02-08"
      }
    ],
    "tag": "b805-2e-2554-a0036"
  }
}