{
  "pages": [
    [
      [
        "ประกาศธนาคารออมสิน",
        "เรื่อง การรับฝากเงินประเภทสงเคราะห์ชีวิตและครอบครัว",
        "แบบออมสินเพื่อบัณฑิต"
      ]
    ],
    []
  ],
  "metadata": {
    "date_backmatter": "2555-02-08",
    "date_modified": "2555-04-26",
    "date_original": "2555-04-26",
    "doctype": "ประกาศ",
    "editors": [
      {
        "name": "ปริยานุช",
        "role": "ผู้จัดทำ",
        "date": "2555-05-01"
      },
      {
        "name": "ปณตภร",
        "role": "ผู้ตรวจ",
        "date": "2555-05-15"
      }
    ],
    "tag": "b805-2e-2555-a0176"
  }
}