{
  "pages": [
    [
      [
        "ประกาศธนาคารออมสิน",
        "เรื่อง อัตราดอกเบี้ยเงินฝากในธุรกิจธนาคารออมสิน",
        "สำหรับผู้ฝากทั่วไปและนิติบุคคล"
      ]
    ],
    []
  ],
  "metadata": {
    "date_backmatter": "2554-01-21",
    "date_modified": "2554-04-21",
    "date_original": "2554-04-21",
    "doctype": "ประกาศ",
    "editors": [
      {
        "name": "ปริยานุช",
        "role": "ผู้จัดทำ",
        "date": "2554-05-11"
      },
      {
        "name": "ณัฐวดี",
        "role": "ตรวจ",
        "date": "2554-05-11"
      }
    ],
    "tag": "b805-2e-2554-a0146"
  }
}