{
  "pages": [
    [
      [
        "ประกาศธนาคารออมสิน",
        "เรื่อง การรับฝากเงินประเภทเผื่อเรียกพิเศษ ๓๙๙ วัน",
        "(แก้ไขเพิ่มเติมครั้งที่ ๑)"
      ]
    ],
    []
  ],
  "metadata": {
    "date_backmatter": "2555-09-28",
    "date_modified": "2555-12-06",
    "date_original": "2555-12-06",
    "doctype": "ประกาศ",
    "editors": [
      {
        "name": "ปริยานุช",
        "role": "ผู้จัดทำ",
        "date": "2555-12-12"
      },
      {
        "name": "ชาญ",
        "role": "ผู้ตรวจ",
        "date": "2555-12-12"
      }
    ],
    "tag": "b805-2e-2555-a0453"
  }
}