{
  "pages": [
    [
      [
        "ประกาศธนาคารออมสิน",
        "เรื่อง กำหนดหน่วยงานเปิดให้บริการโอนเงินตราต่างประเทศผ่านธนาคารตัวแทน",
        "(แก้ไขเพิ่มเติมครั้งที่ ๘๔)"
      ]
    ],
    []
  ],
  "metadata": {
    "date_backmatter": "2557-02-12",
    "date_modified": "2557-07-17",
    "date_original": "2557-07-17",
    "doctype": "ประกาศ",
    "editors": [
      {
        "name": "ปริยานุช",
        "role": "ผู้จัดทำ",
        "date": "2557-07-22"
      },
      {
        "name": "วันทิตา",
        "role": "ผู้ตรวจ",
        "date": "2557-08-07"
      }
    ],
    "tag": "b805-2e-2557-a0108"
  }
}