{
  "pages": [
    [
      [
        "ประกาศธนาคารออมสิน",
        "เรื่อง ให้ธนาคารออมสินสาขาเปิดให้บริการโอนเงินด่วน",
        "ระหว่างประเทศ Xpress Money"
      ]
    ],
    []
  ],
  "metadata": {
    "date_backmatter": "2556-01-11",
    "date_modified": "2556-03-28",
    "date_original": "2556-03-28",
    "doctype": "ประกาศ",
    "editors": [
      {
        "name": "ปริยานุช",
        "role": "ผู้จัดทำ",
        "date": "2556-04-02"
      },
      {
        "name": "อุษมล",
        "role": "ผู้ตรวจ",
        "date": "2556-04-11"
      }
    ],
    "tag": "b805-2e-2556-a0071"
  }
}