{
  "pages": [
    [
      [
        "ประกาศธนาคารออมสิน",
        "เรื่อง เปิดสำนักงานธนาคารออมสินสาขาเซ็นทรัลพลาซา ลำปาง"
      ]
    ],
    []
  ],
  "metadata": {
    "date_backmatter": "2555-11-30",
    "date_modified": "2556-02-21",
    "date_original": "2556-02-21",
    "doctype": "ประกาศ",
    "editors": [
      {
        "name": "ปริยานุช",
        "role": "ผู้จัดทำ",
        "date": "2556-02-28"
      },
      {
        "name": "โชติกานต์",
        "role": "ผู้ตรวจ",
        "date": "2556-03-19"
      }
    ],
    "tag": "b805-2e-2556-a0042"
  }
}