{
  "pages": [
    [
      [
        "ประกาศธนาคารออมสิน",
        "เรื่อง เปิดสำนักงานธนาคารออมสินสาขาออล ซีซั่นส์ เพลส"
      ]
    ],
    []
  ],
  "metadata": {
    "date_backmatter": "2555-12-12",
    "date_modified": "2556-03-21",
    "date_original": "2556-03-21",
    "doctype": "ประกาศ",
    "editors": [
      {
        "name": "ปริยานุช",
        "role": "ผู้จัดทำ",
        "date": "2556-03-25"
      },
      {
        "name": "โชติกานต์",
        "role": "ผู้ตรวจ",
        "date": "2556-04-18"
      }
    ],
    "tag": "b805-2e-2556-a0052"
  }
}