{
  "pages": [
    [
      [
        "ประกาศธนาคารออมสิน",
        "เรื่อง กำหนดหน่วยงานเปิดให้บริการโอนเงินตราต่างประเทศผ่านธนาคารตัวแทน",
        "(แก้ไขเพิ่มเติม ครั้งที่ ๑๕)"
      ]
    ],
    []
  ],
  "metadata": {
    "date_backmatter": "2554-10-31",
    "date_modified": "2555-01-19",
    "date_original": "2555-01-19",
    "doctype": "ประกาศ",
    "editors": [
      {
        "name": "ปริยานุช",
        "role": "ผู้จัดทำ",
        "date": "2555-01-30"
      },
      {
        "name": "ณัฐพร",
        "role": "ผู้ตรวจ",
        "date": "2555-01-30"
      }
    ],
    "tag": "b805-2e-2555-a0028"
  }
}