{
  "pages": [
    [
      [
        "ประกาศธนาคารออมสิน",
        "เรื่อง อัตราการจ่ายเงินปันผลของบริการทางการเงินตามหลักศาสนาอิสลาม",
        "เดือนสิงหาคม ๒๕๕๖"
      ]
    ],
    []
  ],
  "metadata": {
    "date_backmatter": "2556-08-28",
    "date_header": "2556-08-00",
    "date_modified": "2556-10-24",
    "date_original": "2556-10-24",
    "doctype": "ประกาศ",
    "editors": [
      {
        "name": "ปริยานุช",
        "role": "ผู้จัดทำ",
        "date": "2556-10-31"
      },
      {
        "name": "จุฑามาศ",
        "role": "ผู้ตรวจ",
        "date": "2556-10-31"
      }
    ],
    "tag": "b805-2e-2556-a0242"
  }
}