{
  "pages": [
    [
      [
        "ประกาศธนาคารออมสิน",
        "เรื่อง อัตราการจ่ายเงินปันผลของบริการทางการเงิน",
        "ตามหลักศาสนาอิสลามประจำเดือนสิงหาคม",
        "๒๕๔๙"
      ]
    ],
    []
  ],
  "metadata": {
    "date_backmatter": "2549-09-19",
    "date_header": "2549-00-00",
    "date_modified": "2549-11-30",
    "date_original": "2549-11-30",
    "doctype": "ประกาศ",
    "editors": [
      {
        "name": "วัชศักดิ์",
        "role": "ผู้จัดทำ",
        "date": "2549-12-13"
      }
    ],
    "tag": "b805-2e-2549-a0099"
  }
}