{
  "pages": [
    [
      [
        "ระเบียบธนาคารออมสิน",
        "ฉบับที่ ๔๗๗",
        "ว่าด้วยการพัสดุ",
        "(แก้ไขเพิ่มเติม ครั้งที่ ๑)"
      ]
    ],
    []
  ],
  "metadata": {
    "date_backmatter": "2554-09-06",
    "date_modified": "2554-12-15",
    "date_original": "2554-12-15",
    "editors": [
      {
        "name": "ปริยานุช",
        "role": "ผู้จัดทำ",
        "date": "2554-12-19"
      },
      {
        "name": "ชาญ",
        "role": "ผู้ตรวจ",
        "date": "2554-12-19"
      },
      {
        "name": "โชติกานต์",
        "role": "ปรับปรุง",
        "date": "2557-05-29"
      }
    ],
    "tag": "b805-2g-2554-a0003"
  }
}