{
  "pages": [
    [
      [
        "ประกาศธนาคารออมสิน",
        "เรื่อง ให้ธนาคารออมสินสาขาเปิดให้บริการธุรกิจเงินตราต่างประเทศ"
      ]
    ],
    []
  ],
  "metadata": {
    "date_backmatter": "2554-09-20",
    "date_modified": "2554-12-15",
    "date_original": "2554-12-15",
    "doctype": "ประกาศ",
    "editors": [
      {
        "name": "ปริยานุช",
        "role": "ผู้จัดทำ",
        "date": "2554-12-19"
      },
      {
        "name": "ชาญ",
        "role": "ผู้ตรวจ",
        "date": "2554-12-19"
      }
    ],
    "tag": "b805-2e-2554-a0377"
  }
}