{
  "pages": [
    [
      [
        "ประกาศธนาคารออมสิน",
        "เรื่อง อัตราดอกเบี้ยเงินกู้ขั้นต่ำ"
      ]
    ],
    []
  ],
  "metadata": {
    "date_backmatter": "2554-03-31",
    "date_modified": "2554-07-28",
    "date_original": "2554-07-28",
    "doctype": "ประกาศ",
    "editors": [
      {
        "name": "ปริยานุช",
        "role": "ผู้จัดทำ",
        "date": "2554-08-16"
      },
      {
        "name": "ณัฐวดี",
        "role": "ตรวจ",
        "date": "2554-08-16"
      }
    ],
    "tag": "b805-2e-2554-a0188"
  }
}