{
  "pages": [
    [
      [
        "ประกาศธนาคารออมสิน",
        "เรื่อง อัตราการจ่ายเงินปันผลของบริการทางการเงิน",
        "ตามหลักศาสนาอิสลาม",
        "เดือนกันยายน ๒๕๕๒"
      ]
    ],
    []
  ],
  "metadata": {
    "date_backmatter": "2552-09-29",
    "date_header": "2552-09-00",
    "date_modified": "2552-11-19",
    "date_original": "2552-11-19",
    "doctype": "ประกาศ",
    "editors": [
      {
        "name": "ปริยานุช",
        "role": "ผู้จัดทำ",
        "date": "2552-11-24"
      },
      {
        "name": "นันท์นภัสร์",
        "role": "ตรวจ",
        "date": "2552-11-24"
      }
    ],
    "tag": "b805-2e-2552-a0157"
  }
}