{
  "pages": [
    [
      [
        "ประกาศธนาคารออมสิน",
        "เรื่อง การให้สินเชื่อสวัสดิการสำหรับข้าราชการบำนาญ",
        "โดยใช้บำเหน็จตกทอดเป็นหลักประกัน"
      ]
    ],
    []
  ],
  "metadata": {
    "date_backmatter": "2555-04-19",
    "date_modified": "2555-07-19",
    "date_original": "2555-07-19",
    "doctype": "ประกาศ",
    "editors": [
      {
        "name": "ปริยานุช",
        "role": "ผู้จัดทำ",
        "date": "2555-07-24"
      },
      {
        "name": "ปณตภร",
        "role": "ผู้ตรวจ",
        "date": "2555-07-30"
      }
    ],
    "tag": "b805-2e-2555-a0291"
  }
}