{
  "pages": [
    [
      [
        "ประกาศธนาคารออมสิน",
        "เรื่อง อัตราดอกเบี้ยเงินกู้ขั้นต่ำ"
      ]
    ],
    []
  ],
  "metadata": {
    "date_backmatter": "2550-07-25",
    "date_modified": "2550-10-18",
    "date_original": "2550-10-18",
    "doctype": "ประกาศ",
    "editors": [
      {
        "name": "ปริยานุช",
        "role": "ผู้จัดทำ",
        "date": "2550-10-30"
      }
    ],
    "tag": "b805-2e-2550-a0083"
  }
}