{
  "pages": [
    [
      [
        "ประกาศธนาคารออมสิน",
        "เรื่อง ให้ธนาคารออมสินสาขาเปิดให้บริการธุรกิจเงินตราต่างประเทศ"
      ]
    ],
    []
  ],
  "metadata": {
    "date_backmatter": "2554-06-17",
    "date_modified": "2554-09-08",
    "date_original": "2554-09-08",
    "doctype": "ประกาศ",
    "editors": [
      {
        "name": "ปริยานุช",
        "role": "ผู้จัดทำ",
        "date": "2554-09-29"
      },
      {
        "name": "ปณตภร",
        "role": "ผู้ตรวจ",
        "date": "2554-10-14"
      }
    ],
    "tag": "b805-2e-2554-a0252"
  }
}