{
  "pages": [
    [
      [
        "ประกาศธนาคารออมสิน",
        "เรื่อง สินเชื่อเพื่อส่งเสริมคุณภาพชีวิตพนักงานรัฐวิสาหกิจ"
      ]
    ],
    []
  ],
  "metadata": {
    "date_backmatter": "2557-05-02",
    "date_modified": "2557-07-17",
    "date_original": "2557-07-17",
    "doctype": "ประกาศ",
    "editors": [
      {
        "name": "ปริยานุช",
        "role": "ผู้จัดทำ",
        "date": "2557-07-22"
      },
      {
        "name": "ภีราพร",
        "role": "ผู้ตรวจ",
        "date": "2557-08-08"
      }
    ],
    "tag": "b805-2e-2557-a0158"
  }
}