{
  "pages": [
    [
      [
        "ประกาศธนาคารออมสิน",
        "เรื่อง เปิดสำนักงานธนาคารออมสินสาขาช้างกลาง"
      ]
    ],
    []
  ],
  "metadata": {
    "date_backmatter": "2556-12-27",
    "date_modified": "2557-04-10",
    "date_original": "2557-04-10",
    "doctype": "ประกาศ",
    "editors": [
      {
        "name": "ปริยานุช",
        "role": "ผู้จัดทำ",
        "date": "2557-04-17"
      },
      {
        "name": "กฤษดายุทธ",
        "role": "ผู้ตรวจ",
        "date": "2557-04-17"
      }
    ],
    "tag": "b805-2e-2557-a0083"
  }
}