{
  "pages": [
    [
      [
        "ประกาศธนาคารออมสิน",
        "เรื่อง อัตราดอกเบี้ยเงินฝากในธุรกิจธนาคารออมสิน",
        "สำหรับส่วนราชการและรัฐวิสาหกิจ"
      ]
    ],
    []
  ],
  "metadata": {
    "date_backmatter": "2559-03-31",
    "date_modified": "2559-05-26",
    "date_original": "2559-05-26",
    "doctype": "ประกาศ",
    "editors": [
      {
        "name": "ปริยานุช",
        "role": "จัดทำ",
        "date": "2559-05-31"
      },
      {
        "name": "วิศนี",
        "role": "ตรวจ",
        "date": "2559-05-31"
      }
    ],
    "tag": "b805-2e-2559-a0022"
  }
}