{
  "pages": [
    [
      [
        "ประกาศธนาคารออมสิน",
        "เรื่อง การรับฝากเงินประเภทสลากออมสินพิเศษ",
        "งวดที่ ๓๓",
        "(แก้ไขเพิ่มเติม ครั้งที่ ๑)"
      ]
    ],
    []
  ],
  "metadata": {
    "date_backmatter": "2551-06-30",
    "date_modified": "2552-02-19",
    "date_original": "2552-02-19",
    "doctype": "ประกาศ",
    "editors": [
      {
        "name": "ปริยานุช",
        "role": "ผู้จัดทำ",
        "date": "2552-02-23"
      }
    ],
    "tag": "b805-2e-2552-a0023"
  }
}