{
  "pages": [
    [
      [
        "ประกาศธนาคารออมสิน",
        "เรื่อง การเปิดให้บริการรับฝากเงินในวันเด็กแห่งชาติ",
        "ประจำปี ๒๕๕๐"
      ]
    ],
    []
  ],
  "metadata": {
    "date_backmatter": "2550-01-11",
    "date_modified": "2550-03-15",
    "date_original": "2550-03-15",
    "doctype": "ประกาศ",
    "editors": [
      {
        "name": "วัชศักดิ์",
        "role": "ผู้จัดทำ",
        "date": "2550-03-20"
      }
    ],
    "tag": "b805-2e-2550-a0025"
  }
}