{
  "pages": [
    [
      [
        "ประกาศธนาคารออมสิน",
        "เรื่อง เปิดสำนักงานหน่วยให้บริการตลาดเทศบาล ๒ จันทบุรี",
        "ธนาคารออมสินสาขาจันทบุรี"
      ]
    ],
    []
  ],
  "metadata": {
    "date_backmatter": "2552-12-22",
    "date_modified": "2553-03-04",
    "date_original": "2553-03-04",
    "doctype": "ประกาศ",
    "editors": [
      {
        "name": "ปริยานุช",
        "role": "ผู้จัดทำ",
        "date": "2553-03-10"
      },
      {
        "name": "นันท์นภัสร์",
        "role": "ตรวจ",
        "date": "2553-03-10"
      }
    ],
    "tag": "b805-2e-2553-a0035"
  }
}