{
  "pages": [
    [
      [
        "ประกาศธนาคารออมสิน",
        "เรื่อง เปิดสำนักงานธนาคารออมสินสาขามิตรภาพ"
      ]
    ],
    []
  ],
  "metadata": {
    "date_backmatter": "2553-06-09",
    "date_modified": "2553-10-14",
    "date_original": "2553-10-14",
    "doctype": "ประกาศ",
    "editors": [
      {
        "name": "ปริยานุช",
        "role": "ผู้จัดทำ",
        "date": "2553-10-20"
      },
      {
        "name": "ณัฐวดี",
        "role": "ตรวจ",
        "date": "2553-10-20"
      }
    ],
    "tag": "b805-2e-2553-a0097"
  }
}