{
  "pages": [
    [
      [
        "ประกาศธนาคารออมสิน",
        "เรื่อง อัตราดอกเบี้ยเงินกู้สินเชื่อชีวิตสุขสันต์"
      ]
    ],
    []
  ],
  "metadata": {
    "date_backmatter": "2558-04-10",
    "date_modified": "2558-07-09",
    "date_original": "2558-07-09",
    "doctype": "ประกาศ",
    "editors": [
      {
        "name": "ปริยานุช",
        "role": "ผู้จัดทำ",
        "date": "2558-07-14"
      },
      {
        "name": "ปุณิกา",
        "role": "ผู้ตรวจ",
        "date": "2558-07-24"
      }
    ],
    "tag": "b805-2e-2558-a0076"
  }
}