{
  "pages": [
    [
      [
        "ประกาศธนาคารออมสิน",
        "เรื่อง วันหยุดทำการของธนาคารออมสิน ประจำปี",
        "พ.ศ. ๒๕๕๑"
      ]
    ],
    []
  ],
  "metadata": {
    "date_backmatter": "2550-09-14",
    "date_modified": "2550-11-29",
    "date_original": "2550-11-29",
    "doctype": "ประกาศ",
    "editors": [
      {
        "name": "ปริยานุช",
        "role": "ผู้จัดทำ",
        "date": "2550-12-12"
      }
    ],
    "tag": "b805-2e-2550-a0093"
  }
}