{
  "pages": [
    [
      [
        "ประกาศธนาคารออมสิน",
        "เรื่อง เปิดสำนักงานธนาคารออมสินสาขาบ้านตาก"
      ]
    ],
    []
  ],
  "metadata": {
    "date_backmatter": "2554-08-08",
    "date_modified": "2554-10-27",
    "date_original": "2554-10-27",
    "doctype": "ประกาศ",
    "editors": [
      {
        "name": "ปริยานุช",
        "role": "ผู้จัดทำ",
        "date": "2554-11-07"
      },
      {
        "name": "ปณตภร",
        "role": "ผู้ตรวจ",
        "date": "2554-11-08"
      }
    ],
    "tag": "b805-2e-2554-a0329"
  }
}