{
  "pages": [
    [
      [
        "ประกาศธนาคารออมสิน",
        "เรื่อง การแจกของขวัญในวันเด็กแห่งชาติ วันออมสิน",
        "และวันรับฝากเงินในโอกาสพิเศษอื่นๆ"
      ]
    ],
    []
  ],
  "metadata": {
    "date_backmatter": "2551-01-10",
    "date_modified": "2551-04-03",
    "date_original": "2551-04-03",
    "doctype": "ประกาศ",
    "editors": [
      {
        "name": "วัชศักดิ์",
        "role": "ผู้จัดทำ",
        "date": "2551-04-09"
      }
    ],
    "tag": "b805-2e-2551-a0010"
  }
}