{
  "pages": [
    [
      [
        "ประกาศธนาคารออมสิน",
        "เรื่อง การคุ้มครองอุบัติเหตุผู้ฝากสลากออมสินพิเศษ ๕ ปี",
        "(ปี พ.ศ. ๒๕๕๔)"
      ]
    ],
    []
  ],
  "metadata": {
    "date_backmatter": "2554-02-25",
    "date_modified": "2554-06-30",
    "date_original": "2554-06-30",
    "doctype": "ประกาศ",
    "editors": [
      {
        "name": "ปริยานุช",
        "role": "ผู้จัดทำ",
        "date": "2554-07-26"
      },
      {
        "name": "ณัฐวดี",
        "role": "ตรวจ",
        "date": "2554-07-26"
      }
    ],
    "tag": "b805-2e-2554-a0167"
  }
}