{
  "pages": [
    [
      [
        "ประกาศธนาคารออมสิน",
        "เรื่อง การให้บริการ Mobile Banking (MyMo)"
      ]
    ],
    []
  ],
  "metadata": {
    "date_backmatter": "2561-02-21",
    "date_modified": "2561-04-26",
    "date_original": "2561-04-26",
    "doctype": "ประกาศ",
    "editors": [
      {
        "name": "ปวันวิทย์",
        "role": "จัดทำ",
        "date": "2561-06-01"
      }
    ],
    "tag": "b805-2e-2561-a0044"
  }
}