{
  "pages": [
    [
      [
        "พระราชบัญญัติ",
        "ธนาคารออมสิน",
        "พ.ศ. ๒๔๘๙",
        "",
        "",
        "ในพระปรมาภิไธยสมเด็จพระเจ้าอยู่หัวภูมิพลอดุลยเดช",
        "คณะผู้สำเร็จราชการแทนพระองค์",
        "รังสิต กรมขุนชัยนาทนเรนทร",
        "พระยามานวราชเสวี",
        "ให้ไว้ ณ วันที่ ๑๘ ธันวาคม พ.ศ. ๒๔๘๙",
        "เป็นปีที่ ๑ ในรัชกาลปัจจุบัน"
      ]
    ],
    []
  ],
  "metadata": {
    "date_header": "2489-12-18",
    "date_modified": "2560-08-31",
    "date_original": "2489-12-31",
    "doctype": "พระราชบัญญัติ",
    "editors": [
      {
        "name": "อังศุมาลี",
        "role": "จัดทำ",
        "date": "2556-05-09"
      },
      {
        "name": "อุดมลักษณ์",
        "role": "ตรวจ",
        "date": "2556-05-09"
      },
      {
        "name": "ปุณิกา",
        "role": "เพิ่มเติม",
        "date": "2560-09-04"
      },
      {
        "name": "วิชพงษ์",
        "role": "ตรวจ",
        "date": "2560-09-05"
      }
    ],
    "tag": "b805-20-9999-update",
    "title": "ธนาคารออมสิน"
  }
}