{
  "pages": [
    [
      [
        "ประกาศธนาคารออมสิน",
        "เรื่อง ให้ธนาคารออมสินสาขาเปิดให้บริการโอนเงินด่วนระหว่างประเทศ",
        "Xpress Money"
      ]
    ],
    []
  ],
  "metadata": {
    "date_backmatter": "2557-01-29",
    "date_modified": "2557-04-17",
    "date_original": "2557-04-17",
    "doctype": "ประกาศ",
    "editors": [
      {
        "name": "ปริยานุช",
        "role": "ผู้จัดทำ",
        "date": "2557-04-22"
      },
      {
        "name": "โชติกานต์",
        "role": "ผู้ตรวจ",
        "date": "2557-04-22"
      }
    ],
    "tag": "b805-2e-2557-a0094"
  }
}