{
  "pages": [
    [
      [
        "ประกาศกรมสวัสดิการและคุ้มครองแรงงาน",
        "เรื่อง กำหนดแบบใบอนุญาตเป็นหน่วยงานฝึกอบรมการดับเพลิงขั้นต้น",
        "และเป็นหน่วยงานฝึกซ้อมดับเพลิงและฝึกซ้อมอพยพหนีไฟ"
      ]
    ],
    []
  ],
  "metadata": {
    "date_backmatter": "2557-03-04",
    "date_modified": "2557-03-14",
    "date_original": "2557-03-14",
    "doctype": "ประกาศ",
    "editors": [
      {
        "name": "ปริยานุช",
        "role": "ผู้จัดทำ",
        "date": "2557-03-25"
      },
      {
        "name": "อุษมล",
        "role": "ผู้ตรวจ",
        "date": "2557-04-09"
      }
    ],
    "tag": "a4114-2e-2557-a0002"
  }
}