{
  "pages": [
    [
      [
        "กฎกระทรวง",
        "กำหนดมาตรฐานในการบริหารและการจัดการด้านความปลอดภัย",
        "อาชีวอนามัย และสภาพแวดล้อมในการทำงาน (ฉบับที่ ๒)",
        "พ.ศ. ๒๕๕๓"
      ]
    ],
    []
  ],
  "metadata": {
    "date_backmatter": "2553-06-24",
    "date_modified": "2553-07-09",
    "date_original": "2553-07-09",
    "doctype": "กฎกระทรวง",
    "editors": [
      {
        "name": "ปริยานุช",
        "role": "ผู้จัดทำ",
        "date": "2553-07-14"
      },
      {
        "name": "นันท์นภัสร์",
        "role": "ตรวจ",
        "date": "2553-07-14"
      }
    ],
    "tag": "a4114-2b-2553-a0001"
  }
}