{
  "pages": [
    [
      [
        "กฎกระทรวง",
        "การเป็นหน่วยงานฝึกอบรมการดับเพลิงขั้นต้น",
        "และการเป็นหน่วยงานฝึกซ้อมดับเพลิงและฝึกซ้อมอพยพหนีไฟ",
        "พ.ศ. ๒๕๕๖"
      ]
    ],
    []
  ],
  "metadata": {
    "date_backmatter": "2556-12-18",
    "date_modified": "2557-01-16",
    "date_original": "2557-01-16",
    "doctype": "กฎกระทรวง",
    "editors": [
      {
        "name": "ปริยานุช",
        "role": "ผู้จัดทำ",
        "date": "2557-01-14"
      },
      {
        "name": "ณัฐพร",
        "role": "ผู้ตรวจ",
        "date": "2557-01-14"
      }
    ],
    "tag": "a4114-2b-2557-a0001"
  }
}