{
  "pages": [
    [
      [
        "กฎกระทรวง",
        "กำหนดมาตรฐานในการบริหารและการจัดการด้านความปลอดภัย อาชีวอนามัย",
        "และสภาพแวดล้อมในการทำงานเกี่ยวกับงานก่อสร้าง",
        "พ.ศ. ๒๕๕๑"
      ]
    ],
    []
  ],
  "metadata": {
    "date_backmatter": "2551-09-18",
    "date_modified": "2551-10-16",
    "date_original": "2551-10-16",
    "doctype": "กฎกระทรวง",
    "editors": [
      {
        "name": "ปริยานุช",
        "role": "ผู้จัดทำ",
        "date": "2551-10-20"
      }
    ],
    "tag": "a4114-2b-2551-a0001"
  }
}