{
  "pages": [
    [
      [
        "ประกาศกรมสวัสดิการและคุ้มครองแรงงาน",
        "เรื่อง กำหนดมาตรฐานเครื่องดับเพลิงแบบเคลื่อนย้ายได้"
      ]
    ],
    []
  ],
  "metadata": {
    "date_backmatter": "2556-01-22",
    "date_modified": "2556-03-11",
    "date_original": "2556-03-11",
    "doctype": "ประกาศ",
    "editors": [
      {
        "name": "ปริยานุช",
        "role": "ผู้จัดทำ",
        "date": "2556-03-14"
      },
      {
        "name": "อุษมล",
        "role": "ผู้ตรวจ",
        "date": "2556-03-18"
      }
    ],
    "tag": "a4114-2e-2556-a0001"
  }
}