{
  "pages": [
    [
      [
        "กฎกระทรวง",
        "กำหนดมาตรฐานในการบริหารและการจัดการด้านความปลอดภัย อาชีวอนามัย",
        "และสภาพแวดล้อมในการทำงานเกี่ยวกับไฟฟ้า",
        "พ.ศ. ๒๕๕๔"
      ]
    ],
    []
  ],
  "metadata": {
    "date_backmatter": "2554-01-04",
    "date_modified": "2554-01-21",
    "date_original": "2554-01-21",
    "doctype": "กฎกระทรวง",
    "editors": [
      {
        "name": "ปริยานุช",
        "role": "ผู้จัดทำ",
        "date": "2554-01-24"
      },
      {
        "name": "ณัฐวดี",
        "role": "ตรวจ",
        "date": "2554-01-24"
      }
    ],
    "tag": "a4114-2b-2554-a0001"
  }
}