{
  "pages": [
    [
      [
        "คำแนะนำของประธานศาลปกครองสูงสุด",
        "ในการดำเนินกระบวนพิจารณาคดีปกครองเกี่ยวกับการบริหารราชการแผ่นดินในศาลปกครองสูงสุด"
      ]
    ],
    []
  ],
  "metadata": {
    "date_backmatter": "2560-02-06",
    "date_modified": "2560-02-17",
    "date_original": "2560-02-17",
    "editors": [
      {
        "name": "ปริยานุช",
        "role": "จัดทำ",
        "date": "2560-02-20"
      },
      {
        "name": "วริญา",
        "role": "ตรวจ",
        "date": "2560-03-01"
      }
    ],
    "tag": "a828-2e-2560-a0013"
  }
}