{
  "pages": [
    [
      [
        "ระเบียบคณะกรรมการข้าราชการฝ่ายศาลปกครอง",
        "ว่าด้วยค่าเช่าบ้านข้าราชการฝ่ายศาลปกครอง (ฉบับที่ ๔)",
        "พ.ศ. ๒๕๕๓"
      ]
    ],
    []
  ],
  "metadata": {
    "date_backmatter": "2553-11-10",
    "date_modified": "2553-11-19",
    "date_original": "2553-11-19",
    "editors": [
      {
        "name": "ปริยานุช",
        "role": "ผู้จัดทำ",
        "date": "2553-11-22"
      },
      {
        "name": "ณัฐวดี",
        "role": "ตรวจ",
        "date": "2553-11-22"
      }
    ],
    "tag": "a828-2g-2553-a0005"
  }
}