{
  "pages": [
    [
      [
        "ประกาศสำนักงานศาลปกครอง",
        "เรื่อง ศาลปกครองพิพากษาถึงที่สุดให้เพิกถอนกฎ"
      ]
    ],
    []
  ],
  "metadata": {
    "date_backmatter": "2555-08-22",
    "date_modified": "2555-08-29",
    "date_original": "2555-08-29",
    "doctype": "ประกาศ",
    "editors": [
      {
        "name": "ปริยานุช",
        "role": "ผู้จัดทำ",
        "date": "2555-09-03"
      },
      {
        "name": "ปณตภร",
        "role": "ผู้ตรวจ",
        "date": "2555-09-05"
      }
    ],
    "tag": "a828-2e-2555-a0012"
  }
}