{
  "pages": [
    [
      [
        "ระเบียบคณะกรรมการข้าราชการฝ่ายศาลปกครอง",
        "ว่าด้วยรถราชการ (ฉบับที่ ๖)",
        "พ.ศ. ๒๕๕๕"
      ]
    ],
    []
  ],
  "metadata": {
    "date_backmatter": "2555-05-28",
    "date_modified": "2555-06-08",
    "date_original": "2555-06-08",
    "editors": [
      {
        "name": "ปริยานุช",
        "role": "ผู้จัดทำ",
        "date": "2555-06-11"
      },
      {
        "name": "ปณตภร",
        "role": "ผู้ตรวจ",
        "date": "2555-06-13"
      }
    ],
    "tag": "a828-2g-2555-a0006"
  }
}