{
  "pages": [
    [
      [
        "พระราชบัญญัติ",
        "จัดตั้งศาลปกครองและวิธีพิจารณาคดีปกครอง (ฉบับที่ ๖)",
        "พ.ศ. ๒๕๕๔",
        "",
        "",
        "ภูมิพลอดุลยเดช ป.ร.",
        "ให้ไว้ ณ วันที่ ๑๘ เมษายน พ.ศ. ๒๕๕๔",
        "เป็นปีที่ ๖๖ ในรัชกาลปัจจุบัน"
      ]
    ],
    []
  ],
  "metadata": {
    "date_header": "2554-04-18",
    "date_modified": "2554-04-27",
    "date_original": "2554-04-27",
    "doctype": "พระราชบัญญัติ",
    "editors": [
      {
        "name": "ปริยานุช",
        "role": "ผู้จัดทำ",
        "date": "2554-04-29"
      },
      {
        "name": "ณัฐวดี",
        "role": "ตรวจ",
        "date": "2554-04-29"
      }
    ],
    "tag": "a828-20-2554-a0001",
    "title": "จัดตั้งศาลปกครองและวิธีพิจารณาคดีปกครอง (ฉบับที่ ๖)"
  }
}