{
  "pages": [
    [
      [
        "ประกาศ ก.ศป.",
        "เรื่อง การกำหนดตำแหน่งอื่นในหน่วยงานของรัฐที่เทียบเท่าอธิบดี",
        "และที่เทียบเท่าข้าราชการพลเรือน ระดับ ๘"
      ]
    ],
    []
  ],
  "metadata": {
    "date_backmatter": "2544-09-28",
    "date_modified": "2556-01-11",
    "date_original": "2544-10-04",
    "doctype": "ประกาศ",
    "editors": [
      {
        "name": "ปณตภร",
        "role": "ปรับปรุง",
        "date": "2556-02-18"
      }
    ],
    "tag": "a828-2e-2556-a0019"
  }
}