{
  "pages": [
    [
      [
        "ประกาศประธานศาลปกครองสูงสุด",
        "เรื่อง สถานที่ตั้งและวันเปิดทำการของศาลปกครองนครสวรรค์"
      ]
    ],
    []
  ],
  "metadata": {
    "date_backmatter": "2559-03-25",
    "date_modified": "2559-04-07",
    "date_original": "2559-04-07",
    "doctype": "ประกาศ",
    "editors": [
      {
        "name": "วริญา/ปริยานุช",
        "role": "จัดทำ",
        "date": "2559-04-08"
      },
      {
        "name": "นุสรา",
        "role": "ตรวจ",
        "date": "2559-04-18"
      }
    ],
    "tag": "a828-2e-2559-a0003"
  }
}