{
  "pages": [
    [
      [
        "ประกาศ ก.ศป.",
        "เรื่อง วันและเวลาทำงาน และวันหยุดราชการของตุลาการศาลปกครอง"
      ]
    ],
    []
  ],
  "metadata": {
    "date_backmatter": "2544-06-22",
    "date_gz_old": "2544-07-20",
    "doctype": "ประกาศ",
    "editors": [
      {
        "name": "ภคินี",
        "role": "แก้ไข",
        "date": "2545-04-24"
      }
    ],
    "tag": "a828-2e-2544-a015"
  }
}