{
  "pages": [
    [
      [
        "ประกาศอธิบดีศาลปกครองนครราชสีมา",
        "เรื่อง กำหนดวันเปิดทำการแผนกคดีสิ่งแวดล้อมในศาลปกครองนครราชสีมา"
      ]
    ],
    []
  ],
  "metadata": {
    "date_backmatter": "2554-07-13",
    "date_modified": "2554-07-27",
    "date_original": "2554-07-27",
    "doctype": "ประกาศ",
    "editors": [
      {
        "name": "ปริยานุช",
        "role": "ผู้จัดทำ",
        "date": "2554-08-01"
      },
      {
        "name": "ณัฐวดี",
        "role": "ตรวจ",
        "date": "2554-08-01"
      }
    ],
    "tag": "a828-2e-2554-a0019"
  }
}