{
  "pages": [
    [
      [
        "ประกาศคณะกรรมการข้าราชการฝ่ายศาลปกครอง",
        "เรื่อง กำหนดวันเวลาทำงานและวันหยุดราชการของข้าราชการฝ่ายศาลปกครอง",
        "และลูกจ้างสำนักงานศาลปกครอง"
      ]
    ],
    []
  ],
  "metadata": {
    "date_backmatter": "2542-11-12",
    "doctype": "ประกาศ",
    "editors": [],
    "tag": "a828-2e-2542-a002"
  }
}