{
  "pages": [
    [
      [
        "ระเบียบคณะกรรมการข้าราชการฝ่ายศาลปกครอง",
        "ว่าด้วยการลาของข้าราชการฝ่ายศาลปกครอง",
        "พ.ศ. ๒๕๔๒"
      ]
    ],
    []
  ],
  "metadata": {
    "date_backmatter": "2542-12-23",
    "date_modified": "2555-12-28",
    "date_original": "2542-12-24",
    "editors": [
      {
        "name": "เอกฤทธิ์",
        "role": "ผู้จัดทำ",
        "date": "2556-01-11"
      }
    ],
    "tag": "a828-2g-9981-update"
  }
}