{
  "pages": [
    [
      [
        "ประกาศสำนักงานศาลปกครอง",
        "เรื่อง ศาลปกครองพิพากษาถึงที่สุดให้เพิกถอนกฎ"
      ]
    ],
    []
  ],
  "metadata": {
    "date_backmatter": "2558-05-27",
    "date_modified": "2558-05-28",
    "date_original": "2558-05-28",
    "doctype": "ประกาศ",
    "editors": [
      {
        "name": "ปริยานุช",
        "role": "ผู้จัดทำ",
        "date": "2558-06-04"
      }
    ],
    "tag": "a828-2e-2558-a0004"
  }
}