{
  "pages": [
    [
      [
        "พระราชกฤษฎีกา",
        "ค่าตอบแทนพยานบุคคลและพยานผู้เชี่ยวชาญของศาลปกครอง",
        "พ.ศ. ๒๕๔๔",
        "-----------",
        "ภูมิพลอดุลยเดช ป.ร.",
        "ให้ไว้ ณ วันที่ ๑๒ กรกฎาคม พ.ศ. ๒๕๔๔",
        "เป็นปีที่ ๕๖ ในรัชกาลปัจจุบัน"
      ]
    ],
    []
  ],
  "metadata": {
    "date_gz_old": "2544-07-24",
    "date_header": "2544-07-12",
    "doctype": "พระราชกฤษฎีกา",
    "editors": [
      {
        "name": null,
        "role": null,
        "date": "2544-10-05"
      }
    ],
    "tag": "a828-2a-2544-a0001",
    "title": "ค่าตอบแทนพยานบุคคลและพยานผู้เชี่ยวชาญของศาลปกครองพ.ศ. ๒๕๔๔-----------ภูมิพลอดุลยเดช ป.ร.ให้ไว้ ณ วันที่ ๑๒ กรกฎาคม"
  }
}