{
  "pages": [
    [
      [
        "ประกาศสำนักงานศาลปกครอง",
        "เรื่อง ศาลปกครองพิพากษาถึงที่สุดให้เพิกถอนกฎ"
      ]
    ],
    []
  ],
  "metadata": {
    "date_backmatter": "2556-11-13",
    "date_modified": "2556-11-20",
    "date_original": "2556-11-20",
    "doctype": "ประกาศ",
    "editors": [
      {
        "name": "ปริยานุช",
        "role": "ผู้จัดทำ",
        "date": "2556-11-21"
      },
      {
        "name": "ณัฐพร",
        "role": "ผู้ตรวจ",
        "date": "2556-11-21"
      }
    ],
    "tag": "a828-2e-2556-a0016"
  }
}