{
  "pages": [
    [
      [
        "ประกาศที่ประชุมใหญ่ตุลาการในศาลปกครองสูงสุด",
        "เรื่อง ให้ศาลปกครองนครราชสีมา ศาลปกครองขอนแก่น และศาลปกครองอุดรธานี",
        "มีเขตอำนาจเพิ่มเติมในจังหวัดใกล้เคียง"
      ]
    ],
    []
  ],
  "metadata": {
    "date_backmatter": "2554-03-03",
    "date_modified": "2554-03-17",
    "date_original": "2554-03-17",
    "doctype": "ประกาศ",
    "editors": [
      {
        "name": "ปริยานุช",
        "role": "ผู้จัดทำ",
        "date": "2554-03-18"
      },
      {
        "name": "ณัฐวดี",
        "role": "ตรวจ",
        "date": "2554-03-18"
      }
    ],
    "tag": "a828-2e-2554-a0002"
  }
}