{
  "pages": [
    [
      [
        "ระเบียบคณะกรรมการข้าราชการฝ่ายศาลปกครอง",
        "ว่าด้วยเบี้ยประชุมกรรมการและอนุกรรมการ",
        "และค่าตอบแทนบุคคลหรือคณะบุคคล (ฉบับที่ ๒)",
        "พ.ศ. ๒๕๔๔"
      ]
    ],
    []
  ],
  "metadata": {
    "date_backmatter": "2544-10-31",
    "date_modified": "2544-11-05",
    "date_original": "2544-11-05",
    "editors": [
      {
        "name": "ภคินี",
        "role": "แก้ไข",
        "date": "2545-05-07"
      },
      {
        "name": "หทัยภัทร",
        "role": "แก้ไข",
        "date": "2550-03-23"
      }
    ],
    "tag": "a828-2g-2544-a021"
  }
}