{
  "pages": [
    [
      [
        "ประกาศ ก.ศป.",
        "เรื่อง การกำหนดตำแหน่งอื่นในหน่วยงานของรัฐที่เทียบเท่าอธิบดี",
        "และที่เทียบเท่าข้าราชการพลเรือนระดับ ๘ (ฉบับที่ ๒)"
      ]
    ],
    []
  ],
  "metadata": {
    "date_backmatter": "2555-12-27",
    "date_modified": "2560-11-03",
    "date_original": "2556-01-11",
    "doctype": "ประกาศ",
    "editors": [
      {
        "name": "ปุณิกา",
        "role": "จัดทำ",
        "date": "2561-01-12"
      },
      {
        "name": "ปริญสินีย์",
        "role": "ตรวจ",
        "date": "2561-01-26"
      }
    ],
    "tag": "a828-2e-9988-update"
  }
}