{
  "pages": [
    [
      [
        "ระเบียบของที่ประชุมใหญ่ตุลาการในศาลปกครองสูงสุด",
        "ว่าด้วยองค์คณะ การจ่ายสำนวน การโอนคดี การปฏิบัติหน้าที่ของตุลาการ",
        "ในคดีปกครอง การคัดค้านตุลาการศาลปกครอง การปฏิบัติหน้าที่ของ",
        "พนักงานคดีปกครอง และการมอบอำนาจให้ดำเนินคดีปกครองแทน (ฉบับที่ ๒)",
        "พ.ศ. ๒๕๔๖"
      ]
    ],
    []
  ],
  "metadata": {
    "date_backmatter": "2546-09-04",
    "date_modified": "2546-09-11",
    "date_original": "2546-09-11",
    "editors": [
      {
        "name": "ญาณี",
        "role": "พิมพ์",
        "date": "2546-10-29"
      },
      {
        "name": "พัชรินทร์/สราวุฒิ",
        "role": "ตรวจ",
        "date": "2546-10-31"
      },
      {
        "name": "หทัยภัทร",
        "role": "แก้ไข",
        "date": "2550-03-21"
      }
    ],
    "tag": "a828-2g-2546-a0006"
  }
}