{
  "pages": [
    [
      [
        "ระเบียบคณะกรรมการข้าราชการฝ่ายศาลปกครอง",
        "ว่าด้วยค่าใช้จ่ายในการฝึกอบรมของสำนักงานศาลปกครอง",
        "พ.ศ. ๒๕๔๓"
      ]
    ],
    []
  ],
  "metadata": {
    "date_backmatter": "2543-02-16",
    "date_modified": "2544-12-19",
    "date_original": "2543-03-01",
    "editors": [
      {
        "name": "ปณตภร",
        "role": "ผู้จัดทำ",
        "date": "2556-10-01"
      }
    ],
    "tag": "a828-2g-2544-a031"
  }
}