{
  "pages": [
    [
      [
        "ระเบียบคณะกรรมการข้าราชการฝ่ายศาลปกครอง",
        "ว่าด้วยเบี้ยประชุมกรรมการและอนุกรรมการ และค่าตอบแทนบุคคล",
        "หรือคณะบุคคล (ฉบับที่ ๓) พ.ศ. ๒๕๔๖"
      ]
    ],
    []
  ],
  "metadata": {
    "date_backmatter": "2546-05-12",
    "date_modified": "2546-05-22",
    "date_original": "2546-05-22",
    "editors": [
      {
        "name": "สุกัญญา",
        "role": "พิมพ์",
        "date": "2550-03-13"
      },
      {
        "name": "หทัยภัทร",
        "role": "แก้ไข",
        "date": "2550-03-23"
      }
    ],
    "tag": "a828-2g-2546-a0002"
  }
}