{
  "pages": [
    [
      [
        "ระเบียบคณะกรรมการข้าราชการฝ่ายศาลปกครอง",
        "ว่าด้วยการเลื่อนข้าราชการฝ่ายศาลปกครอง (ฉบับที่ ๕)",
        "พ.ศ. ๒๕๕๙"
      ]
    ],
    []
  ],
  "metadata": {
    "date_backmatter": "2559-07-25",
    "date_modified": "2559-08-04",
    "date_original": "2559-08-04",
    "editors": [
      {
        "name": "ปริยานุช",
        "role": "จัดทำ",
        "date": "2559-08-16"
      },
      {
        "name": "วิศนี",
        "role": "ตรวจ",
        "date": "2559-08-24"
      }
    ],
    "tag": "a828-2g-2559-a0016"
  }
}