{
  "pages": [
    [
      [
        "ระเบียบคณะกรรมการข้าราชการฝ่ายศาลปกครอง",
        "ว่าด้วยการจ่ายเงินค่ารับรองของศาลปกครองชั้นต้น",
        "พ.ศ. ๒๕๔๕"
      ]
    ],
    []
  ],
  "metadata": {
    "date_backmatter": "2545-04-26",
    "date_gz_old": "2545-04-29",
    "editors": [
      {
        "name": "พรพิมล",
        "role": "พิมพ์",
        "date": "2545-06-28"
      }
    ],
    "tag": "a828-2g-2545-a002"
  }
}