{
  "pages": [
    [
      [
        "ประกาศประธานศาลปกครองสูงสุด",
        "เรื่อง หลักเกณฑ์และวิธีการเลือกกรรมการบริหารศาลปกครองผู้ทรงคุณวุฒิ",
        "ที่เป็นตุลาการศาลปกครอง"
      ]
    ],
    []
  ],
  "metadata": {
    "date_backmatter": "2560-10-12",
    "date_modified": "2560-11-03",
    "date_original": "2560-11-03",
    "doctype": "ประกาศ",
    "editors": [
      {
        "name": "ปุณิกา/อัญชลี",
        "role": "จัดทำ",
        "date": "2560-11-06"
      }
    ],
    "tag": "a828-2e-2560-a0025"
  }
}