{
  "pages": [
    [
      [
        "ประกาศ ก.ศป.",
        "เรื่อง หลักเกณฑ์การกำหนดคุณสมบัติของบุคคลที่ได้รับการแต่งตั้งเป็นพนักงานคดีปกครอง",
        "(ฉบับที่ ๒) พ.ศ. ๒๕๕๔"
      ]
    ],
    []
  ],
  "metadata": {
    "date_backmatter": "2554-09-23",
    "date_modified": "2554-10-07",
    "date_original": "2554-10-07",
    "doctype": "ประกาศ",
    "editors": [
      {
        "name": "ปริยานุช",
        "role": "ผู้จัดทำ",
        "date": "2554-10-14"
      },
      {
        "name": "ปณตภร",
        "role": "ผู้ตรวจ",
        "date": "2554-10-17"
      }
    ],
    "tag": "a828-2e-2554-a0025"
  }
}