{
  "pages": [
    [
      [
        "ประกาศอธิบดีศาลปกครองอุดรธานี",
        "เรื่อง กำหนดวันเปิดทำการแผนกคดีวินัยการคลังและการงบประมาณในศาลปกครองอุดรธานี"
      ]
    ],
    []
  ],
  "metadata": {
    "date_backmatter": "2558-11-16",
    "date_modified": "2558-11-23",
    "date_original": "2558-11-23",
    "doctype": "ประกาศ",
    "editors": [
      {
        "name": "ปริยานุช",
        "role": "จัดทำ",
        "date": "2558-11-26"
      },
      {
        "name": "วริญา",
        "role": "ตรวจ",
        "date": "2558-11-26"
      }
    ],
    "tag": "a828-2e-2558-a0026"
  }
}