{
  "pages": [
    [
      [
        "ประกาศอธิบดีศาลปกครองกลาง",
        "เรื่อง หลักเกณฑ์ วิธีการ และเงื่อนไขในการตรวจดู การคัดสำเนา",
        "และการรับรองสำเนาเอกสารในสำนวนคดี"
      ]
    ],
    []
  ],
  "metadata": {
    "date_backmatter": "2544-06-28",
    "date_gz_old": "2544-07-11",
    "doctype": "ประกาศ",
    "editors": [
      {
        "name": "อัมพิกา",
        "role": "แก้ไข",
        "date": "2544-11-12"
      }
    ],
    "tag": "a828-2e-2544-a012"
  }
}