{
  "pages": [
    [
      [
        "ระเบียบคณะกรรมการข้าราชการฝ่ายศาลปกครอง",
        "ว่าด้วยการจัดสวัสดิการภายในสำนักงานศาลปกครอง (ฉบับที่ ๒)",
        "พ.ศ. ๒๕๔๕"
      ]
    ],
    []
  ],
  "metadata": {
    "date_backmatter": "2545-12-16",
    "date_modified": "2545-12-19",
    "date_original": "2545-12-19",
    "editors": [
      {
        "name": "สุกัญญา",
        "role": "พิมพ์",
        "date": "2550-03-13"
      },
      {
        "name": "หทัยภัทร",
        "role": "แก้ไข",
        "date": "2550-03-20"
      },
      {
        "name": "ปณตภร",
        "role": "ปรับปรุง",
        "date": "2555-05-25"
      }
    ],
    "tag": "a828-2g-2545-a019"
  }
}