{
  "pages": [
    [
      [
        "ประกาศสำนักงานศาลปกครอง",
        "เรื่อง ศาลปกครองพิพากษาถึงที่สุดให้เพิกถอนกฎ"
      ]
    ],
    []
  ],
  "metadata": {
    "date_backmatter": "2559-11-03",
    "date_modified": "2559-11-11",
    "date_original": "2559-11-11",
    "doctype": "ประกาศ",
    "editors": [
      {
        "name": "ปริยานุช",
        "role": "จัดทำ",
        "date": "2559-11-14"
      },
      {
        "name": "ปุณิกา",
        "role": "ตรวจ",
        "date": "2559-11-14"
      }
    ],
    "tag": "a828-2e-2559-a0014"
  }
}