{
  "pages": [
    [
      [
        "ประกาศประธานศาลปกครองสูงสุด",
        "เรื่อง รายชื่อผู้ได้รับเลือกเป็นกรรมการข้าราชการฝ่ายศาลปกครองผู้ทรงคุณวุฒิ",
        "ตามมาตรา ๘๑ วรรคหนึ่ง (๕) แห่งพระราชบัญญัติจัดตั้งศาลปกครองและวิธีพิจารณาคดีปกครอง",
        "พ.ศ. ๒๕๔๒"
      ]
    ],
    []
  ],
  "metadata": {
    "date_backmatter": "2561-01-24",
    "date_modified": "2561-02-02",
    "date_original": "2561-02-02",
    "doctype": "ประกาศ",
    "editors": [
      {
        "name": "ปวันวิทย์",
        "role": "จัดทำ",
        "date": "2561-05-18"
      }
    ],
    "tag": "a828-2e-2561-a0002"
  }
}