{
  "pages": [
    [
      [
        "ประกาศประธานศาลปกครองสูงสุด",
        "เรื่อง การจัดตั้งแผนกคดีละเมิดและความรับผิดอย่างอื่นในศาลปกครองสูงสุด"
      ]
    ],
    []
  ],
  "metadata": {
    "date_backmatter": "2560-01-26",
    "date_modified": "2560-02-08",
    "date_original": "2560-02-08",
    "doctype": "ประกาศ",
    "editors": [
      {
        "name": "ชวัลพร/ปริยานุช",
        "role": "จัดทำ",
        "date": "2560-02-10"
      },
      {
        "name": "นุสรา",
        "role": "ตรวจ",
        "date": "2560-03-20"
      }
    ],
    "tag": "a828-2e-2560-a0002"
  }
}