{
  "pages": [
    [
      [
        "ระเบียบของที่ประชุมใหญ่ตุลาการในศาลปกครองสูงสุด",
        "ว่าด้วยวิธีพิจารณาคดีปกครอง",
        "พ.ศ. ๒๕๔๓"
      ]
    ],
    []
  ],
  "metadata": {
    "date_backmatter": "2543-11-17",
    "date_modified": "2544-03-22",
    "date_original": "2543-11-17",
    "editors": [
      {
        "name": null,
        "role": null,
        "date": "2545-10-31"
      },
      {
        "name": "หทัยภัทร",
        "role": "แก้ไข",
        "date": "2550-03-21"
      },
      {
        "name": "สุนันทา",
        "role": "ผู้จัดทำ",
        "date": "2551-08-08"
      }
    ],
    "tag": "a828-2g-2543-a011"
  }
}