{
  "pages": [
    [
      [
        "ระเบียบคณะกรรมการข้าราชการฝ่ายศาลปกครอง",
        "ว่าด้วยค่าเช่าบ้านข้าราชการฝ่ายศาลปกครอง",
        "พ.ศ. ๒๕๔๕"
      ]
    ],
    []
  ],
  "metadata": {
    "date_backmatter": "2545-05-17",
    "date_modified": "2551-02-27",
    "date_original": "2545-05-22",
    "editors": [
      {
        "name": "ฐาปนี",
        "role": "แก้ไข",
        "date": "2545-08-01"
      },
      {
        "name": "หทัยภัทร",
        "role": "แก้ไข",
        "date": "2550-03-23"
      },
      {
        "name": "สุนันทา",
        "role": "ผู้จัดทำ",
        "date": "2551-07-15"
      }
    ],
    "tag": "a828-2g-9985-update"
  }
}