{
  "pages": [
    [
      [
        "ระเบียบคณะกรรมการข้าราชการฝ่ายศาลปกครอง",
        "ว่าด้วยการจ่ายเงินรางวัล",
        "พ.ศ. ๒๕๕๐"
      ]
    ],
    []
  ],
  "metadata": {
    "date_backmatter": "2550-02-27",
    "date_modified": "2550-03-07",
    "date_original": "2550-03-07",
    "editors": [
      {
        "name": "โสรศ",
        "role": "ผู้จัดทำ",
        "date": "2550-03-13"
      }
    ],
    "tag": "a828-2g-2550-a0001"
  }
}