{
  "pages": [
    [
      [
        "พระราชบัญญัติ",
        "จัดตั้งศาลปกครองและวิธีพิจารณาคดีปกครอง (ฉบับที่ ๗)",
        "พ.ศ. ๒๕๕๗",
        "",
        "",
        "ภูมิพลอดุลยเดช ป.ร.",
        "ให้ไว้ ณ วันที่ ๒๘ พฤศจิกายน พ.ศ. ๒๕๕๗",
        "เป็นปีที่ ๖๙ ในรัชกาลปัจจุบัน"
      ]
    ],
    []
  ],
  "metadata": {
    "date_header": "2557-11-28",
    "date_modified": "2557-12-04",
    "date_original": "2557-12-04",
    "doctype": "พระราชบัญญัติ",
    "editors": [
      {
        "name": "ปริยานุช",
        "role": "ผู้จัดทำ",
        "date": "2557-12-08"
      },
      {
        "name": "วิศนี",
        "role": "ตรวจ",
        "date": "2557-12-11"
      }
    ],
    "tag": "a828-20-2557-a0001",
    "title": "จัดตั้งศาลปกครองและวิธีพิจารณาคดีปกครอง (ฉบับที่ ๗)"
  }
}