{
  "pages": [
    [
      [
        "พระราชบัญญัติ",
        "จัดตั้งศาลปกครองและวิธีพิจารณาคดีปกครอง (ฉบับที่ ๙)",
        "พ.ศ. ๒๕๖๐",
        "",
        "",
        "สมเด็จพระเจ้าอยู่หัวมหาวชิราลงกรณ บดินทรเทพยวรางกูร",
        "ให้ไว้ ณ วันที่ ๒๒ กันยายน พ.ศ. ๒๕๖๐",
        "เป็นปีที่ ๒ ในรัชกาลปัจจุบัน"
      ]
    ],
    []
  ],
  "metadata": {
    "date_header": "2560-09-22",
    "date_modified": "2560-09-26",
    "date_original": "2560-09-26",
    "doctype": "พระราชบัญญัติ",
    "editors": [
      {
        "name": "ปุณิกา/ภวรรณตรี",
        "role": "จัดทำ",
        "date": "2560-09-27"
      },
      {
        "name": "พจนา",
        "role": "ตรวจ",
        "date": "2560-09-28"
      }
    ],
    "tag": "a828-20-2560-a0001",
    "title": "จัดตั้งศาลปกครองและวิธีพิจารณาคดีปกครอง (ฉบับที่ ๙)"
  }
}