{
  "pages": [
    [
      [
        "ระเบียบคณะกรรมการข้าราชการฝ่ายศาลปกครอง",
        "ว่าด้วยการบรรจุ การเลื่อน การย้ายข้าราชการฝ่ายศาลปกครอง",
        "ให้ดำรงตำแหน่งพนักงานคดีปกครอง (ฉบับที่ ๒)",
        "พ.ศ. ๒๕๔๖"
      ]
    ],
    []
  ],
  "metadata": {
    "date_backmatter": "2546-04-29",
    "date_modified": "2546-05-08",
    "date_original": "2546-05-08",
    "editors": [
      {
        "name": "มณฑาทิพย์",
        "role": "พิมพ์",
        "date": "2546-06-26"
      },
      {
        "name": "สุมลรัตน์",
        "role": "อรรถชัย แก้ไข",
        "date": "2546-07-01"
      },
      {
        "name": "หทัยภัทร",
        "role": "แก้ไข",
        "date": "2550-03-23"
      }
    ],
    "tag": "a828-2g-2546-a0001"
  }
}