{
  "pages": [
    [
      [
        "เทศบัญญัติเทศบาลนครรังสิต",
        "เรื่อง การควบคุมการเลี้ยงหรือปล่อยสัตว์",
        "พ.ศ. ๒๕๕๖"
      ]
    ],
    []
  ],
  "metadata": {
    "date_backmatter": "2556-11-20",
    "date_modified": "2557-05-01",
    "date_original": "2557-05-01",
    "editors": [
      {
        "name": "ปริยานุช",
        "role": "ผู้จัดทำ",
        "date": "2557-05-02"
      },
      {
        "name": "อุษมล",
        "role": "ผู้ตรวจ",
        "date": "2557-05-15"
      }
    ],
    "tag": "b705-2k-2557-a0011"
  }
}