{
  "pages": [
    [
      [
        "ประกาศสำนักงานศาลปกครอง",
        "เรื่อง ศาลปกครองพิพากษาถึงที่สุดให้เพิกถอนกฎ"
      ]
    ],
    []
  ],
  "metadata": {
    "date_backmatter": "2554-10-13",
    "date_modified": "2554-10-21",
    "date_original": "2554-10-21",
    "doctype": "ประกาศ",
    "editors": [
      {
        "name": "ปริยานุช",
        "role": "ผู้จัดทำ",
        "date": "2554-10-25"
      },
      {
        "name": "ปณตภร",
        "role": "ผู้ตรวจ",
        "date": "2554-10-25"
      }
    ],
    "tag": "b705-2e-2554-a0092"
  }
}