{
  "pages": [
    [
      [
        "ระเบียบกระทรวงมหาดไทย",
        "ว่าด้วยการจ่ายเงินบำเหน็จลูกจ้างของหน่วยบริหารราชการ",
        "ส่วนท้องถิ่น พ.ศ. ๒๕๐๓"
      ]
    ],
    []
  ],
  "metadata": {
    "date_backmatter": "2503-03-07",
    "date_modified": "2503-04-12",
    "date_original": "2503-04-12",
    "editors": [
      {
        "name": null,
        "role": null,
        "date": "2544-07-26"
      },
      {
        "name": "ศิริยา",
        "role": "แก้ไข",
        "date": "2549-01-09"
      }
    ],
    "tag": "b705-2g-2503-003"
  }
}