{
  "pages": [
    [
      [
        "เทศบัญญัติเทศบาลตำบลเวียงพางคำ",
        "เรื่อง การเก็บภาษีธุรกิจเฉพาะ ภาษีมูลค่าเพิ่ม ค่าธรรมเนียมใบอนุญาตขายสุรา",
        "และค่าธรรมเนียมใบอนุญาตในการเล่นการพนัน",
        "พ.ศ. ๒๕๕๑"
      ]
    ],
    []
  ],
  "metadata": {
    "date_backmatter": "2551-08-05",
    "date_modified": "2552-10-01",
    "date_original": "2552-10-01",
    "editors": [
      {
        "name": "ปริยานุช",
        "role": "ผู้จัดทำ",
        "date": "2552-10-06"
      }
    ],
    "tag": "b705-2k-2552-a0046"
  }
}