{
  "pages": [
    [
      [
        "เทศบัญญัติเทศบาลตำบลแม่ระมาด",
        "เรื่อง กำหนดบริเวณห้ามก่อสร้างดัดแปลง หรือเปลี่ยนการใช้อาคารบางชนิด",
        "หรือบางประเภทในท้องที่เขตเทศบาลตำบลแม่ระมาด",
        "อำเภอแม่ระมาด จังหวัดตาก พ.ศ. ๒๕๖๐"
      ]
    ],
    []
  ],
  "metadata": {
    "date_backmatter": "2560-09-26",
    "date_modified": "2561-02-21",
    "date_original": "2561-02-21",
    "editors": [
      {
        "name": "ปุณิกา",
        "role": "จัดทำ"
      }
    ],
    "tag": "b705-2k-2561-a0003"
  }
}