{
  "pages": [
    [
      [
        "เทศบัญญัติเทศบาลตำบลบ้านสาง",
        "เรื่อง กำหนดบริเวณห้ามก่อสร้าง ดัดแปลง หรือเปลี่ยนการใช้อาคารบางชนิด หรือบางประเภท",
        "ในท้องที่ เขตเทศบาลตำบลบ้านสาง อำเภอเมืองพะเยา จังหวัดพะเยา",
        "พ.ศ. ๒๕๕๖"
      ]
    ],
    []
  ],
  "metadata": {
    "date_backmatter": "2556-07-19",
    "date_modified": "2556-10-04",
    "date_original": "2556-10-04",
    "editors": [
      {
        "name": "ปริยานุช",
        "role": "ผู้จัดทำ",
        "date": "2556-10-09"
      },
      {
        "name": "โชติกานต์",
        "role": "ผู้ตรวจ",
        "date": "2556-10-15"
      }
    ],
    "tag": "b705-2k-2556-a0037"
  }
}