{
  "pages": [
    [
      [
        "ระเบียบกระทรวงมหาดไทย",
        "ว่าด้วยการสอบสวนผู้บริหารท้องถิ่น รองผู้บริหารท้องถิ่น ประธานสภาท้องถิ่น",
        "รองประธานสภาท้องถิ่น สมาชิกสภาท้องถิ่น เลขานุการผู้บริหารท้องถิ่น",
        "และที่ปรึกษาผู้บริหารท้องถิ่น",
        "พ.ศ. ๒๕๕๔"
      ]
    ],
    []
  ],
  "metadata": {
    "date_backmatter": "2554-03-25",
    "date_modified": "2554-06-30",
    "date_original": "2554-06-30",
    "editors": [
      {
        "name": "ปริยานุช",
        "role": "ผู้จัดทำ",
        "date": "2554-07-27"
      },
      {
        "name": "ณัฐวดี ดำรง",
        "role": "ตรวจ",
        "date": "2554-07-27"
      }
    ],
    "tag": "b705-2g-2554-a0005"
  }
}