{
  "pages": [
    [
      [
        "เทศบัญญัติเทศบาลตำบลท่าสาย",
        "เรื่อง กำหนดบริเวณห้ามก่อสร้าง ดัดแปลง หรือเปลี่ยนการใช้อาคารบางชนิดหรือบางประเภท",
        "ในพื้นที่บางส่วนของเทศบาลตำบลท่าสาย อำเภอเมืองเชียงราย จังหวัดเชียงราย",
        "พ.ศ. ๒๕๕๘"
      ]
    ],
    []
  ],
  "metadata": {
    "date_backmatter": "2558-06-09",
    "date_modified": "2558-07-27",
    "date_original": "2558-07-27",
    "editors": [
      {
        "name": "ปริยานุช",
        "role": "ผู้จัดทำ",
        "date": "2558-07-29"
      },
      {
        "name": "นุสรา",
        "role": "ผู้ตรวจ",
        "date": "2558-08-17"
      }
    ],
    "tag": "b705-2k-2558-a0026"
  }
}