{
  "pages": [
    [
      [
        "ระเบียบเทศบาลเมืองบ้านบึง",
        "ว่าด้วยหลักเกณฑ์และวิธีการจัดหาประโยชน์ในทรัพย์สินของเทศบาล (ฉบับที่ ๒)",
        "พ.ศ. ๒๕๕๑"
      ]
    ],
    []
  ],
  "metadata": {
    "date_backmatter": "2551-07-28",
    "date_modified": "2552-05-21",
    "date_original": "2552-05-21",
    "editors": [
      {
        "name": "ปริยานุช",
        "role": "ผู้จัดทำ",
        "date": "2552-05-27"
      }
    ],
    "tag": "b705-2g-2552-a0007"
  }
}