{
  "pages": [
    [
      [
        "เทศบัญญัติเทศบาลตำบลบ้านดู่",
        "เรื่อง กำหนดบริเวณห้ามก่อสร้าง ดัดแปลง หรือเปลี่ยนการใช้อาคารบางชนิดหรือบางประเภท",
        "ในพื้นที่บางส่วนในเขตเทศบาลตำบลบ้านดู่ อำเภอเมืองเชียงราย จังหวัดเชียงราย",
        "พ.ศ. ๒๕๕๙"
      ]
    ],
    []
  ],
  "metadata": {
    "date_backmatter": "2559-01-08",
    "date_modified": "2559-01-22",
    "date_original": "2559-01-22",
    "editors": [
      {
        "name": "ปริยานุช",
        "role": "จัดทำ",
        "date": "2559-01-25"
      },
      {
        "name": "วริญา",
        "role": "ตรวจ",
        "date": "2559-01-29"
      }
    ],
    "tag": "b705-2k-2559-a0003"
  }
}