{
  "pages": [
    [
      [
        "พระราชกฤษฎีกา",
        "เปลี่ยนแปลงเขตเทศบาลตำบลบางคล้า จังหวัด",
        "ฉะเชิงเทรา พุทธศักราช ๒๔๘๘",
        "",
        "",
        "ในพระปรมาภิไธยสมเด็จพระเจ้าอยู่หัวอานันทมหิดล",
        "ผู้สำเร็จราชการแทนพระองค์",
        "(ตามประกาศประธานสภาผู้แทนราษฎร",
        "ลงวันที่ ๒๐ กันยายน พุทธศักราช ๒๔๘๘)",
        "ปรีดี พนมยงค์",
        "ตราไว้ ณ วันที่ ๒ พฤศจิกายน พุทธศักราช ๒๔๘๘",
        "เป็นปีที่ ๑๒ ในรัชกาลปัจจุบัน"
      ]
    ],
    []
  ],
  "metadata": {
    "date_header": "2488-09-20",
    "date_modified": "2488-11-13",
    "date_original": "2488-11-13",
    "doctype": "พระราชกฤษฎีกา",
    "editors": [
      {
        "name": "สุภาพร",
        "role": "พิมพ์",
        "date": "2546-09-01"
      },
      {
        "name": "นวพร",
        "role": "ศุภสรณ์ แก้ไข",
        "date": "2546-09-02"
      }
    ],
    "tag": "b705-2a-2488-a002",
    "title": "เปลี่ยนแปลงเขตเทศบาลตำบลบางคล้า จังหวัดฉะเชิงเทรา"
  }
}