{
  "pages": [
    [
      [
        "พระราชกฤษฎีกา",
        "เปลี่ยนแปลงเขตเทศบาลเมืองพัทลุง จังหวัดพัทลุง",
        "พ.ศ. ๒๕๒๓",
        "----------",
        "ภูมิพลอดุลยเดช ป.ร.",
        "ให้ไว้ ณ วันที่ ๑๑ มีนาคม พ.ศ. ๒๕๒๓",
        "เป็นปีที่ ๓๕ ในรัชกาลปัจจุบัน"
      ]
    ],
    []
  ],
  "metadata": {
    "date_header": "2523-03-11",
    "doctype": "พระราชกฤษฎีกา",
    "editors": [],
    "tag": "b705-2a-2523-a0001",
    "title": "เปลี่ยนแปลงเขตเทศบาลเมืองพัทลุง จังหวัดพัทลุงพ.ศ. ๒๕๒๓----------ภูมิพลอดุลยเดช ป.ร.ให้ไว้ ณ วันที่ ๑๑ มีนาคม"
  }
}