{
  "pages": [
    [
      [
        "ระเบียบกระทรวงมหาดไทย",
        "ว่าด้วยข้อบังคับการประชุมสภาท้องถิ่น (ฉบับที่ ๒)",
        "พ.ศ. ๒๕๕๔"
      ]
    ],
    []
  ],
  "metadata": {
    "date_backmatter": "2554-01-18",
    "date_modified": "2554-03-08",
    "date_original": "2554-03-08",
    "editors": [
      {
        "name": "ปริยานุช",
        "role": "ผู้จัดทำ",
        "date": "2554-03-15"
      },
      {
        "name": "ณัฐวดี",
        "role": "ตรวจ",
        "date": "2554-03-15"
      }
    ],
    "tag": "b705-2g-2554-a0003"
  }
}