{
  "pages": [
    [
      [
        "เทศบัญญัติเทศบาลตำบลบางเมือง",
        "เรื่อง กำหนดบริเวณห้ามก่อสร้าง ดัดแปลง ใช้หรือเปลี่ยนการใช้อาคารบางชนิด หรือบางประเภท",
        "ในท้องที่เขตเทศบาลตำบลบางเมือง อำเภอเมืองสมุทรปราการ จังหวัดสมุทรปราการ",
        "พ.ศ. ๒๕๕๑"
      ]
    ],
    []
  ],
  "metadata": {
    "date_backmatter": "2551-06-19",
    "date_modified": "2552-05-07",
    "date_original": "2552-05-07",
    "editors": [
      {
        "name": "ปริยานุช",
        "role": "ผู้จัดทำ",
        "date": "2552-05-13"
      }
    ],
    "tag": "b705-2k-2552-a0016"
  }
}