{
  "pages": [
    [
      [
        "เทศบัญญัติเทศบาลนครสุราษฎร์ธานี",
        "เรื่อง กำหนดบริเวณห้ามก่อสร้าง ดัดแปลง ใช้หรือเปลี่ยนการใช้อาคารบางชนิดหรือบางประเภท",
        "ในท้องที่เขตเทศบาลนครสุราษฎร์ธานี อำเภอเมืองสุราษฎร์ธานี จังหวัดสุราษฎร์ธานี",
        "พ.ศ. ๒๕๕๒"
      ]
    ],
    []
  ],
  "metadata": {
    "date_backmatter": "2552-04-21",
    "date_modified": "2552-07-17",
    "date_original": "2552-07-17",
    "editors": [
      {
        "name": "ปริยานุช",
        "role": "ผู้จัดทำ",
        "date": "2552-07-31"
      }
    ],
    "tag": "b705-2k-2552-a0024"
  }
}