{
  "pages": [
    [
      [
        "เทศบัญญัติเทศบาลตำบลแก่งเสี้ยน",
        "เรื่อง กำหนดบริเวณห้ามก่อสร้าง ดัดแปลง หรือเปลี่ยนการใช้อาคารบางชนิด หรือบางประเภท",
        "ในท้องที่เทศบาลตำบลแก่งเสี้ยน อำเภอเมืองกาญจนบุรี จังหวัดกาญจนบุรี",
        "พ.ศ. ๒๕๕๖"
      ]
    ],
    []
  ],
  "metadata": {
    "date_backmatter": "2556-01-25",
    "date_modified": "2556-04-29",
    "date_original": "2556-04-29",
    "editors": [
      {
        "name": "ปริยานุช",
        "role": "ผู้จัดทำ",
        "date": "2556-05-02"
      },
      {
        "name": "โชติกานต์",
        "role": "ผู้ตรวจ",
        "date": "2556-05-09"
      }
    ],
    "tag": "b705-2k-2556-a0020"
  }
}