{
  "pages": [
    [
      [
        "ระเบียบกระทรวงมหาดไทย",
        "ว่าด้วยใบสมัครรับเลือกตั้งและบัตรเลือกตั้ง",
        "สมาชิกสภาเทศบาลหรือนายกเทศมนตรี",
        "พ.ศ. ๒๕๔๓"
      ]
    ],
    []
  ],
  "metadata": {
    "date_backmatter": "2543-05-16",
    "date_gz_old": "2543-05-16",
    "editors": [],
    "tag": "b705-2g-2543-a0001"
  }
}