{
  "pages": [
    [
      [
        "พระราชกฤษฎีกา",
        "เปลี่ยนแปลงเขตเทศบาลเมืองขอนแก่น",
        "จังหวัดขอนแก่น",
        "พ.ศ.๒๕๑๔",
        "------------",
        "ภูมิพลอดุลยเดช ป.ร.",
        "ให้ไว้ ณ วันที่ ๑๙ สิงหาคม พ.ศ. ๒๕๑๔",
        "เป็นปีที่ ๒๖ ในรัชกาลปัจจุบัน"
      ]
    ],
    []
  ],
  "metadata": {
    "date_header": "2514-08-19",
    "doctype": "พระราชกฤษฎีกา",
    "editors": [],
    "tag": "b705-2a-2514-a0001",
    "title": "เปลี่ยนแปลงเขตเทศบาลเมืองขอนแก่นจังหวัดขอนแก่นพ.ศ.๒๕๑๔------------ภูมิพลอดุลยเดช ป.ร.ให้ไว้ ณ วันที่ ๑๙ สิงหาคม"
  }
}