{
  "pages": [
    [
      [
        "เทศบัญญัติเทศบาลตำบลวังศาลา",
        "เรื่อง กำหนดบริเวณห้ามก่อสร้าง ดัดแปลง หรือเปลี่ยนการใช้อาคารบางชนิด หรือบางประเภท",
        "ในท้องที่เทศบาลตำบลวังศาลา อำเภอท่าม่วง จังหวัดกาญจนบุรี",
        "พ.ศ. ๒๕๕๕"
      ]
    ],
    []
  ],
  "metadata": {
    "date_backmatter": "2555-11-01",
    "date_modified": "2556-01-25",
    "date_original": "2556-01-25",
    "editors": [
      {
        "name": "ปริยานุช",
        "role": "ผู้จัดทำ",
        "date": "2556-02-01"
      },
      {
        "name": "โชติกานต์",
        "role": "ผู้ตรวจ",
        "date": "2556-03-12"
      }
    ],
    "tag": "b705-2k-2556-a0005"
  }
}