{
  "pages": [
    [
      [
        "ระเบียบกระทรวงมหาดไทย",
        "ว่าด้วยเงินช่วยค่าครองชีพผู้รับบำนาญของราชการส่วนท้องถิ่น (ฉบับที่ ๑๓)",
        "พ.ศ. ๒๕๕๒"
      ]
    ],
    []
  ],
  "metadata": {
    "date_backmatter": "2552-11-12",
    "date_modified": "2553-01-11",
    "date_original": "2553-01-11",
    "editors": [
      {
        "name": "ปริญสินีย์",
        "role": "ปรับปรุง",
        "date": "2558-02-27"
      }
    ],
    "tag": "b705-2g-2553-a0001"
  }
}