{
  "pages": [
    [
      [
        "เทศบัญญัติเทศบาลเมืองสะเดา",
        "เรื่อง กำหนดบริเวณห้ามก่อสร้าง ดัดแปลง หรือเปลี่ยนการใช้อาคารบางชนิดหรือบางประเภท",
        "ในท้องที่เขตเทศบาลเมืองสะเดา อำเภอสะเดา จังหวัดสงขลา",
        "พ.ศ. ๒๕๕๗"
      ]
    ],
    []
  ],
  "metadata": {
    "date_backmatter": "2557-08-04",
    "date_modified": "2557-09-29",
    "date_original": "2557-09-29",
    "editors": [
      {
        "name": "ปริยานุช",
        "role": "ผู้จัดทำ",
        "date": "2557-10-02"
      },
      {
        "name": "ปริญสินีย์",
        "role": "ผู้ตรวจ",
        "date": "2557-10-02"
      }
    ],
    "tag": "b705-2k-2557-a0023"
  }
}