{
  "pages": [
    [
      [
        "เทศบัญญัติเทศบาลตำบลหาดทรายรี",
        "เรื่อง การควบคุมกิจการที่เป็นอันตรายต่อสุขภาพ",
        "พ.ศ. ๒๕๕๓"
      ]
    ],
    []
  ],
  "metadata": {
    "date_backmatter": "2553-09-21",
    "date_modified": "2553-12-09",
    "date_original": "2553-12-09",
    "editors": [
      {
        "name": "ปริยานุช",
        "role": "ผู้จัดทำ",
        "date": "2553-12-20"
      },
      {
        "name": "ณัฐวดี",
        "role": "ตรวจ",
        "date": "2553-12-20"
      }
    ],
    "tag": "b705-2k-2553-a0084"
  }
}