{
  "pages": [
    [
      [
        "ระเบียบกระทรวงมหาดไทย",
        "ว่าด้วยเงินช่วยค่าครองชีพผู้รับบำนาญของราชการส่วนท้องถิ่น",
        "(ฉบับที่ ๗) พ.ศ. ๒๕๓๕"
      ]
    ],
    []
  ],
  "metadata": {
    "date_backmatter": "2535-08-04",
    "date_modified": "2548-12-13",
    "date_original": "2548-12-13",
    "editors": [
      {
        "name": "ปริญสินีย์",
        "role": "ปรับปรุง",
        "date": "2558-02-27"
      }
    ],
    "tag": "b705-2g-2548-a0014"
  }
}