{
  "pages": [
    [
      [
        "ระเบียบกระทรวงมหาดไทย",
        "ว่าด้วยเงินทุนหมุนเวียนเกี่ยวกับโภชนาการ และอาหารกลางวันของโรงเรียน",
        "ในสังกัดหน่วยการบริหารราชการส่วนท้องถิ่น",
        "(ฉบับที่ ๒) พ.ศ. ๒๕๔๑"
      ]
    ],
    []
  ],
  "metadata": {
    "date_backmatter": "2541-07-03",
    "date_modified": "2541-07-14",
    "date_original": "2541-07-14",
    "editors": [
      {
        "name": "นันติญา",
        "role": "ผู้พิมพ์",
        "date": "2551-02-18"
      }
    ],
    "tag": "b705-2g-2541-a012"
  }
}