{
  "pages": [
    [
      [
        "เทศบัญญัติเทศบาลตำบลอิสาณ",
        "เรื่อง กำหนดบริเวณห้ามก่อสร้าง ดัดแปลง ใช้หรือเปลี่ยนการใช้อาคารบางชนิด",
        "หรือบางประเภทในท้องที่เขตเทศบาลตำบลอิสาณ อำเภอเมืองบุรีรัมย์ จังหวัดบุรีรัมย์",
        "(ฉบับที่ ๒)",
        "พ.ศ. ๒๕๕๗"
      ]
    ],
    []
  ],
  "metadata": {
    "date_backmatter": "2557-05-23",
    "date_modified": "2557-06-06",
    "date_original": "2557-06-06",
    "editors": [
      {
        "name": "ปริยานุช",
        "role": "ผู้จัดทำ",
        "date": "2557-06-11"
      },
      {
        "name": "นุสรา",
        "role": "ผู้ตรวจ",
        "date": "2557-07-30"
      }
    ],
    "tag": "b705-2k-2557-a0019"
  }
}