{
  "pages": [
    [
      [
        "ข้อบัญญัติองค์การบริหารส่วนตำบลนิคมกระเสียว",
        "เรื่อง การบริหารกิจการและการบำรุงรักษาระบบประปาหมู่บ้าน",
        "พ.ศ. ๒๕๕๘"
      ]
    ],
    []
  ],
  "metadata": {
    "date_backmatter": "2558-12-21",
    "date_modified": "2559-05-17",
    "date_original": "2559-05-17",
    "editors": [
      {
        "name": "ปุณิกา/ปริยานุช",
        "role": "จัดทำ",
        "date": "2559-05-25"
      }
    ],
    "tag": "b705-2j-2559-a0005"
  }
}