{
  "pages": [
    [
      [
        "พระราชกฤษฎีกา",
        "เปลี่ยนแปลงเขตเทศบาลเมืองอ่างทอง จังหวัดอ่างทอง",
        "พ.ศ. ๒๕๓๗",
        "_________",
        "ภูมิพลอดุลยเดช ป.ร.",
        "ให้ไว้ ณ วันที่ ๖ กันยายน พ.ศ. ๒๕๓๗",
        "เป็นปีที่ ๔๙ ในรัชกาลปัจจุบัน"
      ]
    ],
    []
  ],
  "metadata": {
    "date_gz_old": "2537-09-20",
    "date_header": "2537-09-06",
    "doctype": "พระราชกฤษฎีกา",
    "editors": [
      {
        "name": "พรพิมล",
        "role": "แก้ไข",
        "date": "2545-06-24"
      }
    ],
    "tag": "b705-2a-2537-a002",
    "title": "เปลี่ยนแปลงเขตเทศบาลเมืองอ่างทอง จังหวัดอ่างทองพ.ศ. ๒๕๓๗_________ภูมิพลอดุลยเดช ป.ร.ให้ไว้ ณ วันที่ ๖ กันยายน"
  }
}