{
  "pages": [
    [
      [
        "ประกาศกระทรวงมหาดไทย",
        "เรื่อง จัดตั้งองค์การบริหารส่วนตำบลทุ่งคลี อำเภอเดิมบางนางบวช จังหวัดสุพรรณบุรี",
        "เป็นเทศบาลตำบลทุ่งคลี"
      ]
    ],
    []
  ],
  "metadata": {
    "date_backmatter": "2553-09-08",
    "date_modified": "2553-10-18",
    "date_original": "2553-10-18",
    "doctype": "ประกาศ",
    "editors": [
      {
        "name": "ปริยานุช",
        "role": "ผู้จัดทำ",
        "date": "2553-10-28"
      },
      {
        "name": "ณัฐวดี",
        "role": "ตรวจ",
        "date": "2553-10-28"
      }
    ],
    "tag": "b705-2e-2553-a0019"
  }
}