{
  "pages": [
    [
      [
        "ระเบียบเทศบาลตำบลหนองขุ่น",
        "ว่าด้วยการควบคุมการเลี้ยงหรือปล่อยสุนัข",
        "พ.ศ. ๒๕๕๓"
      ]
    ],
    []
  ],
  "metadata": {
    "date_backmatter": "2553-06-24",
    "date_modified": "2553-10-11",
    "date_original": "2553-10-11",
    "editors": [
      {
        "name": "ปริยานุช",
        "role": "ผู้จัดทำ",
        "date": "2553-10-20"
      },
      {
        "name": "ณัฐวดี",
        "role": "ตรวจ",
        "date": "2553-10-20"
      }
    ],
    "tag": "b705-2g-2553-a0012"
  }
}