{
  "pages": [
    [
      [
        "เทศบัญญัติเทศบาลเมืองหนองปรือ",
        "เรื่อง การติดตั้งบ่อดักไขมันบำบัดน้ำเสียในอาคาร",
        "พ.ศ. ๒๕๕๑"
      ]
    ],
    []
  ],
  "metadata": {
    "date_backmatter": "2551-06-10",
    "date_modified": "2552-01-01",
    "date_original": "2552-01-01",
    "editors": [
      {
        "name": "วัชศักดิ์",
        "role": "ผู้จัดทำ",
        "date": "2552-01-12"
      }
    ],
    "tag": "b705-2k-2552-a0002"
  }
}