{
  "pages": [
    [
      [
        "ระเบียบกระทรวงมหาดไทย",
        "ว่าด้วยบำเหน็จลูกจ้างของหน่วยการบริหารราชการส่วนท้องถิ่น",
        "(ฉบับที่ ๒)",
        "พ.ศ. ๒๕๔๔"
      ]
    ],
    []
  ],
  "metadata": {
    "date_backmatter": "2544-06-28",
    "date_gz_old": "2544-06-29",
    "editors": [
      {
        "name": "อาภรณ์",
        "role": "พิมพ์",
        "date": "2544-11-01"
      }
    ],
    "tag": "b705-2g-2544-a0001"
  }
}