{
  "pages": [
    [
      [
        "เทศบัญญัติเทศบาลเมืองเขารูปช้าง",
        "เรื่อง กำหนดบริเวณห้ามก่อสร้าง ดัดแปลง หรือเปลี่ยนการใช้อาคารบางชนิด หรือบางประเภท",
        "ในเขตเทศบาลเมืองเขารูปช้าง อำเภอเมืองสงขลา จังหวัดสงขลา",
        "พ.ศ. ๒๕๕๕"
      ]
    ],
    []
  ],
  "metadata": {
    "date_backmatter": "2555-06-05",
    "date_modified": "2555-06-22",
    "date_original": "2555-06-22",
    "editors": [
      {
        "name": "ปริยานุช",
        "role": "ผู้จัดทำ",
        "date": "2555-06-27"
      },
      {
        "name": "ชาญ",
        "role": "ผู้ตรวจ",
        "date": "2555-07-02"
      }
    ],
    "tag": "b705-2k-2555-a0013"
  }
}