{
  "pages": [
    [
      [
        "เทศบัญญัติเทศบาลตำบลปากแพรก",
        "เรื่อง สถานที่จำหน่ายอาหารและสถานที่สะสมอาหาร",
        "พ.ศ. ๒๕๕๓"
      ]
    ],
    []
  ],
  "metadata": {
    "date_backmatter": "2553-01-28",
    "date_modified": "2553-09-16",
    "date_original": "2553-09-16",
    "editors": [
      {
        "name": "ปริยานุช",
        "role": "ผู้จัดทำ",
        "date": "2553-09-21"
      },
      {
        "name": "ณัฐวดี",
        "role": "ตรวจ",
        "date": "2553-09-21"
      }
    ],
    "tag": "b705-2k-2553-a0073"
  }
}