{
  "pages": [
    [
      [
        "พระราชบัญญัติ",
        "เทศบาล",
        "พ.ศ. ๒๔๙๖",
        "",
        "",
        "ภูมิพลอดุลยเดช ป.ร.",
        "ให้ไว้ ณ วันที่ ๑๓ กุมภาพันธ์ พ.ศ. ๒๔๙๖",
        "เป็นปีที่ ๘ ในรัชกาลปัจจุบัน"
      ]
    ],
    []
  ],
  "metadata": {
    "date_header": "2496-02-13",
    "date_modified": "2498-12-27",
    "date_original": "2496-02-17",
    "doctype": "พระราชบัญญัติ",
    "editors": [
      {
        "name": "วศิน",
        "role": "ผู้จัดทำ",
        "date": "2551-12-18"
      },
      {
        "name": "ชาญ",
        "role": "ตรวจ",
        "date": "2554-09-05"
      }
    ],
    "tag": "b705-20-2498-002u",
    "title": "เทศบาล"
  }
}