{
  "pages": [
    [
      [
        "พระราชกฤษฎีกา",
        "เปลี่ยนชื่อเทศบาลเมืองบ้านโป่ง จังหวัดราชบุรี",
        "เป็นเทศบาลเมืองบ้านโป่ง จังหวัดกาญจนบุรี",
        "พุทธศักราช ๒๔๘๖",
        "",
        "",
        "ในพระปรมาภิไธยสมเด็จพระเจ้าอยู่หัวอานันทมหิดล",
        "คณะผู้สำเร็จราชการแทนพระองค์",
        "(ตามประกาศประธานสภาผู้แทนราษฎร",
        "ลงวันที่ ๔ สิงหาคม พุทธศักราช ๒๔๘๐",
        "และวันที่ ๑๖ ธันวาคม พุทธศักราช ๒๔๘๔)",
        "อาทิตย์ทิพอาภา",
        "ปรีดี พนมยงค์",
        "ตราไว้ ณ วันที่ ๑๙ มีนาคม พุทธศักราช ๒๔๘๖",
        "เป็นปีที่ ๑๐ ในรัชกาลปัจจุบัน"
      ]
    ],
    []
  ],
  "metadata": {
    "date_header": "2480-08-04",
    "date_modified": "2486-03-30",
    "date_original": "2486-03-30",
    "doctype": "พระราชกฤษฎีกา",
    "editors": [
      {
        "name": "ศิริยา",
        "role": "พิมพ์",
        "date": "2549-12-13"
      },
      {
        "name": "วาทินี",
        "role": "ผู้จัดทำ",
        "date": "2549-12-13"
      }
    ],
    "tag": "b705-2a-2486-a0001",
    "title": "เปลี่ยนชื่อเทศบาลเมืองบ้านโป่ง จังหวัดราชบุรีเป็นเทศบาลเมืองบ้านโป่ง จังหวัดกาญจนบุรี"
  }
}