{
  "pages": [
    [
      [
        "ระเบียบสภาเทศบาลตำบลแม่ลาน้อย",
        "ว่าด้วยหลักเกณฑ์และวิธีการปฏิบัติสำหรับการเข้าร่วม",
        "ประชุมสภาเทศบาลตำบลแม่ลาน้อย",
        "พ.ศ. ๒๕๕๓"
      ]
    ],
    []
  ],
  "metadata": {
    "date_backmatter": "2553-05-01",
    "date_modified": "2553-07-23",
    "date_original": "2553-07-23",
    "editors": [
      {
        "name": "ปริยานุช",
        "role": "ผู้จัดทำ",
        "date": "2553-07-30"
      },
      {
        "name": "นันท์นภัสร์",
        "role": "ตรวจ",
        "date": "2553-07-30"
      }
    ],
    "tag": "b705-2g-2553-a0011"
  }
}