{
  "pages": [
    [
      [
        "ประกาศกระทรวงมหาดไทย",
        "เรื่อง เปลี่ยนแปลงเขตเทศบาลตำบลเนินพระ อำเภอเมืองระยอง จังหวัดระยอง"
      ]
    ],
    []
  ],
  "metadata": {
    "date_backmatter": "2556-10-00",
    "date_modified": "2556-12-23",
    "date_original": "2556-12-23",
    "doctype": "ประกาศ",
    "editors": [
      {
        "name": "ปริยานุช",
        "role": "ผู้จัดทำ",
        "date": "2557-05-06"
      },
      {
        "name": "เอกฤทธิ์",
        "role": "ผู้ตรวจ",
        "date": "2557-05-08"
      }
    ],
    "tag": "b705-2e-2556-a0015"
  }
}