{
  "pages": [
    [
      [
        "เทศบัญญัติเทศบาลตำบลล้อมแรด",
        "เรื่อง การบริหารกิจการสถานีสูบน้ำด้วยไฟฟ้า",
        "พ.ศ. ๒๕๕๑"
      ]
    ],
    []
  ],
  "metadata": {
    "date_backmatter": "2551-08-01",
    "date_modified": "2552-11-12",
    "date_original": "2552-11-12",
    "editors": [
      {
        "name": "ปริยานุช",
        "role": "ผู้จัดทำ",
        "date": "2552-11-18"
      },
      {
        "name": "นันท์นภัสร์",
        "role": "ตรวจ",
        "date": "2552-11-18"
      }
    ],
    "tag": "b705-2k-2552-a0071"
  }
}