{
  "pages": [
    [
      [
        "พระราชกฤษฎีกา",
        "เปลี่ยนแปลงเขตเทศบาลเมืองเชียงราย จังหวัดเชียงราย",
        "พ.ศ. ๒๔๙๘",
        "",
        "",
        "ภูมิพลอดุลยเดช ป.ร.",
        "ให้ไว้ ณ วันที่ ๑๐ สิงหาคม พ.ศ. ๒๔๙๘",
        "เป็นปีที่ ๑๐ ในรัชกาลปัจจุบัน"
      ]
    ],
    []
  ],
  "metadata": {
    "date_header": "2498-08-10",
    "date_modified": "2498-08-23",
    "date_original": "2498-08-23",
    "doctype": "พระราชกฤษฎีกา",
    "editors": [
      {
        "name": "ศิริยา",
        "role": "พิมพ์",
        "date": "2549-12-06"
      },
      {
        "name": "วาทินี",
        "role": "ผู้จัดทำ",
        "date": "2549-12-06"
      }
    ],
    "tag": "b705-2a-2498-a005",
    "title": "เปลี่ยนแปลงเขตเทศบาลเมืองเชียงราย จังหวัดเชียงราย"
  }
}