{
  "pages": [
    [
      [
        "เทศบัญญัติเทศบาลตำบลยายแย้มวัฒนา",
        "เรื่อง การลดหย่อนภาษีบำรุงท้องที่",
        "พ.ศ. ๒๕๕๒"
      ]
    ],
    []
  ],
  "metadata": {
    "date_backmatter": "2552-11-02",
    "date_modified": "2553-09-16",
    "date_original": "2553-09-16",
    "editors": [
      {
        "name": "ปริยานุช",
        "role": "ผู้จัดทำ",
        "date": "2553-09-21"
      },
      {
        "name": "ณัฐวดี",
        "role": "ตรวจ",
        "date": "2553-09-21"
      }
    ],
    "tag": "b705-2k-2553-a0076"
  }
}