{
  "pages": [
    [
      [
        "ประกาศกระทรวงมหาดไทย",
        "เรื่อง เปลี่ยนแปลงฐานะเทศบาลเมืองแม่สอด อำเภอแม่สอด จังหวัดตาก",
        "เป็นเทศบาลนครแม่สอด"
      ]
    ],
    []
  ],
  "metadata": {
    "date_backmatter": "2553-01-28",
    "date_modified": "2553-04-21",
    "date_original": "2553-04-21",
    "doctype": "ประกาศ",
    "editors": [
      {
        "name": "ปริยานุช",
        "role": "ผู้จัดทำ",
        "date": "2553-06-10"
      },
      {
        "name": "นันท์นภัสร์",
        "role": "ตรวจ",
        "date": "2553-06-10"
      }
    ],
    "tag": "b705-2e-2553-a0012"
  }
}