{
  "pages": [
    [
      [
        "ระเบียบกระทรวงมหาดไทย",
        "ว่าด้วยเงินอุดหนุนขององค์กรปกครองส่วนท้องถิ่น",
        "พ.ศ. ๒๕๕๙"
      ]
    ],
    []
  ],
  "metadata": {
    "date_backmatter": "2559-05-24",
    "date_modified": "2559-05-27",
    "date_original": "2559-05-27",
    "editors": [
      {
        "name": "ปริยานุช",
        "role": "จัดทำ",
        "date": "2559-05-30"
      },
      {
        "name": "วิศนี",
        "role": "ตรวจ",
        "date": "2559-05-30"
      }
    ],
    "tag": "b705-2g-2559-a0002"
  }
}