{
  "pages": [
    [
      [
        "ประกาศกระทรวงมหาดไทย",
        "เรื่อง เปลี่ยนแปลงเขตเทศบาลตำบลลี้ อำเภอลี้ จังหวัดลำพูน"
      ]
    ],
    []
  ],
  "metadata": {
    "date_backmatter": "2557-07-00",
    "date_modified": "2557-09-30",
    "date_original": "2557-09-30",
    "doctype": "ประกาศ",
    "editors": [
      {
        "name": "ปริยานุช",
        "role": "ผู้จัดทำ",
        "date": "2557-10-02"
      },
      {
        "name": "ปริญสินีย์",
        "role": "ผู้ตรวจ",
        "date": "2557-10-02"
      }
    ],
    "tag": "b705-2e-2557-a0029"
  }
}