{
  "pages": [
    [
      [
        "ประกาศกระทรวงมหาดไทย",
        "เรื่อง เปลี่ยนแปลงเขตเทศบาลตำบลล้อมแรด อำเภอเถิน จังหวัดลำปาง",
        "และเปลี่ยนแปลงฐานะเป็นเทศบาลเมืองล้อมแรด"
      ]
    ],
    []
  ],
  "metadata": {
    "date_backmatter": "2557-12-29",
    "date_modified": "2558-02-04",
    "date_original": "2558-02-04",
    "doctype": "ประกาศ",
    "editors": [
      {
        "name": "ปริยานุช",
        "role": "ผู้จัดทำ",
        "date": "2558-02-10"
      },
      {
        "name": "กฤษดายุทธ",
        "role": "ผู้ตรวจ",
        "date": "2558-02-10"
      }
    ],
    "tag": "b705-2e-2558-a0002"
  }
}