{
  "pages": [
    [
      [
        "ระเบียบเทศบาลนครพิษณุโลก",
        "ว่าด้วยการจัดตั้งและการดำเนินงานของคณะกรรมการชุมชนในเขตเทศบาลนครพิษณุโลก",
        "พ.ศ. ๒๕๕๒"
      ]
    ],
    []
  ],
  "metadata": {
    "date_backmatter": "2552-03-09",
    "date_modified": "2553-04-20",
    "date_original": "2553-04-20",
    "editors": [
      {
        "name": "ปริยานุช",
        "role": "ผู้จัดทำ",
        "date": "2553-06-17"
      },
      {
        "name": "นันท์นภัสร์",
        "role": "ตรวจ",
        "date": "2553-06-17"
      }
    ],
    "tag": "b705-2g-2553-a0007"
  }
}