{
  "pages": [
    [
      [
        "เทศบัญญัติเทศบาลตำบลสันปูเลย",
        "เรื่อง การควบคุมกิจการที่เป็นอันตรายต่อสุขภาพ",
        "พ.ศ. ๒๕๕๒"
      ]
    ],
    []
  ],
  "metadata": {
    "date_backmatter": "2552-09-28",
    "date_modified": "2553-01-14",
    "date_original": "2553-01-14",
    "editors": [
      {
        "name": "ปริยานุช",
        "role": "ผู้จัดทำ",
        "date": "2553-01-19"
      },
      {
        "name": "นันท์นภัสร์",
        "role": "ตรวจ",
        "date": "2553-01-19"
      }
    ],
    "tag": "b705-2k-2553-a0004"
  }
}