{
  "pages": [
    [
      [
        "เทศบัญญัติเทศบาลเมืองหนองปรือ",
        "เรื่อง การควบคุมกิจการที่เป็นอันตรายต่อสุขภาพ (ฉบับที่ ๒)",
        "พ.ศ. ๒๕๕๒"
      ]
    ],
    []
  ],
  "metadata": {
    "date_backmatter": "2552-03-27",
    "date_modified": "2552-10-15",
    "date_original": "2552-10-15",
    "editors": [
      {
        "name": "ปริยานุช",
        "role": "ผู้จัดทำ",
        "date": "2552-10-22"
      },
      {
        "name": "นันท์นภัสร์",
        "role": "ตรวจ",
        "date": "2552-10-22"
      }
    ],
    "tag": "b705-2k-2552-a0069"
  }
}