{
  "pages": [
    [
      [
        "เทศบัญญัติเทศบาลนครสงขลา",
        "เรื่อง กำหนดบริเวณห้ามก่อสร้าง ดัดแปลง หรือเปลี่ยนการใช้อาคารบางชนิดหรือบางประเภท",
        "ในท้องที่เขตเทศบาลนครสงขลา อำเภอเมืองสงขลา จังหวัดสงขลา",
        "พ.ศ. ๒๕๕๖"
      ]
    ],
    []
  ],
  "metadata": {
    "date_backmatter": "2556-10-16",
    "date_modified": "2557-01-29",
    "date_original": "2557-01-29",
    "editors": [
      {
        "name": "ปริยานุช",
        "role": "ผู้จัดทำ",
        "date": "2557-02-07"
      },
      {
        "name": "อุษมล",
        "role": "ผู้ตรวจ",
        "date": "2557-02-26"
      }
    ],
    "tag": "b705-2k-2557-a0003"
  }
}