{
  "pages": [
    [
      [
        "เทศบัญญัติเทศบาลเมืองฉะเชิงเทรา",
        "เรื่อง กำหนดบริเวณห้ามก่อสร้าง ดัดแปลง หรือเปลี่ยนการใช้อาคารบางชนิดหรือบางประเภท",
        "ในท้องที่เขตเทศบาลเมืองฉะเชิงเทรา อำเภอเมืองฉะเชิงเทรา จังหวัดฉะเชิงเทรา",
        "(ฉบับที่ ๓)",
        "พ.ศ. ๒๕๕๘"
      ]
    ],
    []
  ],
  "metadata": {
    "date_backmatter": "2558-10-09",
    "date_modified": "2558-11-05",
    "date_original": "2558-11-05",
    "editors": [
      {
        "name": "ปริยานุช/กัญฑรัตน์",
        "role": "จัดทำ",
        "date": "2558-11-12"
      },
      {
        "name": "",
        "role": "ตรวจ",
        "date": "2558-11-12"
      }
    ],
    "tag": "b705-2k-2558-a0034"
  }
}