{
  "pages": [
    [
      [
        "เทศบัญญัติเทศบาลเมืองชุมเห็ด",
        "เรื่อง กำหนดบริเวณห้ามก่อสร้าง ดัดแปลง หรือเปลี่ยนการใช้อาคารบางชนิดหรือบางประเภท",
        "ในท้องที่เทศบาลเมืองชุมเห็ด อำเภอเมืองบุรีรัมย์ จังหวัดบุรีรัมย์",
        "พ.ศ. ๒๕๕๖"
      ]
    ],
    []
  ],
  "metadata": {
    "date_backmatter": "2556-09-27",
    "date_modified": "2556-10-14",
    "date_original": "2556-10-14",
    "editors": [
      {
        "name": "ปริยานุช",
        "role": "ผู้จัดทำ",
        "date": "2556-10-16"
      },
      {
        "name": "โชติกานต์",
        "role": "ผู้ตรวจ",
        "date": "2556-10-21"
      }
    ],
    "tag": "b705-2k-2556-a0039"
  }
}