{
  "pages": [
    [
      [
        "พระราชกฤษฎีกา",
        "จัดตั้งเทศบาลนครสมุทรสาคร จังหวัดสมุทรสาคร",
        "พ.ศ. ๒๕๔๒",
        "------------",
        "ภูมิพลอดุลยเดช ป.ร.",
        "ให้ไว้ ณ วันที่ ๗ พฤศจิกายน พ.ศ. ๒๕๔๒",
        "เป็นปีที่ ๕๔ ในรัชกาลปัจจุบัน"
      ]
    ],
    []
  ],
  "metadata": {
    "date_gz_old": "2542-11-10",
    "date_header": "2542-11-07",
    "doctype": "พระราชกฤษฎีกา",
    "editors": [
      {
        "name": "ภคินี",
        "role": "แก้ไข",
        "date": "2545-05-24"
      }
    ],
    "tag": "b705-2a-2542-a013",
    "title": "จัดตั้งเทศบาลนครสมุทรสาคร จังหวัดสมุทรสาครพ.ศ. ๒๕๔๒------------ภูมิพลอดุลยเดช ป.ร.ให้ไว้ ณ วันที่ ๗ พฤศจิกายน"
  }
}