{
  "pages": [
    [
      [
        "พระราชกฤษฎีกา",
        "จัดตั้งเทศบาลนครนครศรีอยุธยา จังหวัดพระนครศรีอยุธยา",
        "พ.ศ. ๒๕๔๒",
        "------------",
        "ภูมิพลอดุลยเดช ป.ร.",
        "ให้ไว้ ณ วันที่ ๑๔ ธันวาคม พ.ศ. ๒๕๔๒",
        "เป็นปีที่ ๕๔ ในรัชกาลปัจจุบัน"
      ]
    ],
    []
  ],
  "metadata": {
    "date_gz_old": "2542-12-15",
    "date_header": "2542-12-14",
    "doctype": "พระราชกฤษฎีกา",
    "editors": [
      {
        "name": "ภคินี",
        "role": "แก้ไข",
        "date": "2545-05-30"
      }
    ],
    "tag": "b705-2a-2542-a012",
    "title": "จัดตั้งเทศบาลนครนครศรีอยุธยา จังหวัดพระนครศรีอยุธยาพ.ศ. ๒๕๔๒------------ภูมิพลอดุลยเดช ป.ร.ให้ไว้ ณ วันที่ ๑๔ ธันวาคม"
  }
}