{
  "pages": [
    [
      [
        "ระเบียบเทศบาลตำบลบ้านกลาง",
        "ว่าด้วยการปฏิบัติงานของพนักงานเจ้าหน้าที่ตามกฎหมาย",
        "ว่าด้วยการรักษาความสะอาดและความเป็นระเบียบเรียบร้อยของบ้านเมือง",
        "พ.ศ. ๒๕๕๒"
      ]
    ],
    []
  ],
  "metadata": {
    "date_backmatter": "2552-07-22",
    "date_modified": "2552-09-23",
    "date_original": "2552-09-23",
    "editors": [
      {
        "name": "ปริยานุช",
        "role": "ผู้จัดทำ",
        "date": "2552-09-30"
      }
    ],
    "tag": "b705-2g-2552-a0008"
  }
}