{
  "pages": [
    [
      [
        "เทศบัญญัติเทศบาลตำบลโนนสูง",
        "เรื่อง กำหนดบริเวณห้ามก่อสร้าง ดัดแปลง หรือเปลี่ยนการใช้อาคารบางชนิด หรือบางประเภท",
        "ภายในเขตเทศบาลตำบลโนนสูง จังหวัดนครราชสีมา",
        "พ.ศ. ๒๕๕๒"
      ]
    ],
    []
  ],
  "metadata": {
    "date_backmatter": "2552-06-17",
    "date_modified": "2552-08-10",
    "date_original": "2552-08-10",
    "editors": [
      {
        "name": "ปริยานุช",
        "role": "ผู้จัดทำ",
        "date": "2552-08-18"
      }
    ],
    "tag": "b705-2k-2552-a0026"
  }
}