{
  "pages": [
    [
      [
        "เทศบัญญัติเทศบาลเมืองอำนาจเจริญ",
        "เรื่อง กำหนดบริเวณห้ามก่อสร้าง ดัดแปลง หรือเปลี่ยนการใช้อาคารบางชนิด หรือบางประเภท",
        "ในเขตเทศบาลเมืองอำนาจเจริญ อำเภอเมืองอำนาจเจริญ จังหวัดอำนาจเจริญ",
        "พ.ศ. ๒๕๕๓"
      ]
    ],
    []
  ],
  "metadata": {
    "date_backmatter": "2553-06-08",
    "date_modified": "2553-07-02",
    "date_original": "2553-07-02",
    "editors": [
      {
        "name": "ปริยานุช",
        "role": "ผู้จัดทำ",
        "date": "2553-07-15"
      },
      {
        "name": "นันท์นภัสร์",
        "role": "ตรวจ",
        "date": "2553-07-15"
      }
    ],
    "tag": "b705-2k-2553-a0062"
  }
}