{
  "pages": [
    [
      [
        "เทศบัญญัติเทศบาลเมืองปทุมธานี",
        "เรื่อง กำหนดบริเวณห้ามก่อสร้าง ดัดแปลง หรือเปลี่ยนการใช้อาคารบางชนิดหรือบางประเภท",
        "ในเขตเทศบาลเมืองปทุมธานี อำเภอเมืองปทุมธานี จังหวัดปทุมธานี",
        "พ.ศ. ๒๕๕๗"
      ]
    ],
    []
  ],
  "metadata": {
    "date_backmatter": "2557-03-24",
    "date_modified": "2557-11-14",
    "date_original": "2557-11-14",
    "editors": [
      {
        "name": "ปริยานุช",
        "role": "ผู้จัดทำ",
        "date": "2557-11-17"
      },
      {
        "name": "วิศนี",
        "role": "ผู้ตรวจ",
        "date": "2557-11-18"
      }
    ],
    "tag": "b705-2k-2557-a0029"
  }
}