{
  "pages": [
    [
      [
        "ประกาศกระทรวงมหาดไทย",
        "เรื่อง จัดตั้งองค์การบริหารส่วนตำบลหนองป่าครั่ง อำเภอเมืองเชียงใหม่ จังหวัดเชียงใหม่",
        "เป็นเทศบาลตำบลหนองป่าครั่ง"
      ]
    ],
    []
  ],
  "metadata": {
    "date_backmatter": "2549-08-00",
    "date_modified": "2549-11-02",
    "date_original": "2549-11-02",
    "doctype": "ประกาศ",
    "editors": [
      {
        "name": "โสรศ",
        "role": "ผู้จัดทำ",
        "date": "2549-11-21"
      }
    ],
    "tag": "b705-2e-2549-a0004"
  }
}