{
  "pages": [
    [
      [
        "เทศบัญญัติเทศบาลเมืองหัวหิน",
        "เรื่อง ยกเลิกเทศบัญญัติเทศบาลเมืองหัวหินเรื่องกำหนดให้เขตเทศบาลเมืองหัวหินเป็นบริเวณ",
        "ห้ามก่อสร้างดัดแปลงอาคารประเภทป้ายหรือสิ่งที่สร้างขึ้นสำหรับติดหรือตั้งป้าย พ.ศ. ๒๕๔๙",
        "พ.ศ. ๒๕๕๔"
      ]
    ],
    []
  ],
  "metadata": {
    "date_backmatter": "2554-12-30",
    "date_modified": "2555-01-17",
    "date_original": "2555-01-17",
    "editors": [
      {
        "name": "ปริยานุช",
        "role": "ผู้จัดทำ",
        "date": "2555-01-20"
      },
      {
        "name": "ณัฐพร",
        "role": "ผู้ตรวจ",
        "date": "2555-01-20"
      }
    ],
    "tag": "b705-2k-2555-a0001"
  }
}