{
  "pages": [
    [
      [
        "ระเบียบกระทรวงมหาดไทย",
        "ว่าด้วยเงินช่วยค่าครองชีพผู้รับบำนาญของราชการส่วนท้องถิ่น (ฉบับที่ ๙)",
        "พ.ศ. ๒๕๔๗"
      ]
    ],
    []
  ],
  "metadata": {
    "date_backmatter": "2547-08-19",
    "date_modified": "2547-08-27",
    "date_original": "2547-08-27",
    "editors": [],
    "tag": "b705-2g-2547-a0002"
  }
}