{
  "pages": [
    [
      [
        "ระเบียบเทศบาลตำบลแหลมงอบ",
        "เรื่อง ยกเลิกระเบียบที่หมดความจำเป็นของเทศบาลตำบลแหลมงอบ พ.ศ. ๒๕๕๘"
      ]
    ],
    []
  ],
  "metadata": {
    "date_backmatter": "2558-06-08",
    "date_modified": "2558-08-20",
    "date_original": "2558-08-20",
    "editors": [
      {
        "name": "ปริยานุช",
        "role": "ผู้จัดทำ",
        "date": "2558-08-26"
      },
      {
        "name": "วริญา",
        "role": "ผู้ตรวจ",
        "date": "2558-08-26"
      }
    ],
    "tag": "b705-2g-2558-a0007"
  }
}