{
  "pages": [
    [
      [
        "ข้อบัญญัติองค์การบริหารส่วนตำบลในเมือง",
        "เรื่อง การบริหารกิจการประปาหมู่บ้าน",
        "พ.ศ. ๒๕๕๘"
      ]
    ],
    []
  ],
  "metadata": {
    "date_backmatter": "2558-10-13",
    "date_modified": "2558-12-30",
    "date_original": "2558-12-30",
    "editors": [
      {
        "name": "ปุณิกา/ปริยานุช",
        "role": "จัดทำ",
        "date": "2559-01-11"
      }
    ],
    "tag": "b705-2j-2558-a0012"
  }
}