{
  "pages": [
    [
      [
        "เทศบัญญัติเทศบาลตำบลตาจง",
        "เรื่อง การกำจัดสิ่งปฏิกูลและมูลฝอย (ฉบับที่ ๒)",
        "พ.ศ. ๒๕๕๑"
      ]
    ],
    []
  ],
  "metadata": {
    "date_backmatter": "2551-04-01",
    "date_modified": "2553-06-24",
    "date_original": "2553-06-24",
    "editors": [
      {
        "name": "ปริยานุช",
        "role": "ผู้จัดทำ",
        "date": "2553-07-12"
      },
      {
        "name": "นันท์นภัสร์",
        "role": "ตรวจ",
        "date": "2553-07-12"
      }
    ],
    "tag": "b705-2k-2553-a0059"
  }
}