{
  "pages": [
    [
      [
        "ประกาศกระทรวงมหาดไทย",
        "เรื่อง จัดตั้งองค์การบริหารส่วนตำบลนาป่าแซง อำเภอปทุมราชวงศา จังหวัดอำนาจเจริญ",
        "เป็นเทศบาลตำบลนาป่าแซง"
      ]
    ],
    []
  ],
  "metadata": {
    "date_backmatter": "2552-10-27",
    "date_modified": "2554-02-11",
    "date_original": "2554-02-11",
    "doctype": "ประกาศ",
    "editors": [
      {
        "name": "ปริยานุช",
        "role": "ผู้จัดทำ",
        "date": "2554-02-28"
      },
      {
        "name": "ณัฐวดี",
        "role": "ตรวจ",
        "date": "2554-02-28"
      }
    ],
    "tag": "b705-2e-2554-a0054"
  }
}