{
  "pages": [
    [
      [
        "ประกาศกระทรวงมหาดไทย",
        "เรื่อง จัดตั้งองค์การบริหารส่วนตำบลบ้านใหม่ อำเภอเมืองปทุมธานี จังหวัดปทุมธานี",
        "เป็นเทศบาลตำบลบ้านใหม่"
      ]
    ],
    []
  ],
  "metadata": {
    "date_backmatter": "2554-08-00",
    "date_modified": "2554-10-07",
    "date_original": "2554-10-07",
    "doctype": "ประกาศ",
    "editors": [
      {
        "name": "ปริยานุช",
        "role": "ผู้จัดทำ",
        "date": "2554-10-18"
      },
      {
        "name": "ปณตภร",
        "role": "ผู้ตรวจ",
        "date": "2554-10-19"
      }
    ],
    "tag": "b705-2e-2554-a0090"
  }
}