{
  "pages": [
    [
      [
        "เทศบัญญัติเทศบาลเมืองเลย",
        "เรื่อง กำหนดบริเวณห้ามก่อสร้าง ดัดแปลง ใช้หรือเปลี่ยนการใช้อาคารบางชนิด หรือบางประเภท",
        "ในท้องที่เขตเทศบาลเมืองเลย ตำบลกุดป่อง อำเภอเมือง จังหวัดเลย",
        "พ.ศ. ๒๕๕๒"
      ]
    ],
    []
  ],
  "metadata": {
    "date_backmatter": "2552-11-10",
    "date_modified": "2553-01-28",
    "date_original": "2553-01-28",
    "editors": [
      {
        "name": "ปริยานุช",
        "role": "ผู้จัดทำ",
        "date": "2553-02-02"
      },
      {
        "name": "นันท์นภัสร์",
        "role": "ตรวจ",
        "date": "2553-02-02"
      }
    ],
    "tag": "b705-2k-2553-a0019"
  }
}