{
  "pages": [
    [
      [
        "ระเบียบเทศบาลตำบลระแหง",
        "ว่าด้วยข้อมูลข่าวสารของราชการ พ.ศ. ๒๕๕๐"
      ]
    ],
    []
  ],
  "metadata": {
    "date_backmatter": "2550-11-13",
    "date_modified": "2551-03-24",
    "date_original": "2551-03-24",
    "editors": [
      {
        "name": "ปริยานุช",
        "role": "ผู้จัดทำ",
        "date": "2551-03-27"
      }
    ],
    "tag": "b705-2g-2551-a0002"
  }
}