{
  "pages": [
    [
      [
        "พระราชกฤษฎีกา",
        "รวมสภาตำบลยางเนิ้งกับเทศบาลตำบลยางเนิ้ง และกำหนดเขต",
        "เทศบาลตำบลยางเนิ้ง จังหวัดเชียงใหม่",
        "พ.ศ. ๒๕๔๓",
        "------------",
        "ภูมิพลอดุลยเดช ป.ร.",
        "ให้ไว้ ณ วันที่ ๘ พฤศจิกายน พ.ศ. ๒๕๔๓",
        "เป็นปีที่ ๕๕ ในรัชกาลปัจจุบัน"
      ]
    ],
    []
  ],
  "metadata": {
    "date_gz_old": "2543-11-13",
    "date_header": "2543-11-08",
    "doctype": "พระราชกฤษฎีกา",
    "editors": [
      {
        "name": null,
        "role": null,
        "date": "2544-09-12"
      }
    ],
    "tag": "b705-2a-2543-a008",
    "title": "รวมสภาตำบลยางเนิ้งกับเทศบาลตำบลยางเนิ้ง และกำหนดเขตเทศบาลตำบลยางเนิ้ง จังหวัดเชียงใหม่พ.ศ. ๒๕๔๓------------ภูมิพลอดุลยเดช ป.ร.ให้ไว้ ณ วันที่ ๘ พฤศจิกายน"
  }
}