{
  "pages": [
    [
      [
        "เทศบัญญัติเทศบาลตำบลทับกฤช",
        "เรื่อง ตลาด",
        "พ.ศ. ๒๕๕๑"
      ]
    ],
    []
  ],
  "metadata": {
    "date_backmatter": "2551-09-01",
    "date_modified": "2552-08-20",
    "date_original": "2552-08-20",
    "editors": [
      {
        "name": "ปริยานุช",
        "role": "ผู้จัดทำ",
        "date": "2552-08-28"
      }
    ],
    "tag": "b705-2k-2552-a0040"
  }
}