{
  "pages": [
    [
      [
        "ระเบียบกระทรวงมหาดไทย",
        "ว่าด้วยเงินสวัสดิการเกี่ยวกับการศึกษาของบุตรพนักงานส่วนท้องถิ่น",
        "(ฉบับที่ ๓) พ.ศ. ๒๕๔๙"
      ]
    ],
    []
  ],
  "metadata": {
    "date_backmatter": "2549-05-25",
    "date_modified": "2549-06-08",
    "date_original": "2549-06-08",
    "editors": [
      {
        "name": "ฐิติพงษ์",
        "role": "พิมพ์",
        "date": "2551-02-26"
      }
    ],
    "tag": "b705-2g-2549-a0010"
  }
}