{
  "pages": [
    [
      [
        "ระเบียบเทศบาลตำบลนาคู",
        "ว่าด้วยข้อมูลข่าวสารของราชการ",
        "พ.ศ. ๒๕๕๑"
      ]
    ],
    []
  ],
  "metadata": {
    "date_backmatter": "2551-11-01",
    "date_modified": "2551-12-30",
    "date_original": "2551-12-30",
    "editors": [
      {
        "name": "ปริยานุช",
        "role": "ผู้จัดทำ",
        "date": "2552-01-06"
      }
    ],
    "tag": "b705-2g-2551-a0012"
  }
}