{
  "pages": [
    [
      [
        "เทศบัญญัติเทศบาลเมืองกำแพงเพชร",
        "เรื่อง กำหนดบริเวณห้ามก่อสร้างดัดแปลง หรือเปลี่ยนการใช้อาคารบางชนิดหรือบางประเภท",
        "ในพื้นที่เขตเทศบาลเมืองกำแพงเพชร อำเภอเมืองกำแพงเพชร จังหวัดกำแพงเพชร",
        "(ฉบับที่ ๒)",
        "พ.ศ. ๒๕๕๙"
      ]
    ],
    []
  ],
  "metadata": {
    "date_backmatter": "2559-01-27",
    "date_modified": "2559-01-29",
    "date_original": "2559-01-29",
    "editors": [
      {
        "name": "ชวัลพร/ปริยานุช",
        "role": "จัดทำ",
        "date": "2559-02-03"
      }
    ],
    "tag": "b705-2k-2559-a0004"
  }
}