{
  "pages": [
    [
      [
        "ระเบียบกระทรวงมหาดไทย",
        "ว่าด้วยเงินสวัสดิการเกี่ยวกับการศึกษาของบุตรพนักงานส่วนท้องถิ่น",
        "พ.ศ. ๒๕๔๑"
      ]
    ],
    []
  ],
  "metadata": {
    "date_backmatter": "2541-07-03",
    "date_modified": "2541-07-14",
    "date_original": "2541-07-14",
    "editors": [
      {
        "name": "นันทพล",
        "role": "จัดทำ",
        "date": "2550-01-16"
      }
    ],
    "tag": "b705-2g-2541-a010"
  }
}