{
  "pages": [
    [
      [
        "เทศบัญญัติเทศบาลเมืองเพชรบูรณ์",
        "เรื่อง กำหนดบริเวณห้ามก่อสร้าง ดัดแปลง หรือเปลี่ยนการใช้อาคารบางชนิดหรือบางประเภท",
        "ในท้องที่เขตเทศบาลเมืองเพชรบูรณ์ อำเภอเมืองเพชรบูรณ์ จังหวัดเพชรบูรณ์",
        "พ.ศ. ๒๕๕๗"
      ]
    ],
    []
  ],
  "metadata": {
    "date_backmatter": "2557-09-03",
    "date_modified": "2557-09-19",
    "date_original": "2557-09-19",
    "editors": [
      {
        "name": "ปริยานุช",
        "role": "ผู้จัดทำ",
        "date": "2557-09-24"
      },
      {
        "name": "กฤษดายุทธ",
        "role": "ตรวจ",
        "date": "2557-09-30"
      }
    ],
    "tag": "b705-2k-2557-a0022"
  }
}