{
  "pages": [
    [
      [
        "กฎกระทรวง",
        "ฉบับที่ ๙ (พ.ศ. ๒๕๔๓)",
        "ออกตามความในพระราชบัญญัติกองทุนสำรองเลี้ยงชีพ",
        "พ.ศ. ๒๕๓๐"
      ]
    ],
    []
  ],
  "metadata": {
    "date_backmatter": "2543-03-29",
    "date_modified": "2543-03-29",
    "date_original": "2543-03-29",
    "doctype": "กฎกระทรวง",
    "editors": [
      {
        "name": "อัมภิญา",
        "role": "แก้ไข",
        "date": "2551-07-15"
      },
      {
        "name": "จุฑามาศ",
        "role": "ปรับปรุง",
        "date": "2559-02-29"
      }
    ],
    "tag": "a170-2b-2543-a002"
  }
}