{
  "pages": [
    [
      [
        "พระราชบัญญัติ",
        "กองทุนสำรองเลี้ยงชีพ",
        "พ.ศ. ๒๕๓๐",
        "",
        "",
        "ภูมิพลอดุลยเดช ป.ร.",
        "ให้ไว้ ณ วันที่ ๓๐ พฤศจิกายน พ.ศ. ๒๕๓๐",
        "เป็นปีที่ ๔๒ ในรัชกาลปัจจุบัน"
      ]
    ],
    []
  ],
  "metadata": {
    "date_header": "2530-11-30",
    "date_modified": "2542-12-30",
    "date_original": "2530-12-07",
    "doctype": "พระราชบัญญัติ",
    "editors": [
      {
        "name": "วศิน",
        "role": "ผู้จัดทำ",
        "date": "2552-03-09"
      }
    ],
    "tag": "a170-20-2542-a0002",
    "title": "กองทุนสำรองเลี้ยงชีพ"
  }
}