{
  "pages": [
    [
      [
        "ประกาศสำนักงานคณะกรรมการกำกับหลักทรัพย์และตลาดหลักทรัพย์",
        "ที่ อข. ๑/๒๕๕๔",
        "เรื่อง การจดทะเบียนกองทุนสำรองเลี้ยงชีพ"
      ]
    ],
    []
  ],
  "metadata": {
    "date_backmatter": "2554-02-21",
    "date_modified": "2554-03-02",
    "date_original": "2554-03-02",
    "doctype": "ประกาศ",
    "editors": [
      {
        "name": "ปริยานุช",
        "role": "ผู้จัดทำ",
        "date": "2554-03-09"
      },
      {
        "name": "ณัฐวดี",
        "role": "ตรวจ",
        "date": "2554-03-09"
      }
    ],
    "tag": "a170-2e-2554-a0001"
  }
}