{
  "pages": [
    [
      [
        "ประกาศสำนักงานคณะกรรมการกำกับหลักทรัพย์",
        "และตลาดหลักทรัพย์",
        "ที่ อข. ๓/๒๕๔๙",
        "เรื่อง การเลิกกองทุนสำรองเลี้ยงชีพ"
      ]
    ],
    []
  ],
  "metadata": {
    "date_backmatter": "2549-02-21",
    "date_modified": "2549-05-24",
    "date_original": "2549-05-24",
    "doctype": "ประกาศ",
    "editors": [
      {
        "name": "ฐิติพงษ์",
        "role": "จัดทำ",
        "date": "2549-06-02"
      },
      {
        "name": "จุฑามาศ",
        "role": "ปรับปรุง",
        "date": "2559-03-28"
      }
    ],
    "tag": "a170-2e-2549-a0002"
  }
}