{
  "pages": [
    [
      [
        "ประกาศนายทะเบียนกองทุนสำรองเลี้ยงชีพ",
        "ที่ ๓/๒๕๕๑",
        "เรื่อง หลักเกณฑ์ในการรับเงินจากกองทุนเป็นงวด"
      ]
    ],
    []
  ],
  "metadata": {
    "date_backmatter": "2551-02-04",
    "date_modified": "2551-03-27",
    "date_original": "2551-03-27",
    "doctype": "ประกาศ",
    "editors": [
      {
        "name": "วัชศักดิ์",
        "role": "จัดทำ",
        "date": "2551-04-01"
      },
      {
        "name": "จุฑามาศ",
        "role": "ปรับปรุง",
        "date": "2559-03-28"
      }
    ],
    "tag": "a170-2e-2551-a0003"
  }
}