{
  "pages": [
    [
      [
        "พระราชบัญญัติ",
        "เงินเดือน เงินประจำตำแหน่ง",
        "และประโยชน์ตอบแทนอื่นของประธานกรรมการ",
        "และกรรมการในองค์กรอิสระตามรัฐธรรมนูญ",
        "พ.ศ. ๒๕๖๑",
        "",
        "",
        "สมเด็จพระเจ้าอยู่หัวมหาวชิราลงกรณ บดินทรเทพยวรางกูร",
        "ให้ไว้ ณ วันที่ ๒๕ ธันวาคม พ.ศ. ๒๕๖๑",
        "เป็นปีที่ ๓ ในรัชกาลปัจจุบัน"
      ]
    ],
    []
  ],
  "metadata": {
    "date_header": "2561-12-25",
    "date_modified": "2561-12-28",
    "date_original": "2561-12-28",
    "doctype": "พระราชบัญญัติ",
    "editors": [
      {
        "name": "พรวิภา/ธนบดี",
        "role": "จัดทำ",
        "date": "2562-01-02"
      },
      {
        "name": "ปริญสินีย์",
        "role": "ตรวจ",
        "date": "2562-01-18"
      }
    ],
    "tag": "a711-20-2561-a0001",
    "title": "เงินเดือน เงินประจำตำแหน่งและประโยชน์ตอบแทนอื่นของประธานกรรมการและกรรมการในองค์กรอิสระตามรัฐธรรมนูญ"
  }
}