{
  "pages": [
    [
      [
        "พระราชบัญญัติ",
        "มาตรการในการปราบปรามผู้กระทำความผิดเกี่ยวกับยาเสพติด (ฉบับที่ ๒)",
        "พ.ศ. ๒๕๔๓",
        "",
        "",
        "ภูมิพลอดุลยเดช ป.ร.",
        "ให้ไว้ ณ วันที่ ๑๓ เมษายน พ.ศ. ๒๕๔๓",
        "เป็นปีที่ ๕๕ ในรัชกาลปัจจุบัน"
      ]
    ],
    []
  ],
  "metadata": {
    "date_header": "2543-04-13",
    "date_modified": "2543-04-28",
    "date_original": "2543-04-28",
    "doctype": "พระราชบัญญัติ",
    "editors": [
      {
        "name": "สุกัญญา",
        "role": "ผู้จัดทำ",
        "date": "2553-12-23"
      }
    ],
    "tag": "c125-20-2543-a0001",
    "title": "มาตรการในการปราบปรามผู้กระทำความผิดเกี่ยวกับยาเสพติด (ฉบับที่ ๒)"
  }
}