{
  "pages": [
    [
      [
        "ระเบียบคณะกรรมการตรวจสอบทรัพย์สิน",
        "ว่าด้วยกองทุนป้องกันและปราบปรามยาเสพติด (ฉบับที่ ๒)",
        "พ.ศ. ๒๕๔๕"
      ]
    ],
    []
  ],
  "metadata": {
    "date_backmatter": "2545-11-25",
    "date_modified": "2545-12-25",
    "date_original": "2545-12-25",
    "editors": [
      {
        "name": "ดลธี",
        "role": "พิมพ์",
        "date": "2551-01-17"
      },
      {
        "name": "ปฐมพร",
        "role": "จัดทำ",
        "date": "2551-01-22"
      },
      {
        "name": "สุกัญญา",
        "role": "ผู้จัดทำ",
        "date": "2552-02-04"
      },
      {
        "name": "สุนันทา",
        "role": "ตรวจ",
        "date": "2552-02-23"
      }
    ],
    "tag": "c125-2g-2545-a0001"
  }
}