{
  "pages": [
    [
      [
        "กฎกระทรวง",
        "ฉบับที่ ๒ (พ.ศ. ๒๕๓๕)",
        "ออกตามความในพระราชบัญญัติมาตรการในการปราบปราม",
        "ผู้กระทำความผิดเกี่ยวกับยาเสพติด พ.ศ. ๒๕๓๔"
      ]
    ],
    []
  ],
  "metadata": {
    "date_backmatter": "2535-04-15",
    "date_modified": "2535-04-29",
    "date_original": "2535-04-29",
    "doctype": "กฎกระทรวง",
    "editors": [
      {
        "name": "นันทพล",
        "role": "ปรับปรุง",
        "date": "2549-11-16"
      },
      {
        "name": "สุกัญญา",
        "role": "ผู้จัดทำ",
        "date": "2552-02-04"
      },
      {
        "name": "สุนันทา",
        "role": "ตรวจ",
        "date": "2552-02-23"
      }
    ],
    "tag": "c125-2b-2535-002"
  }
}