{
  "pages": [
    [
      [
        "ระเบียบคณะกรรมการตรวจสอบทรัพย์สิน",
        "ว่าด้วยกองทุนป้องกันและปราบปรามยาเสพติด",
        "พ.ศ. ๒๕๓๖"
      ]
    ],
    []
  ],
  "metadata": {
    "date_backmatter": "2536-03-11",
    "date_modified": "2558-12-18",
    "date_original": "2536-05-06",
    "editors": [
      {
        "name": "กัญฑรัตน์",
        "role": "เพิ่มเติม",
        "date": "2559-01-13"
      },
      {
        "name": "นุสรา",
        "role": "ตรวจ",
        "date": "2559-02-11"
      }
    ],
    "tag": "c125-2g-9998-update"
  }
}