{
  "pages": [
    [
      [
        "ระเบียบคณะกรรมการตรวจสอบทรัพย์สิน",
        "ว่าด้วยการเก็บรักษาทรัพย์สินที่ถูกยึดอายัด (ฉบับที่ ๓)",
        "พ.ศ. ๒๕๔๗"
      ]
    ],
    []
  ],
  "metadata": {
    "date_backmatter": "2547-09-30",
    "date_modified": "2548-08-04",
    "date_original": "2548-08-04",
    "editors": [
      {
        "name": "ชัชสรัญ",
        "role": "ผู้จัดทำ",
        "date": "2548-08-18"
      },
      {
        "name": "นันทพล",
        "role": "ปรับปรุง",
        "date": "2549-11-16"
      },
      {
        "name": "สุกัญญา",
        "role": "ผู้จัดทำ",
        "date": "2552-02-04"
      },
      {
        "name": "สุนันทา",
        "role": "ตรวจ",
        "date": "2552-02-23"
      }
    ],
    "tag": "c125-2g-2548-a0001"
  }
}