{
  "pages": [
    [
      [
        "ประกาศกระทรวงการพัฒนาสังคม",
        "และความมั่นคงของมนุษย์",
        "เรื่อง คุณสมบัติของผู้เริ่มก่อการจัดตั้งสมาคมฌาปนกิจสงเคราะห์"
      ]
    ],
    []
  ],
  "metadata": {
    "date_backmatter": "2545-12-27",
    "date_modified": "2546-03-13",
    "date_original": "2546-03-13",
    "doctype": "ประกาศ",
    "editors": [
      {
        "name": "ปริญสินีย์",
        "role": "ผู้จัดทำ",
        "date": "2555-02-20"
      }
    ],
    "tag": "a115-2e-2546-a0001"
  }
}