{
  "pages": [
    [
      [
        "กฎกระทรวง",
        "ฉบับที่ ๑ (พ.ศ. ๒๕๑๗)",
        "ออกตามความในพระราชบัญญัติการฌาปนกิจสงเคราะห์",
        "พ.ศ. ๒๕๑๗"
      ]
    ],
    []
  ],
  "metadata": {
    "date_backmatter": "2517-09-19",
    "date_modified": "2517-11-01",
    "date_original": "2517-11-01",
    "doctype": "กฎกระทรวง",
    "editors": [
      {
        "name": "พรมนัส",
        "role": "ปรับปรุง",
        "date": "2561-08-27"
      }
    ],
    "tag": "a115-2b-2517-001"
  }
}