{
  "pages": [
    [
      [
        "ระเบียบกระทรวงการพัฒนาสังคมและความมั่นคงของมนุษย์",
        "ว่าด้วยการฌาปนกิจสงเคราะห์ของส่วนราชการ หน่วยงานของรัฐ รัฐวิสาหกิจ",
        "และองค์กรวิชาชีพซึ่งเป็นนิติบุคคลที่อยู่ภายใต้การกำกับของรัฐ",
        "พ.ศ. ๒๕๔๗"
      ]
    ],
    []
  ],
  "metadata": {
    "date_backmatter": "2547-03-19",
    "date_modified": "2547-06-10",
    "date_original": "2547-06-10",
    "editors": [
      {
        "name": "ปริญสินีย์",
        "role": "ผู้จัดทำ",
        "date": "2555-02-21"
      }
    ],
    "tag": "a115-2g-2547-a0001"
  }
}