{
  "pages": [
    [
      [
        "ประกาศกระทรวงการคลัง",
        "เรื่อง การกำหนดให้ธนาคารอาคารสงเคราะห์เป็นสถาบันการเงิน"
      ]
    ],
    []
  ],
  "metadata": {
    "date_backmatter": "2548-01-13",
    "date_modified": "2548-02-16",
    "date_original": "2548-02-16",
    "doctype": "ประกาศ",
    "editors": [
      {
        "name": "สุกัญญา",
        "role": "ผู้จัดทำ",
        "date": "2552-10-21"
      },
      {
        "name": "อุรารักษ์",
        "role": "ตรวจ",
        "date": "2552-10-29"
      }
    ],
    "tag": "ba16-2e-2548-a0001"
  }
}