{
  "pages": [
    [
      [
        "ประกาศธนาคารแห่งประเทศไทย",
        "เรื่อง การกำหนดสินทรัพย์ด้อยคุณภาพและหลักเกณฑ์",
        "ที่บริษัทบริหารสินทรัพย์ต้องถือปฏิบัติ",
        "พ.ศ. ๒๕๔๓"
      ]
    ],
    []
  ],
  "metadata": {
    "date_backmatter": "2543-01-05",
    "date_modified": "2543-01-06",
    "date_original": "2543-01-06",
    "doctype": "ประกาศ",
    "editors": [
      {
        "name": "สุกัญญา",
        "role": "ผู้จัดทำ",
        "date": "2552-10-21"
      },
      {
        "name": "อุรารักษ์",
        "role": "ตรวจ",
        "date": "2552-10-29"
      }
    ],
    "tag": "ba16-2e-2543-a0001"
  }
}