{
  "pages": [
    [
      [
        "พระราชกฤษฎีกา",
        "ว่าด้วยปริญญาในสาขาวิชา อักษรย่อสำหรับสาขาวิชา",
        "ครุยวิทยฐานะ เข็มวิทยฐานะ และครุยประจำตำแหน่ง",
        "ของมหาวิทยาลัยนครพนม",
        "พ.ศ. ๒๕๕๓",
        "",
        "",
        "ภูมิพลอดุลยเดช ป.ร.",
        "ให้ไว้ ณ วันที่ ๑๔ กันยายน พ.ศ. ๒๕๕๓",
        "เป็นปีที่ ๖๕ ในรัชกาลปัจจุบัน"
      ]
    ],
    []
  ],
  "metadata": {
    "date_header": "2553-09-14",
    "date_modified": "2561-07-27",
    "date_original": "2553-09-17",
    "doctype": "พระราชกฤษฎีกา",
    "editors": [
      {
        "name": "วิวรรธน์",
        "role": "เพิ่มเติม",
        "date": "2561-08-06"
      },
      {
        "name": "นุสรา",
        "role": "ตรวจ",
        "date": "2561-10-25"
      }
    ],
    "tag": "c137-2a-9998-update",
    "title": "ว่าด้วยปริญญาในสาขาวิชา อักษรย่อสำหรับสาขาวิชาครุยวิทยฐานะ เข็มวิทยฐานะ และครุยประจำตำแหน่งของมหาวิทยาลัยนครพนม"
  }
}