{
  "pages": [
    [
      [
        "พระราชกฤษฎีกา",
        "ว่าด้วยปริญญาในสาขาวิชา อักษรย่อสำหรับสาขาวิชา",
        "ครุยวิทยฐานะ เข็มวิทยฐานะ และครุยประจำตำแหน่ง",
        "ของมหาวิทยาลัยนครพนม (ฉบับที่ ๒)",
        "พ.ศ. ๒๕๕๕",
        "",
        "",
        "ภูมิพลอดุลยเดช ป.ร.",
        "ให้ไว้ ณ วันที่ ๑๓ มกราคม พ.ศ. ๒๕๕๕",
        "เป็นปีที่ ๖๗ ในรัชกาลปัจจุบัน"
      ]
    ],
    []
  ],
  "metadata": {
    "date_header": "2555-01-13",
    "date_modified": "2555-01-19",
    "date_original": "2555-01-19",
    "doctype": "พระราชกฤษฎีกา",
    "editors": [
      {
        "name": "ปริยานุช",
        "role": "ผู้จัดทำ",
        "date": "2555-01-20"
      },
      {
        "name": "ณัฐพร",
        "role": "ผู้ตรวจ",
        "date": "2555-01-20"
      }
    ],
    "tag": "c137-2a-2555-a0001",
    "title": "ว่าด้วยปริญญาในสาขาวิชา อักษรย่อสำหรับสาขาวิชาครุยวิทยฐานะ เข็มวิทยฐานะ และครุยประจำตำแหน่งของมหาวิทยาลัยนครพนม (ฉบับที่ ๒)"
  }
}