{
  "pages": [
    [
      [
        "ประกาศเจ้าพนักงานพิทักษ์ทรัพย์",
        "เรื่อง คำพิพากษาให้ล้มละลาย",
        "------------",
        "",
        "คดีหมายเลขแดงที่ ล. ๓๔/๒๕๔๒ กองบังคับคดีล้มละลาย ๔",
        "ศาลล้มละลายกลาง กรมบังคับคดี",
        "",
        "ธนาคารนครหลวงไทย จำกัด (มหาชน) โจทก์",
        "คดีล้มละลายระหว่าง",
        "นายปกรณ์ โอภาสปกรณ์กิจ ที่ ๑",
        "นายสมศักดิ์ เจริญโต ที่ ๒ จำเลย"
      ]
    ],
    []
  ],
  "metadata": {
    "date_backmatter": "2543-05-24",
    "date_gz_old": "2543-06-08",
    "doctype": "ประกาศ",
    "editors": [
      {
        "name": "อัมพิกา",
        "role": "แก้ไข",
        "date": "2545-04-25"
      }
    ],
    "tag": "c501-2e-2543-a002"
  }
}