{
  "pages": [
    [
      [
        "กฎกระทรวง",
        "ว่าด้วยการจดทะเบียนและการกำหนดคุณสมบัติ",
        "ผู้ทำแผนและผู้บริหารแผนฟื้นฟูกิจการ",
        "พ.ศ. ๒๕๔๕"
      ]
    ],
    []
  ],
  "metadata": {
    "date_backmatter": "2545-04-19",
    "date_modified": "2545-05-17",
    "date_original": "2545-05-17",
    "doctype": "กฎกระทรวง",
    "editors": [
      {
        "name": "กนกพร",
        "role": "ผู้จัดทำ",
        "date": "2553-10-26"
      },
      {
        "name": "กวินทราดา",
        "role": "ผู้ตรวจ",
        "date": "2553-11-05"
      }
    ],
    "tag": "c501-2b-2545-a0001"
  }
}