{
  "pages": [
    [
      [
        "คำสั่งกรมบังคับคดี",
        "ที่ ๓๔๓/๒๕๔๗",
        "เรื่อง การดำเนินการกับทรัพย์สินของเจ้าหนี้มีประกัน"
      ]
    ],
    []
  ],
  "metadata": {
    "date_backmatter": "2547-08-24",
    "date_modified": "2550-09-26",
    "date_original": "2550-09-26",
    "editors": [
      {
        "name": "กนกพร",
        "role": "ผู้จัดทำ",
        "date": "2553-10-26"
      },
      {
        "name": "กวินทราดา",
        "role": "ผู้ตรวจ",
        "date": "2553-11-05"
      }
    ],
    "tag": "c501-2f-2550-a0005"
  }
}