{
  "pages": [
    [
      [
        "กฎกระทรวง",
        "ว่าด้วยการจดทะเบียนและการกำหนดคุณสมบัติผู้ทำแผนและผู้บริหารแผนฟื้นฟูกิจการ (ฉบับที่ ๒)",
        "พ.ศ. ๒๕๕๘"
      ]
    ],
    []
  ],
  "metadata": {
    "date_backmatter": "2558-07-12",
    "date_modified": "2558-08-14",
    "date_original": "2558-08-14",
    "doctype": "กฎกระทรวง",
    "editors": [
      {
        "name": "ปริยานุช",
        "role": "ผู้จัดทำ",
        "date": "2558-08-18"
      },
      {
        "name": "ปุณิกา",
        "role": "ผู้ตรวจ",
        "date": "2558-09-03"
      }
    ],
    "tag": "c501-2b-2558-a0001"
  }
}