{
  "pages": [
    [
      [
        "พระราชบัญญัติ",
        "ล้มละลาย (ฉบับที่ ๖)",
        "พ.ศ. ๒๕๔๓",
        "",
        "",
        "ภูมิพลอดุลยเดช ป.ร.",
        "ให้ไว้ ณ วันที่ ๓๑ ตุลาคม พ.ศ. ๒๕๔๓",
        "เป็นปีที่ ๕๕ ในรัชกาลปัจจุบัน"
      ]
    ],
    []
  ],
  "metadata": {
    "date_header": "2543-10-31",
    "date_modified": "2543-11-13",
    "date_original": "2543-11-13",
    "doctype": "พระราชบัญญัติ",
    "editors": [
      {
        "name": "สัญชัย",
        "role": "ผู้จัดทำ",
        "date": "2551-12-24"
      },
      {
        "name": "คุณากร",
        "role": "แก้ไข",
        "date": "2556-11-19"
      },
      {
        "name": "วศิน",
        "role": "ตรวจ",
        "date": "2556-11-19"
      }
    ],
    "tag": "c501-20-2543-a0001",
    "title": "ล้มละลาย (ฉบับที่ ๖)"
  }
}