{
  "pages": [
    [
      [
        "พระราชบัญญัติ",
        "ล้มละลาย (ฉบับที่ ๕)",
        "พ.ศ. ๒๕๔๒",
        "",
        "",
        "ภูมิพลอดุลยเดช ป.ร.",
        "ให้ไว้ ณ วันที่ ๑๐ เมษายน พ.ศ. ๒๕๔๒",
        "เป็นปีที่ ๕๔ ในรัชกาลปัจจุบัน"
      ]
    ],
    []
  ],
  "metadata": {
    "date_header": "2542-04-10",
    "date_modified": "2542-04-21",
    "date_original": "2542-04-21",
    "doctype": "พระราชบัญญัติ",
    "editors": [
      {
        "name": "สัญชัย",
        "role": "ผู้จัดทำ",
        "date": "2551-12-24"
      },
      {
        "name": "คุณากร",
        "role": "แก้ไข",
        "date": "2556-11-19"
      },
      {
        "name": "วศิน",
        "role": "ตรวจ",
        "date": "2556-11-19"
      }
    ],
    "tag": "c501-20-2542-a0001",
    "title": "ล้มละลาย (ฉบับที่ ๕)"
  }
}