{
  "pages": [
    [
      [
        "พระราชบัญญัติ",
        "ล้มละลาย พุทธศักราช ๒๔๘๓",
        "",
        "",
        "ในพระปรมาภิไธยสมเด็จพระเจ้าอยู่หัวอานันทมหิดล",
        "คณะผู้สำเร็จราชการแทนพระองค์",
        "(ตามประกาศประธานสภาผู้แทนราษฎร",
        "ลงวันที่ ๔ สิงหาคม พุทธศักราช ๒๔๘๐)",
        "อาทิตย์ทิพอาภา",
        "พล.อ. พิชเยนทรโยธิน",
        "ตราไว้ ณ วันที่ ๓๐ ธันวาคม พุทธศักราช ๒๔๘๓",
        "เป็นปีที่ ๗ ในรัชกาลปัจจุบัน"
      ]
    ],
    []
  ],
  "metadata": {
    "date_header": "2480-08-04",
    "date_modified": "2547-07-15",
    "date_original": "2483-12-30",
    "doctype": "พระราชบัญญัติ",
    "editors": [
      {
        "name": "สัญชัย",
        "role": "ผู้จัดทำ",
        "date": "2551-12-12"
      },
      {
        "name": "วศิน",
        "role": "แก้ไข",
        "date": "2556-11-18"
      }
    ],
    "tag": "c501-20-2547-a0002",
    "title": "ล้มละลาย"
  }
}