{
  "pages": [
    [
      [
        "ระเบียบคณะกรรมการเครื่องมือแพทย์",
        "ว่าด้วยหลักเกณฑ์และเงื่อนไขในการอนุญาตผลิตเครื่องมือแพทย์เพื่อการส่งออก",
        "พ.ศ. 2537"
      ]
    ],
    []
  ],
  "metadata": {
    "date_backmatter": "2537-11-21",
    "editors": [],
    "tag": "a458-2g-2537-001"
  }
}