{
  "pages": [
    [
      [
        "ประกาศกระทรวงสาธารณสุข",
        "เรื่อง กำหนดด่านตรวจสอบเครื่องมือแพทย์"
      ]
    ],
    []
  ],
  "metadata": {
    "date_backmatter": "2556-02-07",
    "date_modified": "2556-03-22",
    "date_original": "2556-03-22",
    "doctype": "ประกาศ",
    "editors": [
      {
        "name": "ปริยานุช",
        "role": "ผู้จัดทำ",
        "date": "2556-03-26"
      },
      {
        "name": "โชติกานต์",
        "role": "ผู้ตรวจ",
        "date": "2556-04-18"
      }
    ],
    "tag": "a458-2e-2556-a0001"
  }
}