{
  "pages": [
    [
      [
        "กฎกระทรวง",
        "(พ.ศ. ๒๕๓๓)",
        "ออกตามความในพระราชบัญญัติเครื่องมือแพทย์",
        "พ.ศ. ๒๕๓๑"
      ]
    ],
    []
  ],
  "metadata": {
    "date_backmatter": "2533-01-29",
    "date_modified": "2533-02-19",
    "date_original": "2533-02-19",
    "doctype": "กฎกระทรวง",
    "editors": [
      {
        "name": "ชุติมา",
        "role": "ปรับปรุง",
        "date": "2560-05-17"
      }
    ],
    "tag": "a458-2b-2533-001"
  }
}