{
  "pages": [
    [
      [
        "กฎกระทรวง",
        "การขออนุญาตและการออกใบอนุญาตผลิตเครื่องมือแพทย์",
        "พ.ศ. ๒๕๕๕"
      ]
    ],
    []
  ],
  "metadata": {
    "date_backmatter": "2555-05-28",
    "date_modified": "2555-07-11",
    "date_original": "2555-07-11",
    "doctype": "กฎกระทรวง",
    "editors": [
      {
        "name": "ปริยานุช",
        "role": "ผู้จัดทำ",
        "date": "2555-07-13"
      },
      {
        "name": "ชาญ",
        "role": "ผู้ตรวจ",
        "date": "2555-07-18"
      }
    ],
    "tag": "a458-2b-2555-a0001"
  }
}