{
  "pages": [
    [
      [
        "ประกาศกระทรวงสาธารณสุข",
        "เรื่อง สถานที่นำเข้าเครื่องมือแพทย์"
      ]
    ],
    []
  ],
  "metadata": {
    "date_backmatter": "2552-07-24",
    "date_modified": "2552-10-01",
    "date_original": "2552-10-01",
    "doctype": "ประกาศ",
    "editors": [
      {
        "name": "ปริยานุช",
        "role": "ผู้จัดทำ",
        "date": "2552-10-06"
      },
      {
        "name": "นันท์นภัสร์",
        "role": "ตรวจ",
        "date": "2552-10-12"
      }
    ],
    "tag": "a458-2e-2552-a0006"
  }
}