{
  "pages": [
    [
      [
        "ประกาศสำนักงานคณะกรรมการอาหารและยา",
        "เรื่อง กำหนดแบบตามกฎกระทรวงกำหนดหลักเกณฑ์ วิธีการ และเงื่อนไขการจดทะเบียน",
        "สถานประกอบการผลิตเครื่องมือแพทย์ พ.ศ. ๒๕๕๒"
      ]
    ],
    []
  ],
  "metadata": {
    "date_backmatter": "2553-05-18",
    "date_modified": "2553-06-21",
    "date_original": "2553-06-21",
    "doctype": "ประกาศ",
    "editors": [
      {
        "name": "ปริยานุช",
        "role": "ผู้จัดทำ",
        "date": "2553-06-29"
      },
      {
        "name": "นันท์นภัสร์",
        "role": "ตรวจ",
        "date": "2553-06-29"
      },
      {
        "name": "พิมพ์มาดา",
        "role": "ปรับปรุง",
        "date": "2560-07-12"
      }
    ],
    "tag": "a458-2e-2553-a0003"
  }
}