{
  "pages": [
    [
      [
        "ประกาศกระทรวงสาธารณสุข",
        "เรื่อง แต่งตั้งพนักงานเจ้าหน้าที่เพื่อปฏิบัติการ",
        "ตามพระราชบัญญัติเครื่องมือแพทย์ พ.ศ. ๒๕๕๑"
      ]
    ],
    []
  ],
  "metadata": {
    "date_backmatter": "2554-11-25",
    "date_modified": "2554-12-26",
    "date_original": "2554-12-26",
    "doctype": "ประกาศ",
    "editors": [
      {
        "name": "ปริยานุช",
        "role": "ผู้จัดทำ",
        "date": "2555-01-11"
      },
      {
        "name": "ณัฐพร",
        "role": "ผู้ตรวจ",
        "date": "2555-01-11"
      }
    ],
    "tag": "a458-2e-2554-a0003"
  }
}