{
  "pages": [
    [
      [
        "ประกาศกระทรวงสาธารณสุข",
        "(ฉบับที่ ๒๘) พ.ศ. ๒๕๔๕",
        "เรื่อง ถุงยางอนามัย"
      ]
    ],
    []
  ],
  "metadata": {
    "date_backmatter": "2545-05-11",
    "date_gz_old": "2545-06-07",
    "doctype": "ประกาศ",
    "editors": [
      {
        "name": "พรพิมล",
        "role": "พิมพ์",
        "date": "2545-09-11"
      }
    ],
    "tag": "a458-2e-2545-a0001"
  }
}