{
  "pages": [
    [
      [
        "ประกาศกรมประมง",
        "เรื่อง กำหนดให้ผู้ประกอบกิจการการเพาะเลี้ยงสัตว์น้ำควบคุม",
        "ต้องจัดทำหนังสือกำกับการซื้อขายสัตว์น้ำ",
        "พ.ศ. ๒๕๕๙"
      ]
    ],
    []
  ],
  "metadata": {
    "date_backmatter": "2559-04-29",
    "date_modified": "2559-05-27",
    "date_original": "2559-05-11",
    "doctype": "ประกาศ",
    "editors": [
      {
        "name": "วริญา/ปริยานุช",
        "role": "จัดทำ",
        "date": "2559-05-13"
      },
      {
        "name": "วิศนี",
        "role": "เพิ่มเติม",
        "date": "2559-06-16"
      }
    ],
    "tag": "a125-2e-9992-update"
  }
}