{
  "pages": [
    [
      [
        "ประกาศคณะกรรมการประมงประจำจังหวัดพิษณุโลก",
        "เรื่อง กำหนดเขตเพาะเลี้ยงสัตว์น้ำ สำหรับกิจการการเพาะเลี้ยงสัตว์น้ำควบคุม",
        "ประเภท การเพาะเลี้ยงจระเข้",
        "พ.ศ. ๒๕๕๙"
      ]
    ],
    []
  ],
  "metadata": {
    "date_backmatter": "2559-09-05",
    "date_modified": "2559-10-04",
    "date_original": "2559-10-04",
    "doctype": "ประกาศ",
    "editors": [
      {
        "name": "ปุณิกา/ปริยานุช",
        "role": "จัดทำ",
        "date": "2559-10-06"
      }
    ],
    "tag": "a125-2e-2559-a0095"
  }
}