{
  "pages": [
    [
      [
        "ประกาศกรมประมง",
        "เรื่อง มาตรฐานด้านสุขอนามัยของท่าเทียบเรือประมง สะพานปลา กิจการแพปลา",
        "หรือตลาดกลางซื้อขาย สัตว์น้ำ และหลักเกณฑ์ในการออกหนังสือรับรอง",
        "พ.ศ. ๒๕๕๙"
      ]
    ],
    []
  ],
  "metadata": {
    "date_backmatter": "2559-04-26",
    "date_modified": "2559-05-11",
    "date_original": "2559-05-11",
    "doctype": "ประกาศ",
    "editors": [
      {
        "name": "ปริยานุช",
        "role": "จัดทำ",
        "date": "2559-05-13"
      },
      {
        "name": "วริญา",
        "role": "ตรวจ",
        "date": "2559-05-23"
      }
    ],
    "tag": "a125-2e-2559-a0040"
  }
}