{
  "pages": [
    [
      [
        "ประกาศกรมประมง",
        "เรื่อง กำหนดหลักเกณฑ์และวิธีการเกี่ยวกับการแจ้งการเข้าออกท่าเทียบเรือประมงของเรือประมงพาณิชย์",
        "พ.ศ. ๒๕๖๑"
      ]
    ],
    []
  ],
  "metadata": {
    "date_backmatter": "2561-09-07",
    "date_modified": "2561-09-10",
    "date_original": "2561-09-10",
    "doctype": "ประกาศ",
    "editors": [
      {
        "name": "พิมพ์มาดา",
        "role": "จัดทำ",
        "date": "2561-12-17"
      }
    ],
    "tag": "a125-2e-2561-a0106"
  }
}