{
  "pages": [
    [
      [
        "ประกาศคณะกรรมการประมงประจำจังหวัดชุมพร",
        "เรื่อง กำหนดเขตเพาะเลี้ยงสัตว์น้ำสำหรับกิจการการเพาะเลี้ยงสัตว์น้ำควบคุม",
        "ประเภท การเพาะเลี้ยงสัตว์น้ำในกระชัง",
        "พ.ศ. ๒๕๖๐"
      ]
    ],
    []
  ],
  "metadata": {
    "date_backmatter": "2560-11-30",
    "date_modified": "2561-01-05",
    "date_original": "2561-01-05",
    "doctype": "ประกาศ",
    "editors": [
      {
        "name": "ภวรรณตรี",
        "role": "จัดทำ",
        "date": "2561-01-11"
      },
      {
        "name": "พิมพ์มาดา",
        "role": "ตรวจ",
        "date": "2561-02-11"
      }
    ],
    "tag": "a125-2e-2561-a0003"
  }
}