{
  "pages": [
    [
      [
        "กฎกระทรวง",
        "ฉะบับที่ ๒ (พ.ศ. ๒๔๙๐)",
        "ว่าด้วยการกำหนดอัตราเงินอากร",
        "ออกตามความในพระราชบัญญัติการประมง",
        "พ.ศ. ๒๔๙๐"
      ]
    ],
    []
  ],
  "metadata": {
    "date_backmatter": "2490-04-14",
    "date_modified": "2491-10-19",
    "date_original": "2490-04-14",
    "doctype": "กฎกระทรวง",
    "editors": [
      {
        "name": "จุฑามาศ",
        "role": "ปรับปรุง",
        "date": "2558-07-28"
      }
    ],
    "tag": "a125-2b-2491-014u"
  }
}