{
  "pages": [
    [
      [
        "ประกาศคณะกรรมการประมงประจำจังหวัดสุราษฎร์ธานี",
        "เรื่อง กำหนดเขตพื้นที่รักษาพันธุ์สัตว์น้ำ",
        "พ.ศ. ๒๕๖๑"
      ]
    ],
    []
  ],
  "metadata": {
    "date_backmatter": "2561-04-26",
    "date_modified": "2561-06-21",
    "date_original": "2561-06-21",
    "doctype": "ประกาศ",
    "editors": [
      {
        "name": "พิมพ์มาดา",
        "role": "จัดทำ",
        "date": "2561-08-20"
      }
    ],
    "tag": "a125-2e-2561-a0083"
  }
}