{
  "pages": [
    [
      [
        "คำสั่งกระทรวงเกษตรและสหกรณ์",
        "ที่ ๙๐๗/๒๕๕๙",
        "เรื่อง แต่งตั้งพนักงานเจ้าหน้าที่ตามพระราชกำหนดการประมง พ.ศ. ๒๕๕๘"
      ]
    ],
    []
  ],
  "metadata": {
    "date_backmatter": "2559-11-07",
    "date_modified": "2561-01-05",
    "date_original": "2559-11-15",
    "editors": [
      {
        "name": "พิมพ์มาดา",
        "role": "จัดทำ",
        "date": "2561-02-27"
      },
      {
        "name": "พจนา",
        "role": "ตรวจ",
        "date": "2561-02-28"
      }
    ],
    "tag": "a125-2f-9999-update"
  }
}