{
  "pages": [
    [
      [
        "ประกาศคณะกรรมการประมงประจำจังหวัดนครราชสีมา",
        "เรื่อง กำหนดเขตเพาะเลี้ยงสัตว์น้ำสำหรับกิจการการเพาะเลี้ยงสัตว์น้ำควบคุม",
        "ประเภท การเพาะเลี้ยงจระเข้",
        "พ.ศ. ๒๕๖๐"
      ]
    ],
    []
  ],
  "metadata": {
    "date_backmatter": "2560-09-12",
    "date_modified": "2560-09-22",
    "date_original": "2560-09-22",
    "doctype": "ประกาศ",
    "editors": [
      {
        "name": "พิมพ์มาดา/อัญชลี",
        "role": "จัดทำ",
        "date": "2560-09-26"
      },
      {
        "name": "นุสรา",
        "role": "ตรวจ",
        "date": "2560-09-27"
      }
    ],
    "tag": "a125-2e-2560-a0150"
  }
}