{
  "pages": [
    [
      [
        "ประกาศคณะกรรมการประมงประจำจังหวัดกระบี่",
        "เรื่อง กำหนดเครื่องมือทำการประมง วิธีการทำการประมง และพื้นที่ทำการประมง",
        "ที่ห้ามใช้ทำการประมงในที่จับสัตว์น้ำ",
        "พ.ศ. ๒๕๖๑"
      ]
    ],
    []
  ],
  "metadata": {
    "date_backmatter": "2561-03-19",
    "date_modified": "2561-04-25",
    "date_original": "2561-04-25",
    "doctype": "ประกาศ",
    "editors": [
      {
        "name": "ปวันวิทย์",
        "role": "จัดทำ",
        "date": "2561-06-01"
      }
    ],
    "tag": "a125-2e-2561-a0053"
  }
}