{
  "pages": [
    [
      [
        "ประกาศคณะกรรมการประมงประจำจังหวัดพัทลุง",
        "เรื่อง กำหนดเขตเพาะเลี้ยงสัตว์น้ำสำหรับกิจการการเพาะเลี้ยงสัตว์น้ำควบคุม",
        "ประเภท การเพาะเลี้ยงกุ้งก้ามแดง หรือกุ้งเครย์ฟิช Procambarus clarkii หรือ Cherax spp.",
        "พ.ศ. ๒๕๕๙"
      ]
    ],
    []
  ],
  "metadata": {
    "date_backmatter": "2559-11-25",
    "date_modified": "2560-02-06",
    "date_original": "2560-02-06",
    "doctype": "ประกาศ",
    "editors": [
      {
        "name": "ชวัลพร/ปริยานุช",
        "role": "จัดทำ",
        "date": "2560-02-07"
      },
      {
        "name": "นุสรา",
        "role": "ตรวจ",
        "date": "2560-03-23"
      }
    ],
    "tag": "a125-2e-2560-a0009"
  }
}