{
  "pages": [
    [
      [
        "ประกาศคณะกรรมการประมงประจำจังหวัดนครนายก",
        "เรื่อง กำหนดเขตเพาะเลี้ยงสัตว์น้ำสำหรับกิจการการเพาะเลี้ยงสัตว์น้ำควบคุม",
        "ประเภท การเพาะเลี้ยงกุ้งทะเล",
        "พ.ศ. ๒๕๕๙"
      ]
    ],
    []
  ],
  "metadata": {
    "date_backmatter": "2559-08-10",
    "date_modified": "2559-08-17",
    "date_original": "2559-08-17",
    "doctype": "ประกาศ",
    "editors": [
      {
        "name": "ปริยานุช",
        "role": "จัดทำ",
        "date": "2559-08-22"
      },
      {
        "name": "ชวัลพร",
        "role": "ตรวจ",
        "date": "2559-08-22"
      }
    ],
    "tag": "a125-2e-2559-a0063"
  }
}