{
  "pages": [
    [
      [
        "ประกาศกรมประมง",
        "เรื่อง กำหนดมาตรฐานการปนเปื้อนของสารพิษหรือสิ่งอื่นใดที่อาจเป็นอันตราย",
        "ต่อมนุษย์หรือต่อสัตว์น้ำในที่จับสัตว์น้ำ",
        "พ.ศ. ๒๕๕๙"
      ]
    ],
    []
  ],
  "metadata": {
    "date_backmatter": "2559-03-16",
    "date_modified": "2559-03-31",
    "date_original": "2559-03-31",
    "doctype": "ประกาศ",
    "editors": [
      {
        "name": "ปริยานุช",
        "role": "จัดทำ",
        "date": "2559-04-04"
      },
      {
        "name": "ชวัลพร",
        "role": "ตรวจ",
        "date": "2559-04-04"
      }
    ],
    "tag": "a125-2e-2559-a0022"
  }
}