{
  "pages": [
    [
      [
        "ประกาศคณะกรรมการประมงประจำจังหวัดศรีสะเกษ",
        "เรื่อง กำหนดเขตเพาะเลี้ยงสัตว์น้ำสำหรับกิจการการเพาะเลี้ยงสัตว์น้ำควบคุม",
        "ประเภท การเพาะเลี้ยงกุ้งก้ามแดง หรือกุ้งเครย์ฟิช Procambarus clarkii หรือ Cherax spp.",
        "พ.ศ. ๒๕๕๙"
      ]
    ],
    []
  ],
  "metadata": {
    "date_backmatter": "2559-09-16",
    "date_modified": "2559-10-25",
    "date_original": "2559-10-25",
    "doctype": "ประกาศ",
    "editors": [
      {
        "name": "ปริยานุช",
        "role": "จัดทำ",
        "date": "2559-10-28"
      },
      {
        "name": "ชวัลพร",
        "role": "ตรวจ",
        "date": "2559-11-03"
      }
    ],
    "tag": "a125-2e-2559-a0124"
  }
}