{
  "pages": [
    [
      [
        "ประกาศกรมประมง",
        "เรื่อง รายชื่อเรือประมงที่มิใช่เรือประมงไทยที่มีการทำการประมงโดยไม่ชอบด้วยกฎหมาย (ฉบับที่ ๔)",
        "พ.ศ. ๒๕๖๑"
      ]
    ],
    []
  ],
  "metadata": {
    "date_backmatter": "2561-06-29",
    "date_modified": "2561-07-05",
    "date_original": "2561-07-05",
    "doctype": "ประกาศ",
    "editors": [
      {
        "name": "พัชรภรณ์",
        "role": "จัดทำ",
        "date": "2561-10-25"
      }
    ],
    "tag": "a125-2e-2561-a0089"
  }
}