{
  "pages": [
    [
      [
        "ประกาศกระทรวงเกษตรและสหกรณ์",
        "เรื่อง กำหนดเครื่องมือทำการประมง รูปแบบ และพื้นที่ทำการประมงของเครื่องมือประมงคราดหอย",
        "ที่ห้ามใช้ทำการประมงในที่จับสัตว์น้ำ",
        "พ.ศ. ๒๕๖๐"
      ]
    ],
    []
  ],
  "metadata": {
    "date_backmatter": "2560-07-13",
    "date_modified": "2560-07-17",
    "date_original": "2560-07-17",
    "doctype": "ประกาศ",
    "editors": [
      {
        "name": "ภวรรณตรี",
        "role": "จัดทำ",
        "date": "2560-07-24"
      },
      {
        "name": "ชวัลพร",
        "role": "ตรวจ",
        "date": "2560-08-24"
      }
    ],
    "tag": "a125-2e-2560-a0108"
  }
}