{
  "pages": [
    [
      [
        "กฎกระทรวง",
        "การขออนุญาตและการอนุญาตให้ทำการประมงน้ำจืดในที่จับสัตว์น้ำที่เป็นสาธารณสมบัติของแผ่นดิน",
        "พ.ศ. ๒๕๕๙"
      ]
    ],
    []
  ],
  "metadata": {
    "date_backmatter": "2559-02-18",
    "date_modified": "2559-02-25",
    "date_original": "2559-02-25",
    "doctype": "กฎกระทรวง",
    "editors": [
      {
        "name": "ชวัลพร/ปริยานุช",
        "role": "จัดทำ",
        "date": "2559-03-03"
      }
    ],
    "tag": "a125-2b-2559-a0003"
  }
}