{
  "pages": [
    [
      [
        "ประกาศศูนย์บัญชาการแก้ไขปัญหาการทำการประมงผิดกฎหมาย",
        "ที่ ๒/๒๕๕๙",
        "เรื่อง ยกเลิกประกาศและคำสั่งศูนย์บัญชาการแก้ไขปัญหาการทำการประมงผิดกฎหมาย บางฉบับ"
      ]
    ],
    []
  ],
  "metadata": {
    "date_backmatter": "2559-05-04",
    "date_modified": "2559-05-10",
    "date_original": "2559-05-10",
    "doctype": "ประกาศ",
    "editors": [
      {
        "name": "ปริยานุช",
        "role": "จัดทำ",
        "date": "2559-05-12"
      },
      {
        "name": "วริญา",
        "role": "ตรวจ",
        "date": "2559-05-19"
      }
    ],
    "tag": "a125-2e-2559-a0030"
  }
}