{
  "pages": [
    [
      [
        "ระเบียบกรมประมง",
        "เรื่อง การปฏิบัติการของพนักงานเจ้าหน้าที่ในการค้น",
        "พ.ศ. ๒๕๕๙"
      ]
    ],
    []
  ],
  "metadata": {
    "date_backmatter": "2559-03-22",
    "date_modified": "2559-03-29",
    "date_original": "2559-03-29",
    "editors": [
      {
        "name": "ปริยานุช",
        "role": "จัดทำ",
        "date": "2559-04-04"
      },
      {
        "name": "ชวัลพร",
        "role": "ตรวจ",
        "date": "2559-04-04"
      }
    ],
    "tag": "a125-2g-2559-a0001"
  }
}