{
  "pages": [
    [
      [
        "ประกาศคณะกรรมการประมงประจำจังหวัดกำแพงเพชร",
        "เรื่อง กำหนดเขตเพาะเลี้ยงสัตว์น้ำสำหรับกิจการการเพาะเลี้ยงสัตว์น้ำควบคุม",
        "ประเภท การเพาะเลี้ยงจระเข้ พ.ศ. ๒๕๕๙"
      ]
    ],
    []
  ],
  "metadata": {
    "date_backmatter": "2559-08-08",
    "date_modified": "2559-08-26",
    "date_original": "2559-08-26",
    "doctype": "ประกาศ",
    "editors": [
      {
        "name": "วริญา/ปริยานุช",
        "role": "จัดทำ",
        "date": "2559-08-29"
      },
      {
        "name": "นุสรา",
        "role": "ตรวจ",
        "date": "2559-11-25"
      }
    ],
    "tag": "a125-2e-2559-a0072"
  }
}