{
  "pages": [
    [
      [
        "ประกาศกรมประมง",
        "เรื่อง กำหนดหลักเกณฑ์การมีผู้สังเกตการณ์ประจำอยู่ในเรือขนถ่ายสัตว์น้ำ",
        "ในการขนถ่ายสัตว์น้ำนอกน่านน้ำไทย",
        "พ.ศ. ๒๕๖๐"
      ]
    ],
    []
  ],
  "metadata": {
    "date_backmatter": "2560-10-27",
    "date_modified": "2560-10-31",
    "date_original": "2560-10-31",
    "doctype": "ประกาศ",
    "editors": [
      {
        "name": "ปุณิกา/อัญชลี",
        "role": "จัดทำ",
        "date": "2560-11-06"
      }
    ],
    "tag": "a125-2e-2560-a0193"
  }
}