{
  "pages": [
    [
      [
        "ประกาศคณะกรรมการประมงประจำจังหวัดนครสวรรค์",
        "เรื่อง กำหนดเขตเพาะเลี้ยงสัตว์น้ำสำหรับกิจการการเพาะเลี้ยงสัตว์น้ำควบคุม",
        "ประเภท การเพาะเลี้ยงสัตว์น้ำในกระชัง",
        "พ.ศ. ๒๕๖๐"
      ]
    ],
    []
  ],
  "metadata": {
    "date_backmatter": "2560-03-09",
    "date_modified": "2560-05-02",
    "date_original": "2560-05-02",
    "doctype": "ประกาศ",
    "editors": [
      {
        "name": "ปุณิกา/ภวรรณตรี",
        "role": "จัดทำ",
        "date": "2560-05-05"
      },
      {
        "name": "นุสรา",
        "role": "ตรวจ",
        "date": "2560-07-21"
      }
    ],
    "tag": "a125-2e-2560-a0053"
  }
}