{
  "pages": [
    [
      [
        "ประกาศคณะกรรมการประมงประจำจังหวัดมหาสารคาม",
        "เรื่อง กำหนดเขตเพาะเลี้ยงสัตว์น้ำสำหรับกิจการเพาะเลี้ยงสัตว์น้ำควบคุม",
        "ประเภท การเพาะเลี้ยงกุ้งก้ามแดง หรือกุ้งเครย์ฟิช Procambarus clarkii หรือ Cherax spp.",
        "พ.ศ. ๒๕๖๐"
      ]
    ],
    []
  ],
  "metadata": {
    "date_backmatter": "2560-02-07",
    "date_modified": "2560-03-13",
    "date_original": "2560-03-13",
    "doctype": "ประกาศ",
    "editors": [
      {
        "name": "ชวัลพร/ปริยานุช",
        "role": "จัดทำ",
        "date": "2560-03-17"
      }
    ],
    "tag": "a125-2e-2560-a0034"
  }
}