{
  "pages": [
    [
      [
        "ประกาศกรมประมง",
        "เรื่อง กำหนดหลักเกณฑ์และวิธีการจัดทำเครื่องหมายประจำเรือประมง",
        "สำหรับเรือประมงพาณิชย์ในน่านน้ำไทย",
        "พ.ศ. ๒๕๖๑"
      ]
    ],
    []
  ],
  "metadata": {
    "date_backmatter": "2561-03-08",
    "date_modified": "2561-03-09",
    "date_original": "2561-03-09",
    "doctype": "ประกาศ",
    "editors": [
      {
        "name": "พรวิภา",
        "role": "จัดทำ",
        "date": "2561-03-09"
      },
      {
        "name": "นุสรา",
        "role": "ตรวจ",
        "date": "2561-03-10"
      }
    ],
    "tag": "a125-2e-2561-a0033"
  }
}