{
  "pages": [
    [
      [
        "ประกาศกรมประมง",
        "เรื่อง กำหนดหลักเกณฑ์และวิธีการจัดทำเครื่องหมายประจำเรือประมง",
        "พ.ศ. ๒๕๕๙"
      ]
    ],
    []
  ],
  "metadata": {
    "date_backmatter": "2559-05-13",
    "date_modified": "2559-05-16",
    "date_original": "2559-05-16",
    "doctype": "ประกาศ",
    "editors": [
      {
        "name": "ปุณิกา/ปริยานุช",
        "role": "จัดทำ",
        "date": "2559-05-26"
      }
    ],
    "tag": "a125-2e-2559-a0049"
  }
}