{
  "pages": [
    [
      [
        "กฎกระทรวง",
        "ฉะบับที่ ๑ (พ.ศ. ๒๔๙๐)",
        "ว่าด้วยชื่อเครื่องมือในพิกัด",
        "ออกตามความในพระราชบัญญัติการประมง",
        "พ.ศ. ๒๔๙๐"
      ]
    ],
    []
  ],
  "metadata": {
    "date_backmatter": "2490-04-14",
    "date_modified": "2539-10-14",
    "date_original": "2490-04-14",
    "doctype": "กฎกระทรวง",
    "editors": [
      {
        "name": "จุฑามาศ",
        "role": "ผู้จัดทำ",
        "date": "2558-08-14"
      }
    ],
    "tag": "a125-2b-9996-update"
  }
}