{
  "pages": [
    [
      [
        "ประกาศคณะกรรมการประมงประจำจังหวัดปทุมธานี",
        "เรื่อง กำหนดเขตเพาะเลี้ยงสัตว์น้ำสำหรับกิจการการเพาะเลี้ยงสัตว์น้ำควบคุม",
        "ประเภท การเพาะเลี้ยงจระเข้",
        "พ.ศ. ๒๕๕๙"
      ]
    ],
    []
  ],
  "metadata": {
    "date_backmatter": "2559-11-14",
    "date_modified": "2559-12-01",
    "date_original": "2559-12-01",
    "doctype": "ประกาศ",
    "editors": [
      {
        "name": "วิศนี/ปริยานุช",
        "role": "จัดทำ",
        "date": "2559-12-07"
      },
      {
        "name": "ปริญสินีย์",
        "role": "ตรวจ",
        "date": "2559-12-30"
      }
    ],
    "tag": "a125-2e-2559-a0162"
  }
}