{
  "pages": [
    [
      [
        "ประกาศคณะกรรมการประมงประจำจังหวัดพังงา",
        "เรื่อง กำหนดเครื่องมือทำการประมง วิธีการทำการประมง และพื้นที่ทำการประมง",
        "ที่ห้ามใช้ทำการประมงในที่จับสัตว์น้ำ พ.ศ. ๒๕๖๑"
      ]
    ],
    []
  ],
  "metadata": {
    "date_backmatter": "2561-09-27",
    "date_modified": "2561-10-22",
    "date_original": "2561-10-22",
    "doctype": "ประกาศ",
    "editors": [
      {
        "name": "พิมพ์มาดา",
        "role": "จัดทำ",
        "date": "2562-02-11"
      }
    ],
    "tag": "a125-2e-2561-a0121"
  }
}