{
  "pages": [
    [
      [
        "ประกาศคณะกรรมการประมงประจำจังหวัดพังงา",
        "เรื่อง กำหนดเครื่องมือทำการประมง วิธีการทำการประมง และพื้นที่ทำการประมง",
        "ที่ห้ามใช้ทำการประมงในที่จับสัตว์น้ำ",
        "พ.ศ. ๒๕๖๐"
      ]
    ],
    []
  ],
  "metadata": {
    "date_backmatter": "2560-09-29",
    "date_modified": "2560-10-24",
    "date_original": "2560-10-24",
    "doctype": "ประกาศ",
    "editors": [
      {
        "name": "พิมพ์มาดา/ภวรรณตรี",
        "role": "จัดทำ",
        "date": "2560-11-08"
      },
      {
        "name": "วิชพงษ์",
        "role": "ตรวจ",
        "date": "2560-11-20"
      }
    ],
    "tag": "a125-2e-2560-a0183"
  }
}