{
  "pages": [
    [
      [
        "ประกาศคณะกรรมการประมงประจำจังหวัดลำปาง",
        "เรื่อง กำหนดเขตเพาะเลี้ยงสัตว์น้ำ สำหรับกิจการการเพาะเลี้ยงสัตว์น้ำควบคุม",
        "ประเภท การเพาะเลี้ยงกุ้งก้ามแดง หรือกุ้งเครย์ฟิช Procambarus clarkii หรือ Cherax spp.",
        "พ.ศ. ๒๕๕๙"
      ]
    ],
    []
  ],
  "metadata": {
    "date_backmatter": "2559-08-04",
    "date_modified": "2559-08-10",
    "date_original": "2559-08-10",
    "doctype": "ประกาศ",
    "editors": [
      {
        "name": "กัญฑรัตน์/ปริยานุช",
        "role": "จัดทำ",
        "date": "2559-08-17"
      }
    ],
    "tag": "a125-2e-2559-a0061"
  }
}