{
  "pages": [
    [
      [
        "ประกาศกรมประมง",
        "เรื่อง กำหนดหลักเกณฑ์และวิธีการในการแจ้งการเข้าออกท่าเทียบเรือประมง",
        "ของเรือขนถ่ายสัตว์น้ำหรือเรือเก็บรักษาสัตว์น้ำ",
        "พ.ศ. ๒๕๖๐"
      ]
    ],
    []
  ],
  "metadata": {
    "date_backmatter": "2560-02-28",
    "date_modified": "2560-03-08",
    "date_original": "2560-03-08",
    "doctype": "ประกาศ",
    "editors": [
      {
        "name": "ปริยานุช",
        "role": "จัดทำ",
        "date": "2560-03-10"
      },
      {
        "name": "พิมพ์มาดา",
        "role": "ตรวจ",
        "date": "2560-03-28"
      }
    ],
    "tag": "a125-2e-2560-a0031"
  }
}