{
  "pages": [
    [
      [
        "ประกาศกรมประมง",
        "เรื่อง กำหนดหลักเกณฑ์และวิธีการติดตั้งระบบติดตามเรือประมง และดูแลรักษาระบบติดตามเรือประมง",
        "ของเรือประมงพาณิชย์ให้สามารถใช้งานได้ตลอดเวลา (ฉบับที่ ๔)",
        "พ.ศ. ๒๕๖๐"
      ]
    ],
    []
  ],
  "metadata": {
    "date_backmatter": "2560-02-22",
    "date_modified": "2560-02-23",
    "date_original": "2560-02-23",
    "doctype": "ประกาศ",
    "editors": [
      {
        "name": "พิมพ์มาดา/ปริยานุช",
        "role": "จัดทำ",
        "date": "2560-02-27"
      },
      {
        "name": "ปริญสินีย์",
        "role": "ตรวจ",
        "date": "2560-04-04"
      }
    ],
    "tag": "a125-2e-2560-a0027"
  }
}