{
  "pages": [
    [
      [
        "ประกาศกระทรวงเกษตรและสหกรณ์",
        "เรื่อง ให้งดการออกใบอนุญาตทำการประมงพาณิชย์ไว้เป็นการชั่วคราว (ฉบับที่ ๒)",
        "พ.ศ. ๒๕๕๙"
      ]
    ],
    []
  ],
  "metadata": {
    "date_backmatter": "2559-06-28",
    "date_modified": "2559-06-30",
    "date_original": "2559-06-30",
    "doctype": "ประกาศ",
    "editors": [
      {
        "name": "วิศนี/ปริยานุช",
        "role": "จัดทำ",
        "date": "2559-07-04"
      },
      {
        "name": "นุสรา",
        "role": "ตรวจ",
        "date": "2559-08-15"
      }
    ],
    "tag": "a125-2e-2559-a0054"
  }
}