{
  "pages": [
    [
      [
        "กฎกระทรวง",
        "การขออนุญาตและการอนุญาตให้นำเข้า ส่งออก นำผ่าน",
        "เพาะเลี้ยง หรือมีไว้ในครอบครองซึ่งสัตว์น้ำบางชนิด",
        "พ.ศ. ๒๕๕๙"
      ]
    ],
    []
  ],
  "metadata": {
    "date_backmatter": "2559-05-12",
    "date_modified": "2559-05-13",
    "date_original": "2559-05-13",
    "doctype": "กฎกระทรวง",
    "editors": [
      {
        "name": "วริญา/ปริยานุช",
        "role": "จัดทำ",
        "date": "2559-05-16"
      },
      {
        "name": "วิชพงษ์",
        "role": "ตรวจ",
        "date": "2559-05-23"
      }
    ],
    "tag": "a125-2b-2559-a0012"
  }
}