{
  "pages": [
    [
      [
        "ประกาศกระทรวงเกษตรและสหกรณ์",
        "เรื่อง กำหนดชนิดสัตว์น้ำที่ห้ามนำเข้า ส่งออก นำผ่าน หรือเพาะเลี้ยง",
        "พ.ศ. ๒๕๖๑"
      ]
    ],
    []
  ],
  "metadata": {
    "date_backmatter": "2561-01-09",
    "date_modified": "2561-01-18",
    "date_original": "2561-01-18",
    "doctype": "ประกาศ",
    "editors": [
      {
        "name": "พัชรภรณ์",
        "role": "จัดทำ",
        "date": "2561-01-25"
      }
    ],
    "tag": "a125-2e-2561-a0011"
  }
}