{
  "pages": [
    [
      [
        "กฎกระทรวง",
        "ว่าด้วยการขอและการออกอาชญาบัตร",
        "เพื่อใช้เครื่องมือในพิกัดทำการประมง",
        "พ.ศ. ๒๕๔๕"
      ]
    ],
    []
  ],
  "metadata": {
    "date_backmatter": "2545-08-14",
    "date_modified": "2545-09-24",
    "date_original": "2545-09-24",
    "doctype": "กฎกระทรวง",
    "editors": [
      {
        "name": "จุฑามาศ",
        "role": "ผู้จัดทำ",
        "date": "2558-08-13"
      }
    ],
    "tag": "a125-2b-2545-a0001"
  }
}