{
  "pages": [
    [
      [
        "ประกาศกรมประมง",
        "เรื่อง หลักเกณฑ์และวิธีการในการทำการประมงพื้นบ้าน",
        "พ.ศ. ๒๕๕๙"
      ]
    ],
    []
  ],
  "metadata": {
    "date_backmatter": "2559-04-26",
    "date_modified": "2559-05-13",
    "date_original": "2559-05-13",
    "doctype": "ประกาศ",
    "editors": [
      {
        "name": "ปริยานุช",
        "role": "จัดทำ",
        "date": "2559-05-16"
      },
      {
        "name": "วริญา",
        "role": "ตรวจ",
        "date": "2559-05-26"
      }
    ],
    "tag": "a125-2e-2559-a0048"
  }
}