{
  "pages": [
    [
      [
        "ประกาศคณะกรรมการประมงประจำจังหวัดกำแพงเพชร",
        "เรื่อง กำหนดเขตเพาะเลี้ยงสัตว์น้ำสำหรับกิจการการเพาะเลี้ยงสัตว์น้ำควบคุม",
        "ประเภทการเพาะเลี้ยงสัตว์น้ำในกระชัง",
        "พ.ศ. ๒๕๖๐"
      ]
    ],
    []
  ],
  "metadata": {
    "date_backmatter": "2560-02-08",
    "date_modified": "2560-04-25",
    "date_original": "2560-04-25",
    "doctype": "ประกาศ",
    "editors": [
      {
        "name": "ภวรรณตรี",
        "role": "จัดทำ",
        "date": "2560-04-28"
      },
      {
        "name": "วริญา",
        "role": "ตรวจ",
        "date": "2560-04-28"
      }
    ],
    "tag": "a125-2e-2560-a0052"
  }
}