{
  "pages": [
    [
      [
        "พระราชกำหนด",
        "การประมง",
        "พ.ศ. ๒๕๕๘",
        "",
        "",
        "ภูมิพลอดุลยเดช ป.ร.",
        "ให้ไว้ ณ วันที่ ๑๓ พฤศจิกายน พ.ศ. ๒๕๕๘",
        "เป็นปีที่ ๗๐ ในรัชกาลปัจจุบัน"
      ]
    ],
    []
  ],
  "metadata": {
    "date_header": "2558-11-13",
    "date_modified": "2558-11-13",
    "date_original": "2558-11-13",
    "doctype": "พระราชกำหนด",
    "editors": [
      {
        "name": "ปริยานุช/ปุณิกา",
        "role": "จัดทำ",
        "date": "2558-11-16"
      },
      {
        "name": "พจนา",
        "role": "ตรวจ",
        "date": "2558-11-18"
      }
    ],
    "tag": "a125-20-2558-a0002",
    "title": "การประมง"
  }
}