{
  "pages": [
    [
      [
        "ประกาศคณะกรรมการประมงประจำจังหวัดสตูล",
        "เรื่อง กำหนดเขตเพาะเลี้ยงสัตว์น้ำสำหรับกิจการเพาเลี้ยงสัตว์น้ำควบคุม",
        "ประเภท การเพาะเลี้ยงหอยทะเล",
        "พ.ศ. ๒๕๖๐"
      ]
    ],
    []
  ],
  "metadata": {
    "date_backmatter": "2560-10-17",
    "date_modified": "2560-11-20",
    "date_original": "2560-11-20",
    "doctype": "ประกาศ",
    "editors": [
      {
        "name": "ภวรรณตรี",
        "role": "จัดทำ",
        "date": "2560-11-29"
      },
      {
        "name": "ปวันวิทย์",
        "role": "ตรวจ",
        "date": "2560-12-26"
      }
    ],
    "tag": "a125-2e-2560-a0207"
  }
}