{
  "pages": [
    [
      [
        "ประกาศสำนักงานประมงจังหวัดยโสธร",
        "เรื่อง กำหนดห้วงเวลาให้ผู้ประสงค์ทำการเพาะเลี้ยงสัตว์น้ำในที่จับสัตว์น้ำซึ่งเป็นสาธารณสมบัติของแผ่นดิน",
        "มายื่นคำขอรับใบอนุญาต พ.ศ. ๒๕๖๑"
      ]
    ],
    []
  ],
  "metadata": {
    "date_backmatter": "2561-05-22",
    "date_modified": "2561-06-12",
    "date_original": "2561-06-12",
    "doctype": "ประกาศ",
    "editors": [
      {
        "name": "วิวรรธน์",
        "role": "จัดทำ",
        "date": "2561-06-13"
      }
    ],
    "tag": "a125-2e-2561-a0080"
  }
}