{
  "pages": [
    [
      [
        "ประกาศคณะกรรมการประมงประจำจังหวัดสุโขทัย",
        "เรื่อง กำหนดเขตเพาะเลี้ยงสัตว์น้ำสำหรับกิจการการเพาะเลี้ยงสัตว์น้ำควบคุม",
        "ประเภท การเพาะเลี้ยงจระเข้",
        "พ.ศ. ๒๕๖๐"
      ]
    ],
    []
  ],
  "metadata": {
    "date_backmatter": "2560-06-22",
    "date_modified": "2560-07-31",
    "date_original": "2560-07-31",
    "doctype": "ประกาศ",
    "editors": [
      {
        "name": "พรวิภา/ภวรรณตรี",
        "role": "จัดทำ",
        "date": "2560-08-02"
      }
    ],
    "tag": "a125-2e-2560-a0118"
  }
}