{
  "pages": [
    [
      [
        "ประกาศกระทรวงเกษตรและสหกรณ์",
        "เรื่อง ให้ผู้ประกอบกิจการเลี้ยงกุ้งทะเลมาจดทะเบียน",
        "และขออนุญาตต่อพนักงานเจ้าหน้าที่"
      ]
    ],
    []
  ],
  "metadata": {
    "date_backmatter": "2541-12-21",
    "date_modified": "2541-12-25",
    "date_original": "2541-12-25",
    "doctype": "ประกาศ",
    "editors": [
      {
        "name": "พรพิมล",
        "role": "พิมพ์",
        "date": "2544-07-23"
      },
      {
        "name": "จุฑามาศ",
        "role": "ปรับปรุง",
        "date": "2558-08-18"
      }
    ],
    "tag": "a125-2e-2541-a0001"
  }
}