{
  "pages": [
    [
      [
        "กฎกระทรวง",
        "ฉะบับที่ ๑๐ (พ.ศ. ๒๔๙๐)",
        "ว่าด้วยการติดโคมไฟและเครื่องหมาย",
        "ออกตามความในพระราชบัญญัติการประมง",
        "พ.ศ. ๒๔๙๐"
      ]
    ],
    []
  ],
  "metadata": {
    "date_backmatter": "2490-04-14",
    "date_modified": "2490-04-14",
    "date_original": "2490-04-14",
    "doctype": "กฎกระทรวง",
    "editors": [
      {
        "name": "จุฑามาศ",
        "role": "ปรับปรุง",
        "date": "2558-08-10"
      }
    ],
    "tag": "a125-2b-2490-010"
  }
}