{
  "pages": [
    [
      [
        "ประกาศคณะกรรมการประมงประจำจังหวัดสระบุรี",
        "เรื่อง กำหนดเขตเพาะเลี้ยงสัตว์น้ำ สำหรับกิจการการเพาะเลี้ยงสัตว์น้ำควบคุม",
        "ประเภท การเพาะเลี้ยงสัตว์น้ำในกระชัง",
        "พ.ศ. ๒๕๖๐"
      ]
    ],
    []
  ],
  "metadata": {
    "date_backmatter": "2560-10-20",
    "date_modified": "2560-11-27",
    "date_original": "2560-11-27",
    "doctype": "ประกาศ",
    "editors": [
      {
        "name": "พิมพ์มาดา/อัญชลี",
        "role": "จัดทำ",
        "date": "2560-12-04"
      }
    ],
    "tag": "a125-2e-2560-a0209"
  }
}