{
  "pages": [
    [
      [
        "ประกาศคณะกรรมการประมงประจำจังหวัดอ่างทอง",
        "เรื่อง กำหนดเขตเพาะเลี้ยงสัตว์น้ำสำหรับกิจการการเพาะเลี้ยงสัตว์น้ำควบคุม",
        "ประเภท การเพาะเลี้ยงจระเข้",
        "พ.ศ. ๒๕๕๙"
      ]
    ],
    []
  ],
  "metadata": {
    "date_backmatter": "2559-08-30",
    "date_modified": "2559-09-19",
    "date_original": "2559-09-19",
    "doctype": "ประกาศ",
    "editors": [
      {
        "name": "ชวัลพร/ปริยานุช",
        "role": "จัดทำ",
        "date": "2559-09-20"
      },
      {
        "name": "นุสรา",
        "role": "ตรวจ",
        "date": "2559-12-01"
      }
    ],
    "tag": "a125-2e-2559-a0087"
  }
}