{
  "pages": [
    [
      [
        "ประกาศสำนักงานประมงจังหวัดชุมพร",
        "เรื่อง กำหนดห้วงเวลาให้ผู้ประสงค์ทำการเพาะเลี้ยงสัตว์น้ำในที่จับสัตว์น้ำ ซึ่งเป็นสาธารณสมบัติของแผ่นดินมายื่นคำขอรับใบอนุญาต พ.ศ. ๒๕๖๑"
      ]
    ],
    []
  ],
  "metadata": {
    "date_backmatter": "2561-02-21",
    "date_modified": "2561-03-19",
    "date_original": "2561-03-19",
    "doctype": "ประกาศ",
    "editors": [
      {
        "name": "ภูมิกิติ",
        "role": "จัดทำ",
        "date": "2561-04-04"
      }
    ],
    "tag": "a125-2e-2561-a0039"
  }
}