{
  "pages": [
    [
      [
        "กฎกระทรวง",
        "ฉะบับที่ 1 (พ.ศ. 2490)",
        "ว่าด้วยชื่อเครื่องมือในพิกัด",
        "ออกตามความในพระราชบัญญัติการประมง",
        "พ.ศ. 2490"
      ]
    ],
    []
  ],
  "metadata": {
    "date_backmatter": "2490-04-14",
    "doctype": "กฎกระทรวง",
    "editors": [],
    "tag": "a125-2b-2492-014u"
  }
}