{
  "pages": [
    [
      [
        "พระราชกฤษฎีกา",
        "ห้ามมิให้นำสัตว์น้ำบางชนิดเข้ามาในราชอาณาจักร",
        "พ.ศ. ๒๕๔๗",
        "",
        "",
        "ภูมิพลอดุลยเดช ป.ร.",
        "ให้ไว้ ณ วันที่ ๓๐ มิถุนายน พ.ศ. ๒๕๔๗",
        "เป็นปีที่ ๕๙ ในรัชกาลปัจจุบัน"
      ]
    ],
    []
  ],
  "metadata": {
    "date_header": "2547-06-30",
    "date_modified": "2547-07-22",
    "date_original": "2547-07-22",
    "doctype": "พระราชกฤษฎีกา",
    "editors": [
      {
        "name": "พรพิมล",
        "role": "พิมพ์",
        "date": "2547-09-23"
      },
      {
        "name": "นวพร/สุนันทา",
        "role": "ตรวจ",
        "date": "2547-10-14"
      },
      {
        "name": "จุฑามาศ",
        "role": "ปรับปรุง",
        "date": "2558-07-27"
      }
    ],
    "tag": "a125-2a-2547-a0001",
    "title": "ห้ามมิให้นำสัตว์น้ำบางชนิดเข้ามาในราชอาณาจักร"
  }
}