{
  "pages": [
    [
      [
        "ประกาศกรมการจัดหางาน",
        "เรื่อง กำหนดงานอันจำเป็นและเร่งด่วน"
      ]
    ],
    []
  ],
  "metadata": {
    "date_backmatter": "2560-06-28",
    "date_modified": "2560-06-29",
    "date_original": "2560-06-29",
    "doctype": "ประกาศ",
    "editors": [
      {
        "name": "ปุณิกา/อัญชลี",
        "role": "จัดทำ",
        "date": "2560-07-03"
      },
      {
        "name": "นุสรา",
        "role": "ตรวจ",
        "date": "2560-11-09"
      }
    ],
    "tag": "a1165-2e-2560-a0003"
  }
}