{
  "pages": [
    [
      [
        "ประกาศสำนักนายกรัฐมนตรี",
        "เรื่อง การอนุมัติพระราชกำหนดการบริหารจัดการการทำงานของคนต่างด้าว",
        "พ.ศ. ๒๕๖๐"
      ]
    ],
    []
  ],
  "metadata": {
    "date_backmatter": "2560-07-12",
    "date_modified": "2560-07-14",
    "date_original": "2560-07-14",
    "doctype": "ประกาศ",
    "editors": [
      {
        "name": "พิมพ์มาดา/อัญชลี",
        "role": "จัดทำ",
        "date": "2560-07-17"
      }
    ],
    "tag": "a1165-2e-2560-a0006"
  }
}