{
  "pages": [
    [
      [
        "ประกาศกรมการจัดหางาน",
        "เรื่อง กำหนดสถานที่ยื่นคำขอและแจ้งการทำงานของคนต่างด้าว"
      ]
    ],
    []
  ],
  "metadata": {
    "date_backmatter": "2554-06-21",
    "date_modified": "2560-07-07",
    "date_original": "2554-07-12",
    "doctype": "ประกาศ",
    "editors": [
      {
        "name": "ปริยานุช",
        "role": "ผู้จัดทำ",
        "date": "2554-08-03"
      },
      {
        "name": "ณัฐวดี",
        "role": "ตรวจ",
        "date": "2554-08-03"
      },
      {
        "name": "พรวิภา",
        "role": "เพิ่มเติม",
        "date": "2560-08-08"
      }
    ],
    "tag": "a1165-2e-9999-update"
  }
}