{
  "pages": [
    [
      [
        "คำสั่งกรุงเทพมหานคร",
        "ที่ ๒๗๘๓/๒๕๖๐",
        "เรื่อง มอบอำนาจในการดำเนินการตามพระราชบัญญัติพลังงานนิวเคลียร์เพื่อสันติ พ.ศ. ๒๕๕๙",
        "ให้ข้าราชการกรุงเทพมหานครปฏิบัติราชการแทนผู้ว่าราชการกรุงเทพมหานคร"
      ]
    ],
    []
  ],
  "metadata": {
    "date_backmatter": "2560-09-07",
    "date_modified": "2560-11-23",
    "date_original": "2560-11-23",
    "editors": [
      {
        "name": "ภวรรณตรี",
        "role": "จัดทำ",
        "date": "2560-12-08"
      },
      {
        "name": "ปวันวิทย์",
        "role": "ตรวจ",
        "date": "2560-12-28"
      }
    ],
    "tag": "be18-2f-2560-a0001"
  }
}