{
  "pages": [
    [
      [
        "ประกาศสำนักงานปรมาณูเพื่อสันติ",
        "เรื่อง กำหนดแบบบัตรประจำตัวพนักงานเจ้าหน้าที่",
        "ตามพระราชบัญญัติพลังงานนิวเคลียร์เพื่อสันติ พ.ศ. ๒๕๕๙",
        "พ.ศ. ๒๕๖๐"
      ]
    ],
    []
  ],
  "metadata": {
    "date_backmatter": "2560-04-10",
    "date_modified": "2560-06-09",
    "date_original": "2560-06-09",
    "doctype": "ประกาศ",
    "editors": [
      {
        "name": "พรวิภา/ภวรรณตรี",
        "role": "จัดทำ",
        "date": "2560-06-12"
      },
      {
        "name": "ปริญสินีย์",
        "role": "ตรวจ",
        "date": "2560-07-31"
      }
    ],
    "tag": "be18-2e-2560-a0001"
  }
}