{
  "pages": [
    [
      [
        "พระราชบัญญัติ",
        "ควบคุมการขายทอดตลาดและค้าของเก่า",
        "พุทธศักราช ๒๔๗๔"
      ]
    ],
    []
  ],
  "metadata": {
    "date_backmatter": "2474-05-15",
    "date_modified": "2560-02-11",
    "date_original": "2474-05-24",
    "editors": [
      {
        "name": "ชวัลพร",
        "role": "ปรับปรุง",
        "date": "2560-02-14"
      },
      {
        "name": "นุสรา",
        "role": "ตรวจ",
        "date": "2560-02-16"
      }
    ],
    "tag": "a408-20-9999-update"
  }
}