{
  "pages": [
    [
      [
        "กฎกระทรวงมหาดไทย",
        "ออกตามความในพระราชบัญญัติควบคุมการขายทอดตลาดและค้าของเก่า",
        "พุทธศักราช ๒๔๗๔ (ฉบับที่ ๒)"
      ]
    ],
    []
  ],
  "metadata": {
    "date_backmatter": "2484-09-03",
    "date_modified": "2549-01-06",
    "date_original": "2484-09-23",
    "doctype": "กฎกระทรวง",
    "editors": [
      {
        "name": "มณฑิตา",
        "role": "ผู้จัดทำ",
        "date": "2555-05-03"
      },
      {
        "name": "วิชพงษ์",
        "role": "ผู้ตรวจ",
        "date": "2555-07-05"
      }
    ],
    "tag": "a408-2b-2549-a0002"
  }
}