{
  "pages": [
    [
      [
        "กฎกระทรวงมหาดไทย",
        "ออกตามความในพระราชบัญญัติควบคุมการขายทอดตลาดและค้าของเก่า",
        "พุทธศักราช ๒๔๗๔ (ฉบับที่ ๒)"
      ]
    ],
    []
  ],
  "metadata": {
    "date_backmatter": "2484-09-03",
    "date_modified": "2555-09-19",
    "date_original": "2484-09-23",
    "doctype": "กฎกระทรวง",
    "editors": [
      {
        "name": "ปณตภร",
        "role": "ผู้จัดทำ",
        "date": "2555-10-03"
      }
    ],
    "tag": "a408-2b-9999-update"
  }
}