{
  "pages": [
    [
      [
        "ประกาศคณะกรรมการกำกับกิจการพลังงาน",
        "เรื่อง หลักเกณฑ์การกำหนดอัตราค่าบริการก๊าซธรรมชาติสำหรับผู้รับใบอนุญาตจัดหา",
        "และค้าส่งก๊าซธรรมชาติ",
        "พ.ศ. ๒๕๖๐"
      ]
    ],
    []
  ],
  "metadata": {
    "date_backmatter": "2560-07-25",
    "date_modified": "2560-08-09",
    "date_original": "2560-08-09",
    "doctype": "ประกาศ",
    "editors": [
      {
        "name": "ปวันวิทย์/อัญชลี",
        "role": "จัดทำ",
        "date": "2560-08-11"
      }
    ],
    "tag": "a1123-2e-2560-a0003"
  }
}