{
  "pages": [
    [
      [
        "ข้อกำหนดคณะกรรมการกำกับกิจการพลังงาน",
        "สำหรับการประกอบกิจการก๊าซธรรมชาติในการปฏิบัติการระบบโครงข่ายพลังงาน",
        "พ.ศ. ๒๕๖๐"
      ]
    ],
    []
  ],
  "metadata": {
    "date_backmatter": "2560-11-07",
    "date_modified": "2560-12-26",
    "date_original": "2560-12-26",
    "editors": [
      {
        "name": "ปวันวิทย์/อัญชลี",
        "role": "จัดทำ",
        "date": "2561-01-04"
      }
    ],
    "tag": "a1123-2h-2560-a0001"
  }
}