{
  "pages": [
    [
      [
        "พระราชบัญญัติ",
        "การประกอบกิจการพลังงาน",
        "พ.ศ. ๒๕๕๐",
        "",
        "",
        "ภูมิพลอดุลยเดช ป.ร.",
        "ให้ไว้ ณ วันที่ ๙ ธันวาคม พ.ศ. ๒๕๕๐",
        "เป็นปีที่ ๖๒ ในรัชกาลปัจจุบัน"
      ]
    ],
    []
  ],
  "metadata": {
    "date_header": "2550-12-09",
    "date_modified": "2560-02-11",
    "date_original": "2550-12-10",
    "doctype": "พระราชบัญญัติ",
    "editors": [
      {
        "name": "ปริยานุช",
        "role": "ผู้จัดทำ",
        "date": "2551-01-11"
      },
      {
        "name": "วศิน",
        "role": "แก้ไข",
        "date": "2552-04-23"
      },
      {
        "name": "พรวิภา",
        "role": "เพิ่มเติม",
        "date": "2560-02-14"
      },
      {
        "name": "พจนา",
        "role": "ตรวจ",
        "date": "2560-02-20"
      }
    ],
    "tag": "a1123-20-9999-update",
    "title": "การประกอบกิจการพลังงาน"
  }
}