{
  "pages": [
    [
      [
        "ประกาศกระทรวงพลังงาน",
        "เรื่อง ระยะเวลา หลักเกณฑ์ วิธีการ และเงื่อนไขการคัดเลือกกรรมการกำกับกิจการพลังงาน",
        "พ.ศ. ๒๕๕๓"
      ]
    ],
    []
  ],
  "metadata": {
    "date_backmatter": "2553-11-24",
    "date_modified": "2553-12-08",
    "date_original": "2553-12-08",
    "doctype": "ประกาศ",
    "editors": [
      {
        "name": "ปริยานุช",
        "role": "ผู้จัดทำ",
        "date": "2553-12-14"
      },
      {
        "name": "ณัฐวดี",
        "role": "ตรวจ",
        "date": "2553-12-14"
      }
    ],
    "tag": "a1123-2e-2553-a0011"
  }
}