{
  "pages": [
    [
      [
        "ระเบียบคณะกรรมการกำกับกิจการพลังงาน",
        "ว่าด้วยมาตรฐานการให้บริการในการประกอบกิจการไฟฟ้า ของการไฟฟ้าฝ่ายผลิตแห่งประเทศไทย",
        "ประเภทใบอนุญาตควบคุมระบบไฟฟ้า",
        "พ.ศ. ๒๕๕๙"
      ]
    ],
    []
  ],
  "metadata": {
    "date_backmatter": "2559-06-30",
    "date_modified": "2559-08-23",
    "date_original": "2559-08-23",
    "editors": [
      {
        "name": "วริญา/ปริยานุช",
        "role": "จัดทำ",
        "date": "2559-08-24"
      },
      {
        "name": "นุสรา",
        "role": "ตรวจ",
        "date": "2559-11-23"
      }
    ],
    "tag": "a1123-2g-2559-a0010"
  }
}