{
  "pages": [
    [
      [
        "ระเบียบคณะกรรมการกำกับกิจการพลังงาน",
        "ว่าด้วยมาตรการป้องกัน แก้ไข และติดตามตรวจสอบผลกระทบสิ่งแวดล้อม",
        "สำหรับการใช้ก๊าซชีวภาพเป็นเชื้อเพลิงในการผลิตไฟฟ้า",
        "พ.ศ. ๒๕๖๐"
      ]
    ],
    []
  ],
  "metadata": {
    "date_backmatter": "2560-05-30",
    "date_modified": "2560-06-28",
    "date_original": "2560-06-28",
    "editors": [
      {
        "name": "ปุณิกา/อัญชลี",
        "role": "จัดทำ",
        "date": "2560-06-29"
      },
      {
        "name": "นุสรา",
        "role": "ตรวจ",
        "date": "2560-09-26"
      }
    ],
    "tag": "a1123-2g-2560-a0005"
  }
}