{
  "pages": [
    [
      [
        "ประกาศคณะกรรมการกำกับกิจการพลังงาน",
        "เรื่อง การนำส่งเงินเข้ากองทุนพัฒนาไฟฟ้าสำหรับผู้รับใบอนุญาตประกอบกิจการไฟฟ้า",
        "ประเภทใบอนุญาตผลิตไฟฟ้า (ฉบับที่ ๒)",
        "พ.ศ. ๒๕๕๙"
      ]
    ],
    []
  ],
  "metadata": {
    "date_backmatter": "2559-12-26",
    "date_modified": "2560-02-16",
    "date_original": "2560-02-16",
    "doctype": "ประกาศ",
    "editors": [
      {
        "name": "ปริยานุช",
        "role": "จัดทำ",
        "date": "2560-02-20"
      },
      {
        "name": "วริญา",
        "role": "ตรวจ",
        "date": "2560-03-10"
      }
    ],
    "tag": "a1123-2e-2560-a0001"
  }
}