{
  "pages": [
    [
      [
        "ระเบียบคณะกรรมการกำกับกิจการพลังงาน",
        "ว่าด้วยหลักเกณฑ์การยื่นเรื่องร้องเรียน การรับเรื่องร้องเรียน และวิธีพิจารณาเรื่องร้องเรียนของผู้ใช้พลังงาน",
        "เกี่ยวกับความเดือดร้อนเสียหายและข้อพิพาทระหว่างผู้ใช้พลังงานกับผู้รับใบอนุญาต",
        "พ.ศ. ๒๕๕๓"
      ]
    ],
    []
  ],
  "metadata": {
    "date_backmatter": "2553-07-22",
    "date_modified": "2553-08-04",
    "date_original": "2553-08-04",
    "editors": [
      {
        "name": "ปริยานุช",
        "role": "จัดทำ",
        "date": "2553-08-16"
      },
      {
        "name": "ณัฐวดี",
        "role": "ตรวจ",
        "date": "2553-08-16"
      },
      {
        "name": "ศิรวัชร์",
        "role": "ปรับปรุง",
        "date": "2559-12-13"
      }
    ],
    "tag": "a1123-2g-2553-a0006"
  }
}