{
  "pages": [
    [
      [
        "ประกาศคณะกรรมการกำกับกิจการพลังงาน",
        "เรื่อง บัตรประจำตัวพนักงานเจ้าหน้าที่",
        "ตามพระราชบัญญัติการประกอบกิจการพลังงาน พ.ศ. ๒๕๕๐"
      ]
    ],
    []
  ],
  "metadata": {
    "date_backmatter": "2552-09-16",
    "date_modified": "2552-11-25",
    "date_original": "2552-11-25",
    "doctype": "ประกาศ",
    "editors": [
      {
        "name": "ปริยานุช",
        "role": "จัดทำ",
        "date": "2552-12-02"
      },
      {
        "name": "นันท์นภัสร์",
        "role": "ตรวจ",
        "date": "2552-12-02"
      },
      {
        "name": "จุฑามาศ",
        "role": "ปรับปรุง",
        "date": "2559-12-06"
      }
    ],
    "tag": "a1123-2e-2552-a0012"
  }
}