{
  "pages": [
    [
      [
        "ประกาศคณะกรรมการกำกับกิจการพลังงาน",
        "เรื่อง บัตรประจำตัวพนักงานเจ้าหน้าที่",
        "ตามพระราชบัญญัติการประกอบกิจการพลังงาน พ.ศ. ๒๕๕๐ (ฉบับที่ ๒)",
        "พ.ศ. ๒๕๕๙"
      ]
    ],
    []
  ],
  "metadata": {
    "date_backmatter": "2559-07-25",
    "date_modified": "2559-08-23",
    "date_original": "2559-08-23",
    "doctype": "ประกาศ",
    "editors": [
      {
        "name": "วริญา/ปริยานุช",
        "role": "จัดทำ",
        "date": "2559-08-24"
      },
      {
        "name": "นุสรา",
        "role": "ตรวจ",
        "date": "2559-11-10"
      }
    ],
    "tag": "a1123-2e-2559-a0003"
  }
}