{
  "pages": [
    [
      [
        "ประกาศคณะกรรมการกำกับกิจการพลังงาน",
        "เรื่อง การนำส่งเงินเข้ากองทุนพัฒนาไฟฟ้าสำหรับผู้รับใบอนุญาตประกอบกิจการไฟฟ้า",
        "ประเภทใบอนุญาตผลิตไฟฟ้า",
        "พ.ศ. ๒๕๕๓"
      ]
    ],
    []
  ],
  "metadata": {
    "date_backmatter": "2553-11-15",
    "date_modified": "2553-12-20",
    "date_original": "2553-12-20",
    "doctype": "ประกาศ",
    "editors": [
      {
        "name": "ปริยานุช",
        "role": "ผู้จัดทำ",
        "date": "2553-12-28"
      },
      {
        "name": "ณัฐวดี",
        "role": "ตรวจ",
        "date": "2553-12-28"
      }
    ],
    "tag": "a1123-2e-2553-a0012"
  }
}