{
  "pages": [
    [
      [
        "ประกาศคณะกรรมการกำกับกิจการพลังงาน",
        "เรื่อง มาตรการป้องกัน แก้ไข และติดตามตรวจสอบผลกระทบสิ่งแวดล้อม",
        "สำหรับผู้ประกอบกิจการผลิตไฟฟ้าพลังงานแสงอาทิตย์จากเทคโนโลยีแผงโฟโตโวลเทอิก",
        "ที่เข้าข่ายต้องได้รับใบอนุญาตประกอบกิจการผลิตไฟฟ้า",
        "พ.ศ. ๒๕๕๗"
      ]
    ],
    []
  ],
  "metadata": {
    "date_backmatter": "2557-09-15",
    "date_modified": "2557-10-10",
    "date_original": "2557-10-10",
    "doctype": "ประกาศ",
    "editors": [
      {
        "name": "ปริยานุช",
        "role": "ผู้จัดทำ",
        "date": "2557-10-15"
      },
      {
        "name": "กฤษดายุทธ",
        "role": "ผู้ตรวจ",
        "date": "2557-10-15"
      }
    ],
    "tag": "a1123-2e-2557-a0003"
  }
}