{
  "pages": [
    [
      [
        "ประกาศคณะกรรมการกำกับกิจการพลังงาน",
        "เรื่อง หลักเกณฑ์ วิธีการ และเงื่อนไข การขอข้อมูล",
        "เกี่ยวกับการใช้บริการจากผู้รับใบอนุญาตการประกอบกิจการพลังงาน",
        "พ.ศ. ๒๕๕๙"
      ]
    ],
    []
  ],
  "metadata": {
    "date_backmatter": "2559-09-30",
    "date_modified": "2559-10-18",
    "date_original": "2559-10-18",
    "doctype": "ประกาศ",
    "editors": [
      {
        "name": "ชนิกา/ปริยานุช",
        "role": "จัดทำ",
        "date": "2559-10-20"
      },
      {
        "name": "นุสรา",
        "role": "ตรวจ",
        "date": "2560-01-06"
      }
    ],
    "tag": "a1123-2e-2559-a0007"
  }
}