{
  "pages": [
    [
      [
        "ประกาศคณะกรรมการกำกับกิจการพลังงาน",
        "เรื่อง หลักเกณฑ์ วิธีการ และเงื่อนไขการจ่ายค่าทดแทนความเสียหาย เพื่อการสำรวจหา",
        "สถานที่ตั้ง ซ่อมหรือบำรุงรักษา ระบบโครงข่ายพลังงาน",
        "พ.ศ. ๒๕๕๖"
      ]
    ],
    []
  ],
  "metadata": {
    "date_backmatter": "2556-12-09",
    "date_modified": "2556-12-26",
    "date_original": "2556-12-26",
    "doctype": "ประกาศ",
    "editors": [
      {
        "name": "ปริยานุช",
        "role": "ผู้จัดทำ",
        "date": "2557-01-07"
      },
      {
        "name": "โชติกานต์",
        "role": "ผู้ตรวจ",
        "date": "2557-01-07"
      }
    ],
    "tag": "a1123-2e-2556-a0004"
  }
}