{
  "pages": [
    [
      [
        "ระเบียบคณะกรรมการกำกับกิจการพลังงาน",
        "ว่าด้วยค่าตอบแทนและค่าใช้จ่ายอื่นในการปฏิบัติงานของคณะกรรมการผู้ใช้พลังงานประจำเขต",
        "พ.ศ. ๒๕๕๕"
      ]
    ],
    []
  ],
  "metadata": {
    "date_backmatter": "2555-02-15",
    "date_modified": "2558-02-13",
    "date_original": "2555-04-03",
    "editors": [
      {
        "name": "ปริยานุช",
        "role": "ผู้จัดทำ",
        "date": "2555-04-05"
      },
      {
        "name": "นุสรา",
        "role": "ปรับปรุง",
        "date": "2558-03-20"
      }
    ],
    "tag": "a1123-2g-9993-update"
  }
}