{
  "pages": [
    [
      [
        "พระราชบัญญัติ",
        "ธนาคารเพื่อการส่งออกและนำเข้าแห่งประเทศไทย",
        "พ.ศ. ๒๕๓๖",
        "",
        "",
        "ภูมิพลอดุลยเดช ป.ร.",
        "ให้ไว้ ณ วันที่ ๒๗ สิงหาคม พ.ศ. ๒๕๓๖",
        "เป็นปีที่ ๔๘ ในรัชกาลปัจจุบัน"
      ]
    ],
    []
  ],
  "metadata": {
    "date_header": "2536-08-27",
    "date_modified": "2561-07-27",
    "date_original": "2536-09-06",
    "doctype": "พระราชบัญญัติ",
    "editors": [
      {
        "name": "นุสรา",
        "role": "เพิ่มเติม",
        "date": "2561-08-06"
      }
    ],
    "tag": "b809-20-9999-update",
    "title": "ธนาคารเพื่อการส่งออกและนำเข้าแห่งประเทศไทย"
  }
}