{
  "pages": [
    [
      [
        "พระราชกฤษฎีกา",
        "พระราชทานอภัยโทษ",
        "พ.ศ. ๒๕๓๕",
        "",
        "",
        "ภูมิพลอดุลยเดช ป.ร.",
        "ให้ไว้ ณ วันที่ ๒๙ มีนาคม พ.ศ. ๒๕๓๕",
        "เป็นปีที่ ๔๗ ในรัชกาลปัจจุบัน"
      ]
    ],
    []
  ],
  "metadata": {
    "date_backmatter": "2535-08-12",
    "date_header": "2535-03-29",
    "date_modified": "2535-04-01",
    "date_original": "2535-04-01",
    "doctype": "พระราชกฤษฎีกา",
    "editors": [
      {
        "name": "นฤตยา",
        "role": "ผู้จัดทำ",
        "date": "2553-11-08"
      },
      {
        "name": "เอกฤทธิ์",
        "role": "ตรวจ",
        "date": "2553-11-25"
      }
    ],
    "tag": "bb05-2a-2535-a0001",
    "title": "พระราชทานอภัยโทษ"
  }
}