{
  "pages": [
    [
      [
        "พระราชบัญญัติ",
        "แก้ไขเพิ่มเติมประมวลกฎหมายวิธีพิจารณาความอาญา (ฉบับที่ ๓๓)",
        "พ.ศ. ๒๕๖๒",
        "",
        "",
        "สมเด็จพระเจ้าอยู่หัวมหาวชิราลงกรณ บดินทรเทพยวรางกูร",
        "ให้ไว้ ณ วันที่ ๑๗ กุมภาพันธ์ พ.ศ. ๒๕๖๒",
        "เป็นปีที่ ๔ ในรัชกาลปัจจุบัน",
        "",
        "สมเด็จพระเจ้าอยู่หัวมหาวชิราลงกรณ บดินทรเทพยวรางกูร มีพระราชโองการโปรดเกล้าฯ ให้ประกาศว่า",
        "",
        "โดยที่เป็นการสมควรแก้ไขเพิ่มเติมประมวลกฎหมายวิธีพิจารณาความอาญา",
        "",
        "จึงทรงพระกรุณาโปรดเกล้าฯ ให้ตราพระราชบัญญัติขึ้นไว้โดยคำแนะนำและยินยอมของสภานิติบัญญัติแห่งชาติทำหน้าที่รัฐสภา ดังต่อไปนี้",
        "",
        "มาตรา ๑ พระราชบัญญัตินี้เรียกว่า “พระราชบัญญัติแก้ไขเพิ่มเติมประมวลกฎหมายวิธีพิจารณาความอาญา (ฉบับที่ ๓๓) พ.ศ. ๒๕๖๒”",
        "",
        "มาตรา ๒ พระราชบัญญัตินี้ให้ใช้บังคับตั้งแต่วันถัดจากวันประกาศในราชกิจจานุเบกษาเป็นต้นไป",
        "",
        "มาตรา ๓ ให้เพิ่มความต่อไปนี้เป็นมาตรา ๑๖๕/๑ และมาตรา ๑๖๕/๒ แห่งประมวลกฎหมายวิธีพิจารณาความอาญา",
        "“มาตรา ๑๖๕/๑ ในคดีที่มีอัตราโทษประหารชีวิต หรือในคดีที่จำเลยมีอายุไม่เกินสิบแปดปีในวันที่ถูกฟ้องต่อศาล ในการไต่สวนมูลฟ้องตามมาตรา ๑๖๕ ถ้าจำเลยมาศาลเมื่อใด และจำเลยไม่มีทนายความ ก็ให้ศาลตั้งทนายความให้",
        "ในคดีที่มีอัตราโทษจำคุก ในการไต่สวนมูลฟ้องตามมาตรา ๑๖๕ ถ้าจำเลยมาศาลเมื่อใด ให้ศาลถามจำเลยว่ามีทนายความหรือไม่ ถ้าไม่มีและจำเลยต้องการทนายความ ก็ให้ศาลตั้งทนายความให้",
        "ให้ศาลจ่ายเงินรางวัลและค่าใช้จ่ายแก่ทนายความที่ศาลตั้งตามมาตรานี้ โดยคำนึงถึงสภาพแห่งคดีและสภาวะทางเศรษฐกิจ ทั้งนี้ ตามระเบียบที่คณะกรรมการบริหารศาลยุติธรรมกำหนดโดยความเห็นชอบจากกระทรวงการคลัง",
        "มาตรา ๑๖๕/๒ ในการไต่สวนมูลฟ้อง จำเลยอาจแถลงให้ศาลทราบถึงข้อเท็จจริงหรือข้อกฎหมายอันสำคัญที่ศาลควรสั่งว่าคดีไม่มีมูล และจะระบุในคำแถลงถึงตัวบุคคล เอกสาร หรือวัตถุที่จะสนับสนุนข้อเท็จจริงตามคำแถลงของจำเลยด้วยก็ได้ กรณีเช่นว่านี้ ศาลอาจเรียกบุคคล เอกสาร หรือวัตถุดังกล่าวมาเป็นพยานศาลเพื่อประกอบการวินิจฉัยสั่งคดีได้ตามที่จำเป็นและสมควร โดยโจทก์และจำเลยอาจถามพยานศาลได้เมื่อได้รับอนุญาตจากศาล”",
        "",
        "มาตรา ๔ ให้เพิ่มความต่อไปนี้เป็นวรรคสองของมาตรา ๑๖๗ แห่งประมวลกฎหมายวิธีพิจารณาความอาญา",
        "“คำสั่งของศาลที่ว่าคดีมีมูลให้แสดงข้อเท็จจริงและข้อกฎหมายพร้อมเหตุผลประกอบตามสมควรด้วย”",
        "",
        "มาตรา ๕ ให้เพิ่มความต่อไปนี้เป็น (๔) และ (๕) ของวรรคหนึ่งของมาตรา ๑๗๒ ทวิ แห่งประมวลกฎหมายวิธีพิจารณาความอาญา",
        "“(๔) จำเลยไม่อาจมาฟังการพิจารณาและสืบพยานได้เนื่องจากความเจ็บป่วยหรือมีเหตุจำเป็นอย่างอื่นอันมิอาจก้าวล่วงได้ เมื่อจำเลยมีทนายความและจำเลยได้รับอนุญาตจากศาลที่จะไม่มาฟังการพิจารณาและสืบพยาน",
        "(๕) ในระหว่างการพิจารณาและสืบพยาน ศาลมีคำสั่งให้จำเลยออกจากห้องพิจารณาเพราะเหตุขัดขวางการพิจารณา หรือจำเลยออกจากห้องพิจารณาโดยไม่ได้รับอนุญาตจากศาล”",
        "",
        "มาตรา ๖ ให้เพิ่มความต่อไปนี้เป็นมาตรา ๑๗๒ ทวิ/๑ และมาตรา ๑๗๒ ทวิ/๒ แห่งประมวลกฎหมายวิธีพิจารณาความอาญา",
        "“มาตรา ๑๗๒ ทวิ/๑ ภายหลังที่ศาลได้ดำเนินการตามมาตรา ๑๗๒ วรรคสอง แล้ว เมื่อศาลเห็นว่าจำเลยหลบหนีหรือไม่มาฟังการพิจารณาและสืบพยานโดยไม่มีเหตุอันสมควร ให้ศาลออกหมายจับจำเลย หากไม่ได้ตัวจำเลยมาภายในสามเดือนนับแต่วันออกหมายจับ เมื่อศาลเห็นเป็นการสมควรเพื่อประโยชน์แห่งความยุติธรรมที่จะให้การพิจารณาเป็นไปโดยไม่ชักช้า และจำเลยมีทนายความ ให้ศาลมีอำนาจพิจารณาและสืบพยานลับหลังจำเลยได้ และเมื่อศาลพิจารณาคดีเสร็จแล้ว ให้ศาลมีคำพิพากษาในคดีนั้นต่อไป",
        "การพิจารณาและสืบพยานตามวรรคหนึ่งต้องมิใช่คดีที่มีอัตราโทษประหารชีวิต หรือคดีที่จำเลยมีอายุไม่เกินสิบแปดปีในวันที่ถูกฟ้องต่อศาล",
        "มาตรา ๑๗๒ ทวิ/๒ ในคดีที่จำเลยเป็นนิติบุคคล ภายหลังที่ศาลได้ดำเนินการตามมาตรา ๑๗๒ วรรคสอง แล้ว เมื่อมีกรณีที่ศาลได้ออกหมายจับผู้จัดการหรือผู้แทนของนิติบุคคลนั้นแล้ว แต่ยังจับตัวมาไม่ได้ภายในสามเดือนนับแต่วันออกหมายจับ และไม่มีผู้แทนอื่นของนิติบุคคลมาดำเนินการแทนนิติบุคคลนั้นได้ เมื่อศาลเห็นเป็นการสมควรเพื่อประโยชน์แห่งความยุติธรรมที่จะให้การพิจารณาเป็นไปโดยไม่ชักช้า ให้ศาลมีอำนาจพิจารณาและสืบพยานลับหลังจำเลยได้ และเมื่อศาลพิจารณาคดีเสร็จแล้ว ให้ศาลมีคำพิพากษาในคดีนั้นต่อไป”",
        "",
        "มาตรา ๗ ให้เพิ่มความต่อไปนี้เป็นมาตรา ๒๕๗ แห่งประมวลกฎหมายวิธีพิจารณาความอาญา ซึ่งถูกยกเลิกโดยพระราชบัญญัติแก้ไขเพิ่มเติมประมวลกฎหมายวิธีพิจารณาความอาญา (ฉบับที่ ๒๘) พ.ศ. ๒๕๕๑",
        "“มาตรา ๒๕๗ ในคดีซึ่งราษฎรเป็นโจทก์ โจทก์จะต้องเสียค่าใช้จ่ายในการส่งสำเนาคำฟ้องและหมายเรียกให้แก่จำเลยโดยค่าใช้จ่ายดังกล่าวจะต้องมีจำนวนไม่สูงเกินสมควร”",
        "",
        "มาตรา ๘ บทบัญญัติมาตรา ๑๖๕/๑ มาตรา ๑๖๕/๒ และมาตรา ๑๖๗ แห่งประมวลกฎหมายวิธีพิจารณาความอาญา ซึ่งแก้ไขเพิ่มเติมโดยพระราชบัญญัตินี้ ไม่ใช้บังคับแก่คดีมีมูลที่ศาลได้ประทับฟ้องไว้ตามมาตรา ๑๖๗ ก่อนวันที่พระราชบัญญัตินี้ใช้บังคับ",
        "",
        "มาตรา ๙ ให้ประธานศาลฎีการักษาการตามพระราชบัญญัตินี้",
        "",
        "",
        "ผู้รับสนองพระราชโองการ",
        "พลเอก ประยุทธ์ จันทร์โอชา",
        "นายกรัฐมนตรี",
        "",
        "หมายเหตุ :- เหตุผลในการประกาศใช้พระราชบัญญัติฉบับนี้ คือ โดยที่บทบัญญัติของกฎหมายเกี่ยวกับการไต่สวนมูลฟ้องในปัจจุบันยังไม่เอื้อต่อการคุ้มครองสิทธิของจำเลย เนื่องจากจำเลยอาจไม่มีทนายความคอยช่วยเหลือและไม่สามารถแถลงให้ศาลทราบถึงข้อเท็จจริงหรือข้อกฎหมายอันสำคัญที่ศาลควรสั่งว่าคดีไม่มีมูล และในชั้นพิจารณาคดีหากจำเลยไม่มาศาล ศาลไม่สามารถสืบพยานต่อไปได้จนกว่าจะได้ตัวจำเลยมาหรือกรณีที่ไม่มีผู้แทนอื่นของนิติบุคคลมาดำเนินการแทนนิติบุคคลนั้นได้ ซึ่งทำให้เกิดความล่าช้าและส่งผลกระทบต่อหลักการอำนวยความยุติธรรมที่รวดเร็วและเป็นธรรม ตลอดจนส่งผลกระทบต่อความเชื่อมั่นและความศรัทธาที่มีต่อระบบศาลยุติธรรม สมควรแก้ไขเพิ่มเติมประมวลกฎหมายวิธีพิจารณาความอาญาในเรื่องดังกล่าว และโดยที่เป็นการสมควรให้การเรียกเก็บค่าใช้จ่ายในการส่งสำเนาคำฟ้องและหมายเรียกให้แก่จำเลยมีจำนวนไม่สูงเกินสมควร จึงจำเป็นต้องตราพระราชบัญญัตินี้",
        "",
        "",
        "",
        "",
        "พิไลภรณ์/จัดทำ",
        "๒๐ กุมภาพันธ์ ๒๕๖๒",
        "",
        "วิชพงษ์/ตรวจ",
        "๒๐ กุมภาพันธ์ ๒๕๖๒"
      ]
    ],
    []
  ],
  "metadata": {
    "date_header": "2562-02-17",
    "date_modified": "2562-02-19",
    "date_original": "2562-02-19",
    "doctype": "พระราชบัญญัติ",
    "editors": [],
    "tag": "bb05-20-2562-a0001",
    "title": "แก้ไขเพิ่มเติมประมวลกฎหมายวิธีพิจารณาความอาญา (ฉบับที่ ๓๓)"
  }
}