{
  "pages": [
    [
      [
        "พระราชกฤษฎีกา",
        "พระราชทานอภัยโทษ",
        "พ.ศ. ๒๕๓๑",
        "",
        "",
        "ภูมิพลอดุลเดช ป.ร.",
        "ให้ไว้ ณ วันที่ ๓๐ มิถุนายน พ.ศ. ๒๕๓๑",
        "เป็นปีที่ ๔๓ ในรัชกาลปัจจุบัน"
      ]
    ],
    []
  ],
  "metadata": {
    "date_backmatter": "2531-07-02",
    "date_header": "2531-06-30",
    "date_modified": "2531-07-01",
    "date_original": "2531-07-01",
    "doctype": "พระราชกฤษฎีกา",
    "editors": [
      {
        "name": "นฤตยา",
        "role": "ผู้จัดทำ",
        "date": "2553-11-08"
      },
      {
        "name": "เอกฤทธิ์",
        "role": "ตรวจ",
        "date": "2553-11-25"
      }
    ],
    "tag": "bb05-2a-2531-a0001",
    "title": "พระราชทานอภัยโทษ"
  }
}