{
  "pages": [
    [
      [
        "กฎกระทรวง",
        "กำหนดสถานที่อื่นที่ใช้ในการขัง จำคุก หรือควบคุมผู้ต้องหา จำเลย",
        "หรือผู้ซึ่งต้องจำคุกตามคำพิพากษาถึงที่สุด",
        "พ.ศ. ๒๕๕๒"
      ]
    ],
    []
  ],
  "metadata": {
    "date_backmatter": "2552-09-29",
    "date_modified": "2552-10-15",
    "date_original": "2552-10-15",
    "doctype": "กฎกระทรวง",
    "editors": [
      {
        "name": "นฤตยา",
        "role": "ผู้จัดทำ",
        "date": "2553-11-03"
      },
      {
        "name": "เอกฤทธิ์",
        "role": "ตรวจ",
        "date": "2553-11-22"
      }
    ],
    "tag": "bb05-2b-2552-a0001"
  }
}