{
  "pages": [
    [
      [
        "ระเบียบคณะกรรมการบริหารศาลยุติธรรม",
        "ว่าด้วยการจ่ายค่าพาหนะ ค่าป่วยการ และค่าเช่าที่พักแก่พยานซึ่งมาศาลตามหมายเรียกในคดีอาญา",
        "พ.ศ. ๒๕๖๑"
      ]
    ],
    []
  ],
  "metadata": {
    "date_backmatter": "2561-02-26",
    "date_modified": "2561-03-07",
    "date_original": "2561-03-07",
    "editors": [
      {
        "name": "พรวิภา",
        "role": "จัดทำ",
        "date": "2561-03-07"
      },
      {
        "name": "นุสรา",
        "role": "ตรวจ",
        "date": "2561-10-11"
      }
    ],
    "tag": "bb05-2g-2561-a0001"
  }
}