{
  "pages": [
    [
      [
        "พระราชบัญญัติ",
        "แก้ไขเพิ่มเติมประมวลกฎหมายวิธีพิจารณาความอาญา (ฉบับที่ ๒๑)",
        "พ.ศ. ๒๕๔๒",
        "_______",
        "",
        "ภูมิพลอดุลยเดช ป.ร.",
        "ให้ไว้ ณ วันที่ ๒๙ ธันวาคม พ.ศ. ๒๕๔๒",
        "เป็นปีที่ ๕๔ ในรัชกาลปัจจุบัน",
        "",
        "พระบาทสมเด็จพระปรมินทรมหาภูมิพลอดุลยเดช มีพระบรมราชโองการ",
        "โปรดเกล้าฯ ให้ประกาศว่า",
        "",
        "โดยที่เป็นการสมควรแก้ไขเพิ่มเติมประมวลกฎหมายวิธีพิจารณาความอาญา",
        "",
        "พระราชบัญญัตินี้มีบทบัญญัติบางประการเกี่ยวกับการจำกัดสิทธิและเสรีภาพ",
        "ของบุคคลซึ่งมาตรา ๒๙ ประกอบกับมาตรา ๓๑ มาตรา ๓๕ มาตรา ๓๗ และมาตรา ๔๘ ของ",
        "รัฐธรรมนูญแห่งราชอาณาจักรไทย บัญญัติให้กระทำได้โดยอาศัยอำนาจตามบทบัญญัติแห่ง",
        "กฎหมาย",
        "",
        "จึงทรงพระกรุณาโปรดเกล้าฯ ให้ตราพระราชบัญญัติขึ้นไว้โดยคำแนะนำและ",
        "ยินยอมของรัฐสภา ดังต่อไปนี้",
        "",
        "มาตรา ๑ พระราชบัญญัตินี้เรียกว่า “พระราชบัญญัติแก้ไขเพิ่มเติมประมวล",
        "กฎหมายวิธีพิจารณาความอาญา (ฉบับที่ ๒๑) พ.ศ. ๒๕๔๒”",
        "",
        "มาตรา ๒* พระราชบัญญัตินี้ให้ใช้บังคับเมื่อพ้นกำหนดหนึ่งร้อยแปดสิบวัน",
        "นับแต่วันประกาศในราชกิจจานุเบกษาเป็นต้นไป",
        "*[รก. ๒๕๔๒/๑๓๗ก/๑๗/ ๓๐ ธันวาคม ๒๕๔๒]",
        "",
        "มาตรา ๓ ให้ยกเลิกความในวรรคสามของมาตรา ๑๔๙ แห่งประมวลกฎหมาย",
        "วิธีพิจารณาความอาญา และให้ใช้ความต่อไปนี้แทน",
        "“ผู้ใดละเลยไม่กระทำหน้าที่ดังบัญญัติไว้ในมาตรานี้ ต้องระวางโทษปรับไม่เกิน",
        "หนึ่งพันบาท”",
        "",
        "มาตรา ๔ ให้ยกเลิกความในมาตรา ๑๕๐ แห่งประมวลกฎหมายวิธีพิจารณา",
        "ความอาญาซึ่งแก้ไขเพิ่มเติมโดยพระราชบัญญัติแก้ไขเพิ่มเติมประมวลกฎหมายวิธีพิจารณาความ",
        "อาญา (ฉบับที่ ๑๒) พ.ศ. ๒๕๒๓ และให้ใช้ความต่อไปนี้แทน",
        "“มาตรา ๑๕๐ ในกรณีที่จะต้องมีการชันสูตรพลิกศพ ให้พนักงานสอบสวนแห่ง",
        "ท้องที่ที่ศพนั้นอยู่กับแพทย์ทางนิติเวชศาสตร์ซึ่งได้รับวุฒิบัตรหรือได้รับหนังสืออนุมัติจาก",
        "แพทยสภา ทำการชันสูตรพลิกศพโดยเร็ว ถ้าแพทย์ทางนิติเวชศาสตร์ดังกล่าวไม่มีหรือไม่อาจ",
        "ปฏิบัติหน้าที่ได้ ให้แพทย์ประจำโรงพยาบาลของรัฐปฏิบัติหน้าที่ ถ้าแพทย์ประจำโรงพยาบาล",
        "ของรัฐไม่มีหรือไม่อาจปฏิบัติหน้าที่ได้ให้แพทย์ประจำสำนักงานสาธารณสุขจังหวัดปฏิบัติหน้าที่",
        "ถ้าแพทย์ประจำสำนักงานสาธารณสุขจังหวัดไม่มีหรือไม่อาจปฏิบัติหน้าที่ได้ ให้แพทย์ประจำ",
        "โรงพยาบาลของเอกชนหรือแพทย์ผู้ประกอบวิชาชีพเวชกรรมที่ขึ้นทะเบียนเป็นแพทย์อาสาสมัคร",
        "ตามระเบียบของกระทรวงสาธารณสุขปฏิบัติหน้าที่ และในการปฏิบัติหน้าที่ดังกล่าว ให้แพทย์",
        "ประจำโรงพยาบาลของเอกชนหรือแพทย์ผู้ประกอบวิชาชีพเวชกรรมผู้นั้น เป็นเจ้าพนักงานตาม",
        "ประมวลกฎหมายอาญา ทั้งนี้ ให้พนักงานสอบสวนและแพทย์ดังกล่าวทำบันทึกรายละเอียดแห่ง",
        "การชันสูตรพลิกศพทันที และให้แพทย์ดังกล่าวทำรายงานแนบท้ายบันทึกรายละเอียดแห่งการ",
        "ชันสูตรพลิกศพด้วยภายในเจ็ดวันนับแต่วันที่ได้รับแจ้งเรื่อง ถ้ามีความจำเป็นให้ขยายระยะเวลา",
        "ออกไปได้ไม่เกินสองครั้ง ครั้งละไม่เกินสามสิบวัน แต่ต้องบันทึกเหตุผลและความจำเป็นในการ",
        "ขยายระยะเวลาทุกครั้งไว้ในสำนวนชันสูตรพลิกศพ รายงานดังกล่าวให้ถือเป็นส่วนหนึ่งของ",
        "สำนวนชันสูตรพลิกศพ และในกรณีที่ความตายมิได้เป็นผลแห่งการกระทำผิดอาญา ให้พนักงาน",
        "สอบสวนส่งสำนวนชันสูตรพลิกศพไปยังพนักงานอัยการเมื่อเสร็จสิ้นการชันสูตรพลิกศพโดยเร็ว",
        "และให้พนักงานอัยการดำเนินการต่อไปตามมาตรา ๑๕๖",
        "ให้เป็นหน้าที่ของพนักงานสอบสวนแจ้งแก่ผู้มีหน้าที่ไปทำการชันสูตรพลิกศพ",
        "ทราบ และก่อนการชันสูตรพลิกศพ ให้พนักงานสอบสวนแจ้งให้สามี ภริยา ผู้บุพการี ผู้สืบสันดาน",
        "ผู้แทนโดยชอบธรรม ผู้อนุบาล หรือญาติของผู้ตายอย่างน้อยหนึ่งคนทราบเท่าที่จะทำได้",
        "ในกรณีที่มีความตายเกิดขึ้นโดยการกระทำของเจ้าพนักงานซึ่งอ้างว่าปฏิบัติ",
        "ราชการตามหน้าที่หรือตายในระหว่างอยู่ในความควบคุมของเจ้าพนักงานซึ่งอ้างว่าปฏิบัติราชการ",
        "ตามหน้าที่ ให้พนักงานอัยการและพนักงานฝ่ายปกครองตำแหน่งตั้งแต่ระดับปลัดอำเภอหรือ",
        "เทียบเท่าขึ้นไปแห่งท้องที่ที่ศพนั้นอยู่เป็นผู้ชันสูตรพลิกศพร่วมกับพนักงานสอบสวนและแพทย์",
        "ตามวรรคหนึ่ง และให้นำบทบัญญัติในวรรคสองมาใช้บังคับ",
        "เมื่อได้มีการชันสูตรพลิกศพตามวรรคสามแล้ว ให้พนักงานสอบสวนทำสำนวน",
        "ชันสูตรพลิกศพแล้วส่งไปยังพนักงานอัยการภายในสามสิบวันนับแต่วันที่ได้ทราบเรื่อง ถ้ามีความ",
        "จำเป็นให้ขยายระยะเวลาออกไปได้ไม่เกินสองครั้ง ครั้งละไม่เกินสามสิบวัน แต่ต้องบันทึกเหตุผล",
        "และความจำเป็นในการขยายระยะเวลาทุกครั้งไว้ในสำนวนชันสูตรพลิกศพ",
        "เมื่อได้รับสำนวนชันสูตรพลิกศพแล้ว ให้พนักงานอัยการทำคำร้องขอต่อศาล",
        "ชั้นต้นแห่งท้องที่ที่ศพนั้นอยู่ เพื่อให้ศาลทำการไต่สวนและทำคำสั่งแสดงว่าผู้ตายคือใคร ตายที่ไหน เมื่อใด และถึงเหตุและพฤติการณ์ที่ตาย ถ้าตายโดยคนทำร้ายให้กล่าวว่าใครเป็นผู้กระทำร้ายเท่าที่จะทราบได้ ภายในสามสิบวันนับแต่วันที่ได้รับสำนวน ถ้ามีความจำเป็น ให้ขยายระยะเวลาออกไปได้ไม่เกินสองครั้ง ครั้งละไม่เกินสามสิบวัน แต่ต้องบันทึกเหตุผลและความจำเป็นในการขยายระยะเวลาทุกครั้งไว้ในสำนวนชันสูตรพลิกศพ",
        "ในการปฏิบัติหน้าที่ตามวรรคหนึ่ง วรรคสาม วรรคสี่ และวรรคห้า ให้พนักงาน",
        "สอบสวนปฏิบัติตามคำสั่งของพนักงานอัยการ",
        "ในการไต่สวนตามวรรคห้า ให้ศาลปิดประกาศแจ้งกำหนดวันที่จะทำการไต่สวน",
        "ไว้ที่ศาล และให้พนักงานอัยการยื่นคำร้องต่อศาลขอให้ศาลส่งสำเนาคำร้องและแจ้งกำหนดวันนัด",
        "ไต่สวนให้สามี ภริยา ผู้บุพการี ผู้สืบสันดาน ผู้แทนโดยชอบธรรม ผู้อนุบาล หรือญาติของผู้ตายตามลำดับอย่างน้อยหนึ่งคนเท่าที่จะทำได้ทราบก่อนวันนัดไต่สวนไม่น้อยกว่าสิบห้าวันและให้พนักงานอัยการนำพยานหลักฐานทั้งปวงที่แสดงถึงการตายมาสืบ",
        "เมื่อศาลได้ปิดประกาศแจ้งกำหนดวันที่จะทำการไต่สวนแล้ว และก่อนการ",
        "ไต่สวนเสร็จสิ้น สามี ภริยา ผู้บุพการี ผู้สืบสันดาน ผู้แทนโดยชอบธรรม ผู้อนุบาล หรือญาติของ",
        "ผู้ตายมีสิทธิยื่นคำร้องต่อศาลขอเข้ามาซักถามพยานที่พนักงานอัยการนำสืบและนำสืบพยาน",
        "หลักฐานอื่นได้ด้วย เพื่อการนี้ สามี ภริยา ผู้บุพการี ผู้สืบสันดาน ผู้แทนโดยชอบธรรม ผู้อนุบาล",
        "หรือญาติของผู้ตายมีสิทธิแต่งตั้งทนายความดำเนินการแทนได้ หากไม่มีทนายความที่ได้รับการ",
        "แต่งตั้งจากบุคคลดังกล่าวเข้ามาในคดีให้ศาลตั้งทนายความขึ้นเพื่อทำหน้าที่ทนายความฝ่ายญาติ",
        "ผู้ตาย",
        "เมื่อศาลเห็นสมควรเพื่อประโยชน์แห่งความยุติธรรม ศาลจะเรียกพยานที่นำ",
        "สืบมาแล้วมาสืบเพิ่มเติมหรือเรียกพยานหลักฐานอื่นมาสืบก็ได้ และศาลอาจขอให้ผู้ทรงคุณวุฒิ",
        "หรือผู้เชี่ยวชาญมาให้ความเห็นเพื่อประกอบการไต่สวนและทำคำสั่ง แต่ทั้งนี้ ไม่ตัดสิทธิของผู้นำ",
        "สืบพยานหลักฐานตามวรรคแปดที่จะขอให้เรียกผู้ทรงคุณวุฒิหรือผู้เชี่ยวชาญอื่นมาให้ความเห็นโต้",
        "แย้งหรือเพิ่มเติมความเห็นของผู้ทรงคุณวุฒิหรือผู้เชี่ยวชาญดังกล่าว",
        "คำสั่งของศาลตามมาตรานี้ให้ถึงที่สุด แต่ไม่กระทบกระเทือนถึงสิทธิฟ้องร้อง",
        "และการพิจารณาพิพากษาคดีของศาล หากพนักงานอัยการหรือบุคคลอื่นได้ฟ้องหรือจะฟ้องคดี",
        "เกี่ยวกับการตายนั้น",
        "เมื่อศาลได้มีคำสั่งแล้ว ให้ส่งสำนวนการไต่สวนของศาลไปยังพนักงานอัยการ",
        "เพื่อส่งแก่พนักงานสอบสวนดำเนินการต่อไป",
        "แพทย์ตามวรรคหนึ่ง เจ้าพนักงานผู้ได้ทำการชันสูตรพลิกศพ และผู้ทรงคุณวุฒิ",
        "หรือผู้เชี่ยวชาญที่ศาลขอให้มาให้ความเห็นตามมาตรานี้มีสิทธิได้รับค่าตอบแทน หรือค่าป่วยการ",
        "ค่าพาหนะเดินทางและค่าเช่าที่พัก ตามระเบียบที่กระทรวงยุติธรรมกำหนดโดยความเห็นชอบของ",
        "กระทรวงการคลังส่วนทนายความที่ศาลตั้งตามมาตรานี้ มีสิทธิได้รับเงินรางวัลและค่าใช้จ่ายเช่น",
        "เดียวกับทนายความที่ศาลตั้งตามมาตรา ๑๗๓”",
        "",
        "มาตรา ๕ ให้เพิ่มความต่อไปนี้เป็นมาตรา ๑๕๐ ทวิ แห่งประมวลกฎหมายวิธี",
        "พิจารณาความอาญา",
        "“มาตรา ๑๕๐ ทวิ ผู้ใดกระทำการใด ๆ แก่ศพหรือสภาพแวดล้อมในบริเวณที่",
        "พบศพก่อนการชันสูตรพลิกศพเสร็จสิ้น ในประการที่น่าจะทำให้การชันสูตรพลิกศพหรือผลทางคดีเปลี่ยนแปลงไป เว้นแต่จำเป็นต้องกระทำเพื่อป้องกันอันตรายแก่อนามัยของประชาชนหรือ",
        "เพื่อประโยชน์สาธารณะอย่างอื่นต้องระวางโทษจำคุกตั้งแต่หกเดือนถึงสองปี หรือปรับตั้งแต่",
        "หนึ่งหมื่นบาทถึงสี่หมื่นบาท หรือทั้งจำทั้งปรับ",
        "ถ้าการกระทำความผิดตามวรรคหนึ่งเป็นการกระทำโดยทุจริตหรือเพื่ออำพราง",
        "คดีผู้กระทำต้องระวางโทษเป็นสองเท่าของโทษที่กำหนดไว้สำหรับความผิดนั้น”",
        "",
        "มาตรา ๖ บรรดาบทบัญญัติแห่งประมวลกฎหมายวิธีพิจารณาความอาญา",
        "ซึ่งแก้ไขเพิ่มเติมโดยพระราชบัญญัตินี้ไม่ใช้บังคับแก่การชันสูตรพลิกศพและการไต่สวนสำหรับการตายที่ได้มีการแจ้งต่อเจ้าพนักงานไว้แล้วก่อนวันที่พระราชบัญญัตินี้ใช้บังคับและให้ใช้กฎหมายที่ใช้บังคับอยู่ในวันที่ได้แจ้งต่อเจ้าพนักงานไปบังคับแก่การชันสูตรพลิกศพและการไต่สวนจนกว่าศาลจะมีคำสั่งถึงที่สุด",
        "",
        "มาตรา ๗ ภายในห้าปีนับแต่วันที่พระราชบัญญัตินี้ใช้บังคับ ในกรณีที่ต้อง",
        "ชันสูตรพลิกศพตามมาตรา ๑๔๘ (๓) และ(๔) แห่งประมวลกฎหมายวิธีพิจารณาความอาญา",
        "ถ้าแพทย์ตามมาตรา ๑๕๐ วรรคหนึ่ง แห่งประมวลกฎหมายวิธีพิจารณาความอาญา ซึ่งแก้ไข",
        "เพิ่มเติมโดยพระราชบัญญัตินี้มีเหตุจำเป็นไม่สามารถไปตรวจชันสูตรพลิกศพในที่เกิดเหตุได้ แพทย์ดังกล่าวอาจมอบหมายให้เจ้าหน้าที่ของโรงพยาบาล หรือเจ้าหน้าที่ในสังกัดสำนักงานสาธารณสุขจังหวัดที่ผ่านการอบรมทางนิติเวชศาสตร์ไปร่วมตรวจชันสูตรพลิกศพในที่เกิดเหตุในเบื้องต้น แล้วรีบรายงานให้แพทย์ทราบโดยเร็ว เพื่อดำเนินการตามมาตรา ๑๕๐ วรรคหนึ่ง แห่งประมวลกฎหมายวิธีพิจารณาความอาญา ซึ่งแก้ไขเพิ่มเติมโดยพระราชบัญญัตินี้ ต่อไป",
        "ความในวรรคหนึ่ง มิให้ใช้บังคับแก่การปฏิบัติหน้าที่ของแพทย์ประจำ",
        "โรงพยาบาลของเอกชนหรือแพทย์ผู้ประกอบวิชาชีพเวชกรรมที่ขึ้นทะเบียนเป็นแพทย์อาสาสมัคร",
        "ให้เจ้าหน้าที่ที่ได้รับมอบหมายตามวรรคหนึ่งได้รับค่าตอบแทน หรือค่าป่วยการ",
        "ค่าพาหนะเดินทาง และค่าเช่าที่พัก ตามระเบียบที่กระทรวงยุติธรรมกำหนดโดยความเห็นชอบของกระทรวงการคลัง",
        "",
        "มาตรา ๘ ให้นายกรัฐมนตรี รัฐมนตรีว่าการกระทรวงกลาโหม รัฐมนตรีว่าการ",
        "กระทรวงมหาดไทย รัฐมนตรีว่าการกระทรวงยุติธรรม รัฐมนตรีว่าการกระทรวงสาธารณสุข และ",
        "รัฐมนตรีว่าการทบวงมหาวิทยาลัย รักษาการตามพระราชบัญญัตินี้",
        "",
        "",
        "ผู้รับสนองพระบรมราชโองการ",
        "ชวน หลีกภัย",
        "นายกรัฐมนตรี",
        "หมายเหตุ:- เหตุผลในการประกาศใช้พระราชบัญญัติฉบับนี้ คือ เนื่องจากในทางปฏิบัติ การชันสูตรพลิกศพมักกระทำโดยพนักงานสอบสวนร่วมกับเจ้าหน้าที่กระทรวงสาธารณสุขประจำท้องที่หรือแพทย์ประจำตำบลแทนแพทย์ซึ่งอาจทำให้ระบบการตรวจสอบพยานหลักฐานทางนิติเวชไม่มี ประสิทธิภาพเพียงพอ และอาจก่อให้เกิดความผิดพลาดในการวินิจฉัยถึงสาเหตุและพฤติการณ์ที่ทำให้เกิดการตายนั้น อีกทั้งการชันสูตรพลิกศพในกรณีที่ความตายเกิดขึ้นโดยการกระทำของเจ้าพนักงานซึ่งอ้างว่าปฏิบัติราชการตามหน้าที่หรือตายในระหว่างอยู่ในความควบคุมของเจ้าพนักงานซึ่งอ้างว่าปฏิบัติราชการตามหน้าที่ ยังขาดการตรวจสอบและถ่วงดุลกันของผู้ร่วม",
        "ทำการชันสูตรพลิกศพอย่างแท้จริง นอกจากนี้ วิธีการในการชันสูตรพลิกศพและการไต่สวนการตายของบุคคลยังเป็นไปอย่างล่าช้าและมิได้คุ้มครองสิทธิของผู้ที่เกี่ยวข้องเป็นญาติของผู้ตายอย่าง",
        "เพียงพอ ฉะนั้น สมควรแก้ไขประมวลกฎหมายวิธีพิจารณาความอาญาในเรื่องดังกล่าว โดยกำหนดตัวบุคคลผู้ร่วมทำการชันสูตรพลิกศพเสียใหม่ กล่าวคือ ให้พนักงานสอบสวนทำการชันสูตรพลิกศพร่วมกับแพทย์ทางนิติเวชศาสตร์ แพทย์ประจำโรงพยาบาล และแพทย์ประจำสำนักงานสาธารณสุขจังหวัด ตามลำดับและให้พนักงานอัยการและพนักงานฝ่ายปกครองเข้าร่วมทำการชันสูตรพลิกศพด้วยในกรณีที่ความตายเกิดขึ้นโดยการกระทำของเจ้าพนักงานซึ่งอ้างว่าปฏิบัติราชการตามหน้าที่หรือตายในระหว่างอยู่ในความควบคุมของเจ้าพนักงานซึ่งอ้างว่าปฏิบัติราชการตามหน้าที่ รวมทั้งปรับปรุงวิธีการในการชันสูตรพลิกศพและการไต่สวนการตายโดยศาล เพื่อให้เป็นไปด้วยความรวดเร็ว รอบคอบ มีประสิทธิภาพ และคุ้มครองสิทธิของผู้ที่เกี่ยวข้องเป็นญาติของผู้ตายมากยิ่งขึ้นและโดยที่เป็นการสมควรกำหนดลักษณะความผิดขึ้นใหม่ที่ทำให้การชันสูตรพลิกศพหรือผลทางคดีเปลี่ยนแปลงไปอีกทั้งสมควรแก้ไขอัตราโทษตามบทบัญญัติที่เกี่ยวข้องเพื่อให้มีอัตราโทษสอดคล้องกัน จึงจำเป็นต้องตราพระราชบัญญัตินี้",
        "",
        "ปรียนันท์/แก้ไข",
        "๗ / ๓ / ๔๕",
        "A+B (C)"
      ]
    ],
    []
  ],
  "metadata": {
    "date_header": "2542-12-29",
    "editors": [],
    "tag": "bb05-20-2542-a004"
  }
}