{
  "pages": [
    [
      [
        "พระราชบัญญัติ",
        "แก้ไขเพิ่มเติมประมวลกฎหมายวิธีพิจารณาความอาญา",
        "(ฉบับที่ ๒)",
        "พุทธศักราช ๒๔๘๗",
        "________",
        "",
        "ในพระปรมาภิไธยสมเด็จพระเจ้าอยู่หัวอานันทมหิดล",
        "ผู้สำเร็จราชการแทนพระองค์",
        "(ตามประกาศประธานสภาผู้แทนราษฎร",
        "ลงวันที่ ๑ สิงหาคม พุทธศักราช ๒๔๘๗)",
        "ปรีดี พนมยงค์",
        "ตราไว้ ณ วันที่ ๒๒ ธันวาคม พุทธศักราช ๒๔๘๗",
        "เป็นปีที่ ๑๑ ในรัชกาลปัจจุบัน",
        "",
        "โดยที่สภาผู้แทนราษฎรลงมติว่า สมควรแก้ไขเพิ่มเติมประมวลกฎหมาย",
        "วิธีพิจารณาความอาญา",
        "",
        "จึงมีพระบรมราชโองการให้ตราพระราชบัญญัติขึ้นไว้ โดยคำแนะนำและ",
        "ยินยอมของสภาผู้แทนราษฎร ดังต่อไปนี้",
        "",
        "มาตรา ๑ พระราชบัญญัตินี้ให้เรียกว่า “พระราชบัญญัติแก้ไขเพิ่มเติม",
        "ประมวลกฎหมายวิธีพิจารณาความอาญา (ฉบับที่ ๒) พุทธศักราช ๒๔๘๗”",
        "",
        "มาตรา ๒* พระราชบัญญัตินี้ให้ใช้บังคับได้ตั้งแต่วันประกาศในราชกิจจานุ",
        "เบกษาเป็นต้นไป",
        "*[รก. ๒๔๘๗/๗๙/๑๒๑๐/๓๑ ธันวาคม ๒๔๘๗]",
        "",
        "มาตรา ๓ ให้เพิ่มความต่อไปนี้เป็นมาตรา ๒๐๘ ทวิ ของประมวลกฎหมาย",
        "วิธีพิจารณาความอาญา",
        "“มาตรา ๒๐๘ ทวิ ถ้าอธิบดีผู้พิพากษาศาลอุทธรณ์เห็นสมควร จะให้มี",
        "การวินิจฉัยปัญหาใด ในคดีเรื่องใด โดยที่ประชุมใหญ่ก็ได้",
        "ที่ประชุมใหญ่ให้ประกอบด้วยผู้พิพากษาทุกคนซึ่งอยู่ปฏิบัติหน้าที่ แต่ต้อง",
        "ไม่น้อยกว่ากึ่งจำนวนผู้พิพากษาแห่งศาลนั้นและให้อธิบดีผู้พิพากษาศาลอุทธรณ์เป็นประธาน",
        "การวินิจฉัยในที่ประชุมใหญ่ให้ถือเสียงข้างมาก ถ้าในปัญหาใดมีความเห็น",
        "แย้งกันเป็นสองฝ่าย หรือเกินสองฝ่ายขึ้นไป จะหาเสียงข้างมากมิได้ ให้ผู้พิพากษาซึ่งมีความเห็น",
        "เป็นผลร้ายแก่จำเลยมากยอมเห็นด้วยผู้พิพากษาซึ่งมีความเห็นเป็นผลร้ายแก่จำเลยน้อยกว่า",
        "ในคดีซึ่งที่ประชุมใหญ่ได้วินิจฉัยปัญหาแล้ว คำพิพากษาหรือคำสั่งต้อง",
        "เป็นไปตามคำวินิจฉัยของที่ประชุมใหญ่ และต้องระบุไว้ด้วยว่าปัญหาข้อใดได้วินิจฉัยโดยที่",
        "ประชุมใหญ่ ผู้พิพากษาที่เข้าประชุม แม้มิใช่เป็นผู้นั่งพิจารณา ก็ให้มีอำนาจพิพากษา ทำคำสั่ง",
        "หรือทำความเห็นแย้งในคดีนั้นได้”",
        "",
        "ผู้รับสนองพระบรมราชโองการ",
        "ควง อภัยวงศ์",
        "นายกรัฐมนตรี",
        "",
        "",
        "",
        "สุรินทร์ / แก้ไข",
        "๑๒/๐๒/๒๕๔๕",
        "A+B (C)"
      ]
    ],
    []
  ],
  "metadata": {
    "date_header": "2487-08-01",
    "editors": [],
    "tag": "bb05-20-2487-002"
  }
}