{
  "pages": [
    [
      [
        "พระราชกฤษฎีกา",
        "พระราชทานอภัยโทษ",
        "พ.ศ. ๒๕๐๔",
        "",
        "",
        "ในพระปรมาภิไธย",
        "พระบาทสมเด็จพระปรมินทรมหาภูมิพลอดุลยเดช",
        "สังวาลย์",
        "",
        "ผู้สำเร็จราชการแทนพระองค์",
        "ให้ไว้ ณ วันที่ ๑๖ มกราคม พ.ศ. ๒๕๐๔",
        "เป็นปีที่ ๑๖ ในรัชกาลปัจจุบัน"
      ]
    ],
    []
  ],
  "metadata": {
    "date_header": "2504-01-16",
    "date_modified": "2504-01-17",
    "date_original": "2504-01-17",
    "doctype": "พระราชกฤษฎีกา",
    "editors": [
      {
        "name": "นฤตยา",
        "role": "ผู้จัดทำ",
        "date": "2553-11-03"
      },
      {
        "name": "เอกฤทธิ์",
        "role": "ตรวจ",
        "date": "2553-11-23"
      },
      {
        "name": "จุฑามาศ",
        "role": "ปรับปรุง",
        "date": "2558-11-18"
      }
    ],
    "tag": "bb05-2a-2504-a0001",
    "title": "พระราชทานอภัยโทษ"
  }
}