{
  "pages": [
    [
      [
        "พระราชบัญญัติ",
        "แก้ไขเพิ่มเติมประมวลกฎหมายวิธีพิจารณาความอาญา (ฉบับที่ ๓๒)",
        "พ.ศ. ๒๕๕๙",
        "",
        "",
        "สมเด็จพระเจ้าอยู่หัวมหาวชิราลงกรณ บดินทรเทพยวรางกูร",
        "ให้ไว้ ณ วันที่ ๑๐ ธันวาคม พ.ศ. ๒๕๕๙",
        "เป็นปีที่ ๑ ในรัชกาลปัจจุบัน",
        "",
        "สมเด็จพระเจ้าอยู่หัวมหาวชิราลงกรณ บดินทรเทพยวรางกูร มีพระราชโองการโปรดเกล้าฯ ให้ประกาศว่า",
        "",
        "โดยที่เป็นการสมควรแก้ไขเพิ่มเติมประมวลกฎหมายวิธีพิจารณาความอาญา",
        "",
        "จึงทรงพระกรุณาโปรดเกล้าฯ ให้ตราพระราชบัญญัติขึ้นไว้โดยคำแนะนำและยินยอมของสภานิติบัญญัติแห่งชาติ ดังต่อไปนี้",
        "",
        "มาตรา ๑ พระราชบัญญัตินี้เรียกว่า “พระราชบัญญัติแก้ไขเพิ่มเติมประมวลกฎหมายวิธีพิจารณาความอาญา (ฉบับที่ ๓๒) พ.ศ. ๒๕๕๙”",
        "",
        "มาตรา ๒ พระราชบัญญัตินี้ให้ใช้บังคับตั้งแต่วันถัดจากวันประกาศในราชกิจจานุเบกษาเป็นต้นไป",
        "",
        "มาตรา ๓ ให้เพิ่มความต่อไปนี้เป็นวรรคสามและวรรคสี่ของมาตรา ๑๙๘ แห่งประมวลกฎหมายวิธีพิจารณาความอาญา ซึ่งแก้ไขเพิ่มเติมโดยพระราชบัญญัติแก้ไขเพิ่มเติมประมวลกฎหมายวิธีพิจารณาความอาญา (ฉบับที่ ๘) พ.ศ. ๒๕๑๗",
        "“ในกรณีที่ตามคำพิพากษาจำเลยต้องรับโทษจำคุกหรือโทษสถานที่หนักกว่านั้นและจำเลยไม่ได้ถูกคุมขัง จำเลยจะยื่นอุทธรณ์ได้ต่อเมื่อแสดงตนต่อเจ้าพนักงานศาลในขณะยื่นอุทธรณ์ มิฉะนั้น ให้ศาลมีคำสั่งไม่รับอุทธรณ์ ทั้งนี้ ประธานศาลฎีกาอาจออกข้อบังคับกำหนดหลักเกณฑ์ วิธีการ และเงื่อนไขการแสดงตนของจำเลยก็ได้ ข้อบังคับนั้น เมื่อประกาศในราชกิจจานุเบกษาแล้วให้ใช้บังคับได้",
        "ความในวรรคสามมิให้ใช้บังคับแก่กรณีที่จำเลยได้รับการรอการลงโทษจำคุก หรือรับโทษจำคุกตามคำพิพากษาครบถ้วนแล้ว”",
        "",
        "มาตรา ๔ ให้ยกเลิกความในวรรคสองของมาตรา ๒๑๖ แห่งประมวลกฎหมายวิธีพิจารณาความอาญา ซึ่งแก้ไขเพิ่มเติมโดยพระราชบัญญัติแก้ไขเพิ่มเติมประมวลกฎหมายวิธีพิจารณาความอาญา (ฉบับที่ ๖) พ.ศ. ๒๔๙๙ และให้ใช้ความต่อไปนี้แทน",
        "“ฎีกานั้น ให้ยื่นต่อศาลชั้นต้น และให้นำบทบัญญัติในมาตรา ๑๙๘ มาตรา ๒๐๐ และมาตรา ๒๐๑ มาใช้บังคับโดยอนุโลม”",
        "",
        "มาตรา ๕ บรรดาคดีที่ได้ยื่นอุทธรณ์หรือฎีกาไว้ก่อนวันที่พระราชบัญญัตินี้ใช้บังคับให้บังคับตามกฎหมายซึ่งใช้อยู่ก่อนวันที่พระราชบัญญัตินี้ใช้บังคับ",
        "",
        "มาตรา ๖ ให้ประธานศาลฎีการักษาการตามพระราชบัญญัตินี้",
        "",
        "",
        "ผู้รับสนองพระราชโองการ",
        "พลเอก ประยุทธ์ จันทร์โอชา",
        "นายกรัฐมนตรี",
        "",
        "หมายเหตุ :- เหตุผลในการประกาศใช้พระราชบัญญัติฉบับนี้ คือ โดยที่ประมวลกฎหมายวิธีพิจารณาความอาญาไม่ได้กำหนดให้จำเลยต้องมาแสดงตนต่อศาลเมื่อประสงค์จะอุทธรณ์หรือฎีกา ส่งผลให้ศาลไม่สามารถตรวจสอบได้ว่าจำเลยยังมีตัวตนอยู่หรือไม่ และเป็นการเปิดโอกาสให้จำเลยที่อยู่ระหว่างการหลบหนียังคงสามารถยื่นอุทธรณ์หรือฎีกาได้ สมควรแก้ไขเพิ่มเติมหลักเกณฑ์การอุทธรณ์และฎีกากรณีที่จำเลยซึ่งไม่ได้ถูกคุมขังเป็นผู้อุทธรณ์หรือฎีกา จึงจำเป็นต้องตราพระราชบัญญัตินี้",
        "",
        "ปุณิกา/ปริยานุช/จัดทำ",
        "๑๓ ธันวาคม ๒๕๕๙",
        "",
        "นุสรา/ตรวจ",
        "๑๔ ธันวาคม ๒๕๕๙"
      ]
    ],
    []
  ],
  "metadata": {
    "date_header": "2559-12-10",
    "date_modified": "2559-12-11",
    "date_original": "2559-12-11",
    "doctype": "พระราชบัญญัติ",
    "editors": [],
    "tag": "bb05-20-2559-a0002",
    "title": "แก้ไขเพิ่มเติมประมวลกฎหมายวิธีพิจารณาความอาญา (ฉบับที่ ๓๒)"
  }
}