{
  "pages": [
    [
      [
        "ข้อบังคับของประธานศาลฎีกา",
        "ว่าด้วยหลักเกณฑ์ วิธีการและเงื่อนไขเกี่ยวกับการเรียกประกันหรือหลักประกัน",
        "ในการปล่อยชั่วคราวผู้ต้องหาหรือจำเลยในคดีอาญา",
        "พ.ศ. ๒๕๔๘"
      ]
    ],
    []
  ],
  "metadata": {
    "date_backmatter": "2548-04-29",
    "date_modified": "2548-06-03",
    "date_original": "2548-06-03",
    "editors": [
      {
        "name": "นฤตยา",
        "role": "ผู้จัดทำ",
        "date": "2553-11-03"
      },
      {
        "name": "เอกฤทธิ์",
        "role": "ตรวจ",
        "date": "2553-11-22"
      }
    ],
    "tag": "bb05-2i-2548-a0001"
  }
}