{
  "pages": [
    [
      [
        "พระราชบัญญัติ",
        "ให้ใช้ประมวลกฎหมายวิธีพิจารณาความอาญา",
        "พุทธศักราช 2477",
        "",
        "",
        "ในพระปรมาภิไธยสมเด็จพระเจ้าอยู่หัวอานันทมหิดล",
        "คณะผู้สำเร็จราชการแทนพระองค์",
        "(ตามประกาศประธานสภาผู้แทนราษฎร",
        "ลงวันที่ 7 มีนาคม พุทธศักราช 2477)",
        "อนุวัตน์จาตุรนต์",
        "อาทิตย์ทิพอาภา",
        "เจ้าพระยายมราช",
        "ตราไว้ ณ วันที่ 5 มิถุนายน พุทธศักราช 2478",
        "เป็นปีที่ 2 ในรัชกาลปัจจุบัน",
        "",
        "โดยที่สภาผู้แทนราษฎรลงมติว่า เป็นการสมควรที่จะประกาศใช้ประมวลกฎหมายวิธีพิจารณาความอาญา",
        "",
        "จึงมีพระบรมราชโองการให้ตราพระราชบัญญัติขึ้นไว้โดยคำแนะนำและยินยอมของสภาผู้แทนราษฎร ดังต่อไปนี้",
        "",
        "มาตรา 1 พระราชบัญญัตินี้ให้เรียกว่า “พระราชบัญญัติให้ใช้ประมวลกฎหมายวิธีพิจารณาความอาญา พุทธศักราช 2477”",
        "",
        "มาตรา 2 ให้ใช้พระราชบัญญัตินี้ตั้งแต่วันประกาศในราชกิจจานุเบกษาเป็นต้นไป",
        "",
        "มาตรา 3 ให้ใช้ประมวลกฎหมายวิธีพิจารณาความอาญาตามที่ได้ตราไว้ต่อท้ายพระราชบัญญัตินี้ตั้งแต่วันที่ 1 ตุลาคม พุทธศักราช 2478 เป็นต้นไป",
        "ให้ศาลและเจ้าพนักงานทั้งหลายผู้ดำเนินคดีอาญาตลอดราชอาณาจักรปฏิบัติการตามบทบัญญัติแห่งประมวลกฎหมายนี้ เว้นแต่ศาลซึ่งมีวิธีพิจารณาพิเศษไว้ต่างหาก",
        "คดีทั้งหลายซึ่งค้างอยู่ในศาลก่อนวันใช้ประมวลกฎหมายนี้ ให้บังคับตามกฎหมายซึ่งใช้อยู่ก่อนวันใช้ประมวลกฎหมายนี้จนกว่าคดีนั้น ๆ จะถึงที่สุด",
        "",
        "มาตรา 4 ภายใต้บังคับแห่งบทบัญญัติมาตรา 3 ตั้งแต่วันใช้ประมวลกฎหมาย",
        "วิธีพิจารณาความอาญานี้สืบไป ให้ยกเลิกมาตรา 14, 16 และมาตรา 87 ถึง 96",
        "ในกฎหมายลักษณะอาญา พระราชบัญญัติวิธีพิจารณาความมีโทษสำหรับใช้ไปพลางก่อน",
        "ร.ศ. 115 และบรรดากฎหมาย กฎ และข้อบังคับอื่น ๆ ในส่วนที่มีบัญญัติไว้แล้วในประมวลกฎหมายนี้ หรือซึ่งขัดแย้งกับประมวลกฎหมายนี้",
        "",
        "มาตรา 5 ให้รัฐมนตรีว่าการกระทรวงยุติธรรม และรัฐมนตรีว่าการกระทรวงมหาดไทย เป็นผู้รักษาการให้เป็นไปตามพระราชบัญญัตินี้ และเพื่อการนั้นให้มีอำนาจออกกฎกระทรวงวางระเบียบการงานตามหน้าที่ เพื่อให้การดำเนินคดีอาญาเป็นไปโดยเรียบร้อย",
        "",
        "ผู้รับสนองพระบรมราชโองการ",
        "นายพันเอก พระยาพหลพลพยุหเสนา",
        "นายกรัฐมนตรี"
      ]
    ],
    []
  ],
  "metadata": {
    "date_header": "2477-03-07",
    "doctype": "พระราชบัญญัติ",
    "editors": [],
    "tag": "bb05-20-2532-017u",
    "title": "ให้ใช้ประมวลกฎหมายวิธีพิจารณาความอาญา"
  }
}