{
  "pages": [
    [
      [
        "ระเบียบกระทรวงยุติธรรม",
        "ว่าด้วยการจ่ายค่าตอบแทน หรือค่าป่วยการ ค่าพาหนะเดินทาง",
        "และค่าเช่าที่พักของแพทย์และเจ้าพนักงานผู้ได้ทำการชันสูตรพลิกศพ",
        "ตามประมวลกฎหมายวิธีพิจารณาความอาญา มาตรา ๑๕๐",
        "พ.ศ. ๒๕๔๓"
      ]
    ],
    []
  ],
  "metadata": {
    "date_backmatter": "2543-09-13",
    "date_modified": "2547-08-11",
    "date_original": "2543-09-15",
    "editors": [
      {
        "name": "ปาจรีย์",
        "role": "ผู้จัดทำ",
        "date": "2549-08-30"
      }
    ],
    "tag": "bb05-2g-9997-update"
  }
}