{
  "pages": [
    [
      [
        "ระเบียบกระทรวงยุติธรรม",
        "ว่าด้วยการขอและรับขึ้นทะเบียนเป็นผู้ทำหน้าที่นักจิตวิทยาหรือนักสังคมสงเคราะห์",
        "ตามประมวลกฎหมายวิธีพิจารณาความอาญา (ฉบับที่ ๕)",
        "พ.ศ. ๒๕๔๙"
      ]
    ],
    []
  ],
  "metadata": {
    "date_backmatter": "2549-01-30",
    "date_modified": "2549-03-09",
    "date_original": "2549-03-09",
    "editors": [
      {
        "name": "นฤตยา",
        "role": "ผู้จัดทำ",
        "date": "2553-11-04"
      },
      {
        "name": "เอกฤทธ์",
        "role": "ตรวจ",
        "date": "2553-11-25"
      }
    ],
    "tag": "bb05-2g-2549-a0001"
  }
}