{
  "pages": [
    [
      [
        "พระราชกฤษฎีกา",
        "พระราชทานอภัยโทษ",
        "พ.ศ. ๒๕๐๐",
        "",
        "",
        "ภูมิพลอดุลยเดช ป.ร.",
        "ให้ไว้ ณ วันที่ ๒๖ กุมภาพันธ์ พ.ศ. ๒๕๐๐",
        "เป็นปีที่ ๑๒ ในรัชกาลปัจจุบัน"
      ]
    ],
    []
  ],
  "metadata": {
    "date_header": "2500-02-26",
    "date_modified": "2500-02-27",
    "date_original": "2500-02-27",
    "doctype": "พระราชกฤษฎีกา",
    "editors": [
      {
        "name": "นฤตยา",
        "role": "ผู้จัดทำ",
        "date": "2553-11-03"
      },
      {
        "name": "เอกฤทธิ์",
        "role": "ตรวจ",
        "date": "2553-11-23"
      }
    ],
    "tag": "bb05-2a-2500-a0001",
    "title": "พระราชทานอภัยโทษ"
  }
}