{
  "pages": [
    [
      [
        "พระราชกำหนดพระราชอภัยโทษ",
        "พระพุทธศักราช ๒๔๖๗",
        "",
        "",
        "ศุภมัสดุ พระพุทธศาสนกาลเปนอดีตภาค ๒๔๖๗ พรรษาปัตยุบันกาล มุสิกสังวัจฉร เอกาทศมสุรทิน พฤศจิกายนมาสภุมวาร กาลกำหนด",
        "",
        "พระบาทสมเด็จพระรามาธิบดี ศรีสินทรมหาวชิราวุธ เอกอัครมหาบุรุษบรม นราธิราช พินิตประชานาถมหาสมมตวงศอดิศัยพงศวิมลรัตน วรขัตติยราชนิกโรดม จาตุรันตบรมมหาจักรพงศิราชสังกาศ ปรเมนทรธรรมิกมหาราชาธิราช บรมนาถบพิตร พระมงกุฎเกล้าเจ้าอยู่หัว เสด็จสถิตย์ ณ พระที่นั่งดุสิตมหาปราสาทบรมราชพิมาน ทรงบำเพ็ญพระราชกุศลทักษิณานุปทาน แด่พระภิกษุสงฆ์สมณพราหมณพฤฒาโหราจารย์ ในงารพระราชพิธีมหกรรมเฉลิมฉัตรรัชพรรษา พร้อมด้วยพระบรมวงศานุวงศ์ เสนาบดีมนตรีมุขทุกกระทรวงทบวงการ ฝ่ายทหารและพลเรือน ชุมนุมเฝ้าเบื้องพระบาทประวร ทรงพระอนุสรรัมภึงว่า ในปีชวดฉอศกนักษัตรนี้ นับแต่ศุภวารดิถีที่ได้เสด็จเถลิงถวัลยราชสมบัติ คำนวนประมวลนักษัตรได้ปัณณรสสมวัสตร์ เปนมูลให้บังเกิดพระราชปรีดาปราโมทย์โสมนัสทรงเลื่อมใสในพระพุทธาธิตรัยรัตนสรณา หากอภิบาลบำรุงรักษา และกอบทั้งพระราชกุศลจรรยาสุจริตธรรมสัมมปฏิบัติมงคลปัจจัยเปน มโหฬาร ให้ทรงพระเกษมสุขสำราญพระสริรกะมล เปนอดิเรกผลเพิ่มพูนพระวิริยอุตสาหะให้ดำรงพระราชสัมภาระปราศจากสรรพทุกขและพิพิธภัย มีพระราชหฤทัยใคร่แผ่พระกรุณาเพื่อระงับดับเข็ญ ให้ไพร่ฟ้าข้าแผ่นดินได้อยู่เย็นเปนผาสุกทุกถ้วนหน้า แม้ถึงเหล่าประชาชนที่มีบาปอกุศลเปนบูรพกรรมนำให้นิยมหลงไปในทางอนธพาล ประพฤติมิจฉาชีพอัชฌาจาร ล่วงพระราชกำหนดกฎหมาย เปนความผิดถึงอุกฤษฎ์โทษก็มี ทั้งโทษที่ต้องรับพระราชอาญาจองจำสังขสิก กรรมกร ได้ทรมานมานานให้ละทิ้งพยสร้ายถอยกำลัง หลาบจำยำเกรงพระราชอาญา อนึ่งนักโทษชราทุพพลย์อีกนักโทษพิการกายวิกลต้องทนทุกขาดูรอยู่มิได้วางวาย บันดานักโทษทั้งหลายนี้ควรโปรดพระราชทานอภัยให้ไว้ชีวิต ฤาให้ลดโทษล่วงโทษตามสมควรแก่กรณีความผิดหนักและเบา ด้วยอำนาจพระมหากรุณาบารมี จึงมีพระบรมราชโองการสุรสิงหนาทดำรัสเหนือเกล้าฯ สั่งแก่เจ้าพระยาอภัยราชามหายุติธรรมธรเสนาบดีกระทรวงยุติธรรม ให้สำรวจเอาบาญชีนักโทษที่ต้องรับพระราชอาญาอยู่ณพันธนาคารทั่วพระราชอาณาจักร์ และพิจารณาลักษณแห่งโทษานุโทษว่าคนใดควรจะโปรดได้และมิได้โดย พระราชกำหนดข่ายแห่งพระมหากรุณา ที่ตราไว้เปนหลักดังนี้ ฯ",
        "",
        "ข้อ ๑ นักโทษจำพวกอุกฤษฎ์โทษอันศาลยุติธรรมได้พิจารณาคดีถึงที่สุดแล้ว พิพากษาให้ลงพระราชอาญาประหารชีวิตจะได้ทรงพระวิจารณ์พินิจย์ด้วย พระญาณปรีชา ราชอาญา สิทธิเปนโสตวากรณีใดควรจะโปรดได้ โดยพระการุญอัธยาศัยราชธรรมเนียมฯ",
        "",
        "ข้อ ๒ ในจำพวกมหันตโทษ ที่ต้องรับพระราชอาญาจำคุกตลอดชีวิตนั้น ให้สำรวจเอาชื่อนักโทษบันดาที่ต้องจองจำทรมานมานานกว่า ๒๐ ปี ให้พิเคราะห์ดูมูลคดีความผิดหนักเบาเปนโทษกะทงเดียวฤาหลายกะทง กอบกับความประพฤติเรียบร้อยเข็ดหลาบในเวลารับพระราชอาญาอยู่นั้น ให้เสนบดีกระทรวงยุติธรรมพึงพิจารณา ว่าควรเข้าอยู่ในข่าย พระมหากรุณาได้แล้ว ให้นำความขึ้นกราบบังคมทูลพระกรุณา เพื่อได้รับพระราชทานอภัยให้ล่วงพ้นโทษฯ",
        "",
        "ข้อ ๓ ในจำพวกครุโทษ ที่ต้องรับพระราชอาญาจำคุกมีกำหนดแต่ ๑๕ ปีถึง ๒๐ ปี ให้เสนาบดีกระทรวงยุติธรรมสำรวจตรวจดูแต่ผู้ที่ต้องจองจำมากกว่ากึ่งครึ่งแห่งเวลากำหนดโทษอันพิพากษา และให้ตรวจคัดเอาแต่ผู้ที่ต้องโทษกะทงเดียว ฤาผู้ที่ได้ถวายสัตย์สารภาพความผิดโดยชื่นตา กอบกับความประพฤติเรียบร้อยเข็ดหลาบในเวลารับพระราชอาญาอยู่นั้น พึงพิจารณาว่าควรเข้าอยู่ในข่ายพระมหากรุณาได้ ให้นำความขึ้นกราบบังคมทูลพระกรุณา เพื่อได้รับพระราชทานอภัยให้ล่วงพ้นโทษฯ",
        "",
        "ข้อ ๔ ในจำพวกมัธยมโทษ ที่ต้องรับพระราชอาญาจองจำมีกำหนดแต่ ๑ ปีขึ้นไป และหย่อนกว่า ๑๕ ปี ให้เสนาบดีกระทรวงยุติธรรมสำรวจดูผู้ที่ต้องจำมาแล้วกว่ากึ่งครึ่งแห่งเวลากำหนดโทษอันพิพากษา และให้ตรวจคัดเอาแต่ที่ต้องโทษกะทงเดียว ฤาที่ได้ถวายสัตย์สารภาพโดยชื่นตา กอบกับความประพฤติเรียบร้อยเข็ดหลาบในเวลารับพระราชอาญาอยู่นั้น พึงพิจารณาว่าควรเข้าอยู่ในข่ายพระมหากรุณาได้แล้ว ให้ทำบาญชีชื่อนำขึ้นกราบบังคมทูลพระกรุณาเพื่อได้รับพระราชทานอภัยให้ล่วงพ้นโทษ เว้นไว้แต่นักโทษจำพวกที่เปนโจรส้องสุมควบคุมกันเข้าอั้งยี่ก็ดี ก่อการจลาจลก็ดี เปนผู้ร้ายวางเพลิงก็ดี ปลอมเงินปลอมบัตรตราก็ดี อำพรางในสัตยาธิษฐานทำพยานเท็จก็ดี เปนโจรตัดช่องย่องเบาฉกลักยักยอกกรรโชกชิง ปล้นสดมภ์ ฤาโจรสลัดก็ดี ทั้งปวงนี้เปนกรณีโทษมิควรเข้าอยู่ในข่ายพระมหากรุณา อย่าให้เอาเข้าบาญชีสำรวจด้วยเลยฯ",
        "",
        "ข้อ ๕ นักโทษจำพวกลหุโทษ อันศาลยุติธรรมได้พิพากษาสำเร็จเด็ดขาดให้ลงโทษจองจำมีกำหนดต่ำกว่าปี ๑ ลงมา ฤาบันดาที่ต้องจำไถ่แทน เบี้ยปรับ เปนพินัยหลวง และค่าฤชาธรรมเนียม เว้นแต่กรณีโทษอำพรางสัตยาธิษฐานและโทษลอบเล่นการพนันอันต้องห้ามตามพระราชบัญญัติ ทรงพระกรุณาโปรดเกล้าฯ พระราชทานอภัยโทษปล่อยจากเวรจำโดยพลัน แต่วันเฉลิมฉัตรรัชพรรษาที่ ๑๑ เดือนพฤศจิกายน พระพุทธศักราช ๒๔๖๗ นี้ฯ",
        "",
        "ข้อ ๖ บันดานักโทษทั้งหลาย ผู้ลเมิดพระราชบัญญัติลักษณเกณฑ์รับราชการทหารบก ทหารเรือ ตำรวจพระนครบาล ตำรวจภูธรหลบหนีราชการ ต้องรับพระราชอาญาอยู่ที่เวรจำในกรมราชทัณฑ์ก็ดี ในกรมและกองทหารบก ทหารเรือ กรมตำรวจพระนครบาล ตำรวจภูธรก็ดี ทรงพระกรุณาโปรดเกล้าฯ พระราชทานอภัยโทษให้ปล่อยจากเวรจำโดยพลัน แต่วันเฉลิมฉัตรรัชพรรษานี้ และให้คืนเข้ารับราชการประจำตามตะรางเกณฑ์กรมสัสดีนั้นๆ ฯ",
        "",
        "ข้อ ๗ นักโทษชราร่างกายทุพพลภาพ ไม่ว่าต้องโทษหนักเบาสถานใด มีอายุล่วงได้ ๖๐ ปีแล้ว ทรงพระกรุณาโปรดเกล้าฯ พระราชทานอภัยให้พ้นจากเวรจำ แต่วันเฉลิมฉัตรรัชพรรษา ให้ญาติมิตรรับตัวไปอุปถัมภ์บำรุงกันสืบไปฯ",
        "",
        "ข้อ ๘ นักโทษพิการ เพราะโรคลึกโรคเรื้อรังบีฑาทรมานต้องทนทุกขเวทนาสาหัสอยู่มิได้วางวาย อันเสนาบดีกระทรวงยุติธรรมได้ให้ประชุมแพทย์ตรวจอาการ เห็นตกลงเปนอันเดียวว่าจะเยียวยารักษาให้ทุเลาหายมิได้นั้น ทรงพระกรุณาโปรดเกล้าฯ พระราชทานอภัยให้พ้นจากเวรจำแต่วันเฉลิมฉัตรรัชพรรษา ให้ญาติมิตรรับตัวไปรักษาพยาบาลกันตามควร แต่ถ้าว่านักโทษคนใดทำมายาสาไฐย ตนมิได้ป่วยไข้ได้ทุกขเวทนาหนักหนาแสร้งใส่ไคล้ให้แพทย์ตรวจว่าบอบเจ็บพิการ ครั้นได้รับพระราชทานอภัยพ้นจากเวรจำให้ญาติมิตรรับไป พยาบาลรักษามิช้าอาการไข้มายานั้นบรรเทาหาย ทนงใจเชื่อดีว่ามีศักดิสกุลชาติญาติมิตรช่วยติดตามแก้ไข มิได้กตัญญูรู้สำนึกพระเดชพระคุณพระเจ้าอยู่หัว มิได้สงบเสงี่ยมเจียมตัว ออกเชิดหน้าเข้าสมาคมเที่ยวเกร่อตีเสมอกับสุภาพสุจริต มิรู้พรั่นมิรู้เข็ดมิรู้ขาม มันหมิ่นประมาทพระกรุณาท่าน ประจานอาชญาเมืองให้เสื่อมงาน ให้กระทรวงมหาดไทยคุมเอาตัวมาส่งแก่เจ้ากระทรวงผู้ได้บังคับบัญชาพันธนาคารเพื่อจองจำไว้ตามยถากรรมดังเดิม อย่าให้คนดูเยี่ยงอีกได้ฯ",
        "",
        "บันดานักโทษมีชื่ออันพระพัสดีได้คัดขึ้นบาญชีสำรวจ และเสนาบดีกระทรวงยุติธรรมได้ตรวจพิจารณาเห็นว่าควรเข้าอยู่ในข่ายพระมหากรุณาแล้ว ได้รับพระราชทานอภัยให้ลดโทษล่วงโทษสถานใดสถานหนึ่งดังว่ามาข้างต้นแล้ว ให้ผู้พิพากษาตุลาการศาลยุติธรรมประจำตำบลที่นักโทษต้องเวรจำอยู่นั้น ออกหมายสั่งแก่พระพัสดีพธัมรงค์ ให้ปล่อยนักโทษทั้งหลายไปตามพระราชกำหนดนี้ เว้นแต่ที่เปนคดีพิเศษเหตุสำคัญเกลือกว่าจะเปนอันตรายแก่ความสงบของบ้านเมือง ฤาทำให้เคืองเข็ญแก่มหาชน จงให้งดไว้ก่อน ต่อเมื่อได้ทราบพระราชวินิจฉัยเฉพาะคดีพิเศษว่าฉันใดแล้ว จึงให้รีบปฏิบัติตามนั้น และบาญชีชื่อนักโทษซึ่งได้รับพระราชทานอภัยทั้งหลายนั้น ให้เสนาบดีเจ้ากระทรวงส่งไปลงประกาศในหนังสือราชกิจจานุเบกษาเนืองๆ ให้ปรากฏชื่อและจำนวนคนที่ได้โปรดให้พ้นโทษไปฯ",
        "",
        "บันดามนุษยหญิงชายที่ได้รับพระราชทานอภัยให้ลดโทษล่วงพ้นโทษทั้งนี้ จงตั้งกตเวทีรู้ลำลึกพระเดชพระคุณพระเจ้าอยู่หัวสงบเสงี่ยมเจียมตัวเปน สุภาพ หลาบจำ ยำเกรง พระราชอาญาประพฤติตนให้สมแก่ที่ทรงพระกรุณาโปรดปราณีย์ จงละพยสโทษกลีต่ำช้าหันเข้าทางชอบ ประกอบ เลี้ยงชีพโดยธรรม สุจริตอย่าได้ข้องคิดจองเวรอาฆาตพยาบาทเบียฬกันให้เดือดเนื้อร้อนใจ ขออย่าได้ประสพทุกขไข้ภัยพิบัติลำเค็ญรักษาตนเปนสุขทุกเมื่อ ทวยราษฎร์ทั้งหลายจงมีจิตเอื้อเฟื้อเผื่อแผ่สามัคคีรสอดออมถนอมซึ่งกันและกันทุกชั้นทุกชาติ อย่าได้วิวาทก้ำเกินก้าวร้าวแก่งแย่ง แสวงลาภที่ควรสงวนทรัพย์ศฤงคารถึงซึ่งความสุขเกษมศานต์ สงบจบสกลราชอาณาจักร์ เปนศุภลักษณ์เลิศรัฐสมบัติขัตติยาธิปัตยะจำนง สำเร็จด้วยราชสงเคราหะธรรมพระมหากรุณาบารมีซึ่งได้ทรงบำเพ็ญในอภิลักขิตสมัยนี้ฯ",
        "",
        "ศิริยา/พิมพ์",
        "๑๕ กันยายน ๒๕๔๙",
        "อมรรัตน์/นันทพล/ผู้จัดทำ",
        "๒๒ กันยายน ๒๕๔๙"
      ]
    ],
    []
  ],
  "metadata": {
    "date_header": "2467-11-00",
    "date_modified": "2467-11-22",
    "date_original": "2467-11-22",
    "doctype": "พระราชกำหนด",
    "editors": [],
    "tag": "bb05-20-2467-a0001",
    "title": "พระราชอภัยโทษ"
  }
}