{
  "pages": [
    [
      [
        "พระราชกำหนดพระราชอภัยโทษ",
        "พระพุทธศักราช ๒๔๖๘",
        "",
        "",
        "ศุภมัสดุ พระพุทธศาสนกาลเปนอดีตภาค ๒๔๖๘ พรรษา ปัตยุบันกาล อุสุภสังวัจฉร ปัญจวีสติมสุรทิน กุมภาพันธมาสชีวะวาร กาลกำหนด",
        "",
        "พระบาทสมเด็จพระปรมินทรมหาประชาธิปก มหันตเดชน ดิลกรามาธิบดี เทพยปรียมหาราชรวิวงศ อสัมภินพงศ์พีระกษัตร บุรุษรัตนราชนิกโรดม จาตุรันตบรมมหาจักรพรรดิราชสังกาศ ปรมินทรธรรมิกมหาราชาธิราช บรมนาถบพิตร พระปกเกล้าเจ้าอยู่หัว เสด็จสถิตยณพระที่นั่งไพศาลทักษิณ อันเปนมหินทรราชสมาคม พร้อมด้วยพระบรมวงศานุวงศ เสนาบดีมนตรีมุข ทุกกระทรวงทบวงการ ฝ่ายทหาญและพลเรือน ชุมนุมเฝ้าเบื้องพระบาทประวร ทรงพระอนุสรรัมภึงว่า ตามขัตติยราชประเพณีอันมีมาแต่โบราณกาล รัชทายาทซึ่งได้รับราชมหิศวรรยสมบัติผ่านพิภพเฉลิมวงศ สนองพระองค์สมเด็จพระบุรพมหาราชเจ้า ดำรงเอกราไชศวรรยาธิปัตย์ ปกครองสยามรัฐให้สถิตยรุ่งเรืองสถาพร ยังพศกนิกรให้ได้รับสันติสุขศุภวิบูลยผลอันไพศาล เมื่อสบงารอันเปนมหามงคลสมัย พระราชพิธีบรมราชาภิเษก เสด็จเถลิงถวัลยราชเปนมุรธาภิสิตมหิศวริยาธิปัตย์ดำรงรัชเกษตรเขตขัณฑสีมา ปกป้องรักษาห้ามกันสิ่งสรรพยุปัทวันตราย ตั้งพระราชหฤทัยแผ่พระมหากรุณาเพื่อระงับดับทุกข์ลำเค็ญให้ไพร่ฟ้าข้าแผ่นดินได้อยู่เย็นเปนผาสุกทุกถ้วนหน้า แม้ถึงเหล่าประชาชนที่มีบาปอกุศลเปนบุรพกรรมนำให้นิยมหลงไปในทางอนธพาลประพฤติมิจฉาชีพอัชฉาจารล่วงพระราชกำหนดกฎหมาย เปนความผิดถึงอุกฤษฎ์โทษก็มี ทั้งโทษที่ต้องรับพระราชอาญาจองจำสังขลิกกรรมกร ได้ทรมานมานานให้ละทิ้งพยสร้ายถอยกำลัง หลาบจำยำเกรงพระราชอาญา อนึ่งนักโทษชราทุพพลย์ อีกนักโทษพิการกายวิกลต้องทนทุกขาดูรอยู่มิได้วางวาย บันดานักโทษทั้งหลายนี้ควรโปรดพระราชทานอภัยให้ไว้ชีวิต ฤาให้ลดโทษล่วงโทษตามสมควรแก่กรณีความผิดหนักและเบา ด้วยอำนาจพระมหากรุณาบารมี จึงมีพระบรมราชโองการสุรสิงหนาทดำรัสเหนือเกล้าฯ สั่งแก่เจ้าพระยาอภัยราชามหายุติธรรมธรเสนาบดีกระทรวงยุติธรรมให้สำรวจเอาบาญชีนักโทษที่ต้องรับพระราชอาญาอยู่ณพันธนาคารทั่วพระราชอาณาจักร์ และพิจารณาลักษณแห่งโทษานุโทษว่าคนใดควรจะโปรดได้และมิได้ โดยพระราชกำหนดข่ายแห่งพระมหากรุณาที่ตราไว้เปนหลักดังนี้ฯ",
        "",
        "ข้อ ๑ นักโทษจำพวกอุกฤษฎ์โทษอันศาลยุติธรรมได้พิจารณาคดีถึงที่สุดแล้ว พิพากษาให้ลงพระราชอาญาประหารชีวิตจะได้ทรงพระวิจารณ์พินิจย์ด้วยพระญาณปรีชาราชอาญาสิทธิเปนโสด ว่ากรณีใดควรจะโปรดได้ โดยพระการุญอัธยาศัยราชธรรมนิยมฯ",
        "",
        "ข้อ ๒ ในจำพวกมหันตโทษ ที่ต้องรับพระราชอาญาจำคุกตลอดชีวิตนั้น ให้สำรวจเอาชื่อนักโทษบันดาที่ต้องจองจำทรมานมานานกว่ายี่สิบปี ให้พิเคราะห์ดูมูลคดีความผิดหนักเบา เปนโทษกะทงเดียวหรือหลายกะทง กอปกับความประพฤติเรียบร้อยเข็ดหลาบในเวลารับพระราชอาญาอยู่นั้น ให้เสนาบดีกระทรวงยุติธรรมพึงพิจารณาว่าควรเข้าอยู่ในข่ายพระมหากรุณาได้แล้ว ให้นำความขึ้นกราบบังคมทูลพระกรุณาเพื่อได้รับพระราชทานอภัยให้ล่วงพ้นโทษ",
        "เว้นแต่นักโทษจำพวกอุกฤษฎ์โทษ ซึ่งได้รับพระมหากรุณาพระราชทานอภัยโทษลงมาเปนนักโทษมหันตโทษครั้งหนึ่งแล้วมิควรเข้าอยู่ในข่ายพระมหากรุณา อย่าให้เอาเข้าบาญชีสำรวจด้วยเลยฯ",
        "",
        "ข้อ ๓ ในจำพวกครุโทษ ที่ต้องรับพระราชอาญาจำคุกมีกำหนดแต่สิบห้าปีถึงยี่สิบปี ให้เสนาบดีกระทงวงยุติธรรมสำรวจตรวจดูแต่ผู้ที่ต้องจองจำมากกว่ากึ่งครึ่งแห่งเวลากำหนดโทษอันพิพากษา และให้ตรวจคัดเอาแต่ผู้ที่ต้องโทษกะทงเดียว ฤาผู้ที่ได้ถวายสัตย์สารภาพความผิดโดยชื่นตา กอปกับความประพฤติเรียบร้อยเข็ดหลาบในเวลารับพระราชอาญาอยู่นั้น พึงพิจารณาว่าควรเข้าอยู่ในข่ายพระมหากรุณาได้ให้นำความขึ้นกราบบังคมทูลพระกรุณา เพื่อได้รับพระราชทานอภัยให้ล่วงพ้นโทษฯ",
        "",
        "ข้อ ๔ ในจำพวกมัธยมโทษ ที่ต้องรับพระราชอาญาจองจำมีกำหนดแต่หนึ่งปีขึ้นไป และหย่อนกว่าสิบห้าปี ให้เสนาบดีกระทรวงยุติธรรมสำรวจดูผู้ที่ต้องจำมาแล้วกว่ากึ่งครึ่งแห่งเวลากำหนดโทษอันพิพากษา และให้ตรวจคัดเอาแต่ที่ต้องโทษกะทงเดียวฤาที่ได้ถวายสัตย์สารภาพโดยชื่นตา กอปกับความประพฤติเรียบร้อยเข็ดหลาบในเวลารับพระราชอาญาอยู่นั้น พึงพิจารณาว่าควรเข้าอยู่ในข่ายพระมหากรุณาได้แล้ว ให้ทำบาญชีชื่อนำขึ้นกราบบังคมทูลพระกรุณา เพื่อได้รับพระราชทานอภัยให้ล่วงพ้นโทษ เว้นไว้แต่นักโทษจำพวกที่เปนโจร ส้องสุมควบคุมกันเข้าอั้งยี่ก็ดี ก่อการจลาจลก็ดี เปนผู้ร้ายวางเพลิงก็ดี ปลอมเงิน ปลอมบัตร์ตราก็ดี อำพรางในสัตยาธิษฐานทำพยานเท็จก็ดี เปนโจรตัดช่องย่องเบาฉกลัก ยักยอก ฉ้อโกง กรรโชก ชิง ปล้นสดมภ์ ฤาโจรสลัดก็ดี ทั้งปวงนี้เปนกรณีโทษมิควรเข้าอยู่ในข่ายพระมหากรุณา อย่าให้เอาเข้าบาญชีสำรวจด้วยเลยฯ",
        "",
        "ข้อ ๕ นักโทษจำพวกลหุโทษ อันศาลยุติธรรมได้พิพากษาสำเร็จเด็ดขาดให้ลงโทษจองจำมีกำหนดต่ำกว่าปีหนึ่งลงมา ฤาบันดาที่ต้องจำไถ่แทนเบี้ยปรับเปนพินัยหลวงและค่าฤาชาธรรมเนียม เว้นแต่กรณีโทษอำพรางสัตยาธิษฐานและโทษลอบเล่นการพนันอันต้องห้ามตามพระราชบัญญัติ ทรงพระกรุณาโปรดเกล้าฯ พระราชทานอภัยโทษให้ปล่อยจากเวรจำโดยพลัน แต่วันเถลิงถวัลยราชสมบัติ ที่ ๒๕ เดือนกุมภาพันธ์ พระพุทธศักราช ๒๔๖๘ นี้ฯ",
        "",
        "ข้อ ๖ บันดานักโทษทั้งหลาย ผู้ละเมิดพระราชบัญญัติลักษณเกณฑ์รับราชการทหาญบก ทหาญเรือ ตำรวจพระนครบาล ตำรวจภูธรหลบหนีราชการ ต้องรับพระราชอาญาอยู่ที่เวรจำในกรมราชทัณฑ์ก็ดีในกรมและกองทหาญบก ทหาญเรือ กรมตำรวจพระนครบาล ตำรวจภูธรก็ดี ทรงพระกรุณาโปรดเกล้าฯ พระราชทานอภัยโทษให้ปล่อยจากเวรจำโดยพลัน แต่วันเถลิงถวัลยราชสมบัตินี้ และให้คืนเข้ารับราชการประจำตามตรางเกณฑ์กรมสัสดีนั้นๆ ฯ",
        "",
        "ข้อ ๗ นักโทษชราร่างกายทุพพลภาพ ไม่ว่าต้องโทษหนักเบาสถานใด มีอายุล่วงได้หกสิบปีแล้ว ทรงพระกรุณาโปรดเกล้าฯ พระราชทานอภัยให้พ้นจากเวรจำ แต่วันเถลิงถวัลยราชสมบัติ ให้ญาติมิตรรับตัวไปอุปถัมภ์บำรุงกันสืบไปฯ",
        "",
        "ข้อ ๘ นักโทษพิการ เพราะโรคลึก โรงเรื้อรังบีฑาทรมานต้องทนทุกขเวทนาสาหัสอยู่มิได้วางวาย อันเสนาบดีกระทรวงยุติธรรมได้ให้ประชุมแพทย์ตรวจอาการ เห็นตกลงเปนอันเดียวว่า จะเยียวยารักษาให้ทุเลาหายมิได้นั้น ทรงพระกรุณาโปรดเกล้าฯ พระราชทานอภัยให้พ้นจากเวรจำ แต่วันเถลิงถวัลยราชสมบัติ ให้ญาติมิตรรับตัวไปรักษาพยาบาลกันตามควรฯ",
        "",
        "บันดานักโทษมีชื่ออันพระพัสดีได้คัดขึ้นบาญชีสำรวจ และเสนาบดีกระทรวงยุติธรรมได้ตรวจพิจารณาเห็นว่าควรเข้าอยู่ในข่ายพระมหากรุณาแล้ว ได้รับพระราชทานอภัยให้ลดโทษล่วงโทษสถานใดสถานหนึ่งดังว่ามาข้างต้นแล้ว ให้ผู้พิพากษาตุลาการศาลยุติธรรมประจำตำบลที่นักโทษต้องเวรจำอยู่นั้น ออกหมายสั่งแก่พระพัสดี พธัมรงค์ให้ปล่อยนักโทษทั้งหลายไปตามพระราชกำหนดนี้ เว้นแต่ที่เปนคดีพิเศษเหตุสำคัญเกลือกว่าจะเปนอันตรายแก่ความสงบของบ้านเมืองฤาทำให้เคืองเข็ญแก่มหาชน จงให้งดไว้ก่อน ต่อเมื่อได้ทราบพระราชวินิจฉัยเฉภาะคดีพิเศษว่าฉันใดแล้ว จึงให้รีบปฏิบัติตามนั้น และบาญชีชื่อนักโทษซึ่งได้รับพระราชทานอภัยทั้งหลายนั้น ให้เสนาบดีเจ้ากระทรวงส่งไปลงประกาศในหนังสือราชกิจจานุเบกษาเนืองๆ ให้ปรากฏชื่อและจำนวนคนที่ได้โปรดให้พ้นโทษไปฯ",
        "",
        "บันดามนุษหญิงชายที่ได้รับพระราชทานอภัยให้ลดโทษล่วงพ้นโทษครั้งนี้ จงตั้งกตเวทีรู้ลำลึกพระเดชพระคุณพระเจ้าอยู่หัว สงบเสงี่ยมเจียมตัวเปนสุภาพหลาบจำยำเกรงพระราชอาญา ประพฤติตนให้สมแก่ที่ทรงพระกรุณาโปรดปราณีย์ จงละพยสโทษกลีต่ำช้าหันเข้าหาทางชอบประกอบเลี้ยงชีพโดยธรรมสุจริต อย่าได้ข้องคิดจองเวรอาฆาตพยาบาทเบียดเบียฬกันให้เดือดเนื้อร้อนใจ ขออย่าได้ประสพทุกขไข้ภัยพิบัติลำเค็ญรักษาตนเปนสุขทุกเมื่อ ทวยราษฎร์ทั้งหลายจงมีจิตเอื้อเฟื้อเผื่อแผ่สามัคคีรส อดออมถนอมซึ่งกันและกันทุกชั้นทุกชาติ อย่าได้วิวาทก้ำเกินก้าวร้าวแก่งแย่ง แสวงลาภที่ควรสงวนทรัพย์ศฤงฆารถึงซึ่งความสุขเกษมศานต์ สงบจบสกลราชอาณาจักร์ เปนศุภลักษณ์เลิศรัฐสมบัติขัตติยาธิปัตยจำนง สำเร็จด้วยราชสงเคราะห์ธรรมพระมหากรุณาบารมีซึ่งได้ทรงบำเพ็ญในอภิลักขิตสมัยนี้ฯ",
        "",
        "",
        "",
        "",
        "ปริยานุช/พิมพ์",
        "๑๒ มกราคม ๒๕๕๐",
        "ปาจรีย์/อมรรัตน์/ตรวจ",
        "๑ กุมภาพันธ์ ๒๕๕๐"
      ]
    ],
    []
  ],
  "metadata": {
    "date_header": "2468-02-00",
    "date_modified": "2468-02-25",
    "date_original": "2468-02-25",
    "doctype": "พระราชกำหนด",
    "editors": [],
    "tag": "bb05-20-2468-a0001",
    "title": "พระราชอภัยโทษ"
  }
}