{
  "pages": [
    [
      [
        "ระเบียบกระทรวงยุติธรรม",
        "ว่าด้วยการขอและรับขึ้นทะเบียนเป็นผู้ทำหน้าที่นักจิตวิทยาหรือนักสังคมสงเคราะห์",
        "ตามประมวลกฎหมายวิธีพิจารณาความอาญา (ฉบับที่ ๔)",
        "พ.ศ. ๒๕๔๘"
      ]
    ],
    []
  ],
  "metadata": {
    "date_backmatter": "2548-09-21",
    "date_modified": "2548-10-25",
    "date_original": "2548-10-25",
    "editors": [
      {
        "name": "นฤตยา",
        "role": "ผู้จัดทำ",
        "date": "2553-11-04"
      },
      {
        "name": "เอกฤทธิ์",
        "role": "ตรวจ",
        "date": "2553-11-25"
      }
    ],
    "tag": "bb05-2g-2548-a0006"
  }
}