{
  "pages": [
    [
      [
        "พระราชกฤษฎีกา",
        "เบี้ยประชุมกรรมการ",
        "พ.ศ. ๒๕๔๗",
        "",
        "",
        "ภูมิพลอดุลยเดช ป.ร.",
        "ให้ไว้ ณ วันที่ ๒๗ พฤศจิกายน พ.ศ. ๒๕๔๗",
        "เป็นปีที่ ๕๙ ในรัชกาลปัจจุบัน"
      ]
    ],
    []
  ],
  "metadata": {
    "date_header": "2547-11-27",
    "date_modified": "2547-12-22",
    "date_original": "2547-12-22",
    "doctype": "พระราชกฤษฎีกา",
    "editors": [
      {
        "name": "ญาณี",
        "role": "พิมพ์",
        "date": "2548-03-17"
      },
      {
        "name": "ธัญกมล/ศุภสรณ์",
        "role": "ตรวจ",
        "date": "2548-04-22"
      },
      {
        "name": "ปณตภร",
        "role": "ปรับปรุง",
        "date": "2555-12-12"
      }
    ],
    "tag": "a110-2a-2547-a0004",
    "title": "เบี้ยประชุมกรรมการ"
  }
}