{
  "pages": [
    [
      [
        "พระราชกฤษฎีกา",
        "ค่าเช่าบ้านข้าราชการ",
        "พ.ศ. ๒๕๔๗",
        "",
        "",
        "ภูมิพลอดุลยเดช ป.ร.",
        "ให้ไว้ ณ วันที่ ๑๑ ธันวาคม พ.ศ. ๒๕๔๗",
        "เป็นปีที่ ๕๙ ในรัชกาลปัจจุบัน"
      ]
    ],
    []
  ],
  "metadata": {
    "date_backmatter": "2538-05-02",
    "date_header": "2547-12-11",
    "date_modified": "2550-12-10",
    "date_original": "2547-12-27",
    "doctype": "พระราชกฤษฎีกา",
    "editors": [
      {
        "name": "ชาญ",
        "role": "ผู้จัดทำ",
        "date": "2556-10-30"
      }
    ],
    "tag": "a110-2a-2550-a0006",
    "title": "ค่าเช่าบ้านข้าราชการ"
  }
}