{
  "pages": [
    [
      [
        "พระราชกฤษฎีกา",
        "ยกเลิกพระราชกฤษฎีกาว่าด้วยเงินสวัสดิการ",
        "เกี่ยวกับเงินเพิ่มค่าครองชีพชั่วคราว",
        "พ.ศ. ๒๕๓๑",
        "",
        "",
        "ภูมิพลอดุลยเดช ป.ร.",
        "ให้ไว้ ณ วันที่ ๓ พฤศจิกายน พ.ศ. ๒๕๓๑",
        "เป็นปีที่ ๔๓ ในรัชกาลปัจจุบัน"
      ]
    ],
    []
  ],
  "metadata": {
    "date_header": "2531-11-03",
    "date_modified": "2531-11-08",
    "date_original": "2531-11-08",
    "doctype": "พระราชกฤษฎีกา",
    "editors": [
      {
        "name": "จุฑามาศ",
        "role": "ปรับปรุง",
        "date": "2558-06-25"
      }
    ],
    "tag": "a110-2a-2531-001",
    "title": "ยกเลิกพระราชกฤษฎีกาว่าด้วยเงินสวัสดิการเกี่ยวกับเงินเพิ่มค่าครองชีพชั่วคราว"
  }
}