{
  "pages": [
    [
      [
        "พระราชกฤษฎีกา",
        "เบี้ยประชุมสมาชิกสภาที่ปรึกษาของนายกรัฐมนตรี",
        "พ.ศ. ๒๕๑๙",
        "",
        "",
        "ภูมิพลอดุลยเดช ป.ร.",
        "ให้ไว้ ณ วันที่ ๑๓ พฤศจิกายน พ.ศ. ๒๕๑๙",
        "เป็นปีที่ ๓๑ ในรัชกาลปัจจุบัน"
      ]
    ],
    []
  ],
  "metadata": {
    "date_header": "2519-11-13",
    "date_modified": "2519-11-16",
    "date_original": "2519-11-16",
    "doctype": "พระราชกฤษฎีกา",
    "editors": [
      {
        "name": "จุฑามาศ",
        "role": "ปรับปรุง",
        "date": "2558-06-02"
      }
    ],
    "tag": "a110-2a-2519-001",
    "title": "เบี้ยประชุมสมาชิกสภาที่ปรึกษาของนายกรัฐมนตรี"
  }
}