{
  "pages": [
    [
      [
        "พระราชกฤษฎีกา",
        "เงินสวัสดิการสมาชิกสภาผู้แทนราษฎรซึ่งถึงแก่ความตาย",
        "เนื่องในการเดินทางไปปฏิบัติงานของรัฐสภา ณ จังหวัดเชียงใหม่",
        "เมื่อวันที่ ๕ กันยายน พ.ศ. ๒๕๒๔",
        "พ.ศ. ๒๕๒๔",
        "",
        "",
        "ภูมิพลอดุลยเดช ป.ร.",
        "ให้ไว้ ณ วันที่ ๓๐ กันยายน พ.ศ. ๒๕๒๔",
        "เป็นปีที่ ๓๖ ในรัชกาลปัจจุบัน"
      ]
    ],
    []
  ],
  "metadata": {
    "date_backmatter": "2524-09-05",
    "date_header": "2524-09-05",
    "date_modified": "2524-10-02",
    "date_original": "2524-10-02",
    "doctype": "พระราชกฤษฎีกา",
    "editors": [
      {
        "name": "จุฑามาศ",
        "role": "ปรับปรุง",
        "date": "2558-06-17"
      }
    ],
    "tag": "a110-2a-2524-002",
    "title": "เงินสวัสดิการสมาชิกสภาผู้แทนราษฎรซึ่งถึงแก่ความตายเนื่องในการเดินทางไปปฏิบัติงานของรัฐสภา ณ จังหวัดเชียงใหม่เมื่อวันที่ ๕ กันยายน พ.ศ. ๒๕๒๔"
  }
}