{
  "pages": [
    [
      [
        "ประกาศคณะรักษาความสงบแห่งชาติ",
        "ที่ ๘๑/๒๕๕๗",
        "เรื่อง แก้ไขเพิ่มเติมพระราชกฤษฎีกาเงินช่วยค่าครองชีพผู้รับเบี้ยหวัดบำนาญ พ.ศ. ๒๕๒๑"
      ]
    ],
    []
  ],
  "metadata": {
    "date_backmatter": "2557-07-10",
    "date_modified": "2557-07-21",
    "date_original": "2557-07-21",
    "doctype": "ประกาศ",
    "editors": [
      {
        "name": "ปริยานุช",
        "role": "ผู้จัดทำ",
        "date": "2557-07-24"
      },
      {
        "name": "จุฑามาศ",
        "role": "ผู้ตรวจ",
        "date": "2557-07-31"
      }
    ],
    "tag": "a110-2a-2557-a0001"
  }
}