{
  "pages": [
    [
      [
        "พระราชกฤษฎีกา",
        "เงินสวัสดิการเกี่ยวกับการศึกษาของบุตร (ฉบับที่ ๓)",
        "พ.ศ.๒๕๓๓",
        "----------------",
        "",
        "ภูมิพลอดุลยเดช ป.ร.",
        "ให้ไว้ ณ วันที่ ๔ กรกฎาคม พ.ศ.๒๕๓๓",
        "เป็นปีที่ ๔๕ ในรัชกาลปัจจุบัน"
      ]
    ],
    []
  ],
  "metadata": {
    "date_header": "2533-07-04",
    "editors": [],
    "tag": "a110-2a-2533-004"
  }
}