{
  "pages": [
    [
      [
        "ประกาศกระทรวงการคลัง",
        "เรื่อง การชดใช้เงินส่วนต่างของอัตราดอกเบี้ยเงินกู้ที่ได้รับตามพระราชกฤษฎีกา",
        "สวัสดิการเงินกู้เพื่อที่อยู่อาศัย พ.ศ. ๒๕๓๕ กับอัตราดอกเบี้ยเงินกู้ปกติคืน",
        "ให้แก่ทางราชการของเจ้าหน้าที่องค์การมหาชน องค์กรของรัฐที่เป็นอิสระ",
        "ไม่เป็นส่วนราชการแต่อยู่ในกำกับดูแลของรัฐ พนักงานมหาวิทยาลัย",
        "และหน่วยงานที่ยังคงมีสถานะเป็นส่วนราชการ"
      ]
    ],
    []
  ],
  "metadata": {
    "date_backmatter": "2545-05-25",
    "date_modified": "2545-06-26",
    "date_original": "2545-06-26",
    "doctype": "ประกาศ",
    "editors": [
      {
        "name": "ธิดาวรรณ",
        "role": "แก้ไข",
        "date": "2545-11-27"
      },
      {
        "name": "จุฑามาศ",
        "role": "ปรับปรุง",
        "date": "2558-06-30"
      }
    ],
    "tag": "a110-2e-2545-a003"
  }
}