{
  "pages": [
    [
      [
        "พระราชกฤษฎีกา",
        "เงินช่วยค่าครองชีพผู้รับเบี้ยหวัดบำนาญ (ฉบับที่ ๕)",
        "พ.ศ. ๒๕๓๓",
        "",
        "",
        "ภูมิพลอดุลยเดช ป.ร.",
        "ให้ไว้ ณ วันที่ ๖ เมษายน พ.ศ. ๒๕๓๓",
        "เป็นปีที่ ๔๕ ในรัชกาลปัจจุบัน"
      ]
    ],
    []
  ],
  "metadata": {
    "date_header": "2533-04-06",
    "date_modified": "2533-04-09",
    "date_original": "2533-04-09",
    "doctype": "พระราชกฤษฎีกา",
    "editors": [
      {
        "name": "จุฑามาศ",
        "role": "ปรับปรุง",
        "date": "2558-06-18"
      }
    ],
    "tag": "a110-2a-2533-001",
    "title": "เงินช่วยค่าครองชีพผู้รับเบี้ยหวัดบำนาญ (ฉบับที่ ๕)"
  }
}