{
  "pages": [
    [
      [
        "พระราชกฤษฎีกา",
        "การจ่ายเงินเดือน เงินปี บำเหน็จ บำนาญ และเงินอื่นในลักษณะเดียวกัน (ฉบับที่ ๔)",
        "พ.ศ. ๒๕๔๙",
        "",
        "",
        "ภูมิพลอดุลยเดช ป.ร.",
        "ให้ไว้ ณ วันที่ ๑ เมษายน พ.ศ. ๒๕๔๙",
        "เป็นปีที่ ๖๑ ในรัชกาลปัจจุบัน"
      ]
    ],
    []
  ],
  "metadata": {
    "date_header": "2549-04-01",
    "date_modified": "2549-04-17",
    "date_original": "2549-04-17",
    "doctype": "พระราชกฤษฎีกา",
    "editors": [
      {
        "name": "พัชรินทร์",
        "role": "ผู้จัดทำ",
        "date": "2549-04-20"
      },
      {
        "name": "ปณตภร",
        "role": "ปรับปรุง",
        "date": "2555-10-03"
      }
    ],
    "tag": "a110-2a-2549-a0001",
    "title": "การจ่ายเงินเดือน เงินปี บำเหน็จ บำนาญ และเงินอื่นในลักษณะเดียวกัน (ฉบับที่ ๔)"
  }
}