{
  "pages": [
    [
      [
        "พระราชกฤษฎีกา",
        "เงินช่วยเหลือผู้ซึ่งออกจากราชการ",
        "ตามมาตรการปรับปรุงอัตรากำลังของส่วนราชการ (ฉบับที่ ๒)",
        "พ.ศ. ๒๕๕๓",
        "",
        "",
        "ภูมิพลอดุลยเดช ป.ร.",
        "ให้ไว้ ณ วันที่ ๒๔ กุมภาพันธ์ พ.ศ. ๒๕๕๓",
        "เป็นปีที่ ๖๕ ในรัชกาลปัจจุบัน"
      ]
    ],
    []
  ],
  "metadata": {
    "date_header": "2553-02-24",
    "date_modified": "2553-03-05",
    "date_original": "2553-03-05",
    "doctype": "พระราชกฤษฎีกา",
    "editors": [
      {
        "name": "ปริยานุช",
        "role": "ผู้จัดทำ",
        "date": "2553-03-08"
      },
      {
        "name": "นันท์นภัสร์",
        "role": "ตรวจ",
        "date": "2553-03-08"
      },
      {
        "name": "จุฑามาศ",
        "role": "ปรับปรุง",
        "date": "2558-06-29"
      }
    ],
    "tag": "a110-2a-2553-a0001",
    "title": "เงินช่วยเหลือผู้ซึ่งออกจากราชการตามมาตรการปรับปรุงอัตรากำลังของส่วนราชการ (ฉบับที่ ๒)"
  }
}