{
  "pages": [
    [
      [
        "พระราชกฤษฎีกา",
        "เงินช่วยเหลือผู้ซึ่งออกจากราชการตามมาตรการของรัฐบาล พ.ศ. ๒๕๔๗",
        "",
        "",
        "ภูมิพลอดุลยเดช ป.ร.",
        "ให้ไว้ ณ วันที่ ๕ เมษายน พ.ศ. ๒๕๔๗",
        "เป็นปีที่ ๕๙ ในรัชกาลปัจจุบัน"
      ]
    ],
    []
  ],
  "metadata": {
    "date_header": "2547-04-05",
    "date_modified": "2547-04-08",
    "date_original": "2547-04-08",
    "doctype": "พระราชกฤษฎีกา",
    "editors": [
      {
        "name": "ศุภชัย",
        "role": "พิมพ์",
        "date": "2547-04-19"
      },
      {
        "name": "สุมลรัตน์/พงษ์พิลัย/ยงยุทธ/ธรรมนิตย์",
        "role": "ตรวจ",
        "date": "2547-04-19"
      },
      {
        "name": "จุฑามาศ",
        "role": "ปรับปรุง",
        "date": "2558-06-25"
      }
    ],
    "tag": "a110-2a-2547-a0001",
    "title": "เงินช่วยเหลือผู้ซึ่งออกจากราชการตามมาตรการของรัฐบาล"
  }
}