{
  "pages": [
    [
      [
        "พระราชกฤษฎีกา",
        "เงินสวัสดิการเกี่ยวกับการศึกษาของบุตร",
        "พ.ศ. ๒๕๒๓",
        "",
        "",
        "ภูมิพลอดุลยเดช ป.ร.",
        "ให้ไว้ ณ วันที่ ๒๔ ธันวาคม พ.ศ.๒๕๒๓",
        "เป็นปีที่ ๓๕ ในรัชกาลปัจจุบัน"
      ]
    ],
    []
  ],
  "metadata": {
    "date_header": "2523-12-24",
    "date_modified": "2554-05-12",
    "date_original": "2523-12-29",
    "doctype": "พระราชกฤษฎีกา",
    "editors": [
      {
        "name": "วาทินี",
        "role": "ปรับปรุง",
        "date": "2549-09-18"
      },
      {
        "name": "จุฑามาศ",
        "role": "ปรับปรุง",
        "date": "2558-06-17"
      }
    ],
    "tag": "a110-2a-9993-update",
    "title": "เงินสวัสดิการเกี่ยวกับการศึกษาของบุตร"
  }
}