{
  "pages": [
    [
      [
        "ประกาศกรมการค้าต่างประเทศ",
        "เรื่อง แสดงรายละเอียดข้อเท็จจริงและข้อกฎหมายอันเป็นสาระสำคัญที่ใช้เป็นพื้นฐานในการพิจารณา",
        "ผลการไต่สวนชั้นที่สุดกรณีการตอบโต้การทุ่มตลาดสินค้าเหล็กกล้าไร้สนิมรีดเย็นชนิดม้วน แผ่น",
        "และแผ่นแถบ ที่มีแหล่งกำเนิดจากสาธารณรัฐประชาชนจีน",
        "พ.ศ. ๒๕๕๖"
      ]
    ],
    []
  ],
  "metadata": {
    "date_backmatter": "2556-12-20",
    "date_modified": "2556-12-24",
    "date_original": "2556-12-24",
    "doctype": "ประกาศ",
    "editors": [
      {
        "name": "ปริยานุช",
        "role": "ผู้จัดทำ",
        "date": "2557-01-06"
      },
      {
        "name": "โชติกานต์",
        "role": "ผู้ตรวจ",
        "date": "2557-01-06"
      }
    ],
    "tag": "a194-2e-2556-a0021"
  }
}