{
  "pages": [
    [
      [
        "ประกาศกรมการค้าต่างประเทศ",
        "เรื่อง แสดงรายละเอียดข้อเท็จจริงและข้อกฎหมายอันเป็นสาระสำคัญที่ใช้เป็นพื้นฐานในการพิจารณา",
        "ทบทวนความจำเป็นในการใช้มาตรการตอบโต้การทุ่มตลาดสินค้ากระเบื้องปูพื้นและทางเดิน",
        "กระเบื้องปูพื้นเตาหรือติดผนังที่เป็นเซรามิกไม่ได้เคลือบและที่เป็นเซรามิกเคลือบแล้ว",
        "รวมทั้งหินโมเสกและของที่คล้ายกัน ที่เป็นเซรามิกไม่ได้เคลือบและที่เป็นเซรามิกเคลือบแล้ว",
        "จะมีสิ่งรองรับหรือไม่ก็ตามที่มีแหล่งกำเนิดจากสาธารณรัฐประชาชนจีนต่อไป",
        "พ.ศ. ๒๕๖๐"
      ]
    ],
    []
  ],
  "metadata": {
    "date_backmatter": "2560-07-06",
    "date_modified": "2560-07-24",
    "date_original": "2560-07-24",
    "doctype": "ประกาศ",
    "editors": [
      {
        "name": "ปุณิกา/อัญชลี",
        "role": "จัดทำ",
        "date": "2560-07-26"
      },
      {
        "name": "นุสรา",
        "role": "ตรวจ",
        "date": "2560-07-27"
      }
    ],
    "tag": "a194-2e-2560-a0019"
  }
}