{
  "pages": [
    [
      [
        "ประกาศกรมการค้าต่างประเทศ",
        "เรื่อง แสดงรายละเอียดข้อเท็จจริงและข้อกฎหมายอันเป็นสาระสำคัญที่ใช้เป็นพื้นฐานในการพิจารณา",
        "ผลการไต่สวนเบื้องต้นการทุ่มตลาดสินค้าหลอดและท่อทำด้วยเหล็กหรือเหล็กกล้า",
        "ที่มีแหล่งกำเนิดจากสาธารณรัฐประชาชนจีนและสาธารณรัฐเกาหลี",
        "พ.ศ. ๒๕๕๙"
      ]
    ],
    []
  ],
  "metadata": {
    "date_backmatter": "2559-11-23",
    "date_modified": "2559-11-30",
    "date_original": "2559-11-30",
    "doctype": "ประกาศ",
    "editors": [
      {
        "name": "วิศนี/ปริยานุช",
        "role": "จัดทำ",
        "date": "2559-12-06"
      },
      {
        "name": "ปริญสินีย์",
        "role": "ตรวจ",
        "date": "2559-12-30"
      }
    ],
    "tag": "a194-2e-2559-a0026"
  }
}