{
  "pages": [
    [
      [
        "ประกาศคณะกรรมการพิจารณาการทุ่มตลาดและการอุดหนุน",
        "เรื่อง การตอบโต้การทุ่มตลาดสินค้าเหล็กแผ่นรีดเย็นเคลือบด้วยสังกะสีแบบจุ่มร้อนแล้วทาสี",
        "และเหล็กแผ่นรีดเย็นชุบหรือเคลือบด้วยโลหะเจือของอะลูมิเนียมและสังกะสีแบบจุ่มร้อนแล้วทาสี",
        "ที่มีแหล่งกำเนิดจากสาธารณรัฐประชาชนจีน สาธารณรัฐเกาหลี และไต้หวัน",
        "(ฉบับที่ ๓)",
        "พ.ศ. ๒๕๕๘"
      ]
    ],
    []
  ],
  "metadata": {
    "date_backmatter": "2558-01-22",
    "date_modified": "2558-02-04",
    "date_original": "2558-02-04",
    "doctype": "ประกาศ",
    "editors": [
      {
        "name": "ปริยานุช",
        "role": "ผู้จัดทำ",
        "date": "2558-02-10"
      },
      {
        "name": "กฤษดายุทธ",
        "role": "ผู้ตรวจ",
        "date": "2558-02-10"
      }
    ],
    "tag": "a194-2e-2558-a0006"
  }
}