{
  "pages": [
    [
      [
        "ประกาศคณะกรรมการพิจารณาการทุ่มตลาดและการอุดหนุน",
        "เรื่อง การตอบโต้การทุ่มตลาดสินค้ายางในชนิดที่ใช้กับรถจักรยานยนต์",
        "ที่มีแหล่งกำเนิดจากสาธารณรัฐประชาชนจีน",
        "(ฉบับที่ ๒)",
        "พ.ศ. ๒๕๕๕"
      ]
    ],
    []
  ],
  "metadata": {
    "date_backmatter": "2555-11-28",
    "date_modified": "2555-11-29",
    "date_original": "2555-11-29",
    "doctype": "ประกาศ",
    "editors": [
      {
        "name": "ปริยานุช",
        "role": "ผู้จัดทำ",
        "date": "2555-12-04"
      },
      {
        "name": "ณัฐพร",
        "role": "ผู้ตรวจ",
        "date": "2555-12-04"
      }
    ],
    "tag": "a194-2e-2555-a0015"
  }
}