{
  "pages": [
    [
      [
        "ประกาศคณะกรรมการพิจารณาการทุ่มตลาดและการอุดหนุน",
        "เรื่อง ยุติการไต่สวนการทุ่มตลาดสินค้ากระดาษและกระดาษแข็งเคลือบ",
        "ที่มีแหล่งกำเนิดจากสาธารณรัฐประชาชนจีน สาธารณรัฐอินโดนีเซีย",
        "สาธารณรัฐเกาหลี ประเทศญี่ปุ่น และไต้หวัน",
        "พ.ศ. ๒๕๕๕"
      ]
    ],
    []
  ],
  "metadata": {
    "date_backmatter": "2555-07-11",
    "date_modified": "2555-07-12",
    "date_original": "2555-07-12",
    "doctype": "ประกาศ",
    "editors": [
      {
        "name": "ปริยานุช",
        "role": "ผู้จัดทำ",
        "date": "2555-07-18"
      },
      {
        "name": "ชาญ",
        "role": "ผู้ตรวจ",
        "date": "2555-07-24"
      }
    ],
    "tag": "a194-2e-2555-a0005"
  }
}