{
  "pages": [
    [
      [
        "ประกาศกรมการค้าต่างประเทศ",
        "เรื่อง แสดงรายละเอียดข้อเท็จจริงและข้อกฎหมายอันเป็นสาระสำคัญที่ใช้เป็นพื้นฐาน",
        "ในการพิจารณาผลการไต่สวนชั้นที่สุดกรณีการตอบโต้การทุ่มตลาดสินค้ากระเบื้องปูพื้นและทางเดิน",
        "กระเบื้องปูพื้นเตาหรือติดผนังที่เป็นเซรามิกไม่ได้เคลือบและที่เป็นเซรามิกเคลือบแล้ว",
        "รวมทั้งหินโมเสกและของที่คล้ายกันที่เป็นเซรามิกไม่ได้เคลือบ",
        "และที่เป็นเซรามิกเคลือบแล้วจะมีสิ่งรองรับหรือไม่ก็ตาม",
        "ที่มีแหล่งกำเนิดจากสาธารณรัฐประชาชนจีน",
        "พ.ศ. ๒๕๕๔"
      ]
    ],
    []
  ],
  "metadata": {
    "date_backmatter": "2554-06-24",
    "date_modified": "2554-06-30",
    "date_original": "2554-06-30",
    "doctype": "ประกาศ",
    "editors": [
      {
        "name": "วิภา",
        "role": "ผู้จัดทำ",
        "date": "2554-09-08"
      }
    ],
    "tag": "a194-2e-2554-a0013"
  }
}