{
  "pages": [
    [
      [
        "พระราชบัญญัติ",
        "การตอบโต้การทุ่มตลาดและการอุดหนุนซึ่งสินค้าจากต่างประเทศ",
        "พ.ศ. ๒๕๔๒",
        "",
        "",
        "ภูมิพลอดุลยเดช ป.ร.",
        "ให้ไว้ ณ วันที่ ๒๒ มีนาคม พ.ศ. ๒๕๔๒",
        "เป็นปีที่ ๕๔ ในรัชกาลปัจจุบัน"
      ]
    ],
    []
  ],
  "metadata": {
    "date_header": "2542-03-22",
    "date_modified": "2542-03-31",
    "date_original": "2542-03-31",
    "doctype": "พระราชบัญญัติ",
    "editors": [
      {
        "name": "เนติมา/พัชรินทร์",
        "role": "จัดทำ",
        "date": "2546-05-28"
      },
      {
        "name": "วศิน",
        "role": "แก้ไข",
        "date": "2552-03-24"
      },
      {
        "name": "จุฑามาศ",
        "role": "ปรับปรุง",
        "date": "2559-05-28"
      }
    ],
    "tag": "a194-20-2542-a0001",
    "title": "การตอบโต้การทุ่มตลาดและการอุดหนุนซึ่งสินค้าจากต่างประเทศ"
  }
}