{
  "pages": [
    [
      [
        "ประกาศคณะกรรมการพิจารณาการทุ่มตลาดและการอุดหนุน",
        "เรื่อง การตอบโต้การทุ่มตลาดสินค้าหลอดและท่อทำด้วยเหล็กหรือเหล็กกล้า",
        "ที่มีแหล่งกำเนิดจากสาธารณรัฐประชาชนจีนและสาธารณรัฐเกาหลี",
        "พ.ศ. ๒๕๕๙"
      ]
    ],
    []
  ],
  "metadata": {
    "date_backmatter": "2559-11-11",
    "date_modified": "2559-11-15",
    "date_original": "2559-11-15",
    "doctype": "ประกาศ",
    "editors": [
      {
        "name": "ปริยานุช",
        "role": "จัดทำ",
        "date": "2559-11-22"
      },
      {
        "name": "วิศนี",
        "role": "ตรวจ",
        "date": "2559-11-22"
      }
    ],
    "tag": "a194-2e-2559-a0023"
  }
}