{
  "pages": [
    [
      [
        "ประกาศกรมการค้าต่างประเทศ",
        "เรื่อง แสดงรายละเอียดข้อเท็จจริงและข้อกฎหมายอันเป็นสาระสำคัญที่ใช้เป็นพื้นฐานในการพิจารณา",
        "ผลการไต่สวนเบื้องต้นกรณีการตอบโต้การทุ่มตลาดสินค้าบล็อกแก้วชนิดใส",
        "ที่มีแหล่งกำเนิดจากสาธารณรัฐเช็ก",
        "พ.ศ. ๒๕๕๑"
      ]
    ],
    []
  ],
  "metadata": {
    "date_backmatter": "2551-08-14",
    "date_modified": "2551-08-22",
    "date_original": "2551-08-22",
    "doctype": "ประกาศ",
    "editors": [
      {
        "name": "วิภา",
        "role": "ผู้จัดทำ",
        "date": "2554-09-08"
      }
    ],
    "tag": "a194-2e-2551-a0012"
  }
}