{
  "pages": [
    [
      [
        "ประกาศกรมการค้าต่างประเทศ",
        "เรื่อง หลักเกณฑ์ วิธีการ และเงื่อนไข ในการนำเข้าสินค้าเหล็กแผ่นรีดร้อนชนิดเป็นม้วนและไม่เป็นม้วน",
        "ที่มีแหล่งกำเนิดจากสาธารณรัฐประชาชนจีนและประเทศมาเลเซีย กรณีนำไปใช้ในอุตสาหกรรมแม่พิมพ์",
        "เพื่อใช้สิทธิชำระอากรตอบโต้การทุ่มตลาดในอัตราร้อยละ ๐",
        "พ.ศ. ๒๕๖๐"
      ]
    ],
    []
  ],
  "metadata": {
    "date_backmatter": "2560-08-02",
    "date_modified": "2560-08-08",
    "date_original": "2560-08-08",
    "doctype": "ประกาศ",
    "editors": [
      {
        "name": "ปวันวิทย์/อัญชลี",
        "role": "จัดทำ",
        "date": "2560-08-10"
      }
    ],
    "tag": "a194-2e-2560-a0021"
  }
}