{
  "pages": [
    [
      [
        "ประกาศกรมการค้าต่างประเทศ",
        "เรื่อง หลักเกณฑ์ วิธีการและเงื่อนไขในการนำเข้าสินค้าเหล็กแผ่นรีดเย็นเคลือบด้วยสังกะสี",
        "แบบจุ่มร้อนแล้วทาสี และเหล็กแผ่นรีดเย็นชุบหรือเคลือบด้วยโลหะเจือของอะลูมิเนียมและสังกะสีแบบจุ่มร้อนแล้วทาสี ที่มีแหล่งกำเนิดจากสาธารณรัฐประชาชนจีน สาธารณรัฐเกาหลี และไต้หวัน",
        "เพื่อใช้ในอุตสาหกรรมการผลิตกระดานไวท์บอร์ด (White Board)",
        "พ.ศ. ๒๕๖๑"
      ]
    ],
    []
  ],
  "metadata": {
    "date_backmatter": "2561-01-23",
    "date_modified": "2561-02-02",
    "date_original": "2561-02-02",
    "doctype": "ประกาศ",
    "editors": [
      {
        "name": "ปวันวิทย์",
        "role": "จัดทำ",
        "date": "2561-03-05"
      }
    ],
    "tag": "a194-2e-2561-a0009"
  }
}