{
  "pages": [
    [
      [
        "ประกาศกรมการค้าต่างประเทศ",
        "เรื่อง เปิดการทบทวนความจำเป็นในการใช้มาตรการตอบโต้การทุ่มตลาดต่อไป",
        "และเปิดการทบทวนอัตราอากรตอบโต้การทุ่มตลาด",
        "สินค้ากรดซิทริกที่มีแหล่งกำเนิดจากสาธารณรัฐประชาชนจีน",
        "พ.ศ. ๒๕๕๖"
      ]
    ],
    []
  ],
  "metadata": {
    "date_backmatter": "2556-01-15",
    "date_modified": "2556-01-18",
    "date_original": "2556-01-18",
    "doctype": "ประกาศ",
    "editors": [
      {
        "name": "ปริยานุช",
        "role": "ผู้จัดทำ",
        "date": "2556-01-21"
      },
      {
        "name": "อุษมล",
        "role": "ผู้ตรวจ",
        "date": "2556-01-21"
      }
    ],
    "tag": "a194-2e-2556-a0003"
  }
}