{
  "pages": [
    [
      [
        "ประกาศคณะกรรมการพิจารณาการทุ่มตลาดและการอุดหนุน",
        "เรื่อง ผลการพิจารณาทบทวนความจำเป็นในการต่ออายุการใช้มาตรการตอบโต้การทุ่มตลาด",
        "สินค้าเหล็กกล้าไร้สนิมรีดเย็นชนิดม้วน แผ่น และแผ่นแถบ",
        "ที่มีแหล่งกำเนิดจากประเทศญี่ปุ่น สหภาพยุโรป ไต้หวัน และสาธารณรัฐเกาหลี",
        "พ.ศ. ๒๕๕๒"
      ]
    ],
    []
  ],
  "metadata": {
    "date_backmatter": "2552-03-04",
    "date_modified": "2552-03-19",
    "date_original": "2552-03-19",
    "doctype": "ประกาศ",
    "editors": [
      {
        "name": "วิภา",
        "role": "ผู้จัดทำ",
        "date": "2554-09-08"
      }
    ],
    "tag": "a194-2e-2552-a0007"
  }
}