{
  "pages": [
    [
      [
        "ประกาศกรมการค้าต่างประเทศ",
        "เรื่อง เปิดการทบทวนความจำเป็นในการต่ออายุการใช้มาตรการตอบโต้การทุ่มตลาดและทบทวนขอบเขตของสินค้าเหล็กแผ่นรีดร้อนชนิดเป็นม้วนและไม่เป็นม้วน ที่มีแหล่งกำเนิดจาก",
        "ประเทศญี่ปุ่น สาธารณรัฐแอฟริกาใต้ สหพันธรัฐรัสเซีย สาธารณรัฐคาซัคสถาน",
        "สาธารณรัฐอินเดีย สาธารณรัฐเกาหลี ไต้หวัน สาธารณรัฐเวเนซูเอลา สาธารณรัฐอาร์เจนตินา",
        "ประเทศยูเครน สาธารณรัฐประชาธิปไตยประชาชนแอลจีเรีย สาธารณรัฐอินโดนีเซีย",
        "สาธารณรัฐสโลวัก และประเทศโรมาเนีย",
        "พ.ศ. ๒๕๕๑"
      ]
    ],
    []
  ],
  "metadata": {
    "date_backmatter": "2551-05-21",
    "date_modified": "2551-05-23",
    "date_original": "2551-05-23",
    "doctype": "ประกาศ",
    "editors": [
      {
        "name": "วิภา",
        "role": "ผู้จัดทำ",
        "date": "2554-09-07"
      }
    ],
    "tag": "a194-2e-2551-a0004"
  }
}