{
  "pages": [
    [
      [
        "ประกาศกรมการค้าต่างประเทศ",
        "เรื่อง แสดงรายละเอียดข้อเท็จจริงและข้อกฎหมายอันเป็นสาระสำคัญที่ใช้เป็นพื้นฐานในการพิจารณา",
        "ผลการทบทวนอัตราอากรตอบโต้การทุ่มตลาดสินค้าเหล็กแผ่นรีดเย็นชุบหรือเคลือบด้วยโลหะเจือของ",
        "อะลูมิเนียมและสังกะสีแบบจุ่มร้อน ที่มีแหล่งกำเนิดจากสาธารณรัฐประชาชนจีนและไต้หวัน",
        "พ.ศ. ๒๕๕๘"
      ]
    ],
    []
  ],
  "metadata": {
    "date_backmatter": "2558-02-19",
    "date_modified": "2558-03-18",
    "date_original": "2558-03-18",
    "doctype": "ประกาศ",
    "editors": [
      {
        "name": "ปริยานุช",
        "role": "ผู้จัดทำ",
        "date": "2558-03-19"
      },
      {
        "name": "วันฑิตา",
        "role": "ผู้ตรวจ",
        "date": "2558-04-20"
      }
    ],
    "tag": "a194-2e-2558-a0013"
  }
}