{
  "pages": [
    [
      [
        "ประกาศกรมการค้าต่างประเทศ",
        "เรื่อง แสดงรายละเอียดข้อเท็จจริงและข้อกฎหมายอันเป็นสาระสำคัญที่ใช้เป็นพื้นฐานในการพิจารณา",
        "ผลการทบทวนอัตราอากรตอบโต้การทุ่มตลาดสินค้าเหล็กแผ่นรีดร้อนชนิดเป็นม้วนและไม่เป็นม้วน",
        "ของ Hyundai Steel Company ที่มีแหล่งกำเนิดจากสาธารณรัฐเกาหลี",
        "พ.ศ. ๒๕๖๐"
      ]
    ],
    []
  ],
  "metadata": {
    "date_backmatter": "2560-06-14",
    "date_modified": "2560-06-28",
    "date_original": "2560-06-28",
    "doctype": "ประกาศ",
    "editors": [
      {
        "name": "ปุณิกา/อัญชลี",
        "role": "จัดทำ",
        "date": "2560-06-29"
      },
      {
        "name": "นุสรา",
        "role": "ตรวจ",
        "date": "2560-09-26"
      }
    ],
    "tag": "a194-2e-2560-a0017"
  }
}