{
  "pages": [
    [
      [
        "ประกาศคณะกรรมการพิจารณาการทุ่มตลาดและการอุดหนุน",
        "เรื่อง ผลการพิจารณาทบทวนความจำเป็นในการต่ออายุการใช้มาตรการตอบโต้การทุ่มตลาด",
        "และทบทวนขอบเขตของสินค้าเหล็กแผ่นรีดร้อนชนิดเป็นม้วนและไม่เป็นม้วนที่มีแหล่งกำเนิดจาก",
        "ประเทศญี่ปุ่น สาธารณรัฐแอฟริกาใต้ สหพันธรัฐรัสเซีย สาธารณรัฐคาซัคสถาน สาธารณรัฐอินเดีย",
        "สาธารณรัฐเกาหลี ไต้หวัน สาธารณรัฐเวเนซูเอลา สาธารณรัฐอาร์เจนตินา ประเทศยูเครน สาธารณรัฐ",
        "ประชาธิปไตยประชาชนแอลจีเรีย สาธารณรัฐอินโดนีเซีย สาธารณรัฐสโลวัก และประเทศโรมาเนีย",
        "พ.ศ. ๒๕๕๒"
      ]
    ],
    []
  ],
  "metadata": {
    "date_backmatter": "2552-05-21",
    "date_modified": "2552-05-22",
    "date_original": "2552-05-22",
    "doctype": "ประกาศ",
    "editors": [
      {
        "name": "วิภา",
        "role": "ผู้จัดทำ",
        "date": "2554-09-08"
      }
    ],
    "tag": "a194-2e-2552-a0015"
  }
}