{
  "pages": [
    [
      [
        "ประกาศกรมการค้าต่างประเทศ",
        "เรื่อง ผลการไต่สวนการทุ่มตลาดสินค้าเหล็กโครงสร้างรูปพรรณ",
        "หน้าตัดรูปตัว H ที่มีแหล่งกำเนิดจากสาธารณรัฐประชาชนจีน",
        "พ.ศ. ๒๕๔๕"
      ]
    ],
    []
  ],
  "metadata": {
    "date_backmatter": "2545-08-19",
    "date_modified": "2545-08-21",
    "date_original": "2545-08-21",
    "doctype": "ประกาศ",
    "editors": [
      {
        "name": "วิภา",
        "role": "ผู้จัดทำ",
        "date": "2554-08-31"
      }
    ],
    "tag": "a194-2e-2545-a008"
  }
}