{
  "pages": [
    [
      [
        "ประกาศกรมการค้าต่างประเทศ",
        "เรื่อง แสดงรายละเอียดข้อเท็จจริงและข้อกฎหมายอันเป็นสาระสำคัญที่ใช้เป็นพื้นฐานในการพิจารณา",
        "ผลการไต่สวนการทุ่มตลาดสินค้าเหล็กลวดคาร์บอนต่ำ เหล็กลวดคาร์บอนต่ำที่เจือธาตุอื่น",
        "เหล็กลวดคาร์บอนสำหรับงานย้ำหัวและงานทุบขึ้นรูปเย็นและเหล็กลวดคาร์บอนสำหรับงานย้ำหัว",
        "และงานทุบขึ้นรูปเย็นที่เจือธาตุอื่นที่มีแหล่งกำเนิดจากสาธารณรัฐประชาชนจีน",
        "พ.ศ. ๒๕๕๙"
      ]
    ],
    []
  ],
  "metadata": {
    "date_backmatter": "2559-04-19",
    "date_modified": "2559-04-29",
    "date_original": "2559-04-29",
    "doctype": "ประกาศ",
    "editors": [
      {
        "name": "ปริยานุช",
        "role": "จัดทำ",
        "date": "2559-05-03"
      },
      {
        "name": "กัญฑรัตน์",
        "role": "ตรวจ",
        "date": "2559-05-03"
      }
    ],
    "tag": "a194-2e-2559-a0011"
  }
}