{
  "pages": [
    [
      [
        "ประกาศคณะกรรมการพิจารณาการทุ่มตลาด",
        "และการอุดหนุน",
        "เรื่อง การตอบโต้การทุ่มตลาดสินค้าเหล็กกล้าไร้สนิมรีดเย็นชนิดม้วน",
        "แผ่น และแผ่นแถบ ที่มีแหล่งกำเนิดจากประเทศญี่ปุ่น",
        "สหภาพยุโรป ไต้หวัน และสาธารณรัฐเกาหลี",
        "(ฉบับที่ ๖)",
        "พ.ศ. ๒๕๔๖"
      ]
    ],
    []
  ],
  "metadata": {
    "date_backmatter": "2546-06-24",
    "date_modified": "2546-02-27",
    "date_original": "2546-06-26",
    "doctype": "ประกาศ",
    "editors": [
      {
        "name": "วิภา",
        "role": "ผู้จัดทำ",
        "date": "2554-09-12"
      }
    ],
    "tag": "a194-2e-9998-update"
  }
}