{
  "pages": [
    [
      [
        "ประกาศกรมการค้าต่างประเทศ",
        "เรื่อง การทบทวนการเรียกเก็บค่าธรรมเนียมพิเศษตอบโต้การทุ่มตลาด",
        "สินค้าเหล็กโครงสร้างรูปพรรณหน้าตัดรูปตัว H",
        "ที่มีแหล่งกำเนิดจากประเทศโปแลนด์",
        "พ.ศ. ๒๕๔๕"
      ]
    ],
    []
  ],
  "metadata": {
    "date_backmatter": "2545-05-23",
    "date_modified": "2545-05-24",
    "date_original": "2545-05-24",
    "doctype": "ประกาศ",
    "editors": [
      {
        "name": "วิภา",
        "role": "ผู้จัดทำ",
        "date": "2554-09-06"
      }
    ],
    "tag": "a194-2e-2545-a002"
  }
}