{
  "pages": [
    [
      [
        "ประกาศคณะกรรมการพิจารณาการทุ่มตลาดและการอุดหนุน",
        "เรื่อง ผลการพิจารณาทบทวนขอบเขตสินค้าภายใต้มาตรการตอบโต้การทุ่มตลาด",
        "สินค้าเหล็กกล้าไร้สนิมรีดเย็นชนิดม้วน แผ่น และแผ่นแถบ",
        "ที่มีแหล่งกำเนิดจากประเทศญี่ปุ่น ไต้หวัน และสาธารณรัฐเกาหลี",
        "พ.ศ. ๒๕๕๓"
      ]
    ],
    []
  ],
  "metadata": {
    "date_backmatter": "2553-08-02",
    "date_modified": "2554-02-26",
    "date_original": "2554-02-26",
    "doctype": "ประกาศ",
    "editors": [
      {
        "name": "วิภา",
        "role": "ผู้จัดทำ",
        "date": "2554-09-08"
      }
    ],
    "tag": "a194-2e-2554-a0007"
  }
}