{
  "pages": [
    [
      [
        "ประกาศกรมการค้าต่างประเทศ",
        "เรื่อง ผลการไต่สวนการทุ่มตลาดสินค้าเหล็กลวดคาร์บอนต่ำ",
        "ที่มีแหล่งกำเนิดจากประเทศยูเครน และสาธารณรัฐอินโดนีเซีย",
        "พ.ศ. ๒๕๔๖"
      ]
    ],
    []
  ],
  "metadata": {
    "date_backmatter": "2546-10-13",
    "date_modified": "2546-10-15",
    "date_original": "2546-10-15",
    "doctype": "ประกาศ",
    "editors": [
      {
        "name": "วิภา",
        "role": "ผู้จัดทำ",
        "date": "2554-09-06"
      },
      {
        "name": "มยุรี",
        "role": "พิมพ์",
        "date": "2547-02-26"
      },
      {
        "name": "จีระ/พัชรินทร์",
        "role": "ตรวจ",
        "date": "2547-04-12"
      }
    ],
    "tag": "a194-2e-2546-a0007"
  }
}