{
  "pages": [
    [
      [
        "ประกาศกรมการค้าต่างประเทศ",
        "เรื่อง แสดงรายละเอียดข้อเท็จจริงและข้อกฎหมายอันเป็นสาระสำคัญที่ใช้เป็นพื้นฐาน",
        "ในการพิจารณาทบทวนความจำเป็นในการใช้มาตรการตอบโต้การทุ่มตลาดต่อไป",
        "และการพิจารณาทบทวนอัตราอากรตอบโต้การทุ่มตลาดสินค้ากรดซิทริก",
        "ที่มีแหล่งกำเนิดจากสาธารณรัฐประชาชนจีน",
        "พ.ศ. ๒๕๕๗"
      ]
    ],
    []
  ],
  "metadata": {
    "date_backmatter": "2557-02-12",
    "date_modified": "2557-02-20",
    "date_original": "2557-02-20",
    "doctype": "ประกาศ",
    "editors": [
      {
        "name": "ปริยานุช",
        "role": "ผู้จัดทำ",
        "date": "2557-02-25"
      },
      {
        "name": "อุษมล",
        "role": "ผู้ตรวจ",
        "date": "2557-03-03"
      }
    ],
    "tag": "a194-2e-2557-a0005"
  }
}