{
  "pages": [
    [
      [
        "พระราชบัญญัติ",
        "การตอบโต้การทุ่มตลาดและการอุดหนุนซึ่งสินค้าจากต่างประเทศ",
        "พ.ศ. ๒๕๔๒",
        "",
        "",
        "ภูมิพลอดุลยเดช ป.ร.",
        "ให้ไว้ ณ วันที่ ๒๒ มีนาคม พ.ศ. ๒๕๔๒",
        "เป็นปีที่ ๕๔ ในรัชกาลปัจจุบัน"
      ]
    ],
    []
  ],
  "metadata": {
    "date_header": "2542-03-22",
    "date_modified": "2545-10-08",
    "date_original": "2542-03-31",
    "doctype": "พระราชบัญญัติ",
    "editors": [],
    "tag": "a194-20-9999-update",
    "title": "การตอบโต้การทุ่มตลาดและการอุดหนุนซึ่งสินค้าจากต่างประเทศ"
  }
}