{
  "pages": [
    [
      [
        "ประกาศกรมการค้าต่างประเทศ",
        "เรื่อง เปิดการทบทวนความจำเป็นในการใช้มาตรการตอบโต้การทุ่มตลาด",
        "สินค้ายางในชนิดที่ใช้กับรถจักรยานยนต์ที่มีแหล่งกำเนิดจากสาธารณรัฐประชาชนจีนต่อไป",
        "พ.ศ. ๒๕๖๐"
      ]
    ],
    []
  ],
  "metadata": {
    "date_backmatter": "2560-11-22",
    "date_modified": "2560-11-29",
    "date_original": "2560-11-29",
    "doctype": "ประกาศ",
    "editors": [
      {
        "name": "พิมพ์มาดา/อัญชลี",
        "role": "จัดทำ",
        "date": "2560-12-06"
      }
    ],
    "tag": "a194-2e-2560-a0030"
  }
}