{
  "pages": [
    [
      [
        "กฎกระทรวง",
        "กำหนดอัตราค่าธรรมเนียมสำหรับผู้ประกอบวิชาชีพสถาปัตยกรรมควบคุม",
        "พ.ศ. ๒๕๔๖"
      ]
    ],
    []
  ],
  "metadata": {
    "date_backmatter": "2546-06-20",
    "date_modified": "2546-07-09",
    "date_original": "2546-07-09",
    "doctype": "กฎกระทรวง",
    "editors": [
      {
        "name": "อุษมล",
        "role": "ผู้จัดทำ",
        "date": "2555-05-11"
      },
      {
        "name": "วิชพงษ์",
        "role": "ผู้ตรวจ",
        "date": "2555-05-14"
      }
    ],
    "tag": "ca59-2b-2546-a0001"
  }
}