{
  "pages": [
    [
      [
        "ข้อบังคับสภาสถาปนิก",
        "ว่าด้วยมาตรฐานในการประกอบวิชาชีพสถาปัตยกรรมควบคุม",
        "พ.ศ. ๒๕๕๘"
      ]
    ],
    []
  ],
  "metadata": {
    "date_backmatter": "2558-04-08",
    "date_modified": "2558-04-23",
    "date_original": "2558-04-23",
    "editors": [
      {
        "name": "ปริยานุช",
        "role": "ผู้จัดทำ",
        "date": "2558-04-27"
      },
      {
        "name": "ปริญสินีย์",
        "role": "ผู้ตรวจ",
        "date": "2558-04-27"
      }
    ],
    "tag": "ca59-2i-2558-a0002"
  }
}