{
  "pages": [
    [
      [
        "ข้อบังคับสภาสถาปนิก",
        "ว่าด้วยการพักใช้ใบอนุญาตและการเพิกถอนใบอนุญาต",
        "ของผู้ประกอบวิชาชีพสถาปัตยกรรมควบคุม",
        "พ.ศ. ๒๕๔๔"
      ]
    ],
    []
  ],
  "metadata": {
    "date_backmatter": "2544-10-22",
    "date_modified": "2545-03-04",
    "date_original": "2545-03-04",
    "editors": [
      {
        "name": "อุษมล",
        "role": "ผู้จัดทำ",
        "date": "2555-05-31"
      },
      {
        "name": "วิชพงษ์",
        "role": "ตรวจ",
        "date": "2555-06-05"
      }
    ],
    "tag": "ca59-2i-2545-a0006"
  }
}