{
  "pages": [
    [
      [
        "ประกาศมหาวิทยาลัยเกษตรศาสตร์",
        "เรื่อง ครุยประจำตำแหน่งของมหาวิทยาลัยเกษตรศาสตร์",
        "พ.ศ. ๒๕๕๙"
      ]
    ],
    []
  ],
  "metadata": {
    "date_backmatter": "2559-06-06",
    "date_modified": "2559-08-19",
    "date_original": "2559-08-19",
    "doctype": "ประกาศ",
    "editors": [
      {
        "name": "ปริยานุช",
        "role": "จัดทำ",
        "date": "2559-08-23"
      },
      {
        "name": "ชวัลพร",
        "role": "ตรวจ",
        "date": "2559-08-23"
      }
    ],
    "tag": "c127-2e-2559-a0003"
  }
}