{
  "pages": [
    [
      [
        "ระเบียบสำนักงานคณะกรรมการกำกับและส่งเสริมการประกอบธุรกิจประกันภัย",
        "ว่าด้วยการไกล่เกลี่ยข้อพิพาทด้านการประกันภัย",
        "พ.ศ. ๒๕๕๙"
      ]
    ],
    []
  ],
  "metadata": {
    "date_backmatter": "2559-03-03",
    "date_modified": "2559-03-07",
    "date_original": "2559-03-07",
    "editors": [
      {
        "name": "ปุณิกา/ปริยานุช",
        "role": "จัดทำ",
        "date": "2559-03-09"
      },
      {
        "name": "นุสรา",
        "role": "ตรวจ",
        "date": "2559-05-09"
      }
    ],
    "tag": "a4102-2g-2559-a0001"
  }
}