{
  "pages": [
    [
      [
        "ประกาศสำนักงานคณะกรรมการกำกับและส่งเสริมการประกอบธุรกิจประกันภัย",
        "เรื่อง ทะเบียนอนุญาโตตุลาการ สำนักงานคณะกรรมการกำกับและส่งเสริมการประกอบธุรกิจประกันภัย",
        "พ.ศ. ๒๕๕๙"
      ]
    ],
    []
  ],
  "metadata": {
    "date_backmatter": "2559-02-09",
    "date_modified": "2559-03-24",
    "date_original": "2559-03-24",
    "doctype": "ประกาศ",
    "editors": [
      {
        "name": "กัญฑรัตน์/ปริยานุช",
        "role": "จัดทำ",
        "date": "2559-03-31"
      }
    ],
    "tag": "a4102-2e-2559-a0002"
  }
}