{
  "pages": [
    [
      [
        "ประกาศนายทะเบียน",
        "เรื่อง การสั่งให้บริษัทแก้ไขฐานะหรือการดำเนินการ"
      ]
    ],
    []
  ],
  "metadata": {
    "date_backmatter": "2550-09-14",
    "date_modified": "2550-10-08",
    "date_original": "2550-10-08",
    "doctype": "ประกาศ",
    "editors": [
      {
        "name": "วัชศักดิ์",
        "role": "ผู้จัดทำ",
        "date": "2550-10-16"
      }
    ],
    "tag": "a4102-2e-2550-a0003"
  }
}