{
  "pages": [
    [
      [
        "ประกาศคณะกรรมการกำกับและส่งเสริมการประกอบธุรกิจประกันภัย",
        "เรื่อง กำหนดให้บริษัทประกันวินาศภัยเปิดทำการติดต่อกับประชาชน",
        "ประจำปี พ.ศ. ๒๕๕๐"
      ]
    ],
    []
  ],
  "metadata": {
    "date_backmatter": "2550-11-23",
    "date_modified": "2550-12-20",
    "date_original": "2550-12-20",
    "doctype": "ประกาศ",
    "editors": [
      {
        "name": "วัชศักดิ์",
        "role": "ผู้จัดทำ",
        "date": "2551-01-11"
      }
    ],
    "tag": "a4102-2e-2550-a0004"
  }
}