{
  "pages": [
    [
      [
        "ประกาศคณะกรรมการกำกับและส่งเสริมการประกอบธุรกิจประกันภัย",
        "เรื่อง กำหนดให้บริษัทประกันชีวิตเปิดทำการติดต่อกับประชาชน ประจำปี พ.ศ. ๒๕๕๕"
      ]
    ],
    []
  ],
  "metadata": {
    "date_backmatter": "2554-08-17",
    "date_modified": "2554-09-26",
    "date_original": "2554-09-26",
    "doctype": "ประกาศ",
    "editors": [
      {
        "name": "ปริยานุช",
        "role": "ผู้จัดทำ",
        "date": "2554-10-10"
      },
      {
        "name": "ปณตภร",
        "role": "ผู้ตรวจ",
        "date": "2554-10-20"
      }
    ],
    "tag": "a4102-2e-2554-a0005"
  }
}