{
  "pages": [
    [
      [
        "ประกาศคณะกรรมการอนุญาโตตุลาการ",
        "เรื่อง กำหนดสถานที่ทำการของอนุญาโตตุลาการ",
        "พ.ศ. ๒๕๕๑"
      ]
    ],
    []
  ],
  "metadata": {
    "date_backmatter": "2551-11-11",
    "date_modified": "2552-01-14",
    "date_original": "2552-01-14",
    "doctype": "ประกาศ",
    "editors": [
      {
        "name": "วัชศักดิ์",
        "role": "ผู้จัดทำ",
        "date": "2552-01-20"
      }
    ],
    "tag": "a4102-2e-2552-a0001"
  }
}