{
  "pages": [
    [
      [
        "ประกาศคณะกรรมการกำกับและส่งเสริมการประกอบธุรกิจประกันภัย",
        "เรื่อง กำหนดจำนวน ชนิด วิธีการและเงื่อนไขการดำรงทรัพย์สินไว้ในประเทศไทย",
        "ของสาขาบริษัทประกันชีวิตต่างประเทศ",
        "พ.ศ. ๒๕๕๑"
      ]
    ],
    []
  ],
  "metadata": {
    "date_backmatter": "2551-08-20",
    "date_modified": "2551-10-01",
    "date_original": "2551-10-01",
    "doctype": "ประกาศ",
    "editors": [
      {
        "name": "ปริยานุช",
        "role": "ผู้จัดทำ",
        "date": "2551-10-07"
      }
    ],
    "tag": "a4102-2e-2551-a0004"
  }
}