{
  "pages": [
    [
      [
        "ประกาศคณะกรรมการกำกับและส่งเสริมการประกอบธุรกิจประกันภัย",
        "เรื่อง การลงทุนประกอบธุรกิจอื่นของบริษัทประกันชีวิต (ฉบับที่ ๒)",
        "พ.ศ. ๒๕๕๘"
      ]
    ],
    []
  ],
  "metadata": {
    "date_backmatter": "2558-02-12",
    "date_modified": "2558-03-18",
    "date_original": "2558-03-18",
    "doctype": "ประกาศ",
    "editors": [
      {
        "name": "ปริยานุช",
        "role": "ผู้จัดทำ",
        "date": "2558-03-19"
      },
      {
        "name": "วันฑิตา",
        "role": "ผู้ตรวจ",
        "date": "2558-04-20"
      }
    ],
    "tag": "a4102-2e-2558-a0004"
  }
}