{
  "pages": [
    [
      [
        "ประกาศคณะกรรมการขายตรงและตลาดแบบตรง",
        "เรื่อง กำหนดแบบบัตรประจำตัวพนักงานเจ้าหน้าที่",
        "พ.ศ. ๒๕๔๘"
      ]
    ],
    []
  ],
  "metadata": {
    "date_backmatter": "2548-08-30",
    "date_modified": "2548-11-23",
    "date_original": "2548-11-23",
    "doctype": "ประกาศ",
    "editors": [
      {
        "name": "วิภา",
        "role": "ผู้จัดทำ",
        "date": "2554-06-28"
      }
    ],
    "tag": "a204-2e-2548-a0002"
  }
}