{
  "pages": [
    [
      [
        "ประกาศสำนักนายกรัฐมนตรี",
        "เรื่อง แต่งตั้งพนักงานเจ้าหน้าที่ตามพระราชบัญญัติขายตรงและตลาดแบบตรง พ.ศ. ๒๕๔๕"
      ]
    ],
    []
  ],
  "metadata": {
    "date_backmatter": "2554-12-15",
    "date_modified": "2555-01-31",
    "date_original": "2555-01-31",
    "doctype": "ประกาศ",
    "editors": [
      {
        "name": "ปริยานุช",
        "role": "ผู้จัดทำ",
        "date": "2555-02-01"
      },
      {
        "name": "ปณตภร",
        "role": "ผู้ตรวจ",
        "date": "2555-02-10"
      }
    ],
    "tag": "a204-2e-2555-a0001"
  }
}