{
  "pages": [
    [
      [
        "ประกาศคณะกรรมการการเลือกตั้ง",
        "เรื่อง หลักเกณฑ์และวิธีการแสดงความคิดเห็นในการออกเสียงประชามติ",
        "พ.ศ. ๒๕๕๙"
      ]
    ],
    []
  ],
  "metadata": {
    "date_backmatter": "2559-05-02",
    "date_modified": "2559-05-02",
    "date_original": "2559-05-02",
    "doctype": "ประกาศ",
    "editors": [
      {
        "name": "ชวัลพร/ปริยานุช",
        "role": "จัดทำ",
        "date": "2559-05-03"
      },
      {
        "name": "นุสรา",
        "role": "ตรวจ",
        "date": "2559-05-04"
      }
    ],
    "tag": "c780-2e-2559-a0005"
  }
}