{
  "pages": [
    [
      [
        "พระราชบัญญัติ",
        "ว่าด้วยการออกเสียงประชามติร่างรัฐธรรมนูญ",
        "พ.ศ. ๒๕๕๙",
        "",
        "",
        "ภูมิพลอดุลยเดช ป.ร.",
        "ให้ไว้ ณ วันที่ ๒๒ เมษายน พ.ศ. ๒๕๕๙",
        "เป็นปีที่ ๗๑ ในรัชกาลปัจจุบัน"
      ]
    ],
    []
  ],
  "metadata": {
    "date_header": "2559-04-22",
    "date_modified": "2559-04-22",
    "date_original": "2559-04-22",
    "doctype": "พระราชบัญญัติ",
    "editors": [
      {
        "name": "วิศนี/ปริยานุช",
        "role": "จัดทำ",
        "date": "2559-04-25"
      },
      {
        "name": "ปัญญา",
        "role": "ตรวจ",
        "date": "2559-04-27"
      }
    ],
    "tag": "c780-20-2559-a0001",
    "title": "การออกเสียงประชามติร่างรัฐธรรมนูญ"
  }
}