{
  "pages": [
    [
      [
        "ประกาศกระทรวงการคลัง",
        "เรื่อง การกำหนดสถาบันการเงินและอัตราสูงสุดของดอกเบี้ย",
        "ที่สถาบันการเงินอาจคิดได้จากผู้กู้ยืม",
        "(ฉบับที่ ๒) พ.ศ. ๒๕๒๔"
      ]
    ],
    []
  ],
  "metadata": {
    "date_backmatter": "2524-09-18",
    "date_modified": "2524-09-24",
    "date_original": "2524-09-24",
    "doctype": "ประกาศ",
    "editors": [
      {
        "name": "ดลธี",
        "role": "ผู้จัดทำ",
        "date": "2552-02-11"
      }
    ],
    "tag": "b401-2e-2524-a002"
  }
}