{
  "pages": [
    [
      [
        "ประกาศกระทรวงการคลัง",
        "เรื่อง อัตราสูงสุดของดอกเบี้ยที่สถาบันการเงินอาจคิดได้จากผู้กู้ยืม"
      ]
    ],
    []
  ],
  "metadata": {
    "date_backmatter": "2523-01-11",
    "date_modified": "2523-01-11",
    "date_original": "2523-01-11",
    "doctype": "ประกาศ",
    "editors": [
      {
        "name": "จารุวรรณ",
        "role": "พิมพ์",
        "date": "2545-10-15"
      },
      {
        "name": "ดลธี",
        "role": "ผู้จัดทำ",
        "date": "2552-02-11"
      }
    ],
    "tag": "b401-2e-2523-a004"
  }
}