{
  "pages": [
    [
      [
        "ประกาศกระทรวงการคลัง",
        "เรื่อง อัตราดอกเบี้ยที่สถาบันการเงินอาจคิดได้จากผู้กู้ยืม",
        "พ.ศ. ๒๕๓๕"
      ]
    ],
    []
  ],
  "metadata": {
    "date_backmatter": "2535-05-11",
    "date_modified": "2535-05-21",
    "date_original": "2535-05-21",
    "doctype": "ประกาศ",
    "editors": [
      {
        "name": "จุฑามาศ",
        "role": "ผู้จัดทำ",
        "date": "2558-03-10"
      }
    ],
    "tag": "b401-2e-2535-006"
  }
}