{
  "pages": [
    [
      [
        "ประกาศกระทรวงการคลัง",
        "เรื่อง การกำหนดสถาบันการเงินและอัตราดอกเบี้ยที่สถาบันการเงิน",
        "อาจคิดได้จากผู้กู้ยืม (ฉบับที่ ๕)",
        "พ.ศ. ๒๕๓๕"
      ]
    ],
    []
  ],
  "metadata": {
    "date_backmatter": "2535-10-30",
    "date_modified": "2544-06-27",
    "date_original": "2535-11-12",
    "doctype": "ประกาศ",
    "editors": [
      {
        "name": "พัชรินทร์",
        "role": "ผู้จัดทำ",
        "date": "2552-07-14"
      }
    ],
    "tag": "b401-2e-9998-update"
  }
}