{
  "pages": [
    [
      [
        "ประกาศรัฐสภา",
        "เรื่อง การแบ่งส่วนราชการภายในสำนักงานเลขาธิการวุฒิสภา",
        "พ.ศ. ๒๕๔๔"
      ]
    ],
    []
  ],
  "metadata": {
    "date_backmatter": "2544-10-03",
    "date_modified": "2546-05-21",
    "date_original": "2544-10-11",
    "doctype": "ประกาศ",
    "editors": [
      {
        "name": "รัศม์วรรณวลัย",
        "role": "ผู้จัดทำ",
        "date": "2551-10-13"
      }
    ],
    "tag": "a813-2e-2546-a0008"
  }
}