{
  "pages": [
    [
      [
        "ประกาศกระทรวงดิจิทัลเพื่อเศรษฐกิจและสังคม",
        "เรื่อง ลักษณะและวิธีการส่ง และลักษณะและปริมาณของข้อมูล ความถี่และวิธีการส่ง",
        "ซึ่งไม่เป็นการก่อให้เกิดความเดือดร้อนรำคาญแก่ผู้รับ",
        "พ.ศ. ๒๕๖๐"
      ]
    ],
    []
  ],
  "metadata": {
    "date_backmatter": "2560-07-21",
    "date_modified": "2560-07-22",
    "date_original": "2560-07-22",
    "doctype": "ประกาศ",
    "editors": [
      {
        "name": "ภวรรณตรี",
        "role": "จัดทำ",
        "date": "2560-07-27"
      },
      {
        "name": "ชวัลพร",
        "role": "ตรวจ",
        "date": "2560-07-27"
      }
    ],
    "tag": "c771-2e-2560-a0001"
  }
}