{
  "pages": [
    [
      [
        "พระราชบัญญัติ",
        "ว่าด้วยการกระทำความผิดเกี่ยวกับคอมพิวเตอร์ (ฉบับที่ ๒)",
        "พ.ศ. ๒๕๖๐",
        "",
        "",
        "สมเด็จพระเจ้าอยู่หัวมหาวชิราลงกรณ บดินทรเทพยวรางกูร",
        "ให้ไว้ ณ วันที่ ๒๓ มกราคม พ.ศ. ๒๕๖๐",
        "เป็นปีที่ ๒ ในรัชกาลปัจจุบัน"
      ]
    ],
    []
  ],
  "metadata": {
    "date_header": "2560-01-23",
    "date_modified": "2560-01-24",
    "date_original": "2560-01-24",
    "doctype": "พระราชบัญญัติ",
    "editors": [
      {
        "name": "พรวิภา/ปริยานุช",
        "role": "จัดทำ",
        "date": "2560-01-25"
      },
      {
        "name": "ปริญสินีย์",
        "role": "ตรวจ",
        "date": "2560-01-25"
      }
    ],
    "tag": "c771-20-2560-a0001",
    "title": "การกระทำความผิดเกี่ยวกับคอมพิวเตอร์ (ฉบับที่ ๒)"
  }
}