{
  "pages": [
    [
      [
        "ประกาศสำนักงานคณะกรรมการการศึกษาเอกชน",
        "เรื่อง หลักเกณฑ์ วิธีการ และเงื่อนไขการขออนุญาตเก็บค่าธรรมเนียม",
        "การเรียนและค่าธรรมเนียมอื่นของโรงเรียนเอกชน ตามมาตรา ๑๕ (๑)",
        "และมาตรา ๑๕ (๓) แห่งพระราชบัญญัติโรงเรียนเอกชน พ.ศ. ๒๕๒๕",
        "สำหรับภาคเรียนที่ ๑ ปีการศึกษา ๒๕๔๖"
      ]
    ],
    []
  ],
  "metadata": {
    "date_backmatter": "2546-03-21",
    "date_modified": "2546-05-13",
    "date_original": "2546-05-13",
    "doctype": "ประกาศ",
    "editors": [
      {
        "name": "มณฑาทิพย์",
        "role": "พิมพ์",
        "date": "2546-06-30"
      },
      {
        "name": "สุมลรัตน์",
        "role": "อรรถชัย แก้ไข",
        "date": "2546-07-02"
      }
    ],
    "tag": "c331-2e-2546-a0001"
  }
}