{
  "pages": [
    [
      [
        "กฎกระทรวง",
        "ฉบับที่ ๙ (พ.ศ. ๒๕๓๓)",
        "ออกตามความในพระราชบัญญัติโรงเรียนเอกชน",
        "พ.ศ. ๒๕๒๕"
      ]
    ],
    []
  ],
  "metadata": {
    "date_backmatter": "2533-09-17",
    "date_modified": "2533-11-16",
    "date_original": "2533-11-16",
    "doctype": "กฎกระทรวง",
    "editors": [
      {
        "name": "สุกัญญา",
        "role": "ผู้จัดทำ",
        "date": "2552-10-12"
      },
      {
        "name": "นันท์นภัสร์",
        "role": "ตรวจ",
        "date": "2552-10-13"
      }
    ],
    "tag": "c331-2b-2533-009"
  }
}