{
  "pages": [
    [
      [
        "ระเบียบคณะกรรมการส่งเสริมการศึกษาเอกชน",
        "ว่าด้วยการยื่นอุทธรณ์ การรับอุทธรณ์ วิธีพิจารณาอุทธรณ์",
        "และกำหนดเวลาพิจารณาอุทธรณ์",
        "พ.ศ. ๒๕๕๓"
      ]
    ],
    []
  ],
  "metadata": {
    "date_backmatter": "2553-06-16",
    "date_modified": "2553-07-21",
    "date_original": "2553-07-21",
    "editors": [
      {
        "name": "ปริยานุช",
        "role": "ผู้จัดทำ",
        "date": "2553-07-29"
      },
      {
        "name": "นันท์นภัสร์",
        "role": "ตรวจ",
        "date": "2553-07-29"
      }
    ],
    "tag": "c331-2g-2553-a0003"
  }
}