{
  "pages": [
    [
      [
        "ระเบียบคณะกรรมการกองทุนสงเคราะห์",
        "ว่าด้วยการบริหารกิจการของกองทุนสงเคราะห์",
        "พ.ศ. ๒๕๕๑"
      ]
    ],
    []
  ],
  "metadata": {
    "date_backmatter": "2551-05-21",
    "date_modified": "2551-06-27",
    "date_original": "2551-06-27",
    "editors": [
      {
        "name": "วัชศักดิ์",
        "role": "ผู้จัดทำ",
        "date": "2551-07-02"
      }
    ],
    "tag": "c331-2g-2551-a0009"
  }
}