{
  "pages": [
    [
      [
        "ระเบียบกระทรวงศึกษาธิการ",
        "ว่าด้วยการอุดหนุนและส่งเสริมโรงเรียนเอกชนโดยการให้อุปกรณ์การศึกษา",
        "พ.ศ. ๒๕๔๒"
      ]
    ],
    []
  ],
  "metadata": {
    "date_backmatter": "2542-07-23",
    "date_modified": "2542-09-21",
    "date_original": "2542-09-21",
    "editors": [
      {
        "name": "สุกัญญา",
        "role": "ผู้จัดทำ",
        "date": "2552-10-12"
      },
      {
        "name": "นันท์นภัสร์",
        "role": "ตรวจ",
        "date": "2552-10-13"
      }
    ],
    "tag": "c331-2g-2542-a009"
  }
}