{
  "pages": [
    [
      [
        "ระเบียบคณะกรรมการส่งเสริมการศึกษาเอกชน",
        "ว่าด้วยหลักเกณฑ์และวิธีการเกี่ยวกับค่าตอบแทนพิเศษครูที่สอนนักเรียนพิการในโรงเรียนเอกชน",
        "พ.ศ. ๒๕๖๑"
      ]
    ],
    []
  ],
  "metadata": {
    "date_backmatter": "2561-02-08",
    "date_modified": "2561-03-23",
    "date_original": "2561-03-23",
    "editors": [
      {
        "name": "ภูมิกิติ",
        "role": "จัดทำ",
        "date": "2561-04-20"
      }
    ],
    "tag": "c331-2g-2561-a0001"
  }
}