{
  "pages": [
    [
      [
        "ระเบียบคณะกรรมการส่งเสริมการศึกษาเอกชน",
        "ว่าด้วยการอุดหนุนพัฒนาประสิทธิภาพการจัดการศึกษาของโรงเรียนเอกชน",
        "ในพื้นที่จังหวัดชายแดนภาคใต้",
        "พ.ศ. ๒๕๕๗"
      ]
    ],
    []
  ],
  "metadata": {
    "date_backmatter": "2557-03-25",
    "date_modified": "2561-08-01",
    "date_original": "2557-05-20",
    "editors": [
      {
        "name": "พิมพ์มาดา",
        "role": "จัดทำ",
        "date": "2561-10-26"
      }
    ],
    "tag": "c331-2g-9988-update"
  }
}