{
  "pages": [
    [
      [
        "กฎกระทรวง",
        "แต่งตั้งพนักงานเจ้าหน้าที่ และกำหนดหลักเกณฑ์วิธีการขออนุญาต",
        "จัดให้มีการเรี่ยไรและทำการเรี่ยไร",
        "พ.ศ. ๒๕๔๘"
      ]
    ],
    []
  ],
  "metadata": {
    "date_backmatter": "2547-10-12",
    "date_modified": "2549-01-06",
    "date_original": "2549-01-06",
    "doctype": "กฎกระทรวง",
    "editors": [
      {
        "name": "อุกฤต",
        "role": "ผู้จัดทำ",
        "date": "2553-11-03"
      },
      {
        "name": "เลิศศักดิ์",
        "role": "ผู้ตรวจ",
        "date": "2554-02-01"
      }
    ],
    "tag": "a416-2b-2549-a0001"
  }
}