{
  "pages": [
    [
      [
        "ประกาศกระทรวงเกษตรและสหกรณ์",
        "เรื่อง รายงานผลการปฏิบัติงานและงบแสดงฐานะการเงิน",
        "ของสำนักงานกองทุนสงเคราะห์การทำสวนยาง",
        "ประจำปีสงเคราะห์ ๒๕๕๘1"
      ]
    ],
    []
  ],
  "metadata": {
    "date_backmatter": "2560-03-14",
    "doctype": "ประกาศ",
    "editors": [],
    "tag": "a1151-2e-2560-a0005"
  }
}