{
  "pages": [
    [
      [
        "ประกาศกระทรวงเกษตรและสหกรณ์",
        "รายงานผลการปฏิบัติงานและงบแสดงฐานะการเงินของสำนักงานกองทุนสงเคราะห์การทำสวนยาง",
        "ประจำปีสงเคราะห์ ๒๕๕๗1"
      ]
    ],
    []
  ],
  "metadata": {
    "date_backmatter": "2558-11-11",
    "doctype": "ประกาศ",
    "editors": [],
    "tag": "a1151-2e-2558-a0006"
  }
}