{
  "pages": [
    [
      [
        "พระราชกำหนด",
        "การกู้ยืมเงินที่เป็นการฉ้อโกงประชาชน",
        "พ.ศ. ๒๕๒๗",
        "",
        "",
        "ภูมิพลอดุลยเดช ป.ร.",
        "ให้ไว้ ณ วันที่ ๑๑ พฤศจิกายน พ.ศ. ๒๕๒๗",
        "เป็นปีที่ ๓๙ ในรัชกาลปัจจุบัน"
      ]
    ],
    []
  ],
  "metadata": {
    "date_header": "2527-11-11",
    "date_modified": "2545-12-16",
    "date_original": "2527-11-12",
    "doctype": "พระราชกำหนด",
    "editors": [
      {
        "name": "อังศุมาลี",
        "role": "ผู้จัดทำ",
        "date": "2556-05-14"
      },
      {
        "name": "อุดมลักษณ์",
        "role": "ผู้ตรวจ",
        "date": "2556-05-14"
      }
    ],
    "tag": "a168-20-2545-a0003",
    "title": "การกู้ยืมเงินที่เป็นการฉ้อโกงประชาชน"
  }
}