{
  "pages": [
    [
      [
        "ประกาศกระทรวงการคลังและกระทรวงมหาดไทย",
        "เรื่อง แต่งตั้งพนักงานเจ้าหน้าที่ปฏิบัติการตามพระราชกำหนด",
        "การกู้ยืมเงินที่เป็นการฉ้อโกงประชาชน พ.ศ. ๒๕๒๗",
        "(ฉบับที่ ๓๖) พ.ศ. ๒๕๔๓"
      ]
    ],
    []
  ],
  "metadata": {
    "date_backmatter": "2543-04-18",
    "date_modified": "2546-08-28",
    "date_original": "2543-05-25",
    "doctype": "ประกาศ",
    "editors": [
      {
        "name": "อุรารักษ์",
        "role": "ผู้จัดทำ",
        "date": "2552-10-22"
      },
      {
        "name": "โชติกานต์",
        "role": "ปรับปรุง",
        "date": "2559-03-22"
      }
    ],
    "tag": "a168-2e-9999-update"
  }
}