{
  "pages": [
    [
      [
        "ประกาศกระทรวงเกษตรและสหกรณ์",
        "เรื่อง แต่งตั้งพนักงานเจ้าหน้าที่ตามพระราชบัญญัติโรคพิษสุนัขบ้า พ.ศ. ๒๕๓๕"
      ]
    ],
    []
  ],
  "metadata": {
    "date_backmatter": "2561-02-16",
    "date_modified": "2561-03-16",
    "date_original": "2561-03-16",
    "doctype": "ประกาศ",
    "editors": [
      {
        "name": "ปวันวิทย์",
        "role": "จัดทำ",
        "date": "2561-05-10"
      }
    ],
    "tag": "c321-2e-2561-a0001"
  }
}