{
  "pages": [
    [
      [
        "พระราชบัญญัติ",
        "โรคพิษสุนัขบ้า",
        "พ.ศ. ๒๕๓๕",
        "",
        "",
        "ภูมิพลอดุลยเดช ป.ร.",
        "ให้ไว้ ณ วันที่ ๓ กุมภาพันธ์ พ.ศ. ๒๕๓๕",
        "เป็นปีที่ ๔๗ ในรัชกาลปัจจุบัน"
      ]
    ],
    []
  ],
  "metadata": {
    "date_header": "2535-02-03",
    "date_modified": "2535-02-12",
    "date_original": "2535-02-12",
    "doctype": "พระราชบัญญัติ",
    "editors": [
      {
        "name": "ณัฐพร",
        "role": "แก้ไข",
        "date": "2553-10-06"
      },
      {
        "name": "วศิน",
        "role": "ตรวจ",
        "date": "2553-10-06"
      },
      {
        "name": "วิมล",
        "role": "ปรับปรุง",
        "date": "2559-12-01"
      }
    ],
    "tag": "c321-20-2535-001",
    "title": "โรคพิษสุนัขบ้า"
  }
}