{
  "pages": [
    [
      [
        "ข้อบัญญัติองค์การบริหารส่วนตำบลนาข่า",
        "เรื่อง การควบคุมโรคพิษสุนัขบ้าในเขตองค์การบริหารส่วนตำบลนาข่า",
        "พ.ศ. ๒๕๕๘"
      ]
    ],
    []
  ],
  "metadata": {
    "date_backmatter": "2559-10-13",
    "date_modified": "2560-04-28",
    "date_original": "2560-04-28",
    "editors": [
      {
        "name": "ภวรรณตรี",
        "role": "จัดทำ",
        "date": "2560-05-01"
      },
      {
        "name": "วริญา",
        "role": "ตรวจ",
        "date": "2560-05-01"
      }
    ],
    "tag": "c321-2j-2560-a0003"
  }
}