{
  "pages": [
    [
      [
        "ประกาศสำนักงานคณะกรรมการส่งเสริมการจัดสวัสดิการสังคมแห่งชาติ",
        "เรื่อง การยกเลิกการรับรององค์กรสาธารณประโยชน์",
        "ตามพระราชบัญญัติส่งเสริมการจัดสวัสดิการสังคม พ.ศ. ๒๕๔๖",
        "(ฉบับที่ ๕๐)"
      ]
    ],
    []
  ],
  "metadata": {
    "date_backmatter": "2561-06-11",
    "date_modified": "2561-07-19",
    "date_original": "2561-07-19",
    "doctype": "ประกาศ",
    "editors": [
      {
        "name": "ปวันวิทย์",
        "role": "จัดทำ",
        "date": "2561-09-03"
      }
    ],
    "tag": "ca66-2e-2561-a0004"
  }
}