{
  "pages": [
    [
      [
        "ระเบียบกระทรวงการพัฒนาสังคมและความมั่นคงของมนุษย์",
        "ว่าด้วยหลักเกณฑ์ วิธีการและเงื่อนไขในการเลือกและการพ้นจากตำแหน่ง",
        "ของผู้แทนองค์กรสวัสดิการชุมชน ในคณะกรรมการส่งเสริมการจัดสวัสดิการสังคมแห่งชาติ",
        "พ.ศ. ๒๕๕๑"
      ]
    ],
    []
  ],
  "metadata": {
    "date_backmatter": "2551-07-31",
    "date_modified": "2551-10-22",
    "date_original": "2551-10-22",
    "editors": [
      {
        "name": "คุณากร",
        "role": "ผู้จัดทำ",
        "date": "2554-12-30"
      }
    ],
    "tag": "ca66-2g-2551-a0005"
  }
}