{
  "pages": [
    [
      [
        "ประกาศสำนักงานคณะกรรมการ",
        "ส่งเสริมการจัดสวัสดิการสังคมแห่งชาติ",
        "เรื่อง รายชื่อองค์กรสาธารณประโยชน์",
        "ตามพระราชบัญญัติส่งเสริมการจัดสวัสดิการสังคม",
        "พ.ศ. ๒๕๔๖",
        "(ฉบับที่ ๔)"
      ]
    ],
    []
  ],
  "metadata": {
    "date_backmatter": "2549-06-02",
    "date_modified": "2558-03-12",
    "date_original": "2549-07-13",
    "doctype": "ประกาศ",
    "editors": [
      {
        "name": "ปริยานุช",
        "role": "ผู้จัดทำ",
        "date": "2556-02-13"
      },
      {
        "name": "ณัฐพร",
        "role": "ผู้ตรวจ",
        "date": "2556-02-13"
      },
      {
        "name": "คุณากร",
        "role": "ปรับปรุง",
        "date": "2556-08-01"
      },
      {
        "name": "วริญา",
        "role": "เพิ่มเติม",
        "date": "2558-03-31"
      },
      {
        "name": "นุสรา",
        "role": "ผู้ตรวจ",
        "date": "2558-06-15"
      }
    ],
    "tag": "ca66-2e-9986-update"
  }
}