{
  "pages": [
    [
      [
        "ประกาศสำนักงานคณะกรรมการ",
        "ส่งเสริมการจัดสวัสดิการสังคมแห่งชาติ",
        "เรื่อง รายชื่อองค์กรสาธารณประโยชน์",
        "ตามพระราชบัญญัติส่งเสริมการจัดสวัสดิการสังคม",
        "พ.ศ. ๒๕๔๖",
        "(ฉบับที่ ๒)"
      ]
    ],
    []
  ],
  "metadata": {
    "date_backmatter": "2548-09-23",
    "date_modified": "2558-03-12",
    "date_original": "2548-11-17",
    "doctype": "ประกาศ",
    "editors": [
      {
        "name": "คุณากร",
        "role": "ผู้จัดทำ",
        "date": "2554-12-26"
      },
      {
        "name": "วริญา",
        "role": "เพิ่มเติม",
        "date": "2558-03-31"
      },
      {
        "name": "นุสรา",
        "role": "ผู้ตรวจ",
        "date": "2558-06-15"
      }
    ],
    "tag": "ca66-2e-9976-update"
  }
}