{
  "pages": [
    [
      [
        "ประกาศสำนักงานคณะกรรมการส่งเสริมการจัดสวัสดิการ",
        "สังคมแห่งชาติ",
        "เรื่อง รายชื่อองค์กรสาธารณประโยชน์ตามพระราชบัญญัติส่งเสริมการจัดสวัสดิการสังคม",
        "พ.ศ. ๒๕๔๖ (ฉบับที่ ๔๕)"
      ]
    ],
    []
  ],
  "metadata": {
    "date_backmatter": "2560-01-18",
    "date_modified": "2561-07-19",
    "date_original": "2560-02-23",
    "doctype": "ประกาศ",
    "editors": [
      {
        "name": "พิมพ์มาดา/ปริยานุช",
        "role": "จัดทำ",
        "date": "2560-02-28"
      },
      {
        "name": "ปวันวิทย์",
        "role": "เพิ่มเติม",
        "date": "2561-11-01"
      }
    ],
    "tag": "ca66-2e-9974-update"
  }
}