{
  "pages": [
    [
      [
        "ระเบียบคณะกรรมการส่งเสริมการจัดสวัสดิการสังคมแห่งชาติ",
        "ว่าด้วยการกำกับ ดูแล ตรวจสอบการดำเนินงาน หลักเกณฑ์และวิธีการรายงาน",
        "การใช้จ่ายเงินขององค์กรสาธารณประโยชน์และองค์กรสวัสดิการชุมชน",
        "พ.ศ. ๒๕๕๕"
      ]
    ],
    []
  ],
  "metadata": {
    "date_backmatter": "2555-03-12",
    "date_modified": "2555-05-02",
    "date_original": "2555-05-02",
    "editors": [
      {
        "name": "ปริยานุช",
        "role": "ผู้จัดทำ",
        "date": "2555-05-08"
      },
      {
        "name": "ณัฐพร",
        "role": "ผู้ตรวจ",
        "date": "2555-05-08"
      }
    ],
    "tag": "ca66-2g-2555-a0001"
  }
}