{
  "pages": [
    [
      [
        "ประกาศสำนักงานคณะกรรมการส่งเสริมการจัดสวัสดิการสังคมแห่งชาติ",
        "เรื่อง รายชื่อองค์กรสาธารณประโยชน์ตามพระราชบัญญัติส่งเสริมการจัดสวัสดิการสังคม",
        "พ.ศ. ๒๕๔๖ (ฉบับที่ ๑๐)"
      ]
    ],
    []
  ],
  "metadata": {
    "date_backmatter": "2550-07-10",
    "date_modified": "2561-07-19",
    "date_original": "2550-08-02",
    "doctype": "ประกาศ",
    "editors": [
      {
        "name": "คุณากร",
        "role": "ผู้จัดทำ",
        "date": "2554-12-27"
      },
      {
        "name": "ปวันวิทย์",
        "role": "เพิ่มเติม",
        "date": "2561-11-01"
      }
    ],
    "tag": "ca66-2e-9972-update"
  }
}