{
  "pages": [
    [
      [
        "ระเบียบคณะกรรมการส่งเสริมการจัดสวัสดิการสังคมแห่งชาติ",
        "ว่าด้วยการบริหารกองทุน การรับเงิน การจ่ายเงิน การเก็บรักษาเงิน การจัดหาผลประโยชน์",
        "และการจัดการกองทุนส่งเสริมการจัดสวัสดิการสังคม",
        "พ.ศ. ๒๕๔๘"
      ]
    ],
    []
  ],
  "metadata": {
    "date_backmatter": "2548-11-08",
    "date_modified": "2548-12-22",
    "date_original": "2548-12-22",
    "editors": [
      {
        "name": "คุณากร",
        "role": "ผู้จัดทำ",
        "date": "2554-12-30"
      }
    ],
    "tag": "ca66-2g-2548-a0004"
  }
}