{
  "pages": [
    [
      [
        "ประกาศสำนักงานคณะกรรมการ",
        "ส่งเสริมการจัดสวัสดิการสังคมแห่งชาติ",
        "เรื่อง รายชื่อองค์กรสาธารณประโยชน์",
        "ตามพระราชบัญญัติส่งเสริมการจัดสวัสดิการสังคม พ.ศ. ๒๕๔๖",
        "(ฉบับที่ ๗)"
      ]
    ],
    []
  ],
  "metadata": {
    "date_backmatter": "2549-11-17",
    "date_modified": "2555-09-13",
    "date_original": "2550-01-11",
    "doctype": "ประกาศ",
    "editors": [
      {
        "name": "คุณากร",
        "role": "ผู้จัดทำ",
        "date": "2555-08-08"
      }
    ],
    "tag": "ca66-2e-9993-update"
  }
}