{
  "pages": [
    [
      [
        "พระราชบัญญัติ",
        "ส่งเสริมการจัดสวัสดิการสังคม",
        "พ.ศ. ๒๕๔๖",
        "",
        "",
        "ภูมิพลอดุลยเดช ป.ร.",
        "ให้ไว้ ณ วันที่ ๒๔ กันยายน พ.ศ. ๒๕๔๖",
        "เป็นปีที่ ๕๘ ในรัชกาลปัจจุบัน"
      ]
    ],
    []
  ],
  "metadata": {
    "date_header": "2546-09-24",
    "date_modified": "2550-12-28",
    "date_original": "2546-10-01",
    "doctype": "พระราชบัญญัติ",
    "editors": [],
    "tag": "ca66-20-9999-update",
    "title": "ส่งเสริมการจัดสวัสดิการสังคม"
  }
}