{
  "pages": [
    [
      [
        "ประกาศสำนักงานคณะกรรมการส่งเสริมการจัดสวัสดิการสังคมแห่งชาติ",
        "เรื่อง รายชื่อองค์กรสวัสดิการชุมชน",
        "ตามพระราชบัญญัติส่งเสริมการจัดสวัสดิการสังคม",
        "พ.ศ. ๒๕๔๖",
        "(ฉบับที่ ๒๙)"
      ]
    ],
    []
  ],
  "metadata": {
    "date_backmatter": "2554-10-25",
    "date_modified": "2554-12-15",
    "date_original": "2554-12-15",
    "doctype": "ประกาศ",
    "editors": [
      {
        "name": "คุณากร",
        "role": "ผู้จัดทำ",
        "date": "2554-12-29"
      }
    ],
    "tag": "ca66-2e-2554-a0004"
  }
}