{
  "pages": [
    [
      [
        "ระเบียบคณะกรรมการส่งเสริมการจัดสวัสดิการสังคมแห่งชาติ",
        "ว่าด้วยการพิจารณาอนุมัติการจ่ายเงิน การรายงานสถานะการเงินและ",
        "การบริหารกองทุน และการควบคุมการใช้จ่ายเงินของกองทุนส่งเสริมการจัดสวัสดิการสังคม",
        "พ.ศ. ๒๕๔๙"
      ]
    ],
    []
  ],
  "metadata": {
    "date_backmatter": "2549-01-31",
    "date_modified": "2549-03-09",
    "date_original": "2549-03-09",
    "editors": [
      {
        "name": "คุณากร",
        "role": "ผู้จัดทำ",
        "date": "2554-12-30"
      }
    ],
    "tag": "ca66-2g-2549-a0002"
  }
}