{
  "pages": [
    [
      [
        "ประกาศสำนักงานคณะกรรมการ",
        "ส่งเสริมการจัดสวัสดิการสังคมแห่งชาติ",
        "เรื่อง รายชื่อองค์กรสวัสดิการชุมชน",
        "ตามพระราชบัญญัติส่งเสริมการจัดสวัสดิการสังคม",
        "พ.ศ. ๒๕๔๖",
        "(ฉบับที่ ๑๑)"
      ]
    ],
    []
  ],
  "metadata": {
    "date_backmatter": "2552-01-06",
    "date_modified": "2552-04-16",
    "date_original": "2552-04-16",
    "doctype": "ประกาศ",
    "editors": [
      {
        "name": "คุณากร",
        "role": "ผู้จัดทำ",
        "date": "2554-12-27"
      }
    ],
    "tag": "ca66-2e-2552-a0003"
  }
}