{
  "pages": [
    [
      [
        "พระราชบัญญัติ",
        "ภาษีป้าย",
        "พ.ศ. ๒๕๑๐",
        "",
        "",
        "ภูมิพลอดุลยเดช ป.ร.",
        "ให้ไว้ ณ วันที่ ๑๕ พฤศจิกายน พ.ศ. ๒๕๑๐",
        "เป็นปีที่ ๒๒ ในรัชกาลปัจจุบัน"
      ]
    ],
    []
  ],
  "metadata": {
    "date_header": "2510-11-15",
    "date_modified": "2560-02-11",
    "date_original": "2510-11-23",
    "doctype": "พระราชบัญญัติ",
    "editors": [
      {
        "name": "ชวัลพร",
        "role": "ปรับปรุง",
        "date": "2560-02-15"
      },
      {
        "name": "นุสรา",
        "role": "ตรวจ",
        "date": "2560-02-16"
      }
    ],
    "tag": "c004-20-9999-update",
    "title": "ภาษีป้าย"
  }
}