{
  "pages": [
    [
      [
        "กฎกระทรวง",
        "กำหนดลักษณะ การทำ การใช้ และการแสดงเครื่องหมายมาตรฐาน",
        "พ.ศ. ๒๕๕๖"
      ]
    ],
    []
  ],
  "metadata": {
    "date_backmatter": "2556-02-05",
    "date_modified": "2556-02-28",
    "date_original": "2556-02-28",
    "doctype": "กฎกระทรวง",
    "editors": [
      {
        "name": "ปริยานุช",
        "role": "ผู้จัดทำ",
        "date": "2556-03-01"
      },
      {
        "name": "ชาญ",
        "role": "ผู้ตรวจ",
        "date": "2556-03-20"
      }
    ],
    "tag": "a1128-2b-2556-a0001"
  }
}