{
  "pages": [
    [
      [
        "ประกาศคณะกรรมการกำหนดมาตรฐานด้านการตรวจสอบและรับรอง",
        "ฉบับที่ ๖ (พ.ศ. ๒๕๕๓)",
        "ออกตามความในพระราชบัญญัติการมาตรฐานแห่งชาติ",
        "พ.ศ. ๒๕๕๑",
        "เรื่อง กำหนดมาตรฐานระบบการจัดการความปลอดภัยของอาหาร - ข้อกำหนดสำหรับองค์กร",
        "ในห่วงโซ่อาหาร"
      ]
    ],
    []
  ],
  "metadata": {
    "date_backmatter": "2553-06-30",
    "date_modified": "2553-10-05",
    "date_original": "2553-10-05",
    "doctype": "ประกาศ",
    "editors": [
      {
        "name": "มณฑิตา",
        "role": "ผู้จัดทำ",
        "date": "2555-05-11"
      },
      {
        "name": "วิชพงษ์",
        "role": "ผู้ตรวจ",
        "date": "2555-07-04"
      }
    ],
    "tag": "a1128-2e-2553-a0006"
  }
}