{
  "pages": [
    [
      [
        "ประกาศคณะกรรมการรับรองห้องปฏิบัติการ",
        "ฉบับที่ ๑ (พ.ศ. ๒๕๕๔)",
        "ออกตามความในพระราชบัญญัติการมาตรฐานแห่งชาติ",
        "พ.ศ. ๒๕๕๑",
        "เรื่อง กำหนดสาขาการรับรองห้องปฏิบัติการ"
      ]
    ],
    []
  ],
  "metadata": {
    "date_backmatter": "2554-11-22",
    "date_modified": "2554-12-27",
    "date_original": "2554-12-27",
    "doctype": "ประกาศ",
    "editors": [
      {
        "name": "ปริยานุช",
        "role": "ผู้จัดทำ",
        "date": "2555-01-12"
      },
      {
        "name": "ณัฐพร",
        "role": "ผู้ตรวจ",
        "date": "2555-01-12"
      }
    ],
    "tag": "a1128-2e-2554-a0004"
  }
}