{
  "pages": [
    [
      [
        "ประกาศคณะกรรมการการมาตรฐานแห่งชาติ",
        "ฉบับที่ ๒ (พ.ศ. ๒๕๕๙)",
        "เรื่อง หลักเกณฑ์ วิธีการ และเงื่อนไขการรับรองระบบงานหน่วยตรวจสอบความใช้ได้",
        "และทวนสอบก๊าซเรือนกระจก"
      ]
    ],
    []
  ],
  "metadata": {
    "date_backmatter": "2559-07-07",
    "date_modified": "2559-08-24",
    "date_original": "2559-08-24",
    "doctype": "ประกาศ",
    "editors": [
      {
        "name": "วริญา/ปริยานุช",
        "role": "จัดทำ",
        "date": "2559-08-26"
      },
      {
        "name": "นุสรา",
        "role": "ตรวจ",
        "date": "2559-11-24"
      }
    ],
    "tag": "a1128-2e-2559-a0005"
  }
}