{
  "pages": [
    [
      [
        "ประกาศคณะกรรมการการมาตรฐานแห่งชาติ",
        "ฉบับที่ ๑ (พ.ศ. ๒๕๖๐)",
        "เรื่อง หลักเกณฑ์ วิธีการ และเงื่อนไขการรับรองห้องปฏิบัติการ",
        "(แก้ไขเพิ่มเติม ครั้งที่ ๑)"
      ]
    ],
    []
  ],
  "metadata": {
    "date_backmatter": "2560-06-22",
    "date_modified": "2560-07-13",
    "date_original": "2560-07-13",
    "doctype": "ประกาศ",
    "editors": [
      {
        "name": "พิมพ์มาดา/อัญชลี",
        "role": "จัดทำ",
        "date": "2560-07-17"
      }
    ],
    "tag": "a1128-2e-2560-a0002"
  }
}