{
  "pages": [
    [
      [
        "พระราชบัญญัติ",
        "คณะกรรมการจัดระบบการจราจรทางบก",
        "พ.ศ. ๒๕๒๑",
        "",
        "",
        "ภูมิพลอดุลยเดช ป.ร.",
        "ให้ไว้ ณ วันที่ ๒๖ ธันวาคม พ.ศ. ๒๕๒๑",
        "เป็นปีที่ ๓๓ ในรัชกาลปัจจุบัน"
      ]
    ],
    []
  ],
  "metadata": {
    "date_header": "2521-12-26",
    "date_modified": "2545-10-08",
    "date_original": "2521-12-31",
    "doctype": "พระราชบัญญัติ",
    "editors": [
      {
        "name": "วศิน",
        "role": "จัดทำ",
        "date": "2553-01-19"
      },
      {
        "name": "กมลฤทัย",
        "role": "ปรับปรุง",
        "date": "2556-04-04"
      },
      {
        "name": "สุพิชชา",
        "role": "ตรวจ",
        "date": "2556-04-18"
      }
    ],
    "tag": "a453-20-9999-update",
    "title": "คณะกรรมการจัดระบบการจราจรทางบก"
  }
}