{
  "pages": [
    [
      [
        "พระราชกฤษฎีกา",
        "เพิ่มอัตราภาษีสรรพสามิตเพื่อนำไปจัดสรรให้แก่",
        "กรุงเทพมหานครและราชการส่วนท้องถิ่น",
        "พ.ศ. ๒๕๒๗",
        "",
        "",
        "ภูมิพลอดุลยเดช ป.ร.",
        "ให้ไว้ ณ วันที่ ๑๗ พฤศจิกายน พ.ศ. ๒๕๒๗",
        "เป็นปีที่ ๓๙ ในรัชกาลปัจจุบัน"
      ]
    ],
    []
  ],
  "metadata": {
    "date_header": "2527-11-17",
    "date_modified": "2527-11-19",
    "date_original": "2527-11-19",
    "doctype": "พระราชกฤษฎีกา",
    "editors": [
      {
        "name": "นันทพล",
        "role": "ผู้จัดทำ",
        "date": "2552-10-29"
      }
    ],
    "tag": "a821-2a-2527-001",
    "title": "เพิ่มอัตราภาษีสรรพสามิตเพื่อนำไปจัดสรรให้แก่กรุงเทพมหานครและราชการส่วนท้องถิ่น"
  }
}