{
  "pages": [
    [
      [
        "ประกาศคณะกรรมการกิจการกระจายเสียง กิจการโทรทัศน์",
        "และกิจการโทรคมนาคมแห่งชาติ",
        "เรื่อง ยกเลิกประกาศคณะกรรมการกิจการโทรคมนาคมแห่งชาติ",
        "เรื่อง การเปิดเสรีการให้บริการวงจรเช่าส่วนบุคคลระหว่างประเทศ",
        "(International Private Leased Circuit : IPLC)",
        "ที่มีโครงข่ายเป็นของตนเอง"
      ]
    ],
    []
  ],
  "metadata": {
    "date_backmatter": "2556-05-30",
    "date_modified": "2556-07-04",
    "date_original": "2556-07-04",
    "doctype": "ประกาศ",
    "editors": [
      {
        "name": "ปริยานุช",
        "role": "ผู้จัดทำ",
        "date": "2556-07-11"
      },
      {
        "name": "อุษมล",
        "role": "ผู้ตรวจ",
        "date": "2556-07-11"
      }
    ],
    "tag": "a1110-2e-2556-a0006"
  }
}