{
  "pages": [
    [
      [
        "ประกาศคณะกรรมการกิจการกระจายเสียง กิจการโทรทัศน์",
        "และกิจการโทรคมนาคมแห่งชาติ",
        "เรื่อง หลักเกณฑ์การจัดให้มีบริการโทรคมนาคมพื้นฐานโดยทั่วถึงและบริการเพื่อสังคม"
      ]
    ],
    []
  ],
  "metadata": {
    "date_backmatter": "2556-10-02",
    "date_modified": "2556-10-03",
    "date_original": "2556-10-03",
    "doctype": "ประกาศ",
    "editors": [
      {
        "name": "ปริยานุช",
        "role": "ผู้จัดทำ",
        "date": "2556-10-09"
      },
      {
        "name": "โชติกานต์",
        "role": "ผู้ตรวจ",
        "date": "2556-10-15"
      }
    ],
    "tag": "a1110-2e-2556-a0013"
  }
}