{
  "pages": [
    [
      [
        "ประกาศคณะกรรมการกิจการกระจายเสียง กิจการโทรทัศน์",
        "และกิจการโทรคมนาคมแห่งชาติ",
        "เรื่อง การแต่งตั้งพนักงานเจ้าหน้าที่และการมอบหมายให้พนักงานเจ้าหน้าที่ปฏิบัติหน้าที่แทน",
        "คณะกรรมการกิจการกระจายเสียง กิจการโทรทัศน์ และกิจการโทรคมนาคมแห่งชาติ",
        "ในการกำกับดูแลการประกอบกิจการโทรคมนาคมและกิจการวิทยุคมนาคม"
      ]
    ],
    []
  ],
  "metadata": {
    "date_backmatter": "2561-01-31",
    "date_modified": "2561-02-27",
    "date_original": "2561-02-27",
    "doctype": "ประกาศ",
    "editors": [
      {
        "name": "พัชรภรณ์",
        "role": "จัดทำ",
        "date": "2561-04-23"
      }
    ],
    "tag": "a1110-2e-2561-a0005"
  }
}