{
  "pages": [
    [
      [
        "ประกาศคณะกรรมการกิจการโทรคมนาคมแห่งชาติ",
        "เรื่อง ระยะเวลาการอนุญาตประกอบกิจการโทรคมนาคมแบบที่หนึ่ง",
        "และการให้บริการอินเทอร์เน็ตแบบที่หนึ่ง"
      ]
    ],
    []
  ],
  "metadata": {
    "date_backmatter": "2552-03-25",
    "date_modified": "2552-04-02",
    "date_original": "2552-04-02",
    "doctype": "ประกาศ",
    "editors": [
      {
        "name": "ปริยานุช",
        "role": "ผู้จัดทำ",
        "date": "2552-04-27"
      },
      {
        "name": "วิภา",
        "role": "ปรับปรุง",
        "date": "2559-09-12"
      },
      {
        "name": "กลุชาติ",
        "role": "ตรวจ",
        "date": "2559-11-11"
      }
    ],
    "tag": "a1110-2e-2552-a0003"
  }
}