{
  "pages": [
    [
      [
        "ประกาศคณะกรรมการกิจการโทรคมนาคมแห่งชาติ",
        "เรื่อง อัตราขั้นสูงของค่าบริการและการเรียกเก็บเงินค่าบริการล่วงหน้า",
        "ในกิจการโทรคมนาคม",
        "พ.ศ. ๒๕๔๙"
      ]
    ],
    []
  ],
  "metadata": {
    "date_backmatter": "2549-09-28",
    "date_modified": "2549-11-02",
    "date_original": "2549-11-02",
    "doctype": "ประกาศ",
    "editors": [
      {
        "name": "โสรศ",
        "role": "ผู้จัดทำ",
        "date": "2549-11-21"
      },
      {
        "name": "วิภา",
        "role": "ปรับปรุง",
        "date": "2559-09-12"
      },
      {
        "name": "กลุชาติ",
        "role": "ตรวจ",
        "date": "2559-11-11"
      }
    ],
    "tag": "a1110-2e-2549-a0011"
  }
}