{
  "pages": [
    [
      [
        "ประกาศสำนักงานคณะกรรมการกิจการกระจายเสียง",
        "กิจการโทรทัศน์ และกิจการโทรคมนาคมแห่งชาติ",
        "เรื่อง เครื่องโทรคมนาคมและอุปกรณ์ที่ผ่านการตรวจสอบและรับรองมาตรฐาน",
        "(ฉบับที่ ๖/๒๕๕๕)"
      ]
    ],
    []
  ],
  "metadata": {
    "date_backmatter": "2555-09-14",
    "date_modified": "2555-11-15",
    "date_original": "2555-11-15",
    "doctype": "ประกาศ",
    "editors": [
      {
        "name": "ปริยานุช",
        "role": "ผู้จัดทำ",
        "date": "2555-11-20"
      },
      {
        "name": "ชาญ",
        "role": "ผู้ตรวจ",
        "date": "2555-11-22"
      }
    ],
    "tag": "a1110-2e-2555-a0018"
  }
}