{
  "pages": [
    [
      [
        "ประกาศสำนักงานคณะกรรมการกิจการกระจายเสียง กิจการโทรทัศน์",
        "และกิจการโทรคมนาคมแห่งชาติ",
        "เรื่อง เครื่องโทรคมนาคมและอุปกรณ์ที่ผ่านการตรวจสอบและรับรองมาตรฐาน",
        "(ฉบับที่ ๘/๒๕๕๘)"
      ]
    ],
    []
  ],
  "metadata": {
    "date_backmatter": "2559-01-26",
    "date_modified": "2559-03-10",
    "date_original": "2559-03-10",
    "doctype": "ประกาศ",
    "editors": [
      {
        "name": "ปุณิกา/ปริยานุช",
        "role": "จัดทำ",
        "date": "2559-03-14"
      },
      {
        "name": "นุสรา",
        "role": "ตรวจ",
        "date": "2559-05-10"
      }
    ],
    "tag": "a1110-2e-2559-a0001"
  }
}