{
  "pages": [
    [
      [
        "ประกาศสำนักงานคณะกรรมการกิจการกระจายเสียง",
        "กิจการโทรทัศน์ และกิจการโทรคมนาคมแห่งชาติ",
        "เรื่อง เครื่องโทรคมนาคมและอุปกรณ์ที่ผ่านการตรวจสอบและรับรองมาตรฐาน",
        "(ฉบับที่ ๙/๒๕๕๔)"
      ]
    ],
    []
  ],
  "metadata": {
    "date_backmatter": "2554-10-11",
    "date_modified": "2554-11-24",
    "date_original": "2554-11-24",
    "doctype": "ประกาศ",
    "editors": [
      {
        "name": "ปริยานุช",
        "role": "ผู้จัดทำ",
        "date": "2554-11-30"
      },
      {
        "name": "อุษมล",
        "role": "ผู้ตรวจ",
        "date": "2554-12-02"
      }
    ],
    "tag": "a1110-2e-2554-a0011"
  }
}