{
  "pages": [
    [
      [
        "ประกาศสำนักงานคณะกรรมการกิจการกระจายเสียง",
        "กิจการโทรทัศน์ และกิจการโทรคมนาคมแห่งชาติ",
        "เรื่อง เครื่องโทรคมนาคมและอุปกรณ์ที่ผ่านการตรวจสอบและรับรองมาตรฐาน",
        "(ฉบับที่ ๑๒/๒๕๕๖)"
      ]
    ],
    []
  ],
  "metadata": {
    "date_backmatter": "2557-01-29",
    "date_modified": "2557-03-13",
    "date_original": "2557-03-13",
    "doctype": "ประกาศ",
    "editors": [
      {
        "name": "ปณตภร",
        "role": "ผู้จัดทำ",
        "date": "2557-04-10"
      }
    ],
    "tag": "a1110-2e-2557-a0004"
  }
}