{
  "pages": [
    [
      [
        "ประกาศคณะกรรมการกิจการโทรคมนาคมแห่งชาติ",
        "เรื่อง กระบวนการยื่นขอรับใบอนุญาตการให้บริการอินเทอร์เน็ตเกตเวย์ระหว่างประเทศ",
        "และบริการชุมสายอินเทอร์เน็ต แบบที่สอง (Automatic License)"
      ]
    ],
    []
  ],
  "metadata": {
    "date_backmatter": "2549-10-19",
    "date_modified": "2549-11-21",
    "date_original": "2549-11-21",
    "doctype": "ประกาศ",
    "editors": [
      {
        "name": "วัชศักดิ์",
        "role": "ผู้จัดทำ",
        "date": "2549-11-23"
      },
      {
        "name": "วิภา",
        "role": "ปรับปรุง",
        "date": "2559-06-15"
      },
      {
        "name": "วิภา",
        "role": "ปรับปรุง",
        "date": "2559-09-12"
      },
      {
        "name": "กลุชาติ",
        "role": "ตรวจ",
        "date": "2559-11-11"
      }
    ],
    "tag": "a1110-2e-2549-a0012"
  }
}