{
  "pages": [
    [
      [
        "ประกาศคณะกรรมการกิจการโทรคมนาคมแห่งชาติ",
        "ว่าด้วยมาตรฐานทางเทคนิคของเครื่องโทรคมนาคมและอุปกรณ์",
        "เรื่อง เครื่องวิทยุคมนาคมในกิจการเคลื่อนที่ทางบก ระบบ Digital Trunked Radio"
      ]
    ],
    []
  ],
  "metadata": {
    "date_backmatter": "2549-12-28",
    "date_modified": "2550-01-26",
    "date_original": "2550-01-26",
    "doctype": "ประกาศ",
    "editors": [
      {
        "name": "วัชศักดิ์",
        "role": "ผู้จัดทำ",
        "date": "2550-01-30"
      },
      {
        "name": "วิภา",
        "role": "ปรับปรุง",
        "date": "2559-09-12"
      },
      {
        "name": "กลุชาติ",
        "role": "ตรวจ",
        "date": "2559-11-11"
      }
    ],
    "tag": "a1110-2e-2550-a0003"
  }
}