{
  "pages": [
    [
      [
        "ข้อบังคับมหาวิทยาลัยเชียงใหม่",
        "ว่าด้วยปริญญาในสาขาวิชา และอักษรย่อสำหรับสาขาวิชา",
        "พ.ศ. ๒๕๕๓"
      ]
    ],
    []
  ],
  "metadata": {
    "date_backmatter": "2553-10-12",
    "date_modified": "2553-11-30",
    "date_original": "2553-11-30",
    "editors": [
      {
        "name": "ปริยานุช",
        "role": "ผู้จัดทำ",
        "date": "2553-12-13"
      },
      {
        "name": "ณัฐวดี",
        "role": "ตรวจ",
        "date": "2553-12-13"
      },
      {
        "name": "อุษมล",
        "role": "ปรับปรุง",
        "date": "2556-06-25"
      }
    ],
    "tag": "c103-2i-2553-a0002"
  }
}