{
  "pages": [
    [
      [
        "ประกาศมหาวิทยาลัยเชียงใหม่",
        "เรื่อง โครงสร้างและการจัดองค์กร อำนาจหน้าที่ วิธีการดำเนินงาน",
        "และสถานที่ติดต่อเพื่อขอรับข่าวสารของมหาวิทยาลัย"
      ]
    ],
    []
  ],
  "metadata": {
    "date_backmatter": "2542-01-25",
    "date_modified": "2542-03-23",
    "date_original": "2542-03-23",
    "doctype": "ประกาศ",
    "editors": [
      {
        "name": "สุกัญญา",
        "role": "พิมพ์",
        "date": "2552-05-13"
      }
    ],
    "tag": "c103-2e-2542-a0001"
  }
}