{
  "pages": [
    [
      [
        "พระราชบัญญัติ",
        "การรับขนของทางทะเล",
        "พ.ศ. ๒๕๓๔",
        "",
        "",
        "ภูมิพลอดุลยเดช ป.ร.",
        "ให้ไว้ ณ วันที่ ๑๔ พฤศจิกายน พ.ศ. ๒๕๓๔",
        "เป็นปีที่ ๔๖ ในรัชกาลปัจจุบัน"
      ]
    ],
    []
  ],
  "metadata": {
    "date_header": "2534-11-14",
    "date_modified": "2534-11-22",
    "date_original": "2534-11-22",
    "doctype": "พระราชบัญญัติ",
    "editors": [
      {
        "name": null,
        "role": null,
        "date": "2558-07-01"
      }
    ],
    "tag": "a172-20-2534-001",
    "title": "การรับขนของทางทะเล"
  }
}