{
  "pages": [
    [
      [
        "พระราชบัญญัติ",
        "สถาบันการพยาบาลศรีสวรินทิรา สภากาชาดไทย",
        "พ.ศ. ๒๕๕๙",
        "",
        "",
        "สมเด็จพระเจ้าอยู่หัวมหาวชิราลงกรณ บดินทรเทพยวรางกูร",
        "ให้ไว้ ณ วันที่ ๒๕ ธันวาคม พ.ศ. ๒๕๕๙",
        "เป็นปีที่ ๑ ในรัชกาลปัจจุบัน"
      ]
    ],
    []
  ],
  "metadata": {
    "date_header": "2559-12-25",
    "date_modified": "2559-12-26",
    "date_original": "2559-12-26",
    "doctype": "พระราชบัญญัติ",
    "editors": [
      {
        "name": "ชนิกา/ปริยานุช",
        "role": "จัดทำ",
        "date": "2559-12-27"
      },
      {
        "name": "ปริญสินีย์",
        "role": "ตรวจ",
        "date": "2559-12-28"
      }
    ],
    "tag": "ca92-20-2559-a0001",
    "title": "สถาบันการพยาบาลศรีสวรินทิรา สภากาชาดไทย"
  }
}