{
  "pages": [
    [
      [
        "ประกาศสำนักงานป้องกันและปราบปรามการฟอกเงิน",
        "เรื่อง บุคคลที่มีสถานภาพทางการเมือง (ฉบับที่ ๒)",
        "พ.ศ. ๒๕๕๘"
      ]
    ],
    []
  ],
  "metadata": {
    "date_backmatter": "2558-12-21",
    "date_modified": "2558-12-30",
    "date_original": "2558-12-30",
    "doctype": "ประกาศ",
    "editors": [
      {
        "name": "ปุณิกา/ปริยานุช",
        "role": "จัดทำ",
        "date": "2559-01-08"
      }
    ],
    "tag": "bb40-2e-2558-a0003"
  }
}