{
  "pages": [
    [
      [
        "กฎกระทรวง",
        "แบ่งส่วนราชการสำนักงานป้องกันและปราบปรามการฟอกเงิน",
        "พ.ศ. ๒๕๕๖"
      ]
    ],
    []
  ],
  "metadata": {
    "date_backmatter": "2556-02-04",
    "date_modified": "2556-02-08",
    "date_original": "2556-02-08",
    "doctype": "กฎกระทรวง",
    "editors": [
      {
        "name": "ปริยานุช",
        "role": "ผู้จัดทำ",
        "date": "2556-02-11"
      },
      {
        "name": "ปณตภร",
        "role": "ผู้ตรวจ",
        "date": "2556-02-13"
      }
    ],
    "tag": "bb40-2b-2556-a0001"
  }
}