{
  "pages": [
    [
      [
        "ประกาศสำนักนายกรัฐมนตรี",
        "เรื่อง กำหนดแบบบัตรประจำตัวพนักงานเจ้าหน้าที่",
        "ตามพระราชบัญญัติป้องกันและปราบปรามการฟอกเงิน พ.ศ. ๒๕๔๒",
        "พ.ศ. ๒๕๔๓"
      ]
    ],
    []
  ],
  "metadata": {
    "date_backmatter": "2543-09-11",
    "date_modified": "2543-09-27",
    "date_original": "2543-09-27",
    "doctype": "ประกาศ",
    "editors": [
      {
        "name": "สุกัญญา",
        "role": "ผู้จัดทำ",
        "date": "2552-10-13"
      },
      {
        "name": "นันท์นภัสร์",
        "role": "ตรวจ",
        "date": "2552-10-13"
      }
    ],
    "tag": "bb40-2e-2543-a002"
  }
}