{
  "pages": [
    [
      [
        "กฎกระทรวง",
        "กำหนดจำนวนเงินในการทำธุรกรรมที่ใช้เงินสดซึ่งผู้ประกอบอาชีพตามมาตรา ๑๖",
        "ต้องรายงานต่อสำนักงานป้องกันและปราบปรามการฟอกเงิน (ฉบับที่ ๒)",
        "พ.ศ. ๒๕๕๙"
      ]
    ],
    []
  ],
  "metadata": {
    "date_backmatter": "2559-11-18",
    "date_modified": "2559-11-21",
    "date_original": "2559-11-21",
    "doctype": "กฎกระทรวง",
    "editors": [
      {
        "name": "ปริยานุช",
        "role": "จัดทำ",
        "date": "2559-11-28"
      },
      {
        "name": "ชนิกา",
        "role": "ตรวจ",
        "date": "2559-12-08"
      }
    ],
    "tag": "bb40-2b-2559-a0002"
  }
}