{
  "pages": [
    [
      [
        "ระเบียบสำนักงานป้องกันและปราบปรามการฟอกเงิน",
        "ว่าด้วยเครื่องแบบปกติสำหรับพนักงานราชการสำนักงานป้องกันและปราบปรามการฟอกเงิน",
        "พ.ศ. ๒๕๔๘"
      ]
    ],
    []
  ],
  "metadata": {
    "date_backmatter": "2548-07-20",
    "date_modified": "2548-08-31",
    "date_original": "2548-08-31",
    "editors": [
      {
        "name": "วิมล",
        "role": "ผู้จัดทำ",
        "date": "2554-02-00"
      },
      {
        "name": "เลิศศักดิ์",
        "role": "ผู้ตรวจ",
        "date": "2554-02-00"
      }
    ],
    "tag": "bb40-2g-2548-a0001"
  }
}