{
  "pages": [
    [
      [
        "ประกาศสำนักงานป้องกันและปราบปรามการฟอกเงิน",
        "เรื่อง แนวทางการตรวจสอบเพื่อทราบข้อเท็จจริงเกี่ยวกับลูกค้าสำหรับลูกค้าปัจจุบัน"
      ]
    ],
    []
  ],
  "metadata": {
    "date_backmatter": "2556-10-11",
    "date_modified": "2556-11-08",
    "date_original": "2556-11-08",
    "doctype": "ประกาศ",
    "editors": [
      {
        "name": "ปริยานุช",
        "role": "ผู้จัดทำ",
        "date": "2556-11-12"
      },
      {
        "name": "อังศุมาลี",
        "role": "ผู้ตรวจ",
        "date": "2556-11-12"
      }
    ],
    "tag": "bb40-2e-2556-a0009"
  }
}