{
  "pages": [
    [
      [
        "ระเบียบสำนักนายกรัฐมนตรี",
        "ว่าด้วยคุณสมบัติ การแต่งตั้ง การปฏิบัติหน้าที่ และการกำกับดูแลการปฏิบัติหน้าที่ของพนักงานเจ้าหน้าที่",
        "ตามพระราชบัญญัติป้องกันและปราบปรามการฟอกเงิน พ.ศ. ๒๕๔๒ (ฉบับที่ ๒)",
        "พ.ศ. ๒๕๕๙"
      ]
    ],
    []
  ],
  "metadata": {
    "date_backmatter": "2559-07-01",
    "date_modified": "2559-07-07",
    "date_original": "2559-07-07",
    "editors": [
      {
        "name": "ปริยานุช",
        "role": "จัดทำ",
        "date": "2559-07-11"
      },
      {
        "name": "กัญฑรัตน์",
        "role": "ตรวจ",
        "date": "2559-07-29"
      }
    ],
    "tag": "bb40-2g-2559-a0008"
  }
}