{
  "pages": [
    [
      [
        "กฎกระทรวง",
        "กำหนดจำนวนเงินในการทำธุรกรรมที่ใช้เงินสดซึ่งผู้ประกอบอาชีพตามมาตรา ๑๖",
        "ต้องรายงานต่อสำนักงานป้องกันและปราบปรามการฟอกเงิน",
        "พ.ศ. ๒๕๕๔"
      ]
    ],
    []
  ],
  "metadata": {
    "date_backmatter": "2554-05-19",
    "date_modified": "2559-11-21",
    "date_original": "2554-05-27",
    "doctype": "กฎกระทรวง",
    "editors": [
      {
        "name": "ชนิกา",
        "role": "จัดทำ",
        "date": "2559-12-06"
      }
    ],
    "tag": "bb40-2b-9999-update"
  }
}