{
  "pages": [
    [
      [
        "กฎกระทรวง",
        "ฉบับที่ ๖ (พ.ศ. ๒๕๔๓)",
        "ออกตามความในพระราชบัญญัติป้องกันและปราบปราม",
        "การฟอกเงิน พ.ศ. ๒๕๔๒"
      ]
    ],
    []
  ],
  "metadata": {
    "date_backmatter": "2543-09-11",
    "date_modified": "2543-09-27",
    "date_original": "2543-09-27",
    "doctype": "กฎกระทรวง",
    "editors": [
      {
        "name": "สุกัญญา",
        "role": "ผู้จัดทำ",
        "date": "2552-10-13"
      },
      {
        "name": "นันท์นภัสร์",
        "role": "ตรวจ",
        "date": "2552-10-13"
      }
    ],
    "tag": "bb40-2b-2543-a006"
  }
}