{
  "pages": [
    [
      [
        "พระราชบัญญัติ",
        "สภาที่ปรึกษาเศรษฐกิจและสังคมแห่งชาติ",
        "พ.ศ. ๒๕๔๓",
        "",
        "",
        "ภูมิพลอดุลยเดช ป.ร.",
        "ให้ไว้ ณ วันที่ ๑๕ พฤศจิกายน พ.ศ. ๒๕๔๓",
        "เป็นปีที่ ๕๕ ในรัชกาลปัจจุบัน"
      ]
    ],
    []
  ],
  "metadata": {
    "date_header": "2543-11-15",
    "date_modified": "2543-12-19",
    "date_original": "2543-12-19",
    "doctype": "พระราชบัญญัติ",
    "editors": [
      {
        "name": "วชิระ",
        "role": "ปรับปรุง",
        "date": "2552-05-26"
      },
      {
        "name": "ภีรภัทร",
        "role": "ปรับปรุง",
        "date": "2554-03-04"
      }
    ],
    "tag": "ca61-20-2543-a0001",
    "title": "สภาที่ปรึกษาเศรษฐกิจและสังคมแห่งชาติ"
  }
}