{
  "pages": [
    [
      [
        "พระราชกฤษฎีกา",
        "การได้รับเงินประจำตำแหน่งของข้าราชการและผู้ดำรงตำแหน่งผู้บริหาร",
        "ซึ่งไม่เป็นข้าราชการ (ฉบับที่ ๖)",
        "พ.ศ. ๒๕๔๕",
        "",
        "",
        "ภูมิพลอดุลยเดช ป.ร.",
        "ให้ไว้ ณ วันที่ ๒๖ พฤศจิกายน พ.ศ. ๒๕๔๕",
        "เป็นปีที่ ๕๗ ในรัชกาลปัจจุบัน"
      ]
    ],
    []
  ],
  "metadata": {
    "date_header": "2545-11-26",
    "date_modified": "2545-12-06",
    "date_original": "2545-12-06",
    "doctype": "พระราชกฤษฎีกา",
    "editors": [
      {
        "name": "สุนันทา",
        "role": "ผู้จัดทำ",
        "date": "2553-03-17"
      },
      {
        "name": "กวินทราดา",
        "role": "ผู้ตรวจ",
        "date": "2553-12-24"
      }
    ],
    "tag": "a705-2a-2545-a0002",
    "title": "การได้รับเงินประจำตำแหน่งของข้าราชการและผู้ดำรงตำแหน่งผู้บริหารซึ่งไม่เป็นข้าราชการ (ฉบับที่ ๖)"
  }
}