{
  "pages": [
    [
      [
        "พระราชบัญญัติ",
        "เงินเดือนและเงินประจำตำแหน่ง (ฉบับที่ ๖)",
        "พ.ศ. ๒๕๕๑",
        "",
        "",
        "ภูมิพลอดุลยเดช ป.ร.",
        "ให้ไว้ ณ วันที่ ๒๗ มกราคม พ.ศ. ๒๕๕๑",
        "เป็นปีที่ ๖๓ ในรัชกาลปัจจุบัน"
      ]
    ],
    []
  ],
  "metadata": {
    "date_header": "2551-01-27",
    "date_modified": "2551-01-31",
    "date_original": "2551-01-31",
    "doctype": "พระราชบัญญัติ",
    "editors": [
      {
        "name": "วสุ สรรกำเนิด",
        "role": "ผู้จัดทำ",
        "date": "2551-12-25"
      }
    ],
    "tag": "a705-20-2551-a0003",
    "title": "เงินเดือนและเงินประจำตำแหน่ง (ฉบับที่ ๖)"
  }
}