{
  "pages": [
    [
      [
        "พระราชกฤษฎีกา",
        "เงินประจำตำแหน่งและประโยชน์ตอบแทนอย่างอื่น",
        "ของสมาชิกสภาร่างรัฐธรรมนูญและกรรมาธิการที่สภาร่างรัฐธรรมนูญแต่งตั้ง",
        "(ฉบับที่ ๒) พ.ศ. ๒๕๔๐",
        "",
        "",
        "ภูมิพลอดุลยเดช ป.ร.",
        "ให้ไว้ ณ วันที่ ๘ กรกฎาคม พ.ศ. ๒๕๔๐",
        "เป็นปีที่ ๕๒ ในรัชกาลปัจจุบัน"
      ]
    ],
    []
  ],
  "metadata": {
    "date_header": "2540-07-08",
    "date_modified": "2540-07-11",
    "date_original": "2540-07-11",
    "doctype": "พระราชกฤษฎีกา",
    "editors": [
      {
        "name": "สุนันทา",
        "role": "ผู้จัดทำ",
        "date": "2553-03-04"
      },
      {
        "name": "กวินทราดา",
        "role": "ผู้ตรวจ",
        "date": "2553-12-28"
      }
    ],
    "tag": "a705-2a-2540-002",
    "title": "เงินประจำตำแหน่งและประโยชน์ตอบแทนอย่างอื่นของสมาชิกสภาร่างรัฐธรรมนูญและกรรมาธิการที่สภาร่างรัฐธรรมนูญแต่งตั้ง(ฉบับที่ ๒)"
  }
}