{
  "pages": [
    [
      [
        "พระราชบัญญัติ",
        "เงินเดือนและเงินประจำตำแหน่ง",
        "พ.ศ. ๒๕๓๘",
        "",
        "",
        "ภูมิพลอดุลยเดช ป.ร.",
        "ให้ไว้ ณ วันที่ ๑ มกราคม พ.ศ. ๒๕๓๘",
        "เป็นปีที่ ๕๐ ในรัชกาลปัจจุบัน"
      ]
    ],
    []
  ],
  "metadata": {
    "date_header": "2538-01-01",
    "date_modified": "2551-01-25",
    "date_original": "2538-01-01",
    "doctype": "พระราชบัญญัติ",
    "editors": [
      {
        "name": "วสุ สรรกำเนิด",
        "role": "ผู้จัดทำ",
        "date": "2551-12-25"
      }
    ],
    "tag": "a705-20-2551-a0002",
    "title": "เงินเดือนและเงินประจำตำแหน่ง"
  }
}