{
  "pages": [
    [
      [
        "พระราชกฤษฎีกา",
        "เงินประจำตำแหน่งและประโยชน์ตอบแทนอย่างอื่น",
        "ของสมาชิกวุฒิสภา สมาชิกสภาผู้แทนราษฎร และกรรมาธิการ (ฉบับที่ ๔)",
        "พ.ศ. ๒๕๔๑",
        "",
        "",
        "ภูมิพลอดุลยเดช ป.ร.",
        "ให้ไว้ ณ วันที่ ๑๖ พฤษภาคม พ.ศ. ๒๕๔๑",
        "เป็นปีที่ ๕๓ ในรัชกาลปัจจุบัน"
      ]
    ],
    []
  ],
  "metadata": {
    "date_backmatter": "2541-12-00",
    "date_header": "2541-05-16",
    "date_modified": "2541-05-31",
    "date_original": "2541-05-31",
    "doctype": "พระราชกฤษฎีกา",
    "editors": [
      {
        "name": "สุนันทา",
        "role": "ผู้จัดทำ",
        "date": "2553-03-04"
      },
      {
        "name": "กวินทราดา",
        "role": "ผู้ตรวจ",
        "date": "2553-12-28"
      }
    ],
    "tag": "a705-2a-2541-003",
    "title": "เงินประจำตำแหน่งและประโยชน์ตอบแทนอย่างอื่นของสมาชิกวุฒิสภา สมาชิกสภาผู้แทนราษฎร และกรรมาธิการ (ฉบับที่ ๔)"
  }
}