{
  "pages": [
    [
      [
        "พระราชกฤษฎีกา",
        "การได้รับเงินประจำตำแหน่งของข้าราชการ",
        "และผู้ดำรงตำแหน่งผู้บริหารซึ่งไม่เป็นข้าราชการ (ฉบับที่ ๓)",
        "พ.ศ. ๒๕๔๐",
        "",
        "",
        "ภูมิพลอดุลยเดช ป.ร.",
        "ให้ไว้ ณ วันที่ ๓๐ ตุลาคม พ.ศ. ๒๕๔๐",
        "เป็นปีที่ ๕๒ ในรัชกาลปัจจุบัน"
      ]
    ],
    []
  ],
  "metadata": {
    "date_header": "2540-10-30",
    "date_modified": "2540-11-11",
    "date_original": "2540-11-11",
    "doctype": "พระราชกฤษฎีกา",
    "editors": [
      {
        "name": "สุนันทา",
        "role": "ผู้จัดทำ",
        "date": "2553-03-17"
      },
      {
        "name": "กวินทราดา",
        "role": "ผู้ตรวจ",
        "date": "2553-12-24"
      }
    ],
    "tag": "a705-2a-2540-a0001",
    "title": "การได้รับเงินประจำตำแหน่งของข้าราชการและผู้ดำรงตำแหน่งผู้บริหารซึ่งไม่เป็นข้าราชการ (ฉบับที่ ๓)"
  }
}