{
  "pages": [
    [
      [
        "พระราชกฤษฎีกา",
        "การปรับอัตราเงินเดือนของข้าราชการ",
        "พ.ศ. ๒๕๔๗",
        "",
        "",
        "ภูมิพลอดุลยเดช ป.ร.",
        "ให้ไว้ ณ วันที่ ๒๒ เมษายน พ.ศ. ๒๕๔๗",
        "เป็นปีที่ ๕๙ ในรัชกาลปัจจุบัน"
      ]
    ],
    []
  ],
  "metadata": {
    "date_header": "2547-04-22",
    "date_modified": "2548-09-26",
    "date_original": "2547-04-23",
    "doctype": "พระราชกฤษฎีกา",
    "editors": [
      {
        "name": "สุนันทา",
        "role": "ผู้จัดทำ",
        "date": "2553-03-04"
      },
      {
        "name": "กวินทราดา",
        "role": "ผู้ตรวจ",
        "date": "2553-12-28"
      }
    ],
    "tag": "a705-2a-2548-a0002",
    "title": "การปรับอัตราเงินเดือนของข้าราชการ"
  }
}