{
  "pages": [
    [
      [
        "พระราชบัญญัติ",
        "เงินเดือนและเงินประจำตำแหน่ง (ฉบับที่ ๘)",
        "พ.ศ. ๒๕๕๔",
        "",
        "",
        "ภูมิพลอดุลยเดช ป.ร.",
        "ให้ไว้ ณ วันที่ ๓ พฤษภาคม พ.ศ. ๒๕๕๔",
        "เป็นปีที่ ๖๖ ในรัชกาลปัจจุบัน"
      ]
    ],
    []
  ],
  "metadata": {
    "date_header": "2554-05-03",
    "date_modified": "2554-05-11",
    "date_original": "2554-05-11",
    "doctype": "พระราชบัญญัติ",
    "editors": [
      {
        "name": "ปริยานุช",
        "role": "ผู้จัดทำ",
        "date": "2554-05-18"
      },
      {
        "name": "ดำรง",
        "role": "ตรวจ",
        "date": "2554-05-18"
      }
    ],
    "tag": "a705-20-2554-a0003",
    "title": "เงินเดือนและเงินประจำตำแหน่ง (ฉบับที่ ๘)"
  }
}