{
  "pages": [
    [
      [
        "พระราชกฤษฎีกา",
        "การได้รับเงินประจำตำแหน่งของข้าราชการและผู้ดำรงตำแหน่งผู้บริหาร",
        "ซึ่งไม่เป็นข้าราชการ (ฉบับที่ ๗)",
        "พ.ศ. ๒๕๔๗",
        "",
        "",
        "ภูมิพลอดุลยเดช ป.ร.",
        "ให้ไว้ ณ วันที่ ๗ กุมภาพันธ์ พ.ศ. ๒๕๔๗",
        "เป็นปีที่ ๕๙ ในรัชกาลปัจจุบัน"
      ]
    ],
    []
  ],
  "metadata": {
    "date_header": "2547-02-07",
    "date_modified": "2547-03-25",
    "date_original": "2547-03-25",
    "doctype": "พระราชกฤษฎีกา",
    "editors": [
      {
        "name": "สุกัญญา",
        "role": "ผู้จัดทำ",
        "date": "2552-11-17"
      },
      {
        "name": "สุนันทา",
        "role": "ตรวจ",
        "date": "2553-03-04"
      }
    ],
    "tag": "a705-2a-2547-a0001",
    "title": "การได้รับเงินประจำตำแหน่งของข้าราชการและผู้ดำรงตำแหน่งผู้บริหารซึ่งไม่เป็นข้าราชการ (ฉบับที่ ๗)"
  }
}