{
  "pages": [
    [
      [
        "ประกาศกรมเชื้อเพลิงธรรมชาติ",
        "เรื่อง หลักเกณฑ์ การรายงานผลการประกอบกิจการปิโตรเลียม"
      ]
    ],
    []
  ],
  "metadata": {
    "date_backmatter": "2561-03-22",
    "date_modified": "2561-05-10",
    "date_original": "2561-05-10",
    "doctype": "ประกาศ",
    "editors": [
      {
        "name": "พิมพ์มาดา",
        "role": "จัดทำ",
        "date": "2561-06-18"
      }
    ],
    "tag": "bb28-2e-2561-a0005"
  }
}