{
  "pages": [
    [
      [
        "พระราชบัญญัติ",
        "ปิโตรเลียม (ฉบับที่ ๓)",
        "พ.ศ. ๒๕๒๒",
        "",
        "",
        "ภูมิพลอดุลยเดช ป.ร.",
        "ให้ไว้ ณ วันที่ ๓๐ เมษายน พ.ศ. ๒๕๒๒",
        "เป็นปีที่ ๓๔ ในรัชกาลปัจจุบัน"
      ]
    ],
    []
  ],
  "metadata": {
    "date_header": "2522-04-30",
    "date_modified": "2522-05-10",
    "date_original": "2522-05-10",
    "doctype": "พระราชบัญญัติ",
    "editors": [
      {
        "name": "ภคินี",
        "role": "แก้ไข",
        "date": "2545-01-31"
      },
      {
        "name": "ปัญญา",
        "role": "แก้ไข",
        "date": "2552-07-30"
      }
    ],
    "tag": "bb28-20-2522-003",
    "title": "ปิโตรเลียม (ฉบับที่ ๓)"
  }
}