{
  "pages": [
    [
      [
        "กฎกระทรวง",
        "ฉบับที่ ๗ (พ.ศ. ๒๕๑๔)",
        "ออกตามความในพระราชบัญญัติปิโตรเลียม",
        "พ.ศ. ๒๕๑๔"
      ]
    ],
    []
  ],
  "metadata": {
    "date_backmatter": "2514-09-13",
    "doctype": "กฎกระทรวง",
    "editors": [],
    "tag": "bb28-2b-2514-007"
  }
}