{
  "pages": [
    [
      [
        "ประกาศกรมเชื้อเพลิงธรรมชาติ",
        "เรื่อง ข้อตกลงการส่งมอบสิ่งติดตั้ง"
      ]
    ],
    []
  ],
  "metadata": {
    "date_backmatter": "2561-04-19",
    "date_modified": "2561-04-20",
    "date_original": "2561-04-20",
    "doctype": "ประกาศ",
    "editors": [
      {
        "name": "พรวิภา",
        "role": "จัดทำ",
        "date": "2561-04-20"
      }
    ],
    "tag": "bb28-2e-2561-a0003"
  }
}