{
  "pages": [
    [
      [
        "ประกาศกรมวิชาการเกษตร",
        "เรื่องขั้นตอนการปฏิบัติการรับรองเมล็ดพันธุ์ข้าวและพืชไร่ให้เป็นเมล็ดพันธุ์รับรองตาม",
        "ประกาศกระทรวงเกษตรและสหกรณ์ เรื่อง การรับรองเมล็ดพันธุ์ให้เป็นเมล็ดพันธุ์รับรองตามพระราชบัญญัติพันธุ์พืช พ.ศ. ๒๕๑๘ (ฉบับที่๑) พ.ศ. ๒๕๓๖"
      ]
    ],
    []
  ],
  "metadata": {
    "date_backmatter": "2536-10-01",
    "date_modified": "2536-10-26",
    "date_original": "2536-10-26",
    "doctype": "ประกาศ",
    "editors": [
      {
        "name": "จุฑามาศ",
        "role": "ผู้จัดทำ",
        "date": "2555-11-22"
      },
      {
        "name": "พลัฐวัษ",
        "role": "ตรวจ",
        "date": "2556-08-30"
      }
    ],
    "tag": "be05-2e-2556-a0009"
  }
}