{
  "pages": [
    [
      [
        "ประกาศกระทรวงเกษตรและสหกรณ์",
        "เรื่อง ค่าป่วยการ ค่าพาหนะ ค่าเช่าที่พัก และค่าใช้จ่ายของพนักงานเจ้าหน้าที่",
        "ตามพระราชบัญญัติพันธุ์พืช พ.ศ. ๒๕๑๘",
        "(ฉบับที่ ๑) พ.ศ. ๒๕๓๖"
      ]
    ],
    []
  ],
  "metadata": {
    "date_backmatter": "2536-12-28",
    "date_modified": "2537-01-26",
    "date_original": "2537-01-26",
    "doctype": "ประกาศ",
    "editors": [
      {
        "name": "จุฑามาศ",
        "role": "ผู้จัดทำ",
        "date": "2555-11-22"
      },
      {
        "name": "พลัฐวัษ",
        "role": "ตรวจ",
        "date": "2556-08-30"
      }
    ],
    "tag": "be05-2e-2537-a0005"
  }
}