{
  "pages": [
    [
      [
        "ประกาศกระทรวงเกษตรและสหกรณ์",
        "เรื่อง หลักเกณฑ์ วิธีการ และเงื่อนไขการออกหนังสือรับรองพันธุ์พืชรับรอง",
        "ตามพระราชบัญญัติพันธุ์พืช พ.ศ. ๒๕๑๘",
        "พ.ศ. ๒๕๔๗"
      ]
    ],
    []
  ],
  "metadata": {
    "date_backmatter": "2547-12-17",
    "date_modified": "2547-12-30",
    "date_original": "2547-12-30",
    "doctype": "ประกาศ",
    "editors": [
      {
        "name": "สุภาพร",
        "role": "พิมพ์",
        "date": "2548-05-20"
      },
      {
        "name": "พุทธพัท/สุนันทา",
        "role": "ตรวจ",
        "date": "2548-05-31"
      },
      {
        "name": "ศิรวัชร์",
        "role": "ปรับปรุง",
        "date": "2561-10-17"
      }
    ],
    "tag": "be05-2e-2547-a0005"
  }
}