{
  "pages": [
    [
      [
        "ประกาศกระทรวงเกษตรและสหกรณ์",
        "เรื่อง แต่งตั้งพนักงานเจ้าหน้าที่ตามพระราชบัญญัติพันธุ์พืช พ.ศ. ๒๕๑๘",
        "พ.ศ. ๒๕๕๗"
      ]
    ],
    []
  ],
  "metadata": {
    "date_backmatter": "2558-01-06",
    "date_modified": "2558-01-27",
    "date_original": "2558-01-27",
    "doctype": "ประกาศ",
    "editors": [
      {
        "name": "ปริยานุช",
        "role": "ผู้จัดทำ",
        "date": "2558-01-29"
      },
      {
        "name": "วิศนี",
        "role": "ผู้ตรวจ",
        "date": "2558-02-04"
      }
    ],
    "tag": "be05-2e-2558-a0001"
  }
}