{
  "pages": [
    [
      [
        "พระราชกำหนด",
        "โอนสินทรัพย์บางส่วนในบัญชีสำรองพิเศษตามกฎหมายว่าด้วยเงินตรา",
        "พ.ศ. ๒๕๔๕",
        "",
        "",
        "ภูมิพลอดุลยเดช ป.ร.",
        "ให้ไว้ ณ วันที่ ๒๓ มิถุนายน พ.ศ. ๒๕๔๕",
        "เป็นปีที่ ๕๗ ในรัชกาลปัจจุบัน"
      ]
    ],
    []
  ],
  "metadata": {
    "date_header": "2545-06-23",
    "date_modified": "2545-07-08",
    "date_original": "2545-06-25",
    "doctype": "พระราชกำหนด",
    "editors": [
      {
        "name": "มัตติญา",
        "role": "ปรับปรุง",
        "date": "2556-01-07"
      },
      {
        "name": "สุพิชชา",
        "role": "ตรวจ",
        "date": "2556-01-21"
      }
    ],
    "tag": "cd19-20-2545-a0001",
    "title": "โอนสินทรัพย์บางส่วนในบัญชีสำรองพิเศษตามกฎหมายว่าด้วยเงินตรา"
  }
}