{
  "pages": [
    [
      [
        "ระเบียบองค์การบริหารส่วนจังหวัดอุทัยธานี",
        "ว่าด้วยข้อมูลข่าวสารของราชการ พ.ศ. ๒๕๕๖"
      ]
    ],
    []
  ],
  "metadata": {
    "date_backmatter": "2556-06-28",
    "date_modified": "2556-08-07",
    "date_original": "2556-08-07",
    "editors": [
      {
        "name": "ปริยานุช",
        "role": "ผู้จัดทำ",
        "date": "2556-08-09"
      },
      {
        "name": "โชติกานต์",
        "role": "ผู้ตรวจ",
        "date": "2556-08-09"
      },
      {
        "name": "จุฑามาศ",
        "role": "ปรับปรุง",
        "date": "2559-01-13"
      }
    ],
    "tag": "cd19-2g-2556-a0001"
  }
}