{
  "pages": [
    [
      [
        "พระราชบัญญัติ",
        "ป้องกันและปราบปรามการกระทำอันเป็นโจรสลัด",
        "พ.ศ. ๒๕๓๔",
        "",
        "",
        "ภูมิพลอดุลยเดช ป.ร.",
        "ให้ไว้ ณ วันที่ ๒๙ ธันวาคม พ.ศ. ๒๕๓๔",
        "เป็นปีที่ ๔๖ ในรัชกาลปัจจุบัน"
      ]
    ],
    []
  ],
  "metadata": {
    "date_header": "2534-12-29",
    "date_modified": "2534-12-29",
    "date_original": "2534-12-29",
    "doctype": "พระราชบัญญัติ",
    "editors": [
      {
        "name": "อมรรัตน์",
        "role": "แก้ไข",
        "date": "2553-03-25"
      },
      {
        "name": "วศิน",
        "role": "ตรวจ",
        "date": "2553-03-25"
      },
      {
        "name": "สุกัญญา",
        "role": "ผู้จัดทำ",
        "date": "2554-03-16"
      }
    ],
    "tag": "bb21-20-2534-001",
    "title": "ป้องกันและปราบปรามการกระทำอันเป็นโจรสลัด"
  }
}