{
  "pages": [
    [
      [
        "ประกาศกรมสวัสดิการและคุ้มครองแรงงาน",
        "เรื่อง กำหนดแบบตามระเบียบกระทรวงแรงงานและสวัสดิการสังคม",
        "ว่าด้วยหลักเกณฑ์และวิธีการเลือกตั้งผู้แทนฝ่ายลูกจ้างในคณะกรรมการ",
        "แรงงานรัฐวิสาหกิจสัมพันธ์ พ.ศ. ๒๕๔๓ (ฉบับที่ ๒)"
      ]
    ],
    []
  ],
  "metadata": {
    "date_backmatter": "2555-04-12",
    "date_modified": "2555-05-18",
    "date_original": "2555-05-18",
    "doctype": "ประกาศ",
    "editors": [
      {
        "name": "ปริยานุช",
        "role": "ผู้จัดทำ",
        "date": "2555-05-22"
      },
      {
        "name": "ปณตภร",
        "role": "ผู้ตรวจ",
        "date": "2555-05-22"
      }
    ],
    "tag": "c343-2e-2555-a0001"
  }
}