{
  "pages": [
    [
      [
        "ข้อบังคับสถาบันอนุญาโตตุลาการ",
        "ว่าด้วยการขึ้นบัญชีผู้ประนอมข้อพิพาท",
        "พ.ศ. ๒๕๕๗"
      ]
    ],
    []
  ],
  "metadata": {
    "date_backmatter": "2557-06-30",
    "date_modified": "2560-12-29",
    "date_original": "2560-12-29",
    "editors": [
      {
        "name": "ปวันวิทย์/อัญชลี",
        "role": "จัดทำ",
        "date": "2561-01-08"
      }
    ],
    "tag": "ca73-2i-2560-a0009"
  }
}