{
  "pages": [
    [
      [
        "ระเบียบคณะกรรมการสถาบันอนุญาโตตุลาการ",
        "ว่าด้วยงบประมาณ การเงิน และการบัญชี",
        "พ.ศ. ๒๕๕๗"
      ]
    ],
    []
  ],
  "metadata": {
    "date_backmatter": "2557-03-31",
    "date_modified": "2557-05-07",
    "date_original": "2557-05-07",
    "editors": [
      {
        "name": "ปริยานุช",
        "role": "ผู้จัดทำ",
        "date": "2557-05-14"
      },
      {
        "name": "โชติกานต์",
        "role": "ผู้ตรวจ",
        "date": "2557-05-22"
      }
    ],
    "tag": "ca73-2g-2557-a0001"
  }
}