{
  "pages": [
    [
      [
        "ข้อบังคับสถาบันอนุญาโตตุลาการ",
        "ว่าด้วยคณะกรรมการคณะอนุญาโตตุลาการ (ฉบับที่ ๒)",
        "พ.ศ. ๒๕๖๐"
      ]
    ],
    []
  ],
  "metadata": {
    "date_backmatter": "2560-07-13",
    "date_modified": "2560-12-28",
    "date_original": "2560-12-28",
    "editors": [
      {
        "name": "ปวันวิทย์/อัญชลี",
        "role": "จัดทำ",
        "date": "2561-01-04"
      }
    ],
    "tag": "ca73-2i-2560-a0008"
  }
}