{
  "pages": [
    [
      [
        "พระราชกฤษฎีกา",
        "กำหนดเขตที่ดินในบริเวณที่ที่จะดำเนินการเพื่อกิจการขนส่งมวลชน",
        "ในท้องที่เขตบางซื่อ เขตบางพลัด เขตบางกอกน้อย เขตบางกอกใหญ่",
        "และเขตธนบุรี กรุงเทพมหานคร",
        "พ.ศ. ๒๕๕๐",
        "",
        "",
        "ภูมิพลอดุลยเดช ป.ร.",
        "ให้ไว้ ณ วันที่ ๑๙ มิถุนายน พ.ศ. ๒๕๕๐",
        "เป็นปีที่ ๖๒ ในรัชกาลปัจจุบัน"
      ]
    ],
    []
  ],
  "metadata": {
    "date_header": "2550-06-19",
    "date_modified": "2550-07-06",
    "date_original": "2550-07-06",
    "doctype": "พระราชกฤษฎีกา",
    "editors": [
      {
        "name": "วัชศักดิ์",
        "role": "ผู้จัดทำ",
        "date": "2550-07-17"
      }
    ],
    "tag": "c748-2a-2550-a0003",
    "title": "กำหนดเขตที่ดินในบริเวณที่ที่จะดำเนินการเพื่อกิจการขนส่งมวลชนในท้องที่เขตบางซื่อ เขตบางพลัด เขตบางกอกน้อย เขตบางกอกใหญ่และเขตธนบุรี กรุงเทพมหานคร"
  }
}