{
  "pages": [
    [
      [
        "พระราชกฤษฎีกา",
        "กำหนดเขตที่ดินในบริเวณที่ที่จะดำเนินการเพื่อกิจการขนส่งมวลชน",
        "ในท้องที่เขตปทุมวัน เขตบางรัก เขตป้อมปราบศัตรูพ่าย เขตสัมพันธวงศ์",
        "เขตพระนคร เขตธนบุรี เขตบางกอกใหญ่ เขตภาษีเจริญ เขตจอมทอง",
        "และเขตบางแค กรุงเทพมหานคร",
        "พ.ศ. ๒๕๕๘",
        "",
        "",
        "ภูมิพลอดุลยเดช ป.ร.",
        "ให้ไว้ ณ วันที่ ๓ สิงหาคม พ.ศ. ๒๕๕๘",
        "เป็นปีที่ ๗๐ ในรัชกาลปัจจุบัน"
      ]
    ],
    []
  ],
  "metadata": {
    "date_header": "2558-08-03",
    "date_modified": "2558-08-05",
    "date_original": "2558-08-05",
    "doctype": "พระราชกฤษฎีกา",
    "editors": [
      {
        "name": "ปริยานุช",
        "role": "ผู้จัดทำ",
        "date": "2558-08-06"
      },
      {
        "name": "นุสรา",
        "role": "ผู้ตรวจ",
        "date": "2558-10-26"
      }
    ],
    "tag": "c748-2a-2558-a0001",
    "title": "กำหนดเขตที่ดินในบริเวณที่ที่จะดำเนินการเพื่อกิจการขนส่งมวลชนในท้องที่เขตปทุมวัน เขตบางรัก เขตป้อมปราบศัตรูพ่าย เขตสัมพันธวงศ์เขตพระนคร เขตธนบุรี เขตบางกอกใหญ่ เขตภาษีเจริญ เขตจอมทองและเขตบางแค กรุงเทพมหานคร"
  }
}