{
  "pages": [
    [
      [
        "พระราชบัญญัติ",
        "ว่าด้วยการจัดหาอสังหาริมทรัพย์เพื่อกิจการขนส่งมวลชน",
        "พ.ศ. ๒๕๔๐",
        "",
        "",
        "ภูมิพลอดุลยเดช ป.ร.",
        "ให้ไว้ ณ วันที่ ๑๔ พฤศจิกายน พ.ศ. ๒๕๔๐",
        "เป็นปีที่ ๕๒ ในรัชกาลปัจจุบัน"
      ]
    ],
    []
  ],
  "metadata": {
    "date_header": "2540-11-14",
    "date_modified": "2540-11-16",
    "date_original": "2540-11-16",
    "doctype": "พระราชบัญญัติ",
    "editors": [
      {
        "name": "ชาญ",
        "role": "ผู้จัดทำ",
        "date": "2556-01-10"
      }
    ],
    "tag": "c748-20-2540-001",
    "title": "การจัดหาอสังหาริมทรัพย์เพื่อกิจการขนส่งมวลชน"
  }
}