{
  "pages": [
    [
      [
        "ข้อบังคับสภาราชบัณฑิต",
        "ว่าด้วยหลักเกณฑ์และวิธีการเลือกนายกราชบัณฑิตยสถาน",
        "และอุปนายกราชบัณฑิตยสถาน พ.ศ. ๒๕๔๕"
      ]
    ],
    []
  ],
  "metadata": {
    "date_backmatter": "2545-03-29",
    "date_gz_old": "2545-05-31",
    "editors": [
      {
        "name": "พรพิมล/พิมพ์",
        "role": "แก้ไข",
        "date": "2545-08-28"
      }
    ],
    "tag": "c319-2i-2545-a005"
  }
}