{
  "pages": [
    [
      [
        "ประกาศสำนักนายกรัฐมนตรี",
        "เรื่อง หลักเกณฑ์การทับศัพท์ภาษาเยอรมัน สเปน ญี่ปุ่น และมลายู"
      ]
    ],
    []
  ],
  "metadata": {
    "date_backmatter": "2561-03-13",
    "date_modified": "2561-04-09",
    "date_original": "2561-04-09",
    "doctype": "ประกาศ",
    "editors": [
      {
        "name": "พัชรภรณ์",
        "role": "จัดทำ",
        "date": "2561-06-05"
      }
    ],
    "tag": "c319-2e-2561-a0002"
  }
}