{
  "pages": [
    [
      [
        "ระเบียบการราชบัณฑิตยสถาน",
        "เรื่อง โอกาสและเงื่อนไขการประดับเข็มเครื่องหมายราชบัณฑิต"
      ]
    ],
    []
  ],
  "metadata": {
    "date_backmatter": "2525-01-08",
    "editors": [],
    "tag": "c319-2g-2525-002"
  }
}