{
  "pages": [
    [
      [
        "ข้อบังคับราชบัณฑิตยสภา",
        "ว่าด้วยการกำหนดจำนวนภาคีสมาชิกและจำนวนราชบัณฑิต",
        "พ.ศ. ๒๕๕๙"
      ]
    ],
    []
  ],
  "metadata": {
    "date_backmatter": "2559-01-19",
    "date_modified": "2559-02-03",
    "date_original": "2559-02-03",
    "editors": [
      {
        "name": "ปริยานุช",
        "role": "จัดทำ",
        "date": "2559-02-08"
      },
      {
        "name": "ปุณิกา",
        "role": "ตรวจ",
        "date": "2559-02-08"
      }
    ],
    "tag": "c319-2i-2559-a0001"
  }
}