{
  "pages": [
    [
      [
        "ข้อบังคับสภาวิชาชีพสังคมสงเคราะห์",
        "ว่าด้วยหลักเกณฑ์การประเมินความรู้ แบบและประเภทใบอนุญาต",
        "หลักเกณฑ์ วิธีการ และเงื่อนไขเกี่ยวกับการขึ้นทะเบียนและรับใบอนุญาต",
        "เป็นผู้ประกอบวิชาชีพสังคมสงเคราะห์รับอนุญาตจากสภาวิชาชีพสังคมสงเคราะห์",
        "พ.ศ. ๒๕๕๖"
      ]
    ],
    []
  ],
  "metadata": {
    "date_backmatter": "2556-05-21",
    "date_modified": "2556-06-06",
    "date_original": "2556-06-06",
    "editors": [
      {
        "name": "ปริยานุช",
        "role": "จัดทำ",
        "date": "2556-06-10"
      },
      {
        "name": "อุษมล",
        "role": "ตรวจ",
        "date": "2556-06-13"
      },
      {
        "name": "ศิรวัชร์",
        "role": "ปรับปรุง",
        "date": "2560-12-13"
      }
    ],
    "tag": "c769-2i-2556-a0002"
  }
}