{
  "pages": [
    [
      [
        "พระราชบัญญัติ",
        "เหรียญเฉลิมพระเกียรติพระบาทสมเด็จพระปรมินทรมหาภูมิพลอดุลยเดช",
        "มหามงคลสมัยพระราชพิธีรัชมังคลาภิเษก",
        "พ.ศ. ๒๕๒๙",
        "",
        "",
        "ภูมิพลอดุลยเดช ป.ร.",
        "ให้ไว้ ณ วันที่ ๑๙ ธันวาคม พ.ศ. ๒๕๒๙",
        "เป็นปีที่ ๔๑ ในรัชกาลปัจจุบัน"
      ]
    ],
    []
  ],
  "metadata": {
    "date_header": "2529-12-19",
    "date_modified": "2529-12-24",
    "date_original": "2529-12-24",
    "doctype": "พระราชบัญญัติ",
    "editors": [
      {
        "name": "วิมล",
        "role": "ผู้จัดทำ",
        "date": "2556-12-16"
      },
      {
        "name": "วิชพงษ์",
        "role": "ตรวจ",
        "date": "2557-01-08"
      }
    ],
    "tag": "cb59-20-2529-a0001",
    "title": "เหรียญเฉลิมพระเกียรติพระบาทสมเด็จพระปรมินทรมหาภูมิพลอดุลยเดชมหามงคลสมัยพระราชพิธีรัชมังคลาภิเษก"
  }
}