{
  "pages": [
    [
      [
        "กฎกระทรวง",
        "ฉบับที่ ๕๒ (พ.ศ. ๒๕๓๙)",
        "ออกตามความในพระราชบัญญัติพิกัดอัตราค่าภาคหลวงแร่",
        "พ.ศ. ๒๕๐๙"
      ]
    ],
    []
  ],
  "metadata": {
    "date_backmatter": "2539-02-09",
    "date_gz_old": "2539-02-21",
    "doctype": "กฎกระทรวง",
    "editors": [],
    "tag": "be06-2b-2539-052"
  }
}