{
  "pages": [
    [
      [
        "กฎกระทรวง",
        "ฉบับที่ ๔๔ (พ.ศ. ๒๕๓๓)",
        "ออกตามความในพระราชบัญญัติพิกัดอัตราค่าภาคหลวงแร่",
        "พ.ศ. ๒๕๐๙"
      ]
    ],
    []
  ],
  "metadata": {
    "date_backmatter": "2533-08-21",
    "date_gz_old": "2533-08-27",
    "doctype": "กฎกระทรวง",
    "editors": [],
    "tag": "be06-2b-2533-044"
  }
}