{
  "pages": [
    [
      [
        "กฎกระทรวง",
        "ฉบับที่ ๑๕ (พ.ศ. ๒๕๒๐)",
        "ออกตามความในพระราชบัญญัติพิกัดอัตราค่าภาคหลวงแร่",
        "พ.ศ. ๒๕๐๙"
      ]
    ],
    []
  ],
  "metadata": {
    "date_backmatter": "2520-07-15",
    "date_gz_old": "2520-07-15",
    "doctype": "กฎกระทรวง",
    "editors": [],
    "tag": "be06-2b-2520-015"
  }
}