{
  "pages": [
    [
      [
        "พระราชบัญญัติ",
        "เรือสยาม",
        "พุทธศักราช ๒๔๘๑",
        "",
        "",
        "ในพระปรมาภิไธยสมเด็จพระเจ้าอยู่หัวอานันทมหิดล",
        "คณะผู้สำเร็จราชการแทนพระองค์",
        "(ตามประกาศประธานสภาผู้แทนราษฎร",
        "ลงวันที่ ๔ สิงหาคม พุทธศักราช ๒๔๘๐)",
        "อาทิตย์ทิพอาภา",
        "พล.อ. เจ้าพระยาพิชเยนทร โยธิน",
        "ตราไว้ ณ วันที่ ๗ เมษายน พุทธศักราช ๒๔๘๒",
        "เป็นปีที่ ๖ ในรัชกาลปัจจุบัน"
      ]
    ],
    []
  ],
  "metadata": {
    "date_header": "2480-08-04",
    "date_modified": "2517-05-01",
    "date_original": "2482-04-10",
    "doctype": "พระราชบัญญัติ",
    "editors": [
      {
        "name": "สัญชัย ศิริเดช",
        "role": "ผู้จัดทำ",
        "date": "2552-09-29"
      }
    ],
    "tag": "c324-20-2517-002u",
    "title": "เรือสยาม"
  }
}