{
  "pages": [
    [
      [
        "ประกาศกระทรวงคมนาคม",
        "เรื่อง แต่งตั้งนายทะเบียนเรือ และผู้รักษาการแทนนายทะเบียนเรือ",
        "ตามพระราชบัญญัติเรือไทย พุทธศักราช ๒๔๘๑"
      ]
    ],
    []
  ],
  "metadata": {
    "date_backmatter": "2555-03-14",
    "date_modified": "2555-05-31",
    "date_original": "2555-05-31",
    "doctype": "ประกาศ",
    "editors": [
      {
        "name": "ปณตภร",
        "role": "ผู้จัดทำ",
        "date": "2555-07-03"
      }
    ],
    "tag": "c324-2e-2555-a0001"
  }
}