{
  "pages": [
    [
      [
        "ประกาศกรมเจ้าท่า",
        "ที่ ๗๓/๒๕๖๑",
        "เรื่อง กำหนดหลักเกณฑ์ วิธีการ เงื่อนไข และระยะเวลาในการแจ้งจุดจอดเรือ",
        "การติดตั้งเครื่องมือควบคุมเรือ หรือเครื่องมืออย่างใด ๆ ที่ไม่ให้เรือเคลื่อนจากจุดที่จอด",
        "และการทำเครื่องหมายหรือสัญลักษณ์สำหรับเรือประมงหรือเรือขนถ่ายสัตว์น้ำ",
        "ที่ถูกเพิกถอนทะเบียนเรือไทย"
      ]
    ],
    []
  ],
  "metadata": {
    "date_backmatter": "2561-04-27",
    "date_modified": "2561-05-09",
    "date_original": "2561-05-09",
    "doctype": "ประกาศ",
    "editors": [
      {
        "name": "พิมพ์มาดา",
        "role": "จัดทำ",
        "date": "2561-06-18"
      }
    ],
    "tag": "c324-2e-2561-a0003"
  }
}