{
  "pages": [
    [
      [
        "ระเบียบคณะกรรมการอัยการ",
        "ว่าด้วยเงินรางวัลตอบแทนพิเศษเพื่อมุ่งเน้นผลสัมฤทธิ์",
        "ของสำนักงานอัยการในพื้นที่พิเศษชายแดนภาคใต้",
        "พ.ศ. ๒๕๕๕"
      ]
    ],
    []
  ],
  "metadata": {
    "date_backmatter": "2555-03-27",
    "date_modified": "2555-04-04",
    "date_original": "2555-04-04",
    "editors": [
      {
        "name": "ปริยานุช",
        "role": "ผู้จัดทำ",
        "date": "2555-04-05"
      },
      {
        "name": "ปณตภร",
        "role": "ผู้ตรวจ",
        "date": "2555-04-10"
      }
    ],
    "tag": "c310-2g-2555-a0001"
  }
}