{
  "pages": [
    [
      [
        "ข้อกำหนด ก.อ.",
        "เรื่อง กำหนดวิชาชีพทางกฎหมายอย่างอื่น และเงื่อนไขเกี่ยวกับ",
        "การประกอบวิชาชีพ ตามมาตรา ๓๓ (๑) (ค) แห่งพระราชบัญญัติ",
        "ระเบียบข้าราชการฝ่ายอัยการ พ.ศ. ๒๕๒๑"
      ]
    ],
    []
  ],
  "metadata": {
    "date_backmatter": "2531-07-01",
    "date_modified": "2545-06-14",
    "date_original": "2545-06-14",
    "editors": [
      {
        "name": "ดลธี",
        "role": "ผู้จัดทำ",
        "date": "2553-09-10"
      },
      {
        "name": "เอกฤทธิ์",
        "role": "ผู้ตรวจ",
        "date": "2553-11-18"
      }
    ],
    "tag": "c310-2h-2545-a003"
  }
}