{
  "pages": [
    [
      [
        "พระราชกฤษฎีกา",
        "เครื่องแบบข้าราชการอัยการและระเบียบการแต่ง (ฉบับที่ ๓)",
        "พ.ศ. ๒๕๓๕",
        "",
        "",
        "ภูมิพลอดุลยเดช ป.ร.",
        "ให้ไว้ ณ วันที่ ๓๐ มีนาคม พ.ศ. ๒๕๓๕",
        "เป็นปีที่ ๔๗ ในรัชกาลปัจจุบัน"
      ]
    ],
    []
  ],
  "metadata": {
    "date_header": "2535-03-30",
    "date_modified": "2535-04-07",
    "date_original": "2535-04-07",
    "doctype": "พระราชกฤษฎีกา",
    "editors": [
      {
        "name": "ดลธี",
        "role": "ผู้จัดทำ",
        "date": "2553-09-07"
      },
      {
        "name": "เอกฤทธิ์",
        "role": "ผู้ตรวจ",
        "date": "2553-11-08"
      }
    ],
    "tag": "c310-2a-2535-003",
    "title": "เครื่องแบบข้าราชการอัยการและระเบียบการแต่ง (ฉบับที่ ๓)"
  }
}