{
  "pages": [
    [
      [
        "ระเบียบคณะกรรมการอัยการ",
        "ว่าด้วยหลักเกณฑ์และวิธีการสมัคร หลักสูตรและวิธีการทดสอบความรู้",
        "เพื่อบรรจุเป็นข้าราชการอัยการและแต่งตั้งให้ดำรงตำแหน่งอัยการผู้ช่วย",
        "พ.ศ. ๒๕๕๔"
      ]
    ],
    []
  ],
  "metadata": {
    "date_backmatter": "2554-10-04",
    "date_modified": "2555-12-11",
    "date_original": "2554-10-07",
    "editors": [
      {
        "name": "ปณตภร",
        "role": "ผู้จัดทำ",
        "date": "2556-06-13"
      }
    ],
    "tag": "c310-2g-2555-a0010"
  }
}