{
  "pages": [
    [
      [
        "พระราชบัญญัติ",
        "ระเบียบข้าราชการฝ่ายอัยการ (ฉบับที่ ๒)",
        "พ.ศ. ๒๕๖๐",
        "",
        "",
        "สมเด็จพระเจ้าอยู่หัวมหาวชิราลงกรณ บดินทรเทพยวรางกูร",
        "ให้ไว้ ณ วันที่ ๘ กันยายน พ.ศ. ๒๕๖๐",
        "เป็นปีที่ ๒ ในรัชกาลปัจจุบัน"
      ]
    ],
    []
  ],
  "metadata": {
    "date_header": "2560-09-08",
    "date_modified": "2560-09-13",
    "date_original": "2560-09-13",
    "doctype": "พระราชบัญญัติ",
    "editors": [
      {
        "name": "ภวรรณตรี",
        "role": "จัดทำ",
        "date": "2560-09-14"
      },
      {
        "name": "วิชพงษ์",
        "role": "ตรวจ",
        "date": "2560-09-14"
      }
    ],
    "tag": "c310-20-2560-a0001",
    "title": "ระเบียบข้าราชการฝ่ายอัยการ (ฉบับที่ ๒)"
  }
}