{
  "pages": [
    [
      [
        "ระเบียบคณะกรรมการอัยการ",
        "ว่าด้วยเงินรางวัลตอบแทนพิเศษเพื่อมุ่งเน้นผลสัมฤทธิ์",
        "ของสำนักงานอัยการในพื้นที่พิเศษชายแดนภาคใต้ (ฉบับที่ ๓)",
        "พ.ศ. ๒๕๖๐"
      ]
    ],
    []
  ],
  "metadata": {
    "date_backmatter": "2560-07-27",
    "date_modified": "2560-08-11",
    "date_original": "2560-08-11",
    "editors": [
      {
        "name": "ปวันวิทย์/อัญชลี",
        "role": "จัดทำ",
        "date": "2560-08-15"
      }
    ],
    "tag": "c310-2g-2560-a0001"
  }
}