{
  "pages": [
    [
      [
        "ระเบียบคณะกรรมการอัยการ",
        "ว่าด้วยการประชุมและการลงมติ",
        "พ.ศ. ๒๕๕๔"
      ]
    ],
    []
  ],
  "metadata": {
    "date_backmatter": "2554-11-02",
    "date_modified": "2554-11-09",
    "date_original": "2554-11-09",
    "editors": [
      {
        "name": "ปริยานุช",
        "role": "ผู้จัดทำ",
        "date": "2554-11-10"
      },
      {
        "name": "ปณตภร",
        "role": "ผู้ตรวจ",
        "date": "2554-11-10"
      }
    ],
    "tag": "c310-2g-2554-a0009"
  }
}