{
  "pages": [
    [
      [
        "พระราชบัญญัติ",
        "ระเบียบข้าราชการฝ่ายอัยการ (ฉบับที่ ๔)",
        "พ.ศ. ๒๕๖๑",
        "",
        "",
        "สมเด็จพระเจ้าอยู่หัวมหาวชิราลงกรณ บดินทรเทพยวรางกูร",
        "ให้ไว้ ณ วันที่ ๒๕ ธันวาคม พ.ศ. ๒๕๖๑",
        "เป็นปีที่ ๓ ในรัชกาลปัจจุบัน"
      ]
    ],
    []
  ],
  "metadata": {
    "date_backmatter": "2557-12-01",
    "date_header": "2561-12-25",
    "date_modified": "2561-12-28",
    "date_original": "2561-12-28",
    "doctype": "พระราชบัญญัติ",
    "editors": [
      {
        "name": "พรวิภา/ธนบดี",
        "role": "จัดทำ",
        "date": "2562-01-03"
      },
      {
        "name": "ปริญสินีย์",
        "role": "ตรวจ",
        "date": "2562-01-18"
      }
    ],
    "tag": "c310-20-2561-a0002",
    "title": "ระเบียบข้าราชการฝ่ายอัยการ (ฉบับที่ ๔)"
  }
}