{
  "pages": [
    [
      [
        "ประกาศ",
        "เรื่อง การให้ประกาศที่คณะรัฐมนตรีกำหนดตามประกาศสถานการณ์ฉุกเฉิน",
        "ที่มีความร้ายแรงยังคงมีผลใช้บังคับ"
      ]
    ],
    []
  ],
  "metadata": {
    "date_backmatter": "2559-03-15",
    "date_modified": "2559-03-15",
    "date_original": "2559-03-15",
    "doctype": "ประกาศ",
    "editors": [
      {
        "name": "ปริยานุช",
        "role": "จัดทำ",
        "date": "2559-03-23"
      },
      {
        "name": "วิศนี",
        "role": "ตรวจ",
        "date": "2559-03-30"
      }
    ],
    "tag": "a1119-2e-2559-a0002"
  }
}