{
  "pages": [
    [
      [
        "ประกาศ",
        "เรื่อง การให้ประกาศที่คณะรัฐมนตรีกำหนดตามประกาศสถานการณ์ฉุกเฉิน",
        "ที่มีความร้ายแรงยังคงมีผลใช้บังคับ"
      ]
    ],
    []
  ],
  "metadata": {
    "date_backmatter": "2550-07-13",
    "date_modified": "2550-07-19",
    "date_original": "2550-07-19",
    "doctype": "ประกาศ",
    "editors": [
      {
        "name": "สุนันทา",
        "role": "ผู้จัดทำ",
        "date": "2552-10-22"
      },
      {
        "name": "กวินทราดา",
        "role": "ตรวจ",
        "date": "2553-11-26"
      }
    ],
    "tag": "a1119-2e-2550-a0009"
  }
}