{
  "pages": [
    [
      [
        "คำสั่งศูนย์อำนวยการแก้ไขสถานการณ์ฉุกเฉิน",
        "ที่ ๑๐๐/๒๕๕๓",
        "เรื่อง ให้บุคคลทำธุรกรรมทางการเงินหรือดำเนินการเกี่ยวกับทรัพย์สินได้ตามปกติ และให้สถาบัน",
        "การเงินหรือนิติบุคคลแจ้งหรือส่งข้อมูลเกี่ยวกับการทำธุรกรรมการเงินหรือดำเนินการเกี่ยวกับ",
        "ทรัพย์สินที่มีความผิดปกติหรือมีเหตุอันควรสงสัย"
      ]
    ],
    []
  ],
  "metadata": {
    "date_backmatter": "2553-08-04",
    "date_modified": "2553-08-06",
    "date_original": "2553-08-06",
    "editors": [
      {
        "name": "ปริยานุช",
        "role": "จัดทำ",
        "date": "2553-08-16"
      },
      {
        "name": "ณัฐวดี",
        "role": "ตรวจ",
        "date": "2553-08-16"
      },
      {
        "name": "ศิรวัชร์",
        "role": "ปรับปรุง",
        "date": "2559-11-23"
      }
    ],
    "tag": "a1119-2f-2553-a0011"
  }
}