{
  "pages": [
    [
      [
        "ประกาศ",
        "เรื่อง การขยายระยะเวลาการประกาศสถานการณ์ฉุกเฉินที่มีความร้ายแรง",
        "ในเขตท้องที่จังหวัดนราธิวาส จังหวัดยะลา และจังหวัดปัตตานี ยกเว้นอำเภอแม่ลาน"
      ]
    ],
    []
  ],
  "metadata": {
    "date_backmatter": "2556-12-17",
    "date_modified": "2556-12-17",
    "date_original": "2556-12-17",
    "doctype": "ประกาศ",
    "editors": [
      {
        "name": "ปริยานุช",
        "role": "ผู้จัดทำ",
        "date": "2556-12-19"
      },
      {
        "name": "อังศุมาลี",
        "role": "ผู้ตรวจ",
        "date": "2556-12-19"
      }
    ],
    "tag": "a1119-2e-2556-a0010"
  }
}