{
  "pages": [
    [
      [
        "ประกาศ",
        "เรื่อง การให้ประกาศและคำสั่งที่นายกรัฐมนตรีกำหนดตามประกาศสถานการณ์ฉุกเฉิน",
        "ที่มีความร้ายแรงยังคงมีผลใช้บังคับ"
      ]
    ],
    []
  ],
  "metadata": {
    "date_backmatter": "2553-01-19",
    "date_modified": "2553-01-19",
    "date_original": "2553-01-19",
    "doctype": "ประกาศ",
    "editors": [
      {
        "name": "ปริยานุช",
        "role": "ผู้จัดทำ",
        "date": "2553-01-27"
      },
      {
        "name": "นันท์นภัสร์",
        "role": "ตรวจ",
        "date": "2553-01-27"
      }
    ],
    "tag": "a1119-2e-2553-a0003"
  }
}