{
  "pages": [
    [
      [
        "ประกาศ",
        "ตามมาตรา ๑๑ แห่งพระราชกำหนดการบริหารราชการในสถานการณ์ฉุกเฉิน",
        "พ.ศ. ๒๕๔๘"
      ]
    ],
    []
  ],
  "metadata": {
    "date_backmatter": "2557-01-21",
    "date_modified": "2557-01-21",
    "date_original": "2557-01-21",
    "doctype": "ประกาศ",
    "editors": [
      {
        "name": "ปริยานุช",
        "role": "ผู้จัดทำ",
        "date": "2557-01-30"
      },
      {
        "name": "จุฑามาศ",
        "role": "ผู้ตรวจ",
        "date": "2557-02-20"
      }
    ],
    "tag": "a1119-2e-2557-a0006"
  }
}