{
  "pages": [
    [
      [
        "ประกาศ",
        "เรื่อง การให้ประกาศและคำสั่งที่นายกรัฐมนตรีกำหนดตามประกาศสถานการณ์ฉุกเฉิน",
        "ที่มีความร้ายแรงยังคงมีผลใช้บังคับ"
      ]
    ],
    []
  ],
  "metadata": {
    "date_backmatter": "2560-09-12",
    "date_modified": "2560-09-12",
    "date_original": "2560-09-12",
    "doctype": "ประกาศ",
    "editors": [
      {
        "name": "ปวันวิทย์/ภวรรณตรี",
        "role": "จัดทำ",
        "date": "2560-09-14"
      }
    ],
    "tag": "a1119-2e-2560-a0009"
  }
}