{
  "pages": [
    [
      [
        "ประกาศ",
        "เรื่อง การขยายระยะเวลาการประกาศสถานการณ์ฉุกเฉินที่มีความร้ายแรง",
        "ในเขตท้องที่กรุงเทพมหานคร จังหวัดนนทบุรี จังหวัดปทุมธานี และจังหวัดสมุทรปราการ"
      ]
    ],
    []
  ],
  "metadata": {
    "date_backmatter": "2553-10-05",
    "date_modified": "2553-10-05",
    "date_original": "2553-10-05",
    "doctype": "ประกาศ",
    "editors": [
      {
        "name": "ปริยานุช",
        "role": "ผู้จัดทำ",
        "date": "2553-10-11"
      },
      {
        "name": "นันท์นภัสร์",
        "role": "ตรวจ",
        "date": "2553-10-11"
      }
    ],
    "tag": "a1119-2e-2553-a0024"
  }
}