{
  "pages": [
    [
      [
        "คำสั่งศูนย์อำนวยการแก้ไขสถานการณ์ฉุกเฉิน",
        "ที่ ๕๘/๒๕๕๓",
        "เรื่อง ห้ามมิให้กระทำการใด ๆ หรือสั่งให้กระทำการใด ๆ เกี่ยวกับการทำธุรกรรมทางการเงิน",
        "หรือการดำเนินการเกี่ยวกับทรัพย์สินของบุคคลหรือนิติบุคคลเท่าที่จำเป็นแก่การรักษา",
        "ความมั่นคงของรัฐ ความปลอดภัยของประเทศ และความปลอดภัยของประชาชน",
        "(ฉบับที่ ๒)"
      ]
    ],
    []
  ],
  "metadata": {
    "date_backmatter": "2553-05-18",
    "date_modified": "2553-05-19",
    "date_original": "2553-05-19",
    "editors": [
      {
        "name": "ปริยานุช",
        "role": "จัดทำ",
        "date": "2553-06-02"
      },
      {
        "name": "นันท์นภัสร์",
        "role": "ตรวจ",
        "date": "2553-06-02"
      },
      {
        "name": "ศิรวัชร์",
        "role": "ปรับปรุง",
        "date": "2559-11-22"
      }
    ],
    "tag": "a1119-2f-2553-a0004"
  }
}