{
  "pages": [
    [
      [
        "ประกาศสถานการณ์ฉุกเฉินที่มีความร้ายแรง",
        "ฉบับที่ ๔",
        "ในเขตท้องที่จังหวัดกาฬสินธุ์ และจังหวัดมุกดาหาร"
      ]
    ],
    []
  ],
  "metadata": {
    "date_backmatter": "2553-05-19",
    "date_modified": "2553-05-19",
    "date_original": "2553-05-19",
    "doctype": "ประกาศ",
    "editors": [
      {
        "name": "ปริยานุช",
        "role": "ผู้จัดทำ",
        "date": "2553-06-02"
      },
      {
        "name": "นันท์นภัสร์",
        "role": "ตรวจ",
        "date": "2553-06-02"
      }
    ],
    "tag": "a1119-2e-2553-a0011"
  }
}