{
  "pages": [
    [
      [
        "ประกาศ",
        "เรื่อง ยกเลิกการประกาศสถานการณ์ฉุกเฉินที่มีความร้ายแรง",
        "ในเขตท้องที่อำเภอแม่ลาน จังหวัดปัตตานี"
      ]
    ],
    []
  ],
  "metadata": {
    "date_backmatter": "2553-12-28",
    "date_modified": "2553-12-29",
    "date_original": "2553-12-29",
    "doctype": "ประกาศ",
    "editors": [
      {
        "name": "ปริยานุช",
        "role": "ผู้จัดทำ",
        "date": "2554-01-13"
      },
      {
        "name": "ณัฐวดี",
        "role": "ตรวจ",
        "date": "2554-01-13"
      }
    ],
    "tag": "a1119-2e-2553-a0029"
  }
}