{
  "pages": [
    [
      [
        "ประกาศ",
        "เรื่อง การให้ประกาศและคำสั่งที่นายกรัฐมนตรีกำหนดตามประกาศสถานการณ์ฉุกเฉิน",
        "ที่มีความร้ายแรงยังคงมีผลใช้บังคับ"
      ]
    ],
    []
  ],
  "metadata": {
    "date_backmatter": "2549-04-20",
    "date_modified": "2549-04-20",
    "date_original": "2549-04-20",
    "doctype": "ประกาศ",
    "editors": [
      {
        "name": "สุนันทา",
        "role": "ผู้จัดทำ",
        "date": "2552-10-22"
      },
      {
        "name": "กวินทราดา",
        "role": "ตรวจ",
        "date": "2553-11-26"
      }
    ],
    "tag": "a1119-2e-2549-a0005"
  }
}