{
  "pages": [
    [
      [
        "ประกาศ",
        "เรื่อง การให้ประกาศที่คณะรัฐมนตรีกำหนดตามประกาศสถานการณ์ฉุกเฉิน",
        "ที่มีความร้ายแรงยังคงมีผลใช้บังคับ"
      ]
    ],
    []
  ],
  "metadata": {
    "date_backmatter": "2560-03-14",
    "date_modified": "2560-03-14",
    "date_original": "2560-03-14",
    "doctype": "ประกาศ",
    "editors": [
      {
        "name": "ปริยานุช",
        "role": "จัดทำ",
        "date": "2560-03-16"
      },
      {
        "name": "ชวัลพร",
        "role": "ตรวจ",
        "date": "2560-04-10"
      }
    ],
    "tag": "a1119-2e-2560-a0002"
  }
}