{
  "pages": [
    [
      [
        "ประกาศ",
        "เรื่อง การขยายระยะเวลาการประกาศสถานการณ์ฉุกเฉินที่มีความร้ายแรง",
        "ในเขตท้องที่จังหวัดนราธิวาส จังหวัดปัตตานี และจังหวัดยะลา"
      ]
    ],
    []
  ],
  "metadata": {
    "date_backmatter": "2550-10-19",
    "date_modified": "2550-10-19",
    "date_original": "2550-10-19",
    "doctype": "ประกาศ",
    "editors": [
      {
        "name": "สุนันทา",
        "role": "ผู้จัดทำ",
        "date": "2552-10-22"
      },
      {
        "name": "กวินทราดา",
        "role": "ตรวจ",
        "date": "2553-11-26"
      }
    ],
    "tag": "a1119-2e-2550-a0011"
  }
}