{
  "pages": [
    [
      [
        "ประกาศ",
        "เรื่อง การให้ประกาศและคำสั่งที่นายกรัฐมนตรีกำหนดตามประกาศสถานการณ์ฉุกเฉิน",
        "ที่มีความร้ายแรงยังคงมีผลใช้บังคับ"
      ]
    ],
    []
  ],
  "metadata": {
    "date_backmatter": "2551-10-17",
    "date_modified": "2551-10-24",
    "date_original": "2551-10-24",
    "doctype": "ประกาศ",
    "editors": [
      {
        "name": "วัชศักดิ์",
        "role": "ผู้จัดทำ",
        "date": "2551-10-27"
      }
    ],
    "tag": "a1119-2e-2551-a0016"
  }
}