{
  "pages": [
    [
      [
        "ประกาศ",
        "เรื่อง การให้ประกาศที่คณะรัฐมนตรีกำหนดตามประกาศสถานการณ์ฉุกเฉิน",
        "ที่มีความร้ายแรงยังคงมีผลใช้บังคับ"
      ]
    ],
    []
  ],
  "metadata": {
    "date_backmatter": "2550-04-12",
    "date_modified": "2550-04-19",
    "date_original": "2550-04-19",
    "doctype": "ประกาศ",
    "editors": [
      {
        "name": "วัชศักดิ์",
        "role": "จัดทำ",
        "date": "2550-05-08"
      },
      {
        "name": "ศิรวัชร์",
        "role": "ปรับปรุง",
        "date": "2559-09-28"
      }
    ],
    "tag": "a1119-2e-2550-a0006"
  }
}