{
  "pages": [
    [
      [
        "ประกาศ",
        "เรื่อง การให้ประกาศและคำสั่งที่นายกรัฐมนตรีกำหนดตามประกาศสถานการณ์ฉุกเฉิน",
        "ที่มีความร้ายแรงยังคงมีผลใช้บังคับ"
      ]
    ],
    []
  ],
  "metadata": {
    "date_backmatter": "2554-01-18",
    "date_modified": "2554-01-18",
    "date_original": "2554-01-18",
    "doctype": "ประกาศ",
    "editors": [
      {
        "name": "ปริยานุช",
        "role": "ผู้จัดทำ",
        "date": "2554-01-27"
      },
      {
        "name": "ณัฐวดี",
        "role": "ตรวจ",
        "date": "2554-01-27"
      }
    ],
    "tag": "a1119-2e-2554-a0003"
  }
}