{
  "pages": [
    [
      [
        "ประกาศกระทรวงสาธารณสุข",
        "ฉบับที่ ๒ (พ.ศ. ๒๕๔๖)",
        "เรื่อง การอนุญาตให้บุคคลทำการประกอบโรคศิลปะ",
        "โดยอาศัยทัศนมาตรศาสตร์ (Optometry)"
      ]
    ],
    []
  ],
  "metadata": {
    "date_backmatter": "2546-02-11",
    "date_modified": "2546-02-26",
    "date_original": "2546-02-26",
    "doctype": "ประกาศ",
    "editors": [
      {
        "name": "สุกัญญา",
        "role": "จัดทำ",
        "date": "2552-02-04"
      },
      {
        "name": "ก้องเกียรติ",
        "role": "จัดทำ",
        "date": "2552-02-06"
      },
      {
        "name": "โชติกานต์",
        "role": "ปรับปรุง",
        "date": "2559-11-11"
      }
    ],
    "tag": "a197-2e-2546-a0001"
  }
}