{
  "pages": [
    [
      [
        "ประกาศคณะกรรมการวิชาชีพ",
        "สาขาการแก้ไขความผิดปกติของการสื่อความหมาย",
        "เรื่อง ลักษณะทุพพลภาพซึ่งต้องห้ามมิให้ขึ้นทะเบียนและรับใบอนุญาต",
        "เป็นผู้ประกอบโรคศิลปะสาขาการแก้ไขความผิดปกติของการสื่อความหมาย"
      ]
    ],
    []
  ],
  "metadata": {
    "date_backmatter": "2548-05-16",
    "date_modified": "2548-06-22",
    "date_original": "2548-06-22",
    "doctype": "ประกาศ",
    "editors": [
      {
        "name": "สุกัญญา",
        "role": "จัดทำ",
        "date": "2552-02-04"
      },
      {
        "name": "ก้องเกียรติ",
        "role": "จัดทำ",
        "date": "2552-02-27"
      },
      {
        "name": "โชติกานต์",
        "role": "ปรับปรุง",
        "date": "2559-11-14"
      }
    ],
    "tag": "a197-2e-2548-a0004"
  }
}