{
  "pages": [
    [
      [
        "ระเบียบกระทรวงสาธารณสุข",
        "ว่าด้วยบุคคลซึ่งปฏิบัติงานในสถานพยาบาล ตามกฎหมาย",
        "ว่าด้วยสถานพยาบาลกระทำการประกอบโรคศิลปะในความควบคุม",
        "ของผู้ประกอบโรคศิลปะ พ.ศ. ๒๕๔๕"
      ]
    ],
    []
  ],
  "metadata": {
    "date_backmatter": "2545-04-08",
    "date_modified": "2545-05-28",
    "date_original": "2545-05-28",
    "editors": [
      {
        "name": "สุกัญญา",
        "role": "จัดทำ",
        "date": "2552-02-26"
      },
      {
        "name": "ก้องเกียรติ",
        "role": "จัดทำ",
        "date": "2552-02-27"
      },
      {
        "name": "โชติกานต์",
        "role": "ปรับปรุง",
        "date": "2559-11-14"
      }
    ],
    "tag": "a197-2g-2545-a0001"
  }
}