{
  "pages": [
    [
      [
        "ระเบียบกระทรวงสาธารณสุข",
        "ว่าด้วยบุคคลซึ่งปฏิบัติงานในสถานพยาบาล",
        "ตามกฎหมายว่าด้วยสถานพยาบาลกระทำการประกอบโรคศิลปะสาขาการแพทย์แผนจีน",
        "ในความควบคุมของผู้ประกอบโรคศิลปะสาขาการแพทย์แผนจีน",
        "พ.ศ. ๒๕๕๕"
      ]
    ],
    []
  ],
  "metadata": {
    "date_backmatter": "2555-04-03",
    "date_modified": "2555-05-11",
    "date_original": "2555-05-11",
    "editors": [
      {
        "name": "ปริยานุช",
        "role": "ผู้จัดทำ",
        "date": "2555-05-15"
      },
      {
        "name": "ชาญ",
        "role": "ผู้ตรวจ",
        "date": "2555-05-18"
      }
    ],
    "tag": "a197-2g-2555-a0005"
  }
}