{
  "pages": [
    [
      [
        "ประกาศคณะกรรมการวิชาชีพ",
        "สาขาการแพทย์แผนไทย",
        "เรื่อง การกำหนดแบบตามกฎกระทรวงว่าด้วยการขอขึ้นทะเบียนและรับใบอนุญาต",
        "การออกใบอนุญาต การขอรับใบแทนใบอนุญาต และการออกใบแทนใบอนุญาต",
        "ในการประกอบโรคศิลปะ พ.ศ. ๒๕๔๗"
      ]
    ],
    []
  ],
  "metadata": {
    "date_backmatter": "2548-05-10",
    "date_modified": "2548-06-22",
    "date_original": "2548-06-22",
    "doctype": "ประกาศ",
    "editors": [
      {
        "name": "พัชรินทร์",
        "role": "จัดทำ",
        "date": "2548-07-29"
      },
      {
        "name": "โชติกานต์",
        "role": "ปรับปรุง",
        "date": "2559-11-11"
      }
    ],
    "tag": "a197-2e-2548-a0007"
  }
}