{
  "pages": [
    [
      [
        "ประกาศกระทรวงสาธารณสุข",
        "เรื่อง กำหนดเครื่องมือหรืออุปกรณ์ทางรังสีวิทยา",
        "พ.ศ. ๒๕๔๙"
      ]
    ],
    []
  ],
  "metadata": {
    "date_backmatter": "2549-08-24",
    "date_modified": "2549-09-28",
    "date_original": "2549-09-28",
    "doctype": "ประกาศ",
    "editors": [
      {
        "name": "นันทนา",
        "role": "จัดทำ",
        "date": "2549-10-05"
      },
      {
        "name": "โชติกานต์",
        "role": "ปรับปรุง",
        "date": "2559-11-14"
      }
    ],
    "tag": "a197-2e-2549-a0003"
  }
}