{
  "pages": [
    [
      [
        "ระเบียบคณะกรรมการวิชาชีพสาขาการแพทย์แผนไทย",
        "ว่าด้วย การอบรมหรือถ่ายทอดความรู้ การทดสอบความรู้",
        "และการรับรองสถาบันหรือสถานพยาบาล พ.ศ. ๒๕๕๐"
      ]
    ],
    []
  ],
  "metadata": {
    "date_backmatter": "2550-12-26",
    "date_modified": "2552-02-20",
    "date_original": "2552-02-20",
    "editors": [
      {
        "name": "ปริยานุช",
        "role": "จัดทำ",
        "date": "2552-02-26"
      },
      {
        "name": "โชติกานต์",
        "role": "ปรับปรุง",
        "date": "2559-11-15"
      }
    ],
    "tag": "a197-2g-2552-a0001"
  }
}