{
  "pages": [
    [
      [
        "กฎกระทรวง",
        "กำหนดหลักเกณฑ์ วิธีการ และเงื่อนไขในการตั้งโรงฆ่าสัตว์",
        "โรงพักสัตว์ และการฆ่าสัตว์",
        "พ.ศ. ๒๕๕๕"
      ]
    ],
    []
  ],
  "metadata": {
    "date_backmatter": "2555-06-15",
    "date_modified": "2555-07-04",
    "date_original": "2555-07-04",
    "doctype": "กฎกระทรวง",
    "editors": [
      {
        "name": "ปริยานุช",
        "role": "ผู้จัดทำ",
        "date": "2555-07-05"
      },
      {
        "name": "ณัฐพร",
        "role": "ผู้ตรวจ",
        "date": "2555-07-05"
      }
    ],
    "tag": "a409-2b-2555-a0001"
  }
}