{
  "pages": [
    [
      [
        "กฎกระทรวง",
        "ว่าด้วยการกำหนดโรคระบาด โรคหรือลักษณะของสัตว์หรือเนื้อสัตว์",
        "ที่ไม่เหมาะสมที่จะใช้เนื้อสัตว์นั้นเป็นอาหาร",
        "พ.ศ. ๒๕๔๖"
      ]
    ],
    []
  ],
  "metadata": {
    "date_backmatter": "2546-10-07",
    "date_modified": "2546-10-15",
    "date_original": "2546-10-15",
    "doctype": "กฎกระทรวง",
    "editors": [
      {
        "name": "ณัฐดนัย",
        "role": "พิมพ์",
        "date": "2551-02-07"
      },
      {
        "name": "ดลธี",
        "role": "จัดทำ",
        "date": "2551-08-13"
      }
    ],
    "tag": "a409-2b-2546-a0001"
  }
}