{
  "pages": [
    [
      [
        "ระเบียบคณะกรรมการกองทุนหมู่บ้านและชุมชนเมืองแห่งชาติ",
        "ฉบับที่ ๙",
        "ว่าด้วยคุณสมบัติ ลักษณะต้องห้าม วาระดำรงตำแหน่ง การคัดเลือก การพ้นจากตำแหน่ง",
        "การปฏิบัติงาน และการประเมินผลการปฏิบัติงานของผู้อำนวยการสำนักงานกองทุนหมู่บ้าน",
        "และชุมชนเมืองแห่งชาติ พ.ศ. ๒๕๔๙",
        "(ฉบับแก้ไขเพิ่มเติม ฉบับที่ ๒ พ.ศ. ๒๕๕๑)"
      ]
    ],
    []
  ],
  "metadata": {
    "date_backmatter": "2551-08-15",
    "date_modified": "2551-10-17",
    "date_original": "2551-10-17",
    "editors": [
      {
        "name": "ปริยานุช",
        "role": "จัดทำ",
        "date": "2551-10-21"
      },
      {
        "name": "จุฑามาศ",
        "role": "ปรับปรุง",
        "date": "2559-10-19"
      }
    ],
    "tag": "a1116-2g-2551-a0006"
  }
}