{
  "pages": [
    [
      [
        "ประกาศกรมสวัสดิการและคุ้มครองแรงงาน",
        "เรื่อง หลักเกณฑ์ วิธีการ และเงื่อนไขการฝึกอบรมความปลอดภัยในการทำงานเกี่ยวกับไฟฟ้า",
        "สำหรับลูกจ้างซึ่งปฏิบัติงานเกี่ยวกับไฟฟ้า"
      ]
    ],
    []
  ],
  "metadata": {
    "date_backmatter": "2558-12-24",
    "date_modified": "2558-12-30",
    "date_original": "2558-12-30",
    "doctype": "ประกาศ",
    "editors": [
      {
        "name": "ปุณิกา/ปริยานุช",
        "role": "จัดทำ",
        "date": "2559-01-08"
      }
    ],
    "tag": "a4112-2e-2558-a0001"
  }
}