{
  "pages": [
    [
      [
        "กฎกระทรวง",
        "ฉบับที่ ๑,๐๗๔ (พ.ศ. ๒๕๒๗)",
        "ออกตามความในพระราชบัญญัติป่าสงวนแห่งชาติ",
        "พ.ศ. ๒๕๐๗"
      ]
    ],
    []
  ],
  "metadata": {
    "date_backmatter": "2527-09-12",
    "date_modified": "2527-11-08",
    "date_original": "2527-11-08",
    "doctype": "กฎกระทรวง",
    "editors": [
      {
        "name": "ปิติวรรณ",
        "role": "จัดทำ",
        "date": "2561-09-27"
      }
    ],
    "tag": "bb27-2b-2527-a002"
  }
}