{
  "pages": [
    [
      [
        "กฎกระทรวง",
        "ฉบับที่ ๑๕ (พ.ศ. ๒๕๐๑)",
        "ออกตามความในพระราชบัญญัติคุ้มครองและสงวนป่า",
        "พุทธศักราช ๒๔๘๑"
      ]
    ],
    []
  ],
  "metadata": {
    "date_backmatter": "2501-04-04",
    "date_modified": "2501-04-29",
    "date_original": "2501-04-29",
    "doctype": "กฎกระทรวง",
    "editors": [
      {
        "name": "ปิติวรรณ",
        "role": "จัดทำ",
        "date": "2561-09-14"
      }
    ],
    "tag": "bb27-2b-2501-a003"
  }
}