{
  "pages": [
    [
      [
        "พระราชกฤษฎีกา",
        "กำหนดป่าเสม็ด ในท้องที่ตำบลวังแจะ",
        "อำเภอเมืองตราด และตำบลเขาสมิง",
        "อำเภอเขาสมิง จังหวัดตราด",
        "ให้เป็นป่าคุ้มครอง พ.ศ. ๒๔๙๑",
        "------------",
        "ในพระปรมาภิไธยสมเด็จพระเจ้าอยู่หัวภูมิพลอดุลยเดช"
      ]
    ],
    []
  ],
  "metadata": {
    "date_backmatter": "2491-11-26",
    "date_gz_old": "2491-12-07",
    "editors": [
      {
        "name": "ชไมพร",
        "role": "พิมพ์",
        "date": "2544-10-24"
      }
    ],
    "tag": "bb27-2a-2491-a002"
  }
}