{
  "pages": [
    [
      [
        "พระราชกฤษฎีกา",
        "กำหนดป่าพูกระดึง ในท้องที่ตำบลสีถาน อำเภอ",
        "วังสพุง จังหวัดเลย ให้เป็นป่าสงวน",
        "พุทธศักราช ๒๔๘๖",
        "-------------",
        "ในพระปรมาภิไธยสมเด็จพระเจ้าอยู่หัวอานันทมหิดล"
      ]
    ],
    []
  ],
  "metadata": {
    "date_gz_old": "2486-12-14",
    "editors": [
      {
        "name": "ชไมพร",
        "role": "พิมพ์",
        "date": "2544-10-24"
      }
    ],
    "tag": "bb27-2a-2486-a009"
  }
}