{
  "pages": [
    [
      [
        "กฎกระทรวง",
        "ฉบับที่ ๔๙๒ (พ.ศ. ๒๕๑๕)",
        "ออกตามความในพระราชบัญญัติป่าสงวนแห่งชาติ",
        "พ.ศ. ๒๕๐๗"
      ]
    ],
    []
  ],
  "metadata": {
    "date_backmatter": "2515-10-20",
    "date_gz_old": "2515-11-21",
    "doctype": "กฎกระทรวง",
    "editors": [
      {
        "name": "ชไมพร",
        "role": "พิมพ์",
        "date": "2544-10-19"
      }
    ],
    "tag": "bb27-2b-2515-a005"
  }
}