{
  "pages": [
    [
      [
        "ระเบียบกรมอุทยานแห่งชาติ สัตว์ป่า และพันธุ์พืช",
        "ว่าด้วยการอนุญาตให้กระทำการเพื่อประโยชน์ในการศึกษา",
        "หรือวิจัยทางวิชาการภายในเขตป่าสงวนแห่งชาติ",
        "พ.ศ. ๒๕๔๖"
      ]
    ],
    []
  ],
  "metadata": {
    "date_backmatter": "2546-03-28",
    "date_modified": "2546-05-28",
    "date_original": "2546-05-28",
    "editors": [
      {
        "name": "สุภาพร",
        "role": "พิมพ์",
        "date": "2546-10-01"
      },
      {
        "name": "มัตติกา",
        "role": "แก้ไข",
        "date": "2546-11-03"
      },
      {
        "name": "อรรถชัย/สุมลรัตน์",
        "role": "ตรวจ",
        "date": "2546-11-03"
      }
    ],
    "tag": "bb27-2g-2546-a0003"
  }
}