{
  "pages": [
    [
      [
        "พระราชกฤษฎีกา",
        "กำหนดป่าแม่ตื่น ในท้องที่ตำบลบ้านนา อำเภอ",
        "บ้านตาก และตำบลแม่ตื่น กิ่งอำเภอแม่ระมาส",
        "อำเภอแม่สอด จังหวัดตาก ให้เป็นป่าคุ้มครอง",
        "พุทธศักราช ๒๔๘๕",
        "------------",
        "ในพระปรมาภิไธยสมเด็จพระเจ้าอยู่หัวอานันทมหิดล"
      ]
    ],
    []
  ],
  "metadata": {
    "date_gz_old": "2485-08-25",
    "editors": [
      {
        "name": "ชไมพร",
        "role": "พิมพ์",
        "date": "2544-10-12"
      }
    ],
    "tag": "bb27-2a-2485-a003"
  }
}