{
  "pages": [
    [
      [
        "พระราชบัญญัติ",
        "ป่าสงวนแห่งชาติ (ฉบับที่ ๓)",
        "พ.ศ. ๒๕๒๘",
        "",
        "",
        "ภูมิพลอดุลยเดช ป.ร.",
        "ให้ไว้ ณ วันที่ ๒๔ สิงหาคม พ.ศ. ๒๕๒๘",
        "เป็นปีที่ ๔๐ ในรัชกาลปัจจุบัน"
      ]
    ],
    []
  ],
  "metadata": {
    "date_header": "2528-08-24",
    "date_modified": "2528-09-11",
    "date_original": "2528-09-11",
    "doctype": "พระราชบัญญัติ",
    "editors": [
      {
        "name": "ปรียนันท์",
        "role": "แก้ไข",
        "date": "2545-02-27"
      },
      {
        "name": "ปัญญา",
        "role": "แก้ไข",
        "date": "2552-06-29"
      },
      {
        "name": "อุดมการณ์",
        "role": "ปรับปรุง",
        "date": "2556-01-17"
      },
      {
        "name": "วิชพงษ์",
        "role": "ตรวจ",
        "date": "2556-01-18"
      }
    ],
    "tag": "bb27-20-2528-003",
    "title": "ป่าสงวนแห่งชาติ (ฉบับที่ ๓)"
  }
}