{
  "pages": [
    [
      [
        "กฎกระทรวง",
        "ฉบับที่ ๑๐ (พ.ศ. ๒๔๙๙)",
        "ออกตามความในพระราชบัญญัติคุ้มครองและสงวนป่า",
        "พุทธศักราช ๒๔๘๑"
      ]
    ],
    []
  ],
  "metadata": {
    "date_backmatter": "2499-08-16",
    "date_modified": "2499-09-04",
    "date_original": "2499-09-04",
    "doctype": "กฎกระทรวง",
    "editors": [
      {
        "name": "ปิติวรรณ",
        "role": "จัดทำ",
        "date": "2561-10-03"
      }
    ],
    "tag": "bb27-2b-2499-a002"
  }
}