{
  "pages": [
    [
      [
        "พระราชกฤษฎีกา",
        "กำหนดเขตที่ดินในบริเวณที่ที่จะเวนคืน เพื่อขยายทางหลวง",
        "จังหวัดหมายเลข ๓๐๙๑ สายแยกทางหลวงแผ่นดินหมายเลข ๔",
        "(อ้อมน้อย) - สมุทรสาคร ในท้องที่จังหวัดสมุทรสาคร",
        "พ.ศ. ๒๕๓๒",
        "------------------",
        "ภูมิพลอดุลยเดช ป.ร.",
        "ให้ไว้ ณ วันที่ ๒๓ กันยายน พ.ศ. ๒๕๓๒",
        "เป็นปีที่ ๔๔ ในรัชกาลปัจจุบัน"
      ]
    ],
    []
  ],
  "metadata": {
    "date_gz_old": "2532-10-04",
    "date_header": "2532-09-23",
    "doctype": "พระราชกฤษฎีกา",
    "editors": [
      {
        "name": "พรพิมล",
        "role": "แก้ไข",
        "date": "2545-07-02"
      }
    ],
    "tag": "bb27-2a-2532-a0001",
    "title": "กำหนดเขตที่ดินในบริเวณที่ที่จะเวนคืน เพื่อขยายทางหลวงจังหวัดหมายเลข ๓๐๙๑ สายแยกทางหลวงแผ่นดินหมายเลข ๔(อ้อมน้อย) - สมุทรสาคร ในท้องที่จังหวัดสมุทรสาครพ.ศ. ๒๕๓๒------------------ภูมิพลอดุลยเดช ป.ร.ให้ไว้ ณ วันที่ ๒๓ กันยายน"
  }
}