{
  "pages": [
    [
      [
        "พระราชกฤษฎีกา",
        "กำหนดป่าไม้ยางนา ในท้องที่ตำบลละแม",
        "อำเภอหลังสวน จังหวัดชุมพร ให้เป็นป่าคุ้มครอง",
        "พุทธศักราช ๒๔๘๕",
        "-------------",
        "ในพระปรมาภิไธยสมเด็จพระเจ้าอยู่หัวอานันทมหิดล"
      ]
    ],
    []
  ],
  "metadata": {
    "date_gz_old": "2485-09-15",
    "editors": [
      {
        "name": "ชไมพร",
        "role": "พิมพ์",
        "date": "2544-10-15"
      }
    ],
    "tag": "bb27-2a-2485-a013"
  }
}