{
  "pages": [
    [
      [
        "ระเบียบกรมอุทยานแห่งชาติ สัตว์ป่า และพันธุ์พืช",
        "เรื่อง ยกเลิกระเบียบกรมอุทยานแห่งชาติ สัตว์ป่า และพันธุ์พืช",
        "ว่าด้วยการส่งคืนสัตว์ป่ากลับประเทศถิ่นกำเนิด พ.ศ. ๒๕๕๐",
        "พ.ศ. ๒๕๕๘"
      ]
    ],
    []
  ],
  "metadata": {
    "date_backmatter": "2558-10-29",
    "date_modified": "2558-11-05",
    "date_original": "2558-11-05",
    "editors": [
      {
        "name": "ปริยานุช/กัญฑรัตน์",
        "role": "จัดทำ",
        "date": "2558-11-12"
      },
      {
        "name": "",
        "role": "ตรวจ",
        "date": "2558-11-12"
      }
    ],
    "tag": "bb27-2g-2558-a0001"
  }
}