{
  "pages": [
    [
      [
        "พระราชบัญญัติ",
        "ป่าสงวนแห่งชาติ",
        "พ.ศ. ๒๕๐๗",
        "",
        "",
        "ภูมิพลอดุลยเดช ป.ร.",
        "ให้ไว้ ณ วันที่ ๑๖ เมษายน พ.ศ. ๒๕๐๗",
        "เป็นปีที่ ๑๙ ในรัชกาลปัจจุบัน"
      ]
    ],
    []
  ],
  "metadata": {
    "date_header": "2507-04-16",
    "date_modified": "2528-09-11",
    "date_original": "2507-04-28",
    "doctype": "พระราชบัญญัติ",
    "editors": [
      {
        "name": "พรพิมล",
        "role": "แก้ไข",
        "date": "2544-11-30"
      },
      {
        "name": "พรพิมล",
        "role": "แก้ไข",
        "date": "2544-10-22"
      },
      {
        "name": "ปรียนันท์",
        "role": "แก้ไข",
        "date": "2546-03-05"
      },
      {
        "name": "๒๗/๒",
        "role": "๔๕",
        "date": "2546-03-05"
      },
      {
        "name": "ทรงยศ",
        "role": "สราวุฒิ จัดทำ",
        "date": "2546-03-05"
      },
      {
        "name": "ทรงยศ",
        "role": "สราวุฒิ จัดทำ",
        "date": "2546-07-23"
      }
    ],
    "tag": "bb27-20-2528-a0001",
    "title": "ป่าสงวนแห่งชาติ"
  }
}