{
  "pages": [
    [
      [
        "พระราชกฤษฎีกา",
        "กำหนดป่าควนเนียงและป่าสดุก ในท้องที่ตำบลท่าชะมวง",
        "อำเภอรัตตภูมิ จังหวัดสงขลา ให้เป็นป่าคุ้มครอง",
        "พุทธศักราช ๒๔๘๘",
        "----------",
        "ในพระปรมาภิไธยสมเด็จพระเจ้าหัวอยู่อานันทมหิดล",
        "ผู้สำเร็จราชการแทนพระองค์",
        "(ตามประกาศประธานสภาผู้แทนราษฎร",
        "ลงวันที่ ๒๐ กันยายน พุทธศักราช ๒๔๘๘)",
        "ปรีดี พนมยงค์",
        "ตราไว้ ณ วันที่ ๔ ธันวาคม พุทธศักราช ๒๔๘๘",
        "เป็นปีที่ ๑๒ ในรัชชกาลปัจจุบัน"
      ]
    ],
    []
  ],
  "metadata": {
    "date_gz_old": "2488-12-28",
    "date_header": "2488-09-20",
    "doctype": "พระราชกฤษฎีกา",
    "editors": [
      {
        "name": "ชไมพร",
        "role": "พิมพ์",
        "date": "2544-10-02"
      }
    ],
    "tag": "bb27-2a-2488-a008",
    "title": "กำหนดป่าควนเนียงและป่าสดุก ในท้องที่ตำบลท่าชะมวงอำเภอรัตตภูมิ จังหวัดสงขลา ให้เป็นป่าคุ้มครองพุทธศักราช ๒๔๘๘----------ในพระปรมาภิไธยสมเด็จพระเจ้าหัวอยู่อานันทมหิดลผู้สำเร็จราชการแทนพระองค์(ตามประกาศประธานสภาผู้แทนราษฎรลงวันที่ ๒๐ กันยายน พุทธศักราช ๒๔๘๘)ปรีดี พนมยงค์ตราไว้ ณ วันที่ ๔ ธันวาคม"
  }
}