{
  "pages": [
    [
      [
        "กฎกระทรวง",
        "ฉบับที่ ๖๔๔ (พ.ศ. ๒๕๑๗)",
        "ออกตามความในพระราชบัญญัติป่าสงวนแห่งชาติ",
        "พ.ศ. ๒๕๐๗"
      ]
    ],
    []
  ],
  "metadata": {
    "date_backmatter": "2517-02-05",
    "date_modified": "2517-03-12",
    "date_original": "2517-03-12",
    "doctype": "กฎกระทรวง",
    "editors": [
      {
        "name": "ปิติวรรณ",
        "role": "จัดทำ",
        "date": "2561-09-21"
      }
    ],
    "tag": "bb27-2b-2517-a005"
  }
}