{
  "pages": [
    [
      [
        "ประกาศกระทรวงทรัพยากรธรรมชาติและสิ่งแวดล้อม",
        "เรื่อง แต่งตั้งพนักงานเจ้าหน้าที่ผู้ควบคุมและรักษาป่าสงวนแห่งชาติ",
        "ป่าสนชายทะเล จังหวัดพังงา",
        "(ฉบับที่ ๒)",
        "พ.ศ. ๒๕๕๕"
      ]
    ],
    []
  ],
  "metadata": {
    "date_backmatter": "2555-07-24",
    "date_modified": "2556-02-04",
    "date_original": "2556-02-04",
    "doctype": "ประกาศ",
    "editors": [
      {
        "name": "ปริยานุช",
        "role": "ผู้จัดทำ",
        "date": "2556-02-07"
      },
      {
        "name": "โชติกานต์",
        "role": "ผู้ตรวจ",
        "date": "2556-02-20"
      }
    ],
    "tag": "bb27-2e-2556-a0226"
  }
}