{
  "pages": [
    [
      [
        "พระราชกฤษฎีกา",
        "กำหนดป่ายางขุนด่าน ในท้องที่ตำบลท่าคอย อำเภอท่ายาง",
        "จังหวัดเพชรบุรี ให้เป็นป่าคุ้มครอง",
        "พุทธศักราช ๒๔๘๔",
        "------------",
        "ในพระปรมาภิไธยสมเด็จพระเจ้าอยู่หัวอานันทมหิดล"
      ]
    ],
    []
  ],
  "metadata": {
    "date_gz_old": "2484-07-01",
    "editors": [
      {
        "name": "ชไมพร",
        "role": "พิมพ์",
        "date": "2544-10-25"
      }
    ],
    "tag": "bb27-2a-2484-a017"
  }
}