{
  "pages": [
    [
      [
        "กฎกระทรวง",
        "ฉบับที่ ๙๘ (พ.ศ. ๒๕๐๘)",
        "ออกตามความในพระราชบัญญัติป่าสงวนแห่งชาติ",
        "พ.ศ. ๒๕๐๗"
      ]
    ],
    []
  ],
  "metadata": {
    "date_backmatter": "2508-12-17",
    "date_modified": "2508-12-31",
    "date_original": "2508-12-31",
    "doctype": "กฎกระทรวง",
    "editors": [
      {
        "name": "ปิติวรรณ",
        "role": "จัดทำ",
        "date": "2561-09-18"
      }
    ],
    "tag": "bb27-2b-2508-a006"
  }
}