{
  "pages": [
    [
      [
        "กฎกระทรวง",
        "ฉบับที่ ๒๔ (พ.ศ. ๒๕๐๗)",
        "ออกตามความในพระราชบัญญัติป่าสงวนแห่งชาติ",
        "พ.ศ. ๒๕๐๗"
      ]
    ],
    []
  ],
  "metadata": {
    "date_backmatter": "2507-12-15",
    "date_modified": "2507-12-31",
    "date_original": "2507-12-31",
    "doctype": "กฎกระทรวง",
    "editors": [
      {
        "name": "ปิติวรรณ",
        "role": "จัดทำ",
        "date": "2561-09-17"
      }
    ],
    "tag": "bb27-2b-2507-a002"
  }
}