{
  "pages": [
    [
      [
        "กฎกระทรวง",
        "ฉบับที่ ๑๑๙ (พ.ศ. ๒๕๐๕)",
        "ออกตามความในพระราชบัญญัติคุ้มครองและสงวนป่า",
        "พุทธศักราช ๒๔๘๑"
      ]
    ],
    []
  ],
  "metadata": {
    "date_backmatter": "2505-09-20",
    "date_modified": "2505-10-02",
    "date_original": "2505-10-02",
    "doctype": "กฎกระทรวง",
    "editors": [
      {
        "name": "ปิติวรรณ",
        "role": "จัดทำ",
        "date": "2561-09-17"
      }
    ],
    "tag": "bb27-2b-2505-a018"
  }
}