{
  "pages": [
    [
      [
        "กฎกระทรวง",
        "ฉบับที่ ๘๔๑ (พ.ศ. ๒๕๒๒)",
        "ออกตามความในพระราชบัญญัติป่าสงวนแห่งชาติ",
        "พ.ศ. ๒๕๐๗"
      ]
    ],
    []
  ],
  "metadata": {
    "date_backmatter": "2522-04-30",
    "date_modified": "2522-05-15",
    "date_original": "2522-05-15",
    "doctype": "กฎกระทรวง",
    "editors": [
      {
        "name": "ปิติวรรณ",
        "role": "จัดทำ",
        "date": "2561-09-25"
      }
    ],
    "tag": "bb27-2b-2522-a005"
  }
}