{
  "pages": [
    [
      [
        "พระราชกฤษฎีกา",
        "กำหนดป่าดอนเต็งรัง ในท้องที่ตำบลเมืองเก่า",
        "อำเภอปราณบุรี จังหวัดประจวบคีรีขันธ์ ให้เป็นป่า",
        "คุ้มครอง พุทธศักราช ๒๔๘๔",
        "-------------",
        "ในพระปรมาภิไธยสมเด็จพระเจ้าอยู่หัวอานันทมหิดล"
      ]
    ],
    []
  ],
  "metadata": {
    "date_gz_old": "2484-02-11",
    "editors": [
      {
        "name": "ชไมพร",
        "role": "พิมพ์",
        "date": "2544-10-25"
      }
    ],
    "tag": "bb27-2a-2484-a021"
  }
}