{
  "pages": [
    [
      [
        "พระราชกฤษฎีกา",
        "กำหนดป่าควนท่าหิน ควนขี้หมา และควนโต๊ะอม",
        "ในท้องที่ตำบลควนขัน อำเภอเมืองสตูล",
        "จังหวัดสตูล ให้เป็นป่าคุ้มครอง",
        "พุทธศักราช ๒๔๘๘",
        "-----------",
        "ในพระปรมาภิไธยสมเด็จพระเจ้าอยู่หัวอานันทมหิดล",
        "ผู้สำเร็จราชการแทนพระองค์",
        "(ตามประกาศประธานสภาผู้แทนราษฎร",
        "ลงวันที่ ๑ สิงหาคม พุทธศักราช ๒๔๘๗)",
        "ปรีดี พนมยงค์",
        "ตราไว้ ณ วันที่ ๒๙ มิถุนายน พุทธศักราช ๒๔๘๘",
        "เป็นปีที่ ๑๒ ในรัชกาลปัจจุบัน"
      ]
    ],
    []
  ],
  "metadata": {
    "date_gz_old": "2488-07-17",
    "date_header": "2487-08-01",
    "doctype": "พระราชกฤษฎีกา",
    "editors": [
      {
        "name": "ชไมพร",
        "role": "พิมพ์",
        "date": "2544-09-27"
      }
    ],
    "tag": "bb27-2a-2488-a006",
    "title": "กำหนดป่าควนท่าหิน ควนขี้หมา และควนโต๊ะอมในท้องที่ตำบลควนขัน อำเภอเมืองสตูลจังหวัดสตูล ให้เป็นป่าคุ้มครองพุทธศักราช ๒๔๘๘-----------ในพระปรมาภิไธยสมเด็จพระเจ้าอยู่หัวอานันทมหิดลผู้สำเร็จราชการแทนพระองค์(ตามประกาศประธานสภาผู้แทนราษฎรลงวันที่ ๑ สิงหาคม พุทธศักราช ๒๔๘๗)ปรีดี พนมยงค์ตราไว้ ณ วันที่ ๒๙ มิถุนายน"
  }
}