{
  "pages": [
    [
      [
        "พระราชกฤษฎีกา",
        "กำหนดป่าสน ในท้องที่ตำบลตำแย",
        "ตำบลละเอาะ และตำบลน้ำเกลี้ยง อำเภอ",
        "กันทรารมย์ ตำบลตูมและตำบลศรีแก้ว อำเภอ",
        "กันทรลักษณ์ จังหวัดศรีสะเกษ",
        "ให้เป็นป่าคุ้มครอง พ.ศ. ๒๔๙๑",
        "-------------",
        "ในพระปรมาภิไธยสมเด็จพระเจ้าอยู่หัวภูมิพลอดุลยเดช"
      ]
    ],
    []
  ],
  "metadata": {
    "date_backmatter": "2491-12-01",
    "date_gz_old": "2491-12-14",
    "editors": [
      {
        "name": "ชไมพร",
        "role": "พิมพ์",
        "date": "2544-10-24"
      }
    ],
    "tag": "bb27-2a-2491-a009"
  }
}