{
  "pages": [
    [
      [
        "พระราชกฤษฎีกา",
        "กำหนดป่าวังทัง ในท้องที่ตำบลนาเตย อำเภอท้ายเมือง",
        "จังหวัดพังงา ให้เป็นป่าคุ้มครอง",
        "พ.ศ. ๒๔๙๐",
        "-----------",
        "ในพระปรมาภิไธยสมเด็จพระเจ้าอยู่หัวภูมิพลอดุลยเดช"
      ]
    ],
    []
  ],
  "metadata": {
    "date_backmatter": "2490-02-11",
    "date_gz_old": "2490-02-25",
    "editors": [
      {
        "name": "ชไมพร",
        "role": "พิมพ์",
        "date": "2544-10-25"
      }
    ],
    "tag": "bb27-2a-2490-a005"
  }
}