{
  "pages": [
    [
      [
        "พระราชกฤษฎีกา",
        "กำหนดป่าบ้านตึก ในท้องที่ตำบลบ้านตึก",
        "และตำบลแม่สิน และป่าแม่สำ ในท้องที่ตำบล",
        "บ้านแก่ง และตำบลแม่สำ อำเภอศรีสัชชนาลัย",
        "จังหวัดสุโขทัย ให้เป็นป่าคุ้มครอง",
        "พ.ศ. ๒๔๙๑",
        "----------",
        "ในพระปรมาภิไธยสมเด็จพระเจ้าอยู่หัวภูมิพลอดุลยเดช"
      ]
    ],
    []
  ],
  "metadata": {
    "date_backmatter": "2491-02-10",
    "date_gz_old": "2491-03-16",
    "editors": [
      {
        "name": "ชไมพร",
        "role": "พิมพ์",
        "date": "2544-10-24"
      }
    ],
    "tag": "bb27-2a-2491-a0001"
  }
}