{
  "pages": [
    [
      [
        "พระราชกฤษฎีกา",
        "กำหนดป่าแม่พวก ในท้องที่ตำบลเด่นไชย",
        "อำเภอสูงเม่น จังหวัดแพร่ ให้เป็นป่าคุ้มครอง",
        "พ.ศ. ๒๔๙๑",
        "----------",
        "ในพระปรมาภิไธยสมเด็จพระเจ้าอยู่หัวภูมิพลอดุลยเดช"
      ]
    ],
    []
  ],
  "metadata": {
    "date_backmatter": "2491-12-14",
    "date_gz_old": "2491-12-31",
    "editors": [
      {
        "name": "ชไมพร",
        "role": "พิมพ์",
        "date": "2544-09-20"
      }
    ],
    "tag": "bb27-2a-2491-a012"
  }
}