{
  "pages": [
    [
      [
        "กฎกระทรวง",
        "ฉบับที่ ๕๘๖ (พ.ศ. ๒๕๑๖)",
        "ออกตามความในพระราชบัญญัติป่าสงวนแห่งชาติ",
        "พ.ศ. ๒๕๐๗"
      ]
    ],
    []
  ],
  "metadata": {
    "date_backmatter": "2516-10-08",
    "date_modified": "2516-11-06",
    "date_original": "2516-11-06",
    "doctype": "กฎกระทรวง",
    "editors": [
      {
        "name": "ปิติวรรณ",
        "role": "จัดทำ",
        "date": "2561-09-21"
      }
    ],
    "tag": "bb27-2b-2516-a006"
  }
}