{
  "pages": [
    [
      [
        "พระราชกฤษฎีกา",
        "กำหนดป่าดงลาน ในท้องที่ตำบลสีสุกและ",
        "ตำบลโนนหัน อำเภอชุมแพ จังหวัดขอนแก่น",
        "ให้เป็นป่าคุ้มครอง พุทธศักราช ๒๔๘๘",
        "----------",
        "ในพระปรมาภิไธยสมเด็จพระเจ้าอยู่หัวอานันทมหิดล",
        "ผู้สำเร็จราชการแทนพระองค์",
        "(ตามประกาศประธานสภาผู้แทนราษฎร",
        "ลงวันที่ ๑ สิงหาคม พุทธศักราช ๒๔๘๗)",
        "ปรีดี พนมยงค์",
        "ตราไว้ ณ วันที่ ๑๖ มกราคม พุทธศักราช ๒๔๘๘",
        "เป็นปีที่ ๑๒ ในรัชกาลปัจจุบัน"
      ]
    ],
    []
  ],
  "metadata": {
    "date_gz_old": "2488-01-23",
    "date_header": "2487-08-01",
    "doctype": "พระราชกฤษฎีกา",
    "editors": [
      {
        "name": "ชไมพร",
        "role": "พิมพ์",
        "date": "2544-10-02"
      }
    ],
    "tag": "bb27-2a-2488-a004",
    "title": "กำหนดป่าดงลาน ในท้องที่ตำบลสีสุกและตำบลโนนหัน อำเภอชุมแพ จังหวัดขอนแก่นให้เป็นป่าคุ้มครอง พุทธศักราช ๒๔๘๘----------ในพระปรมาภิไธยสมเด็จพระเจ้าอยู่หัวอานันทมหิดลผู้สำเร็จราชการแทนพระองค์(ตามประกาศประธานสภาผู้แทนราษฎรลงวันที่ ๑ สิงหาคม พุทธศักราช ๒๔๘๗)ปรีดี พนมยงค์ตราไว้ ณ วันที่ ๑๖ มกราคม"
  }
}