{
  "pages": [
    [
      [
        "พระราชกฤษฎีกา",
        "กำหนดป่าไอยสะเตียร์ ในท้องที่ตำบลบูกิ๊ต",
        "อำเภอระแงะ จังหวัดนราธิวาส ให้เป็นป่าสงวน",
        "พ.ศ. ๒๔๙๔",
        "------------",
        "ในพระปรมาภิไธย"
      ]
    ],
    []
  ],
  "metadata": {
    "date_backmatter": "2494-06-23",
    "date_gz_old": "2494-11-20",
    "editors": [
      {
        "name": "ชไมพร",
        "role": "พิมพ์",
        "date": "2544-10-18"
      }
    ],
    "tag": "bb27-2a-2494-a0001"
  }
}