{
  "pages": [
    [
      [
        "พระราชบัญญัติ",
        "การปฏิบัติหน้าที่ของคณะกรรมการ",
        "ที่แต่งตั้งตามประกาศและคำสั่งของคณะรักษาความสงบแห่งชาติบางฉบับ",
        "พ.ศ. ๒๕๕๘",
        "",
        "",
        "ภูมิพลอดุลยเดช ป.ร.",
        "ให้ไว้ ณ วันที่ ๑๓ กุมภาพันธ์ พ.ศ. ๒๕๕๘",
        "เป็นปีที่ ๗๐ ในรัชกาลปัจจุบัน"
      ]
    ],
    []
  ],
  "metadata": {
    "date_header": "2558-02-13",
    "date_modified": "2558-02-13",
    "date_original": "2558-02-13",
    "doctype": "พระราชบัญญัติ",
    "editors": [
      {
        "name": "ปริยานุช",
        "role": "ผู้จัดทำ",
        "date": "2558-02-16"
      },
      {
        "name": "นุสรา",
        "role": "ผู้ตรวจ",
        "date": "2557-02-17"
      },
      {
        "name": "ชุติมา",
        "role": "ปรับปรุง",
        "date": "2561-01-04"
      }
    ],
    "tag": "a1147-20-2558-a0001",
    "title": "การปฏิบัติหน้าที่ของคณะกรรมการที่แต่งตั้งตามประกาศและคำสั่งของคณะรักษาความสงบแห่งชาติบางฉบับ"
  }
}