{
  "pages": [
    [
      [
        "คำสั่งหัวหน้าคณะรักษาความสงบแห่งชาติ",
        "ที่ ๔๗/๒๕๕๘",
        "เรื่อง แต่งตั้งบุคคลเป็นกรรมการในคณะกรรมการส่งเสริมการลงทุน"
      ]
    ],
    []
  ],
  "metadata": {
    "date_backmatter": "2558-12-30",
    "date_modified": "2559-01-05",
    "date_original": "2559-01-05",
    "editors": [
      {
        "name": "ปริยานุช",
        "role": "จัดทำ",
        "date": "2559-01-18"
      },
      {
        "name": "วิศนี",
        "role": "ตรวจ",
        "date": "2559-01-18"
      }
    ],
    "tag": "a1147-2f-2559-a0001"
  }
}