{
  "pages": [
    [
      [
        "พระราชบัญญัติ",
        "วิธีพิจารณาคดีค้ามนุษย์",
        "พ.ศ. ๒๕๕๙",
        "",
        "",
        "ภูมิพลอดุลยเดช ป.ร.",
        "ให้ไว้ ณ วันที่ ๑๙ พฤษภาคม พ.ศ. ๒๕๕๙",
        "เป็นปีที่ ๗๑ ในรัชกาลปัจจุบัน"
      ]
    ],
    []
  ],
  "metadata": {
    "date_header": "2559-05-19",
    "date_modified": "2559-05-24",
    "date_original": "2559-05-24",
    "doctype": "พระราชบัญญัติ",
    "editors": [
      {
        "name": "วิศนี/ปริยานุช",
        "role": "จัดทำ",
        "date": "2559-05-25"
      },
      {
        "name": "พจนา",
        "role": "ตรวจ",
        "date": "2559-05-25"
      }
    ],
    "tag": "c781-20-2559-a0001",
    "title": "วิธีพิจารณาคดีค้ามนุษย์"
  }
}