{
  "pages": [
    [
      [
        "ประกาศสำนักนายกรัฐมนตรี",
        "เรื่อง กำหนดภาพเครื่องหมายราชการตามพระราชบัญญัติ",
        "เครื่องหมายราชการ พุทธศักราช ๒๔๘๒",
        "(ฉบับที่ ๑๕๒)"
      ]
    ],
    []
  ],
  "metadata": {
    "date_backmatter": "2540-10-03",
    "date_modified": "2540-10-07",
    "date_original": "2540-10-07",
    "doctype": "ประกาศ",
    "editors": [
      {
        "name": "ดลธี",
        "role": "พิมพ์",
        "date": "2554-01-27"
      },
      {
        "name": "เอกฤทธิ์",
        "role": "ผู้ตรวจ",
        "date": "2554-01-28"
      }
    ],
    "tag": "a448-2e-2540-a0001"
  }
}