{
  "pages": [
    [
      [
        "ประกาศสำนักนายกรัฐมนตรี",
        "เรื่อง กำหนดภาพเครื่องหมายราชการตามพระราชบัญญัติ",
        "เครื่องหมายราชการ พุทธศักราช ๒๔๘๒",
        "(ฉบับที่ ๒๑๖)"
      ]
    ],
    []
  ],
  "metadata": {
    "date_backmatter": "2547-07-06",
    "date_modified": "2547-11-18",
    "date_original": "2547-11-18",
    "doctype": "ประกาศ",
    "editors": [
      {
        "name": "ดลธี",
        "role": "พิมพ์",
        "date": "2554-01-05"
      },
      {
        "name": "เอกฤทธิ์",
        "role": "ผู้ตรวจ",
        "date": "2554-01-24"
      }
    ],
    "tag": "a448-2e-2547-a0008"
  }
}