{
  "pages": [
    [
      [
        "ประกาศสำนักนายกรัฐมนตรี",
        "เรื่อง กำหนดภาพเครื่องหมายราชการ",
        "ตามพระราชบัญญัติเครื่องหมายราชการ",
        "พุทธศักราช ๒๔๘๒",
        "(ฉบับที่ ๒๐๖)"
      ]
    ],
    []
  ],
  "metadata": {
    "date_backmatter": "2546-10-15",
    "date_modified": "2546-12-04",
    "date_original": "2546-12-04",
    "doctype": "ประกาศ",
    "editors": [
      {
        "name": "ดลธี",
        "role": "พิมพ์",
        "date": "2554-01-04"
      },
      {
        "name": "เอกฤทธิ์",
        "role": "ผู้ตรวจ",
        "date": "2554-01-24"
      }
    ],
    "tag": "a448-2e-2546-a0005"
  }
}