{
  "pages": [
    [
      [
        "ประกาศสำนักนายกรัฐมนตรี",
        "(ฉบับที่ ๒๑)",
        "เรื่องกำหนดภาพเครื่องหมายราชการตามพระราช",
        "บัญญัติเครื่องหมายราชการ",
        "พุทธศักราช ๒๔๘๒"
      ]
    ],
    []
  ],
  "metadata": {
    "date_backmatter": "2493-08-04",
    "date_modified": "2493-08-29",
    "date_original": "2493-08-29",
    "doctype": "ประกาศ",
    "editors": [
      {
        "name": "ดลธี",
        "role": "พิมพ์",
        "date": "2554-01-24"
      },
      {
        "name": "เอกฤทธิ์",
        "role": "ผู้ตรวจ",
        "date": "2554-01-26"
      }
    ],
    "tag": "a448-2e-2493-a0001"
  }
}