{
  "pages": [
    [
      [
        "ประกาศสำนักนายกรัฐมนตรี",
        "เรื่องกำหนดภาพเครื่องหมายราชการ",
        "ตามพระราชบัญญัติเครื่องหมายราชการ พุทธศักราช ๒๔๘๒",
        "(ฉบับที่ ๑๒)"
      ]
    ],
    []
  ],
  "metadata": {
    "date_backmatter": "2485-02-26",
    "date_modified": "2485-03-10",
    "date_original": "2485-03-10",
    "doctype": "ประกาศ",
    "editors": [
      {
        "name": "ดลธี",
        "role": "พิมพ์",
        "date": "2554-01-24"
      },
      {
        "name": "เอกฤทธิ์",
        "role": "ผู้ตรวจ",
        "date": "2554-01-26"
      }
    ],
    "tag": "a448-2e-2485-a0001"
  }
}