{
  "pages": [
    [
      [
        "ระเบียบกรมการค้าภายใน",
        "ว่าด้วยหลักเกณฑ์ วิธีการ เงื่อนไขการใช้เครื่องหมายราชการ",
        "รูปตราพนมมือประยุกต์ในกรอบสี่เหลี่ยมจตุรัส",
        "พ.ศ. ๒๕๔๖"
      ]
    ],
    []
  ],
  "metadata": {
    "date_backmatter": "2546-03-13",
    "date_modified": "2546-03-26",
    "date_original": "2546-03-26",
    "editors": [
      {
        "name": "ดลธี",
        "role": "ผู้จัดทำ",
        "date": "2553-12-27"
      },
      {
        "name": "เอกฤทธิ์",
        "role": "ผู้ตรวจ",
        "date": "2554-01-21"
      }
    ],
    "tag": "a448-2g-2546-a0001"
  }
}