{
  "pages": [
    [
      [
        "ประกาศสำนักนายกรัฐมนตรี",
        "เรื่อง กำหนดภาพเครื่องหมายราชการ",
        "ตามพระราชบัญญัติเครื่องหมายราชการ",
        "พุทธศักราช ๒๔๘๒",
        "(ฉบับที่ ๒๖๗)"
      ]
    ],
    []
  ],
  "metadata": {
    "date_backmatter": "2555-06-24",
    "date_modified": "2555-07-11",
    "date_original": "2555-07-11",
    "doctype": "ประกาศ",
    "editors": [
      {
        "name": "ปริยานุช",
        "role": "ผู้จัดทำ",
        "date": "2555-07-17"
      },
      {
        "name": "ชาญ",
        "role": "ผู้ตรวจ",
        "date": "2555-07-24"
      }
    ],
    "tag": "a448-2e-2555-a0016"
  }
}