{
  "pages": [
    [
      [
        "ประกาศสำนักนายกรัฐมนตรี",
        "(ฉบับที่ ๒๒)",
        "เรื่องกำหนดภาพเครื่องหมายราชการตาม",
        "พระราชบัญญัติเครื่องหมายราชการ",
        "พุทธศักราช ๒๔๘๒"
      ]
    ],
    []
  ],
  "metadata": {
    "date_backmatter": "2494-01-05",
    "date_modified": "2494-01-23",
    "date_original": "2494-01-23",
    "doctype": "ประกาศ",
    "editors": [
      {
        "name": "ดลธี",
        "role": "พิมพ์",
        "date": "2554-01-24"
      },
      {
        "name": "เอกฤทธิ์",
        "role": "ผู้ตรวจ",
        "date": "2554-01-26"
      }
    ],
    "tag": "a448-2e-2494-a0001"
  }
}