{
  "pages": [
    [
      [
        "ประกาศสำนักนายกรัฐมนตรี",
        "เรื่อง กำหนดภาพเครื่องหมายราชการ",
        "ตามพระราชบัญญัติเครื่องหมายราชการ",
        "พุทธศักราช ๒๔๘๒ (ฉบับที่ ๗๐)"
      ]
    ],
    []
  ],
  "metadata": {
    "date_backmatter": "2522-10-29",
    "date_modified": "2522-11-14",
    "date_original": "2522-11-14",
    "doctype": "ประกาศ",
    "editors": [
      {
        "name": "ดลธี",
        "role": "พิมพ์",
        "date": "2554-01-25"
      },
      {
        "name": "เอกฤทธิ์",
        "role": "ผู้ตรวจ",
        "date": "2554-01-26"
      }
    ],
    "tag": "a448-2e-2522-a0003"
  }
}