{
  "pages": [
    [
      [
        "ประกาศสำนักนายกรัฐมนตรี",
        "เรื่อง กำหนดภาพเครื่องหมายราชการตามพระราชบัญญัติ",
        "เครื่องหมายราชการ พุทธศักราช ๒๔๘๒ (ฉบับที่ ๖๒)"
      ]
    ],
    []
  ],
  "metadata": {
    "date_backmatter": "2518-09-08",
    "date_modified": "2518-12-30",
    "date_original": "2518-12-30",
    "doctype": "ประกาศ",
    "editors": [
      {
        "name": "ดลธี",
        "role": "พิมพ์",
        "date": "2554-01-25"
      },
      {
        "name": "เอกฤทธิ์",
        "role": "ผู้ตรวจ",
        "date": "2554-01-26"
      }
    ],
    "tag": "a448-2e-2518-a0002"
  }
}