{
  "pages": [
    [
      [
        "ประกาศสำนักนายกรัฐมนตรี",
        "เรื่อง กำหนดภาพเครื่องหมายราชการตามพระราชบัญญัติ",
        "เครื่องหมายราชการ พุทธศักราช ๒๔๘๒",
        "(ฉบับที่ ๒๕๖)"
      ]
    ],
    []
  ],
  "metadata": {
    "date_backmatter": "2554-01-07",
    "date_modified": "2554-02-03",
    "date_original": "2554-02-03",
    "doctype": "ประกาศ",
    "editors": [
      {
        "name": "ปริยานุช",
        "role": "ผู้จัดทำ",
        "date": "2554-02-16"
      },
      {
        "name": "ณัฐวดี",
        "role": "ตรวจ",
        "date": "2554-02-16"
      }
    ],
    "tag": "a448-2e-2554-a0004"
  }
}