{
  "pages": [
    [
      [
        "ประกาศสำนักนายกรัฐมนตรี",
        "เรื่องกำหนดภาพเครื่องหมายราชการ ตามพระราช",
        "บัญญัติเครื่องหมายราชการ พุทธศักราช ๒๔๘๒"
      ]
    ],
    []
  ],
  "metadata": {
    "date_backmatter": "2482-02-10",
    "date_modified": "2536-08-11",
    "date_original": "2482-03-11",
    "doctype": "ประกาศ",
    "editors": [
      {
        "name": "เอกฤทธิ์",
        "role": "ผู้จัดทำ",
        "date": "2554-01-26"
      }
    ],
    "tag": "a448-2e-9998-update"
  }
}