{
  "pages": [
    [
      [
        "ประกาศสำนักนายกรัฐมนตรี",
        "เรื่อง กำหนดภาพเครื่องหมายราชการ",
        "ตามพระราชบัญญัติเครื่องหมายราชการ",
        "พุทธศักราช ๒๔๘๒ (ฉบับที่ ๑๒๙)"
      ]
    ],
    []
  ],
  "metadata": {
    "date_backmatter": "2535-03-26",
    "date_modified": "2535-04-07",
    "date_original": "2535-04-07",
    "doctype": "ประกาศ",
    "editors": [
      {
        "name": "ดลธี",
        "role": "พิมพ์",
        "date": "2554-01-27"
      },
      {
        "name": "เอกฤทธิ์",
        "role": "ผู้ตรวจ",
        "date": "2554-01-28"
      }
    ],
    "tag": "a448-2e-2535-a0002"
  }
}