{
  "pages": [
    [
      [
        "ประกาศสำนักนายกรัฐมนตรี",
        "เรื่อง กำหนดภาพเครื่องหมายราชการ",
        "ตามพระราชบัญญัติเครื่องหมายราชการ",
        "พุทธศักราช ๒๔๘๒ (ฉบับที่ ๙๐)"
      ]
    ],
    []
  ],
  "metadata": {
    "date_backmatter": "2527-10-29",
    "date_modified": "2527-12-28",
    "date_original": "2527-12-28",
    "doctype": "ประกาศ",
    "editors": [
      {
        "name": "ดลธี",
        "role": "พิมพ์",
        "date": "2554-01-25"
      },
      {
        "name": "เอกฤทธิ์",
        "role": "ผู้ตรวจ",
        "date": "2554-01-28"
      }
    ],
    "tag": "a448-2e-2527-a0004"
  }
}