{
  "pages": [
    [
      [
        "ประกาศสำนักนายกรัฐมนตรี",
        "เรื่อง กำหนดภาพเครื่องหมายราชการ",
        "ตามพระราชบัญญัติเครื่องหมายราชการ",
        "พุทธศักราช ๒๔๘๒ (ฉบับที่ ๑๐๓)"
      ]
    ],
    []
  ],
  "metadata": {
    "date_backmatter": "2530-02-20",
    "date_modified": "2530-03-30",
    "date_original": "2530-03-30",
    "doctype": "ประกาศ",
    "editors": [
      {
        "name": "ดลธี",
        "role": "พิมพ์",
        "date": "2554-01-26"
      },
      {
        "name": "เอกฤทธิ์",
        "role": "ผู้ตรวจ",
        "date": "2554-01-28"
      }
    ],
    "tag": "a448-2e-2530-a0002"
  }
}