{
  "pages": [
    [
      [
        "ประกาศสำนักนายกรัฐมนตรี",
        "เรื่อง กำหนดภาพเครื่องหมายราชการ",
        "ตามพระราชบัญญัติเครื่องหมายราชการ",
        "พุทธศักราช ๒๔๘๒ (ฉบับที่ ๙๙)"
      ]
    ],
    []
  ],
  "metadata": {
    "date_backmatter": "2529-05-29",
    "date_modified": "2529-07-02",
    "date_original": "2529-07-02",
    "doctype": "ประกาศ",
    "editors": [
      {
        "name": "ดลธี",
        "role": "พิมพ์",
        "date": "2554-01-26"
      },
      {
        "name": "เอกฤทธิ์",
        "role": "ผู้ตรวจ",
        "date": "2554-01-28"
      }
    ],
    "tag": "a448-2e-2529-a0004"
  }
}