{
  "pages": [
    [
      [
        "ประกาศสำนักนายกรัฐมนตรี",
        "เรื่อง กำหนดภาพเครื่องหมายราชการตามพระราชบัญญัติ",
        "เครื่องหมายราชการ พุทธศักราช ๒๔๘๒",
        "(ฉบับที่ ๑๙๐)"
      ]
    ],
    []
  ],
  "metadata": {
    "date_backmatter": "2546-02-28",
    "date_modified": "2546-06-12",
    "date_original": "2546-06-12",
    "doctype": "ประกาศ",
    "editors": [
      {
        "name": "ดลธี",
        "role": "พิมพ์",
        "date": "2554-01-31"
      },
      {
        "name": "เอกฤทธิ์",
        "role": "ผู้ตรวจ",
        "date": "2554-01-31"
      }
    ],
    "tag": "a448-2e-2546-a0016"
  }
}