{
  "pages": [
    [
      [
        "ประกาศสำนักนายกรัฐมนตรี",
        "เรื่อง กำหนดภาพเครื่องหมายราชการ",
        "ตามพระราชบัญญัติเครื่องหมายราชการ",
        "พุทธศักราช ๒๔๘๒",
        "(ฉบับที่ ๒๕๗)"
      ]
    ],
    []
  ],
  "metadata": {
    "date_backmatter": "2554-03-18",
    "date_modified": "2554-04-24",
    "date_original": "2554-04-24",
    "doctype": "ประกาศ",
    "editors": [
      {
        "name": "ปริยานุช",
        "role": "ผู้จัดทำ",
        "date": "2554-05-10"
      },
      {
        "name": "ณัฐวดี",
        "role": "ตรวจ",
        "date": "2554-05-10"
      }
    ],
    "tag": "a448-2e-2554-a0005"
  }
}