{
  "pages": [
    [
      [
        "ประกาศสำนักนายกรัฐมนตรี",
        "เรื่อง กำหนดภาพเครื่องหมายราชการ",
        "ตามพระราชบัญญัติเครื่องหมายราชการ",
        "พุทธศักราช ๒๔๘๒",
        "(ฉบับที่ ๒๓๔)"
      ]
    ],
    []
  ],
  "metadata": {
    "date_backmatter": "2549-12-12",
    "date_modified": "2550-01-11",
    "date_original": "2550-01-11",
    "doctype": "ประกาศ",
    "editors": [
      {
        "name": "ดลธี",
        "role": "ผู้จัดทำ",
        "date": "2553-12-28"
      },
      {
        "name": "เอกฤทธิ์",
        "role": "ผู้ตรวจ",
        "date": "2554-01-24"
      }
    ],
    "tag": "a448-2e-2550-a0001"
  }
}