{
  "pages": [
    [
      [
        "ประกาศสำนักนายกรัฐมนตรี",
        "(ฉบับที่ ๒๔)",
        "เรื่องกำหนดภาพเครื่องหมายราชการ",
        "ตามพระราชบัญญัติเครื่องหมายราชการ",
        "พุทธศักราช ๒๔๘๒"
      ]
    ],
    []
  ],
  "metadata": {
    "date_backmatter": "2494-07-25",
    "date_modified": "2494-08-21",
    "date_original": "2494-08-21",
    "doctype": "ประกาศ",
    "editors": [
      {
        "name": "ดลธี",
        "role": "พิมพ์",
        "date": "2554-01-24"
      },
      {
        "name": "เอกฤทธิ์",
        "role": "ผู้ตรวจ",
        "date": "2554-01-26"
      }
    ],
    "tag": "a448-2e-2494-a0003"
  }
}