{
  "pages": [
    [
      [
        "ประกาศคณะกรรมการส่งเสริมการลงทุน",
        "ที่ ๑/๒๕๕๓",
        "เรื่อง นโยบายส่งเสริมการลงทุนแก่วิสาหกิจขนาดกลางและขนาดย่อม (SMEs)"
      ]
    ],
    []
  ],
  "metadata": {
    "date_backmatter": "2553-01-05",
    "date_modified": "2553-04-02",
    "date_original": "2553-04-02",
    "doctype": "ประกาศ",
    "editors": [
      {
        "name": "ปริยานุช",
        "role": "ผู้จัดทำ",
        "date": "2553-06-17"
      },
      {
        "name": "นันท์นภัสร์",
        "role": "ตรวจ",
        "date": "2553-06-17"
      }
    ],
    "tag": "ca07-2e-2553-a0001"
  }
}