{
  "pages": [
    [
      [
        "ประกาศคณะกรรมการส่งเสริมการลงทุน",
        "ที่ ส. ๓/๒๕๔๖",
        "เรื่อง การให้การส่งเสริมกิจการผลิตผลิตภัณฑ์อิเล็กทรอนิกส์",
        "เครื่องใช้ไฟฟ้า หรือชิ้นส่วนแบบครบวงจร"
      ]
    ],
    []
  ],
  "metadata": {
    "date_backmatter": "2546-02-06",
    "date_modified": "2546-05-08",
    "date_original": "2546-05-08",
    "doctype": "ประกาศ",
    "editors": [
      {
        "name": "หทัยชนก",
        "role": "พิมพ์",
        "date": "2546-06-30"
      },
      {
        "name": "ศุภสรณ์",
        "role": "อภิสิทธิ์",
        "date": "2546-07-03"
      },
      {
        "name": "ผู้จัดทำ",
        "role": "๓",
        "date": "2546-07-03"
      }
    ],
    "tag": "ca07-2e-2546-a0002"
  }
}