{
  "pages": [
    [
      [
        "ประกาศคณะกรรมการส่งเสริมการลงทุน",
        "ที่ ๔/๒๕๔๘",
        "เรื่อง นโยบายส่งเสริมการลงทุนในกิจการนิคมอุตสาหกรรมหรือเขตอุตสาหกรรมและกิจการ",
        "ที่ตั้งในนิคมอุตสาหกรรมหรือเขตอุตสาหกรรมในสามจังหวัดชายแดนภาคใต้"
      ]
    ],
    []
  ],
  "metadata": {
    "date_backmatter": "2548-03-08",
    "date_modified": "2548-05-09",
    "date_original": "2548-05-09",
    "doctype": "ประกาศ",
    "editors": [
      {
        "name": "วชิระ",
        "role": "ตรวจ",
        "date": "2548-07-12"
      }
    ],
    "tag": "ca07-2e-2548-a0013"
  }
}