{
  "pages": [
    [
      [
        "ระเบียบสำนักงานคณะกรรมการส่งเสริมการลงทุน",
        "ฉบับที่ 8/2535",
        "ว่าด้วย การขออนุญาตเปิดดำเนินการ"
      ]
    ],
    []
  ],
  "metadata": {
    "date_backmatter": "2535-05-04",
    "editors": [],
    "tag": "ca07-2g-2535-008"
  }
}