{
  "pages": [
    [
      [
        "ประกาศคณะกรรมการส่งเสริมการลงทุน",
        "ที่ ๘/๒๕๕๘",
        "เรื่อง การแก้ไขเพิ่มเติมนโยบายส่งเสริมการลงทุนในเขตพัฒนาเศรษฐกิจพิเศษ",
        "สำหรับผู้ประกอบการวิสาหกิจขนาดกลางและขนาดย่อม (SMEs)"
      ]
    ],
    []
  ],
  "metadata": {
    "date_backmatter": "2558-08-10",
    "date_modified": "2558-09-14",
    "date_original": "2558-09-14",
    "doctype": "ประกาศ",
    "editors": [
      {
        "name": "ปริยานุช",
        "role": "ผู้จัดทำ",
        "date": "2558-09-16"
      },
      {
        "name": "ปัญจพร",
        "role": "ผู้ตรวจ",
        "date": "2558-09-16"
      }
    ],
    "tag": "ca07-2e-2558-a0011"
  }
}