{
  "pages": [
    [
      [
        "ประกาศคณะกรรมการส่งเสริมการลงทุน",
        "ที่ ๗/๒๕๕๘",
        "เรื่อง มาตรการสนับสนุนการขยายกิจการของผู้ได้รับการส่งเสริมอยู่เดิม"
      ]
    ],
    []
  ],
  "metadata": {
    "date_backmatter": "2558-04-23",
    "date_modified": "2558-05-26",
    "date_original": "2558-05-26",
    "doctype": "ประกาศ",
    "editors": [
      {
        "name": "ปริยานุช",
        "role": "ผู้จัดทำ",
        "date": "2558-06-02"
      },
      {
        "name": "ปริญสินีย์",
        "role": "ผู้ตรวจ",
        "date": "2558-06-02"
      }
    ],
    "tag": "ca07-2e-2558-a0010"
  }
}