{
  "pages": [
    [
      [
        "ประกาศคณะกรรมการส่งเสริมการลงทุน",
        "ที่ ๓/๒๕๔๒",
        "เรื่อง การขยายระยะเวลาการให้การส่งเสริมแก่กิจการที่ประกอบการอยู่เดิม"
      ]
    ],
    []
  ],
  "metadata": {
    "date_backmatter": "2542-11-25",
    "date_gz_old": "2542-12-17",
    "doctype": "ประกาศ",
    "editors": [
      {
        "name": "อัมพิกา",
        "role": "แก้ไข",
        "date": "2545-05-20"
      }
    ],
    "tag": "ca07-2e-2542-a010"
  }
}