{
  "pages": [
    [
      [
        "ประกาศคณะกรรมการส่งเสริมการลงทุน",
        "ที่ ๔/๒๕๕๙",
        "เรื่อง แก้ไขเพิ่มเติมกิจการเป้าหมายในเขตพัฒนาเศรษฐกิจพิเศษจังหวัดหนองคาย"
      ]
    ],
    []
  ],
  "metadata": {
    "date_backmatter": "2559-01-10",
    "date_modified": "2559-02-12",
    "date_original": "2559-02-12",
    "doctype": "ประกาศ",
    "editors": [
      {
        "name": "วิศนี/ปริยานุช",
        "role": "จัดทำ",
        "date": "2559-03-02"
      },
      {
        "name": "นุสรา",
        "role": "ตรวจ",
        "date": "2559-05-03"
      }
    ],
    "tag": "ca07-2e-2559-a0016"
  }
}