{
  "pages": [
    [
      [
        "ประกาศคณะกรรมการส่งเสริมการลงทุน",
        "ที่ ๒/๒๕๔๓",
        "เรื่อง ประเภท ขนาด และเงื่อนไขของกิจการที่ให้การส่งเสริมการลงทุน"
      ]
    ],
    []
  ],
  "metadata": {
    "date_backmatter": "2543-08-01",
    "date_modified": "2546-11-14",
    "date_original": "2543-09-08",
    "doctype": "ประกาศ",
    "editors": [
      {
        "name": "นฤดล",
        "role": "ผู้จัดทำ",
        "date": "2552-04-22"
      }
    ],
    "tag": "ca07-2e-2546-a0019"
  }
}