{
  "pages": [
    [
      [
        "ประกาศคณะกรรมการส่งเสริมการลงทุน",
        "ที่ ๔/๒๕๖๐",
        "เรื่อง มาตรการส่งเสริมการลงทุนในพื้นที่ระเบียงเศรษฐกิจพิเศษภาคตะวันออก"
      ]
    ],
    []
  ],
  "metadata": {
    "date_backmatter": "2560-03-16",
    "date_modified": "2560-04-20",
    "date_original": "2560-04-20",
    "doctype": "ประกาศ",
    "editors": [
      {
        "name": "ชวัลพร/ภวรรณตรี",
        "role": "จัดทำ",
        "date": "2560-04-25"
      }
    ],
    "tag": "ca07-2e-2560-a0007"
  }
}