{
  "pages": [
    [
      [
        "ประกาศคณะกรรมการส่งเสริมการลงทุน",
        "ที่ ๑/๒๕๖๐",
        "เรื่อง การให้สิทธิและประโยชน์ยกเว้นอากรขาเข้าสำหรับของที่นำเข้ามาเพื่อใช้ในการวิจัยและพัฒนา"
      ]
    ],
    []
  ],
  "metadata": {
    "date_backmatter": "2560-03-14",
    "date_modified": "2560-04-20",
    "date_original": "2560-04-20",
    "doctype": "ประกาศ",
    "editors": [
      {
        "name": "ชวัลพร/ภวรรณตรี",
        "role": "จัดทำ",
        "date": "2560-04-25"
      }
    ],
    "tag": "ca07-2e-2560-a0004"
  }
}