{
  "pages": [
    [
      [
        "ประกาศสำนักงานคณะกรรมการส่งเสริมการลงทุน",
        "ที่ ป. ๓/๒๕๔๖",
        "เรื่อง โครงสร้างและการจัดหน่วยงาน อำนาจหน้าที่ วิธีการดำเนินงาน",
        "และสถานที่ติดต่อเพื่อขอรับข้อมูลข่าวสารของสำนักงาน",
        "คณะกรรมการส่งเสริมการลงทุน"
      ]
    ],
    []
  ],
  "metadata": {
    "date_backmatter": "2546-01-31",
    "date_gz_old": "2546-02-18",
    "doctype": "ประกาศ",
    "editors": [
      {
        "name": "จารุวรรณ",
        "role": "แก้ไข",
        "date": "2546-05-14"
      }
    ],
    "tag": "ca07-2e-2546-a0001"
  }
}