{
  "pages": [
    [
      [
        "ประกาศสำนักงานคณะกรรมการส่งเสริมการลงทุน",
        "ที่ ป. ๑๒/๒๕๔๓",
        "เรื่อง กำหนดขอบข่ายธุรกิจสำหรับการสนับสนุนการค้าและการลงทุน"
      ]
    ],
    []
  ],
  "metadata": {
    "date_backmatter": "2543-11-22",
    "date_modified": "2544-02-22",
    "date_original": "2544-02-22",
    "doctype": "ประกาศ",
    "editors": [],
    "tag": "ca07-2e-2544-a003"
  }
}