{
  "pages": [
    [
      [
        "ประกาศคณะกรรมการส่งเสริมการลงทุน",
        "ที่ ๗/๒๕๕๙",
        "เรื่อง การแก้ไขเพิ่มเติมบัญชีประเภทกิจการตามนโยบายส่งเสริมการลงทุน",
        "เขตพัฒนาเศรษฐกิจพิเศษในรูปแบบคลัสเตอร์"
      ]
    ],
    []
  ],
  "metadata": {
    "date_backmatter": "2559-04-11",
    "date_modified": "2559-06-06",
    "date_original": "2559-06-06",
    "doctype": "ประกาศ",
    "editors": [
      {
        "name": "ปริยานุช",
        "role": "จัดทำ",
        "date": "2559-06-09"
      },
      {
        "name": "ชวัลพร",
        "role": "ตรวจ",
        "date": "2559-06-29"
      }
    ],
    "tag": "ca07-2e-2559-a0020"
  }
}