{
  "pages": [
    [
      [
        "ประกาศสำนักงานคณะกรรมการส่งเสริมการลงทุน",
        "ที่ ป. ๕/๒๕๔๓",
        "เรื่อง เงื่อนไขและวิธีการสำหรับส่วนสูญเสียและเศษซาก",
        "ของวัตถุดิบตามมาตรา ๓๖ (๑)"
      ]
    ],
    []
  ],
  "metadata": {
    "date_backmatter": "2543-07-24",
    "date_gz_old": "2543-09-08",
    "doctype": "ประกาศ",
    "editors": [
      {
        "name": "ชไมพร",
        "role": "แก้ไข",
        "date": "2545-05-16"
      }
    ],
    "tag": "ca07-2e-2543-a007"
  }
}