{
  "pages": [
    [
      [
        "ประกาศคณะกรรมการส่งเสริมการลงทุน",
        "ที่ ส. ๙/๒๕๕๐",
        "เรื่อง การส่งเสริมกิจการประกอบรถจักรยานยนต์ขนาดใหญ่"
      ]
    ],
    []
  ],
  "metadata": {
    "date_backmatter": "2550-11-13",
    "date_modified": "2550-12-18",
    "date_original": "2550-12-18",
    "doctype": "ประกาศ",
    "editors": [
      {
        "name": "วัชศักดิ์",
        "role": "ผู้จัดทำ",
        "date": "2551-01-16"
      }
    ],
    "tag": "ca07-2e-2550-a0018"
  }
}