{
  "pages": [
    [
      [
        "ประกาศสำนักงานคณะกรรมการส่งเสริมการลงทุน",
        "ที่ ป. ๒/๒๕๔๔",
        "เรื่อง แก้ไขเพิ่มเติมคำจำกัดความของส่วนประกอบ อุปกรณ์",
        "อะไหล่ และสิ่งอื่น ๆ รวมทั้งวัตถุดิบและวัสดุจำเป็น"
      ]
    ],
    []
  ],
  "metadata": {
    "date_backmatter": "2544-03-29",
    "date_gz_old": "2544-05-08",
    "doctype": "ประกาศ",
    "editors": [
      {
        "name": null,
        "role": null,
        "date": "2544-07-19"
      },
      {
        "name": null,
        "role": null,
        "date": "2544-09-17"
      }
    ],
    "tag": "ca07-2e-2544-a008"
  }
}