{
  "pages": [
    [
      [
        "ระเบียบสำนักงานคณะกรรมการส่งเสริมการลงทุน",
        "ฉบับที่ 9/2535",
        "ว่าด้วย การพิจารณาเกี่ยวกับเครื่องจักรและอุปกรณ์"
      ]
    ],
    []
  ],
  "metadata": {
    "date_backmatter": "2535-05-04",
    "editors": [],
    "tag": "ca07-2g-2535-009"
  }
}