{
  "pages": [
    [
      [
        "ประกาศคณะกรรมการส่งเสริมการลงทุน",
        "ที่ ส. ๑/๒๕๔๘",
        "เรื่อง การให้การส่งเสริมกิจการธุรกิจรับจ้างบริหารระบบธุรกิจ",
        "(BUSINESS PROCESS OUTSOURCING - BPO)"
      ]
    ],
    []
  ],
  "metadata": {
    "date_backmatter": "2548-02-11",
    "date_modified": "2548-05-09",
    "date_original": "2548-05-09",
    "doctype": "ประกาศ",
    "editors": [
      {
        "name": "วชิระ",
        "role": "ตรวจ",
        "date": "2548-07-14"
      }
    ],
    "tag": "ca07-2e-2548-a0010"
  }
}