{
  "pages": [
    [
      [
        "ประกาศคณะกรรมการส่งเสริมการลงทุน",
        "ที่ ๑๐/๒๕๖๐",
        "เรื่อง มาตรการให้ได้รับสิทธิและประโยชน์เพิ่มเติม",
        "ตามประกาศคณะกรรมการส่งเสริมการลงทุน ที่ ๒/๒๕๕๗"
      ]
    ],
    []
  ],
  "metadata": {
    "date_backmatter": "2560-10-28",
    "date_modified": "2560-11-30",
    "date_original": "2560-11-30",
    "doctype": "ประกาศ",
    "editors": [
      {
        "name": "พิมพ์มาดา/อัญชลี",
        "role": "จัดทำ",
        "date": "2560-12-06"
      }
    ],
    "tag": "ca07-2e-2560-a0015"
  }
}