{
  "pages": [
    [
      [
        "พระราชบัญญัติ",
        "ส่งเสริมการลงทุน (ฉบับที่ ๓)",
        "พ.ศ. ๒๕๔๔",
        "",
        "",
        "ภูมิพลอดุลยเดช ป.ร.",
        "ให้ไว้ ณ วันที่ ๒๗ ตุลาคม พ.ศ. ๒๕๔๔",
        "เป็นปีที่ ๕๖ ในรัชกาลปัจจุบัน"
      ]
    ],
    []
  ],
  "metadata": {
    "date_header": "2544-10-27",
    "date_modified": "2544-11-30",
    "date_original": "2544-11-30",
    "doctype": "พระราชบัญญัติ",
    "editors": [
      {
        "name": "พรพิมล",
        "role": "แก้ไข",
        "date": "2545-03-11"
      },
      {
        "name": "วชิระ",
        "role": "ปรับปรุง",
        "date": "2552-05-18"
      }
    ],
    "tag": "ca07-20-2544-a0001",
    "title": "ส่งเสริมการลงทุน (ฉบับที่ ๓)"
  }
}