{
  "pages": [
    [
      [
        "พระราชบัญญัติ",
        "การกลับเป็นผู้ประกันตน",
        "พ.ศ. ๒๕๕๔",
        "",
        "",
        "ภูมิพลอดุลยเดช ป.ร.",
        "ให้ไว้ ณ วันที่ ๙ พฤษภาคม พ.ศ. ๒๕๕๔",
        "เป็นปีที่ ๖๖ ในรัชกาลปัจจุบัน"
      ]
    ],
    []
  ],
  "metadata": {
    "date_header": "2554-05-09",
    "date_modified": "2554-05-11",
    "date_original": "2554-05-11",
    "doctype": "พระราชบัญญัติ",
    "editors": [
      {
        "name": "ปริยานุช",
        "role": "ผู้จัดทำ",
        "date": "2554-05-18"
      },
      {
        "name": "ณัฐวดี",
        "role": "ตรวจ",
        "date": "2554-05-18"
      }
    ],
    "tag": "a1134-20-2554-a0001",
    "title": "การกลับเป็นผู้ประกันตน"
  }
}