{
  "pages": [
    [
      [
        "ประกาศกระทรวงพลังงาน",
        "เรื่อง กำหนดเขตระบบการขนส่งปิโตรเลียมทางท่อ",
        "ในท้องที่อำเภอเมืองราชบุรี จังหวัดราชบุรี"
      ]
    ],
    []
  ],
  "metadata": {
    "date_backmatter": "2549-06-02",
    "date_modified": "2549-07-17",
    "date_original": "2549-07-17",
    "doctype": "ประกาศ",
    "editors": [
      {
        "name": "นันทนา",
        "role": "ผู้จัดทำ",
        "date": "2549-07-26"
      }
    ],
    "tag": "b709-2e-2549-a0008"
  }
}