{
  "pages": [
    [
      [
        "พระราชกฤษฎีกา",
        "กำหนดอำนาจ สิทธิ และประโยชน์ของบริษัท ปตท. จำกัด (มหาชน)",
        "พ.ศ. ๒๕๔๔",
        "",
        "",
        "ภูมิพลอดุลยเดช ป.ร.",
        "ให้ไว้ ณ วันที่ ๓๐ กันยายน พ.ศ. ๒๕๔๔",
        "เป็นปีที่ ๕๖ ในรัชกาลปัจจุบัน"
      ]
    ],
    []
  ],
  "metadata": {
    "date_header": "2544-09-30",
    "date_modified": "2550-02-16",
    "date_original": "2544-09-30",
    "doctype": "พระราชกฤษฎีกา",
    "editors": [
      {
        "name": "นฤดล",
        "role": "ผู้จัดทำ",
        "date": "2551-10-20"
      }
    ],
    "tag": "b709-2a-9999-update",
    "title": "กำหนดอำนาจ สิทธิ และประโยชน์ของบริษัท ปตท. จำกัด (มหาชน)"
  }
}