{
  "pages": [
    [
      [
        "พระราชกฤษฎีกา",
        "กำหนดอำนาจ สิทธิ และประโยชน์",
        "ของบริษัทท่าอากาศยานไทย จำกัด (มหาชน)",
        "พ.ศ. ๒๕๔๕",
        "",
        "",
        "ภูมิพลอดุลยเดช ป.ร.",
        "ให้ไว้ ณ วันที่ ๓๐ กันยายน พ.ศ. ๒๕๔๕",
        "เป็นปีที่ ๕๗ ในรัชกาลปัจจุบัน"
      ]
    ],
    []
  ],
  "metadata": {
    "date_header": "2545-09-30",
    "date_modified": "2545-09-30",
    "date_original": "2545-09-30",
    "doctype": "พระราชกฤษฎีกา",
    "editors": [
      {
        "name": "เพ็ญพร/พิมพ์",
        "role": "แก้ไข",
        "date": "2545-12-02"
      },
      {
        "name": "ศิริยา",
        "role": "แก้ไข",
        "date": "2549-01-24"
      }
    ],
    "tag": "b709-2a-2545-a0003",
    "title": "กำหนดอำนาจ สิทธิ และประโยชน์ของบริษัทท่าอากาศยานไทย จำกัด (มหาชน)"
  }
}