{
  "pages": [
    [
      [
        "ประกาศกระทรวงการคลัง",
        "เรื่อง มติการประชุมสามัญผู้ถือหุ้นประจำปี ๒๕๕๓",
        "ของบริษัท กสท โทรคมนาคม จำกัด (มหาชน)"
      ]
    ],
    []
  ],
  "metadata": {
    "date_backmatter": "2553-06-30",
    "date_modified": "2553-08-18",
    "date_original": "2553-08-18",
    "doctype": "ประกาศ",
    "editors": [
      {
        "name": "ปริยานุช",
        "role": "ผู้จัดทำ",
        "date": "2553-08-23"
      },
      {
        "name": "นันทนภัสร์",
        "role": "ตรวจ",
        "date": "2553-08-23"
      }
    ],
    "tag": "b709-2e-2553-a0001"
  }
}