{
  "pages": [
    [
      [
        "ประกาศกระทรวงการคลัง",
        "เรื่อง มติการประชุมสามัญผู้ถือหุ้นประจำปี ๒๕๕๗",
        "ของบริษัท กสท โทรคมนาคม จำกัด (มหาชน)"
      ]
    ],
    []
  ],
  "metadata": {
    "date_backmatter": "2557-07-16",
    "date_modified": "2557-07-29",
    "date_original": "2557-07-29",
    "doctype": "ประกาศ",
    "editors": [
      {
        "name": "ปริยานุช",
        "role": "ผู้จัดทำ",
        "date": "2557-07-30"
      },
      {
        "name": "กฤษดายุทธ",
        "role": "ผู้ตรวจ",
        "date": "2557-07-30"
      }
    ],
    "tag": "b709-2e-2557-a0003"
  }
}