{
  "pages": [
    [
      [
        "ประกาศสำนักนายกรัฐมนตรี",
        "เรื่อง แต่งตั้งกรรมการนโยบายองค์การกระจายเสียงและแพร่ภาพสาธารณะแห่งประเทศไทย",
        "แทนตำแหน่งที่ว่าง"
      ]
    ],
    []
  ],
  "metadata": {
    "date_backmatter": "2553-11-12",
    "date_modified": null,
    "date_original": null,
    "doctype": "ประกาศ",
    "editors": [
      {
        "name": "นภาพร",
        "role": "ผู้จัดทำ",
        "date": "2556-05-27"
      },
      {
        "name": "วิชพงษ์",
        "role": "ผู้ตรวจ",
        "date": "2556-05-28"
      }
    ],
    "tag": "cd22-2e-2553-a0001"
  }
}