{
  "pages": [
    [
      [
        "ระเบียบสำนักงานคณะกรรมการสิทธิมนุษยชนแห่งชาติ",
        "ว่าด้วยข้อมูลข่าวสารของราชการ",
        "พ.ศ. ๒๕๕๕"
      ]
    ],
    []
  ],
  "metadata": {
    "date_backmatter": "2555-10-30",
    "date_modified": "2555-12-06",
    "date_original": "2555-12-06",
    "editors": [
      {
        "name": "ปริยานุช",
        "role": "ผู้จัดทำ",
        "date": "2555-12-11"
      },
      {
        "name": "ชาญ",
        "role": "ผู้ตรวจ",
        "date": "2555-12-14"
      }
    ],
    "tag": "a481-2g-2555-a0004"
  }
}