{
  "pages": [
    [
      [
        "พระราชบัญญัติ",
        "ความร่วมมือระหว่างประเทศในเรื่องทางอาญา",
        "พ.ศ. ๒๕๓๕",
        "",
        "",
        "ภูมิพลอดุลยเดช ป.ร.",
        "ให้ไว้ ณ วันที่ ๓๑ มีนาคม พ.ศ. ๒๕๓๕",
        "เป็นปีที่ ๔๗ ในรัชกาลปัจจุบัน"
      ]
    ],
    []
  ],
  "metadata": {
    "date_header": "2535-03-31",
    "date_modified": "2559-04-21",
    "date_original": "2535-04-07",
    "doctype": "พระราชบัญญัติ",
    "editors": [
      {
        "name": "ปัทมา",
        "role": "แก้ไข",
        "date": "2553-03-05"
      },
      {
        "name": "วศิน",
        "role": "ตรวจ",
        "date": "2553-03-05"
      },
      {
        "name": "ปณตภร",
        "role": "เพิ่มเติม",
        "date": "2556-03-22"
      },
      {
        "name": "วิศนี",
        "role": "เพิ่มเติม",
        "date": "2559-04-25"
      },
      {
        "name": "ปัญญา",
        "role": "ตรวจ",
        "date": "2558-04-27"
      }
    ],
    "tag": "a413-20-9999-update",
    "title": "ความร่วมมือระหว่างประเทศในเรื่องทางอาญา"
  }
}