{
  "pages": [
    [
      [
        "ประกาศกระทรวงเกษตราธิการ",
        "เรื่องแต่งตั้งเจ้าพนักงานสำหรับรักษาคลอง",
        "ตามพระราชบัญญัติรักษาคลอง รัตนโกสินทรศก ๑๒๑1"
      ]
    ],
    []
  ],
  "metadata": {
    "date_backmatter": "2485-10-12",
    "doctype": "ประกาศ",
    "editors": [],
    "tag": "c315-2e-2485-a0001"
  }
}