{
  "pages": [
    [
      [
        "กฎสำนักนายกรัฐมนตรี",
        "ออกตามความในพระราชบัญญัติเครื่องแบบข้าราชการ",
        "ฝ่ายพลเรือน พุทธศักราช ๒๔๗๘",
        "(ฉะบับที่ ๒๐)"
      ]
    ],
    []
  ],
  "metadata": {
    "date_backmatter": "2485-03-11",
    "date_gz_old": "2485-03-17",
    "editors": [],
    "tag": "a436-2b-2485-a0002"
  }
}