{
  "pages": [
    [
      [
        "กฎสำนักคณะรัฐมนตรี",
        "ฉบับที่ ๔๗ (พ.ศ. ๒๔๙๘)",
        "ออกตามความในพระราชบัญญัติเครื่องแบบ",
        "ข้าราชการฝ่ายพลเรือน พุทธศักราช ๒๔๗๘"
      ]
    ],
    []
  ],
  "metadata": {
    "date_backmatter": "2498-11-11",
    "date_gz_old": "2498-11-15",
    "editors": [],
    "tag": "a436-2b-2498-a0001"
  }
}