{
  "pages": [
    [
      [
        "กฎสำนักนายกรัฐมนตรี",
        "ว่าด้วยเครื่องแบบพิเศษสำหรับข้าราชการสำนักงานคณะกรรมการป้องกัน",
        "และปราบปรามยาเสพติด",
        "พ.ศ. ๒๕๕๖"
      ]
    ],
    []
  ],
  "metadata": {
    "date_backmatter": "2556-02-27",
    "date_modified": "2556-03-06",
    "date_original": "2556-03-06",
    "editors": [
      {
        "name": "ปริยานุช",
        "role": "ผู้จัดทำ",
        "date": "2556-03-12"
      },
      {
        "name": "ปณตภร",
        "role": "ผู้ตรวจ",
        "date": "2556-03-14"
      }
    ],
    "tag": "a436-2b-2556-a0001"
  }
}