{
  "pages": [
    [
      [
        "กฎสำนักนายกรัฐมนตรี",
        "ออกตามความในพระราชบัญญัติเครื่องแบบข้าราชการ",
        "ฝ่ายพลเรือน พุทธศักราช ๒๔๗๘",
        "(ฉบับที่ ๑๓)"
      ]
    ],
    []
  ],
  "metadata": {
    "date_backmatter": "2483-07-24",
    "date_gz_old": "2483-07-30",
    "editors": [],
    "tag": "a436-2b-2483-a0002"
  }
}