{
  "pages": [
    [
      [
        "กฎสำนักนายกรัฐมนตรี",
        "ว่าด้วยเครื่องแบบพิเศษสำหรับข้าราชการสำนักงานคณะกรรมการคุ้มครองผู้บริโภค",
        "พ.ศ. ๒๕๕๙"
      ]
    ],
    []
  ],
  "metadata": {
    "date_backmatter": "2559-09-15",
    "date_modified": "2559-09-21",
    "date_original": "2559-09-21",
    "editors": [
      {
        "name": "ชวัลพร/ปริยานุช",
        "role": "จัดทำ",
        "date": "2559-09-23"
      },
      {
        "name": "นุสรา",
        "role": "ตรวจ",
        "date": "2559-10-18"
      }
    ],
    "tag": "a436-2b-2559-a0003"
  }
}