{
  "pages": [
    [
      [
        "กฎสำนักนายกรัฐมนตรี",
        "ออกตามความในพระราชบัญญัติเครื่องแบบ",
        "ข้าราชการฝ่ายพลเรือน พุทธศักราช ๒๔๗๘",
        "(ฉบับที่ ๗)"
      ]
    ],
    []
  ],
  "metadata": {
    "date_backmatter": "2480-03-21",
    "date_gz_old": "2480-03-28",
    "editors": [],
    "tag": "a436-2b-2480-a0003"
  }
}