{
  "pages": [
    [
      [
        "กดสำนักนายกรัถมนตรี",
        "(ฉบับที่ ๓๓)",
        "ออกตามความไนพระราชบัญญัติเครื่องแบบข้าราชการ",
        "ฝ่ายพลเรือน พุทธสักราช ๒๔๗๘"
      ]
    ],
    []
  ],
  "metadata": {
    "date_gz_old": "2487-10-10",
    "editors": [],
    "tag": "a436-2b-2487-a0001"
  }
}