{
  "pages": [
    [
      [
        "กฎสำนักนายกรัฐมนตรี",
        "ฉบับที่ ๗๙ (พ.ศ.๒๕๓๕)",
        "ออกตามความในพระราชบัญญัติเครื่องแบบข้าราชการฝ่ายพลเรือน",
        "พุทธศักราช ๒๔๗๘"
      ]
    ],
    []
  ],
  "metadata": {
    "date_backmatter": "2535-04-08",
    "date_gz_old": "2535-04-17",
    "editors": [],
    "tag": "a436-2b-2535-a0001"
  }
}