{
  "pages": [
    [
      [
        "กฎสำนักนายกรัฐมนตรี",
        "ออกตามความในพระราชบัญญัติ",
        "เครื่องแบบข้าราชการฝ่ายพลเรือน พุทธศักราช ๒๔๗๘",
        "(ฉะบับที่ ๑๗)"
      ]
    ],
    []
  ],
  "metadata": {
    "date_backmatter": "2484-10-18",
    "editors": [],
    "tag": "a436-2b-2484-a0003"
  }
}