{
  "pages": [
    [
      [
        "กฎสำนักนายกรัฐมนตรี",
        "ฉบับที่ ๘๙ (พ.ศ. ๒๕๔๒)",
        "ออกตามความในพระราชบัญญัติเครื่องแบบข้าราชการฝ่ายพลเรือน พุทธศักราช ๒๔๗๘"
      ]
    ],
    []
  ],
  "metadata": {
    "date_backmatter": "2542-04-23",
    "date_gz_old": "2542-05-01",
    "editors": [],
    "tag": "a436-2b-2542-a0002"
  }
}