{
  "pages": [
    [
      [
        "ข้อบังคับคณะกรรมการวินิจฉัยชี้ขาดอำนาจหน้าที่ระหว่างศาล",
        "ว่าด้วยวิธีการเสนอเรื่อง การพิจารณาและวินิจฉัย",
        "พ.ศ. ๒๕๔๔"
      ]
    ],
    []
  ],
  "metadata": {
    "date_backmatter": "2544-09-11",
    "date_modified": "2548-07-12",
    "date_original": "2544-09-12",
    "editors": [
      {
        "name": "ภิรมย์พร",
        "role": "ผู้จัดทำ",
        "date": "2553-10-22"
      },
      {
        "name": "กวินทราดา",
        "role": "ผู้ตรวจ",
        "date": "2553-11-04"
      }
    ],
    "tag": "c755-2i-2548-a0002"
  }
}