{
  "pages": [
    [
      [
        "ประกาศองค์การขนส่งมวลชนกรุงเทพ",
        "เรื่อง การออกพันธบัตรองค์การขนส่งมวลชนกรุงเทพ",
        "พ.ศ. ๒๕๕๑ ครั้งที่ ๔"
      ]
    ],
    []
  ],
  "metadata": {
    "date_backmatter": "2551-04-03",
    "date_modified": "2551-04-25",
    "date_original": "2551-04-25",
    "doctype": "ประกาศ",
    "editors": [
      {
        "name": "วัชศักดิ์",
        "role": "ผู้จัดทำ",
        "date": "2551-04-28"
      },
      {
        "name": "ปิติวรรณ",
        "role": "ปรับปรุง",
        "date": "2561-07-31"
      }
    ],
    "tag": "c708-2e-2551-a0002"
  }
}