{
  "pages": [
    [
      [
        "ระเบียบองค์การอุตสาหกรรมป่าไม้",
        "ว่าด้วยการฝากเงินไว้กับธนาคาร พ.ศ. ๒๕๑๔"
      ]
    ],
    []
  ],
  "metadata": {
    "date_backmatter": "2514-10-16",
    "date_gz_old": "2514-11-02",
    "editors": [
      {
        "name": "จารุวรรณ",
        "role": "พิมพ์",
        "date": "2545-10-17"
      }
    ],
    "tag": "c708-2g-2514-a0001"
  }
}