{
  "pages": [
    [
      [
        "พระราชกฤษฎีกา",
        "ยกเลิกพระราชกฤษฎีกาจัดตั้ง",
        "องค์การพลังงานไฟฟ้าลิคไน้ท์ พ.ศ. ๒๔๙๗",
        "พ.ศ. ๒๕๐๓",
        "",
        "",
        "ในพระปรมาภิไธย",
        "พระบาทสมเด็จพระปรมินทรมหาภูมิพลอดุลยเดช",
        "สังวาลย์",
        "ผู้สำเร็จราชการแทนพระองค์",
        "ให้ไว้ ณ วันที่ ๖ ธันวาคม พ.ศ. ๒๕๐๓",
        "เป็นปีที่ ๑๕ ในรัชกาลปัจจุบัน"
      ]
    ],
    []
  ],
  "metadata": {
    "date_header": "2503-12-06",
    "date_modified": "2503-12-13",
    "date_original": "2503-12-13",
    "doctype": "พระราชกฤษฎีกา",
    "editors": [
      {
        "name": "ปิติวรรณ",
        "role": "ปรับปรุง",
        "date": "2561-07-16"
      }
    ],
    "tag": "c708-2a-2503-a004",
    "title": "ยกเลิกพระราชกฤษฎีกาจัดตั้งองค์การพลังงานไฟฟ้าลิคไน้ท์ พ.ศ. ๒๔๙๗"
  }
}