{
  "pages": [
    [
      [
        "ประกาศของคณะปฏิวัติ",
        "ฉบับที่ ๑๘๗"
      ]
    ],
    []
  ],
  "metadata": {
    "date_backmatter": "2545-01-29",
    "doctype": "ประกาศ",
    "editors": [],
    "tag": "c708-2a-2515-a0002"
  }
}