{
  "pages": [
    [
      [
        "พระราชกฤษฎีกา",
        "จัดตั้งองค์การส่งเสริมกิจการโคนมแห่งประเทศไทย",
        "พ.ศ. ๒๕๑๔",
        "",
        "",
        "ภูมิพลอดุลยเดช ป.ร.",
        "ให้ไว้ ณ วันที่ ๓๑ สิงหาคม พ.ศ. ๒๕๑๔",
        "เป็นปีที่ ๒๖ ในรัชกาลปัจจุบัน"
      ]
    ],
    []
  ],
  "metadata": {
    "date_header": "2514-08-31",
    "date_modified": "2552-06-29",
    "date_original": "2514-09-06",
    "doctype": "พระราชกฤษฎีกา",
    "editors": [
      {
        "name": "จุฑามาศ",
        "role": "ปรับปรุง",
        "date": "2559-11-02"
      }
    ],
    "tag": "c708-2a-9990-update",
    "title": "จัดตั้งองค์การส่งเสริมกิจการโคนมแห่งประเทศไทย"
  }
}