{
  "pages": [
    [
      [
        "พระราชกฤษฎีกา",
        "จัดตั้งองค์การพลังงานไฟฟ้าภาคใต้",
        "พ.ศ. ๒๔๙๗",
        "",
        "",
        "ภูมิพลอดุลยเดช ป.ร.",
        "ให้ไว้ ณ วันที่ ๑ พฤษภาคม พ.ศ. ๒๔๙๗",
        "เป็นปีที่ ๙ ในรัชกาลปัจจุบัน"
      ]
    ],
    []
  ],
  "metadata": {
    "date_header": "2497-05-01",
    "date_modified": "2497-05-11",
    "date_original": "2497-05-11",
    "doctype": "พระราชกฤษฎีกา",
    "editors": [
      {
        "name": "ปิติวรรณ",
        "role": "ปรับปรุง",
        "date": "2561-07-16"
      }
    ],
    "tag": "c708-2a-2497-a002",
    "title": "จัดตั้งองค์การพลังงานไฟฟ้าภาคใต้"
  }
}