{
  "pages": [
    [
      [
        "พระราชกฤษฎีกา",
        "จัดตั้งองค์การสวนสัตว์",
        "พ.ศ. ๒๔๙๗",
        "",
        "",
        "ภูมิพลอดุลยเดช ป.ร.",
        "ให้ไว้ ณ วันที่ ๑๕ กุมภาพันธ์ พ.ศ. ๒๔๙๗",
        "เป็นปีที่ ๙ ในรัชกาลปัจจุบัน"
      ]
    ],
    []
  ],
  "metadata": {
    "date_header": "2497-02-15",
    "doctype": "พระราชกฤษฎีกา",
    "editors": [
      {
        "name": "ปิติวรรณ",
        "role": "ปรับปรุง",
        "date": "2561-07-16"
      }
    ],
    "tag": "c708-2a-2497-a006",
    "title": "จัดตั้งองค์การสวนสัตว์"
  }
}