{
  "pages": [
    [
      [
        "ข้อบังคับองค์การจัดการน้ำเสีย",
        "ฉบับที่ ๖๐",
        "ว่าด้วยการพัสดุ พ.ศ. ๒๕๕๐",
        "(แก้ไขเพิ่มเติม ครั้งที่ ๑)",
        "พ.ศ. ๒๕๕๕"
      ]
    ],
    []
  ],
  "metadata": {
    "date_backmatter": "2555-07-09",
    "date_modified": "2555-10-10",
    "date_original": "2555-10-10",
    "editors": [
      {
        "name": "ปริยานุช",
        "role": "ผู้จัดทำ",
        "date": "2555-10-12"
      },
      {
        "name": "ปณตภร",
        "role": "ผู้ตรวจ",
        "date": "2555-10-26"
      }
    ],
    "tag": "c708-2i-2555-a0001"
  }
}