{
  "pages": [
    [
      [
        "พระราชกฤษฎีกา",
        "ยุบเลิกองค์การผลิตอาหารสำเร็จรูป",
        "พ.ศ. ๒๕๔๑",
        "",
        "",
        "ภูมิพลอดุลยเดช ป.ร.",
        "ให้ไว้ ณ วันที่ ๕ ตุลาคม พ.ศ. ๒๕๔๑",
        "เป็นปีที่ ๕๓ ในรัชกาลปัจจุบัน"
      ]
    ],
    []
  ],
  "metadata": {
    "date_header": "2541-10-05",
    "date_modified": "2541-10-13",
    "date_original": "2541-10-13",
    "doctype": "พระราชกฤษฎีกา",
    "editors": [
      {
        "name": "ปิติวรรณ",
        "role": "ปรับปรุง",
        "date": "2561-07-23"
      }
    ],
    "tag": "c708-2a-2541-a0001",
    "title": "ยุบเลิกองค์การผลิตอาหารสำเร็จรูป"
  }
}