{
  "pages": [
    [
      [
        "พระราชกฤษฎีกา",
        "จัดตั้งสถาบันการบินพลเรือน (ฉบับที่ ๒)",
        "พ.ศ. ๒๕๔๐",
        "",
        "",
        "ภูมิพลอดุลยเดช ป.ร.",
        "ให้ไว้ ณ วันที่ ๑๕ กันยายน พ.ศ. ๒๕๔๐",
        "เป็นปีที่ ๕๒ ในรัชกาลปัจจุบัน"
      ]
    ],
    []
  ],
  "metadata": {
    "date_header": "2540-09-15",
    "date_modified": "2540-09-26",
    "date_original": "2540-09-26",
    "doctype": "พระราชกฤษฎีกา",
    "editors": [
      {
        "name": "ปิติวรรณ",
        "role": "ปรับปรุง",
        "date": "2561-07-23"
      }
    ],
    "tag": "c708-2a-2540-02",
    "title": "จัดตั้งสถาบันการบินพลเรือน (ฉบับที่ ๒)"
  }
}