{
  "pages": [
    [
      [
        "พระราชกฤษฎีกา",
        "จัดตั้งองค์การพิพิธภัณฑ์วิทยาศาสตร์แห่งชาติ",
        "พ.ศ. ๒๕๓๘",
        "",
        "",
        "ภูมิพลอดุลยเดช ป.ร.",
        "ให้ไว้ ณ วันที่ ๑๗ มกราคม พ.ศ. ๒๕๓๘",
        "เป็นปีที่ ๕๐ ในรัชกาลปัจจุบัน"
      ]
    ],
    []
  ],
  "metadata": {
    "date_header": "2538-01-17",
    "date_modified": "2545-10-08",
    "date_original": "2538-01-30",
    "doctype": "พระราชกฤษฎีกา",
    "editors": [
      {
        "name": "ปิติวรรณ",
        "role": "ปรับปรุง",
        "date": "2561-07-23"
      }
    ],
    "tag": "c708-2a-2545-a0003",
    "title": "จัดตั้งองค์การพิพิธภัณฑ์วิทยาศาสตร์แห่งชาติ"
  }
}