{
  "pages": [
    [
      [
        "ประกาศองค์การขนส่งมวลชนกรุงเทพ",
        "เรื่อง การออกพันธบัตรองค์การขนส่งมวลชนกรุงเทพ พ.ศ. ๒๕๕๖",
        "ครั้งที่ ๔"
      ]
    ],
    []
  ],
  "metadata": {
    "date_backmatter": "2556-03-22",
    "date_modified": "2556-04-11",
    "date_original": "2556-04-11",
    "doctype": "ประกาศ",
    "editors": [
      {
        "name": "ปริยานุช",
        "role": "ผู้จัดทำ",
        "date": "2556-04-17"
      },
      {
        "name": "อุษมล",
        "role": "ผู้ตรวจ",
        "date": "2556-04-19"
      }
    ],
    "tag": "c708-2e-2556-a0009"
  }
}