{
  "pages": [
    [
      [
        "ประกาศกระทรวงทรัพยากรธรรมชาติและสิ่งแวดล้อม",
        "เรื่อง ข้อบังคับองค์การอุตสาหกรรมป่าไม้ว่าด้วยการจัดหาเพื่อการพาณิชย์",
        "พ.ศ. ๒๕๖๑"
      ]
    ],
    []
  ],
  "metadata": {
    "date_backmatter": "2561-06-07",
    "date_modified": "2561-06-08",
    "date_original": "2561-06-08",
    "doctype": "ประกาศ",
    "editors": [
      {
        "name": "ปวันวิทย์",
        "role": "จัดทำ",
        "date": "2561-07-02"
      }
    ],
    "tag": "c708-2e-2561-a0002"
  }
}