{
  "pages": [
    [
      [
        "ประกาศองค์การขนส่งมวลชนกรุงเทพ",
        "เรื่อง การออกพันธบัตรองค์การขนส่งมวลชนกรุงเทพ พ.ศ. ๒๕๕๗",
        "ครั้งที่ ๑๐"
      ]
    ],
    []
  ],
  "metadata": {
    "date_backmatter": "2557-04-28",
    "date_modified": "2557-05-16",
    "date_original": "2557-05-16",
    "doctype": "ประกาศ",
    "editors": [
      {
        "name": "ปริยานุช",
        "role": "ผู้จัดทำ",
        "date": "2557-05-26"
      },
      {
        "name": "จุฑามาศ",
        "role": "ผู้ตรวจ",
        "date": "2557-06-03"
      }
    ],
    "tag": "c708-2e-2557-a0008"
  }
}