{
  "pages": [
    [
      [
        "ข้อบังคับองค์การสื่อสารมวลชนแห่งประเทศไทย",
        "ฉบับที่ ๘๑",
        "ว่าด้วย การพัสดุ"
      ]
    ],
    []
  ],
  "metadata": {
    "date_backmatter": "2541-05-18",
    "date_modified": "2541-10-20",
    "date_original": "2541-10-20",
    "editors": [
      {
        "name": "พรพิมล",
        "role": "พิมพ์",
        "date": "2545-07-22"
      },
      {
        "name": "",
        "role": "แก้ไข",
        "date": "2545-07-22"
      },
      {
        "name": "ปิติวรรณ",
        "role": "ปรับปรุง",
        "date": "2561-08-09"
      }
    ],
    "tag": "c708-2i-2541-a002"
  }
}