{
  "pages": [
    [
      [
        "พระราชกฤษฎีกา",
        "จัดตั้งองค์การคลังสินค้า (ฉบับที่ ๗)",
        "พ.ศ. ๒๕๔๐",
        "",
        "",
        "ภูมิพลอดุลยเดช ป.ร.",
        "ให้ไว้ ณ วันที่ ๑๗ กุมภาพันธ์ พ.ศ. ๒๕๓๕",
        "เป็นปีที่ ๕๒ ในรัชกาลปัจจุบัน"
      ]
    ],
    []
  ],
  "metadata": {
    "date_header": "2535-02-17",
    "date_modified": "2540-03-07",
    "date_original": "2540-03-07",
    "doctype": "พระราชกฤษฎีกา",
    "editors": [
      {
        "name": "ปิติวรรณ",
        "role": "ปรับปรุง",
        "date": "2561-07-23"
      }
    ],
    "tag": "c708-2a-2540-a0001",
    "title": "จัดตั้งองค์การคลังสินค้า (ฉบับที่ ๗)"
  }
}