{
  "pages": [
    [
      [
        "ประกาศองค์การขนส่งมวลชนกรุงเทพ",
        "เรื่อง การออกพันธบัตรองค์การขนส่งมวลชนกรุงเทพ",
        "พ.ศ. ๒๕๕๑ ครั้งที่ ๑"
      ]
    ],
    []
  ],
  "metadata": {
    "date_backmatter": "2550-10-17",
    "date_modified": "2550-10-30",
    "date_original": "2550-10-30",
    "doctype": "ประกาศ",
    "editors": [
      {
        "name": "วัชศักดิ์",
        "role": "ผู้จัดทำ",
        "date": "2550-11-06"
      },
      {
        "name": "ปิติวรรณ",
        "role": "ปรับปรุง",
        "date": "2561-07-26"
      }
    ],
    "tag": "c708-2e-2550-a0010"
  }
}