{
  "pages": [
    [
      [
        "พระราชกฤษฎีกา",
        "จัดตั้งองค์การขนส่งมวลชนกรุงเทพ",
        "พ.ศ. ๒๕๑๙",
        "",
        "",
        "ภูมิพลอดุลยเดช ป.ร.",
        "ให้ไว้ ณ วันที่ ๑๘ สิงหาคม พ.ศ. ๒๕๑๙",
        "เป็นปีที่ ๓๑ ในรัชกาลปัจจุบัน"
      ]
    ],
    []
  ],
  "metadata": {
    "date_header": "2519-08-18",
    "date_modified": "2519-08-20",
    "date_original": "2519-08-20",
    "doctype": "พระราชกฤษฎีกา",
    "editors": [
      {
        "name": "ปิติวรรณ",
        "role": "ปรับปรุง",
        "date": "2561-07-18"
      }
    ],
    "tag": "c708-2a-2519-001",
    "title": "จัดตั้งองค์การขนส่งมวลชนกรุงเทพ"
  }
}