{
  "pages": [
    [
      [
        "ประกาศองค์การขนส่งมวลชนกรุงเทพ",
        "เรื่อง การออกพันธบัตรองค์การขนส่งมวลชนกรุงเทพ",
        "พ.ศ. ๒๕๕๐ ครั้งที่ ๑๑"
      ]
    ],
    []
  ],
  "metadata": {
    "date_backmatter": "2550-06-11",
    "date_modified": "2550-07-02",
    "date_original": "2550-07-02",
    "doctype": "ประกาศ",
    "editors": [
      {
        "name": "โสรศ",
        "role": "ผู้จัดทำ",
        "date": "2550-07-09"
      },
      {
        "name": "ปิติวรรณ",
        "role": "ปรับปรุง",
        "date": "2561-07-26"
      }
    ],
    "tag": "c708-2e-2550-a0009"
  }
}