{
  "pages": [
    [
      [
        "ข้อบังคับองค์การขนส่งมวลชนกรุงเทพ",
        "ฉบับที่ ๓",
        "ว่าด้วยการจ้าง"
      ]
    ],
    []
  ],
  "metadata": {
    "date_backmatter": "2519-11-10",
    "date_modified": "2520-02-22",
    "date_original": "2520-02-22",
    "editors": [
      {
        "name": "พรพิมล",
        "role": "พิมพ์",
        "date": "2545-10-22"
      },
      {
        "name": "",
        "role": "แก้ไข",
        "date": "2545-10-22"
      },
      {
        "name": "ปิติวรรณ",
        "role": "ปรับปรุง",
        "date": "2561-08-02"
      }
    ],
    "tag": "c708-2i-2520-a007"
  }
}