{
  "pages": [
    [
      [
        "ระเบียบคณะกรรมการสิทธิมนุษยชนแห่งชาติ",
        "ว่าด้วยหลักเกณฑ์และวิธีการขึ้นทะเบียนผู้ทรงคุณวุฒิ",
        "พ.ศ. ๒๕๖๑"
      ]
    ],
    []
  ],
  "metadata": {
    "date_backmatter": "2561-05-23",
    "date_modified": "2561-06-15",
    "date_original": "2561-06-15",
    "editors": [
      {
        "name": "วิวรรธน์",
        "role": "จัดทำ",
        "date": "2561-06-20"
      }
    ],
    "tag": "bb55-2g-2561-a0017"
  }
}