{
  "pages": [
    [
      [
        "ระเบียบคณะกรรมการสิทธิมนุษยชนแห่งชาติ",
        "ว่าด้วยลูกจ้างสำนักงานคณะกรรมการสิทธิมนุษยชนแห่งชาติ",
        "พ.ศ. ๒๕๖๑"
      ]
    ],
    []
  ],
  "metadata": {
    "date_backmatter": "2561-08-07",
    "date_modified": "2561-08-31",
    "date_original": "2561-08-31",
    "editors": [
      {
        "name": "ปวันวิทย์",
        "role": "จัดทำ",
        "date": "2561-10-01"
      }
    ],
    "tag": "bb55-2g-2561-a0020"
  }
}