{
  "pages": [
    [
      [
        "ระเบียบคณะกรรมการสรรหากรรมการสิทธิมนุษยชนแห่งชาติ",
        "ว่าด้วยหลักเกณฑ์และวิธีการพิจารณาวินิจฉัยเกี่ยวกับคุณสมบัติหรือลักษณะต้องห้าม",
        "ของผู้สมัครเข้ารับการสรรหาเป็นผู้สมควรได้รับการแต่งตั้งเป็นกรรมการสิทธิมนุษยชนแห่งชาติ",
        "พ.ศ. ๒๕๖๑"
      ]
    ],
    []
  ],
  "metadata": {
    "date_backmatter": "2561-06-04",
    "date_modified": "2561-06-05",
    "date_original": "2561-06-05",
    "editors": [
      {
        "name": "ปวันวิทย์",
        "role": "จัดทำ",
        "date": "2561-07-02"
      }
    ],
    "tag": "bb55-2g-2561-a0016"
  }
}