{
  "pages": [
    [
      [
        "ประกาศกระทรวงเกษตรและสหกรณ์และกระทรวงมหาดไทย",
        "เรื่อง กำหนดให้ท้องที่ตำบลพระธาตุบังพวน อำเภอเมืองหนองคาย จังหวัดหนองคาย",
        "เป็นเขตสำรวจเพื่อกำหนดเป็นเขตโครงการจัดรูปที่ดิน",
        "ตามพระราชบัญญัติจัดรูปที่ดินเพื่อเกษตรกรรม พ.ศ. ๒๕๑๗",
        "พ.ศ. ๒๕๕๒"
      ]
    ],
    []
  ],
  "metadata": {
    "date_backmatter": "2552-06-17",
    "date_modified": "2552-08-21",
    "date_original": "2552-08-21",
    "doctype": "ประกาศ",
    "editors": [
      {
        "name": "ปริยานุช",
        "role": "จัดทำ",
        "date": "2552-08-31"
      },
      {
        "name": "ศิรวัชร์",
        "role": "ปรับปรุง",
        "date": "2560-07-27"
      }
    ],
    "tag": "a815-2e-2552-a0008"
  }
}