{
  "pages": [
    [
      [
        "พระราชกฤษฎีกา",
        "กำหนดเขตที่ดิน ในท้องที่ตำบลหนองนาง อำเภอท่าบ่อ จังหวัดหนองคาย",
        "ให้เป็นเขตโครงการจัดรูปที่ดิน",
        "พ.ศ. ๒๕๔๖",
        "",
        "",
        "ภูมิพลอดุลยเดช ป.ร.",
        "ให้ไว้ ณ วันที่ ๑๓ พฤศจิกายน พ.ศ. ๒๕๔๖",
        "เป็นปีที่ ๕๘ ในรัชกาลปัจจุบัน"
      ]
    ],
    []
  ],
  "metadata": {
    "date_header": "2546-11-13",
    "date_modified": "2546-11-24",
    "date_original": "2546-11-24",
    "doctype": "พระราชกฤษฎีกา",
    "editors": [
      {
        "name": "ศิรวัชร์",
        "role": "จัดทำ",
        "date": "2560-07-12"
      }
    ],
    "tag": "a815-2a-2546-a0004",
    "title": "กำหนดเขตที่ดิน ในท้องที่ตำบลหนองนาง อำเภอท่าบ่อ จังหวัดหนองคายให้เป็นเขตโครงการจัดรูปที่ดิน"
  }
}