{
  "pages": [
    [
      [
        "พระราชกฤษฎีกา",
        "กำหนดเขตที่ดินในท้องที่ตำบลกำแพงดิน ตำบลสามง่าม",
        "และตำบลรังนก อำเภอสามง่าม จังหวัดพิจิตร",
        "ให้เป็นเขตโครงการจัดรูปที่ดิน",
        "พ.ศ. ๒๕๒๕",
        "",
        "",
        "ภูมิพลอดุลยเดช ป.ร.",
        "ให้ไว้ ณ วันที่ ๑๙ มีนาคม พ.ศ. ๒๕๒๕",
        "เป็นปีที่ ๓๗ ในรัชกาลปัจจุบัน"
      ]
    ],
    []
  ],
  "metadata": {
    "date_header": "2525-03-19",
    "date_modified": "2525-04-03",
    "date_original": "2525-04-03",
    "doctype": "พระราชกฤษฎีกา",
    "editors": [
      {
        "name": "ศิรวัชร์",
        "role": "จัดทำ",
        "date": "2560-06-08"
      }
    ],
    "tag": "a815-2a-2525-a0001",
    "title": "กำหนดเขตที่ดินในท้องที่ตำบลกำแพงดิน ตำบลสามง่ามและตำบลรังนก อำเภอสามง่าม จังหวัดพิจิตรให้เป็นเขตโครงการจัดรูปที่ดิน"
  }
}