{
  "pages": [
    [
      [
        "พระราชกฤษฎีกา",
        "กำหนดเขตที่ดิน ในท้องที่ตำบลสามชุก ตำบลหนองผักนาก",
        "ตำบลบ้านสระ และตำบลย่านยาว อำเภอสามชุก",
        "จังหวัดสุพรรณบุรี ให้เป็นเขตโครงการจัดรูปที่ดิน",
        "พ.ศ. ๒๕๒๑",
        "",
        "",
        "ภูมิพลอดุลยเดช ป.ร.",
        "ให้ไว้ ณ วันที่ ๒๕ เมษายน พ.ศ. ๒๕๒๑",
        "เป็นปีที่ ๓๓ ในรัชกาลปัจจุบัน"
      ]
    ],
    []
  ],
  "metadata": {
    "date_header": "2521-04-25",
    "date_modified": "2521-05-25",
    "date_original": "2521-05-25",
    "doctype": "พระราชกฤษฎีกา",
    "editors": [
      {
        "name": "ศิรวัชร์",
        "role": "จัดทำ",
        "date": "2560-05-18"
      }
    ],
    "tag": "a815-2a-2521-a018",
    "title": "กำหนดเขตที่ดิน ในท้องที่ตำบลสามชุก ตำบลหนองผักนากตำบลบ้านสระ และตำบลย่านยาว อำเภอสามชุกจังหวัดสุพรรณบุรี ให้เป็นเขตโครงการจัดรูปที่ดิน"
  }
}