{
  "pages": [
    [
      [
        "พระราชกฤษฎีกา",
        "กำหนดเขตที่ดินในท้องที่ตำบลบ้านแลง อำเภอเมืองลำปาง",
        "จังหวัดลำปาง ให้เป็นเขตโครงการจัดรูปที่ดิน",
        "พ.ศ. ๒๕๒๑",
        "",
        "",
        "ภูมิพลอดุลยเดช ป.ร.",
        "ให้ไว้ ณ วันที่ ๕ กันยายน พ.ศ. ๒๕๒๑",
        "เป็นปีที่ ๓๓ ในรัชกาลปัจจุบัน"
      ]
    ],
    []
  ],
  "metadata": {
    "date_header": "2521-09-05",
    "date_modified": "2521-09-21",
    "date_original": "2521-09-21",
    "doctype": "พระราชกฤษฎีกา",
    "editors": [
      {
        "name": "ศิรวัชร์",
        "role": "จัดทำ",
        "date": "2560-05-31"
      }
    ],
    "tag": "a815-2a-2521-a003",
    "title": "กำหนดเขตที่ดินในท้องที่ตำบลบ้านแลง อำเภอเมืองลำปางจังหวัดลำปาง ให้เป็นเขตโครงการจัดรูปที่ดิน"
  }
}