{
  "pages": [
    [
      [
        "ระเบียบคณะกรรมการจัดรูปที่ดินกลาง",
        "ว่าด้วยหลักเกณฑ์การพิจารณาอนุญาตให้โอนสิทธิในที่ดิน",
        "ที่ได้รับหนังสือแสดงสิทธิในที่ดิน ในเขตโครงการจัดรูปที่ดิน",
        "ตามมาตรา ๔๔ แห่งพระราชบัญญัติจัดรูปที่ดินเพื่อเกษตรกรรม พ.ศ. ๒๕๑๗",
        "(ฉบับที่ ๓)",
        "พ.ศ. ๒๕๔๘"
      ]
    ],
    []
  ],
  "metadata": {
    "date_backmatter": "2548-03-07",
    "date_modified": "2548-06-02",
    "date_original": "2548-06-02",
    "editors": [
      {
        "name": "ศิรวัชร์",
        "role": "ปรับปรุง",
        "date": "2560-07-31"
      }
    ],
    "tag": "a815-2g-2548-a0001"
  }
}