{
  "pages": [
    [
      [
        "ประกาศกระทรวงเกษตรและสหกรณ์",
        "และกระทรวงมหาดไทย",
        "เรื่อง กำหนดให้ท้องที่ตำบลม่วงค่อม อำเภอชัยบาดาล จังหวัดลพบุรี",
        "เป็นเขตสำรวจเพื่อกำหนดเป็นเขตโครงการจัดรูปที่ดิน",
        "ตามพระราชบัญญัติจัดรูปที่ดินเพื่อเกษตรกรรม พ.ศ. ๒๕๑๗",
        "พ.ศ. ๒๕๔๑"
      ]
    ],
    []
  ],
  "metadata": {
    "date_backmatter": "2541-12-21",
    "date_modified": "2542-08-05",
    "date_original": "2542-08-05",
    "doctype": "ประกาศ",
    "editors": [
      {
        "name": "พรพิมล/พิมพ์",
        "role": "แก้ไข",
        "date": "2545-05-24"
      },
      {
        "name": "ศิรวัชร์",
        "role": "ปรับปรุง",
        "date": "2560-07-21"
      }
    ],
    "tag": "a815-2e-2542-a002"
  }
}