{
  "pages": [
    [
      [
        "พระราชกฤษฎีกา",
        "กำหนดเขตที่ดิน ในท้องที่ตำบลรางสาลี่",
        "อำเภอท่าม่วง จังหวัดกาญจนบุรี",
        "ให้เป็นเขตโครงการจัดรูปที่ดิน",
        "พ.ศ. ๒๕๕๕",
        "",
        "",
        "ภูมิพลอดุลยเดช ป.ร.",
        "ให้ไว้ ณ วันที่ ๒๘ พฤศจิกายน พ.ศ. ๒๕๕๕",
        "เป็นปีที่ ๖๗ ในรัชกาลปัจจุบัน"
      ]
    ],
    []
  ],
  "metadata": {
    "date_header": "2555-11-28",
    "date_modified": "2555-12-14",
    "date_original": "2555-12-14",
    "doctype": "พระราชกฤษฎีกา",
    "editors": [
      {
        "name": "ปริยานุช",
        "role": "ผู้จัดทำ",
        "date": "2555-12-18"
      },
      {
        "name": "ปณตภร",
        "role": "ผู้ตรวจ",
        "date": "2555-12-21"
      }
    ],
    "tag": "a815-2a-2555-a0006",
    "title": "กำหนดเขตที่ดิน ในท้องที่ตำบลรางสาลี่อำเภอท่าม่วง จังหวัดกาญจนบุรีให้เป็นเขตโครงการจัดรูปที่ดิน"
  }
}