{
  "pages": [
    [
      [
        "พระราชกฤษฎีกา",
        "กำหนดเขตที่ดินในท้องที่ตำบลวังยาง อำเภอพรรณานิคม",
        "จังหวัดสกลนคร ให้เป็นเขตโครงการจัดรูปที่ดิน",
        "พ.ศ. ๒๕๒๒",
        "",
        "",
        "ภูมิพลอดุลยเดช ป.ร.",
        "ให้ไว้ ณ วันที่ ๓๐ เมษายน พ.ศ. ๒๕๒๒",
        "เป็นปีที่ ๓๔ ในรัชกาลปัจจุบัน"
      ]
    ],
    []
  ],
  "metadata": {
    "date_header": "2522-04-30",
    "date_modified": "2523-07-16",
    "date_original": "2522-05-11",
    "doctype": "พระราชกฤษฎีกา",
    "editors": [],
    "tag": "a815-2a-9998-update",
    "title": "กำหนดเขตที่ดินในท้องที่ตำบลวังยาง อำเภอพรรณานิคมจังหวัดสกลนคร ให้เป็นเขตโครงการจัดรูปที่ดิน"
  }
}