{
  "pages": [
    [
      [
        "พระราชกฤษฎีกา",
        "กำหนดเขตที่ดินในท้องที่ตำบลตาคลี ตำบลหนองหม้อ",
        "และตำบลสร้อยทอง อำเภอตาคลี จังหวัดนครสวรรค์",
        "ให้เป็นเขตโครงการจัดรูปที่ดิน",
        "พ.ศ. ๒๕๒๓",
        "",
        "",
        "ภูมิพลอดุลยเดช ป.ร.",
        "ให้ไว้ ณ วันที่ ๒๔ ธันวาคม พ.ศ. ๒๕๒๓",
        "เป็นปีที่ ๓๕ ในรัชกาลปัจจุบัน"
      ]
    ],
    []
  ],
  "metadata": {
    "date_header": "2523-12-24",
    "date_modified": "2523-12-31",
    "date_original": "2523-12-31",
    "doctype": "พระราชกฤษฎีกา",
    "editors": [
      {
        "name": "ศิรวัชร์",
        "role": "จัดทำ",
        "date": "2560-06-05"
      }
    ],
    "tag": "a815-2a-2523-a008",
    "title": "กำหนดเขตที่ดินในท้องที่ตำบลตาคลี ตำบลหนองหม้อและตำบลสร้อยทอง อำเภอตาคลี จังหวัดนครสวรรค์ให้เป็นเขตโครงการจัดรูปที่ดิน"
  }
}