{
  "pages": [
    [
      [
        "ประกาศคณะกรรมการจัดรูปที่ดินจังหวัดสกลนคร",
        "ที่ ๒/๒๕๓๕",
        "เรื่อง การจัดให้ที่ดินซึ่งถูกถอนสภาพจากการเป็นสาธารณสมบัติของแผ่นดิน",
        "สำหรับพลเมืองใช้ร่วมกันในท้องที่ตำบลไฮหย่อง อำเภอพังโคน",
        "จังหวัดสกลนคร ตามพระราชกฤษฎีกากำหนดเขตที่ดินในท้องที่ตำบล",
        "ไฮหย่อง ตำบลพังโคน และตำบลแร่ อำเภอพังโคน จังหวัดสกลนคร",
        "ให้เป็นเขตโครงการจัดรูปที่ดิน พ.ศ. ๒๕๒๗ คงเป็นที่ดินอันเป็น",
        "สาธารณสมบัติของแผ่นดินสำหรับพลเมืองใช้ร่วมกัน ต่อไป"
      ]
    ],
    []
  ],
  "metadata": {
    "date_backmatter": "2535-07-31",
    "date_modified": "2535-11-10",
    "date_original": "2535-11-10",
    "doctype": "ประกาศ",
    "editors": [
      {
        "name": "พรพิมล",
        "role": "พิมพ์",
        "date": "2546-09-12"
      },
      {
        "name": "ศิรวัชร์",
        "role": "ปรับปรุง",
        "date": "2560-07-20"
      }
    ],
    "tag": "a815-2e-2535-a005"
  }
}