{
  "pages": [
    [
      [
        "พระราชกฤษฎีกา",
        "กำหนดเขตที่ดิน ในท้องที่ตำบลเทนมีย์ อำเภอเมืองสุรินทร์",
        "จังหวัดสุรินทร์ ให้เป็นเขตโครงการจัดรูปที่ดิน",
        "พ.ศ. ๒๕๓๗",
        "",
        "",
        "ภูมิพลอดุลยเดช ป.ร.",
        "ให้ไว้ ณ วันที่ ๒๖ มิถุนายน พ.ศ. ๒๕๓๗",
        "เป็นปีที่ ๔๙ ในรัชกาลปัจจุบัน"
      ]
    ],
    []
  ],
  "metadata": {
    "date_header": "2537-06-26",
    "date_modified": "2537-07-15",
    "date_original": "2537-07-15",
    "doctype": "พระราชกฤษฎีกา",
    "editors": [
      {
        "name": "ศิรวัชร์",
        "role": "จัดทำ",
        "date": "2560-06-22"
      }
    ],
    "tag": "a815-2a-2537-a0001",
    "title": "กำหนดเขตที่ดิน ในท้องที่ตำบลเทนมีย์ อำเภอเมืองสุรินทร์จังหวัดสุรินทร์ ให้เป็นเขตโครงการจัดรูปที่ดิน"
  }
}