{
  "pages": [
    [
      [
        "ประกาศกระทรวงเกษตรและสหกรณ์",
        "และกระทรวงมหาดไทย",
        "เรื่อง กำหนดให้ท้องที่ตำบลจรเข้สามพัน และตำบลสระยายโสม อำเภออู่ทอง",
        "จังหวัดสุพรรณบุรี เป็นเขตสำรวจเพื่อกำหนดเป็นเขตโครงการ",
        "จัดรูปที่ดิน ตามพระราชบัญญัติจัดรูปที่ดินเพื่อเกษตรกรรม",
        "พ.ศ. ๒๕๑๗ พ.ศ. ๒๕๔๓"
      ]
    ],
    []
  ],
  "metadata": {
    "date_backmatter": "2543-04-24",
    "date_modified": "2543-08-09",
    "date_original": "2543-08-09",
    "doctype": "ประกาศ",
    "editors": [
      {
        "name": "อัมพิกา",
        "role": "แก้ไข",
        "date": "2545-04-24"
      },
      {
        "name": "ศิรวัชร์",
        "role": "ปรับปรุง",
        "date": "2560-07-24"
      }
    ],
    "tag": "a815-2e-2543-a004"
  }
}