{
  "pages": [
    [
      [
        "พระราชกฤษฎีกา",
        "กำหนดเขตที่ดิน ในท้องที่ตำบลแพรกศรีราชา",
        "ตำบลดงคอน และตำบลบางขุด อำเภอสรรคบุรี จังหวัดชัยนาท",
        "ให้เป็นเขตโครงการจัดรูปที่ดิน",
        "พ.ศ. ๒๕๒๑",
        "",
        "",
        "ภูมิพลอดุลยเดช ป.ร.",
        "ให้ไว้ ณ วันที่ ๒๙ เมษายน พ.ศ. ๒๕๒๑",
        "เป็นปีที่ ๓๓ ในรัชกาลปัจจุบัน"
      ]
    ],
    []
  ],
  "metadata": {
    "date_header": "2521-04-29",
    "date_modified": "2521-05-25",
    "date_original": "2521-05-25",
    "doctype": "พระราชกฤษฎีกา",
    "editors": [
      {
        "name": "ศิรวัชร์",
        "role": "จัดทำ",
        "date": "2560-05-19"
      }
    ],
    "tag": "a815-2a-2521-a021",
    "title": "กำหนดเขตที่ดิน ในท้องที่ตำบลแพรกศรีราชาตำบลดงคอน และตำบลบางขุด อำเภอสรรคบุรี จังหวัดชัยนาทให้เป็นเขตโครงการจัดรูปที่ดิน"
  }
}