{
  "pages": [
    [
      [
        "พระราชกฤษฎีกา",
        "กำหนดเขตที่ดินในท้องที่ตำบลห้วยเกต อำเภอตะพานหิน",
        "จังหวัดพิจิตร ให้เป็นเขตโครงการจัดรูปที่ดิน",
        "พ.ศ. ๒๕๒๑",
        "",
        "",
        "ภูมิพลอดุลยเดช ป.ร.",
        "ให้ไว้ ณ วันที่ ๘ กรกฎาคม พ.ศ. ๒๕๒๑",
        "เป็นปีที่ ๓๓ ในรัชกาลปัจจุบัน"
      ]
    ],
    []
  ],
  "metadata": {
    "date_header": "2521-07-08",
    "date_modified": "2521-07-21",
    "date_original": "2521-07-21",
    "doctype": "พระราชกฤษฎีกา",
    "editors": [
      {
        "name": "ศิรวัชร์",
        "role": "จัดทำ",
        "date": "2560-05-31"
      }
    ],
    "tag": "a815-2a-2521-a006",
    "title": "กำหนดเขตที่ดินในท้องที่ตำบลห้วยเกต อำเภอตะพานหินจังหวัดพิจิตร ให้เป็นเขตโครงการจัดรูปที่ดิน"
  }
}