{
  "pages": [
    [
      [
        "พระราชกฤษฎีกา",
        "กำหนดเขตที่ดิน ในท้องที่ตำบลสรรพยา ตำบลโพนางดำตก",
        "อำเภอสรรพยา และตำบลห้วยกรด อำเภอสรรคบุรี",
        "จังหวัดชัยนาท",
        "ให้เป็นเขตโครงการจัดรูปที่ดิน",
        "พ.ศ. ๒๕๒๓",
        "",
        "",
        "ภูมิพลอดุลยเดช ป.ร.",
        "ให้ไว้ ณ วันที่ ๓๑ ธันวาคม พ.ศ. ๒๕๒๓",
        "เป็นปีที่ ๓๕ ในรัชกาลปัจจุบัน"
      ]
    ],
    []
  ],
  "metadata": {
    "date_header": "2523-12-31",
    "date_modified": "2523-12-31",
    "date_original": "2523-12-31",
    "doctype": "พระราชกฤษฎีกา",
    "editors": [
      {
        "name": "ศิรวัชร์",
        "role": "จัดทำ",
        "date": "2560-05-23"
      }
    ],
    "tag": "a815-2a-2523-a011",
    "title": "กำหนดเขตที่ดิน ในท้องที่ตำบลสรรพยา ตำบลโพนางดำตกอำเภอสรรพยา และตำบลห้วยกรด อำเภอสรรคบุรีจังหวัดชัยนาทให้เป็นเขตโครงการจัดรูปที่ดิน"
  }
}