{
  "pages": [
    [
      [
        "ประกาศกระทรวงเกษตรและสหกรณ์และกระทรวงมหาดไทย",
        "เรื่อง กำหนดให้ท้องที่ตำบลสองชั้น และตำบลกระสัง อำเภอกระสัง จังหวัดบุรีรัมย์",
        "เป็นเขตสำรวจเพื่อกำหนดเป็นเขตโครงการจัดรูปที่ดิน",
        "ตามพระราชบัญญัติจัดรูปที่ดินเพื่อเกษตรกรรม พ.ศ. ๒๕๑๗",
        "พ.ศ. ๒๕๕๓"
      ]
    ],
    []
  ],
  "metadata": {
    "date_backmatter": "2553-03-26",
    "date_modified": "2553-06-25",
    "date_original": "2553-06-25",
    "doctype": "ประกาศ",
    "editors": [
      {
        "name": "ปริยานุช",
        "role": "จัดทำ",
        "date": "2553-06-30"
      },
      {
        "name": "นันท์นภัสร์",
        "role": "ตรวจ",
        "date": "2553-06-30"
      },
      {
        "name": "ศิรวัชร์",
        "role": "ปรับปรุง",
        "date": "2560-07-27"
      }
    ],
    "tag": "a815-2e-2553-a0006"
  }
}