{
  "pages": [
    [
      [
        "ประกาศกระทรวงเกษตรและสหกรณ์และกระทรวงมหาดไทย",
        "เรื่อง กำหนดให้ท้องที่ตำบลนิคม อำเภอสตึก จังหวัดบุรีรัมย์",
        "เป็นเขตสำรวจเพื่อกำหนดเป็นเขตโครงการจัดรูปที่ดิน",
        "ตามพระราชบัญญัติจัดรูปที่ดินเพื่อเกษตรกรรม พ.ศ. ๒๕๑๗",
        "พ.ศ. ๒๕๕๘"
      ]
    ],
    []
  ],
  "metadata": {
    "date_backmatter": "2558-08-11",
    "date_modified": "2558-10-05",
    "date_original": "2558-10-05",
    "doctype": "ประกาศ",
    "editors": [
      {
        "name": "ปริยานุช",
        "role": "ผู้จัดทำ",
        "date": "2558-10-14"
      },
      {
        "name": "วิศนี",
        "role": "ผู้ตรวจ",
        "date": "2558-10-20"
      }
    ],
    "tag": "a815-2e-2558-a0003"
  }
}