{
  "pages": [
    [
      [
        "ประกาศกระทรวงเกษตรและสหกรณ์และกระทรวงมหาดไทย",
        "เรื่อง กำหนดให้ท้องที่ตำบลบางขุดและตำบลดอนกำ อำเภอสรรคบุรี จังหวัดชัยนาท",
        "เป็นเขตสำรวจเพื่อกำหนดเป็นเขตโครงการจัดรูปที่ดิน ตามพระราชบัญญัติจัดรูปที่ดิน",
        "เพื่อเกษตรกรรม พ.ศ. ๒๕๑๗",
        "พ.ศ. ๒๕๕๑"
      ]
    ],
    []
  ],
  "metadata": {
    "date_backmatter": "2551-09-30",
    "date_modified": "2551-12-03",
    "date_original": "2551-12-03",
    "doctype": "ประกาศ",
    "editors": [
      {
        "name": "วัชศักดิ์",
        "role": "จัดทำ",
        "date": "2551-12-17"
      },
      {
        "name": "ศิรวัชร์",
        "role": "ปรับปรุง",
        "date": "2560-07-26"
      }
    ],
    "tag": "a815-2e-2551-a0006"
  }
}