{
  "pages": [
    [
      [
        "พระราชกฤษฎีกา",
        "กำหนดเขตที่ดิน ในท้องที่ตำบลบ่อสุพรรณ",
        "อำเภอสองพี่น้อง จังหวัดสุพรรณบุรี",
        "ให้เป็นเขตโครงการจัดรูปที่ดิน",
        "พ.ศ. ๒๕๓๗",
        "",
        "",
        "ภูมิพลอดุลยเดช ป.ร.",
        "ให้ไว้ ณ วันที่ ๑๑ มิถุนายน พ.ศ. ๒๕๓๗",
        "เป็นปีที่ ๔๙ ในรัชกาลปัจจุบัน"
      ]
    ],
    []
  ],
  "metadata": {
    "date_header": "2537-06-11",
    "date_modified": "2537-06-21",
    "date_original": "2537-06-21",
    "doctype": "พระราชกฤษฎีกา",
    "editors": [
      {
        "name": "ศิรวัชร์",
        "role": "จัดทำ",
        "date": "2560-06-23"
      }
    ],
    "tag": "a815-2a-2537-a011",
    "title": "กำหนดเขตที่ดิน ในท้องที่ตำบลบ่อสุพรรณอำเภอสองพี่น้อง จังหวัดสุพรรณบุรีให้เป็นเขตโครงการจัดรูปที่ดิน"
  }
}