{
  "pages": [
    [
      [
        "ประกาศกระทรวงเกษตรและสหกรณ์และกระทรวงมหาดไทย",
        "เรื่อง กำหนดให้ท้องที่ตำบลเจ้าท่า อำเภอกมลาไสย จังหวัดกาฬสินธุ์",
        "เป็นเขตสำรวจเพื่อกำหนดเป็นเขตโครงการจัดรูปที่ดิน",
        "ตามพระราชบัญญัติจัดรูปที่ดินเพื่อเกษตรกรรม พ.ศ. ๒๕๑๗",
        "พ.ศ. ๒๕๕๖"
      ]
    ],
    []
  ],
  "metadata": {
    "date_backmatter": "2556-06-26",
    "date_modified": "2556-08-27",
    "date_original": "2556-08-27",
    "doctype": "ประกาศ",
    "editors": [
      {
        "name": "ปริยานุช",
        "role": "ผู้จัดทำ",
        "date": "2556-08-29"
      },
      {
        "name": "อุษมล",
        "role": "ผู้ตรวจ",
        "date": "2556-09-05"
      }
    ],
    "tag": "a815-2e-2556-a0003"
  }
}