{
  "pages": [
    [
      [
        "ประกาศคณะกรรมการจัดรูปที่ดินจังหวัดนครสวรรค์",
        "ที่ ๓/๒๕๔๒",
        "เรื่อง การจัดให้ที่ดินซึ่งถูกถอนสภาพจากการเป็นสาธารณสมบัติ",
        "ของแผ่นดินสำหรับพลเมืองใช้ร่วมกันในท้องที่ ตำบลสร้อยทอง",
        "อำเภอตาคลี จังหวัดนครสวรรค์ ตามพระราชกฤษฎีกากำหนดเขตที่ดิน",
        "ในท้องที่ตำบลตาคลี ตำบลหนองหม้อ และตำบลสร้อยทอง อำเภอตาคลี",
        "จังหวัดนครสวรรค์ ให้เป็นเขตโครงการจัดรูปที่ดิน พ.ศ. ๒๕๒๓ คงเป็น",
        "ที่ดินอันเป็นสาธารณสมบัติของแผ่นดินสำหรับพลเมืองใช้ร่วมกันต่อไป"
      ]
    ],
    []
  ],
  "metadata": {
    "date_backmatter": "2542-01-27",
    "date_modified": "2542-08-20",
    "date_original": "2542-08-20",
    "doctype": "ประกาศ",
    "editors": [
      {
        "name": "พรพิมล",
        "role": "พิมพ์",
        "date": "2545-03-22"
      },
      {
        "name": "ศิรวัชร์",
        "role": "ปรับปรุง",
        "date": "2560-07-21"
      }
    ],
    "tag": "a815-2e-2542-a005"
  }
}