{
  "pages": [
    [
      [
        "ประกาศสำนักงานกลางชั่งตวงวัด",
        "เรื่อง ข้อปฏิบัติสำหรับการติดตั้งและใช้งานเครื่องชั่งแบบแท่นชั่งที่ติดตรึงกับที่",
        "ซึ่งมีพิกัดกำลังตั้งแต่ยี่สิบเมตริกตันขึ้นไปที่เป็นระบบดิจิทัล (ฉบับที่ ๒)",
        "พ.ศ. ๒๕๖๑"
      ]
    ],
    []
  ],
  "metadata": {
    "date_backmatter": "2561-09-28",
    "date_modified": "2561-10-26",
    "date_original": "2561-10-26",
    "doctype": "ประกาศ",
    "editors": [
      {
        "name": "พิมพ์มาดา",
        "role": "จัดทำ",
        "date": "2562-02-06"
      }
    ],
    "tag": "c133-2e-2561-a0019"
  }
}