{
  "pages": [
    [
      [
        "ประกาศกระทรวงพาณิชย์",
        "เรื่อง กำหนดแบบมาตราชั้นหนึ่งตามพระราชบัญญัติมาตราชั่งตวงวัด พ.ศ. ๒๕๔๒",
        "พ.ศ. ๒๕๕๐"
      ]
    ],
    []
  ],
  "metadata": {
    "date_backmatter": "2550-01-04",
    "date_modified": "2550-01-29",
    "date_original": "2550-01-29",
    "doctype": "ประกาศ",
    "editors": [
      {
        "name": "วัชศักดิ์",
        "role": "ผู้จัดทำ",
        "date": "2550-02-09"
      }
    ],
    "tag": "c133-2e-2550-a0001"
  }
}