{
  "pages": [
    [
      [
        "ประกาศกระทรวงพาณิชย์",
        "เรื่อง กำหนดชนิดสินค้าหีบห่อที่ต้องบรรจุสินค้าตามปริมาณที่กำหนด",
        "พ.ศ. ๒๕๔๓"
      ]
    ],
    []
  ],
  "metadata": {
    "date_backmatter": "2543-08-16",
    "date_gz_old": "2543-09-13",
    "doctype": "ประกาศ",
    "editors": [
      {
        "name": "ชไมพร",
        "role": "แก้ไข",
        "date": "2545-04-23"
      }
    ],
    "tag": "c133-2e-2543-a004"
  }
}