{
  "pages": [
    [
      [
        "พระราชบัญญัติ",
        "มาตราชั่งตวงวัด",
        "พ.ศ. ๒๕๔๒",
        "",
        "",
        "ภูมิพลอดุลยเดช ป.ร.",
        "ให้ไว้ ณ วันที่ ๗ เมษายน พ.ศ. ๒๕๔๒",
        "เป็นปีที่ ๕๔ ในรัชกาลปัจจุบัน"
      ]
    ],
    []
  ],
  "metadata": {
    "date_header": "2542-04-07",
    "date_modified": "2560-02-11",
    "date_original": "2542-04-21",
    "doctype": "พระราชบัญญัติ",
    "editors": [
      {
        "name": "วิชพงษ์",
        "role": "จัดทำ",
        "date": "2558-01-08"
      },
      {
        "name": "ปริญสินีย์",
        "role": "เพิ่มเติม",
        "date": "2560-02-14"
      }
    ],
    "tag": "c133-20-9999-update",
    "title": "มาตราชั่งตวงวัด"
  }
}