{
  "pages": [
    [
      [
        "ประกาศกระทรวงพาณิชย์",
        "เรื่อง การตรวจสอบและให้คำรับรองใหม่กรณีที่มีการเคลื่อนย้ายเครื่องชั่งตวงวัดชนิดติดตรึงอยู่กับที่",
        "และมีการให้คำรับรองแล้ว พ.ศ. ๒๕๕๙"
      ]
    ],
    []
  ],
  "metadata": {
    "date_backmatter": "2559-04-04",
    "date_modified": "2559-04-29",
    "date_original": "2559-04-29",
    "doctype": "ประกาศ",
    "editors": [
      {
        "name": "ปริยานุช",
        "role": "จัดทำ",
        "date": "2559-05-03"
      },
      {
        "name": "กัญฑรัตน์",
        "role": "ตรวจ",
        "date": "2559-05-03"
      }
    ],
    "tag": "c133-2e-2559-a0003"
  }
}