{
  "pages": [
    [
      [
        "กฎกระทรวง",
        "กำหนดค่าธรรมเนียมเกี่ยวกับการประกอบธุรกิจชั่งตวงวัดและ",
        "ค่าทำการตรวจสอบเครื่องชั่งตวงวัดนอกสถานที่ของพนักงานเจ้าหน้าที่",
        "พ.ศ. ๒๕๖๐"
      ]
    ],
    []
  ],
  "metadata": {
    "date_backmatter": "2560-02-07",
    "date_modified": "2560-02-21",
    "date_original": "2560-02-21",
    "doctype": "กฎกระทรวง",
    "editors": [
      {
        "name": "พิมพ์มาดา/ปริยานุช",
        "role": "จัดทำ",
        "date": "2560-02-23"
      }
    ],
    "tag": "c133-2b-2560-a0001"
  }
}