{
  "pages": [
    [
      [
        "ระเบียบกรมการค้าภายใน",
        "ว่าด้วยการจัดการกับเครื่องชั่งตวงวัด สินค้าหีบห่อและสินค้าที่",
        "หีบห่อถูกทำลายที่ตกหรือจะตกเป็นของกรมการค้าภายใน",
        "พ.ศ. ๒๕๔๗"
      ]
    ],
    []
  ],
  "metadata": {
    "date_backmatter": "2547-05-18",
    "date_modified": "2559-03-31",
    "date_original": "2547-05-31",
    "editors": [
      {
        "name": "พรพิมล",
        "role": "พิมพ์",
        "date": "2547-08-27"
      },
      {
        "name": "ธัญกมล/ศุภสรณ์",
        "role": "ตรวจ",
        "date": "2547-09-24"
      },
      {
        "name": "ชวัลพร",
        "role": "เพิ่มเติม",
        "date": "2559-05-03"
      }
    ],
    "tag": "c133-2g-9999-update"
  }
}