{
  "pages": [
    [
      [
        "กฎกระทรวง",
        "กำหนดเครื่องวัดที่อยู่ในบังคับแห่งพระราชบัญญัติมาตราชั่งตวงวัด พ.ศ. ๒๕๔๒",
        "ชนิด ลักษณะ รายละเอียดของวัสดุที่ใช้ผลิต อัตราเผื่อเหลือเผื่อขาด",
        "และคำรับรองของเครื่องชั่งตวงวัด และหลักเกณฑ์และวิธีการ",
        "จดทะเบียนเครื่องหมายเฉพาะตัว",
        "พ.ศ. ๒๕๔๖"
      ]
    ],
    []
  ],
  "metadata": {
    "date_backmatter": "2546-10-10",
    "date_modified": "2560-03-27",
    "date_original": "2546-10-29",
    "doctype": "กฎกระทรวง",
    "editors": [
      {
        "name": "ศุภชัย",
        "role": "พิมพ์",
        "date": "2547-01-09"
      },
      {
        "name": "ศุภสรณ์/อรดา",
        "role": "ตรวจ",
        "date": "2547-01-14"
      },
      {
        "name": "ปุณิกา",
        "role": "เพิ่มเติม",
        "date": "2560-04-25"
      }
    ],
    "tag": "c133-2b-9999-update"
  }
}