{
  "pages": [
    [
      [
        "ประกาศกระทรวงพาณิชย์",
        "เรื่อง การจัดตั้งและกำหนดอำนาจหน้าที่สำนักงานสาขาชั่งตวงวัด"
      ]
    ],
    []
  ],
  "metadata": {
    "date_backmatter": "2550-05-01",
    "date_modified": "2550-06-13",
    "date_original": "2550-06-13",
    "doctype": "ประกาศ",
    "editors": [
      {
        "name": "วัชศักดิ์",
        "role": "ผู้จัดทำ",
        "date": "2550-06-28"
      }
    ],
    "tag": "c133-2e-2550-a0002"
  }
}