{
  "pages": [
    [
      [
        "ประกาศกระทรวงพาณิชย์",
        "เรื่อง วิธีการและอัตราเปรียบเทียบมาตราชั่งตวงวัดของต่างประเทศกับมาตราชั่งตวงวัด",
        "ตามพระราชบัญญัติมาตราชั่งตวงวัด พ.ศ. ๒๕๔๒",
        "พ.ศ. ๒๕๕๐"
      ]
    ],
    []
  ],
  "metadata": {
    "date_backmatter": "2550-11-23",
    "date_modified": "2550-12-14",
    "date_original": "2550-12-14",
    "doctype": "ประกาศ",
    "editors": [
      {
        "name": "วัชศักดิ์",
        "role": "ผู้จัดทำ",
        "date": "2551-01-16"
      }
    ],
    "tag": "c133-2e-2550-a0004"
  }
}