{
  "pages": [
    [
      [
        "ข้อบัญญัติองค์การบริหารส่วนตำบลคลองประเวศ",
        "เรื่อง กำหนดเกณฑ์ลดหย่อนเนื้อที่ดินที่ไม่ต้องเสียภาษีบำรุงท้องที่",
        "พ.ศ. ๒๕๕๑"
      ]
    ],
    []
  ],
  "metadata": {
    "date_backmatter": "2551-01-10",
    "date_modified": "2552-04-09",
    "date_original": "2552-04-09",
    "editors": [
      {
        "name": "ปริยานุช",
        "role": "ผู้จัดทำ",
        "date": "2552-04-28"
      }
    ],
    "tag": "c003-2j-2552-a0012"
  }
}