{
  "pages": [
    [
      [
        "ข้อบัญญัติองค์การบริหารส่วนตำบลสระพังลาน",
        "เรื่อง การลดหย่อนภาษีบำรุงท้องที่ (ฉบับที่ ๒)",
        "พ.ศ. ๒๕๕๖"
      ]
    ],
    []
  ],
  "metadata": {
    "date_backmatter": "2556-04-03",
    "date_modified": "2556-05-30",
    "date_original": "2556-05-30",
    "editors": [
      {
        "name": "ปริยานุช",
        "role": "ผู้จัดทำ",
        "date": "2556-06-05"
      },
      {
        "name": "โชติกานต์",
        "role": "ผู้ตรวจ",
        "date": "2556-06-12"
      }
    ],
    "tag": "c003-2j-2556-a0001"
  }
}