{
  "pages": [
    [
      [
        "ข้อบัญญัติองค์การบริหารส่วนตำบลฟากท่า",
        "เรื่อง หลักเกณฑ์การลดหย่อนที่ดินเพื่อประเมินภาษีบำรุงท้องที่",
        "พ.ศ. ๒๕๕๗"
      ]
    ],
    []
  ],
  "metadata": {
    "date_backmatter": "2558-01-20",
    "date_modified": "2558-10-13",
    "date_original": "2558-10-13",
    "editors": [
      {
        "name": "ปริยานุช",
        "role": "ผู้จัดทำ",
        "date": "2558-10-16"
      },
      {
        "name": "ปุณิกา",
        "role": "ผู้ตรวจ",
        "date": "2558-11-03"
      }
    ],
    "tag": "c003-2j-2558-a0028"
  }
}