{
  "pages": [
    [
      [
        "ข้อบัญญัติองค์การบริหารส่วนตำบลโพรงมะเดื่อ",
        "เรื่อง กำหนดหลักเกณฑ์การลดหย่อนที่ดินไม่ต้องเสียภาษีบำรุงท้องที่ พ.ศ. ๒๕๕๗"
      ]
    ],
    []
  ],
  "metadata": {
    "date_backmatter": "2557-07-22",
    "date_modified": "2557-09-18",
    "date_original": "2557-09-18",
    "editors": [
      {
        "name": "ปริยานุช",
        "role": "ผู้จัดทำ",
        "date": "2557-09-22"
      },
      {
        "name": "กฤษดายุทธ",
        "role": "ผู้ตรวจ",
        "date": "2557-09-22"
      }
    ],
    "tag": "c003-2j-2557-a0013"
  }
}