{
  "pages": [
    [
      [
        "ข้อบัญญัติองค์การบริหารส่วนตำบลแสนไห",
        "เรื่อง กำหนดหลักเกณฑ์การลดหย่อนที่ดินไม่ต้องเสียภาษีบำรุงท้องที่",
        "พ.ศ. ๒๕๕๓"
      ]
    ],
    []
  ],
  "metadata": {
    "date_backmatter": "2553-05-03",
    "date_modified": "2553-11-11",
    "date_original": "2553-11-11",
    "editors": [
      {
        "name": "ปริยานุช",
        "role": "ผู้จัดทำ",
        "date": "2553-11-18"
      },
      {
        "name": "ณัฐวดี",
        "role": "ตรวจ",
        "date": "2553-11-18"
      }
    ],
    "tag": "c003-2j-2553-a0027"
  }
}