{
  "pages": [
    [
      [
        "ข้อบัญญัติองค์การบริหารส่วนตำบลบางโปรง",
        "เรื่อง การลดหย่อนไม่ต้องเสียภาษีบำรุงท้องที่ในเขตองค์การบริหารส่วนตำบลบางโปรง",
        "พ.ศ. ๒๕๕๙"
      ]
    ],
    []
  ],
  "metadata": {
    "date_backmatter": "2560-02-27",
    "date_modified": "2560-11-23",
    "date_original": "2560-11-23",
    "editors": [
      {
        "name": "ภวรรณตรี",
        "role": "จัดทำ",
        "date": "2560-11-29"
      },
      {
        "name": "ปวันวิทย์",
        "role": "ตรวจ",
        "date": "2560-12-26"
      }
    ],
    "tag": "c003-2j-2560-a0019"
  }
}