{
  "pages": [
    [
      [
        "ข้อบัญญัติองค์การบริหารส่วนตำบลเวียงเหนือ",
        "เรื่อง การลดหย่อนภาษีบำรุงท้องที่ พ.ศ. ๒๕๕๐"
      ]
    ],
    []
  ],
  "metadata": {
    "date_backmatter": "2550-06-18",
    "date_modified": "2551-04-23",
    "date_original": "2551-04-23",
    "editors": [
      {
        "name": "ปริยานุช",
        "role": "ผู้จัดทำ",
        "date": "2551-04-29"
      }
    ],
    "tag": "c003-2j-2551-a0005"
  }
}