{
  "pages": [
    [
      [
        "พระราชบัญญัติ",
        "ภาษีบำรุงท้องที่",
        "พ.ศ. ๒๕๐๘",
        "",
        "",
        "ภูมิพลอดุลยเดช ป.ร.",
        "ให้ไว้ ณ วันที่ ๒๒ ตุลาคม พ.ศ. ๒๕๐๘",
        "เป็นปีที่ ๒๐ ในรัชกาลปัจจุบัน"
      ]
    ],
    []
  ],
  "metadata": {
    "date_header": "2508-10-22",
    "date_modified": "2524-10-20",
    "date_original": "2508-11-01",
    "doctype": "พระราชบัญญัติ",
    "editors": [
      {
        "name": "สัญชัย",
        "role": "ผู้จัดทำ",
        "date": "2552-01-05"
      }
    ],
    "tag": "c003-20-2524-001u",
    "title": "ภาษีบำรุงท้องที่"
  }
}