{
  "pages": [
    [
      [
        "ข้อบัญญัติองค์การบริหารส่วนตำบลแจ้ซ้อน",
        "เรื่อง การลดหย่อนภาษีบำรุงท้องที่",
        "พ.ศ. ๒๕๕๑"
      ]
    ],
    []
  ],
  "metadata": {
    "date_backmatter": "2551-02-26",
    "date_modified": "2551-05-16",
    "date_original": "2551-05-16",
    "editors": [
      {
        "name": "ปริยานุช",
        "role": "ผู้จัดทำ",
        "date": "2551-05-28"
      }
    ],
    "tag": "c003-2j-2551-a0008"
  }
}