{
  "pages": [
    [
      [
        "เทศบัญญัติเทศบาลตำบลห้วยไคร้",
        "เรื่อง การลดหย่อนภาษีบำรุงท้องที่",
        "พ.ศ. ๒๕๕๐"
      ]
    ],
    []
  ],
  "metadata": {
    "date_backmatter": "2550-12-26",
    "date_modified": "2552-04-30",
    "date_original": "2552-04-30",
    "editors": [
      {
        "name": "ปริยานุช",
        "role": "ผู้จัดทำ",
        "date": "2552-05-07"
      }
    ],
    "tag": "c003-2k-2552-a0002"
  }
}