{
  "pages": [
    [
      [
        "ข้อบัญญัติองค์การบริหารส่วนตำบลไสหมาก",
        "เรื่อง การลดหย่อนไม่ต้องเสียภาษีบำรุงท้องที่ พ.ศ. ๒๕๕๘"
      ]
    ],
    []
  ],
  "metadata": {
    "date_backmatter": "2558-08-14",
    "date_modified": "2558-10-01",
    "date_original": "2558-10-01",
    "editors": [
      {
        "name": "ปริยานุช",
        "role": "ผู้จัดทำ",
        "date": "2558-10-06"
      },
      {
        "name": "ปริญสินีย์",
        "role": "ผู้ตรวจ",
        "date": "2558-10-16"
      }
    ],
    "tag": "c003-2j-2558-a0026"
  }
}