{
  "pages": [
    [
      [
        "ข้อบัญญัติองค์การบริหารส่วนตำบลหนองไฮ",
        "เรื่อง การลดหย่อนภาษีบำรุงท้องที่ พ.ศ. ๒๕๕๘"
      ]
    ],
    []
  ],
  "metadata": {
    "date_backmatter": "2558-02-09",
    "date_modified": "2558-09-01",
    "date_original": "2558-09-01",
    "editors": [
      {
        "name": "ปริยานุช",
        "role": "ผู้จัดทำ",
        "date": "2558-09-02"
      },
      {
        "name": "วิศนี",
        "role": "ผู้ตรวจ",
        "date": "2558-09-14"
      }
    ],
    "tag": "c003-2j-2558-a0022"
  }
}