{
  "pages": [
    [
      [
        "ข้อบัญญัติองค์การบริหารส่วนตำบลปากรอ",
        "เรื่อง การลดหย่อนภาษีบำรุงท้องที่",
        "พ.ศ. ๒๕๕๘"
      ]
    ],
    []
  ],
  "metadata": {
    "date_backmatter": "2559-01-04",
    "date_modified": "2559-06-08",
    "date_original": "2559-06-08",
    "editors": [
      {
        "name": "ปริยานุช",
        "role": "จัดทำ",
        "date": "2559-06-10"
      },
      {
        "name": "ชวัลพร",
        "role": "ตรวจ",
        "date": "2559-06-20"
      }
    ],
    "tag": "c003-2j-2559-a0008"
  }
}