{
  "pages": [
    [
      [
        "พระราชบัญญัติ",
        "ภาษีบำรุงท้องที่ (ฉบับที่ ๒)",
        "พ.ศ. ๒๕๑๖",
        "",
        "",
        "ภูมิพลอดุลยเดช ป.ร.",
        "ให้ไว้ ณ วันที่ ๑๗ ธันวาคม พ.ศ. ๒๕๑๖",
        "เป็นปีที่ ๒๘ ในรัชกาลปัจจุบัน"
      ]
    ],
    []
  ],
  "metadata": {
    "date_backmatter": "2515-12-13",
    "date_header": "2516-12-17",
    "date_modified": "2516-12-20",
    "date_original": "2516-12-20",
    "doctype": "พระราชบัญญัติ",
    "editors": [
      {
        "name": "สัญชัย",
        "role": "ผู้จัดทำ",
        "date": "2552-01-05"
      },
      {
        "name": "สุกัญญา",
        "role": "ผู้จัดทำ",
        "date": "2554-03-17"
      }
    ],
    "tag": "c003-20-2516-002",
    "title": "ภาษีบำรุงท้องที่ (ฉบับที่ ๒)"
  }
}