{
  "pages": [
    [
      [
        "ข้อบัญญัติองค์การบริหารส่วนตำบลประศุก",
        "เรื่อง การลดหย่อนภาษีบำรุงท้องที่",
        "พ.ศ. ๒๕๕๓"
      ]
    ],
    []
  ],
  "metadata": {
    "date_backmatter": "2553-08-23",
    "date_modified": "2553-11-24",
    "date_original": "2553-11-24",
    "editors": [
      {
        "name": "ปริยานุช",
        "role": "ผู้จัดทำ",
        "date": "2553-12-01"
      },
      {
        "name": "ณัฐวดี",
        "role": "ตรวจ",
        "date": "2553-12-01"
      }
    ],
    "tag": "c003-2j-2553-a0029"
  }
}