{
  "pages": [
    [
      [
        "ประกาศคณะกรรมการการเลือกตั้ง",
        "เรื่อง ผลการเลือกตั้งสมาชิกวุฒิสภาจังหวัดพิจิตร",
        "แทนตำแหน่งที่ว่าง"
      ]
    ],
    []
  ],
  "metadata": {
    "date_backmatter": "2547-03-16",
    "doctype": "ประกาศ",
    "editors": [
      {
        "name": "ศุภชัย",
        "role": "พิมพ์",
        "date": "2547-06-15"
      },
      {
        "name": "พัชรินทร์/สุมลรัตน์",
        "role": "ตรวจ",
        "date": "2547-07-02"
      },
      {
        "name": "ชุติมา",
        "role": "ปรับปรุง",
        "date": "2560-02-14"
      }
    ],
    "tag": "bb36-2e-2547-a0004"
  }
}