{
  "pages": [
    [
      [
        "ประกาศคณะกรรมการการเลือกตั้ง",
        "เรื่อง การยกเว้นการปฏิบัติตามระเบียบคณะกรรมการการเลือกตั้ง",
        "ว่าด้วยการเลือกตั้งสมาชิกสภาผู้แทนราษฎร",
        "พ.ศ. ๒๕๕๔"
      ]
    ],
    []
  ],
  "metadata": {
    "date_backmatter": "2557-01-14",
    "date_modified": "2557-01-16",
    "date_original": "2557-01-16",
    "doctype": "ประกาศ",
    "editors": [
      {
        "name": "ปริยานุช",
        "role": "ผู้จัดทำ",
        "date": "2557-01-14"
      },
      {
        "name": "ณัฐพร",
        "role": "ผู้ตรวจ",
        "date": "2557-01-14"
      }
    ],
    "tag": "bb36-2e-2557-a0001"
  }
}