{
  "pages": [
    [
      [
        "ประกาศคณะกรรมการการเลือกตั้ง",
        "เรื่อง หลักฐานแสดงตนและการใช้สิทธิลงคะแนนเลือกตั้ง",
        "สมาชิกสภาผู้แทนราษฎร (ฉบับที่ ๓)",
        "พ.ศ. ๒๕๔๗"
      ]
    ],
    []
  ],
  "metadata": {
    "date_backmatter": "2547-10-29",
    "date_modified": "2547-12-01",
    "date_original": "2547-12-01",
    "doctype": "ประกาศ",
    "editors": [
      {
        "name": "พรพิมล",
        "role": "พิมพ์",
        "date": "2548-03-05"
      },
      {
        "name": "ศุภสรณ์/ธัญกมล",
        "role": "ตรวจ",
        "date": "2548-05-13"
      },
      {
        "name": "ชุติมา",
        "role": "ปรับปรุง",
        "date": "2560-02-14"
      }
    ],
    "tag": "bb36-2e-2547-a0007"
  }
}