{
  "pages": [
    [
      [
        "ประกาศคณะกรรมการการเลือกตั้ง",
        "เรื่อง การสมัครรับเลือกตั้งสมาชิกสภาผู้แทนราษฎรจังหวัดพิษณุโลก",
        "เขตเลือกตั้งที่ ๖ แทนตำแหน่งที่ว่าง"
      ]
    ],
    []
  ],
  "metadata": {
    "date_backmatter": "2544-04-02",
    "date_gz_old": "2544-04-05",
    "doctype": "ประกาศ",
    "editors": [
      {
        "name": "อัมพิกา",
        "role": "แก้ไข",
        "date": "2544-10-01"
      }
    ],
    "tag": "bb36-2e-2544-a003"
  }
}