{
  "pages": [
    [
      [
        "ประกาศคณะกรรมการการเลือกตั้ง",
        "เรื่อง กำหนดวันและเวลาลงคะแนนเลือกตั้งก่อนวันเลือกตั้ง ณ ที่เลือกตั้งกลาง"
      ]
    ],
    []
  ],
  "metadata": {
    "date_backmatter": "2557-03-02",
    "date_modified": "2557-03-03",
    "date_original": "2557-03-03",
    "doctype": "ประกาศ",
    "editors": [
      {
        "name": "ปริยานุช",
        "role": "ผู้จัดทำ",
        "date": "2557-03-07"
      },
      {
        "name": "ปณตภร",
        "role": "ผู้ตรวจ",
        "date": "2557-03-11"
      },
      {
        "name": "ชุติมา",
        "role": "ปรับปรุง",
        "date": "2560-02-14"
      }
    ],
    "tag": "bb36-2e-2557-a0009"
  }
}