{
  "pages": [
    [
      [
        "คำวินิจฉัยสั่งการคณะกรรมการการเลือกตั้ง",
        "ที่ ๗๙/๒๕๔๔ ลงวันที่ ๑๓ มีนาคม ๒๕๔๔",
        "เรื่อง การคัดค้านการเลือกตั้งสมาชิกวุฒิสภาเขตเลือกตั้งจังหวัดอุบลราชธานี"
      ]
    ],
    []
  ],
  "metadata": {
    "date_header": "2544-03-13",
    "date_modified": "2544-03-19",
    "date_original": "2544-03-19",
    "editors": [
      {
        "name": "ละออง",
        "role": "พิมพ์",
        "date": "2544-07-30"
      },
      {
        "name": "ชุติมา",
        "role": "ปรับปรุง",
        "date": "2560-02-14"
      }
    ],
    "tag": "bb36-2f-2544-a010"
  }
}