{
  "pages": [
    [
      [
        "ประกาศคณะกรรมการการเลือกตั้ง",
        "เรื่อง ให้ย่นหรืองดเว้นการดำเนินการที่เกี่ยวกับการเลือกตั้ง",
        "กรณีที่คณะกรรมการการเลือกตั้งสั่งให้มีการเลือกตั้ง",
        "สมาชิกสภาผู้แทนราษฎรใหม่",
        "พ.ศ. ๒๕๕๑"
      ]
    ],
    []
  ],
  "metadata": {
    "date_backmatter": "2551-01-02",
    "date_modified": "2551-01-04",
    "date_original": "2551-01-04",
    "doctype": "ประกาศ",
    "editors": [
      {
        "name": "วัชศักดิ์",
        "role": "ผู้จัดทำ",
        "date": "2551-01-24"
      },
      {
        "name": "ชุติมา",
        "role": "ปรับปรุง",
        "date": "2560-02-14"
      }
    ],
    "tag": "bb36-2e-2551-a0004"
  }
}