{
  "pages": [
    [
      [
        "คำสั่งของคณะปฏิรูปการปกครองแผ่นดิน",
        "ฉบับที่ ๓๕"
      ]
    ],
    []
  ],
  "metadata": {
    "date_backmatter": "2519-10-21",
    "date_modified": "2519-10-21",
    "date_original": "2519-10-21",
    "editors": [
      {
        "name": "พุทธชาด",
        "role": "พิมพ์",
        "date": "2545-10-22"
      },
      {
        "name": "ชุติมา",
        "role": "ปรับปรุง",
        "date": "2560-02-14"
      }
    ],
    "tag": "bb36-2f-2519-a0001"
  }
}