{
  "pages": [
    [
      [
        "ระเบียบคณะกรรมการการเลือกตั้ง",
        "ว่าด้วยค่าตอบแทนผู้อำนวยการการเลือกตั้งประจำเขตเลือกตั้ง",
        "กรรมการการเลือกตั้งประจำเขตเลือกตั้ง อนุกรรมการประจำอำเภอ",
        "กรรมการประจำหน่วยเลือกตั้ง และผู้ที่ได้รับแต่งตั้งให้ช่วยเหลือการปฏิบัติงานในการเลือกตั้ง",
        "สมาชิกสภาผู้แทนราษฎรและการได้มาซึ่งสมาชิกวุฒิสภา",
        "พ.ศ. ๒๕๕๐"
      ]
    ],
    []
  ],
  "metadata": {
    "date_backmatter": "2550-10-19",
    "date_modified": "2550-10-24",
    "date_original": "2550-10-24",
    "editors": [
      {
        "name": "ปริยานุช",
        "role": "จัดทำ",
        "date": "2550-11-06"
      },
      {
        "name": "จุฑามาศ",
        "role": "ปรับปรุง",
        "date": "2560-02-24"
      }
    ],
    "tag": "bb36-2g-2550-a0003"
  }
}