{
  "pages": [
    [
      [
        "ประกาศคณะกรรมการการเลือกตั้ง",
        "เรื่อง ผลการเลือกตั้งสมาชิกสภาผู้แทนราษฎรแบบแบ่งเขตเลือกตั้ง",
        "(ครั้งที่ ๓)"
      ]
    ],
    []
  ],
  "metadata": {
    "date_backmatter": "2551-01-10",
    "date_modified": "2551-01-16",
    "date_original": "2551-01-16",
    "doctype": "ประกาศ",
    "editors": [
      {
        "name": "วัชศักดิ์",
        "role": "ผู้จัดทำ",
        "date": "2551-01-30"
      },
      {
        "name": "ชุติมา",
        "role": "ปรับปรุง",
        "date": "2560-02-14"
      }
    ],
    "tag": "bb36-2e-2551-a0010"
  }
}