{
  "pages": [
    [
      [
        "ประกาศคณะกรรมการการเลือกตั้ง",
        "เรื่อง รายชื่อผู้สมัครรับเลือกตั้งที่คณะกรรมการการเลือกตั้งวินิจฉัยมิให้เป็นผู้สมัครรับเลือกตั้ง",
        "ในการเลือกตั้งสมาชิกวุฒิสภาใหม่ในเขตเลือกตั้งจังหวัดนครราชสีมา"
      ]
    ],
    []
  ],
  "metadata": {
    "date_backmatter": "2543-05-16",
    "date_modified": "2543-05-30",
    "date_original": "2543-05-30",
    "doctype": "ประกาศ",
    "editors": [
      {
        "name": "ชุติมา",
        "role": "ปรับปรุง",
        "date": "2560-02-14"
      }
    ],
    "tag": "bb36-2e-2543-a034"
  }
}