{
  "pages": [
    [
      [
        "ประกาศคณะกรรมการการเลือกตั้ง",
        "เรื่อง กำหนดวันให้องค์กรในภาคอื่น มาลงทะเบียนพร้อมทั้งเสนอชื่อ",
        "ผู้ที่สมควรได้รับการสรรหาเป็นสมาชิกวุฒิสภา"
      ]
    ],
    []
  ],
  "metadata": {
    "date_backmatter": "2551-10-22",
    "date_modified": "2551-10-24",
    "date_original": "2551-10-24",
    "doctype": "ประกาศ",
    "editors": [
      {
        "name": "วัชศักดิ์",
        "role": "ผู้จัดทำ",
        "date": "2551-10-27"
      },
      {
        "name": "ชุติมา",
        "role": "ปรับปรุง",
        "date": "2560-02-14"
      }
    ],
    "tag": "bb36-2e-2551-a0035"
  }
}