{
  "pages": [
    [
      [
        "ประกาศคณะกรรมการการเลือกตั้ง",
        "เรื่อง หลักเกณฑ์และวิธีการกำหนดจำนวนเงินค่าใช้จ่ายในการเลือกตั้ง",
        "สมาชิกสภาผู้แทนราษฎร (ฉบับที่ ๒) พ.ศ. ๒๕๕๔"
      ]
    ],
    []
  ],
  "metadata": {
    "date_backmatter": "2554-05-20",
    "date_modified": "2554-05-24",
    "date_original": "2554-05-24",
    "doctype": "ประกาศ",
    "editors": [
      {
        "name": "ปริยานุช",
        "role": "ผู้จัดทำ",
        "date": "2554-05-26"
      },
      {
        "name": "ณัฐวดี",
        "role": "ตรวจ",
        "date": "2554-05-26"
      }
    ],
    "tag": "bb36-2e-2554-a0011"
  }
}