{
  "pages": [
    [
      [
        "ประกาศคณะกรรมการการเลือกตั้ง",
        "เรื่อง ให้กำหนดวันรับสมัครเลือกตั้งสมาชิกสภาผู้แทนราษฎรแบบแบ่งเขตเลือกตั้ง",
        "จังหวัดสงขลา ทุกเขตเลือกตั้ง ยกเว้นเขตเลือกตั้งที่ ๕ เพิ่มเติม"
      ]
    ],
    []
  ],
  "metadata": {
    "date_backmatter": "2549-04-18",
    "date_modified": "2549-04-21",
    "date_original": "2549-04-21",
    "doctype": "ประกาศ",
    "editors": [
      {
        "name": "พัชรินทร์",
        "role": "ผู้จัดทำ",
        "date": "2549-04-28"
      },
      {
        "name": "ชุติมา",
        "role": "ปรับปรุง",
        "date": "2560-02-14"
      }
    ],
    "tag": "bb36-2e-2549-a0018"
  }
}