{
  "pages": [
    [
      [
        "คำสั่งคณะกรรมการการเลือกตั้ง",
        "ที่ ๓๓/๒๕๔๔",
        "เรื่อง ให้มีการเลือกตั้งสมาชิกสภาผู้แทนราษฎรใหม่"
      ]
    ],
    []
  ],
  "metadata": {
    "date_backmatter": "2544-01-23",
    "date_modified": "2544-01-29",
    "date_original": "2544-01-29",
    "editors": [
      {
        "name": "ชไมพร",
        "role": "พิมพ์",
        "date": "2544-10-05"
      },
      {
        "name": "ชุติมา",
        "role": "ปรับปรุง",
        "date": "2560-02-14"
      }
    ],
    "tag": "bb36-2f-2544-a014"
  }
}