{
  "pages": [
    [
      [
        "ข้อกำหนด",
        "เกี่ยวกับการพิจารณาและวินิจฉัยสิทธิสมัครรับเลือกตั้ง คุณสมบัติ",
        "และลักษณะต้องห้ามมิให้ใช้สิทธิสมัครรับเลือกตั้งของผู้สมัครรับเลือกตั้ง",
        "สมาชิกสภาผู้แทนราษฎรและสมาชิกวุฒิสภา",
        "พ.ศ. ๒๕๔๓"
      ]
    ],
    []
  ],
  "metadata": {
    "date_backmatter": "2543-11-24",
    "date_modified": "2543-11-24",
    "date_original": "2543-11-24",
    "editors": [
      {
        "name": "อัมพิกา",
        "role": "แก้ไข",
        "date": "2545-05-08"
      },
      {
        "name": "โชติกานต์",
        "role": "ปรับปรุง",
        "date": "2560-03-07"
      }
    ],
    "tag": "bb36-2h-2543-a004"
  }
}