{
  "pages": [
    [
      [
        "ประกาศคณะกรรมการการเลือกตั้ง",
        "เรื่อง การสมัครรับเลือกตั้งสมาชิกสภาผู้แทนราษฎรจังหวัดพิจิตร เขตเลือกตั้งที่ ๓",
        "จังหวัดสตูล เขตเลือกตั้งที่ ๒ จังหวัดสิงห์บุรี เขตเลือกตั้งที่ ๑",
        "และจังหวัดอุทัยธานี เขตเลือกตั้งที่ ๑",
        "แทนตำแหน่งที่ว่าง"
      ]
    ],
    []
  ],
  "metadata": {
    "date_backmatter": "2548-10-08",
    "date_modified": "2548-10-10",
    "date_original": "2548-10-10",
    "doctype": "ประกาศ",
    "editors": [
      {
        "name": "ชัชสรัญ",
        "role": "ผู้จัดทำ",
        "date": "2548-10-14"
      },
      {
        "name": "ชุติมา",
        "role": "ปรับปรุง",
        "date": "2560-02-14"
      }
    ],
    "tag": "bb36-2e-2548-a0026"
  }
}