{
  "pages": [
    [
      [
        "คำวินิจฉัยสั่งการของคณะกรรมการการเลือกตั้ง",
        "ที่ ๗๐/๕/๒๕๔๔ ลงวันที่ ๒๕ มกราคม ๒๕๔๔",
        "เรื่อง การวินิจฉัยและสั่งให้มีการเลือกตั้งสมาชิกสภาผู้แทนราษฎรใหม่",
        "ในเขตเลือกตั้งที่ ๕ จังหวัดกาญจนบุรี"
      ]
    ],
    []
  ],
  "metadata": {
    "date_header": "2544-01-25",
    "date_modified": "2544-06-07",
    "date_original": "2544-06-07",
    "editors": [
      {
        "name": "ปรียนันท์",
        "role": "แก้ไข",
        "date": "2545-04-25"
      },
      {
        "name": "ชุติมา",
        "role": "ปรับปรุง",
        "date": "2560-02-14"
      }
    ],
    "tag": "bb36-2f-2544-a075"
  }
}