{
  "pages": [
    [
      [
        "ประกาศคณะกรรมการการเลือกตั้ง",
        "เรื่อง ผลการเลือกตั้งสมาชิกสภาผู้แทนราษฎรจังหวัดสงขลา",
        "เขตเลือกตั้งที่ ๑ แทนตำแหน่งที่ว่าง"
      ]
    ],
    []
  ],
  "metadata": {
    "date_backmatter": "2552-12-04",
    "date_modified": "2552-12-11",
    "date_original": "2552-12-11",
    "doctype": "ประกาศ",
    "editors": [
      {
        "name": "ปริยานุช",
        "role": "ผู้จัดทำ",
        "date": "2552-12-14"
      },
      {
        "name": "นันท์นภัสร์",
        "role": "ตรวจ",
        "date": "2552-12-14"
      },
      {
        "name": "ชุติมา",
        "role": "ปรับปรุง",
        "date": "2560-02-14"
      }
    ],
    "tag": "bb36-2e-2552-a0023"
  }
}