{
  "pages": [
    [
      [
        "ประกาศคณะกรรมการการเลือกตั้ง",
        "เรื่อง ผลการเลือกตั้งสมาชิกวุฒิสภา เขตเลือกตั้งจังหวัดนนทบุรี"
      ]
    ],
    []
  ],
  "metadata": {
    "date_backmatter": "2543-05-11",
    "date_modified": "2543-05-30",
    "date_original": "2543-05-30",
    "doctype": "ประกาศ",
    "editors": [
      {
        "name": "ชุติมา",
        "role": "ปรับปรุง",
        "date": "2560-02-14"
      }
    ],
    "tag": "bb36-2e-2543-a014"
  }
}