{
  "pages": [
    [
      [
        "ประกาศคณะกรรมการการเลือกตั้ง",
        "เรื่อง หลักเกณฑ์และวิธีการกำหนดจำนวนเงินค่าใช้จ่าย",
        "ในการเลือกตั้งสมาชิกสภาผู้แทนราษฎร",
        "พ.ศ. ๒๕๕๐"
      ]
    ],
    []
  ],
  "metadata": {
    "date_backmatter": "2550-10-25",
    "date_modified": "2550-11-05",
    "date_original": "2550-11-05",
    "doctype": "ประกาศ",
    "editors": [
      {
        "name": "วัชศักดิ์",
        "role": "ผู้จัดทำ",
        "date": "2550-11-22"
      },
      {
        "name": "ชุติมา",
        "role": "ปรับปรุง",
        "date": "2560-02-14"
      }
    ],
    "tag": "bb36-2e-2550-a0013"
  }
}