{
  "pages": [
    [
      [
        "พระราชบัญญัติ",
        "เครื่องแบบทหาร",
        "พุทธศักราช ๒๔๗๗",
        "",
        "",
        "ในพระปรมาภิไธยสมเด็จพระเจ้าอยู่หัวอานันทมหิดล",
        "คณะผู้สำเร็จราชการแทนพระองค์",
        "(ตามประกาศประธานสภาผู้แทนราษฎร",
        "ลงวันที่ ๗ มีนาคม พุทธศักราช ๒๔๗๗)",
        "อนุวัตน์จาตุรนต์",
        "อาทิตย์ทิพอาภา",
        "เจ้าพระยายมราช",
        "ตราไว้ ณ วันที่ ๒๒ เมษายน พุทธศักราช ๒๔๗๘",
        "เป็นปีที่ ๒ ในรัชกาลปัจจุบัน"
      ]
    ],
    []
  ],
  "metadata": {
    "date_header": "2477-03-07",
    "date_modified": "2514-09-14",
    "date_original": "2478-04-28",
    "doctype": "พระราชบัญญัติ",
    "editors": [
      {
        "name": "นันทวัฒน์",
        "role": "ตรวจ",
        "date": "2552-09-03"
      },
      {
        "name": "ปริญสินีย์",
        "role": "ปรับปรุง",
        "date": "2556-11-13"
      },
      {
        "name": "ชาญ",
        "role": "ตรวจ",
        "date": "2556-11-13"
      }
    ],
    "tag": "a441-20-9999-update",
    "title": "เครื่องแบบทหาร"
  }
}