{
  "pages": [
    [
      [
        "กฎกระทรวงกลาโหม",
        "ว่าด้วยเครื่องแบบทหารเรือ (ฉบับที่ ๓)",
        "ออกตามความในมาตรา ๕ และมาตรา ๗ แห่ง",
        "พระราชบัญญัติเครื่องแบบทหาร พุทธศักราช ๒๔๗๗"
      ]
    ],
    []
  ],
  "metadata": {
    "date_backmatter": "2479-04-04",
    "date_gz_old": "2479-04-08",
    "doctype": "กฎกระทรวง",
    "editors": [
      {
        "name": "จารุวรรณ",
        "role": "แก้ไข",
        "date": "2546-01-03"
      }
    ],
    "tag": "a441-2b-2479-a0001"
  }
}