{
  "pages": [
    [
      [
        "กฎกระทรวง",
        "(พ.ศ. ๒๕๑๑)",
        "ออกตามความในพระราชบัญญัติเครื่องแบบทหาร",
        "พุทธศักราช ๒๔๗๗",
        "ว่าด้วยเครื่องแบบทหารอากาศ ฉบับที่ ๑๓"
      ]
    ],
    []
  ],
  "metadata": {
    "date_backmatter": "2511-06-12",
    "date_modified": "2528-12-02",
    "date_original": "2511-07-04",
    "doctype": "กฎกระทรวง",
    "editors": [
      {
        "name": "ปณตภร",
        "role": "ผู้จัดทำ",
        "date": "2556-06-11"
      }
    ],
    "tag": "a441-2b-2528-a006"
  }
}