{
  "pages": [
    [
      [
        "ตราครุฑ",
        "กฎกระทรวง",
        "(พ.ศ. 2504)",
        "ออกตามความในพระราชบัญญัติเครื่องแบบทหาร",
        "พุทธศักราช 2477",
        "ว่าด้วยเครื่องแบบทหารบก ฉบับที่ 40"
      ]
    ],
    []
  ],
  "metadata": {
    "date_backmatter": "2504-11-29",
    "editors": [],
    "tag": "a441-2b-2504-002"
  }
}