{
  "pages": [
    [
      [
        "ตราครุฑ",
        "กฎกระทรวง",
        "ฉบับที่ 2 (พ.ศ. 2516)",
        "ออกตามความในพระราชบัญญัติเครื่องแบบทหาร",
        "พุทธศักราช 2477",
        "ว่าด้วยการใช้เสื้อครุย เสื้อปริญญา",
        "และเครื่องหมายพิเศษบางอย่าง"
      ]
    ],
    []
  ],
  "metadata": {
    "date_backmatter": "2516-08-31",
    "editors": [],
    "tag": "a441-2b-2516-002"
  }
}