{
  "pages": [
    [
      [
        "พระราชบัญญัติ",
        "เครื่องแบบทหาร (ฉบับที่ ๔)",
        "พ.ศ. ๒๕๑๔",
        "",
        "",
        "ภูมิพลอดุลยเดช ป.ร.",
        "ให้ไว้ ณ วันที่ ๓ กันยายน พ.ศ. ๒๕๑๔",
        "เป็นปีที่ ๒๖ ในรัชกาลปัจจุบัน"
      ]
    ],
    []
  ],
  "metadata": {
    "date_header": "2514-09-03",
    "date_modified": "2514-09-14",
    "date_original": "2514-09-14",
    "doctype": "พระราชบัญญัติ",
    "editors": [
      {
        "name": "นันทวัฒน์",
        "role": "ตรวจ",
        "date": "2552-09-03"
      },
      {
        "name": "ปริญสินีย์",
        "role": "ปรับปรุง",
        "date": "2556-11-13"
      },
      {
        "name": "ชาญ",
        "role": "ตรวจ",
        "date": "2556-11-13"
      }
    ],
    "tag": "a441-20-2514-004",
    "title": "เครื่องแบบทหาร (ฉบับที่ ๔)"
  }
}