{
  "pages": [
    [
      [
        "กฎกระทรวง",
        "(พ.ศ. ๒๕๕๕)",
        "ออกตามความในพระราชบัญญัติเครื่องแบบทหาร พุทธศักราช ๒๔๗๗",
        "ว่าด้วยเครื่องแบบทหารบก ฉบับที่ ๘๒"
      ]
    ],
    []
  ],
  "metadata": {
    "date_backmatter": "2555-07-19",
    "date_modified": "2555-07-26",
    "date_original": "2555-07-26",
    "doctype": "กฎกระทรวง",
    "editors": [
      {
        "name": "ปริยานุช",
        "role": "ผู้จัดทำ",
        "date": "2555-07-27"
      },
      {
        "name": "ณัฐพร",
        "role": "ผู้ตรวจ",
        "date": "2555-07-27"
      }
    ],
    "tag": "a441-2b-2555-a0001"
  }
}