{
  "pages": [
    [
      [
        "ตราครุฑ",
        "กฎกระทรวงกลาโหม",
        "ออกตามความในพระราชบัญญัติเครื่องแบบทหาร",
        "พุทธศักราช 2477 ว่าด้วยเครื่องแบบจอมทัพ"
      ]
    ],
    []
  ],
  "metadata": {
    "date_backmatter": "2488-11-26",
    "editors": [],
    "tag": "a441-2b-2488-001"
  }
}