{
  "pages": [
    [
      [
        "ประกาศกรมประชาสงเคราะห์",
        "เรื่อง การจัดตั้งสถานสงเคราะห์ตามพระราชบัญญัติ",
        "ปรามการค้าประเวณี"
      ]
    ],
    []
  ],
  "metadata": {
    "date_backmatter": "2508-11-02",
    "date_modified": "2508-11-12",
    "date_original": "2508-11-12",
    "doctype": "ประกาศ",
    "editors": [
      {
        "name": "สุกัญญา",
        "role": "พิมพ์",
        "date": "2553-11-04"
      },
      {
        "name": "นฤตยา",
        "role": "ผู้จัดทำ",
        "date": "2553-11-10"
      },
      {
        "name": "เอกฤทธิ์",
        "role": "ตรวจ",
        "date": "2553-11-16"
      }
    ],
    "tag": "bb13-2e-2508-a0008"
  }
}