{
  "pages": [
    [
      [
        "ประกาศกระทรวงแรงงานและสวัสดิการสังคม",
        "เรื่อง กำหนดแบบบัตรประจำตัวพนักงานเจ้าหน้าที่"
      ]
    ],
    []
  ],
  "metadata": {
    "date_backmatter": "2540-11-07",
    "date_modified": "2550-11-28",
    "date_original": "2550-11-28",
    "doctype": "ประกาศ",
    "editors": [
      {
        "name": "นฤตยา",
        "role": "ผู้จัดทำ",
        "date": "2553-10-22"
      },
      {
        "name": "เอกฤทธิ์",
        "role": "ตรวจ",
        "date": "2553-11-15"
      }
    ],
    "tag": "bb13-2e-2540-a0001"
  }
}