{
  "pages": [
    [
      [
        "ประกาศสำนักงานคณะกรรมการกำกับหลักทรัพย์และตลาดหลักทรัพย์",
        "ที่ สช. ๓๙/๒๕๕๓",
        "เรื่อง การให้ความเห็นชอบผู้สอบบัญชีในตลาดทุน"
      ]
    ],
    []
  ],
  "metadata": {
    "date_backmatter": "2553-09-23",
    "date_modified": "2559-06-24",
    "date_original": "2553-10-01",
    "doctype": "ประกาศ",
    "editors": [
      {
        "name": "ปริญสินีย์",
        "role": "ปรับปรุง",
        "date": "2558-05-18"
      },
      {
        "name": "วริญา",
        "role": "เพิ่มเติม",
        "date": "2558-08-10"
      },
      {
        "name": "ปุณิกา",
        "role": "เพิ่มเติม",
        "date": "2559-07-11"
      }
    ],
    "tag": "b710-2e-2559-a0012"
  }
}