{
  "pages": [
    [
      [
        "พระราชบัญญัติ",
        "ทรัสต์เพื่อธุรกรรมในตลาดทุน",
        "พ.ศ. ๒๕๕๐",
        "",
        "",
        "ภูมิพลอดุลยเดช ป.ร.",
        "ให้ไว้ ณ วันที่ ๓๐ ธันวาคม พ.ศ. ๒๕๕๐",
        "เป็นปีที่ ๖๒ ในรัชกาลปัจจุบัน"
      ]
    ],
    []
  ],
  "metadata": {
    "date_header": "2550-12-30",
    "date_modified": "2560-02-11",
    "date_original": "2551-01-14",
    "doctype": "พระราชบัญญัติ",
    "editors": [
      {
        "name": "อังศุมาลี",
        "role": "ผู้จัดทำ",
        "date": "2556-05-15"
      },
      {
        "name": "อุดมลักษณ์",
        "role": "ผู้ตรวจ",
        "date": "2556-05-15"
      },
      {
        "name": "พรวิภา",
        "role": "เพิ่มเติม",
        "date": "2560-02-14"
      },
      {
        "name": "พจนา",
        "role": "ตรวจ",
        "date": "2560-02-20"
      }
    ],
    "tag": "b710-20-9999-update",
    "title": "ทรัสต์เพื่อธุรกรรมในตลาดทุน"
  }
}