{
  "pages": [
    [
      [
        "ประกาศสำนักงานคณะกรรมการกำกับหลักทรัพย์และตลาดหลักทรัพย์",
        "ที่ สร. ๘๖/๒๕๕๘",
        "เรื่อง ข้อกำหนดเกี่ยวกับรายการและข้อความในสัญญาก่อตั้งทรัสต์",
        "ของทรัสต์เพื่อการลงทุนในอสังหาริมทรัพย์",
        "(ฉบับที่ ๔)"
      ]
    ],
    []
  ],
  "metadata": {
    "date_backmatter": "2558-12-02",
    "date_modified": "2558-12-22",
    "date_original": "2558-12-22",
    "doctype": "ประกาศ",
    "editors": [
      {
        "name": "ปริยานุช",
        "role": "จัดทำ",
        "date": "2558-12-29"
      },
      {
        "name": "วริญา",
        "role": "ตรวจ",
        "date": "2559-01-04"
      }
    ],
    "tag": "b710-2e-2558-a0008"
  }
}