{
  "pages": [
    [
      [
        "ประกาศสำนักงานคณะกรรมการกำกับหลักทรัพย์และตลาดหลักทรัพย์",
        "ที่ สร. ๔๒/๒๕๕๖",
        "เรื่อง ข้อกำหนดเกี่ยวกับรายการและข้อความในสัญญาก่อตั้งทรัสต์",
        "ของทรัสต์เพื่อการลงทุนในอสังหาริมทรัพย์",
        "(ฉบับที่ ๒)"
      ]
    ],
    []
  ],
  "metadata": {
    "date_backmatter": "2556-12-16",
    "date_modified": "2556-12-26",
    "date_original": "2556-12-26",
    "doctype": "ประกาศ",
    "editors": [
      {
        "name": "ปริยานุช",
        "role": "ผู้จัดทำ",
        "date": "2557-01-07"
      },
      {
        "name": "โชติกานต์",
        "role": "ผู้ตรวจ",
        "date": "2557-01-07"
      }
    ],
    "tag": "b710-2e-2556-a0001"
  }
}