{
  "pages": [
    [
      [
        "ประกาศคณะกรรมการกำกับหลักทรัพย์และตลาดหลักทรัพย์",
        "ที่ กค. ๒/๒๕๕๔",
        "เรื่อง การพิจารณาทางปกครองตามพระราชบัญญัติสัญญาซื้อขายล่วงหน้า พ.ศ. ๒๕๔๖",
        "และพระราชบัญญัติทรัสต์ เพื่อธุรกรรมในตลาดทุน พ.ศ. ๒๕๕๐",
        "(ฉบับที่ ๒)"
      ]
    ],
    []
  ],
  "metadata": {
    "date_backmatter": "2554-02-21",
    "date_modified": "2554-03-02",
    "date_original": "2554-03-02",
    "doctype": "ประกาศ",
    "editors": [
      {
        "name": "ปริยานุช",
        "role": "ผู้จัดทำ",
        "date": "2554-03-09"
      },
      {
        "name": "ณัฐวดี",
        "role": "ตรวจ",
        "date": "2554-03-09"
      },
      {
        "name": "ปณตภร",
        "role": "ปรับปรุง",
        "date": "2555-06-29"
      }
    ],
    "tag": "b710-2e-2554-a0005"
  }
}