{
  "pages": [
    [
      [
        "ประกาศสำนักงานคณะกรรมการกำกับหลักทรัพย์และตลาดหลักทรัพย์",
        "ที่ สร. ๒๕/๒๕๕๗",
        "เรื่อง ข้อกำหนดเกี่ยวกับรายการและข้อความในสัญญาก่อตั้งทรัสต์",
        "ของทรัสต์เพื่อการลงทุนในอสังหาริมทรัพย์",
        "(ฉบับที่ ๓)"
      ]
    ],
    []
  ],
  "metadata": {
    "date_backmatter": "2557-08-20",
    "date_modified": "2557-09-16",
    "date_original": "2557-09-16",
    "doctype": "ประกาศ",
    "editors": [
      {
        "name": "ปริยานุช",
        "role": "ผู้จัดทำ",
        "date": "2557-09-18"
      },
      {
        "name": "กฤษดายุทธ",
        "role": "ผู้ตรวจ",
        "date": "2557-09-18"
      }
    ],
    "tag": "b710-2e-2557-a0004"
  }
}