{
  "pages": [
    [
      [
        "กฎกระทรวง",
        "กำหนดหลักเกณฑ์และวิธีการว่าด้วยการซื้อหุ้นคืน",
        "การจำหน่ายหุ้นที่ซื้อคืน และการตัดหุ้นที่ซื้อคืนของบริษัท",
        "พ.ศ. ๒๕๔๔"
      ]
    ],
    []
  ],
  "metadata": {
    "date_backmatter": "2544-11-23",
    "date_gz_old": "2544-11-30",
    "doctype": "กฎกระทรวง",
    "editors": [
      {
        "name": "ชไมพร",
        "role": "แก้ไข",
        "date": "2545-05-23"
      }
    ],
    "tag": "ba11-2b-2544-a0001"
  }
}