{
  "pages": [
    [
      [
        "ประกาศแพทยสภา",
        "ที่ ๙๕ (๙)/๒๕๕๘",
        "เรื่อง หลักเกณฑ์ วิธีการ และเงื่อนไขเกี่ยวกับการรับฝาก การรับบริจาค",
        "การใช้ประโยชน์จากอสุจิ ไข่ หรือตัวอ่อนที่รับฝากหรือรับบริจาค หรือการทำให้สิ้นสภาพ",
        "ของตัวอ่อนที่รับฝากหรือรับบริจาคเนื่องมาจากการดำเนินการใช้เทคโนโลยีช่วยการเจริญพันธุ์",
        "ทางการแพทย์",
        "(ฉบับที่ ๒) พ.ศ. ๒๕๕๘"
      ]
    ],
    []
  ],
  "metadata": {
    "date_backmatter": "2558-11-12",
    "date_modified": "2558-12-22",
    "date_original": "2558-12-22",
    "doctype": "ประกาศ",
    "editors": [
      {
        "name": "ปริยานุช",
        "role": "จัดทำ",
        "date": "2558-12-29"
      },
      {
        "name": "วริญา",
        "role": "ตรวจ",
        "date": "2559-01-04"
      }
    ],
    "tag": "a4120-2e-2558-a0014"
  }
}