{
  "pages": [
    [
      [
        "ประกาศแพทยสภา",
        "ที่ ๙๕ (๕)/๒๕๕๘",
        "เรื่อง หลักเกณฑ์ วิธีการ และเงื่อนไขการให้บริการ",
        "เกี่ยวกับเทคโนโลยีช่วยการเจริญพันธุ์ทางการแพทย์ในการตรวจวินิจฉัยโรคทางพันธุกรรมในตัวอ่อน"
      ]
    ],
    []
  ],
  "metadata": {
    "date_backmatter": "2558-10-09",
    "date_modified": "2558-11-04",
    "date_original": "2558-11-04",
    "doctype": "ประกาศ",
    "editors": [
      {
        "name": "ปริยานุช/กัญฑรัตน์",
        "role": "จัดทำ",
        "date": "2558-11-11"
      },
      {
        "name": "",
        "role": "ตรวจ",
        "date": "2558-11-11"
      }
    ],
    "tag": "a4120-2e-2558-a0007"
  }
}