{
  "pages": [
    [
      [
        "กฎกระทรวง",
        "ฉบับที่ ๒ (พ.ศ. ๒๕๑๐)",
        "ออกตามความในพระราชบัญญัติยาสูบ",
        "พ.ศ. ๒๕๐๙"
      ]
    ],
    []
  ],
  "metadata": {
    "date_backmatter": "2510-01-05",
    "date_gz_old": "2510-01-10",
    "doctype": "กฎกระทรวง",
    "editors": [],
    "tag": "c206-2b-2510-002"
  }
}