{
  "pages": [
    [
      [
        "กฎกระทรวงการคลัง",
        "ออกตามความในพระราชบัญญัติยาสูบ",
        "พุทธศักราช ๒๔๘๑"
      ]
    ],
    []
  ],
  "metadata": {
    "date_backmatter": "2482-04-26",
    "date_gz_old": "2482-04-27",
    "doctype": "กฎกระทรวง",
    "editors": [
      {
        "name": "พุทธชาด",
        "role": "แก้ไข",
        "date": "2545-11-28"
      }
    ],
    "tag": "c206-2b-2482-a0002"
  }
}