{
  "pages": [
    [
      [
        "กฎกระทรวง",
        "(ฉบับที่ ๒๙) พ.ศ. ๒๕๕๐",
        "ออกตามความในพระราชบัญญัติยาสูบ พ.ศ. ๒๕๐๙"
      ]
    ],
    []
  ],
  "metadata": {
    "date_backmatter": "2550-08-28",
    "date_modified": "2550-08-28",
    "date_original": "2550-08-28",
    "doctype": "กฎกระทรวง",
    "editors": [
      {
        "name": "ปริยานุช",
        "role": "ผู้จัดทำ",
        "date": "2550-09-12"
      }
    ],
    "tag": "c206-2b-2550-a0001"
  }
}