{
  "pages": [
    [
      [
        "ประกาศกระทรวงมหาดไทย",
        "เรื่อง การขยายเวลาเปิดจุดผ่านแดนถาวร บริเวณสะพานข้ามแม่น้ำสาย",
        "อำเภอแม่สาย จังหวัดเชียงราย เป็นการชั่วคราว"
      ]
    ],
    []
  ],
  "metadata": {
    "date_backmatter": "2557-03-11",
    "date_modified": "2557-03-14",
    "date_original": "2557-03-14",
    "doctype": "ประกาศ",
    "editors": [
      {
        "name": "ปริยานุช",
        "role": "ผู้จัดทำ",
        "date": "2557-03-25"
      },
      {
        "name": "อุษมล",
        "role": "ผู้ตรวจ",
        "date": "2557-04-09"
      }
    ],
    "tag": "a402-2e-2557-a0002"
  }
}