{
  "pages": [
    [
      [
        "กฎกระทรวง",
        "กำหนดหลักเกณฑ์ วิธีการ และเงื่อนไขในการตรวจ การยกเว้น",
        "และการเปลี่ยนประเภทการตรวจลงตรา",
        "พ.ศ. ๒๕๔๕"
      ]
    ],
    []
  ],
  "metadata": {
    "date_backmatter": "2545-08-16",
    "date_modified": "2553-12-29",
    "date_original": "2545-09-24",
    "doctype": "กฎกระทรวง",
    "editors": [
      {
        "name": "เอกฤทธิ์",
        "role": "ผู้จัดทำ",
        "date": "2556-01-18"
      }
    ],
    "tag": "a402-2b-2553-a0003"
  }
}