{
  "pages": [
    [
      [
        "ประกาศกระทรวงมหาดไทย",
        "เรื่อง กำหนดรายชื่อประเทศที่ผู้ถือหนังสือเดินทางหรือเอกสาร",
        "ใช้แทนหนังสือเดินทางซึ่งเข้ามาในราชอาณาจักรเป็นการชั่วคราว",
        "เพื่อการท่องเที่ยวได้รับการยกเว้นการตรวจลงตรา",
        "และให้อยู่ในราชอาณาจักรได้ไม่เกินสามสิบวัน",
        "(ฉบับที่ ๓)"
      ]
    ],
    []
  ],
  "metadata": {
    "date_backmatter": "2547-10-18",
    "date_modified": "2547-11-05",
    "date_original": "2547-11-05",
    "doctype": "ประกาศ",
    "editors": [
      {
        "name": "สุภาพร",
        "role": "พิมพ์",
        "date": "2548-05-12"
      },
      {
        "name": "สุนันทา/พุทธพัท",
        "role": "ตรวจ",
        "date": "2548-05-31"
      },
      {
        "name": "ฐิติพร",
        "role": "ปรับปรุง",
        "date": "2558-11-09"
      }
    ],
    "tag": "a402-2e-2547-a0004"
  }
}