{
  "pages": [
    [
      [
        "ประกาศกระทรวงมหาดไทย",
        "เรื่อง การอนุญาตให้คนต่างด้าวบางจำพวกเข้ามาอยู่ในราชอาณาจักรเป็นกรณีพิเศษ",
        "สำหรับผู้เชี่ยวชาญทักษะสูง นักลงทุน ผู้บริหารระดับสูง และผู้ประกอบการวิสาหกิจเริ่มต้น"
      ]
    ],
    []
  ],
  "metadata": {
    "date_backmatter": "2561-01-30",
    "date_modified": "2561-01-31",
    "date_original": "2561-01-31",
    "doctype": "ประกาศ",
    "editors": [
      {
        "name": "ปวันวิทย์",
        "role": "จัดทำ",
        "date": "2561-02-14"
      }
    ],
    "tag": "a402-2e-2561-a0003"
  }
}