{
  "pages": [
    [
      [
        "ประกาศกระทรวงมหาดไทย",
        "เรื่อง การกำหนดเวลาเปิดจุดผ่านแดนถาวรสะพานข้ามแม่น้ำสายแห่งที่ ๑",
        "อำเภอแม่สาย จังหวัดเชียงราย"
      ]
    ],
    []
  ],
  "metadata": {
    "date_backmatter": "2557-12-16",
    "date_modified": "2557-12-26",
    "date_original": "2557-12-26",
    "doctype": "ประกาศ",
    "editors": [
      {
        "name": "ปริยานุช",
        "role": "ผู้จัดทำ",
        "date": "2558-01-08"
      },
      {
        "name": "วิศนี",
        "role": "ผู้ตรวจ",
        "date": "2558-01-19"
      }
    ],
    "tag": "a402-2e-2557-a0009"
  }
}