{
  "pages": [
    [
      [
        "ประกาศกระทรวงมหาดไทย",
        "เรื่อง การขยายเวลาการเปิดด่านพรมแดนไทย - มาเลเซีย"
      ]
    ],
    []
  ],
  "metadata": {
    "date_backmatter": "2552-02-04",
    "date_modified": "2552-02-06",
    "date_original": "2552-02-06",
    "doctype": "ประกาศ",
    "editors": [
      {
        "name": "ปริยานุช",
        "role": "ผู้จัดทำ",
        "date": "2552-02-11"
      }
    ],
    "tag": "a402-2e-2552-a0002"
  }
}