{
  "pages": [
    [
      [
        "ประกาศกระทรวงมหาดไทย",
        "เรื่อง การเปิดจุดผ่อนปรนพิเศษด่านสิงขร หมู่ที่ ๖ ตำบลคลองวาฬ",
        "อำเภอเมืองประจวบคีรีขันธ์ จังหวัดประจวบคีรีขันธ์"
      ]
    ],
    []
  ],
  "metadata": {
    "date_backmatter": "2558-05-06",
    "date_modified": "2558-05-14",
    "date_original": "2558-05-14",
    "doctype": "ประกาศ",
    "editors": [
      {
        "name": "ปริยานุช",
        "role": "ผู้จัดทำ",
        "date": "2558-05-18"
      },
      {
        "name": "ปุณิกา",
        "role": "ผู้ตรวจ",
        "date": "2558-06-10"
      }
    ],
    "tag": "a402-2e-2558-a0003"
  }
}