{
  "pages": [
    [
      [
        "ประกาศสำนักนายกรัฐมนตรีและกระทรวงมหาดไทย",
        "เรื่อง กำหนดจำนวนคนต่างด้าวซึ่งจะมีถิ่นที่อยู่ในราชอาณาจักร",
        "ประจำปี พ.ศ. ๒๕๕๙"
      ]
    ],
    []
  ],
  "metadata": {
    "date_backmatter": "2559-07-26",
    "date_modified": "2559-07-28",
    "date_original": "2559-07-28",
    "doctype": "ประกาศ",
    "editors": [
      {
        "name": "ปุณิกา/ปริยานุช",
        "role": "จัดทำ",
        "date": "2559-08-01"
      },
      {
        "name": "นุสรา",
        "role": "ตรวจ",
        "date": "2559-11-08"
      }
    ],
    "tag": "a402-2e-2559-a0012"
  }
}