{
  "pages": [
    [
      [
        "คำสั่งหัวหน้าคณะรักษาความสงบแห่งชาติ",
        "ที่ ๔๒/๒๕๖๐",
        "เรื่อง แก้ไขกฎหมายคนเข้าเมืองเพื่ออำนวยความสะดวกแก่ผู้เดินทางสัญชาติไทย"
      ]
    ],
    []
  ],
  "metadata": {
    "date_backmatter": "2560-09-13",
    "date_modified": "2560-09-16",
    "date_original": "2560-09-16",
    "editors": [
      {
        "name": "ภวรรณตรี",
        "role": "จัดทำ",
        "date": "2560-09-18"
      },
      {
        "name": "วิชพงษ์",
        "role": "ตรวจ",
        "date": "2560-09-18"
      }
    ],
    "tag": "a402-20-2560-a0002"
  }
}