{
  "pages": [
    [
      [
        "พระราชบัญญัติ",
        "คนเข้าเมือง",
        "พ.ศ. ๒๕๒๒",
        "",
        "",
        "ภูมิพลอดุลยเดช ป.ร.",
        "ให้ไว้ ณ วันที่ ๒๔ กุมภาพันธ์ พ.ศ. ๒๕๒๒",
        "เป็นปีที่ ๓๔ ในรัชกาลปัจจุบัน"
      ]
    ],
    []
  ],
  "metadata": {
    "date_header": "2522-02-24",
    "date_modified": "2542-11-05",
    "date_original": "2522-03-01",
    "doctype": "พระราชบัญญัติ",
    "editors": [
      {
        "name": "มัตติกา",
        "role": "แก้ไข",
        "date": "2547-05-24"
      },
      {
        "name": "วาทินี/สัญชัย",
        "role": "ปรับปรุง",
        "date": "2549-05-17"
      },
      {
        "name": "วศิน",
        "role": "แก้ไข",
        "date": "2552-05-21"
      },
      {
        "name": "นันทพล",
        "role": "ปรับปรุง",
        "date": "2556-11-29"
      },
      {
        "name": "พิมลกร/วิชพงษ์",
        "role": "ตรวจ",
        "date": "2557-01-09"
      },
      {
        "name": "จุฑามาศ",
        "role": "ปรับปรุง",
        "date": "2558-11-19"
      }
    ],
    "tag": "a402-20-2542-a0002",
    "title": "คนเข้าเมือง"
  }
}