{
  "pages": [
    [
      [
        "ประกาศกระทรวงมหาดไทย",
        "เรื่อง การอนุญาตให้คนต่างด้าวบางจำพวกเข้ามาอยู่ในราชอาณาจักรเป็นกรณีพิเศษ",
        "ตามมติคณะรัฐมนตรี เมื่อวันที่ ๒๓ กุมภาพันธ์ พ.ศ. ๒๕๕๙ ที่อยู่ระหว่างการตรวจสัญชาติ"
      ]
    ],
    []
  ],
  "metadata": {
    "date_backmatter": "2559-04-29",
    "date_header": "2559-02-23",
    "date_modified": "2559-05-18",
    "date_original": "2559-05-18",
    "doctype": "ประกาศ",
    "editors": [
      {
        "name": "ปุณิกา/ปริยานุช",
        "role": "จัดทำ",
        "date": "2559-05-26"
      }
    ],
    "tag": "a402-2e-2559-a0011"
  }
}