{
  "pages": [
    [
      [
        "ประกาศกระทรวงมหาดไทย",
        "เรื่อง การอนุญาตให้คนต่างด้าวบางจำพวกเข้ามาอยู่ในราชอาณาจักรเป็นกรณีพิเศษ",
        "เฉพาะกิจการประมงทะเล ตามมติคณะรัฐมนตรี เมื่อวันที่ ๑๒ กันยายน พ.ศ. ๒๕๖๐"
      ]
    ],
    []
  ],
  "metadata": {
    "date_backmatter": "2560-09-30",
    "date_header": "2560-09-12",
    "date_modified": "2560-10-03",
    "date_original": "2560-10-03",
    "doctype": "ประกาศ",
    "editors": [
      {
        "name": "พัชรภรณ์/อัญชลี",
        "role": "จัดทำ",
        "date": "2560-10-05"
      },
      {
        "name": "ปริญสินีย์",
        "role": "ตรวจ",
        "date": "2560-11-27"
      }
    ],
    "tag": "a402-2e-2560-a0014"
  }
}