{
  "pages": [
    [
      [
        "กฎกระทรวง",
        "ยกเลิกการกำหนดอัตราค่าธรรมเนียมการตรวจลงตรา",
        "ประเภทนักท่องเที่ยวแก่คนต่างด้าวเป็นการชั่วคราว",
        "พ.ศ. ๒๕๕๓"
      ]
    ],
    []
  ],
  "metadata": {
    "date_backmatter": "2553-04-22",
    "date_modified": "2553-04-26",
    "date_original": "2553-04-26",
    "doctype": "กฎกระทรวง",
    "editors": [
      {
        "name": "ปริยานุช",
        "role": "พิมพ์",
        "date": "2553-04-27"
      },
      {
        "name": "นันท์นภัสร์",
        "role": "ตรวจ",
        "date": "2553-04-27"
      }
    ],
    "tag": "a402-2b-2553-a0001"
  }
}