{
  "pages": [
    [
      [
        "ประกาศกระทรวงมหาดไทย",
        "เรื่อง การเปิดจุดผ่านแดนถาวรสะพานข้ามแม่น้ำโก - ลก อำเภอแว้ง จังหวัดนราธิวาส"
      ]
    ],
    []
  ],
  "metadata": {
    "date_backmatter": "2551-10-14",
    "date_modified": "2551-10-30",
    "date_original": "2551-10-30",
    "doctype": "ประกาศ",
    "editors": [
      {
        "name": "วัชศักดิ์",
        "role": "ผู้จัดทำ",
        "date": "2551-11-04"
      }
    ],
    "tag": "a402-2e-2551-a0008"
  }
}