{
  "pages": [
    [
      [
        "ประกาศกระทรวงมหาดไทย",
        "เรื่อง การอนุญาตให้คนต่างด้าวบางจำพวกเข้ามาอยู่ในราชอาณาจักรเป็นกรณีพิเศษ",
        "สำหรับคนต่างด้าวสัญชาติเมียนมา ลาว และกัมพูชา",
        "ตามมติคณะรัฐมนตรี เมื่อวันที่ ๒๓ กุมภาพันธ์ พ.ศ. ๒๕๕๙"
      ]
    ],
    []
  ],
  "metadata": {
    "date_backmatter": "2559-04-29",
    "date_header": "2559-02-23",
    "date_modified": "2560-02-01",
    "date_original": "2559-05-18",
    "doctype": "ประกาศ",
    "editors": [
      {
        "name": "ปริยานุช",
        "role": "จัดทำ",
        "date": "2560-02-26"
      },
      {
        "name": "ปุณิกา",
        "role": "ตรวจ",
        "date": "2560-02-26"
      }
    ],
    "tag": "a402-2e-9988-update"
  }
}