{
  "pages": [
    [
      [
        "พระราชบัญญัติ",
        "คนเข้าเมือง",
        "พ.ศ. ๒๕๒๒",
        "",
        "",
        "ภูมิพลอดุลยเดช ป.ร.",
        "ให้ไว้ ณ วันที่ ๒๔ กุมภาพันธ์ พ.ศ. ๒๕๒๒",
        "เป็นปีที่ ๓๔ ในรัชกาลปัจจุบัน"
      ]
    ],
    []
  ],
  "metadata": {
    "date_header": "2522-02-24",
    "date_modified": "2522-03-01",
    "date_original": "2522-03-01",
    "doctype": "พระราชบัญญัติ",
    "editors": [
      {
        "name": "วศิน",
        "role": "แก้ไข",
        "date": "2552-05-21"
      },
      {
        "name": "นันทพล",
        "role": "ปรับปรุง",
        "date": "2556-11-29"
      },
      {
        "name": "พิมลกร/วิชพงษ์",
        "role": "ตรวจ",
        "date": "2556-12-27"
      },
      {
        "name": "จุฑามาศ",
        "role": "ปรับปรุง",
        "date": "2558-11-19"
      }
    ],
    "tag": "a402-20-2522-001",
    "title": "คนเข้าเมือง"
  }
}