{
  "pages": [
    [
      [
        "ประกาศกระทรวงมหาดไทย",
        "เรื่อง กำหนดรายชื่อประเทศที่คนชาติจะขอรับการตรวจลงตรา",
        "ณ ช่องทางอนุญาตของด่านตรวจคนเข้าเมือง",
        "(ฉบับที่ ๕)"
      ]
    ],
    []
  ],
  "metadata": {
    "date_backmatter": "2553-08-09",
    "date_modified": "2553-09-03",
    "date_original": "2553-09-03",
    "doctype": "ประกาศ",
    "editors": [
      {
        "name": "ปริยานุช",
        "role": "จัดทำ",
        "date": "2553-09-15"
      },
      {
        "name": "นันท์นภัสร์",
        "role": "ตรวจ",
        "date": "2553-09-15"
      },
      {
        "name": "ฐิติพร",
        "role": "ปรับปรุง",
        "date": "2558-04-24"
      }
    ],
    "tag": "a402-2e-2553-a0009"
  }
}