{
  "pages": [
    [
      [
        "ประกาศกระทรวงมหาดไทย",
        "เรื่อง การอนุญาตให้คนต่างด้าวบางจำพวกเข้ามาอยู่ในราชอาณาจักรเป็นกรณีพิเศษ",
        "ตามมติคณะรัฐมนตรี เมื่อวันที่ ๓ มีนาคม พ.ศ. ๒๕๕๘"
      ]
    ],
    []
  ],
  "metadata": {
    "date_backmatter": "2558-05-18",
    "date_header": "2558-03-03",
    "date_modified": "2558-06-13",
    "date_original": "2558-06-13",
    "doctype": "ประกาศ",
    "editors": [
      {
        "name": "ปริยานุช",
        "role": "ผู้จัดทำ",
        "date": "2558-06-15"
      },
      {
        "name": "ปุณิกา",
        "role": "ผู้ตรวจ",
        "date": "2558-07-02"
      }
    ],
    "tag": "a402-2e-2558-a0006"
  }
}