{
  "pages": [
    [
      [
        "กฎกระทรวง",
        "ยกเลิกการกำหนดอัตราค่าธรรมเนียมและกำหนดอัตราค่าธรรมเนียมการตรวจลงตรา",
        "ตามมาตรา ๑๒ (๑) ประเภทนักท่องเที่ยว ชนิดใช้ได้ครั้งเดียว เป็นการชั่วคราว",
        "พ.ศ. ๒๕๕๙"
      ]
    ],
    []
  ],
  "metadata": {
    "date_backmatter": "2559-11-30",
    "date_modified": "2559-11-30",
    "date_original": "2559-11-30",
    "doctype": "กฎกระทรวง",
    "editors": [
      {
        "name": "วิศนี/ปริยานุช",
        "role": "จัดทำ",
        "date": "2559-12-07"
      }
    ],
    "tag": "a402-2b-2559-a0003"
  }
}