{
  "pages": [
    [
      [
        "ประกาศกระทรวงมหาดไทย",
        "เรื่อง การขยายเวลาเปิดจุดผ่านแดนถาวรบ้านคลองลึก อำเภออรัญประเทศ จังหวัดสระแก้ว"
      ]
    ],
    []
  ],
  "metadata": {
    "date_backmatter": "2548-04-06",
    "date_modified": "2548-04-12",
    "date_original": "2548-04-12",
    "doctype": "ประกาศ",
    "editors": [
      {
        "name": "พัชรินทร์",
        "role": "ผู้จัดทำ",
        "date": "2548-07-14"
      }
    ],
    "tag": "a402-2e-2548-a0004"
  }
}