{
  "pages": [
    [
      [
        "กฎกระทรวง",
        "กำหนดอัตราค่าธรรมเนียมการตรวจลงตราสำหรับคนต่างด้าว",
        "สัญชาติเมียนมา ลาว และกัมพูชา ซึ่งได้รับอนุญาตให้อยู่ในราชอาณาจักรเป็นการชั่วคราว",
        "ตามประกาศคณะรักษาความสงบแห่งชาติ",
        "พ.ศ. ๒๕๕๘"
      ]
    ],
    []
  ],
  "metadata": {
    "date_backmatter": "2558-02-20",
    "date_modified": "2558-03-05",
    "date_original": "2558-03-05",
    "doctype": "กฎกระทรวง",
    "editors": [
      {
        "name": "ปริยานุช",
        "role": "ผู้จัดทำ",
        "date": "2558-03-10"
      },
      {
        "name": "กฤษดายุทธ",
        "role": "ผู้ตรวจ",
        "date": "2558-03-10"
      }
    ],
    "tag": "a402-2b-2558-a0001"
  }
}