{
  "pages": [
    [
      [
        "ประกาศกระทรวงการต่างประเทศ",
        "เรื่อง การปรับปรุงอัตราค่าธรรมเนียมหนังสือเดินทาง",
        "(ฉบับที่ ๓)"
      ]
    ],
    []
  ],
  "metadata": {
    "date_backmatter": "2558-03-06",
    "date_modified": "2558-04-07",
    "date_original": "2558-04-07",
    "doctype": "ประกาศ",
    "editors": [
      {
        "name": "ปริยานุช",
        "role": "ผู้จัดทำ",
        "date": "2558-04-09"
      },
      {
        "name": "นุสรา",
        "role": "ผู้ตรวจ",
        "date": "2558-04-09"
      }
    ],
    "tag": "a402-2e-2558-a0008"
  }
}