{
  "pages": [
    [
      [
        "ประกาศกระทรวงมหาดไทย",
        "เรื่อง แก้ไขเพิ่มเติมกำหนดที่ตั้งด่านตรวจคนเข้าเมือง",
        "และช่องทางให้บุคคลเข้ามาในหรือออกไปนอกราชอาณาจักร"
      ]
    ],
    []
  ],
  "metadata": {
    "date_backmatter": "2534-12-30",
    "date_gz_old": "2535-01-09",
    "doctype": "ประกาศ",
    "editors": [
      {
        "name": "จารุวรรณ",
        "role": "แก้ไข",
        "date": "2545-09-10"
      }
    ],
    "tag": "a402-2e-2535-a0001"
  }
}