{
  "pages": [
    [
      [
        "กฎกระทรวง",
        "ฉบับที่ ๓ (พ.ศ. ๒๕๐๒)",
        "ออกตามความในพระราชบัญญัติคนเข้าเมือง",
        "พ.ศ. ๒๔๙๓"
      ]
    ],
    []
  ],
  "metadata": {
    "date_backmatter": "2502-09-16",
    "date_gz_old": "2502-09-22",
    "doctype": "กฎกระทรวง",
    "editors": [
      {
        "name": "ธิดาวรรณ",
        "role": "แก้ไข",
        "date": "2545-11-06"
      }
    ],
    "tag": "a402-2b-2502-a0001"
  }
}