{
  "pages": [
    [
      [
        "ระเบียบกรมตำรวจ",
        "ว่าด้วยการแจ้งการเปลี่ยนที่พักอาศัย การย้ายที่พักอาศัย",
        "การเดินทางไปอยู่ต่างจังหวัดเกินยี่สิบสี่ชั่วโมง และการ",
        "อยู่ในราชอาณาจักรเกินเก้าสิบวัน ของคนต่างด้าว",
        "ซึ่งได้รับอนุญาตให้อยู่ในราชอาณาจักรเป็นการชั่วคราว"
      ]
    ],
    []
  ],
  "metadata": {
    "date_backmatter": "2522-05-25",
    "date_modified": "2522-06-15",
    "date_original": null,
    "editors": [
      {
        "name": "ฐิติพร",
        "role": "ปรับปรุง",
        "date": "2558-11-10"
      }
    ],
    "tag": "a402-2g-2522-001"
  }
}