{
  "pages": [
    [
      [
        "ประกาศกระทรวงมหาดไทย",
        "เรื่อง การเปิดจุดผ่อนปรนพิเศษด่านสิงขร หมู่ที่ ๖ ตำบลคลองวาฬ",
        "อำเภอเมืองประจวบคีรีขันธ์ จังหวัดประจวบคีรีขันธ์",
        "(ฉบับที่ ๒)"
      ]
    ],
    []
  ],
  "metadata": {
    "date_backmatter": "2559-01-13",
    "date_modified": "2559-01-26",
    "date_original": "2559-01-26",
    "doctype": "ประกาศ",
    "editors": [
      {
        "name": "ชวัลพร/ปริยานุช",
        "role": "จัดทำ",
        "date": "2559-02-03"
      }
    ],
    "tag": "a402-2e-2559-a0001"
  }
}