{
  "pages": [
    [
      [
        "กฎกระทรวง",
        "กำหนดแบบเอกสารตามกฎหมายว่าด้วยคนเข้าเมือง และวิธีการขอหลักฐานการแจ้งออกไป",
        "นอกราชอาณาจักรเพื่อกลับเข้ามาอีก และการขอกลับเข้ามามีถิ่นที่อยู่ในราชอาณาจักรตามเดิม",
        "พ.ศ. ๒๕๕๙"
      ]
    ],
    []
  ],
  "metadata": {
    "date_backmatter": "2559-05-26",
    "date_modified": "2560-01-27",
    "date_original": "2559-12-01",
    "doctype": "กฎกระทรวง",
    "editors": [
      {
        "name": "พรวิภา",
        "role": "จัดทำ",
        "date": "2560-01-30"
      },
      {
        "name": "ปริญสินีย์",
        "role": "ตรวจ",
        "date": "2560-01-31"
      }
    ],
    "tag": "a402-2b-2560-a0005"
  }
}