{
  "pages": [
    [
      [
        "ประกาศกระทรวงมหาดไทย",
        "เรื่อง การอนุญาตให้คนต่างด้าวบางจำพวกเข้ามาอยู่ในราชอาณาจักรเป็นกรณีพิเศษ",
        "เฉพาะกิจการแปรรูปสัตว์น้ำ ตามมติคณะรัฐมนตรี เมื่อวันที่ ๑๐ พฤศจิกายน พ.ศ. ๒๕๕๘"
      ]
    ],
    []
  ],
  "metadata": {
    "date_backmatter": "2558-12-30",
    "date_header": "2558-11-10",
    "date_modified": "2559-04-12",
    "date_original": "2559-01-28",
    "doctype": "ประกาศ",
    "editors": [
      {
        "name": "ชวัลพร/ปริยานุช",
        "role": "จัดทำ",
        "date": "2559-02-03"
      },
      {
        "name": "ปุณิกา",
        "role": "เพิ่มเติม",
        "date": "2559-05-03"
      }
    ],
    "tag": "a402-2e-9992-update"
  }
}