{
  "pages": [
    [
      [
        "ประกาศกระทรวงมหาดไทย",
        "เรื่อง การยกเว้นค่าธรรมเนียมการตรวจลงตราประเภทคนอยู่ชั่วคราว",
        "และค่าธรรมเนียมคำขออนุญาตเพื่ออยู่ในราชอาณาจักรเป็นการชั่วคราวต่อไปให้แก่คนต่างด้าว",
        "ที่เดินทางเข้ามาช่วยเหลือฟื้นฟูโรงงานและสถานประกอบการที่ประสบอุทกภัย"
      ]
    ],
    []
  ],
  "metadata": {
    "date_backmatter": "2556-04-10",
    "date_modified": "2556-04-26",
    "date_original": "2556-04-26",
    "doctype": "ประกาศ",
    "editors": [
      {
        "name": "ปริยานุช",
        "role": "ผู้จัดทำ",
        "date": "2556-04-29"
      },
      {
        "name": "อุษมล",
        "role": "ผู้ตรวจ",
        "date": "2556-05-01"
      }
    ],
    "tag": "a402-2e-2556-a0006"
  }
}