{
  "pages": [
    [
      [
        "ระเบียบคณะกรรมการคุ้มครองพันธุ์พืช",
        "ว่าด้วยการศึกษา ทดลอง หรือวิจัย พันธุ์พืชพื้นเมืองทั่วไปและพันธุ์พืชป่า",
        "ที่มิได้มีวัตถุประสงค์เพื่อประโยชน์ในทางการค้า พ.ศ. ๒๕๔๗"
      ]
    ],
    []
  ],
  "metadata": {
    "date_backmatter": "2547-02-04",
    "date_modified": null,
    "date_original": null,
    "editors": [
      {
        "name": "วิชชุตา",
        "role": "ผู้จัดทำ",
        "date": "2554-08-08"
      }
    ],
    "tag": "a482-2g-2547-a0001"
  }
}