{
  "pages": [
    [
      [
        "ประกาศกรมวิชาการเกษตร",
        "เรื่อง ชื่อพันธุ์พืชใหม่ที่ได้รับการจดทะเบียน ตามพระราชบัญญัติคุ้มครองพันธุ์พืช",
        "พ.ศ. ๒๕๔๒"
      ]
    ],
    []
  ],
  "metadata": {
    "date_backmatter": "2549-11-04",
    "date_modified": "2549-11-27",
    "date_original": "2549-11-27",
    "doctype": "ประกาศ",
    "editors": [
      {
        "name": "วิชชุตา",
        "role": "ผู้จัดทำ",
        "date": "2554-08-05"
      }
    ],
    "tag": "a482-2e-2549-a0003"
  }
}