{
  "pages": [
    [
      [
        "ประกาศกรมวิชาการเกษตร",
        "เรื่อง แบบคำขอจดทะเบียนพันธุ์พืชใหม่",
        "พ.ศ. ๒๕๔๖"
      ]
    ],
    []
  ],
  "metadata": {
    "date_backmatter": "2546-07-23",
    "date_modified": "2553-06-11",
    "date_original": "2546-09-01",
    "doctype": "ประกาศ",
    "editors": [
      {
        "name": "วิชชุตา",
        "role": "ผู้จัดทำ",
        "date": "2554-08-05"
      }
    ],
    "tag": "a482-2e-2553-a0003"
  }
}