{
  "pages": [
    [
      [
        "ประกาศกรมวิชาการเกษตร",
        "เรื่อง แบบคำขอและการเตรียมการเพื่อตรวจสอบพันธุ์พืช",
        "ที่ขอจดทะเบียนเป็นพันธุ์พืชใหม่ (ฉบับที่ ๖)",
        "พ.ศ. ๒๕๕๒"
      ]
    ],
    []
  ],
  "metadata": {
    "date_backmatter": "2552-08-07",
    "date_modified": "2552-11-20",
    "date_original": "2552-11-20",
    "doctype": "ประกาศ",
    "editors": [
      {
        "name": "วิชชุตา",
        "role": "ผู้จัดทำ",
        "date": "2554-08-05"
      }
    ],
    "tag": "a482-2e-2552-a0006"
  }
}