{
  "pages": [
    [
      [
        "ประกาศกรมวิชาการเกษตร",
        "เรื่อง การเตรียมการเพื่อตรวจสอบพันธุ์พืชที่ขอจดทะเบียนเป็นพันธุ์พืชใหม่",
        "พ.ศ. ๒๕๔๖"
      ]
    ],
    []
  ],
  "metadata": {
    "date_backmatter": "2546-08-05",
    "date_modified": "2547-03-16",
    "date_original": "2546-09-01",
    "doctype": "ประกาศ",
    "editors": [
      {
        "name": "วิชชุตา",
        "role": "ผู้จัดทำ",
        "date": "2554-08-05"
      },
      {
        "name": "จุฑามาศ",
        "role": "ปรับปรุง",
        "date": "2558-11-19"
      }
    ],
    "tag": "a482-2e-2547-a0002u"
  }
}