{
  "pages": [
    [
      [
        "ระเบียบกรมวิชาการเกษตร",
        "ว่าด้วยการตรวจสอบลักษณะของพันธุ์พืชที่ขอจดทะเบียนเป็นพันธุ์พืชใหม่ (ฉบับที่ ๑๕)",
        "พ.ศ. ๒๕๕๙"
      ]
    ],
    []
  ],
  "metadata": {
    "date_backmatter": "2559-05-27",
    "date_modified": "2559-07-13",
    "date_original": "2559-07-13",
    "editors": [
      {
        "name": "ชวัลพร/ปริยานุช",
        "role": "จัดทำ",
        "date": "2559-07-22"
      }
    ],
    "tag": "a482-2g-2559-a0001"
  }
}