{
  "pages": [
    [
      [
        "ประกาศกรมวิชาการเกษตร",
        "เรื่อง การเตรียมการเพื่อตรวจสอบพันธุ์พืชที่ขอจดทะเบียนเป็นพันธุ์พืชใหม่ (ฉบับที่ ๓)",
        "พ.ศ. ๒๕๔๘"
      ]
    ],
    []
  ],
  "metadata": {
    "date_backmatter": "2548-01-18",
    "date_modified": "2548-03-16",
    "date_original": "2548-03-16",
    "doctype": "ประกาศ",
    "editors": [
      {
        "name": "วิชชุตา",
        "role": "ผู้จัดทำ",
        "date": "2554-08-05"
      }
    ],
    "tag": "a482-2e-2548-a0003"
  }
}