{
  "pages": [
    [
      [
        "ระเบียบกรมวิชาการเกษตร",
        "ว่าด้วยการตรวจสอบลักษณะของพันธุ์พืชที่ขอจดทะเบียน",
        "เป็นพันธุ์พืชใหม่",
        "พ.ศ. ๒๕๔๖"
      ]
    ],
    []
  ],
  "metadata": {
    "date_backmatter": "2546-07-29",
    "date_modified": "2553-06-11",
    "date_original": "2546-09-01",
    "editors": [
      {
        "name": "วิชชุตา",
        "role": "ผู้จัดทำ",
        "date": "2554-08-08"
      }
    ],
    "tag": "a482-2g-2553-a0001u"
  }
}