{
  "pages": [
    [
      [
        "ประกาศกรมวิชาการเกษตร",
        "เรื่อง แบบคำขอและการเตรียมการเพื่อตรวจสอบพันธุ์พืชที่ขอจดทะเบียนเป็นพันธุ์พืชใหม่ (ฉบับที่ ๗)",
        "พ.ศ. ๒๕๕๓"
      ]
    ],
    []
  ],
  "metadata": {
    "date_backmatter": "2553-04-02",
    "date_modified": "2553-06-11",
    "date_original": "2553-06-11",
    "doctype": "ประกาศ",
    "editors": [
      {
        "name": "วิชชุตา",
        "role": "ผู้จัดทำ",
        "date": "2554-08-05"
      }
    ],
    "tag": "a482-2e-2553-a0002"
  }
}