{
  "pages": [
    [
      [
        "ระเบียบกรมวิชาการเกษตร",
        "ว่าด้วยการตรวจสอบลักษณะของพันธุ์พืชที่ขอจดทะเบียนเป็นพันธุ์พืชใหม่ (ฉบับที่ ๑๖)",
        "พ.ศ. ๒๕๖๐"
      ]
    ],
    []
  ],
  "metadata": {
    "date_backmatter": "2560-07-31",
    "date_modified": "2560-09-05",
    "date_original": "2560-09-05",
    "editors": [
      {
        "name": "พรวิภา/อัญชลี",
        "role": "จัดทำ",
        "date": "2560-09-07"
      }
    ],
    "tag": "a482-2g-2560-a0002"
  }
}