{
  "pages": [
    [
      [
        "ระเบียบคณะกรรมการกีฬามวย",
        "ว่าด้วยระเบียบและกติกาสำหรับการแข่งขันกีฬามวย",
        "พ.ศ. ๒๕๔๕"
      ]
    ],
    []
  ],
  "metadata": {
    "date_backmatter": "2545-05-30",
    "date_modified": "2545-08-29",
    "date_original": "2545-08-29",
    "editors": [
      {
        "name": "วิภา",
        "role": "ผู้จัดทำ",
        "date": "2554-02-01"
      },
      {
        "name": "วรวิมล",
        "role": "ตรวจ",
        "date": "2554-06-07"
      }
    ],
    "tag": "a1101-2g-2545-a0002"
  }
}