{
  "pages": [
    [
      [
        "กฎกระทรวง",
        "ฉบับที่ ๕ (พ.ศ. ๒๕๔๓)",
        "ออกตามความในพระราชบัญญัติกีฬามวย",
        "พ.ศ. ๒๕๔๒"
      ]
    ],
    []
  ],
  "metadata": {
    "date_backmatter": "2543-10-23",
    "date_modified": "2544-01-17",
    "date_original": "2544-01-17",
    "doctype": "กฎกระทรวง",
    "editors": [
      {
        "name": "วิภา",
        "role": "ผู้จัดทำ",
        "date": "2554-02-01"
      },
      {
        "name": "วรวิมล",
        "role": "ผู้ตรวจ",
        "date": "2554-06-07"
      }
    ],
    "tag": "a1101-2b-2544-a005"
  }
}