{
  "pages": [
    [
      [
        "คำสั่งหัวหน้าคณะรักษาความสงบแห่งชาติ",
        "ที่ ๖๓/๒๕๕๙",
        "เรื่อง การส่งเสริม สนับสนุน และปฏิรูปการกีฬาของประเทศ"
      ]
    ],
    []
  ],
  "metadata": {
    "date_backmatter": "2559-10-12",
    "date_modified": "2559-10-18",
    "date_original": "2559-10-18",
    "editors": [
      {
        "name": "ปริยานุช",
        "role": "จัดทำ",
        "date": "2559-10-19"
      },
      {
        "name": "นุสรา",
        "role": "ตรวจ",
        "date": "2559-10-20"
      }
    ],
    "tag": "a1101-20-2559-a0001"
  }
}