{
  "pages": [
    [
      [
        "ระเบียบคณะกรรมการกีฬามวย",
        "ว่าด้วยการสังกัดและย้ายสังกัดค่ายมวย",
        "พ.ศ. ๒๕๔๔"
      ]
    ],
    []
  ],
  "metadata": {
    "date_backmatter": "2544-05-15",
    "date_modified": "2544-12-03",
    "date_original": "2544-12-03",
    "editors": [
      {
        "name": "พรพิมล/พิมพ์",
        "role": "แก้ไข",
        "date": "2545-07-01"
      },
      {
        "name": "โชติกานต์",
        "role": "ปรับปรุง",
        "date": "2559-08-26"
      }
    ],
    "tag": "a1101-2g-2544-a009"
  }
}