{
  "pages": [
    [
      [
        "พระราชบัญญัติ",
        "กีฬามวย",
        "พ.ศ. ๒๕๔๒",
        "",
        "",
        "ภูมิพลอดุลยเดช ป.ร.",
        "ให้ไว้ ณ วันที่ ๔ ธันวาคม พ.ศ. ๒๕๔๒",
        "เป็นปีที่ ๕๔ ในรัชกาลปัจจุบัน"
      ]
    ],
    []
  ],
  "metadata": {
    "date_header": "2542-12-04",
    "date_modified": "2545-10-08",
    "date_original": "2542-12-16",
    "doctype": "พระราชบัญญัติ",
    "editors": [
      {
        "name": "ปณตภร",
        "role": "ผู้จัดทำ",
        "date": "2556-02-27"
      },
      {
        "name": "กุลชาติ",
        "role": "ตรวจ",
        "date": "2556-02-27"
      }
    ],
    "tag": "a1101-20-2545-a0001",
    "title": "กีฬามวย"
  }
}