{
  "pages": [
    [
      [
        "ระเบียบกรมอุตสาหกรรมพื้นฐานและการเหมืองแร่",
        "ว่าด้วยการดำเนินการเกี่ยวกับคำขอประทานบัตร การออกประทานบัตร",
        "การต่ออายุประทานบัตร และการโอนประทานบัตร (ฉบับที่ ๒)",
        "พ.ศ. ๒๕๔๗"
      ]
    ],
    []
  ],
  "metadata": {
    "date_backmatter": "2547-11-17",
    "date_modified": "2554-07-14",
    "date_original": "2554-07-14",
    "editors": [
      {
        "name": "ปริยานุช",
        "role": "ผู้จัดทำ",
        "date": "2554-08-02"
      },
      {
        "name": "ณัฐวดี",
        "role": "ตรวจ",
        "date": "2554-08-02"
      }
    ],
    "tag": "c328-2g-2554-a0001"
  }
}