{
  "pages": [
    [
      [
        "ประกาศกรมอุตสาหกรรมพื้นฐานและการเหมืองแร่",
        "เรื่อง หลักเกณฑ์ วิธีการ และเงื่อนไขในการเปลี่ยนแปลงแผนผังและวิธีการแต่งแร่",
        "การหยุดแต่งแร่ชั่วคราว การแจ้งแต่งแร่ใหม่ และการเลิกแต่งแร่",
        "พ.ศ. ๒๕๖๐"
      ]
    ],
    []
  ],
  "metadata": {
    "date_backmatter": "2560-08-11",
    "date_modified": "2561-01-29",
    "date_original": "2561-01-29",
    "doctype": "ประกาศ",
    "editors": [
      {
        "name": "ปวันวิทย์",
        "role": "จัดทำ",
        "date": "2561-02-13"
      }
    ],
    "tag": "c328-2e-2561-a0005"
  }
}