{
  "pages": [
    [
      [
        "ประกาศกรมอุตสาหกรรมพื้นฐานและการเหมืองแร่",
        "เรื่อง กำหนดคุณสมบัติและคุณลักษณะของดินอุตสาหกรรมชนิดดินเหนียวสี และชนิดดินซีเมนต์"
      ]
    ],
    []
  ],
  "metadata": {
    "date_backmatter": "2550-10-08",
    "date_modified": "2550-10-17",
    "date_original": "2550-10-17",
    "doctype": "ประกาศ",
    "editors": [
      {
        "name": "วัชศักดิ์",
        "role": "ผู้จัดทำ",
        "date": "2550-10-29"
      }
    ],
    "tag": "c328-2e-2550-a0002"
  }
}