{
  "pages": [
    [
      [
        "ประกาศกระทรวงทรัพยากรธรรมชาติและสิ่งแวดล้อม",
        "เรื่อง ยกเลิกเขตสำหรับดำเนินการสำรวจ การทดลอง การศึกษา",
        "หรือการวิจัยเกี่ยวกับแร่ ตามประกาศกระทรวงอุตสาหกรรม"
      ]
    ],
    []
  ],
  "metadata": {
    "date_backmatter": "2551-06-20",
    "date_modified": "2551-08-01",
    "date_original": "2551-08-01",
    "doctype": "ประกาศ",
    "editors": [
      {
        "name": "ปริยานุช",
        "role": "ผู้จัดทำ",
        "date": "2551-08-04"
      }
    ],
    "tag": "c328-2e-2551-a0002"
  }
}