{
  "pages": [
    [
      [
        "ประกาศกระทรวงอุตสาหกรรม",
        "เรื่อง การกำหนดวาระการทำงาน เงื่อนไขและวิธีการเพิกถอนผู้มีสิทธิ",
        "ตรวจสอบการทำเหมืองใต้ดิน การเก็บรักษากองทุน คุณสมบัติมาตรฐาน",
        "ของผู้เชี่ยวชาญ ลักษณะสัญญาว่าจ้างผู้เชี่ยวชาญ และระเบียบการเบิกจ่าย",
        "กองทุนสนับสนุนการมีส่วนร่วมตรวจสอบการทำเหมืองใต้ดิน"
      ]
    ],
    []
  ],
  "metadata": {
    "date_backmatter": "2547-02-26",
    "date_modified": "2547-03-09",
    "date_original": "2547-03-09",
    "doctype": "ประกาศ",
    "editors": [
      {
        "name": "มยุรี",
        "role": "พิมพ์",
        "date": "2547-06-25"
      },
      {
        "name": "สุมลรัตน์/พัชรินทร์",
        "role": "ตรวจ",
        "date": "2547-07-02"
      }
    ],
    "tag": "c328-2e-2547-a0004"
  }
}