{
  "pages": [
    [
      [
        "กฎกระทรวง",
        "การแต่งตั้งกรรมการผู้ทรงคุณวุฒิในคณะกรรมการนโยบายบริหารจัดการแร่แห่งชาติ",
        "พ.ศ. ๒๕๖๑"
      ]
    ],
    []
  ],
  "metadata": {
    "date_backmatter": "2561-06-01",
    "date_modified": "2561-06-12",
    "date_original": "2561-06-12",
    "doctype": "กฎกระทรวง",
    "editors": [
      {
        "name": "วิวรรธน์",
        "role": "จัดทำ",
        "date": "2561-06-13"
      },
      {
        "name": "ปริญสินีย์",
        "role": "ตรวจ",
        "date": "2561-11-30"
      }
    ],
    "tag": "c328-2b-2561-a0001"
  }
}