{
  "pages": [
    [
      [
        "กฎกระทรวง",
        "ฉบับที่ ๔๘ (พ.ศ. ๒๕๒๔)",
        "ออกตามความในพระราชบัญญัติแร่",
        "พ.ศ. ๒๕๑๐"
      ]
    ],
    []
  ],
  "metadata": {
    "date_backmatter": "2524-06-25",
    "date_modified": "2524-07-01",
    "date_original": "2524-07-01",
    "doctype": "กฎกระทรวง",
    "editors": [],
    "tag": "c328-2b-2524-048"
  }
}