{
  "pages": [
    [
      [
        "กฎกระทรวง",
        "ฉบับที่ ๘๐ (พ.ศ. ๒๕๕๓)",
        "ออกตามความในพระราชบัญญัติแร่ พ.ศ. ๒๕๑๐"
      ]
    ],
    []
  ],
  "metadata": {
    "date_backmatter": "2553-11-01",
    "date_modified": "2553-12-03",
    "date_original": "2553-12-03",
    "doctype": "กฎกระทรวง",
    "editors": [
      {
        "name": "ปริยานุช",
        "role": "ผู้จัดทำ",
        "date": "2553-12-09"
      },
      {
        "name": "ณัฐวดี",
        "role": "ตรวจ",
        "date": "2553-12-09"
      }
    ],
    "tag": "c328-2b-2553-a0001"
  }
}