{
  "pages": [
    [
      [
        "กฎกระทรวง",
        "ฉบับที่ ๒๖ (พ.ศ. ๒๕๑๗)",
        "ออกตามความในพระราชบัญญัติแร่",
        "พ.ศ. ๒๕๑๐"
      ]
    ],
    []
  ],
  "metadata": {
    "date_backmatter": "2517-01-09",
    "date_gz_old": "2517-02-28",
    "doctype": "กฎกระทรวง",
    "editors": [],
    "tag": "c328-2b-2517-026"
  }
}