{
  "pages": [
    [
      [
        "ประกาศกระทรวงอุตสาหกรรม",
        "เรื่อง หลักเกณฑ์ วิธีการ เงื่อนไขในการเสนอและรับรองโครงการ",
        "ระเบียบการรับและจ่ายเงิน และอัตราค่าใช้จ่ายที่เรียกเก็บจาก",
        "ผู้ขอประทานบัตรสำหรับกองทุนสนับสนุนโครงการศึกษาวิจัย",
        "ของกลุ่มผู้มีส่วนได้เสียในโครงการทำเหมืองใต้ดิน"
      ]
    ],
    []
  ],
  "metadata": {
    "date_backmatter": "2547-02-26",
    "date_modified": "2547-03-09",
    "date_original": "2547-03-09",
    "doctype": "ประกาศ",
    "editors": [
      {
        "name": "พรพิมล",
        "role": "พิมพ์",
        "date": "2547-06-24"
      },
      {
        "name": "ทรงยศ/ศุภสรณ์",
        "role": "ตรวจ",
        "date": "2547-06-30"
      }
    ],
    "tag": "c328-2e-2547-a0003"
  }
}