{
  "pages": [
    [
      [
        "ประกาศอธิบดีกรมทรัพยากรธรณี",
        "ฉบับที่ ๓ (พ.ศ. ๒๕๓๑)",
        "ออกตามความในพระราชบัญญัติแร่ พ.ศ. ๒๕๑๐",
        "เรื่อง กำหนดชนิดและสภาพของแร่ที่ผู้ซื้อแร่ไม่ต้องขอรับใบอนุญาตซื้อแร่"
      ]
    ],
    []
  ],
  "metadata": {
    "date_backmatter": "2531-09-09",
    "date_modified": "2531-09-16",
    "date_original": "2531-09-16",
    "doctype": "ประกาศ",
    "editors": [
      {
        "name": "สัญชัย",
        "role": "ผู้จัดทำ",
        "date": "2551-08-11"
      }
    ],
    "tag": "c328-2e-2531-a0001"
  }
}