{
  "pages": [
    [
      [
        "ระเบียบกรมอุตสาหกรรมพื้นฐานและการเหมืองแร่",
        "ว่าด้วยการดำเนินการออกใบอนุญาตขนแร่",
        "พ.ศ. ๒๕๕๖"
      ]
    ],
    []
  ],
  "metadata": {
    "date_backmatter": "2556-09-19",
    "date_modified": "2556-11-04",
    "date_original": "2556-11-04",
    "editors": [
      {
        "name": "ปริยานุช",
        "role": "ผู้จัดทำ",
        "date": "2556-11-11"
      },
      {
        "name": "อังศุมาลี",
        "role": "ผู้ตรวจ",
        "date": "2556-11-11"
      }
    ],
    "tag": "c328-2g-2556-a0001"
  }
}