{
  "pages": [
    [
      [
        "ประกาศกระทรวงคมนาคม",
        "เรื่อง กำหนดให้ทางพิเศษบูรพาวิถี (ทางพิเศษสายบางนา - ชลบุรี) ทางยกระดับด้านทิศใต้",
        "สนามบินสุวรรณภูมิเชื่อมทางพิเศษบูรพาวิถี และทางเชื่อมต่อทางพิเศษกาญจนาภิเษก",
        "(บางพลี - สุขสวัสดิ์) กับทางพิเศษบูรพาวิถี เป็นทางต้องเสียค่าผ่านทางพิเศษ",
        "ประเภทของรถที่ต้องเสียหรือยกเว้นค่าผ่านทางพิเศษ และอัตราค่าผ่านทางพิเศษ (ฉบับที่ ๔)",
        "พ.ศ. ๒๕๕๗"
      ]
    ],
    []
  ],
  "metadata": {
    "date_backmatter": "2557-12-17",
    "date_modified": "2557-12-19",
    "date_original": "2557-12-19",
    "doctype": "ประกาศ",
    "editors": [
      {
        "name": "ปริยานุช",
        "role": "ผู้จัดทำ",
        "date": "2558-01-05"
      },
      {
        "name": "นุสรา",
        "role": "ตรวจ",
        "date": "2558-05-19"
      }
    ],
    "tag": "a1124-2e-2557-a0007"
  }
}