{
  "pages": [
    [
      [
        "พระราชกฤษฎีกา",
        "กำหนดเขตที่ดินในบริเวณที่ที่จะเวนคืน",
        "ในท้องที่อำเภอบางกรวย จังหวัดนนทบุรี และเขตทวีวัฒนา",
        "เขตตลิ่งชัน เขตบางพลัด เขตบางกอกน้อย เขตบางซื่อ",
        "และเขตจตุจักร กรุงเทพมหานคร",
        "พ.ศ. ๒๕๕๕",
        "",
        "",
        "ภูมิพลอดุลยเดช ป.ร.",
        "ให้ไว้ ณ วันที่ ๒ กุมภาพันธ์ พ.ศ. ๒๕๕๕",
        "เป็นปีที่ ๖๗ ในรัชกาลปัจจุบัน"
      ]
    ],
    []
  ],
  "metadata": {
    "date_header": "2555-02-02",
    "date_modified": "2555-02-10",
    "date_original": "2555-02-10",
    "doctype": "พระราชกฤษฎีกา",
    "editors": [
      {
        "name": "ปริยานุช",
        "role": "ผู้จัดทำ",
        "date": "2555-02-16"
      },
      {
        "name": "ณัฐพร",
        "role": "ผู้ตรวจ",
        "date": "2555-02-16"
      }
    ],
    "tag": "a1124-2a-2555-a0001",
    "title": "กำหนดเขตที่ดินในบริเวณที่ที่จะเวนคืนในท้องที่อำเภอบางกรวย จังหวัดนนทบุรี และเขตทวีวัฒนาเขตตลิ่งชัน เขตบางพลัด เขตบางกอกน้อย เขตบางซื่อและเขตจตุจักร กรุงเทพมหานคร"
  }
}