{
  "pages": [
    [
      [
        "ประกาศการทางพิเศษแห่งประเทศไทย",
        "เรื่อง การออกพันธบัตรการทางพิเศษแห่งประเทศไทย",
        "พ.ศ. ๒๕๕๑ ครั้งที่ ๑๒ ถึงครั้งที่ ๑๕"
      ]
    ],
    []
  ],
  "metadata": {
    "date_backmatter": "2551-03-17",
    "date_modified": "2551-04-02",
    "date_original": "2551-04-02",
    "doctype": "ประกาศ",
    "editors": [
      {
        "name": "วัชศักดิ์",
        "role": "จัดทำ",
        "date": "2551-04-09"
      },
      {
        "name": "โชติกานต์",
        "role": "ปรับปรุง",
        "date": "2559-11-24"
      }
    ],
    "tag": "a1124-2e-2551-a0008"
  }
}