{
  "pages": [
    [
      [
        "ประกาศการทางพิเศษแห่งประเทศไทย",
        "เรื่อง การออกพันธบัตรการทางพิเศษแห่งประเทศไทย พ.ศ. ๒๕๕๕",
        "ครั้งที่ ๒ และครั้งที่ ๓"
      ]
    ],
    []
  ],
  "metadata": {
    "date_backmatter": "2555-09-27",
    "date_modified": "2555-11-12",
    "date_original": "2555-11-12",
    "doctype": "ประกาศ",
    "editors": [
      {
        "name": "ปริยานุช",
        "role": "ผู้จัดทำ",
        "date": "2555-11-16"
      },
      {
        "name": "ชาญ",
        "role": "ผู้ตรวจ",
        "date": "2555-11-23"
      }
    ],
    "tag": "a1124-2e-2555-a0005"
  }
}