{
  "pages": [
    [
      [
        "พระราชบัญญัติ",
        "การทางพิเศษแห่งประเทศไทย",
        "พ.ศ. ๒๕๕๐",
        "",
        "",
        "ภูมิพลอดุลยเดช ป.ร.",
        "ให้ไว้ ณ วันที่ ๓๑ ธันวาคม พ.ศ. ๒๕๕๐",
        "เป็นปีที่ ๖๒ ในรัชกาลปัจจุบัน"
      ]
    ],
    []
  ],
  "metadata": {
    "date_backmatter": "2515-11-27",
    "date_header": "2550-12-31",
    "date_modified": "2551-01-08",
    "date_original": "2551-01-08",
    "doctype": "พระราชบัญญัติ",
    "editors": [
      {
        "name": "กมลฤทัย",
        "role": "ปรับปรุง",
        "date": "2556-03-21"
      },
      {
        "name": "สุพิชชา",
        "role": "ตรวจ",
        "date": "2556-04-03"
      }
    ],
    "tag": "a1124-20-2551-a0001",
    "title": "การทางพิเศษแห่งประเทศไทย"
  }
}