{
  "pages": [
    [
      [
        "ประกาศการทางพิเศษแห่งประเทศไทย",
        "เรื่อง การออกพันธบัตรการทางพิเศษแห่งประเทศไทย",
        "พ.ศ. ๒๕๕๗",
        "ครั้งที่ ๓"
      ]
    ],
    []
  ],
  "metadata": {
    "date_backmatter": "2557-04-01",
    "date_modified": "2557-04-11",
    "date_original": "2557-04-11",
    "doctype": "ประกาศ",
    "editors": [
      {
        "name": "ปริยานุช",
        "role": "ผู้จัดทำ",
        "date": "2557-04-17"
      },
      {
        "name": "กฤษดายุทธ",
        "role": "ผู้ตรวจ",
        "date": "2557-04-17"
      }
    ],
    "tag": "a1124-2e-2557-a0002"
  }
}