{
  "pages": [
    [
      [
        "ระเบียบ",
        "เกี่ยวกับการจราจรในทางพิเศษ",
        "พ.ศ. ๒๕๕๕"
      ]
    ],
    []
  ],
  "metadata": {
    "date_backmatter": "2555-09-03",
    "date_modified": "2555-10-30",
    "date_original": "2555-10-30",
    "editors": [
      {
        "name": "ปริยานุช",
        "role": "ผู้จัดทำ",
        "date": "2555-11-01"
      },
      {
        "name": "ปณตภร",
        "role": "ผู้ตรวจ",
        "date": "2555-11-19"
      }
    ],
    "tag": "a1124-2g-2555-a0001"
  }
}