{
  "pages": [
    [
      [
        "ประกาศกระทรวงอุตสาหกรรม",
        "เรื่อง แผนปฏิบัติการส่งเสริมวิสาหกิจขนาดกลางและขนาดย่อม",
        "พ.ศ. ๒๕๕๓ - ๒๕๕๔"
      ]
    ],
    []
  ],
  "metadata": {
    "date_backmatter": "2553-10-07",
    "date_modified": "2553-11-05",
    "date_original": "2553-11-05",
    "doctype": "ประกาศ",
    "editors": [
      {
        "name": "อุษมล",
        "role": "ผู้จัดทำ",
        "date": "2555-05-03"
      },
      {
        "name": "วิชพงษ์",
        "role": "ผู้ตรวจ",
        "date": "2555-06-06"
      }
    ],
    "tag": "ca58-2e-2553-a0001"
  }
}