{
  "pages": [
    [
      [
        "ข้อบังคับการท่องเที่ยวแห่งประเทศไทย",
        "ฉบับที่ ๔",
        "(พ.ศ. ๒๕๒๓)",
        "ว่าด้วยการมอบอำนาจแก่ผู้ว่าการในการอนุมัติสั่งจ่ายเงินของ ททท."
      ]
    ],
    []
  ],
  "metadata": {
    "date_backmatter": "2523-07-15",
    "date_modified": "2523-09-13",
    "date_original": "2523-09-13",
    "editors": [
      {
        "name": "มณฑิตา",
        "role": "ผู้จัดทำ",
        "date": "2555-06-01"
      },
      {
        "name": "วิชพงษ์",
        "role": "ผู้ตรวจ",
        "date": "2555-06-18"
      }
    ],
    "tag": "a161-2i-2523-004"
  }
}