{
  "pages": [
    [
      [
        "พระราชบัญญัติ",
        "เงินเดือน เงินวิทยฐานะ และเงินประจำตำแหน่ง",
        "ข้าราชการครูและบุคลากรทางการศึกษา",
        "พ.ศ. ๒๕๔๗",
        "",
        "",
        "ภูมิพลอดุลยเดช ป.ร.",
        "ให้ไว้ ณ วันที่ ๒๑ ธันวาคม พ.ศ. ๒๕๔๗",
        "เป็นปีที่ ๕๙ ในรัชกาลปัจจุบัน"
      ]
    ],
    []
  ],
  "metadata": {
    "date_header": "2547-12-21",
    "date_modified": "2558-05-21",
    "date_original": "2547-12-23",
    "doctype": "พระราชบัญญัติ",
    "editors": [
      {
        "name": "ดำรง",
        "role": "ปรับปรุง",
        "date": "2554-05-11"
      },
      {
        "name": "ฐานิศร์",
        "role": "ปรับปรุง",
        "date": "2556-06-12"
      },
      {
        "name": "พลัฐวัษ",
        "role": "ตรวจ",
        "date": "2556-06-12"
      },
      {
        "name": "โชติกานต์",
        "role": "เพิ่มเติม",
        "date": "2557-12-18"
      },
      {
        "name": "วริญา",
        "role": "เพิ่มเติม",
        "date": "2558-05-25"
      },
      {
        "name": "ปัญญา",
        "role": "ตรวจ",
        "date": "2558-05-25"
      },
      {
        "name": "วิภา",
        "role": "เพิ่มเติม",
        "date": "2559-10-26"
      }
    ],
    "tag": "a709-20-9999-update",
    "title": "เงินเดือน เงินวิทยฐานะ และเงินประจำตำแหน่งข้าราชการครูและบุคลากรทางการศึกษา"
  }
}