{
  "pages": [
    [
      [
        "กฎกระทรวง",
        "ฉบับที่ ๑ (พ.ศ. ๒๕๐๙)",
        "ออกตามความในพระราชบัญญัติสมาคมการค้า",
        "พ.ศ. ๒๕๐๙"
      ]
    ],
    []
  ],
  "metadata": {
    "date_backmatter": "2509-06-16",
    "date_modified": "2509-06-24",
    "date_original": "2509-06-24",
    "doctype": "กฎกระทรวง",
    "editors": [
      {
        "name": "มณฑิตา",
        "role": "ผู้จัดทำ",
        "date": "2555-07-16"
      },
      {
        "name": "วิชพงษ์",
        "role": "ผู้ตรวจ",
        "date": "2555-08-16"
      }
    ],
    "tag": "ca22-2b-2509-001"
  }
}