{
  "pages": [
    [
      [
        "กฎกระทรวง",
        "ฉบับที่ ๔ (พ.ศ. ๒๕๓๘)",
        "ออกตามความในพระราชบัญญัติสมาคมการค้า",
        "พ.ศ. ๒๕๐๙"
      ]
    ],
    []
  ],
  "metadata": {
    "date_backmatter": "2538-01-04",
    "date_modified": "2538-01-05",
    "date_original": "2538-01-05",
    "doctype": "กฎกระทรวง",
    "editors": [
      {
        "name": "มณฑิตา",
        "role": "ผู้จัดทำ",
        "date": "2555-07-16"
      },
      {
        "name": "วิชพงษ์",
        "role": "ผู้ตรวจ",
        "date": "2555-08-16"
      }
    ],
    "tag": "ca22-2b-2538-004"
  }
}