{
  "pages": [
    [
      [
        "กฎกระทรวง",
        "กำหนดคำร้องขอ การส่งมอบตัวบุคคล และค่าใช้จ่ายเกี่ยวกับการส่งผู้ร้ายข้ามแดน",
        "พ.ศ. ๒๕๕๓"
      ]
    ],
    []
  ],
  "metadata": {
    "date_backmatter": "2553-06-11",
    "date_modified": "2553-07-16",
    "date_original": "2553-07-16",
    "doctype": "กฎกระทรวง",
    "editors": [
      {
        "name": "ปริยานุช",
        "role": "ผู้จัดทำ",
        "date": "2553-07-20"
      },
      {
        "name": "นันท์นภัสร์",
        "role": "ตรวจ",
        "date": "2553-07-20"
      }
    ],
    "tag": "ca05-2b-2553-a0001"
  }
}