{
  "pages": [
    [
      [
        "พระราชบัญญัติ",
        "ว่าด้วยการส่งผู้ร้ายข้ามแดนระหว่างราชอาณาจักรไทย",
        "กับสาธารณรัฐฟิลิปปินส์",
        "พ.ศ. ๒๕๒๗",
        "",
        "",
        "ภูมิพลอดุลยเดช ป.ร.",
        "ให้ไว้ ณ วันที่ ๑๔ สิงหาคม พ.ศ. ๒๕๒๗",
        "เป็นปีที่ ๓๙ ในรัชกาลปัจจุบัน"
      ]
    ],
    []
  ],
  "metadata": {
    "date_backmatter": "2524-03-16",
    "date_header": "2527-08-14",
    "date_modified": "2527-08-30",
    "date_original": "2527-08-30",
    "doctype": "พระราชบัญญัติ",
    "editors": [
      {
        "name": "ณัฐพร",
        "role": "แก้ไข",
        "date": "2553-10-06"
      },
      {
        "name": "วศิน",
        "role": "ตรวจ",
        "date": "2553-10-06"
      }
    ],
    "tag": "c747-20-2527-001",
    "title": "การส่งผู้ร้ายข้ามแดนระหว่างราชอาณาจักรไทยกับสาธารณรัฐฟิลิปปินส์"
  }
}