{
  "pages": [
    [
      [
        "พระราชบัญญัติ",
        "สุขภาพแห่งชาติ (ฉบับที่ ๒)",
        "พ.ศ. ๒๕๕๓",
        "",
        "",
        "ภูมิพลอดุลยเดช ป.ร.",
        "ให้ไว้ ณ วันที่ ๒๔ มีนาคม พ.ศ. ๒๕๕๓",
        "เป็นปีที่ ๖๕ ในรัชกาลปัจจุบัน"
      ]
    ],
    []
  ],
  "metadata": {
    "date_header": "2553-03-24",
    "date_modified": "2553-03-31",
    "date_original": "2553-03-31",
    "doctype": "พระราชบัญญัติ",
    "editors": [
      {
        "name": "ปริยานุช",
        "role": "จัดทำ",
        "date": "2553-04-07"
      },
      {
        "name": "นันท์นภัสร์",
        "role": "ตรวจ",
        "date": "2553-04-07"
      },
      {
        "name": "โชติกานต์",
        "role": "ปรับปรุง",
        "date": "2561-02-13"
      }
    ],
    "tag": "ca71-20-2553-a0001",
    "title": "สุขภาพแห่งชาติ (ฉบับที่ ๒)"
  }
}