{
  "pages": [
    [
      [
        "กฎกระทรวง",
        "กำหนดหลักเกณฑ์และวิธีการดำเนินการตามหนังสือแสดงเจตนา",
        "ไม่ประสงค์จะรับบริการสาธารณสุขที่เป็นไปเพียงเพื่อยืดการตายในวาระสุดท้ายของชีวิต",
        "หรือเพื่อยุติการทรมานจากการเจ็บป่วย",
        "พ.ศ. ๒๕๕๓"
      ]
    ],
    []
  ],
  "metadata": {
    "date_backmatter": "2553-10-06",
    "date_modified": "2553-10-22",
    "date_original": "2553-10-22",
    "doctype": "กฎกระทรวง",
    "editors": [
      {
        "name": "ปริยานุช",
        "role": "จัดทำ",
        "date": "2553-10-27"
      },
      {
        "name": "ณัฐวดี",
        "role": "ตรวจ",
        "date": "2553-10-27"
      },
      {
        "name": "โชติกานต์",
        "role": "ปรับปรุง",
        "date": "2561-02-14"
      }
    ],
    "tag": "ca71-2b-2553-a0001"
  }
}