{
  "pages": [
    [
      [
        "พระราชบัญญัติ",
        "สุขภาพแห่งชาติ",
        "พ.ศ. ๒๕๕๐",
        "",
        "",
        "ภูมิพลอดุลยเดช ป.ร.",
        "ให้ไว้ ณ วันที่ ๓ มีนาคม พ.ศ. ๒๕๕๐",
        "เป็นปีที่ ๖๒ ในรัชกาลปัจจุบัน"
      ]
    ],
    []
  ],
  "metadata": {
    "date_header": "2550-03-03",
    "date_modified": "2550-03-19",
    "date_original": "2550-03-19",
    "doctype": "พระราชบัญญัติ",
    "editors": [
      {
        "name": "โสรศ",
        "role": "จัดทำ",
        "date": "2550-03-27"
      },
      {
        "name": "โชติกานต์",
        "role": "ปรับปรุง",
        "date": "2561-02-12"
      }
    ],
    "tag": "ca71-20-2550-a00001",
    "title": "สุขภาพแห่งชาติ"
  }
}