{
  "pages": [
    [
      [
        "ประกาศธนาคารแห่งประเทศไทย",
        "ที่ สนส. ๕/๒๕๕๘",
        "เรื่อง หลักเกณฑ์การให้ความเห็นชอบผู้สอบบัญชีของสถาบันการเงิน"
      ]
    ],
    []
  ],
  "metadata": {
    "date_backmatter": "2558-03-16",
    "date_modified": "2558-03-20",
    "date_original": "2558-03-20",
    "doctype": "ประกาศ",
    "editors": [
      {
        "name": "ปริยานุช",
        "role": "ผู้จัดทำ",
        "date": "2558-03-24"
      },
      {
        "name": "วันทิตา",
        "role": "ผู้ตรวจ",
        "date": "2558-04-24"
      }
    ],
    "tag": "b812-2e-2558-a0005"
  }
}