{
  "pages": [
    [
      [
        "ประกาศธนาคารแห่งประเทศไทย",
        "ที่ สนส. ๖/๒๕๕๖",
        "เรื่อง หลักเกณฑ์การขออนุญาตจัดตั้งสาขาและการประกอบกิจการ",
        "สาขาของธนาคารพาณิชย์ที่เป็นบริษัทลูกของธนาคารพาณิชย์ต่างประเทศรายใหม่"
      ]
    ],
    []
  ],
  "metadata": {
    "date_backmatter": "2556-06-13",
    "date_modified": "2556-06-28",
    "date_original": "2556-06-28",
    "doctype": "ประกาศ",
    "editors": [
      {
        "name": "ปริยานุช",
        "role": "ผู้จัดทำ",
        "date": "2556-07-02"
      },
      {
        "name": "โชติกานต์",
        "role": "ผู้ตรวจ",
        "date": "2556-07-18"
      }
    ],
    "tag": "b812-2e-2556-a0007"
  }
}