{
  "pages": [
    [
      [
        "ประกาศธนาคารแห่งประเทศไทย",
        "ที่ สนส. ๑๗/๒๕๕๙",
        "เรื่อง หลักเกณฑ์การกำกับดูแลด้านเงินกองทุนและการดำรงสินทรัพย์สภาพคล่อง",
        "สำหรับบริษัทเครดิตฟองซิเอร์"
      ]
    ],
    []
  ],
  "metadata": {
    "date_backmatter": "2559-12-09",
    "date_modified": null,
    "date_original": "2560-01-10",
    "doctype": "ประกาศ",
    "editors": [
      {
        "name": "วริญา/ปริยานุช",
        "role": "จัดทำ",
        "date": "2560-01-12"
      },
      {
        "name": "นุสรา",
        "role": "ตรวจ",
        "date": "2560-03-13"
      }
    ],
    "tag": "b812-2e-2560-a0002"
  }
}