{
  "pages": [
    [
      [
        "ประกาศธนาคารแห่งประเทศไทย",
        "ที่ สนส. ๒๑/๒๕๕๘",
        "เรื่อง การจัดทำและการประกาศงบการเงินของธนาคารพาณิชย์",
        "และบริษัทโฮลดิ้งที่เป็นบริษัทแม่ของกลุ่มธุรกิจทางการเงิน"
      ]
    ],
    []
  ],
  "metadata": {
    "date_backmatter": "2558-12-04",
    "date_modified": "2558-12-25",
    "date_original": "2558-12-25",
    "doctype": "ประกาศ",
    "editors": [
      {
        "name": "ปริยานุช",
        "role": "จัดทำ",
        "date": "2558-12-29"
      },
      {
        "name": "วริญา",
        "role": "ตรวจ",
        "date": "2559-01-07"
      }
    ],
    "tag": "b812-2e-2558-a0020"
  }
}