{
  "pages": [
    [
      [
        "ประกาศธนาคารแห่งประเทศไทย",
        "ที่ สนส. ๙๗/๒๕๕๑",
        "เรื่อง การกำหนดวันหยุดทำการของสถาบันการเงินเป็นกรณีพิเศษ"
      ]
    ],
    []
  ],
  "metadata": {
    "date_backmatter": "2551-12-09",
    "date_modified": "2551-12-12",
    "date_original": "2551-12-12",
    "doctype": "ประกาศ",
    "editors": [
      {
        "name": "วัชศักดิ์",
        "role": "ผู้จัดทำ",
        "date": "2551-12-15"
      }
    ],
    "tag": "b812-2e-2551-a0092"
  }
}