{
  "pages": [
    [
      [
        "ประกาศธนาคารแห่งประเทศไทย",
        "ที่ สนส. ๙/๒๕๕๓",
        "เรื่อง หลักเกณฑ์การแต่งตั้งตัวแทนของสถาบันการเงิน (Banking Agent)"
      ]
    ],
    []
  ],
  "metadata": {
    "date_backmatter": "2553-10-20",
    "date_modified": "2553-11-03",
    "date_original": "2553-11-03",
    "doctype": "ประกาศ",
    "editors": [
      {
        "name": "ปริยานุช",
        "role": "ผู้จัดทำ",
        "date": "2553-11-10"
      },
      {
        "name": "ณัฐวดี",
        "role": "ตรวจ",
        "date": "2553-11-10"
      }
    ],
    "tag": "b812-2e-2553-a0011"
  }
}