{
  "pages": [
    [
      [
        "ประกาศธนาคารแห่งประเทศไทย",
        "ที่ สนส. ๖๐/๒๕๕๑",
        "เรื่อง ธรรมาภิบาลของสถาบันการเงิน"
      ]
    ],
    []
  ],
  "metadata": {
    "date_backmatter": "2551-08-03",
    "date_modified": "2551-08-03",
    "date_original": "2551-08-03",
    "doctype": "ประกาศ",
    "editors": [
      {
        "name": "วัชศักดิ์",
        "role": "ผู้จัดทำ",
        "date": "2551-08-06"
      }
    ],
    "tag": "b812-2e-2551-a0061"
  }
}