{
  "pages": [
    [
      [
        "ประกาศธนาคารแห่งประเทศไทย",
        "ที่ สกส. ๑/๒๕๖๑",
        "เรื่อง การบริหารจัดการด้านการให้บริการแก่ลูกค้าอย่างเป็นธรรม (Market conduct)"
      ]
    ],
    []
  ],
  "metadata": {
    "date_backmatter": "2561-01-12",
    "date_modified": "2561-01-30",
    "date_original": "2561-01-30",
    "doctype": "ประกาศ",
    "editors": [
      {
        "name": "ปวันวิทย์",
        "role": "จัดทำ",
        "date": "2561-02-13"
      }
    ],
    "tag": "b812-2e-2561-a0002"
  }
}