{
  "pages": [
    [
      [
        "ประกาศธนาคารแห่งประเทศไทย",
        "ที่ สกส. ๓/๒๕๕๓",
        "เรื่อง การกำหนดแบบรายงานการตรวจสอบสถาบันการเงิน"
      ]
    ],
    []
  ],
  "metadata": {
    "date_backmatter": "2553-07-19",
    "date_modified": "2553-08-10",
    "date_original": "2553-08-10",
    "doctype": "ประกาศ",
    "editors": [
      {
        "name": "ปริยานุช",
        "role": "ผู้จัดทำ",
        "date": "2553-08-23"
      },
      {
        "name": "ณัฐวดี",
        "role": "ตรวจ",
        "date": "2553-08-23"
      }
    ],
    "tag": "b812-2e-2553-a0008"
  }
}