{
  "pages": [
    [
      [
        "ประกาศธนาคารแห่งประเทศไทย",
        "ที่ สนส. ๒/๒๕๕๓",
        "เรื่อง การอนุญาตให้ธนาคารพาณิชย์ทำธุรกรรมเงินฝากหรือเงินกู้ยืมที่มีอนุพันธ์ด้านเงินเฟ้อแฝง"
      ]
    ],
    []
  ],
  "metadata": {
    "date_backmatter": "2553-03-19",
    "date_modified": "2553-03-30",
    "date_original": "2553-03-30",
    "doctype": "ประกาศ",
    "editors": [
      {
        "name": "ปริยานุช",
        "role": "ผู้จัดทำ",
        "date": "2553-06-16"
      },
      {
        "name": "นันท์นภัสร์",
        "role": "ตรวจ",
        "date": "2553-06-16"
      }
    ],
    "tag": "b812-2e-2553-a0003"
  }
}