{
  "pages": [
    [
      [
        "ประกาศธนาคารแห่งประเทศไทย",
        "ที่ สนส. ๙/๒๕๕๒",
        "เรื่อง การอนุญาตให้ธนาคารพาณิชย์ประกอบธุรกิจรับซื้อหรือรับโอนลูกหนี้เงินให้กู้ยืม"
      ]
    ],
    []
  ],
  "metadata": {
    "date_backmatter": "2552-04-30",
    "date_modified": "2552-05-27",
    "date_original": "2552-05-27",
    "doctype": "ประกาศ",
    "editors": [
      {
        "name": "ปริยานุช",
        "role": "ผู้จัดทำ",
        "date": "2552-06-03"
      }
    ],
    "tag": "b812-2e-2552-a0009"
  }
}