{
  "pages": [
    [
      [
        "ประกาศธนาคารแห่งประเทศไทย",
        "ที่ สนส. ๑๗/๒๕๕๕",
        "เรื่อง หลักเกณฑ์การคำนวณสินทรัพย์เสี่ยงด้านเครดิตของคู่สัญญาสำหรับธุรกรรมอนุพันธ์"
      ]
    ],
    []
  ],
  "metadata": {
    "date_backmatter": "2555-11-08",
    "date_modified": null,
    "date_original": "2555-12-07",
    "doctype": "ประกาศ",
    "editors": [
      {
        "name": "ปริยานุช",
        "role": "ผู้จัดทำ",
        "date": "2555-12-11"
      },
      {
        "name": "ชาญ",
        "role": "ผู้ตรวจ",
        "date": "2555-12-21"
      }
    ],
    "tag": "b812-2e-2555-a0017"
  }
}