{
  "pages": [
    [
      [
        "ประกาศธนาคารแห่งประเทศไทย",
        "ที่ สกส. ๑/๒๕๕๕",
        "เรื่อง การให้ความเห็นชอบการโอนและรับโอนกิจการบางส่วนที่สำคัญของธนาคารฮ่องกงและ",
        "เซี่ยงไฮ้แบงกิ้งคอร์ปอเรชั่น จำกัด สาขากรุงเทพฯ ให้แก่ธนาคารกรุงศรีอยุธยา จำกัด (มหาชน)",
        "และบริษัท บัตรกรุงศรีอยุธยา จำกัด"
      ]
    ],
    []
  ],
  "metadata": {
    "date_backmatter": "2555-02-23",
    "date_modified": "2555-03-01",
    "date_original": "2555-03-01",
    "doctype": "ประกาศ",
    "editors": [
      {
        "name": "ปริยานุช",
        "role": "ผู้จัดทำ",
        "date": "2555-03-05"
      },
      {
        "name": "ณัฐพร",
        "role": "ผู้ตรวจ",
        "date": "2555-03-05"
      }
    ],
    "tag": "b812-2e-2555-a0002"
  }
}