{
  "pages": [
    [
      [
        "ประกาศธนาคารแห่งประเทศไทย",
        "ที่ สนส. ๑๕/๒๕๕๓",
        "เรื่อง การกำหนดวันหยุดทำการของสถาบันการเงินเป็นกรณีพิเศษ"
      ]
    ],
    []
  ],
  "metadata": {
    "date_backmatter": "2553-12-07",
    "date_modified": "2553-12-24",
    "date_original": "2553-12-24",
    "doctype": "ประกาศ",
    "editors": [
      {
        "name": "ปริยานุช",
        "role": "ผู้จัดทำ",
        "date": "2553-12-28"
      },
      {
        "name": "ณัฐวดี",
        "role": "ตรวจ",
        "date": "2553-12-28"
      }
    ],
    "tag": "b812-2e-2553-a0017"
  }
}