{
  "pages": [
    [
      [
        "ประกาศธนาคารแห่งประเทศไทย",
        "ที่ สนส. ๗/๒๕๕๘",
        "เรื่อง องค์ประกอบของเงินกองทุนสำหรับธนาคารพาณิชย์ที่จดทะเบียนในประเทศ"
      ]
    ],
    []
  ],
  "metadata": {
    "date_backmatter": "2556-01-01",
    "date_modified": "2558-05-22",
    "date_original": "2558-05-22",
    "doctype": "ประกาศ",
    "editors": [
      {
        "name": "ปริยานุช",
        "role": "ผู้จัดทำ",
        "date": "2558-05-28"
      },
      {
        "name": "วริญา",
        "role": "ผู้ตรวจ",
        "date": "2558-06-12"
      }
    ],
    "tag": "b812-2e-2558-a0007"
  }
}