{
  "pages": [
    [
      [
        "ประกาศธนาคารแห่งประเทศไทย",
        "ที่ สกส. ๑๐/๒๕๕๙",
        "เรื่อง หลักเกณฑ์การกำกับดูแลความเสี่ยงด้านตลาดและการคำนวณสินทรัพย์เสี่ยง",
        "ด้านตลาดของสถาบันการเงินเฉพาะกิจ"
      ]
    ],
    []
  ],
  "metadata": {
    "date_backmatter": "2559-10-11",
    "date_modified": "2559-12-15",
    "date_original": "2559-12-15",
    "doctype": "ประกาศ",
    "editors": [
      {
        "name": "ปุณิกา/ปริยานุช",
        "role": "จัดทำ",
        "date": "2559-12-20"
      },
      {
        "name": "นุสรา",
        "role": "ตรวจ",
        "date": "2560-01-26"
      }
    ],
    "tag": "b812-2e-2559-a0064"
  }
}