{
  "pages": [
    [
      [
        "ประกาศสำนักนายกรัฐมนตรี",
        "เรื่อง การอนุมัติพระราชกำหนดภาษีการเดินทางออกนอกราชอาณาจักร",
        "พ.ศ. 2526"
      ]
    ],
    []
  ],
  "metadata": {
    "date_backmatter": "2527-06-14",
    "doctype": "ประกาศ",
    "editors": [],
    "tag": "c006-2e-2527-001"
  }
}