{
  "pages": [
    [
      [
        "ประกาศคณะกรรมการคุ้มครองคนไร้ที่พึ่ง",
        "เรื่อง กำหนดหลักเกณฑ์ วิธีการ และเงื่อนไขการสนับสนุนการดำเนินการแก่หน่วยงานของรัฐ",
        "องค์กรสาธารณประโยชน์ องค์กรสวัสดิการชุมชน องค์กรภาคเอกชนอื่น สถาบันศาสนา",
        "กลุ่มคนไร้ที่พึ่ง หรือกลุ่มบุคคล เพื่อการคุ้มครองคนไร้ที่พึ่ง"
      ]
    ],
    []
  ],
  "metadata": {
    "date_backmatter": "2559-07-07",
    "date_modified": "2559-08-22",
    "date_original": "2559-08-22",
    "doctype": "ประกาศ",
    "editors": [
      {
        "name": "วริญา/ปริยานุช",
        "role": "จัดทำ",
        "date": "2559-08-23"
      },
      {
        "name": "นุสรา",
        "role": "ตรวจ",
        "date": "2559-11-23"
      }
    ],
    "tag": "a1144-2e-2559-a0006"
  }
}