{
  "pages": [
    [
      [
        "ประกาศคณะกรรมการคุ้มครองคนไร้ที่พึ่ง",
        "เรื่อง กำหนดประเภทหรือลักษณะของบุคคลที่อยู่ในสภาวะยากลำบากและไม่อาจพึ่งพาบุคคลอื่นได้"
      ]
    ],
    []
  ],
  "metadata": {
    "date_backmatter": "2559-01-13",
    "date_modified": "2559-02-09",
    "date_original": "2559-02-09",
    "doctype": "ประกาศ",
    "editors": [
      {
        "name": "วิศนี/ปริยานุช",
        "role": "จัดทำ",
        "date": "2559-02-26"
      },
      {
        "name": "นุสรา",
        "role": "ตรวจ",
        "date": "2559-05-02"
      }
    ],
    "tag": "a1144-2e-2559-a0001"
  }
}