{
  "pages": [
    [
      [
        "ประกาศกระทรวงยุติธรรม",
        "เรื่อง กำหนดสถานที่เพื่อการฟื้นฟูสมรรถภาพผู้ติดยาเสพติด",
        "ตามพระราชบัญญัติฟื้นฟูสมรรถภาพผู้ติดยาเสพติด พ.ศ. ๒๕๔๕ (ฉบับที่ ๑๓) พ.ศ. ๒๕๔๙"
      ]
    ],
    []
  ],
  "metadata": {
    "date_backmatter": "2549-09-07",
    "date_modified": "2562-02-22",
    "date_original": "2549-09-13",
    "doctype": "ประกาศ",
    "editors": [
      {
        "name": "พัชรินทร์",
        "role": "ผู้จัดทำ",
        "date": "2549-09-28"
      },
      {
        "name": "ปวีร์",
        "role": "ปรับปรุง",
        "date": "2560-06-09"
      },
      {
        "name": "พิไลภรณ์",
        "role": "เพิ่มเติม",
        "date": "2562-03-18"
      },
      {
        "name": "วิชพงษ์",
        "role": "ตรวจ",
        "date": "2562-03-26"
      }
    ],
    "tag": "bf01-2e-9986-update"
  }
}