{
  "pages": [
    [
      [
        "ประกาศกระทรวงยุติธรรม",
        "เรื่อง กำหนดสถานที่เพื่อการฟื้นฟูสมรรถภาพผู้ติดยาเสพติด",
        "ตามพระราชบัญญัติฟื้นฟูสมรรถภาพผู้ติดยาเสพติด พ.ศ. ๒๕๔๕",
        "(ฉบับที่ ๒๖) พ.ศ. ๒๕๕๕"
      ]
    ],
    []
  ],
  "metadata": {
    "date_backmatter": "2555-05-17",
    "date_modified": "2555-06-22",
    "date_original": "2555-06-22",
    "doctype": "ประกาศ",
    "editors": [
      {
        "name": "ปริยานุช",
        "role": "ผู้จัดทำ",
        "date": "2555-06-27"
      },
      {
        "name": "ชาญ",
        "role": "ผู้ตรวจ",
        "date": "2555-07-02"
      }
    ],
    "tag": "bf01-2e-2555-a0007"
  }
}