{
  "pages": [
    [
      [
        "ประกาศกระทรวงยุติธรรม",
        "เรื่อง กำหนดสถานที่เพื่อการฟื้นฟูสมรรถภาพผู้ติดยาเสพติด",
        "ตามพระราชบัญญัติฟื้นฟูสมรรถภาพผู้ติดยาเสพติด พ.ศ. ๒๕๔๕ (ฉบับที่ ๖)",
        "พ.ศ. ๒๕๔๙"
      ]
    ],
    []
  ],
  "metadata": {
    "date_backmatter": "2549-04-03",
    "date_modified": "2549-05-01",
    "date_original": "2549-05-01",
    "doctype": "ประกาศ",
    "editors": [
      {
        "name": "นันทนา",
        "role": "ผู้จัดทำ",
        "date": "2549-05-03"
      },
      {
        "name": "สุกัญญา",
        "role": "ผู้จัดทำ",
        "date": "2552-03-25"
      },
      {
        "name": "ปวีร์",
        "role": "ปรับปรุง",
        "date": "2560-06-09"
      }
    ],
    "tag": "bf01-2e-2549-a0002"
  }
}