{
  "pages": [
    [
      [
        "ประกาศกระทรวงยุติธรรม",
        "เรื่อง กำหนดสถานที่เพื่อการตรวจพิสูจน์",
        "ตามพระราชบัญญัติฟื้นฟูสมรรถภาพผู้ติดยาเสพติด พ.ศ. ๒๕๔๕",
        "(ฉบับที่ ๑) พ.ศ. ๒๕๖๐"
      ]
    ],
    []
  ],
  "metadata": {
    "date_backmatter": "2560-01-05",
    "date_modified": "2560-02-22",
    "date_original": "2560-02-22",
    "doctype": "ประกาศ",
    "editors": [
      {
        "name": "พิมพ์มาดา/ปริยานุช",
        "role": "จัดทำ",
        "date": "2560-02-27"
      },
      {
        "name": "ปริญสินีย์",
        "role": "ตรวจ",
        "date": "2560-04-05"
      }
    ],
    "tag": "bf01-2e-2560-a0001"
  }
}