{
  "pages": [
    [
      [
        "ประกาศกระทรวงยุติธรรม",
        "เรื่อง ยกเลิกสถานที่เพื่อการฟื้นฟูสมรรถภาพผู้ติดยาเสพติด",
        "ตามพระราชบัญญัติฟื้นฟูสมรรถภาพผู้ติดยาเสพติด พ.ศ. ๒๕๔๕",
        "(ฉบับที่ ๑) พ.ศ. ๒๕๖๒"
      ]
    ],
    []
  ],
  "metadata": {
    "date_backmatter": "2562-01-03",
    "date_modified": "2562-01-22",
    "date_original": "2562-01-22",
    "doctype": "ประกาศ",
    "editors": [
      {
        "name": "พิไลภรณ์",
        "role": "จัดทำ",
        "date": "2562-03-18"
      },
      {
        "name": "วิชพงษ์",
        "role": "ตรวจ",
        "date": "2562-03-26"
      }
    ],
    "tag": "bf01-2e-2562-a0001"
  }
}