{
  "pages": [
    [
      [
        "ประกาศกระทรวงยุติธรรม",
        "เรื่อง แต่งตั้งพนักงานเจ้าหน้าที่",
        "ตามพระราชบัญญัติฟื้นฟูสมรรถภาพผู้ติดยาเสพติด พ.ศ. ๒๕๔๕",
        "(ฉบับที่ ๑) พ.ศ. ๒๕๖๐"
      ]
    ],
    []
  ],
  "metadata": {
    "date_backmatter": "2560-02-14",
    "date_modified": "2560-04-05",
    "date_original": "2560-04-05",
    "doctype": "ประกาศ",
    "editors": [
      {
        "name": "พรวิภา/ภวรรณตรี",
        "role": "จัดทำ",
        "date": "2560-04-10"
      },
      {
        "name": "นุสรา",
        "role": "ตรวจ",
        "date": "2560-05-24"
      }
    ],
    "tag": "bf01-2e-2560-a0003"
  }
}