{
  "pages": [
    [
      [
        "ระเบียบคณะกรรมการฟื้นฟูสมรรถภาพผู้ติดยาเสพติด",
        "ว่าด้วยการตรวจพิสูจน์ การฟื้นฟูสมรรถภาพผู้ติดยาเสพติด การควบคุมตัว และการปฏิบัติต่อผู้เข้ารับ",
        "การตรวจพิสูจน์และผู้เข้ารับการฟื้นฟูสมรรถภาพผู้ติดยาเสพติด (ฉบับที่ ๕)",
        "พ.ศ. ๒๕๕๖"
      ]
    ],
    []
  ],
  "metadata": {
    "date_backmatter": "2556-10-28",
    "date_modified": "2556-12-17",
    "date_original": "2556-12-17",
    "editors": [
      {
        "name": "ปริยานุช",
        "role": "ผู้จัดทำ",
        "date": "2556-12-19"
      },
      {
        "name": "อังศุมาลี",
        "role": "ผู้ตรวจ",
        "date": "2556-12-19"
      }
    ],
    "tag": "bf01-2g-2556-a0002"
  }
}