{
  "pages": [
    [
      [
        "ระเบียบคณะกรรมการฟื้นฟูสมรรถภาพผู้ติดยาเสพติด",
        "ว่าด้วยการเปรียบเทียบคดี พ.ศ. ๒๕๔๖"
      ]
    ],
    []
  ],
  "metadata": {
    "date_backmatter": "2546-02-05",
    "date_modified": "2546-02-21",
    "date_original": "2546-02-21",
    "editors": [
      {
        "name": "เกษร",
        "role": "พิมพ์",
        "date": "2546-05-22"
      },
      {
        "name": "ทรงยศ",
        "role": "สราวุฒิ จัดทำ",
        "date": "2546-05-22"
      },
      {
        "name": "สุกัญญา",
        "role": "ผู้จัดทำ",
        "date": "2552-03-25"
      },
      {
        "name": "รัศม์วรรณวลัย",
        "role": "ตรวจ",
        "date": "2552-03-31"
      }
    ],
    "tag": "bf01-2g-2546-a0002"
  }
}