{
  "pages": [
    [
      [
        "ประกาศกระทรวงยุติธรรม",
        "เรื่อง ยกเลิกประกาศกระทรวงยุติธรรม เรื่อง กำหนดสถานที่เพื่อการฟื้นฟูสมรรถภาพผู้ติดยาเสพติด",
        "ตามพระราชบัญญัติฟื้นฟูสมรรถภาพผู้ติดยาเสพติด พ.ศ. ๒๕๔๕",
        "(ฉบับที่ ๑๘)",
        "พ.ศ. ๒๕๕๑"
      ]
    ],
    []
  ],
  "metadata": {
    "date_backmatter": "2558-06-25",
    "date_modified": "2558-07-17",
    "date_original": "2558-07-17",
    "doctype": "ประกาศ",
    "editors": [
      {
        "name": "ปริยานุช",
        "role": "ผู้จัดทำ",
        "date": "2558-07-21"
      },
      {
        "name": "ปัญจพร",
        "role": "ผู้ตรวจ",
        "date": "2558-07-21"
      }
    ],
    "tag": "bf01-2e-2558-a0001"
  }
}