{
  "pages": [
    [
      [
        "ประกาศกระทรวงยุติธรรม",
        "เรื่อง แต่งตั้งพนักงานเจ้าหน้าที่",
        "ตามพระราชบัญญัติฟื้นฟูสมรรถภาพผู้ติดยาเสพติด พ.ศ. ๒๕๔๕",
        "(ฉบับที่ ๒) พ.ศ. ๒๕๖๐"
      ]
    ],
    []
  ],
  "metadata": {
    "date_backmatter": "2560-03-08",
    "date_modified": "2560-05-16",
    "date_original": "2560-05-16",
    "doctype": "ประกาศ",
    "editors": [
      {
        "name": "พิมพ์มาดา/ภวรรณตรี",
        "role": "จัดทำ",
        "date": "2560-05-23"
      }
    ],
    "tag": "bf01-2e-2560-a0005"
  }
}