{
  "pages": [
    [
      [
        "ประกาศกระทรวงยุติธรรม",
        "เรื่อง กำหนดสถานที่เพื่อการควบคุมตัวและสถานที่เพื่อการตรวจพิสูจน์",
        "ตามพระราชบัญญัติฟื้นฟูสมรรถภาพผู้ติดยาเสพติด พ.ศ. ๒๕๔๕ (ฉบับที่ ๗)",
        "พ.ศ. ๒๕๔๘"
      ]
    ],
    []
  ],
  "metadata": {
    "date_backmatter": "2548-10-26",
    "date_modified": "2548-11-09",
    "date_original": "2548-11-09",
    "doctype": "ประกาศ",
    "editors": [
      {
        "name": "ชัชสรัญ",
        "role": "ผู้จัดทำ",
        "date": "2548-11-14"
      },
      {
        "name": "สุกัญญา",
        "role": "ผู้จัดทำ",
        "date": "2552-03-25"
      },
      {
        "name": "รัศม์วรรณวลัย",
        "role": "ตรวจ",
        "date": "2552-03-31"
      },
      {
        "name": "ปณตภร",
        "role": "ปรับปรุง",
        "date": "2555-01-18"
      }
    ],
    "tag": "bf01-2e-2548-a0002"
  }
}