{
  "pages": [
    [
      [
        "ประกาศกระทรวงการคลัง",
        "เรื่อง ยกเลิกการกู้เงินสำหรับโครงการเพื่อการวางระบบ",
        "บริหารจัดการน้ำและสร้างอนาคตประเทศ พ.ศ. ๒๕๕๕",
        "ในปีงบประมาณ พ.ศ. ๒๕๕๖ ครั้งที่ ๑ (เพิ่มเติม) ครั้งที่ ๒ ครั้งที่ ๓ ครั้งที่ ๔ ครั้งที่ ๕ และครั้งที่ ๖"
      ]
    ],
    []
  ],
  "metadata": {
    "date_backmatter": "2558-02-05",
    "date_modified": "2558-02-18",
    "date_original": "2558-02-18",
    "doctype": "ประกาศ",
    "editors": [
      {
        "name": "ปริยานุช",
        "role": "ผู้จัดทำ",
        "date": "2558-02-20"
      },
      {
        "name": "ปริญสินีย์",
        "role": "ผู้ตรวจ",
        "date": "2558-02-23"
      }
    ],
    "tag": "a1117-2e-2558-a0016"
  }
}