{
  "pages": [
    [
      [
        "ประกาศกระทรวงการคลัง",
        "เรื่อง การจำหน่ายพันธบัตรรัฐบาลเพื่อการปรับโครงสร้างหนี้",
        "(พ.ร.ก. ช่วยเหลือกองทุนเพื่อการฟื้นฟูฯ ระยะที่สอง)",
        "ในปีงบประมาณ พ.ศ. ๒๕๕๕ ครั้งที่ ๘"
      ]
    ],
    []
  ],
  "metadata": {
    "date_backmatter": "2555-08-22",
    "date_modified": "2555-09-07",
    "date_original": "2555-09-07",
    "doctype": "ประกาศ",
    "editors": [
      {
        "name": "ปริยานุช",
        "role": "ผู้จัดทำ",
        "date": "2555-09-12"
      },
      {
        "name": "ณัฐพร",
        "role": "ผู้ตรวจ",
        "date": "2555-09-12"
      }
    ],
    "tag": "a1117-2e-2555-a0072"
  }
}