{
  "pages": [
    [
      [
        "ประกาศกระทรวงการคลัง",
        "เรื่อง ผลการออกพันธบัตรรัฐบาล ในปีงบประมาณ พ.ศ. ๒๕๕๒",
        "ครั้งที่ ๑๒"
      ]
    ],
    []
  ],
  "metadata": {
    "date_backmatter": "2552-06-11",
    "date_modified": "2552-07-13",
    "date_original": "2552-07-13",
    "doctype": "ประกาศ",
    "editors": [
      {
        "name": "ปริยานุช",
        "role": "ผู้จัดทำ",
        "date": "2552-07-15"
      }
    ],
    "tag": "a1117-2e-2552-a0069"
  }
}