{
  "pages": [
    [
      [
        "ประกาศกระทรวงการคลัง",
        "เรื่อง ผลการกู้เงินด้วยวิธีการออกตั๋วเงินคลัง ประจำเดือนสิงหาคม",
        "พ.ศ. ๒๕๕๑"
      ]
    ],
    []
  ],
  "metadata": {
    "date_backmatter": "2551-09-18",
    "date_modified": "2551-10-22",
    "date_original": "2551-10-22",
    "doctype": "ประกาศ",
    "editors": [
      {
        "name": "ปริยานุช",
        "role": "ผู้จัดทำ",
        "date": "2551-10-28"
      }
    ],
    "tag": "a1117-2e-2551-a0098"
  }
}