{
  "pages": [
    [
      [
        "ประกาศกระทรวงการคลัง",
        "เรื่อง ผลการออกพันธบัตรรัฐบาล",
        "ประเภทอัตราดอกเบี้ยแปรผันตามการเปลี่ยนแปลงของเงินเฟ้อ",
        "ในปีงบประมาณ พ.ศ. ๒๕๕๕ ครั้งที่ ๑"
      ]
    ],
    []
  ],
  "metadata": {
    "date_backmatter": "2555-03-29",
    "date_modified": "2555-04-05",
    "date_original": "2555-04-05",
    "doctype": "ประกาศ",
    "editors": [
      {
        "name": "ปริยานุช",
        "role": "ผู้จัดทำ",
        "date": "2555-04-11"
      },
      {
        "name": "ปณตภร",
        "role": "ผู้ตรวจ",
        "date": "2555-04-19"
      }
    ],
    "tag": "a1117-2e-2555-a0018"
  }
}