{
  "pages": [
    [
      [
        "ประกาศกระทรวงการคลัง",
        "เรื่อง ผลการกู้เงินด้วยวิธีการออกตั๋วเงินคลัง ประจำเดือนกรกฎาคม พ.ศ. ๒๕๕๓"
      ]
    ],
    []
  ],
  "metadata": {
    "date_backmatter": "2553-08-24",
    "date_header": "2553-07-00",
    "date_modified": "2553-09-20",
    "date_original": "2553-09-20",
    "doctype": "ประกาศ",
    "editors": [
      {
        "name": "ปริยานุช",
        "role": "ผู้จัดทำ",
        "date": "2553-09-29"
      },
      {
        "name": "นันท์นภัสร์",
        "role": "ตรวจ",
        "date": "2553-09-29"
      }
    ],
    "tag": "a1117-2e-2553-a0095"
  }
}