{
  "pages": [
    [
      [
        "ประกาศกระทรวงการคลัง",
        "เรื่อง ผลการออกพันธบัตรรัฐบาล",
        "ในปีงบประมาณ พ.ศ. ๒๕๕๖",
        "ครั้งที่ ๒๑"
      ]
    ],
    []
  ],
  "metadata": {
    "date_backmatter": "2556-09-27",
    "date_modified": "2556-10-31",
    "date_original": "2556-10-31",
    "doctype": "ประกาศ",
    "editors": [
      {
        "name": "ปริยานุช",
        "role": "ผู้จัดทำ",
        "date": "2556-11-04"
      },
      {
        "name": "อุษมล",
        "role": "ผู้ตรวจ",
        "date": "2556-11-06"
      }
    ],
    "tag": "a1117-2e-2556-a0108"
  }
}