{
  "pages": [
    [
      [
        "ประกาศกระทรวงการคลัง",
        "เรื่อง ผลการจำหน่ายพันธบัตรรัฐบาลเพื่อรายย่อยพิเศษ ในปีงบประมาณ พ.ศ. ๒๕๕๔"
      ]
    ],
    []
  ],
  "metadata": {
    "date_backmatter": "2554-11-08",
    "date_modified": "2554-11-17",
    "date_original": "2554-11-17",
    "doctype": "ประกาศ",
    "editors": [
      {
        "name": "ปริยานุช",
        "role": "ผู้จัดทำ",
        "date": "2554-11-22"
      },
      {
        "name": "ณัฐพร",
        "role": "ผู้ตรวจ",
        "date": "2554-11-28"
      }
    ],
    "tag": "a1117-2e-2554-a0081"
  }
}