{
  "pages": [
    [
      [
        "ประกาศกระทรวงการคลัง",
        "เรื่อง การจำหน่ายพันธบัตรรัฐบาล",
        "ในปีงบประมาณ พ.ศ. ๒๕๕๖",
        "ครั้งที่ ๑"
      ]
    ],
    []
  ],
  "metadata": {
    "date_backmatter": "2555-10-15",
    "date_modified": "2555-11-19",
    "date_original": "2555-11-19",
    "doctype": "ประกาศ",
    "editors": [
      {
        "name": "ปริยานุช",
        "role": "ผู้จัดทำ",
        "date": "2555-11-21"
      },
      {
        "name": "ปณตภร",
        "role": "ผู้ตรวจ",
        "date": "2555-11-22"
      }
    ],
    "tag": "a1117-2e-2555-a0091"
  }
}