{
  "pages": [
    [
      [
        "ประกาศกระทรวงการคลัง",
        "เรื่อง ผลการออกพันธบัตรรัฐบาลเพื่อการบริหารหนี้",
        "ในปีงบประมาณ พ.ศ. ๒๕๕๔ ครั้งที่ ๕"
      ]
    ],
    []
  ],
  "metadata": {
    "date_backmatter": "2554-08-19",
    "date_modified": "2554-09-02",
    "date_original": "2554-09-02",
    "doctype": "ประกาศ",
    "editors": [
      {
        "name": "ปริยานุช",
        "role": "ผู้จัดทำ",
        "date": "2554-10-03"
      },
      {
        "name": "ปณตภร",
        "role": "ผู้ตรวจ",
        "date": "2554-10-14"
      }
    ],
    "tag": "a1117-2e-2554-a0064"
  }
}