{
  "pages": [
    [
      [
        "ประกาศกระทรวงการคลัง",
        "เรื่อง ผลการจำหน่ายพันธบัตรรัฐบาล ในปีงบประมาณ พ.ศ. ๒๕๕๘",
        "ครั้งที่ ๘"
      ]
    ],
    []
  ],
  "metadata": {
    "date_backmatter": "2558-05-14",
    "date_modified": "2558-06-08",
    "date_original": "2558-06-08",
    "doctype": "ประกาศ",
    "editors": [
      {
        "name": "ปริยานุช",
        "role": "ผู้จัดทำ",
        "date": "2558-06-11"
      },
      {
        "name": "ปุณิกา",
        "role": "ผู้ตรวจ",
        "date": "2558-06-19"
      }
    ],
    "tag": "a1117-2e-2558-a0038"
  }
}