{
  "pages": [
    [
      [
        "ประกาศกระทรวงการคลัง",
        "เรื่อง รายงานผลการกู้เงินโดยการออกตั๋วสัญญาใช้เงินเพื่อการบริหารหนี้",
        "ในปีงบประมาณ พ.ศ. ๒๕๕๘",
        "ครั้งที่ ๓"
      ]
    ],
    []
  ],
  "metadata": {
    "date_backmatter": "2558-09-25",
    "date_modified": "2558-10-15",
    "date_original": "2558-10-15",
    "doctype": "ประกาศ",
    "editors": [
      {
        "name": "ปริยานุช",
        "role": "ผู้จัดทำ",
        "date": "2558-10-19"
      },
      {
        "name": "ปุณิกา",
        "role": "ผู้ตรวจ",
        "date": "2558-11-09"
      }
    ],
    "tag": "a1117-2e-2558-a0076"
  }
}