{
  "pages": [
    [
      [
        "ประกาศกระทรวงการคลัง",
        "เรื่อง ผลการจำหน่ายพันธบัตรรัฐบาล ในปีงบประมาณ พ.ศ. ๒๕๕๙",
        "ครั้งที่ ๔"
      ]
    ],
    []
  ],
  "metadata": {
    "date_backmatter": "2559-01-06",
    "date_modified": "2559-01-11",
    "date_original": "2559-01-11",
    "doctype": "ประกาศ",
    "editors": [
      {
        "name": "กัญฑรัตน์/ปริยานุช",
        "role": "จัดทำ",
        "date": "2559-01-13"
      },
      {
        "name": "นุสรา",
        "role": "ตรวจ",
        "date": "2559-04-27"
      }
    ],
    "tag": "a1117-2e-2559-a0004"
  }
}