{
  "pages": [
    [
      [
        "ประกาศกระทรวงการคลัง",
        "เรื่อง การจำหน่ายพันธบัตรรัฐบาลเพื่อการบริหารหนี้",
        "ในปีงบประมาณ พ.ศ. ๒๕๕๑",
        "ครั้งที่ ๙"
      ]
    ],
    []
  ],
  "metadata": {
    "date_backmatter": "2551-07-31",
    "date_modified": "2551-10-06",
    "date_original": "2551-10-06",
    "doctype": "ประกาศ",
    "editors": [
      {
        "name": "ปริยานุช",
        "role": "ผู้จัดทำ",
        "date": "2551-10-09"
      }
    ],
    "tag": "a1117-2e-2551-a0095"
  }
}