{
  "pages": [
    [
      [
        "ประกาศกระทรวงการคลัง",
        "เรื่อง ผลการกู้เงินด้วยวิธีการออกตั๋วเงินคลัง ประจำเดือนเมษายน พ.ศ. ๒๕๕๕"
      ]
    ],
    []
  ],
  "metadata": {
    "date_backmatter": "2555-05-10",
    "date_header": "2555-04-00",
    "date_modified": "2555-06-01",
    "date_original": "2555-06-01",
    "doctype": "ประกาศ",
    "editors": [
      {
        "name": "ปริยานุช",
        "role": "ผู้จัดทำ",
        "date": "2555-06-07"
      },
      {
        "name": "ชาญ",
        "role": "ผู้ตรวจ",
        "date": "2555-06-11"
      }
    ],
    "tag": "a1117-2e-2555-a0040"
  }
}