{
  "pages": [
    [
      [
        "ประกาศกระทรวงการคลัง",
        "เรื่อง การเปลี่ยนแปลงอัตราดอกเบี้ยตั๋วสัญญาใช้เงินเพื่อการบริหารหนี้",
        "ในปีงบประมาณ พ.ศ. ๒๕๕๑ ให้กับธนาคารไทยพาณิชย์ จำกัด (มหาชน)",
        "วันที่ ๒๗ มิถุนายน ๒๕๕๓"
      ]
    ],
    []
  ],
  "metadata": {
    "date_backmatter": "2553-06-24",
    "date_header": "2553-06-27",
    "date_modified": "2553-06-30",
    "date_original": "2553-06-30",
    "doctype": "ประกาศ",
    "editors": [
      {
        "name": "ปริยานุช",
        "role": "ผู้จัดทำ",
        "date": "2553-07-15"
      },
      {
        "name": "นันท์นภัสร์",
        "role": "ตรวจ",
        "date": "2553-07-15"
      }
    ],
    "tag": "a1117-2e-2553-a0059"
  }
}