{
  "pages": [
    [
      [
        "ประกาศกระทรวงการคลัง",
        "เรื่อง การประมูลพันธบัตรรัฐบาลเพื่อการบริหารหนี้",
        "ในปีงบประมาณ พ.ศ. ๒๕๕๐ ครั้งที่ ๗"
      ]
    ],
    []
  ],
  "metadata": {
    "date_backmatter": "2550-03-23",
    "date_modified": "2550-04-23",
    "date_original": "2550-04-23",
    "doctype": "ประกาศ",
    "editors": [
      {
        "name": "วัชศักดิ์",
        "role": "ผู้จัดทำ",
        "date": "2550-05-03"
      }
    ],
    "tag": "a1117-2e-2550-a0018"
  }
}