{
  "pages": [
    [
      [
        "ประกาศกระทรวงการคลัง",
        "เรื่อง การเปลี่ยนแปลงอัตราดอกเบี้ยเงินกู้จากธนาคารกรุงไทย จำกัด (มหาชน)",
        "ในปีงบประมาณ พ.ศ. ๒๕๕๐ (ครั้งที่ ๖) วันที่ ๒๖ มีนาคม ๒๕๕๓"
      ]
    ],
    []
  ],
  "metadata": {
    "date_backmatter": "2553-03-24",
    "date_header": "2553-03-26",
    "date_modified": "2553-04-02",
    "date_original": "2553-04-02",
    "doctype": "ประกาศ",
    "editors": [
      {
        "name": "ปริยานุช",
        "role": "ผู้จัดทำ",
        "date": "2553-06-17"
      },
      {
        "name": "นันท์นภัสร์",
        "role": "ตรวจ",
        "date": "2553-06-17"
      }
    ],
    "tag": "a1117-2e-2553-a0053"
  }
}