{
  "pages": [
    [
      [
        "ประกาศกระทรวงการคลัง",
        "เรื่อง ผลการออกพันธบัตรรัฐบาล ในปีงบประมาณ พ.ศ. ๒๕๕๔ ครั้งที่ ๑๑"
      ]
    ],
    []
  ],
  "metadata": {
    "date_backmatter": "2554-06-17",
    "date_modified": "2554-06-27",
    "date_original": "2554-06-27",
    "doctype": "ประกาศ",
    "editors": [
      {
        "name": "ปริยานุช",
        "role": "ผู้จัดทำ",
        "date": "2554-07-26"
      },
      {
        "name": "ณัฐวดี",
        "role": "ตรวจ",
        "date": "2554-07-26"
      }
    ],
    "tag": "a1117-2e-2554-a0042"
  }
}