{
  "pages": [
    [
      [
        "ประกาศกระทรวงการคลัง",
        "เรื่อง การเปลี่ยนแปลงอัตราดอกเบี้ยเงินกู้จากธนาคารกรุงไทย จำกัด (มหาชน)",
        "ในปีงบประมาณ พ.ศ. ๒๕๕๑ (ครั้งที่ ๑) วันที่ ๔ สิงหาคม ๒๕๕๑"
      ]
    ],
    []
  ],
  "metadata": {
    "date_backmatter": "2551-07-29",
    "date_header": "2551-08-04",
    "date_modified": "2551-08-27",
    "date_original": "2551-08-27",
    "doctype": "ประกาศ",
    "editors": [
      {
        "name": "ปริยานุช",
        "role": "ผู้จัดทำ",
        "date": "2551-09-02"
      }
    ],
    "tag": "a1117-2e-2551-a0078"
  }
}