{
  "pages": [
    [
      [
        "ประกาศกระทรวงการคลัง",
        "เรื่อง การกำหนดอัตราดอกเบี้ยเงินกู้จากธนาคารออมสิน",
        "ในปีงบประมาณ พ.ศ. ๒๕๕๐ (ครั้งที่ ๑) วันที่ ๑ มีนาคม ๒๕๕๑"
      ]
    ],
    []
  ],
  "metadata": {
    "date_backmatter": "2551-02-27",
    "date_header": "2551-03-01",
    "date_modified": "2551-03-06",
    "date_original": "2551-03-06",
    "doctype": "ประกาศ",
    "editors": [
      {
        "name": "ปริยานุช",
        "role": "ผู้จัดทำ",
        "date": "2551-03-14"
      }
    ],
    "tag": "a1117-2e-2551-a0024"
  }
}