{
  "pages": [
    [
      [
        "ประกาศกระทรวงการคลัง",
        "เรื่อง การปรับลดวงเงินการจำหน่ายพันธบัตรรัฐบาลเพื่อการบริหารหนี้",
        "ในปีงบประมาณ พ.ศ. ๒๕๕๒ ครั้งที่ ๗"
      ]
    ],
    []
  ],
  "metadata": {
    "date_backmatter": "2552-10-02",
    "date_modified": "2552-11-09",
    "date_original": "2552-11-09",
    "doctype": "ประกาศ",
    "editors": [
      {
        "name": "ปริยานุช",
        "role": "ผู้จัดทำ",
        "date": "2552-11-12"
      },
      {
        "name": "นันท์นภัสร์",
        "role": "ตรวจ",
        "date": "2552-11-12"
      }
    ],
    "tag": "a1117-2e-2552-a0132"
  }
}