{
  "pages": [
    [
      [
        "ประกาศกระทรวงการคลัง",
        "เรื่อง ผลการปรับโครงสร้างหนี้พันธบัตรรัฐบาลโดยการดำเนินธุรกรรมแลกพันธบัตร",
        "(Bond Switching) ในปีงบประมาณ พ.ศ. ๒๕๕๘",
        "ครั้งที่ ๒"
      ]
    ],
    []
  ],
  "metadata": {
    "date_backmatter": "2558-08-14",
    "date_modified": "2558-08-20",
    "date_original": "2558-08-20",
    "doctype": "ประกาศ",
    "editors": [
      {
        "name": "ปริยานุช",
        "role": "ผู้จัดทำ",
        "date": "2558-08-26"
      },
      {
        "name": "วริญา",
        "role": "ผู้ตรวจ",
        "date": "2558-08-26"
      }
    ],
    "tag": "a1117-2e-2558-a0059"
  }
}