{
  "pages": [
    [
      [
        "ประกาศกระทรวงการคลัง",
        "เรื่อง การกำหนดอัตราดอกเบี้ยพันธบัตรรัฐบาลเพื่อการบริหารหนี้ประเภทอัตราดอกเบี้ยลอยตัว",
        "ในปีงบประมาณ พ.ศ. ๒๕๕๒ ครั้งที่ ๑ สำหรับงวดเริ่มต้นวันที่ ๑๘ มีนาคม ๒๕๕๔"
      ]
    ],
    []
  ],
  "metadata": {
    "date_backmatter": "2554-03-16",
    "date_header": "2554-03-18",
    "date_modified": "2554-04-07",
    "date_original": "2554-04-07",
    "doctype": "ประกาศ",
    "editors": [
      {
        "name": "ปริยานุช",
        "role": "ผู้จัดทำ",
        "date": "2554-04-25"
      },
      {
        "name": "ณัฐวดี",
        "role": "ตรวจ",
        "date": "2554-04-25"
      }
    ],
    "tag": "a1117-2e-2554-a0025"
  }
}