{
  "pages": [
    [
      [
        "ประกาศกระทรวงการคลัง",
        "เรื่อง การกู้เงินเพื่อให้กู้ต่อ ในปีงบประมาณ พ.ศ. ๒๕๕๖",
        "ครั้งที่ ๑"
      ]
    ],
    []
  ],
  "metadata": {
    "date_backmatter": "2556-02-06",
    "date_modified": "2556-03-11",
    "date_original": "2556-03-11",
    "doctype": "ประกาศ",
    "editors": [
      {
        "name": "ปริยานุช",
        "role": "ผู้จัดทำ",
        "date": "2556-03-14"
      },
      {
        "name": "อุษมล",
        "role": "ผู้ตรวจ",
        "date": "2556-03-18"
      }
    ],
    "tag": "a1117-2e-2556-a0020"
  }
}