{
  "pages": [
    [
      [
        "ประกาศกระทรวงการคลัง",
        "เรื่อง ผลการจำหน่ายพันธบัตรรัฐบาล ในปีงบประมาณ พ.ศ. ๒๕๖๐ ครั้งที่ ๑๔",
        "งวดประมูลวันที่ ๙ พฤษภาคม ๒๕๖๐"
      ]
    ],
    []
  ],
  "metadata": {
    "date_backmatter": "2560-06-01",
    "date_header": "2560-05-09",
    "date_modified": "2560-06-13",
    "date_original": "2560-06-13",
    "doctype": "ประกาศ",
    "editors": [
      {
        "name": "อัญชลี",
        "role": "จัดทำ",
        "date": "2560-06-14"
      },
      {
        "name": "พิมพ์มาดา",
        "role": "ตรวจ",
        "date": "2560-07-14"
      }
    ],
    "tag": "a1117-2e-2560-a0043"
  }
}