{
  "pages": [
    [
      [
        "ประกาศกระทรวงการคลัง",
        "เรื่อง การปรับลดวงเงินการจำหน่ายพันธบัตรรัฐบาล",
        "ในปีงบประมาณ พ.ศ. ๒๕๕๔ ครั้งที่ ๓"
      ]
    ],
    []
  ],
  "metadata": {
    "date_backmatter": "2553-11-30",
    "date_modified": "2553-12-30",
    "date_original": "2553-12-30",
    "doctype": "ประกาศ",
    "editors": [
      {
        "name": "ปริยานุช",
        "role": "ผู้จัดทำ",
        "date": "2554-01-14"
      },
      {
        "name": "ณัฐวดี",
        "role": "ตรวจ",
        "date": "2554-01-14"
      }
    ],
    "tag": "a1117-2e-2553-a0136"
  }
}