{
  "pages": [
    [
      [
        "ประกาศกระทรวงการคลัง",
        "เรื่อง การกู้เงินเพื่อใช้ในการดำเนินโครงการเงินกู้เพื่อฟื้นฟูเศรษฐกิจและพัฒนา",
        "โครงสร้างพื้นฐาน (DPL) ในปีงบประมาณ พ.ศ. ๒๕๕๘",
        "ครั้งที่ ๑"
      ]
    ],
    []
  ],
  "metadata": {
    "date_backmatter": "2557-12-17",
    "date_modified": "2558-01-05",
    "date_original": "2558-01-05",
    "doctype": "ประกาศ",
    "editors": [
      {
        "name": "ปริยานุช",
        "role": "ผู้จัดทำ",
        "date": "2558-01-09"
      },
      {
        "name": "วันทิตา",
        "role": "ผู้ตรวจ",
        "date": "2558-02-05"
      }
    ],
    "tag": "a1117-2e-2558-a0001"
  }
}