{
  "pages": [
    [
      [
        "ประกาศกระทรวงการคลัง",
        "เรื่อง การเปลี่ยนแปลงอัตราดอกเบี้ยตั๋วสัญญาใช้เงินเพื่อการบริหารหนี้",
        "ในปีงบประมาณ พ.ศ. ๒๕๕๓ (ครั้งที่ ๒) ให้กับธนาคารออมสิน วันที่ ๑๘ กุมภาพันธ์ ๒๕๕๗"
      ]
    ],
    []
  ],
  "metadata": {
    "date_backmatter": "2557-02-17",
    "date_header": "2557-02-18",
    "date_modified": "2557-02-20",
    "date_original": "2557-02-20",
    "doctype": "ประกาศ",
    "editors": [
      {
        "name": "ปริยานุช",
        "role": "ผู้จัดทำ",
        "date": "2557-02-25"
      },
      {
        "name": "อุษมล",
        "role": "ผู้ตรวจ",
        "date": "2557-03-03"
      }
    ],
    "tag": "a1117-2e-2557-a0026"
  }
}