{
  "pages": [
    [
      [
        "ประกาศกระทรวงการคลัง",
        "เรื่อง การกู้เงินในรูป Euro Commercial Paper (ECP)"
      ]
    ],
    []
  ],
  "metadata": {
    "date_backmatter": "2548-06-14",
    "date_modified": "2548-06-21",
    "date_original": "2548-06-21",
    "doctype": "ประกาศ",
    "editors": [
      {
        "name": "พัชรินทร์",
        "role": "ผู้จัดทำ",
        "date": "2548-07-29"
      }
    ],
    "tag": "a1117-2e-2548-a0003"
  }
}