{
  "pages": [
    [
      [
        "ประกาศกระทรวงการคลัง",
        "เรื่อง ผลการกู้เงินด้วยวิธีการออกตั๋วเงินคลัง ประจำเดือนพฤษภาคม",
        "พ.ศ. ๒๕๕๑"
      ]
    ],
    []
  ],
  "metadata": {
    "date_backmatter": "2551-06-17",
    "date_modified": "2551-08-21",
    "date_original": "2551-08-21",
    "doctype": "ประกาศ",
    "editors": [
      {
        "name": "ปริยานุช",
        "role": "ผู้จัดทำ",
        "date": "2551-08-26"
      }
    ],
    "tag": "a1117-2e-2551-a0074"
  }
}