{
  "pages": [
    [
      [
        "ประกาศกระทรวงการคลัง",
        "เรื่อง การจำหน่ายพันธบัตรรัฐบาล ในปีงบประมาณ พ.ศ. ๒๕๕๖",
        "ครั้งที่ ๑๔"
      ]
    ],
    []
  ],
  "metadata": {
    "date_backmatter": "2556-04-03",
    "date_modified": "2556-04-30",
    "date_original": "2556-04-30",
    "doctype": "ประกาศ",
    "editors": [
      {
        "name": "ปริยานุช",
        "role": "ผู้จัดทำ",
        "date": "2556-05-01"
      },
      {
        "name": "โชติกานต์",
        "role": "ผู้ตรวจ",
        "date": "2556-05-14"
      }
    ],
    "tag": "a1117-2e-2556-a0043"
  }
}