{
  "pages": [
    [
      [
        "ประกาศกระทรวงการคลัง",
        "เรื่อง การเปลี่ยนแปลงอัตราดอกเบี้ยตั๋วสัญญาใช้เงินเพื่อการบริหารหนี้",
        "ในปีงบประมาณ พ.ศ. ๒๕๕๓ (ครั้งที่ ๑) ให้กับธนาคารออมสิน วันที่ ๔ สิงหาคม ๒๕๕๓"
      ]
    ],
    []
  ],
  "metadata": {
    "date_backmatter": "2553-08-03",
    "date_header": "2553-08-04",
    "date_modified": "2553-08-31",
    "date_original": "2553-08-31",
    "doctype": "ประกาศ",
    "editors": [
      {
        "name": "ปริยานุช",
        "role": "ผู้จัดทำ",
        "date": "2553-09-14"
      },
      {
        "name": "นันท์นภัสร์",
        "role": "ตรวจ",
        "date": "2553-09-14"
      }
    ],
    "tag": "a1117-2e-2553-a0089"
  }
}