{
  "pages": [
    [
      [
        "ประกาศกระทรวงการคลัง",
        "เรื่อง การขยายระยะเวลาการเบิกรับเงินกู้เพื่อใช้ในการดำเนินโครงการเงินกู้เพื่อการพัฒนาระบบบริหารจัดการทรัพยากรน้ำและระบบขนส่งทางถนน ระยะเร่งด่วน : มาตรการกระตุ้นเศรษฐกิจ",
        "ระยะที่ ๒ ประจำปีงบประมาณ",
        "พ.ศ. ๒๕๖๐ ครั้งที่ ๑"
      ]
    ],
    []
  ],
  "metadata": {
    "date_backmatter": "2560-11-08",
    "date_modified": "2560-11-24",
    "date_original": "2560-11-24",
    "doctype": "ประกาศ",
    "editors": [
      {
        "name": "ภวรรณตรี",
        "role": "จัดทำ",
        "date": "2560-12-08"
      },
      {
        "name": "ปวันวิทย์",
        "role": "ตรวจ",
        "date": "2560-12-28"
      }
    ],
    "tag": "a1117-2e-2560-a0075"
  }
}