{
  "pages": [
    [
      [
        "ประกาศกระทรวงการคลัง",
        "เรื่อง ผลการกู้เงินด้วยวิธีการออกตั๋วเงินคลัง ประจำเดือนธันวาคม พ.ศ. ๒๕๕๒"
      ]
    ],
    []
  ],
  "metadata": {
    "date_backmatter": "2553-01-19",
    "date_header": "2552-12-00",
    "date_modified": "2553-02-05",
    "date_original": "2553-02-05",
    "doctype": "ประกาศ",
    "editors": [
      {
        "name": "ปริยานุช",
        "role": "ผู้จัดทำ",
        "date": "2553-02-17"
      },
      {
        "name": "นันท์นภัสร์",
        "role": "ตรวจ",
        "date": "2553-02-17"
      }
    ],
    "tag": "a1117-2e-2553-a0014"
  }
}