{
  "pages": [
    [
      [
        "ประกาศกระทรวงการคลัง",
        "เรื่อง ผลการออกพันธบัตรรัฐบาล ในปีงบประมาณ พ.ศ. ๒๕๕๑",
        "ครั้งที่ ๑๑"
      ]
    ],
    []
  ],
  "metadata": {
    "date_backmatter": "2551-08-29",
    "date_modified": "2551-09-06",
    "date_original": "2551-09-06",
    "doctype": "ประกาศ",
    "editors": [
      {
        "name": "วัชศักดิ์",
        "role": "ผู้จัดทำ",
        "date": "2551-09-08"
      }
    ],
    "tag": "a1117-2e-2551-a0085"
  }
}