{
  "pages": [
    [
      [
        "ประกาศกระทรวงการคลัง",
        "เรื่อง ผลการกู้เงินด้วยวิธีการออกพันธบัตรรัฐบาลเพื่อการบริหารหนี้",
        "ในปีงบประมาณ พ.ศ. ๒๕๕๐",
        "ครั้งที่ ๗"
      ]
    ],
    []
  ],
  "metadata": {
    "date_backmatter": "2550-10-22",
    "date_modified": "2550-11-08",
    "date_original": "2550-11-08",
    "doctype": "ประกาศ",
    "editors": [
      {
        "name": "ปริยานุช",
        "role": "ผู้จัดทำ",
        "date": "2550-11-20"
      }
    ],
    "tag": "a1117-2e-2550-a0057"
  }
}