{
  "pages": [
    [
      [
        "ประกาศกระทรวงการคลัง",
        "เรื่อง การเปลี่ยนแปลงอัตราดอกเบี้ยตั๋วสัญญาใช้เงินเพื่อการบริหารหนี้ ในปีงบประมาณ",
        "พ.ศ. ๒๕๕๓ (ครั้งที่ ๒) ให้กับธนาคารทหารไทย จำกัด (มหาชน) วันที่ ๑๘ สิงหาคม ๒๕๕๓"
      ]
    ],
    []
  ],
  "metadata": {
    "date_backmatter": "2553-08-11",
    "date_header": "2553-08-18",
    "date_modified": "2553-09-03",
    "date_original": "2553-09-03",
    "doctype": "ประกาศ",
    "editors": [
      {
        "name": "ปริยานุช",
        "role": "ผู้จัดทำ",
        "date": "2553-09-15"
      },
      {
        "name": "นันท์นภัสร์",
        "role": "ตรวจ",
        "date": "2553-09-15"
      }
    ],
    "tag": "a1117-2e-2553-a0091"
  }
}