{
  "pages": [
    [
      [
        "ประกาศกระทรวงการคลัง",
        "เรื่อง แต่งตั้งพนักงานธนาคารแห่งประเทศไทยเป็นเจ้าหน้าที่นายทะเบียน",
        "ของพันธบัตรออมทรัพย์พิเศษของกระทรวงการคลัง",
        "ในปีงบประมาณ พ.ศ. ๒๕๕๕"
      ]
    ],
    []
  ],
  "metadata": {
    "date_backmatter": "2555-11-05",
    "date_modified": "2555-11-09",
    "date_original": "2555-11-09",
    "doctype": "ประกาศ",
    "editors": [
      {
        "name": "ปริยานุช",
        "role": "ผู้จัดทำ",
        "date": "2555-11-13"
      },
      {
        "name": "ณัฐพร",
        "role": "ผู้ตรวจ",
        "date": "2555-11-13"
      }
    ],
    "tag": "a1117-2e-2555-a0090"
  }
}