{
  "pages": [
    [
      [
        "ประกาศกระทรวงการคลัง",
        "เรื่อง การขยายระยะเวลาการเบิกเงินกู้สำหรับโครงการเพื่อการวางระบบ",
        "บริหารจัดการน้ำและสร้างอนาคตประเทศ พ.ศ. ๒๕๕๕",
        "ในปีงบประมาณ พ.ศ. ๒๕๕๖ ครั้งที่ ๒"
      ]
    ],
    []
  ],
  "metadata": {
    "date_backmatter": "2557-09-30",
    "date_modified": "2557-10-16",
    "date_original": "2557-10-16",
    "doctype": "ประกาศ",
    "editors": [
      {
        "name": "ปริยานุช",
        "role": "ผู้จัดทำ",
        "date": "2557-10-20"
      },
      {
        "name": "ภีราพร",
        "role": "ผู้ตรวจ",
        "date": "2557-10-31"
      }
    ],
    "tag": "a1117-2e-2557-a0107"
  }
}