{
  "pages": [
    [
      [
        "ประกาศกระทรวงการคลัง",
        "เรื่อง ผลการจำหน่ายพันธบัตรออมทรัพย์",
        "ในปีงบประมาณ พ.ศ. ๒๕๕๑ ครั้งที่ ๖"
      ]
    ],
    []
  ],
  "metadata": {
    "date_backmatter": "2551-04-25",
    "date_modified": "2551-05-23",
    "date_original": "2551-05-23",
    "doctype": "ประกาศ",
    "editors": [
      {
        "name": "วัชศักดิ์",
        "role": "ผู้จัดทำ",
        "date": "2551-05-27"
      }
    ],
    "tag": "a1117-2e-2551-a0040"
  }
}