{
  "pages": [
    [
      [
        "ประกาศกระทรวงการคลัง",
        "เรื่อง การขยายระยะเวลาการเบิกเงินกู้สำหรับโครงการเพื่อการวางระบบ",
        "บริหารจัดการน้ำและสร้างอนาคตประเทศ พ.ศ. ๒๕๕๕",
        "ในปีงบประมาณ พ.ศ. ๒๕๕๖",
        "ครั้งที่ ๑ (เพิ่มเติม)"
      ]
    ],
    []
  ],
  "metadata": {
    "date_backmatter": "2557-04-28",
    "date_modified": "2557-05-23",
    "date_original": "2557-05-23",
    "doctype": "ประกาศ",
    "editors": [
      {
        "name": "ปริยานุช",
        "role": "ผู้จัดทำ",
        "date": "2557-05-28"
      },
      {
        "name": "ปริญสินีย์",
        "role": "ผู้ตรวจ",
        "date": "2557-06-02"
      }
    ],
    "tag": "a1117-2e-2557-a0055"
  }
}