{
  "pages": [
    [
      [
        "ประกาศกระทรวงการคลัง",
        "เรื่อง การกู้เงินเพื่อให้กู้ต่อ ประจำปีงบประมาณ พ.ศ. ๒๕๖๑ ครั้งที่ ๖"
      ]
    ],
    []
  ],
  "metadata": {
    "date_backmatter": "2561-05-07",
    "date_modified": "2561-07-04",
    "date_original": "2561-07-04",
    "doctype": "ประกาศ",
    "editors": [
      {
        "name": "พัชรภรณ์",
        "role": "จัดทำ",
        "date": "2561-10-24"
      }
    ],
    "tag": "a1117-2e-2561-a0029"
  }
}