{
  "pages": [
    [
      [
        "ประกาศกระทรวงการคลัง",
        "เรื่อง การจำหน่ายพันธบัตรรัฐบาล ในปีงบประมาณ พ.ศ. ๒๕๕๒",
        "ครั้งที่ ๑๙"
      ]
    ],
    []
  ],
  "metadata": {
    "date_backmatter": "2552-07-16",
    "date_modified": "2552-08-14",
    "date_original": "2552-08-14",
    "doctype": "ประกาศ",
    "editors": [
      {
        "name": "ปริยานุช",
        "role": "ผู้จัดทำ",
        "date": "2552-08-24"
      }
    ],
    "tag": "a1117-2e-2552-a0088"
  }
}