{
  "pages": [
    [
      [
        "ประกาศกระทรวงการคลัง",
        "เรื่อง ผลการกู้เงินโดยการออกตั๋วสัญญาใช้เงินเพื่อการบริหารหนี้",
        "ในปีงบประมาณ พ.ศ. ๒๕๖๑ ครั้งที่ ๑"
      ]
    ],
    []
  ],
  "metadata": {
    "date_backmatter": "2561-03-06",
    "date_modified": "2561-05-10",
    "date_original": "2561-05-10",
    "doctype": "ประกาศ",
    "editors": [
      {
        "name": "พิมพ์มาดา",
        "role": "จัดทำ",
        "date": "2561-06-18"
      }
    ],
    "tag": "a1117-2e-2561-a0019"
  }
}