{
  "pages": [
    [
      [
        "ประกาศกระทรวงการคลัง",
        "เรื่อง ผลการออกพันธบัตรรัฐบาล ในปีงบประมาณ พ.ศ. ๒๕๕๖",
        "ครั้งที่ ๑๐"
      ]
    ],
    []
  ],
  "metadata": {
    "date_backmatter": "2556-03-05",
    "date_modified": "2556-03-18",
    "date_original": "2556-03-18",
    "doctype": "ประกาศ",
    "editors": [
      {
        "name": "ปริยานุช",
        "role": "ผู้จัดทำ",
        "date": "2556-03-20"
      },
      {
        "name": "โชติกานต์",
        "role": "ผู้ตรวจ",
        "date": "2556-04-18"
      }
    ],
    "tag": "a1117-2e-2556-a0029"
  }
}