{
  "pages": [
    [
      [
        "ประกาศกระทรวงการคลัง",
        "เรื่อง การจำหน่ายตั๋วเงินคลังในเดือนมกราคม",
        "พ.ศ. ๒๕๕๗"
      ]
    ],
    []
  ],
  "metadata": {
    "date_backmatter": "2557-01-00",
    "date_modified": "2556-12-30",
    "date_original": "2556-12-30",
    "doctype": "ประกาศ",
    "editors": [
      {
        "name": "ปริยานุช",
        "role": "ผู้จัดทำ",
        "date": "2557-01-07"
      },
      {
        "name": "โชติกานต์",
        "role": "ผู้ตรวจ",
        "date": "2557-01-07"
      }
    ],
    "tag": "a1117-2e-2556-a0127"
  }
}