{
  "pages": [
    [
      [
        "ประกาศกระทรวงการคลัง",
        "เรื่อง การปรับลดวงเงินการจำหน่ายพันธบัตรรัฐบาล",
        "ในปีงบประมาณ พ.ศ. ๒๕๕๖",
        "ครั้งที่ ๑"
      ]
    ],
    []
  ],
  "metadata": {
    "date_backmatter": "2555-12-17",
    "date_modified": "2556-01-09",
    "date_original": "2556-01-09",
    "doctype": "ประกาศ",
    "editors": [
      {
        "name": "ปริยานุช",
        "role": "ผู้จัดทำ",
        "date": "2556-01-10"
      },
      {
        "name": "อุษมล",
        "role": "ผู้ตรวจ",
        "date": "2556-01-10"
      }
    ],
    "tag": "a1117-2e-2556-a0003"
  }
}