{
  "pages": [
    [
      [
        "ระเบียบคณะกรรมการนโยบายและกำกับการบริหารหนี้สาธารณะ",
        "ว่าด้วยหลักเกณฑ์การกู้เงินขององค์กรปกครองส่วนท้องถิ่น",
        "พ.ศ. ๒๕๖๑"
      ]
    ],
    []
  ],
  "metadata": {
    "date_backmatter": "2561-07-04",
    "date_modified": "2561-07-17",
    "date_original": "2561-07-17",
    "editors": [
      {
        "name": "ปวันวิทย์",
        "role": "จัดทำ",
        "date": "2561-09-03"
      }
    ],
    "tag": "a1117-2g-2561-a0001"
  }
}