{
  "pages": [
    [
      [
        "ประกาศกระทรวงการคลัง",
        "เรื่อง การจำหน่ายพันธบัตรรัฐบาลเพื่อการบริหารหนี้",
        "ในปีงบประมาณ พ.ศ. ๒๕๕๓ ครั้งที่ ๔"
      ]
    ],
    []
  ],
  "metadata": {
    "date_backmatter": "2553-07-14",
    "date_modified": "2553-08-20",
    "date_original": "2553-08-20",
    "doctype": "ประกาศ",
    "editors": [
      {
        "name": "ปริยานุช",
        "role": "ผู้จัดทำ",
        "date": "2553-09-06"
      },
      {
        "name": "ณัฐวดี",
        "role": "ตรวจ",
        "date": "2553-09-06"
      }
    ],
    "tag": "a1117-2e-2553-a0080"
  }
}