{
  "pages": [
    [
      [
        "ประกาศกระทรวงการคลัง",
        "เรื่อง การกู้เงินระยะสั้นเพื่อการปรับโครงสร้างหนี้เงินกู้ต่างประเทศ",
        "ในปีงบประมาณ พ.ศ. ๒๕๔๘ ครั้งที่ ๑"
      ]
    ],
    []
  ],
  "metadata": {
    "date_backmatter": "2548-09-23",
    "date_modified": "2548-10-03",
    "date_original": "2548-10-03",
    "doctype": "ประกาศ",
    "editors": [
      {
        "name": "ชัชสรัญ",
        "role": "ผู้จัดทำ",
        "date": "2548-10-11"
      }
    ],
    "tag": "a1117-2e-2548-a0006"
  }
}