{
  "pages": [
    [
      [
        "ประกาศกระทรวงการคลัง",
        "เรื่อง ผลการออกพันธบัตรรัฐบาล",
        "ในปีงบประมาณ พ.ศ. ๒๕๕๑ ครั้งที่ ๑๐"
      ]
    ],
    []
  ],
  "metadata": {
    "date_backmatter": "2551-05-15",
    "date_modified": "2551-07-04",
    "date_original": "2551-07-04",
    "doctype": "ประกาศ",
    "editors": [
      {
        "name": "ปริยานุช",
        "role": "ผู้จัดทำ",
        "date": "2551-07-10"
      }
    ],
    "tag": "a1117-2e-2551-a0064"
  }
}