{
  "pages": [
    [
      [
        "ประกาศกระทรวงการคลัง",
        "เรื่อง การเปลี่ยนแปลงอัตราดอกเบี้ยเงินกู้จากธนาคารออมสิน",
        "ในปีงบประมาณ พ.ศ. ๒๕๕๒ (ครั้งที่ ๓) วันที่ ๙ กันยายน ๒๕๕๓"
      ]
    ],
    []
  ],
  "metadata": {
    "date_backmatter": "2553-09-06",
    "date_header": "2553-09-09",
    "date_modified": "2553-09-30",
    "date_original": "2553-09-30",
    "doctype": "ประกาศ",
    "editors": [
      {
        "name": "ปริยานุช",
        "role": "ผู้จัดทำ",
        "date": "2553-10-07"
      },
      {
        "name": "ณัฐวดี",
        "role": "ตรวจ",
        "date": "2553-10-07"
      }
    ],
    "tag": "a1117-2e-2553-a0108"
  }
}