{
  "pages": [
    [
      [
        "ประกาศกระทรวงการคลัง",
        "เรื่อง ผลการออกพันธบัตรรัฐบาลเพื่อการบริหารหนี้",
        "ในปีงบประมาณ พ.ศ. ๒๕๕๓ ครั้งที่ ๒"
      ]
    ],
    []
  ],
  "metadata": {
    "date_backmatter": "2552-11-16",
    "date_modified": "2552-12-14",
    "date_original": "2552-12-14",
    "doctype": "ประกาศ",
    "editors": [
      {
        "name": "ปริยานุช",
        "role": "ผู้จัดทำ",
        "date": "2552-12-22"
      },
      {
        "name": "นันท์นภัสร์",
        "role": "ตรวจ",
        "date": "2552-12-22"
      }
    ],
    "tag": "a1117-2e-2552-a0151"
  }
}