{
  "pages": [
    [
      [
        "ประกาศกระทรวงการคลัง",
        "เรื่อง การเปลี่ยนแปลงอัตราดอกเบี้ยตั๋วสัญญาใช้เงินเพื่อการบริหารหนี้",
        "ในปีงบประมาณ พ.ศ. ๒๕๕๓ (ครั้งที่ ๓) ให้กับธนาคารออมสิน วันที่ ๒ มีนาคม ๒๕๕๗"
      ]
    ],
    []
  ],
  "metadata": {
    "date_backmatter": "2557-02-27",
    "date_header": "2557-03-02",
    "date_modified": "2557-03-07",
    "date_original": "2557-03-07",
    "doctype": "ประกาศ",
    "editors": [
      {
        "name": "ปริยานุช",
        "role": "ผู้จัดทำ",
        "date": "2557-03-11"
      },
      {
        "name": "โชติกานต์",
        "role": "ผู้ตรวจ",
        "date": "2557-03-26"
      }
    ],
    "tag": "a1117-2e-2557-a0027"
  }
}