{
  "pages": [
    [
      [
        "ประกาศกระทรวงการคลัง",
        "เรื่อง การไถ่ถอนตั๋วสัญญาใช้เงินก่อนกำหนด",
        "จากธนาคารกรุงไทย จำกัด (มหาชน)"
      ]
    ],
    []
  ],
  "metadata": {
    "date_backmatter": "2553-07-22",
    "date_modified": "2553-08-16",
    "date_original": "2553-08-16",
    "doctype": "ประกาศ",
    "editors": [
      {
        "name": "ปริยานุช",
        "role": "ผู้จัดทำ",
        "date": "2553-08-20"
      },
      {
        "name": "ณัฐวดี",
        "role": "ตรวจ",
        "date": "2553-08-20"
      }
    ],
    "tag": "a1117-2e-2553-a0072"
  }
}