{
  "pages": [
    [
      [
        "ประกาศกระทรวงการคลัง",
        "เรื่อง ผลการจำหน่ายพันธบัตรออมทรัพย์พิเศษ",
        "ในปีงบประมาณ พ.ศ. ๒๕๕๑"
      ]
    ],
    []
  ],
  "metadata": {
    "date_backmatter": "2551-05-23",
    "date_modified": "2551-06-04",
    "date_original": "2551-06-04",
    "doctype": "ประกาศ",
    "editors": [
      {
        "name": "วัชศักดิ์",
        "role": "ผู้จัดทำ",
        "date": "2551-06-09"
      }
    ],
    "tag": "a1117-2e-2551-a0052"
  }
}