{
  "pages": [
    [
      [
        "ประกาศกระทรวงการคลัง",
        "เรื่อง ผลการจำหน่ายพันธบัตรรัฐบาลเพื่อการบริหารหนี้เงินกู้โครงการ",
        "ในปีงบประมาณ พ.ศ. ๒๕๕๙ ครั้งที่ ๑ งวดประมูลวันที่ ๑๓ กรกฎาคม ๒๕๕๙"
      ]
    ],
    []
  ],
  "metadata": {
    "date_backmatter": "2559-08-03",
    "date_header": "2559-07-13",
    "date_modified": "2559-08-30",
    "date_original": "2559-08-30",
    "doctype": "ประกาศ",
    "editors": [
      {
        "name": "ปริยานุช",
        "role": "จัดทำ",
        "date": "2559-08-31"
      },
      {
        "name": "ปุณิกา",
        "role": "ตรวจ",
        "date": "2559-09-07"
      }
    ],
    "tag": "a1117-2e-2559-a0058"
  }
}