{
  "pages": [
    [
      [
        "ประกาศกระทรวงการคลัง",
        "เรื่อง การกู้เงินโดยการออกตั๋วสัญญาใช้เงิน",
        "ในปีงบประมาณ พ.ศ. ๒๕๕๘",
        "ครั้งที่ ๑"
      ]
    ],
    []
  ],
  "metadata": {
    "date_backmatter": "2558-09-21",
    "date_modified": "2558-10-10",
    "date_original": "2558-10-10",
    "doctype": "ประกาศ",
    "editors": [
      {
        "name": "ปริยานุช",
        "role": "ผู้จัดทำ",
        "date": "2558-10-15"
      },
      {
        "name": "วิศนี",
        "role": "ผู้ตรวจ",
        "date": "2558-10-26"
      }
    ],
    "tag": "a1117-2e-2558-a0073"
  }
}