{
  "pages": [
    [
      [
        "ประกาศกระทรวงการคลัง",
        "เรื่อง ผลการออกพันธบัตรรัฐบาลประเภททยอยชำระคืนเงินต้น",
        "ในปีงบประมาณ พ.ศ. ๒๕๕๖",
        "ครั้งที่ ๔"
      ]
    ],
    []
  ],
  "metadata": {
    "date_backmatter": "2556-08-22",
    "date_modified": "2556-09-12",
    "date_original": "2556-09-12",
    "doctype": "ประกาศ",
    "editors": [
      {
        "name": "ปริยานุช",
        "role": "ผู้จัดทำ",
        "date": "2556-09-16"
      },
      {
        "name": "อุษมล",
        "role": "ผู้ตรวจ",
        "date": "2556-09-18"
      }
    ],
    "tag": "a1117-2e-2556-a0102"
  }
}