{
  "pages": [
    [
      [
        "ประกาศกระทรวงการคลัง",
        "เรื่อง ผลการจำหน่ายพันธบัตรรัฐบาล ในปีงบประมาณ พ.ศ. ๒๕๕๘",
        "ครั้งที่ ๑๐"
      ]
    ],
    []
  ],
  "metadata": {
    "date_backmatter": "2558-06-05",
    "date_modified": "2558-06-23",
    "date_original": "2558-06-23",
    "doctype": "ประกาศ",
    "editors": [
      {
        "name": "ปริยานุช",
        "role": "ผู้จัดทำ",
        "date": "2558-06-25"
      },
      {
        "name": "ปริญสินีย์",
        "role": "ผู้ตรวจ",
        "date": "2558-06-25"
      }
    ],
    "tag": "a1117-2e-2558-a0042"
  }
}