{
  "pages": [
    [
      [
        "ประกาศกระทรวงการคลัง",
        "เรื่อง ผลการกู้เงินโดยการออกตั๋วสัญญาใช้เงินเพื่อการปรับโครงสร้างหนี้เงินกู้มาเพื่อให้กู้ต่อ",
        "ในปีงบประมาณ พ.ศ. ๒๕๖๑ ครั้งที่ ๑"
      ]
    ],
    []
  ],
  "metadata": {
    "date_backmatter": "2561-01-16",
    "date_modified": "2561-03-15",
    "date_original": "2561-03-15",
    "doctype": "ประกาศ",
    "editors": [
      {
        "name": "ปวันวิทย์",
        "role": "จัดทำ",
        "date": "2561-04-27"
      }
    ],
    "tag": "a1117-2e-2561-a0012"
  }
}