{
  "pages": [
    [
      [
        "ประกาศกระทรวงการคลัง",
        "เรื่อง ผลการกู้เงินเพื่อชดเชยการขาดดุล โดยตั๋วสัญญาใช้เงิน",
        "ในปีงบประมาณ พ.ศ. ๒๕๕๐"
      ]
    ],
    []
  ],
  "metadata": {
    "date_backmatter": "2550-04-30",
    "date_modified": "2550-05-14",
    "date_original": "2550-05-14",
    "doctype": "ประกาศ",
    "editors": [
      {
        "name": "โสรศ",
        "role": "ผู้จัดทำ",
        "date": "2550-05-23"
      }
    ],
    "tag": "a1117-2e-2550-a0025"
  }
}