{
  "pages": [
    [
      [
        "ประกาศกระทรวงการคลัง",
        "เรื่อง ผลการออกพันธบัตรรัฐบาล",
        "ในปีงบประมาณ พ.ศ. ๒๕๕๗",
        "ครั้งที่ ๓"
      ]
    ],
    []
  ],
  "metadata": {
    "date_backmatter": "2556-12-23",
    "date_modified": "2557-01-02",
    "date_original": "2557-01-02",
    "doctype": "ประกาศ",
    "editors": [
      {
        "name": "ปริยานุช",
        "role": "ผู้จัดทำ",
        "date": "2557-01-08"
      },
      {
        "name": "จุฑามาศ",
        "role": "ผู้ตรวจ",
        "date": "2557-01-09"
      }
    ],
    "tag": "a1117-2e-2557-a0003"
  }
}