{
  "pages": [
    [
      [
        "ประกาศกระทรวงการคลัง",
        "เรื่อง การประมูลตั๋วเงินคลังในเดือนพฤษภาคม พ.ศ. ๒๕๕๐"
      ]
    ],
    []
  ],
  "metadata": {
    "date_backmatter": "2550-05-00",
    "date_header": "2550-05-00",
    "date_modified": "2550-05-18",
    "date_original": "2550-05-18",
    "doctype": "ประกาศ",
    "editors": [
      {
        "name": "วัชศักดิ์",
        "role": "ผู้จัดทำ",
        "date": "2550-05-22"
      }
    ],
    "tag": "a1117-2e-2550-a0024"
  }
}