{
  "pages": [
    [
      [
        "ประกาศกระทรวงการคลัง",
        "เรื่อง การเปลี่ยนแปลงอัตราดอกเบี้ยเงินกู้จากธนาคารกรุงไทย จำกัด (มหาชน)",
        "ในปีงบประมาณ พ.ศ. ๒๕๕๐ (ครั้งที่ ๒) วันที่ ๘ กันยายน ๒๕๕๐"
      ]
    ],
    []
  ],
  "metadata": {
    "date_backmatter": "2550-09-04",
    "date_header": "2550-09-08",
    "date_modified": "2550-09-19",
    "date_original": "2550-09-19",
    "doctype": "ประกาศ",
    "editors": [
      {
        "name": "วัชศักดิ์",
        "role": "ผู้จัดทำ",
        "date": "2550-09-27"
      }
    ],
    "tag": "a1117-2e-2550-a0046"
  }
}