{
  "pages": [
    [
      [
        "ประกาศกระทรวงการคลัง",
        "เรื่อง ผลการจำหน่ายพันธบัตรรัฐบาลเพื่อการบริหารหนี้",
        "ในปีงบประมาณ พ.ศ. ๒๕๖๐ ครั้งที่ ๒"
      ]
    ],
    []
  ],
  "metadata": {
    "date_backmatter": "2560-07-26",
    "date_modified": "2560-08-23",
    "date_original": "2560-08-23",
    "doctype": "ประกาศ",
    "editors": [
      {
        "name": "ชวัลพร/อัญชลี",
        "role": "จัดทำ",
        "date": "2560-08-25"
      },
      {
        "name": "นุสรา",
        "role": "ตรวจ",
        "date": "2561-01-23"
      }
    ],
    "tag": "a1117-2e-2560-a0054"
  }
}