{
  "pages": [
    [
      [
        "ประกาศกระทรวงการคลัง",
        "เรื่อง การจำหน่ายพันธบัตรรัฐบาลประเภทอัตราดอกเบี้ย",
        "แปรผันตามการเปลี่ยนแปลงของเงินเฟ้อ ในปีงบประมาณ พ.ศ. ๒๕๕๗",
        "ครั้งที่ ๕"
      ]
    ],
    []
  ],
  "metadata": {
    "date_backmatter": "2557-08-14",
    "date_modified": "2557-09-05",
    "date_original": "2557-09-05",
    "doctype": "ประกาศ",
    "editors": [
      {
        "name": "ปริยานุช",
        "role": "ผู้จัดทำ",
        "date": "2557-09-25"
      },
      {
        "name": "จุฑามาศ",
        "role": "ผู้ตรวจ",
        "date": "2557-10-14"
      }
    ],
    "tag": "a1117-2e-2557-a0090"
  }
}