{
  "pages": [
    [
      [
        "ประกาศกระทรวงการคลัง",
        "เรื่อง การจำหน่ายพันธบัตรรัฐบาล ในปีงบประมาณ พ.ศ. ๒๕๕๑",
        "ครั้งที่ ๙"
      ]
    ],
    []
  ],
  "metadata": {
    "date_backmatter": "2551-04-02",
    "date_modified": "2551-05-30",
    "date_original": "2551-05-30",
    "doctype": "ประกาศ",
    "editors": [
      {
        "name": "วัชศักดิ์",
        "role": "ผู้จัดทำ",
        "date": "2551-06-03"
      }
    ],
    "tag": "a1117-2e-2551-a0048"
  }
}