{
  "pages": [
    [
      [
        "ประกาศกระทรวงการคลัง",
        "เรื่อง การปรับลดวงเงินกู้เพื่อให้กู้ต่อ ในปีงบประมาณ พ.ศ. ๒๕๕๘",
        "ครั้งที่ ๑"
      ]
    ],
    []
  ],
  "metadata": {
    "date_backmatter": "2558-11-24",
    "date_modified": "2558-12-18",
    "date_original": "2558-12-18",
    "doctype": "ประกาศ",
    "editors": [
      {
        "name": "ปริยานุช ,กัญฑรัตน์",
        "role": "จัดทำ",
        "date": "2558-12-22"
      },
      {
        "name": "นุสรา",
        "role": "ตรวจ",
        "date": "2558-12-22"
      }
    ],
    "tag": "a1117-2e-2558-a0092"
  }
}