{
  "pages": [
    [
      [
        "ประกาศกระทรวงการคลัง",
        "เรื่อง ผลการกู้เงินระยะสั้นเพื่อการปรับโครงสร้างหนี้เงินกู้ต่างประเทศ",
        "ในปีงบประมาณ พ.ศ. ๒๕๔๙ ครั้งที่ ๑"
      ]
    ],
    []
  ],
  "metadata": {
    "date_backmatter": "2549-06-22",
    "date_modified": "2549-07-05",
    "date_original": "2549-07-05",
    "doctype": "ประกาศ",
    "editors": [
      {
        "name": "พัชรินทร์",
        "role": "ผู้จัดทำ",
        "date": "2549-07-14"
      }
    ],
    "tag": "a1117-2e-2549-a0012"
  }
}