{
  "pages": [
    [
      [
        "ประกาศกระทรวงการคลัง",
        "เรื่อง ผลการกู้เงินด้วยวิธีการออกตั๋วเงินคลัง ประจำเดือนกุมภาพันธ์ พ.ศ. ๒๕๕๐"
      ]
    ],
    []
  ],
  "metadata": {
    "date_backmatter": "2550-03-14",
    "date_header": "2550-02-00",
    "date_modified": "2550-04-04",
    "date_original": "2550-04-04",
    "doctype": "ประกาศ",
    "editors": [
      {
        "name": "วัชศักดิ์",
        "role": "ผู้จัดทำ",
        "date": "2550-04-11"
      }
    ],
    "tag": "a1117-2e-2550-a0013"
  }
}