{
  "pages": [
    [
      [
        "ประกาศกระทรวงการคลัง",
        "เรื่อง การกู้เงินเพื่อให้กู้ต่อ ในปีงบประมาณ พ.ศ. ๒๕๕๙",
        "ครั้งที่ ๕"
      ]
    ],
    []
  ],
  "metadata": {
    "date_backmatter": "2559-08-31",
    "date_modified": "2559-09-19",
    "date_original": "2559-09-19",
    "doctype": "ประกาศ",
    "editors": [
      {
        "name": "ชวัลพร/ปริยานุช",
        "role": "จัดทำ",
        "date": "2559-09-20"
      },
      {
        "name": "นุสรา",
        "role": "ตรวจ",
        "date": "2559-12-01"
      }
    ],
    "tag": "a1117-2e-2559-a0064"
  }
}