{
  "pages": [
    [
      [
        "กฎกระทรวง",
        "กำหนดอัตราและเงื่อนไขการเรียกเก็บดอกเบี้ยและค่าธรรมเนียม",
        "การให้กู้ต่อของกระทรวงการคลัง",
        "พ.ศ. ๒๕๕๑"
      ]
    ],
    []
  ],
  "metadata": {
    "date_backmatter": "2551-07-07",
    "date_modified": "2551-07-30",
    "date_original": "2551-07-30",
    "doctype": "กฎกระทรวง",
    "editors": [
      {
        "name": "ปริยานุช",
        "role": "จัดทำ",
        "date": "2551-07-31"
      },
      {
        "name": "ศิรวัชร์",
        "role": "ปรับปรุง",
        "date": "2559-10-21"
      }
    ],
    "tag": "a1117-2b-2551-a0002"
  }
}