{
  "pages": [
    [
      [
        "ประกาศกระทรวงการคลัง",
        "เรื่อง การกู้เงิน Euro Commercial Paper หรือ ECP Programme ของกระทรวงการคลัง",
        "ประจำปีงบประมาณ พ.ศ. ๒๕๕๙ ครั้งที่ ๑ ให้แก่การรถไฟแห่งประเทศไทย"
      ]
    ],
    []
  ],
  "metadata": {
    "date_backmatter": "2559-08-10",
    "date_modified": "2559-08-30",
    "date_original": "2559-08-30",
    "doctype": "ประกาศ",
    "editors": [
      {
        "name": "ปริยานุช",
        "role": "จัดทำ",
        "date": "2559-08-31"
      },
      {
        "name": "ปุณิกา",
        "role": "ตรวจ",
        "date": "2559-09-07"
      }
    ],
    "tag": "a1117-2e-2559-a0061"
  }
}