{
  "pages": [
    [
      [
        "ประกาศกระทรวงการคลัง",
        "เรื่อง การประมูลตั๋วเงินคลังในเดือนตุลาคม",
        "พ.ศ. ๒๕๕๐"
      ]
    ],
    []
  ],
  "metadata": {
    "date_backmatter": "2550-10-00",
    "date_modified": "2550-10-03",
    "date_original": "2550-10-03",
    "doctype": "ประกาศ",
    "editors": [
      {
        "name": "ปริยานุช",
        "role": "ผู้จัดทำ",
        "date": "2550-10-16"
      }
    ],
    "tag": "a1117-2e-2550-a0050"
  }
}