{
  "pages": [
    [
      [
        "ประกาศกระทรวงการคลัง",
        "เรื่อง การเปลี่ยนแปลงอัตราดอกเบี้ยเงินกู้จากธนาคารออมสิน",
        "ในปีงบประมาณ พ.ศ. ๒๕๕๐ (ครั้งที่ ๑) วันที่ ๑ กันยายน ๒๕๕๑"
      ]
    ],
    []
  ],
  "metadata": {
    "date_backmatter": "2551-08-26",
    "date_header": "2551-09-01",
    "date_modified": "2551-09-06",
    "date_original": "2551-09-06",
    "doctype": "ประกาศ",
    "editors": [
      {
        "name": "วัชศักดิ์",
        "role": "ผู้จัดทำ",
        "date": "2551-09-08"
      }
    ],
    "tag": "a1117-2e-2551-a0079"
  }
}