{
  "pages": [
    [
      [
        "ประกาศกระทรวงการคลัง",
        "เรื่อง การจำหน่ายพันธบัตรรัฐบาล",
        "ในปีงบประมาณ พ.ศ. ๒๕๕๗",
        "ครั้งที่ ๑"
      ]
    ],
    []
  ],
  "metadata": {
    "date_backmatter": "2556-10-22",
    "date_modified": "2556-11-12",
    "date_original": "2556-11-12",
    "doctype": "ประกาศ",
    "editors": [
      {
        "name": "ปริยานุช",
        "role": "ผู้จัดทำ",
        "date": "2556-11-14"
      },
      {
        "name": "โชติกานต์",
        "role": "ผู้ตรวจ",
        "date": "2556-11-21"
      }
    ],
    "tag": "a1117-2e-2556-a0110"
  }
}