{
  "pages": [
    [
      [
        "ประกาศกระทรวงการคลัง",
        "เรื่อง การจำหน่ายพันธบัตรรัฐบาลประเภททยอยชำระคืนเงินต้น",
        "ในปีงบประมาณ พ.ศ. ๒๕๕๖",
        "ครั้งที่ ๒"
      ]
    ],
    []
  ],
  "metadata": {
    "date_backmatter": "2556-01-30",
    "date_modified": "2556-02-14",
    "date_original": "2556-02-14",
    "doctype": "ประกาศ",
    "editors": [
      {
        "name": "ปริยานุช",
        "role": "ผู้จัดทำ",
        "date": "2556-02-18"
      },
      {
        "name": "อุษมล",
        "role": "ผู้ตรวจ",
        "date": "2556-02-26"
      }
    ],
    "tag": "a1117-2e-2556-a0018"
  }
}