{
  "pages": [
    [
      [
        "ประกาศกระทรวงการคลัง",
        "เรื่อง การจำหน่ายพันธบัตรรัฐบาล ในปีงบประมาณ พ.ศ. ๒๕๕๓ ครั้งที่ ๑๑"
      ]
    ],
    []
  ],
  "metadata": {
    "date_backmatter": "2553-03-31",
    "date_modified": "2553-05-17",
    "date_original": "2553-05-17",
    "doctype": "ประกาศ",
    "editors": [
      {
        "name": "ปริยานุช",
        "role": "ผู้จัดทำ",
        "date": "2553-06-07"
      },
      {
        "name": "นันท์นภัสร์",
        "role": "ตรวจ",
        "date": "2553-06-07"
      }
    ],
    "tag": "a1117-2e-2553-a0040"
  }
}