{
  "pages": [
    [
      [
        "ประกาศกระทรวงการคลัง",
        "เรื่อง การเปลี่ยนแปลงอัตราดอกเบี้ยเงินกู้จากธนาคารออมสิน",
        "ในปีงบประมาณ พ.ศ. ๒๕๕๐ (ครั้งที่ ๔) วันที่ ๑๖ พฤษภาคม ๒๕๕๓"
      ]
    ],
    []
  ],
  "metadata": {
    "date_backmatter": "2553-05-12",
    "date_header": "2553-05-16",
    "date_modified": "2553-05-27",
    "date_original": "2553-05-27",
    "doctype": "ประกาศ",
    "editors": [
      {
        "name": "ปริยานุช",
        "role": "ผู้จัดทำ",
        "date": "2553-06-03"
      },
      {
        "name": "นันท์นภัสร์",
        "role": "ตรวจ",
        "date": "2553-06-03"
      }
    ],
    "tag": "a1117-2e-2553-a0037"
  }
}