{
  "pages": [
    [
      [
        "ประกาศกระทรวงการคลัง",
        "เรื่อง ผลการจำหน่ายตั๋วสัญญาใช้เงินเพื่อการปรับโครงสร้างหนี้",
        "(พ.ร.บ. การบริหารหนี้สาธารณะฯ) ในปีงบประมาณ พ.ศ. ๒๕๕๘",
        "ครั้งที่ ๓"
      ]
    ],
    []
  ],
  "metadata": {
    "date_backmatter": "2558-04-10",
    "date_modified": "2558-05-06",
    "date_original": "2558-05-06",
    "doctype": "ประกาศ",
    "editors": [
      {
        "name": "ปริยานุช",
        "role": "ผู้จัดทำ",
        "date": "2558-05-11"
      },
      {
        "name": "วิศนี",
        "role": "ผู้ตรวจ",
        "date": "2558-05-20"
      }
    ],
    "tag": "a1117-2e-2558-a0031"
  }
}