{
  "pages": [
    [
      [
        "ประกาศกระทรวงการคลัง",
        "เรื่อง ผลการจำหน่ายพันธบัตรรัฐบาล ในปีงบประมาณ พ.ศ. ๒๕๕๙",
        "ครั้งที่ ๗"
      ]
    ],
    []
  ],
  "metadata": {
    "date_backmatter": "2559-03-01",
    "date_modified": "2559-03-04",
    "date_original": "2559-03-04",
    "doctype": "ประกาศ",
    "editors": [
      {
        "name": "ปริยานุช",
        "role": "จัดทำ",
        "date": "2559-03-07"
      },
      {
        "name": "วริญา",
        "role": "ตรวจ",
        "date": "2559-03-07"
      }
    ],
    "tag": "a1117-2e-2559-a0021"
  }
}