{
  "pages": [
    [
      [
        "ประกาศกระทรวงการคลัง",
        "เรื่อง การขยายระยะเวลาการเบิกเงินกู้เพื่อใช้ในการดำเนินโครงการเงินกู้เพื่อฟื้นฟูเศรษฐกิจ",
        "และพัฒนาโครงสร้างพื้นฐาน (DPL) ในปีงบประมาณ พ.ศ. ๒๕๕๘",
        "ครั้งที่ ๒"
      ]
    ],
    []
  ],
  "metadata": {
    "date_backmatter": "2558-09-17",
    "date_modified": "2558-10-08",
    "date_original": "2558-10-08",
    "doctype": "ประกาศ",
    "editors": [
      {
        "name": "ปริยานุช",
        "role": "ผู้จัดทำ",
        "date": "2558-10-15"
      },
      {
        "name": "วิศนี",
        "role": "ผู้ตรวจ",
        "date": "2558-10-26"
      }
    ],
    "tag": "a1117-2e-2558-a0072"
  }
}