{
  "pages": [
    [
      [
        "ประกาศกระทรวงการคลัง",
        "เรื่อง ผลการจำหน่ายพันธบัตรออมทรัพย์ของกระทรวงการคลัง",
        "ในปีงบประมาณ พ.ศ. ๒๕๖๐ ครั้งที่ ๒"
      ]
    ],
    []
  ],
  "metadata": {
    "date_backmatter": "2560-07-12",
    "date_modified": "2560-07-19",
    "date_original": "2560-07-19",
    "doctype": "ประกาศ",
    "editors": [
      {
        "name": "ภวรรณตรี",
        "role": "จัดทำ",
        "date": "2560-07-24"
      },
      {
        "name": "ชวัลพร",
        "role": "ตรวจ",
        "date": "2560-07-24"
      }
    ],
    "tag": "a1117-2e-2560-a0046"
  }
}