{
  "pages": [
    [
      [
        "ประกาศกระทรวงการคลัง",
        "เรื่อง การกู้เงิน Euro Commercial Paper หรือ ECP Programme ของกระทรวงการคลัง",
        "ประจำปีงบประมาณ พ.ศ. ๒๕๕๙",
        "ครั้งที่ ๒"
      ]
    ],
    []
  ],
  "metadata": {
    "date_backmatter": "2559-01-29",
    "date_modified": "2559-02-24",
    "date_original": "2559-02-24",
    "doctype": "ประกาศ",
    "editors": [
      {
        "name": "ชวัลพร/ปริยานุช",
        "role": "จัดทำ",
        "date": "2559-03-03"
      }
    ],
    "tag": "a1117-2e-2559-a0017"
  }
}