{
  "pages": [
    [
      [
        "ประกาศกระทรวงการคลัง",
        "เรื่อง ผลการกู้เงินด้วยวิธีการออกตั๋วเงินคลัง ประจำเดือนพฤศจิกายน พ.ศ. ๒๕๔๙"
      ]
    ],
    []
  ],
  "metadata": {
    "date_backmatter": "2550-01-04",
    "date_header": "2549-11-00",
    "date_modified": "2550-01-15",
    "date_original": "2550-01-15",
    "doctype": "ประกาศ",
    "editors": [
      {
        "name": "วัชศักดิ์",
        "role": "ผู้จัดทำ",
        "date": "2550-01-18"
      }
    ],
    "tag": "a1117-2e-2550-a0001"
  }
}