{
  "pages": [
    [
      [
        "ประกาศกระทรวงการคลัง",
        "เรื่อง การปรับลดวงเงินกู้เพื่อให้กู้ต่อ ในปีงบประมาณ พ.ศ. ๒๕๕๕",
        "ครั้งที่ ๑"
      ]
    ],
    []
  ],
  "metadata": {
    "date_backmatter": "2556-05-23",
    "date_modified": "2556-06-06",
    "date_original": "2556-06-06",
    "doctype": "ประกาศ",
    "editors": [
      {
        "name": "ปริยานุช",
        "role": "ผู้จัดทำ",
        "date": "2556-06-10"
      },
      {
        "name": "อุษมล",
        "role": "ผู้ตรวจ",
        "date": "2556-06-13"
      }
    ],
    "tag": "a1117-2e-2556-a0062"
  }
}