{
  "pages": [
    [
      [
        "ประกาศกระทรวงการคลัง",
        "เรื่อง การกู้เงินสำหรับโครงการเพื่อการวางระบบบริหารจัดการน้ำ",
        "และสร้างอนาคตประเทศ พ.ศ. ๒๕๕๕",
        "ในปีงบประมาณ ๒๕๕๖ ครั้งที่ ๑"
      ]
    ],
    []
  ],
  "metadata": {
    "date_backmatter": "2556-04-30",
    "date_modified": "2556-05-23",
    "date_original": "2556-05-23",
    "doctype": "ประกาศ",
    "editors": [
      {
        "name": "ปริยานุช",
        "role": "ผู้จัดทำ",
        "date": "2556-05-28"
      },
      {
        "name": "อุษมล",
        "role": "ผู้ตรวจ",
        "date": "2556-05-28"
      }
    ],
    "tag": "a1117-2e-2556-a0052"
  }
}