{
  "pages": [
    [
      [
        "ประกาศกระทรวงการคลัง",
        "เรื่อง การจำหน่ายพันธบัตรรัฐบาล ในปีงบประมาณ พ.ศ. ๒๕๕๕ ครั้งที่ ๘"
      ]
    ],
    []
  ],
  "metadata": {
    "date_backmatter": "2555-03-29",
    "date_modified": "2555-04-23",
    "date_original": "2555-04-23",
    "doctype": "ประกาศ",
    "editors": [
      {
        "name": "ปริยานุช",
        "role": "ผู้จัดทำ",
        "date": "2555-04-26"
      },
      {
        "name": "ปณตภร",
        "role": "ผู้ตรวจ",
        "date": "2555-05-18"
      }
    ],
    "tag": "a1117-2e-2555-a0028"
  }
}