{
  "pages": [
    [
      [
        "ประกาศคณะกรรมการองค์การเพื่อการปฏิรูป",
        "ระบบสถาบันการเงิน",
        "เรื่อง การขอรับชำระหนี้สำหรับเจ้าหนี้",
        "และการจัดสรรเงินจากการขายทรัพย์สินให้แก่เจ้าหนี้",
        "(ฉบับแก้ไขเพิ่มเติม)"
      ]
    ],
    []
  ],
  "metadata": {
    "date_backmatter": "2543-07-11",
    "date_modified": "2543-07-24",
    "date_original": "2543-07-24",
    "doctype": "ประกาศ",
    "editors": [
      {
        "name": "สุกัญญา",
        "role": "พิมพ์",
        "date": "2552-10-22"
      },
      {
        "name": "พัสสน",
        "role": "จัดทำ",
        "date": "2552-10-29"
      },
      {
        "name": "โชติกานต์",
        "role": "ปรับปรุง",
        "date": "2559-05-16"
      }
    ],
    "tag": "a187-2e-2543-a0001"
  }
}