{
  "pages": [
    [
      [
        "ประกาศกระทรวงศึกษาธิการ",
        "เรื่อง การเปลี่ยนประเภทวิทยาลัยพิษณุโลกเป็นมหาวิทยาลัยพิษณุโลก"
      ]
    ],
    []
  ],
  "metadata": {
    "date_backmatter": "2554-05-06",
    "date_modified": "2554-06-01",
    "date_original": "2554-06-01",
    "doctype": "ประกาศ",
    "editors": [
      {
        "name": "ปริยานุช",
        "role": "ผู้จัดทำ",
        "date": "2554-06-13"
      },
      {
        "name": "ณัฐวดี",
        "role": "ตรวจ",
        "date": "2554-06-13"
      }
    ],
    "tag": "ca20-2e-2554-a0001"
  }
}