{
  "pages": [
    [
      [
        "ประกาศกระทรวงศึกษาธิการ",
        "เรื่อง การเปลี่ยนประเภทวิทยาลัยบัณฑิตบริหารธุรกิจ",
        "เป็น มหาวิทยาลัยบัณฑิตบริหารธุรกิจ"
      ]
    ],
    []
  ],
  "metadata": {
    "date_backmatter": "2552-09-09",
    "date_modified": "2552-11-20",
    "date_original": "2552-11-20",
    "doctype": "ประกาศ",
    "editors": [
      {
        "name": "ปริญสินีย์",
        "role": "ผู้จัดทำ",
        "date": "2554-01-12"
      },
      {
        "name": "มณฑิตา",
        "role": "ผู้ตรวจ",
        "date": "2554-05-27"
      }
    ],
    "tag": "ca20-2e-2552-a0004"
  }
}