{
  "pages": [
    [
      [
        "ระเบียบคณะกรรมการการอุดมศึกษา",
        "ว่าด้วย การจัดทำทะเบียนคณาจารย์ประจำ ผู้ช่วยอาจารย์",
        "เจ้าหน้าที่และนักศึกษา ของสถาบันอุดมศึกษาเอกชน",
        "พ.ศ. ๒๕๔๗"
      ]
    ],
    []
  ],
  "metadata": {
    "date_backmatter": "2547-06-10",
    "date_modified": "2547-07-29",
    "date_original": "2547-07-29",
    "editors": [
      {
        "name": "ปริญสินีย์",
        "role": "ผู้จัดทำ",
        "date": "2553-01-13"
      },
      {
        "name": "มณฑิตา",
        "role": "ผู้ตรวจ",
        "date": "2554-05-30"
      }
    ],
    "tag": "ca20-2g-2547-a0002"
  }
}