{
  "pages": [
    [
      [
        "พระราชบัญญัติ",
        "สถาบันอุดมศึกษาเอกชน (ฉบับที่ ๒)",
        "พ.ศ. ๒๕๕๐",
        "",
        "",
        "ภูมิพลอดุลยเดช ป.ร.",
        "ให้ไว้ ณ วันที่ ๑๖ ธันวาคม พ.ศ. ๒๕๕๐",
        "เป็นปีที่ ๖๒ ในรัชกาลปัจจุบัน"
      ]
    ],
    []
  ],
  "metadata": {
    "date_header": "2550-12-16",
    "date_modified": "2550-12-29",
    "date_original": "2550-12-29",
    "doctype": "พระราชบัญญัติ",
    "editors": [
      {
        "name": "ปริยานุช",
        "role": "ผู้จัดทำ",
        "date": "2551-01-16"
      },
      {
        "name": "ภีรภัทร",
        "role": "ปรับปรุง",
        "date": "2554-03-04"
      },
      {
        "name": "ปณตภร",
        "role": "ปรับปรุง",
        "date": "2557-04-21"
      },
      {
        "name": "กุลชาติ",
        "role": "ตรวจ",
        "date": "2557-04-21"
      }
    ],
    "tag": "ca20-20-2550-a0001",
    "title": "สถาบันอุดมศึกษาเอกชน (ฉบับที่ ๒)"
  }
}