{
  "pages": [
    [
      [
        "กฎกระทรวง",
        "ว่าด้วยหลักเกณฑ์การให้อนุปริญญา",
        "สำหรับผู้ที่สอบไล่ได้ครบทุกลักษณะวิชาตามหลักสูตรปริญญาตรี",
        "พ.ศ. ๒๕๔๙"
      ]
    ],
    []
  ],
  "metadata": {
    "date_backmatter": "2549-07-19",
    "date_modified": "2549-08-21",
    "date_original": "2549-08-21",
    "doctype": "กฎกระทรวง",
    "editors": [
      {
        "name": "ปริญสินีย์",
        "role": "ผู้จัดทำ",
        "date": "2553-11-10"
      },
      {
        "name": "มณฑิตา",
        "role": "ผู้ตรวจ",
        "date": "2554-05-26"
      }
    ],
    "tag": "ca20-2b-2549-a0004"
  }
}