{
  "pages": [
    [
      [
        "พระราชบัญญัติ",
        "สถาบันอุดมศึกษาเอกชน",
        "พ.ศ. ๒๕๔๖",
        "",
        "",
        "ภูมิพลอดุลยเดช ป.ร.",
        "ให้ไว้ ณ วันที่ ๑๓ ตุลาคม พ.ศ. ๒๕๔๖",
        "เป็นปีที่ ๕๘ ในรัชกาลปัจจุบัน"
      ]
    ],
    []
  ],
  "metadata": {
    "date_header": "2546-10-13",
    "date_modified": "2550-12-29",
    "date_original": "2546-10-30",
    "doctype": "พระราชบัญญัติ",
    "editors": [
      {
        "name": "ปณตภร",
        "role": "ผู้จัดทำ",
        "date": "2557-04-21"
      },
      {
        "name": "กุลชาติ",
        "role": "ตรวจ",
        "date": "2557-04-21"
      }
    ],
    "tag": "ca20-20-2550-a0002",
    "title": "สถาบันอุดมศึกษาเอกชน"
  }
}