{
  "pages": [
    [
      [
        "กฎทบวง",
        "ฉบับที่ ๖ (พ.ศ. ๒๕๒๕)",
        "ออกตามความในพระราชบัญญัติสถาบันอุดมศึกษาเอกชน พ.ศ. ๒๕๒๒"
      ]
    ],
    []
  ],
  "metadata": {
    "date_backmatter": "2525-11-30",
    "date_modified": "2527-12-28",
    "date_original": "2525-12-23",
    "editors": [
      {
        "name": "ปริญสินีย์",
        "role": "ผู้จัดทำ",
        "date": "2553-12-00"
      },
      {
        "name": "มณฑิตา",
        "role": "ผู้ตรวจ",
        "date": "2554-05-27"
      }
    ],
    "tag": "ca20-2c-9999-update"
  }
}