{
  "pages": [
    [
      [
        "กฎทบวง",
        "ฉบับที่ ๑๓ (พ.ศ. ๒๕๒๗)",
        "ออกตามความในพระราชบัญญัติสถาบันอุดมศึกษาเอกชน พ.ศ. ๒๕๒๒"
      ]
    ],
    []
  ],
  "metadata": {
    "date_backmatter": "2527-06-20",
    "date_modified": "2527-06-26",
    "date_original": "2527-06-26",
    "editors": [
      {
        "name": "ปริญสินีย์",
        "role": "ผู้จัดทำ",
        "date": "2553-11-16"
      },
      {
        "name": "มณฑิตา",
        "role": "ผู้ตรวจ",
        "date": "2554-05-27"
      }
    ],
    "tag": "ca20-2c-2527-013"
  }
}