{
  "pages": [
    [
      [
        "กฎกระทรวง",
        "กำหนดลักษณะ ชนิด ประเภท และส่วนประกอบของครุยวิทยฐานะ",
        "และเข็มวิทยฐานะของสถาบันอุดมศึกษาเอกชน",
        "พ.ศ. ๒๕๔๙"
      ]
    ],
    []
  ],
  "metadata": {
    "date_backmatter": "2549-07-19",
    "date_modified": "2549-08-21",
    "date_original": "2549-08-21",
    "doctype": "กฎกระทรวง",
    "editors": [
      {
        "name": "ปริญสินีย์",
        "role": "ผู้จัดทำ",
        "date": "2553-11-12"
      },
      {
        "name": "มณฑิตา",
        "role": "ผู้ตรวจ",
        "date": "2554-05-26"
      },
      {
        "name": "ปณตภร",
        "role": "ปรับปรุง",
        "date": "2555-08-17"
      }
    ],
    "tag": "ca20-2b-2549-a0006"
  }
}