{
  "pages": [
    [
      [
        "ประกาศการเคหะแห่งชาติ",
        "เรื่อง อัตราค่าน้ำประปา โครงการเคหะชุมชนประเภทอาคารชุด และแฟลต (เช่า)",
        "ที่มีความสูงไม่เกิน ๕ ชั้น ที่ตั้งอยู่ในพื้นที่การจ่ายน้ำของการประปาส่วนภูมิภาค",
        "สาขาชลบุรี พัทยา แหลมฉบัง ศรีราชา พนัสนิคม และบ้านบึง"
      ]
    ],
    []
  ],
  "metadata": {
    "date_backmatter": "2553-10-29",
    "date_modified": "2554-01-19",
    "date_original": "2554-01-19",
    "doctype": "ประกาศ",
    "editors": [
      {
        "name": "ปริยานุช",
        "role": "ผู้จัดทำ",
        "date": "2554-01-27"
      },
      {
        "name": "ณัฐวดี",
        "role": "ตรวจ",
        "date": "2554-01-27"
      }
    ],
    "tag": "a179-2e-2554-a0002"
  }
}