{
  "pages": [
    [
      [
        "ระเบียบการเคหะแห่งชาติ",
        "ว่าด้วย การขอใช้สถานที่เพื่อการสาธารณูปโภคและสาธารณูปการ",
        "พ.ศ. ๒๕๔๖"
      ]
    ],
    []
  ],
  "metadata": {
    "date_backmatter": "2546-06-30",
    "date_modified": "2546-12-30",
    "date_original": "2546-12-30",
    "editors": [
      {
        "name": "พรพิมล",
        "role": "พิมพ์",
        "date": "2547-04-01"
      },
      {
        "name": "ศุภสรณ์/ทรงยศ",
        "role": "ตรวจ",
        "date": "2547-04-27"
      },
      {
        "name": "โชติกานต์",
        "role": "ปรับปรุง",
        "date": "2559-04-12"
      }
    ],
    "tag": "a179-2g-2546-a0003"
  }
}