{
  "pages": [
    [
      [
        "ประกาศการเคหะแห่งชาติ",
        "เรื่อง อัตราค่าน้ำประปาบาดาล โครงการบ้านเอื้ออาทรปราจีนบุรี (นาดี)"
      ]
    ],
    []
  ],
  "metadata": {
    "date_backmatter": "2559-06-07",
    "date_modified": "2559-07-07",
    "date_original": "2559-07-07",
    "doctype": "ประกาศ",
    "editors": [
      {
        "name": "ปริยานุช",
        "role": "จัดทำ",
        "date": "2559-07-11"
      },
      {
        "name": "กัญฑรัตน์",
        "role": "ตรวจ",
        "date": "2559-07-21"
      }
    ],
    "tag": "a179-2e-2559-a0002"
  }
}