{
  "pages": [
    [
      [
        "ประกาศการเคหะแห่งชาติ",
        "เรื่อง การออกพันธบัตรของการเคหะแห่งชาติ พ.ศ. ๒๕๕๖",
        "ครั้งที่ ๓"
      ]
    ],
    []
  ],
  "metadata": {
    "date_backmatter": "2556-05-29",
    "date_modified": "2556-06-28",
    "date_original": "2556-06-28",
    "doctype": "ประกาศ",
    "editors": [
      {
        "name": "ปริยานุช",
        "role": "ผู้จัดทำ",
        "date": "2556-07-02"
      },
      {
        "name": "โชติกานต์",
        "role": "ผู้ตรวจ",
        "date": "2556-07-18"
      }
    ],
    "tag": "a179-2e-2556-a0003"
  }
}