{
  "pages": [
    [
      [
        "ประกาศการเคหะแห่งชาติ",
        "เรื่อง การออกพันธบัตรของการเคหะแห่งชาติ",
        "พ.ศ. ๒๕๕๑ ครั้งที่ ๑๑"
      ]
    ],
    []
  ],
  "metadata": {
    "date_backmatter": "2551-05-29",
    "date_modified": "2551-07-25",
    "date_original": "2551-07-25",
    "doctype": "ประกาศ",
    "editors": [
      {
        "name": "วัชศักดิ์",
        "role": "ผู้จัดทำ",
        "date": "2551-07-28"
      },
      {
        "name": "โชติกานต์",
        "role": "ปรับปรุง",
        "date": "2559-04-11"
      }
    ],
    "tag": "a179-2e-2551-a0012"
  }
}