{
  "pages": [
    [
      [
        "พระราชบัญญัติ",
        "แรงงานสัมพันธ์ (ฉบับที่ ๒)",
        "พ.ศ. ๒๕๓๔",
        "",
        "",
        "ภูมิพลอดุลยเดช ป.ร.",
        "ให้ไว้ ณ วันที่ ๑๘ เมษายน พ.ศ. ๒๕๓๔",
        "เป็นปีที่ ๔๖ ในรัชกาลปัจจุบัน"
      ]
    ],
    []
  ],
  "metadata": {
    "date_header": "2534-04-18",
    "date_modified": "2534-04-18",
    "date_original": "2534-04-18",
    "doctype": "พระราชบัญญัติ",
    "editors": [
      {
        "name": "ปรีดาภรณ์",
        "role": "แก้ไข",
        "date": "2556-01-28"
      },
      {
        "name": "พลัฐวัษ",
        "role": "ตรวจ",
        "date": "2556-01-28"
      }
    ],
    "tag": "c327-20-2534-002",
    "title": "แรงงานสัมพันธ์ (ฉบับที่ ๒)"
  }
}