{
  "pages": [
    [
      [
        "ประกาศกระทรวงมหาดไทย",
        "เรื่อง ยกเลิกประกาศกระทรวงมหาดไทย",
        "เรื่อง ให้ข้อพิพาทแรงงานที่ตกลงกันไม่ได้เข้าสู่การชี้ขาดของคณะบุคคล",
        "และห้ามนายจ้างปิดงานหรือลูกจ้างนัดหยุดงานในระหว่าง",
        "ประกาศใช้กฎอัยการศึก"
      ]
    ],
    []
  ],
  "metadata": {
    "date_backmatter": "2534-05-03",
    "date_modified": "2534-05-03",
    "date_original": "2534-05-03",
    "doctype": "ประกาศ",
    "editors": [
      {
        "name": "อุษมล",
        "role": "ผู้จัดทำ",
        "date": "2554-12-21"
      }
    ],
    "tag": "c327-2e-2534-002"
  }
}