{
  "pages": [
    [
      [
        "ประกาศกรมสวัสดิการและคุ้มครองแรงงาน",
        "เรื่อง หลักเกณฑ์และวิธีการประชุมเลือกกันเองของผู้แทนฝ่ายนายจ้างและผู้แทนฝ่ายลูกจ้าง",
        "เพื่อเป็นผู้ลงคะแนนเลือกตั้งคณะกรรมการไตรภาคี",
        "พ.ศ. ๒๕๕๑"
      ]
    ],
    []
  ],
  "metadata": {
    "date_backmatter": "2551-10-16",
    "date_modified": "2551-10-24",
    "date_original": "2551-10-24",
    "doctype": "ประกาศ",
    "editors": [
      {
        "name": "อุษมล",
        "role": "ผู้จัดทำ",
        "date": "2554-12-22"
      }
    ],
    "tag": "c327-2e-2551-a0001"
  }
}