{
  "pages": [
    [
      [
        "คำสั่งกรมสวัสดิการและคุ้มครองแรงงาน",
        "ที่ ๑๕๑/๒๕๓๘",
        "เรื่อง การมอบหมายอำนาจหน้าที่ตามพระราชบัญญัติแรงงานสัมพันธ์",
        "พ.ศ. ๒๕๑๘"
      ]
    ],
    []
  ],
  "metadata": {
    "date_backmatter": "2538-03-08",
    "date_modified": "2538-04-27",
    "date_original": "2538-04-27",
    "editors": [
      {
        "name": "อุษมล",
        "role": "ผู้จัดทำ",
        "date": "2554-12-23"
      }
    ],
    "tag": "c327-2f-2538-004"
  }
}