{
  "pages": [
    [
      [
        "ประกาศกระทรวงมหาดไทย",
        "เรื่อง กำหนดบริเวณห้ามก่อสร้าง ดัดแปลง หรือเปลี่ยนการใช้อาคารบางชนิด",
        "หรือบางประเภทในพื้นที่บางส่วน ในท้องที่ตำบลตะคร้ำเอน",
        "ตำบลท่าเรือ และตำบลแสนตอ อำเภอท่ามะกา ตำบลวังศาลา",
        "และตำบลท่าตะคร้อ อำเภอท่าม่วง จังหวัดกาญจนบุรี"
      ]
    ],
    []
  ],
  "metadata": {
    "date_backmatter": "2546-09-02",
    "date_modified": "2546-09-04",
    "date_original": "2546-09-04",
    "doctype": "ประกาศ",
    "editors": [
      {
        "name": "ฐิติพงษ์",
        "role": "พิมพ์",
        "date": "2550-05-14"
      },
      {
        "name": "สุกัญญา",
        "role": "ตรวจ",
        "date": "2550-06-04"
      }
    ],
    "tag": "a404-2e-2546-a0002"
  }
}