{
  "pages": [
    [
      [
        "เทศบัญญัติเทศบาลตำบลนาดี",
        "เรื่อง กำหนดบริเวณห้ามก่อสร้าง ดัดแปลง หรือเปลี่ยนการใช้อาคารบางชนิดหรือบางประเภท",
        "ในท้องที่เทศบาลตำบลนาดี อำเภอเมืองสมุทรสาคร จังหวัดสมุทรสาคร",
        "พ.ศ. ๒๕๕๘"
      ]
    ],
    []
  ],
  "metadata": {
    "date_backmatter": "2558-06-04",
    "date_modified": "2558-06-23",
    "date_original": "2558-06-23",
    "editors": [
      {
        "name": "ปริยานุช",
        "role": "ผู้จัดทำ",
        "date": "2558-06-25"
      },
      {
        "name": "ปริญสินีย์",
        "role": "ผู้ตรวจ",
        "date": "2558-06-25"
      }
    ],
    "tag": "a404-2k-2558-a0023"
  }
}