{
  "pages": [
    [
      [
        "กฎกระทรวง",
        "ฉบับที่ ๖๕ (พ.ศ. ๒๕๕๘)",
        "ออกตามความในพระราชบัญญัติควบคุมอาคาร พ.ศ. ๒๕๒๒"
      ]
    ],
    []
  ],
  "metadata": {
    "date_backmatter": "2558-10-01",
    "date_modified": "2558-10-16",
    "date_original": "2558-10-16",
    "doctype": "กฎกระทรวง",
    "editors": [
      {
        "name": "ปริยานุช",
        "role": "ผู้จัดทำ",
        "date": "2558-10-19"
      },
      {
        "name": "ปุณิกา",
        "role": "ผู้ตรวจ",
        "date": "2558-11-05"
      }
    ],
    "tag": "a404-2b-2558-a0006"
  }
}