{
  "pages": [
    [
      [
        "ประกาศกระทรวงมหาดไทย",
        "เรื่อง กำหนดบริเวณห้ามก่อสร้าง ดัดแปลง หรือเปลี่ยนการใช้อาคารบางชนิดหรือบางประเภท",
        "ในพื้นที่บางส่วนในท้องที่จังหวัดลำปาง"
      ]
    ],
    []
  ],
  "metadata": {
    "date_backmatter": "2558-12-17",
    "date_modified": "2558-12-25",
    "date_original": "2558-12-25",
    "doctype": "ประกาศ",
    "editors": [
      {
        "name": "ปริยานุช",
        "role": "จัดทำ",
        "date": "2558-12-29"
      },
      {
        "name": "วริญา",
        "role": "ตรวจ",
        "date": "2559-01-07"
      }
    ],
    "tag": "a404-2e-2558-a0007"
  }
}