{
  "pages": [
    [
      [
        "ประกาศกระทรวงมหาดไทย",
        "เรื่อง กำหนดบริเวณห้ามก่อสร้าง ดัดแปลง หรือเปลี่ยนการใช้",
        "อาคารบางชนิดหรือบางประเภทในพื้นที่บางส่วน",
        "ในท้องที่ตำบลหลุมข้าว ตำบลลำคอหงษ์ ตำบลโนนสูง ตำบลเมืองปราสาท",
        "ตำบลด่านคล้า และตำบลใหม่ อำเภอโนนสูง จังหวัดนครราชสีมา"
      ]
    ],
    []
  ],
  "metadata": {
    "date_backmatter": "2546-09-02",
    "date_modified": "2546-09-04",
    "date_original": "2546-09-04",
    "doctype": "ประกาศ",
    "editors": [
      {
        "name": "ฐิติพงษ์",
        "role": "ตรวจ",
        "date": "2550-05-29"
      }
    ],
    "tag": "a404-2e-2546-a0019"
  }
}