{
  "pages": [
    [
      [
        "พระราชกฤษฎีกา",
        "ให้ใช้พระราชบัญญัติควบคุมอาคาร พ.ศ. ๒๕๒๒",
        "บังคับในท้องที่บางแห่งในตำบลนาตาล่วง ตำบลบ้านโพธิ์ ตำบลบางรัก",
        "ตำบลบ้านควน ตำบลโคกหล่อ และตำบลควนปริง",
        "อำเภอเมืองตรัง จังหวัดตรัง",
        "พ.ศ. ๒๕๓๔",
        "",
        "",
        "ภูมิพลอดุลยเดช ป.ร.",
        "ให้ไว้ ณ วันที่ ๒๕ ตุลาคม พ.ศ. ๒๕๓๔",
        "เป็นปีที่ ๔๖ ในรัชกาลปัจจุบัน"
      ]
    ],
    []
  ],
  "metadata": {
    "date_header": "2534-10-25",
    "date_modified": "2534-11-08",
    "date_original": "2534-11-08",
    "doctype": "พระราชกฤษฎีกา",
    "editors": [
      {
        "name": "สรัลพร",
        "role": "พิมพ์",
        "date": "2551-01-14"
      },
      {
        "name": "ฐิติพงษ์",
        "role": "ตรวจ",
        "date": "2551-01-22"
      }
    ],
    "tag": "a404-2a-2534-a015",
    "title": "ให้ใช้พระราชบัญญัติควบคุมอาคาร พ.ศ. ๒๕๒๒บังคับในท้องที่บางแห่งในตำบลนาตาล่วง ตำบลบ้านโพธิ์ ตำบลบางรักตำบลบ้านควน ตำบลโคกหล่อ และตำบลควนปริงอำเภอเมืองตรัง จังหวัดตรัง"
  }
}