{
  "pages": [
    [
      [
        "ข้อบัญญัติองค์การบริหารส่วนตำบลบางเพรียง",
        "เรื่อง กำหนดบริเวณห้ามก่อสร้าง ดัดแปลง ใช้หรือเปลี่ยนการใช้อาคาร",
        "บางชนิดหรือบางประเภทในท้องที่องค์การบริหารส่วนตำบลบางเพรียง",
        "อำเภอบางบ่อ จังหวัดสมุทรปราการ (ฉบับที่ ๒)",
        "พ.ศ. ๒๕๕๔"
      ]
    ],
    []
  ],
  "metadata": {
    "date_backmatter": "2554-02-04",
    "date_modified": "2554-02-15",
    "date_original": "2554-02-15",
    "editors": [
      {
        "name": "ปริยานุช",
        "role": "ผู้จัดทำ",
        "date": "2554-02-23"
      },
      {
        "name": "ณัฐวดี",
        "role": "ตรวจ",
        "date": "2554-02-23"
      }
    ],
    "tag": "a404-2j-2554-a0004"
  }
}