{
  "pages": [
    [
      [
        "เทศบัญญัติเทศบาลตำบลบ้านไร่",
        "เรื่อง กำหนดบริเวณห้ามก่อสร้าง ดัดแปลง หรือเปลี่ยนการใช้อาคารบางชนิดหรือบางประเภท",
        "ในท้องที่เขตเทศบาลตำบลบ้านไร่ อำเภอหาดใหญ่ จังหวัดสงขลา",
        "พ.ศ. ๒๕๕๗"
      ]
    ],
    []
  ],
  "metadata": {
    "date_backmatter": "2557-08-23",
    "date_modified": "2557-10-29",
    "date_original": "2557-10-29",
    "editors": [
      {
        "name": "ปริยานุช",
        "role": "ผู้จัดทำ",
        "date": "2557-11-03"
      },
      {
        "name": "กฤษดายุทธ",
        "role": "ผู้ตรวจ",
        "date": "2557-11-04"
      }
    ],
    "tag": "a404-2k-2557-a0023"
  }
}