{
  "pages": [
    [
      [
        "กฎกระทรวง",
        "ฉบับที่ ๖ (พ.ศ. ๒๕๒๗)",
        "ออกตามความในพระราชบัญญัติควบคุมอาคาร",
        "พ.ศ. ๒๕๒๒"
      ]
    ],
    []
  ],
  "metadata": {
    "date_backmatter": "2527-09-17",
    "date_modified": "2549-07-05",
    "date_original": "2540-10-02",
    "doctype": "กฎกระทรวง",
    "editors": [],
    "tag": "a404-2b-9997-update"
  }
}