{
  "pages": [
    [
      [
        "พระราชกฤษฎีกา",
        "ให้ใช้พระราชบัญญัติควบคุมการก่อสร้างอาคาร",
        "พุทธศักราช ๒๔๗๙ ในเขตเทศบาลเมืองยะลา",
        "พุทธศักราช ๒๔๘๓",
        "",
        "",
        "ในพระปรมาภิไธยสมเด็จพระเจ้าอยู่หัวอานันทมหิดล",
        "คณะผู้สำเร็จราชการแทนพระองค์",
        "(ตามประกาศประธานสภาผู้แทนราษฎร",
        "ลงวันที่ ๔ สิงหาคม พุทธศักราช ๒๔๘๐)",
        "อาทิตย์ทิพอาภา",
        "พล.อ. พิชเยนทรโยธิน",
        "ตราไว้ ณ วันที่ ๒๙ พฤศจิกายน พุทธศักราช ๒๔๘๓",
        "เป็นปีที่ ๗ ในรัชกาลปัจจุบัน"
      ]
    ],
    []
  ],
  "metadata": {
    "date_header": "2480-08-04",
    "date_modified": "2483-12-10",
    "date_original": "2483-12-10",
    "doctype": "พระราชกฤษฎีกา",
    "editors": [
      {
        "name": "สรัลพร",
        "role": "พิมพ์",
        "date": "2550-12-19"
      },
      {
        "name": "หทัยภัทร",
        "role": "ตรวจ",
        "date": "2551-02-14"
      }
    ],
    "tag": "a404-2a-2483-a0001",
    "title": "ให้ใช้พระราชบัญญัติควบคุมการก่อสร้างอาคารพุทธศักราช ๒๔๗๙ ในเขตเทศบาลเมืองยะลา"
  }
}