{
  "pages": [
    [
      [
        "พระราชกฤษฎีกา",
        "ให้ใช้พระราชบัญญัติควบคุมอาคาร พ.ศ. ๒๕๒๒",
        "บังคับในท้องที่บางแห่งในตำบลบ้านต๋อม ตำบลสันป่าม่วง ตำบลท่าวังทอง",
        "ตำบลบ้านสาง ตำบลบ้านตุ๋น ตำบลแม่ใส ตำบลจำป่าหวาย",
        "ตำบลแม่กา อำเภอเมืองพะเยา และตำบลดอกคำใต้",
        "อำเภอดอกคำใต้ จังหวัดพะเยา",
        "พ.ศ. ๒๕๔๐",
        "",
        "",
        "ภูมิพลอดุลยเดช ป.ร.",
        "ให้ไว้ ณ วันที่ ๔ มิถุนายน พ.ศ. ๒๕๔๐",
        "เป็นปีที่ ๕๒ ในรัชกาลปัจจุบัน"
      ]
    ],
    []
  ],
  "metadata": {
    "date_header": "2540-06-04",
    "date_modified": "2540-06-16",
    "date_original": "2540-06-16",
    "doctype": "พระราชกฤษฎีกา",
    "editors": [
      {
        "name": "สรัลพร",
        "role": "พิมพ์",
        "date": "2551-01-15"
      },
      {
        "name": "ฐิติพงษ์",
        "role": "ตรวจ",
        "date": "2551-01-29"
      }
    ],
    "tag": "a404-2a-2540-a004",
    "title": "ให้ใช้พระราชบัญญัติควบคุมอาคาร พ.ศ. ๒๕๒๒บังคับในท้องที่บางแห่งในตำบลบ้านต๋อม ตำบลสันป่าม่วง ตำบลท่าวังทองตำบลบ้านสาง ตำบลบ้านตุ๋น ตำบลแม่ใส ตำบลจำป่าหวายตำบลแม่กา อำเภอเมืองพะเยา และตำบลดอกคำใต้อำเภอดอกคำใต้ จังหวัดพะเยา"
  }
}