{
  "pages": [
    [
      [
        "กฎกระทรวง",
        "ฉบับที่ ๕๕ (พ.ศ. ๒๕๔๓)",
        "ออกตามความในพระราชบัญญัติควบคุมอาคาร",
        "พ.ศ. ๒๕๒๒"
      ]
    ],
    []
  ],
  "metadata": {
    "date_backmatter": "2543-07-28",
    "date_modified": "2546-02-13",
    "date_original": "2543-08-07",
    "doctype": "กฎกระทรวง",
    "editors": [],
    "tag": "a404-2b-2546-a0003"
  }
}