{
  "pages": [
    [
      [
        "พระราชกฤษฎีกา",
        "ให้ใช้พระราชบัญญัติควบคุมการก่อสร้างอาคาร",
        "พุทธศักราช ๒๔๗๙ ในเขตเทศบาลเมืองตรัง",
        "จังหวัดตรัง พ.ศ. ๒๔๙๕",
        "",
        "",
        "ภูมิพลอดุลยเดช ป.ร.",
        "ให้ไว้ ณ วันที่ ๑๒ กรกฎาคม พ.ศ. ๒๔๙๕",
        "เป็นปีที่ ๗ ในรัชกาลปัจจุบัน"
      ]
    ],
    []
  ],
  "metadata": {
    "date_header": "2495-07-12",
    "date_modified": "2495-07-29",
    "date_original": "2495-07-29",
    "doctype": "พระราชกฤษฎีกา",
    "editors": [
      {
        "name": "ฐิติพงษ์",
        "role": "พิมพ์",
        "date": "2551-04-29"
      },
      {
        "name": "รัศม์วรรณวลัย",
        "role": "ตรวจ",
        "date": "2551-05-02"
      }
    ],
    "tag": "a404-2a-2495-a003",
    "title": "ให้ใช้พระราชบัญญัติควบคุมการก่อสร้างอาคารพุทธศักราช ๒๔๗๙ ในเขตเทศบาลเมืองตรังจังหวัดตรัง"
  }
}