{
  "pages": [
    [
      [
        "พระราชกฤษฎีกา",
        "ให้ใช้พระราชบัญญัติควบคุมอาคาร พ.ศ. ๒๕๒๒",
        "บังคับในท้องที่บางแห่งในตำบลทางเกวียน และตำบลวังหว้า",
        "อำเภอแกลง จังหวัดระยอง",
        "พ.ศ. ๒๕๔๑",
        "",
        "",
        "ภูมิพลอดุลยเดช ป.ร.",
        "ให้ไว้ ณ วันที่ ๑๖ พฤษภาคม พ.ศ. ๒๕๔๑",
        "เป็นปีที่ ๕๓ ในรัชกาลปัจจุบัน"
      ]
    ],
    []
  ],
  "metadata": {
    "date_header": "2541-05-16",
    "date_modified": "2541-05-31",
    "date_original": "2541-05-31",
    "doctype": "พระราชกฤษฎีกา",
    "editors": [
      {
        "name": "สรัลพร",
        "role": "พิมพ์",
        "date": "2551-01-15"
      },
      {
        "name": "ฐิติพงษ์",
        "role": "ตรวจ",
        "date": "2551-01-29"
      }
    ],
    "tag": "a404-2a-2541-a002",
    "title": "ให้ใช้พระราชบัญญัติควบคุมอาคาร พ.ศ. ๒๕๒๒บังคับในท้องที่บางแห่งในตำบลทางเกวียน และตำบลวังหว้าอำเภอแกลง จังหวัดระยอง"
  }
}