{
  "pages": [
    [
      [
        "เทศบัญญัติเทศบาลตำบลท่ามิหรำ",
        "เรื่อง กำหนดบริเวณห้ามก่อสร้าง ดัดแปลง หรือเปลี่ยนการใช้อาคารบางชนิด หรือบางประเภท",
        "ในท้องที่เทศบาลตำบลท่ามิหรำ อำเภอเมืองพัทลุง จังหวัดพัทลุง",
        "พ.ศ. ๒๕๕๖"
      ]
    ],
    []
  ],
  "metadata": {
    "date_backmatter": "2556-05-21",
    "date_modified": "2556-08-27",
    "date_original": "2556-08-27",
    "editors": [
      {
        "name": "ปริยานุช",
        "role": "ผู้จัดทำ",
        "date": "2556-08-29"
      },
      {
        "name": "อุษมล",
        "role": "ผู้ตรวจ",
        "date": "2556-09-05"
      }
    ],
    "tag": "a404-2k-2556-a0033"
  }
}