{
  "pages": [
    [
      [
        "*",
        "กฎกระทรวง",
        "ฉบับที่ 33 (พ.ศ. 2535)",
        "ออกตามความในพระราชบัญญัติควบคุมอาคาร",
        "พ.ศ. 2522"
      ]
    ],
    []
  ],
  "metadata": {
    "date_backmatter": "2535-02-14",
    "editors": [],
    "tag": "a404-2b-2536-038u"
  }
}