{
  "pages": [
    [
      [
        "กฎกระทรวง",
        "กำหนดบริเวณห้ามก่อสร้าง ดัดแปลง หรือเปลี่ยนการใช้อาคารบางชนิด",
        "หรือบางประเภท ในพื้นที่บางส่วนในท้องที่ตำบลบางนอน ตำบลเขานิเวศน์",
        "ตำบลบางริ้น ตำบลหาดส้มแป้น และตำบลปากน้ำ",
        "อำเภอเมืองระนอง จังหวัดระนอง",
        "พ.ศ. ๒๕๔๗"
      ]
    ],
    []
  ],
  "metadata": {
    "date_backmatter": "2547-09-01",
    "date_modified": "2547-09-03",
    "date_original": "2547-09-03",
    "doctype": "กฎกระทรวง",
    "editors": [
      {
        "name": "โสรศ",
        "role": "พิมพ์",
        "date": "2549-05-29"
      },
      {
        "name": "เชิงชาย/ปาจรีย์",
        "role": "ผู้จัดทำ",
        "date": "2549-06-14"
      }
    ],
    "tag": "a404-2b-2547-a0131"
  }
}