{
  "pages": [
    [
      [
        "เทศบัญญัติเทศบาลเมืองพังงา",
        "เรื่อง แนวเขตวงเวียนน้ำพุ",
        "พ.ศ. ๒๕๕๐"
      ]
    ],
    []
  ],
  "metadata": {
    "date_backmatter": "2550-02-26",
    "date_modified": "2550-05-28",
    "date_original": "2550-05-28",
    "editors": [
      {
        "name": "โสรศ",
        "role": "ผู้จัดทำ",
        "date": "2550-06-06"
      }
    ],
    "tag": "a404-2k-2550-a0004"
  }
}