{
  "pages": [
    [
      [
        "กฎกระทรวง",
        "กำหนดบริเวณห้ามก่อสร้าง ดัดแปลง หรือเปลี่ยนการใช้อาคารบางชนิด",
        "หรือบางประเภท ในพื้นที่บางส่วนในท้องที่ตำบลสำราญ ตำบลน้ำคำใหญ่",
        "ตำบลในเมือง ตำบลตาดทอง และตำบลเขื่องคำ",
        "อำเภอเมืองยโสธร จังหวัดยโสธร",
        "พ.ศ. ๒๕๔๗"
      ]
    ],
    []
  ],
  "metadata": {
    "date_backmatter": "2547-09-01",
    "date_modified": "2547-09-03",
    "date_original": "2547-09-03",
    "doctype": "กฎกระทรวง",
    "editors": [
      {
        "name": "ศิริยา",
        "role": "พิมพ์",
        "date": "2549-05-22"
      },
      {
        "name": "ปาจรีย์/เชิงชาย",
        "role": "ผู้จัดทำ",
        "date": "2549-06-01"
      }
    ],
    "tag": "a404-2b-2547-a0127"
  }
}