{
  "pages": [
    [
      [
        "พระราชกฤษฎีกา",
        "ให้ใช้พระราชบัญญัติควบคุมการก่อสร้างในเขตเพลิงไหม้",
        "พุทธศักราช ๒๔๗๖ ในบริเวณเขตเพลิงไหม้",
        "ที่ตำบลโพธาราม อำเภอโพธาราม จังหวัดราชบุรี",
        "พ.ศ. ๒๕๑๐",
        "",
        "",
        "ภูมิพลอดุลยเดช ป.ร.",
        "ให้ไว้ ณ วันที่ ๗ กุมภาพันธ์ พ.ศ. ๒๕๑๐",
        "เป็นปีที่ ๒๒ ในรัชกาลปัจจุบัน"
      ]
    ],
    []
  ],
  "metadata": {
    "date_backmatter": "2509-11-13",
    "date_header": "2510-02-07",
    "date_modified": "2510-02-09",
    "date_original": "2510-02-09",
    "doctype": "พระราชกฤษฎีกา",
    "editors": [
      {
        "name": "ดลธี",
        "role": "พิมพ์",
        "date": "2551-06-11"
      },
      {
        "name": "ฐิติพงษ์",
        "role": "ตรวจ",
        "date": "2551-06-16"
      }
    ],
    "tag": "a404-2a-2510-a002",
    "title": "ให้ใช้พระราชบัญญัติควบคุมการก่อสร้างในเขตเพลิงไหม้พุทธศักราช ๒๔๗๖ ในบริเวณเขตเพลิงไหม้ที่ตำบลโพธาราม อำเภอโพธาราม จังหวัดราชบุรี"
  }
}