{
  "pages": [
    [
      [
        "ข้อบัญญัติองค์การบริหารส่วนตำบลวัดตูม",
        "เรื่อง กำหนดบริเวณห้ามก่อสร้าง ดัดแปลง หรือเปลี่ยนการใช้อาคารบางชนิดหรือบางประเภท",
        "ในพื้นที่บางส่วนในเขตองค์การบริหารส่วนตำบลวัดตูม อำเภอพระนครศรีอยุธยา จังหวัดพระนครศรีอยุธยา",
        "พ.ศ. ๒๕๕๗"
      ]
    ],
    []
  ],
  "metadata": {
    "date_backmatter": "2557-12-29",
    "date_modified": "2558-03-19",
    "date_original": "2558-03-19",
    "editors": [
      {
        "name": "ปริยานุช",
        "role": "ผู้จัดทำ",
        "date": "2558-03-24"
      },
      {
        "name": "วันทิตา",
        "role": "ผู้ตรวจ",
        "date": "2558-04-24"
      }
    ],
    "tag": "a404-2j-2558-a0013"
  }
}