{
  "pages": [
    [
      [
        "ข้อบัญญัติองค์การบริหารส่วนตำบลราษฎร์นิยม",
        "เรื่อง กำหนดบริเวณห้ามก่อสร้าง ดัดแปลง หรือเปลี่ยนการใช้อาคารบางชนิด หรือบางประเภท",
        "ในเขตองค์การบริหารส่วนตำบลราษฎร์นิยม อำเภอไทรน้อย จังหวัดนนทบุรี",
        "พ.ศ. ๒๕๕๕"
      ]
    ],
    []
  ],
  "metadata": {
    "date_backmatter": "2555-09-19",
    "date_modified": "2555-12-24",
    "date_original": "2555-12-24",
    "editors": [
      {
        "name": "ปริยานุช",
        "role": "ผู้จัดทำ",
        "date": "2555-12-28"
      },
      {
        "name": "เอกฤทธิ์",
        "role": "ผู้ตรวจ",
        "date": "2555-12-28"
      }
    ],
    "tag": "a404-2j-2555-a0052"
  }
}