{
  "pages": [
    [
      [
        "พระราชกฤษฎีกา",
        "ให้ใช้พระราชบัญญัติควบคุมการก่อสร้างอาคาร",
        "พุทธศักราช ๒๔๗๙ ในเขตเทศบาลเมืองสุรินทร์",
        "จังหวัดสุรินทร์",
        "พ.ศ. ๒๔๙๘",
        "",
        "",
        "ภูมิพลอดุลยเดช ป.ร.",
        "ให้ไว้ ณ วันที่ ๒๑ พฤศจิกายน พ.ศ. ๒๔๙๘",
        "เป็นปีที่ ๑๐ ในรัชกาลปัจจุบัน"
      ]
    ],
    []
  ],
  "metadata": {
    "date_header": "2498-11-21",
    "date_modified": "2498-11-29",
    "date_original": "2498-11-29",
    "doctype": "พระราชกฤษฎีกา",
    "editors": [
      {
        "name": "ฐิติพงษ์",
        "role": "พิมพ์",
        "date": "2551-05-02"
      },
      {
        "name": "รัศม์วรรณวลัย",
        "role": "ตรวจ",
        "date": "2551-05-06"
      }
    ],
    "tag": "a404-2a-2498-a005",
    "title": "ให้ใช้พระราชบัญญัติควบคุมการก่อสร้างอาคารพุทธศักราช ๒๔๗๙ ในเขตเทศบาลเมืองสุรินทร์จังหวัดสุรินทร์"
  }
}