{
  "pages": [
    [
      [
        "พระราชกฤษฎีกา",
        "ให้ใช้พระราชบัญญัติควบคุมการก่อสร้างอาคาร",
        "พุทธศักราช ๒๔๗๙",
        "ในเขตเทศบาลเมืองปทุมธานี จังหวัดปทุมธานี",
        "พ.ศ. ๒๔๙๙",
        "",
        "",
        "ภูมิพลอดุลยเดช ป.ร.",
        "ให้ไว้ ณ วันที่ ๒๑ กันยายน พ.ศ. ๒๔๙๙",
        "เป็นปีที่ ๑๑ ในรัชกาลปัจจุบัน"
      ]
    ],
    []
  ],
  "metadata": {
    "date_header": "2499-09-21",
    "date_modified": "2499-10-02",
    "date_original": "2499-10-02",
    "doctype": "พระราชกฤษฎีกา",
    "editors": [
      {
        "name": "ฐิติพงษ์",
        "role": "พิมพ์",
        "date": "2551-05-30"
      },
      {
        "name": "รัศม์วรรณวลัย",
        "role": "ตรวจ",
        "date": "2551-06-02"
      }
    ],
    "tag": "a404-2a-2499-a004",
    "title": "ให้ใช้พระราชบัญญัติควบคุมการก่อสร้างอาคารพุทธศักราช ๒๔๗๙ในเขตเทศบาลเมืองปทุมธานี จังหวัดปทุมธานี"
  }
}