{
  "pages": [
    [
      [
        "พระราชกฤษฎีกา",
        "ให้ใช้พระราชบัญญัติควบคุมการก่อสร้างอาคาร",
        "พุทธศักราช ๒๔๗๙ ในเขตเทศบาล",
        "ตำบลหัวหิน จังหวัดประจวบคีรีขันธ์",
        "พ.ศ. ๒๕๐๐",
        "",
        "",
        "ภูมิพลอดุลยเดช ป.ร.",
        "ให้ไว้ ณ วันที่ ๑๖ ธันวาคม พ.ศ. ๒๕๐๐",
        "เป็นปีที่ ๑๒ ในรัชกาลปัจจุบัน"
      ]
    ],
    []
  ],
  "metadata": {
    "date_header": "2500-12-16",
    "date_modified": "2500-12-19",
    "date_original": "2500-12-19",
    "doctype": "พระราชกฤษฎีกา",
    "editors": [
      {
        "name": "ณัฐดนัย",
        "role": "พิมพ์",
        "date": "2551-06-02"
      },
      {
        "name": "รัศม์วรรณวลัย",
        "role": "ตรวจ",
        "date": "2551-06-02"
      }
    ],
    "tag": "a404-2a-2500-a003",
    "title": "ให้ใช้พระราชบัญญัติควบคุมการก่อสร้างอาคารพุทธศักราช ๒๔๗๙ ในเขตเทศบาลตำบลหัวหิน จังหวัดประจวบคีรีขันธ์"
  }
}