{
  "pages": [
    [
      [
        "พระราชกฤษฎีกา",
        "ให้ใช้พระราชบัญญัติควบคุมการก่อสร้างอาคาร",
        "พุทธศักราช ๒๔๗๙",
        "ในเขตท้องที่บางแห่ง ในอำเภอบางเขน อำเภอบางกะปิ",
        "อำเภอดุสิต อำเภอพระโขนง อำเภอมีนบุรี อำเภอลาดกระบัง",
        "จังหวัดพระนคร อำเภอบางกอกน้อย อำเภอตลิ่งชัน อำเภอภาษีเจริญ",
        "อำเภอหนองแขม อำเภอราษฎร์บูรณะ อำเภอบางขุนเทียน",
        "จังหวัดธนบุรี อำเภอเมืองนนทบุรี อำเภอปากเกร็ด อำเภอบางกรวย",
        "จังหวัดนนทบุรี อำเภอเมืองสมุทรปราการ อำเภอพระประแดง",
        "จังหวัดสมุทรปราการ อำเภอเมืองสมุทรสาคร",
        "อำเภอกระทุ่มแบน จังหวัดสุมทรสาคร และอำเภอนครชัยศรี",
        "อำเภอสามพราน จังหวัดนครปฐม",
        "พ.ศ. ๒๕๐๕",
        "",
        "",
        "ในพระปรมาภิไธย",
        "พระบาทสมเด็จพระปรมินทรมหาภูมิพลอดุยเดช",
        "สังวาลย์",
        "ผู้สำเร็จราชการแทนพระองค์",
        "ให้ไว้ ณ วันที่ ๒๑ สิงหาคม พ.ศ. ๒๕๐๕",
        "เป็นปีที่ ๑๗ ในรัชกาลปัจจุบัน"
      ]
    ],
    []
  ],
  "metadata": {
    "date_header": "2505-08-21",
    "date_modified": "2505-09-04",
    "date_original": "2505-09-04",
    "doctype": "พระราชกฤษฎีกา",
    "editors": [
      {
        "name": "ณัฐดนัย",
        "role": "พิมพ์",
        "date": "2551-06-02"
      },
      {
        "name": "รัศม์วรรณวลัย",
        "role": "ตรวจ",
        "date": "2551-06-03"
      }
    ],
    "tag": "a404-2a-2505-a002",
    "title": "ให้ใช้พระราชบัญญัติควบคุมการก่อสร้างอาคารพุทธศักราช ๒๔๗๙ในเขตท้องที่บางแห่ง ในอำเภอบางเขน อำเภอบางกะปิอำเภอดุสิต อำเภอพระโขนง อำเภอมีนบุรี อำเภอลาดกระบังจังหวัดพระนคร อำเภอบางกอกน้อย อำเภอตลิ่งชัน อำเภอภาษีเจริญอำเภอหนองแขม อำเภอราษฎร์บูรณะ อำเภอบางขุนเทียนจังหวัดธนบุรี อำเภอเมืองนนทบุรี อำเภอปากเกร็ด อำเภอบางกรวยจังหวัดนนทบุรี อำเภอเมืองสมุทรปราการ อำเภอพระประแดงจังหวัดสมุทรปราการ อำเภอเมืองสมุทรสาครอำเภอกระทุ่มแบน จังหวัดสุมทรสาคร และอำเภอนครชัยศรีอำเภอสามพราน จังหวัดนครปฐม"
  }
}