{
  "pages": [
    [
      [
        "เทศบัญญัติเทศบาลตำบลไทรม้า",
        "เรื่อง กำหนดจำนวนที่จอดรถยนต์ของอาคารบางชนิดหรือบางประเภท",
        "ลักษณะและขนาดที่จอดรถยนต์ ที่กลับรถยนต์ และทางเข้าออกของรถยนต์",
        "พ.ศ. ๒๕๖๐"
      ]
    ],
    []
  ],
  "metadata": {
    "date_backmatter": "2560-06-16",
    "date_modified": "2560-07-27",
    "date_original": "2560-07-27",
    "editors": [
      {
        "name": "ปุณิกา/อัญชลี",
        "role": "จัดทำ",
        "date": "2560-07-28"
      },
      {
        "name": "นุสรา",
        "role": "ตรวจ",
        "date": "2560-07-29"
      }
    ],
    "tag": "a404-2k-2560-a0009"
  }
}