{
  "pages": [
    [
      [
        "กฎกระทรวง",
        "กำหนดบริเวณห้ามก่อสร้าง ดัดแปลง หรือเปลี่ยนการใช้อาคารบางชนิดหรือบางประเภท",
        "ในพื้นที่บางส่วนในท้องที่ตำบลร่อนทอง ตำบลกำเนิดนพคุณ ตำบลแม่รำพึง",
        "และตำบลพงศ์ประศาสน์ อำเภอบางสะพาน จังหวัดประจวบคีรีขันธ์",
        "พ.ศ. ๒๕๕๓"
      ]
    ],
    []
  ],
  "metadata": {
    "date_backmatter": "2553-10-12",
    "date_modified": "2553-10-22",
    "date_original": "2553-10-22",
    "doctype": "กฎกระทรวง",
    "editors": [
      {
        "name": "ปริยานุช",
        "role": "ผู้จัดทำ",
        "date": "2553-10-27"
      },
      {
        "name": "ณัฐวดี",
        "role": "ตรวจ",
        "date": "2553-10-27"
      }
    ],
    "tag": "a404-2b-2553-a0003"
  }
}