{
  "pages": [
    [
      [
        "พระราชกฤษฎีกา",
        "ให้ใช้พระราชบัญญัติควบคุมอาคาร พ.ศ. ๒๕๒๒",
        "บังคับในเขตสุขาภิบาลลำทับ อำเภอลำทับ จังหวัดกระบี่",
        "พ.ศ. ๒๕๓๘",
        "",
        "",
        "ภูมิพลอดุลยเดช ป.ร.",
        "ให้ไว้ ณ วันที่ ๑๗ กรกฎาคม พ.ศ. ๒๕๓๘",
        "เป็นปีที่ ๕๐ ในรัชกาลปัจจุบัน"
      ]
    ],
    []
  ],
  "metadata": {
    "date_header": "2538-07-17",
    "date_modified": "2538-08-14",
    "date_original": "2538-08-14",
    "doctype": "พระราชกฤษฎีกา",
    "editors": [
      {
        "name": "สรัลพร",
        "role": "พิมพ์",
        "date": "2551-01-15"
      },
      {
        "name": "ฐิติพงษ์",
        "role": "ตรวจ",
        "date": "2551-01-29"
      }
    ],
    "tag": "a404-2a-2538-a0001",
    "title": "ให้ใช้พระราชบัญญัติควบคุมอาคาร พ.ศ. ๒๕๒๒บังคับในเขตสุขาภิบาลลำทับ อำเภอลำทับ จังหวัดกระบี่"
  }
}