{
  "pages": [
    [
      [
        "พระราชกฤษฎีกา",
        "ให้ใช้พระราชบัญญัติควบคุมอาคาร พ.ศ. ๒๕๒๒",
        "บังคับในท้องที่บางแห่งในตำบลปากทาง ตำบลคลองคเชนทร์",
        "ตำบลท่าหลวง และตำบลเมืองเก่า",
        "อำเภอเมืองพิจิตร จังหวัดพิจิตร",
        "พ.ศ. ๒๕๓๓",
        "",
        "",
        "ภูมิพลอดุลยเดช ป.ร.",
        "ให้ไว้ ณ วันที่ ๑๐ กันยายน พ.ศ. ๒๕๓๓",
        "เป็นปีที่ ๔๕ ในรัชกาลปัจจุบัน"
      ]
    ],
    []
  ],
  "metadata": {
    "date_header": "2533-09-10",
    "date_modified": "2533-09-24",
    "date_original": "2533-09-24",
    "doctype": "พระราชกฤษฎีกา",
    "editors": [
      {
        "name": "สรัลพร",
        "role": "พิมพ์",
        "date": "2551-01-11"
      },
      {
        "name": "ฐิติพงษ์",
        "role": "ตรวจ",
        "date": "2551-01-17"
      }
    ],
    "tag": "a404-2a-2533-a014",
    "title": "ให้ใช้พระราชบัญญัติควบคุมอาคาร พ.ศ. ๒๕๒๒บังคับในท้องที่บางแห่งในตำบลปากทาง ตำบลคลองคเชนทร์ตำบลท่าหลวง และตำบลเมืองเก่าอำเภอเมืองพิจิตร จังหวัดพิจิตร"
  }
}