{
  "pages": [
    [
      [
        "พระราชกฤษฎีกา",
        "ให้ใช้พระราชบัญญัติควบคุมอาคาร พ.ศ. ๒๕๒๒ บังคับในเขตหมู่ที่ ๑",
        "หมู่บ้านหนองปลิง หมู่ที่ ๒ หมู่บ้านหนองปลิง หมู่ที่ ๕ หมู่บ้านหนองอำไพ",
        "และหมู่ที่ ๗ หมู่บ้านสามัคคีสุข ตำบลหนองปลิง",
        "อำเภอเมืองนครสวรรค์ จังหวัดนครสวรรค์",
        "พ.ศ. ๒๕๔๓",
        "",
        "",
        "ภูมิพลอดุลยเดช ป.ร.",
        "ให้ไว้ ณ วันที่ ๙ กุมภาพันธ์ พ.ศ. ๒๕๔๓",
        "เป็นปีที่ ๕๕ ในรัชกาลปัจจุบัน"
      ]
    ],
    []
  ],
  "metadata": {
    "date_header": "2543-02-09",
    "date_modified": "2543-02-25",
    "date_original": "2543-02-25",
    "doctype": "พระราชกฤษฎีกา",
    "editors": [
      {
        "name": "สรัลพร",
        "role": "พิมพ์",
        "date": "2551-01-16"
      },
      {
        "name": "ฐิติพงษ์",
        "role": "ตรวจ",
        "date": "2551-01-30"
      }
    ],
    "tag": "a404-2a-2543-a0001",
    "title": "ให้ใช้พระราชบัญญัติควบคุมอาคาร พ.ศ. ๒๕๒๒ บังคับในเขตหมู่ที่ ๑หมู่บ้านหนองปลิง หมู่ที่ ๒ หมู่บ้านหนองปลิง หมู่ที่ ๕ หมู่บ้านหนองอำไพและหมู่ที่ ๗ หมู่บ้านสามัคคีสุข ตำบลหนองปลิงอำเภอเมืองนครสวรรค์ จังหวัดนครสวรรค์"
  }
}