{
  "pages": [
    [
      [
        "ข้อบัญญัติองค์การบริหารส่วนตำบลหนองไขว่",
        "เรื่อง การจัดการสิ่งปฏิกูล และมูลฝอย",
        "พ.ศ. ๒๕๕๕"
      ]
    ],
    []
  ],
  "metadata": {
    "date_backmatter": "2555-07-06",
    "date_modified": "2555-09-05",
    "date_original": "2555-09-05",
    "editors": [
      {
        "name": "ปริยานุช",
        "role": "ผู้จัดทำ",
        "date": "2555-09-10"
      },
      {
        "name": "ณัฐพร",
        "role": "ผู้ตรวจ",
        "date": "2555-09-10"
      }
    ],
    "tag": "a404-2j-2555-a0033"
  }
}