{
  "pages": [
    [
      [
        "พระราชกฤษฎีกา",
        "ให้ใช้พระราชบัญญัติควบคุมอาคาร พ.ศ. ๒๕๒๒",
        "บังคับในท้องที่บางแห่งในตำบลชิงโค ตำบลหัวเขา ตำบลสทิงหม้อ",
        "ตำบลบ่อยาง ตำบลเกาะยอ ตำบลเขารูปช้าง และตำบลพะวง",
        "อำเภอเมืองสงขลา จังหวัดสงขลา",
        "พ.ศ. ๒๕๓๐",
        "",
        "",
        "ภูมิพลอดุลยเดช ป.ร.",
        "ให้ไว้ ณ วันที่ ๑๕ กันยายน พ.ศ. ๒๕๓๐",
        "เป็นปีที่ ๔๒ ในรัชกาลปัจจุบัน"
      ]
    ],
    []
  ],
  "metadata": {
    "date_header": "2530-09-15",
    "date_modified": "2530-09-28",
    "date_original": "2530-09-28",
    "doctype": "พระราชกฤษฎีกา",
    "editors": [
      {
        "name": "สรัลพร",
        "role": "พิมพ์",
        "date": "2550-12-25"
      },
      {
        "name": "ฐิติพงษ์",
        "role": "ตรวจ",
        "date": "2551-01-09"
      }
    ],
    "tag": "a404-2a-2530-a009",
    "title": "ให้ใช้พระราชบัญญัติควบคุมอาคาร พ.ศ. ๒๕๒๒บังคับในท้องที่บางแห่งในตำบลชิงโค ตำบลหัวเขา ตำบลสทิงหม้อตำบลบ่อยาง ตำบลเกาะยอ ตำบลเขารูปช้าง และตำบลพะวงอำเภอเมืองสงขลา จังหวัดสงขลา"
  }
}