{
  "pages": [
    [
      [
        "เทศบัญญัติเทศบาลตำบลธาตุพนม",
        "เรื่อง กำหนดบริเวณห้ามก่อสร้าง ดัดแปลงอาคารบางชนิดหรือบางประเภทในพื้นที่บางส่วน",
        "ในเขตเทศบาลตำบลธาตุพนม พ.ศ. ๒๕๔๙"
      ]
    ],
    []
  ],
  "metadata": {
    "date_backmatter": "2550-01-15",
    "date_modified": "2550-05-28",
    "date_original": "2550-05-28",
    "editors": [
      {
        "name": "โสรศ",
        "role": "ผู้จัดทำ",
        "date": "2550-06-06"
      }
    ],
    "tag": "a404-2k-2550-a0003"
  }
}