{
  "pages": [
    [
      [
        "กฎกระทรวง",
        "ฉบับที่ 44 (พ.ศ. 2538)",
        "ออกตามความในพระราชบัญญัติควบคุมอาคาร",
        "พ.ศ. 2522"
      ]
    ],
    []
  ],
  "metadata": {
    "date_backmatter": "2538-01-27",
    "date_gz_old": "2538-02-07",
    "doctype": "กฎกระทรวง",
    "editors": [],
    "tag": "a404-2b-2538-044"
  }
}