{
  "pages": [
    [
      [
        "พระราชกฤษฎีกา",
        "ให้ใช้พระราชบัญญัติควบคุมอาคาร พ.ศ. ๒๕๒๒",
        "บังคับในเขตเทศบาลตำบลท้าวอู่ทอง อำเภออู่ทอง จังหวัดสุพรรณบุรี",
        "พ.ศ. ๒๕๕๙",
        "",
        "",
        "ภูมิพลอดุลยเดช ป.ร.",
        "ให้ไว้ ณ วันที่ ๒๘ มกราคม พ.ศ. ๒๕๕๙",
        "เป็นปีที่ ๗๑ ในรัชกาลปัจจุบัน"
      ]
    ],
    []
  ],
  "metadata": {
    "date_header": "2559-01-28",
    "date_modified": "2559-01-29",
    "date_original": "2559-01-29",
    "doctype": "พระราชกฤษฎีกา",
    "editors": [
      {
        "name": "ชวัลพร/ปริยานุช",
        "role": "จัดทำ",
        "date": "2559-02-03"
      }
    ],
    "tag": "a404-2a-2559-a0002",
    "title": "ให้ใช้พระราชบัญญัติควบคุมอาคาร พ.ศ. ๒๕๒๒บังคับในเขตเทศบาลตำบลท้าวอู่ทอง อำเภออู่ทอง จังหวัดสุพรรณบุรี"
  }
}