{
  "pages": [
    [
      [
        "กฎกระทรวง",
        "ฉบับที่ ๕๘ (พ.ศ. ๒๕๔๖)",
        "ออกตามความในพระราชบัญญัติควบคุมอาคาร",
        "พ.ศ. ๒๕๒๒"
      ]
    ],
    []
  ],
  "metadata": {
    "date_backmatter": "2546-01-09",
    "date_gz_old": "2546-02-13",
    "doctype": "กฎกระทรวง",
    "editors": [
      {
        "name": "พชร สุขสุเมฆ/อรดา เชาวน์วโรดม",
        "role": "จัดทำ",
        "date": "2546-04-28"
      }
    ],
    "tag": "a404-2b-2546-a0001"
  }
}