{
  "pages": [
    [
      [
        "ประกาศกระทรวงมหาดไทย",
        "เรื่อง กำหนดบริเวณห้ามก่อสร้าง ดัดแปลง หรือเปลี่ยนการใช้อาคาร",
        "บางชนิดหรือบางประเภทในพื้นที่บางส่วน ในท้องที่ตำบลบางมัญ",
        "ตำบลบางกระบือ ตำบลบางพุทรา ตำบลต้นโพธิ์ และตำบลม่วงหมู่",
        "อำเภอเมืองสิงห์บุรี จังหวัดสิงห์บุรี"
      ]
    ],
    []
  ],
  "metadata": {
    "date_backmatter": "2546-09-02",
    "date_modified": "2546-09-04",
    "date_original": "2546-09-04",
    "doctype": "ประกาศ",
    "editors": [
      {
        "name": "ดลธี",
        "role": "พิมพ์",
        "date": "2550-05-22"
      },
      {
        "name": "หทัยภัทร",
        "role": "ตรวจ",
        "date": "2550-12-19"
      }
    ],
    "tag": "a404-2e-2546-a0088"
  }
}