{
  "pages": [
    [
      [
        "พระราชกฤษฎีกา",
        "ให้ใช้พระราชบัญญัติควบคุมการก่อสร้าง",
        "ในเขตเพลิงไหม้ พุทธศักราช ๒๔๗๖ ในบริเวณ",
        "เขตเพลิงไหม้ ที่ตำบลตะพานหิน อำเภอตะพานหิน",
        "จังหวัดพิจิตร พ.ศ. ๒๔๙๖",
        "",
        "",
        "ภูมิพลอดุลยเดช ป.ร.",
        "ให้ไว้ ณ วันที่ ๒๑ กันยายน พ.ศ. ๒๔๙๖",
        "เป็นปีที่ ๘ ในรัชกาลปัจจุบัน"
      ]
    ],
    []
  ],
  "metadata": {
    "date_backmatter": "2496-07-19",
    "date_header": "2496-09-21",
    "date_modified": "2496-10-06",
    "date_original": "2496-10-06",
    "doctype": "พระราชกฤษฎีกา",
    "editors": [
      {
        "name": "สรัลพร",
        "role": "พิมพ์",
        "date": "2551-06-11"
      },
      {
        "name": "ฐิติพงษ์",
        "role": "ตรวจ",
        "date": "2551-06-12"
      }
    ],
    "tag": "a404-2a-2496-a009",
    "title": "ให้ใช้พระราชบัญญัติควบคุมการก่อสร้างในเขตเพลิงไหม้ พุทธศักราช ๒๔๗๖ ในบริเวณเขตเพลิงไหม้ ที่ตำบลตะพานหิน อำเภอตะพานหินจังหวัดพิจิตร"
  }
}