{
  "pages": [
    [
      [
        "เทศบัญญัติเทศบาลเมืองศรีสะเกษ",
        "เรื่อง กำหนดบริเวณห้ามก่อสร้าง ดัดแปลง หรือเปลี่ยนการใช้อาคารบางชนิดหรือบางประเภท",
        "ในพื้นที่บางส่วนในท้องที่ตำบลหญ้าปล้อง อำเภอเมืองศรีสะเกษ จังหวัดศรีสะเกษ",
        "พ.ศ. ๒๕๕๑"
      ]
    ],
    []
  ],
  "metadata": {
    "date_backmatter": "2551-07-04",
    "date_modified": "2551-07-09",
    "date_original": "2551-07-09",
    "editors": [
      {
        "name": "ปริยานุช",
        "role": "ผู้จัดทำ",
        "date": "2551-07-15"
      }
    ],
    "tag": "a404-2k-2551-a0002"
  }
}