{
  "pages": [
    [
      [
        "กฎกระทรวง",
        "(พ.ศ. 2524)",
        "ออกตามความในพระราชบัญญัติควบคุมอาคาร",
        "พ.ศ. 2522"
      ]
    ],
    []
  ],
  "metadata": {
    "date_backmatter": "2524-07-06",
    "doctype": "กฎกระทรวง",
    "editors": [],
    "tag": "a404-2b-2534-027u"
  }
}