{
  "pages": [
    [
      [
        "ประกาศกระทรวงมหาดไทย",
        "เรื่อง กำหนดบริเวณห้ามก่อสร้าง ดัดแปลง หรือเปลี่ยนการใช้อาคาร",
        "บางชนิดหรือบางประเภทในพื้นที่บางส่วน ในท้องที่ตำบลงิ้วราย",
        "ตำบลห้วยเกตุ ตำบลหนองพยอม ตำบลตะพานหิน และ",
        "ตำบลไทรโรงโขน อำเภอตะพานหิน จังหวัดพิจิตร"
      ]
    ],
    []
  ],
  "metadata": {
    "date_backmatter": "2546-09-02",
    "date_modified": "2546-09-04",
    "date_original": "2546-09-04",
    "doctype": "ประกาศ",
    "editors": [
      {
        "name": "สรัลพร",
        "role": "พิมพ์",
        "date": "2551-02-12"
      },
      {
        "name": "ฐิติพงษ์",
        "role": "ตรวจ",
        "date": "2551-02-13"
      }
    ],
    "tag": "a404-2e-2546-a0054"
  }
}