{
  "pages": [
    [
      [
        "ข้อบัญญัติองค์การบริหารส่วนตำบลโคกขาม",
        "เรื่อง กำหนดบริเวณห้ามก่อสร้าง ดัดแปลง หรือเปลี่ยนการใช้อาคารบางชนิดหรือบางประเภท",
        "ในพื้นที่บางส่วนในเขตองค์การบริหารส่วนตำบลโคกขาม อำเภอเมืองสมุทรสาคร จังหวัดสมุทรสาคร",
        "พ.ศ. ๒๕๕๘"
      ]
    ],
    []
  ],
  "metadata": {
    "date_backmatter": "2558-01-12",
    "date_modified": "2558-01-15",
    "date_original": "2558-01-15",
    "editors": [
      {
        "name": "ปริยานุช",
        "role": "ผู้จัดทำ",
        "date": "2558-01-19"
      },
      {
        "name": "นุสรา",
        "role": "ผู้ตรวจ",
        "date": "2558-02-09"
      }
    ],
    "tag": "a404-2j-2558-a0002"
  }
}