{
  "pages": [
    [
      [
        "ข้อบัญญัติองค์การบริหารส่วนตำบลนอกเมือง",
        "เรื่อง กำหนดบริเวณห้ามก่อสร้าง ดัดแปลง หรือเปลี่ยนการใช้อาคารบางชนิดหรือบางประเภท",
        "ในท้องที่องค์การบริหารส่วนตำบลนอกเมือง อำเภอเมืองสุรินทร์ จังหวัดสุรินทร์",
        "พ.ศ. ๒๕๕๖"
      ]
    ],
    []
  ],
  "metadata": {
    "date_backmatter": "2556-05-10",
    "date_modified": "2556-11-20",
    "date_original": "2556-11-20",
    "editors": [
      {
        "name": "ปริยานุช",
        "role": "ผู้จัดทำ",
        "date": "2556-11-22"
      },
      {
        "name": "อุษมล",
        "role": "ผู้ตรวจ",
        "date": "2556-12-03"
      }
    ],
    "tag": "a404-2j-2556-a0041"
  }
}