{
  "pages": [
    [
      [
        "เทศบัญญัติเทศบาลตำบลวิชิต",
        "เรื่อง กำหนดบริเวณห้ามก่อสร้าง ดัดแปลง หรือเปลี่ยนการใช้อาคารบางชนิดหรือบางประเภท",
        "ในเขตเทศบาลตำบลวิชิต อำเภอเมือง จังหวัดภูเก็ต",
        "พ.ศ. ๒๕๕๔"
      ]
    ],
    []
  ],
  "metadata": {
    "date_backmatter": "2554-07-01",
    "date_modified": "2554-08-11",
    "date_original": "2554-08-11",
    "editors": [
      {
        "name": "ปริยานุช",
        "role": "ผู้จัดทำ",
        "date": "2554-09-06"
      },
      {
        "name": "ดำรง",
        "role": "ตรวจ",
        "date": "2554-09-06"
      }
    ],
    "tag": "a404-2k-2554-a0014"
  }
}