{
  "pages": [
    [
      [
        "เทศบัญญัติเทศบาลตำบลบ่อพลับ",
        "เรื่อง กำหนดบริเวณห้ามก่อสร้าง ดัดแปลง หรือเปลี่ยนการใช้อาคารบางชนิดหรือบางประเภท",
        "ในท้องที่เทศบาลตำบลบ่อพลับ อำเภอเมืองนครปฐม จังหวัดนครปฐม",
        "พ.ศ. ๒๕๖๐"
      ]
    ],
    []
  ],
  "metadata": {
    "date_backmatter": "2560-09-18",
    "date_modified": "2560-10-30",
    "date_original": "2560-10-30",
    "editors": [
      {
        "name": "ปุณิกา/อัญชลี",
        "role": "จัดทำ",
        "date": "2560-11-01"
      }
    ],
    "tag": "a404-2k-2560-a0013"
  }
}