{
  "pages": [
    [
      [
        "กฎกระทรวง",
        "กำหนดบริเวณห้ามก่อสร้าง ดัดแปลง หรือเปลี่ยนการใช้อาคารบางชนิดหรือบางประเภท",
        "ในพื้นที่บางส่วนในท้องที่จังหวัดเชียงใหม่",
        "พ.ศ. ๒๕๕๙"
      ]
    ],
    []
  ],
  "metadata": {
    "date_backmatter": "2559-05-26",
    "date_modified": "2559-06-06",
    "date_original": "2559-06-06",
    "doctype": "กฎกระทรวง",
    "editors": [
      {
        "name": "ชวัลพร/ปริยานุช",
        "role": "จัดทำ",
        "date": "2559-06-10"
      },
      {
        "name": "วิชพงษ์",
        "role": "ตรวจ",
        "date": "2559-06-15"
      }
    ],
    "tag": "a404-2b-2559-a0007"
  }
}