{
  "pages": [
    [
      [
        "พระราชกฤษฎีกา",
        "ให้ใช้พระราชบัญญัติควบคุมการก่อสร้าง",
        "อาคาร พุทธศักราช ๒๔๗๙ ในเขตเทศบาล",
        "เมืองบ้านโป่ง จังหวัดราชบุรี",
        "พ.ศ. ๒๔๙๒",
        "",
        "",
        "ในพระปรมาภิไธยสมเด็จพระเจ้าอยู่หัวภูมิพลอดุลยเดช",
        "รังสิต กรมขุนชัยนาทนเรนทร",
        "ผู้สำเร็จราชการแทนพระองค์",
        "ให้ไว้ ณ วันที่ ๑๔ พฤศจิกายน พ.ศ. ๒๔๙๒",
        "เป็นปีที่ ๔ ในรัชกาลปัจจุบัน"
      ]
    ],
    []
  ],
  "metadata": {
    "date_header": "2492-11-14",
    "date_modified": "2492-11-22",
    "date_original": "2492-11-22",
    "doctype": "พระราชกฤษฎีกา",
    "editors": [
      {
        "name": "ณัฐดนัย",
        "role": "พิมพ์",
        "date": "2550-12-25"
      },
      {
        "name": "หทัยภัทร",
        "role": "ตรวจ",
        "date": "2551-02-14"
      }
    ],
    "tag": "a404-2a-2492-a005",
    "title": "ให้ใช้พระราชบัญญัติควบคุมการก่อสร้างอาคาร พุทธศักราช ๒๔๗๙ ในเขตเทศบาลเมืองบ้านโป่ง จังหวัดราชบุรี"
  }
}