{
  "pages": [
    [
      [
        "พระราชกฤษฎีกา",
        "ให้ใช้พระราชบัญญัติควบคุมการก่อสร้าง",
        "ในเขตเพลิงไหม้ พุทธศักราช ๒๔๗๖ ในบริเวณเขตเพลิงไหม้",
        "ที่ตำบลหัวดง อำเภอเมืองพิจิตร จังหวัดพิจิตร",
        "พ.ศ. ๒๕๐๘",
        "",
        "",
        "ภูมิพลอดุลยเดช ป.ร.",
        "ให้ไว้ ณ วันที่ ๗ กรกฎาคม พ.ศ. ๒๕๐๘",
        "เป็นปีที่ ๒๐ ในรัชกาลปัจจุบัน"
      ]
    ],
    []
  ],
  "metadata": {
    "date_header": "2508-07-07",
    "date_modified": "2508-07-09",
    "date_original": "2508-07-09",
    "doctype": "พระราชกฤษฎีกา",
    "editors": [
      {
        "name": "อัมภิญา",
        "role": "พิมพ์",
        "date": "2551-06-11"
      },
      {
        "name": "ฐิติพงษ์",
        "role": "ตรวจ",
        "date": "2551-06-13"
      }
    ],
    "tag": "a404-2a-2508-a008",
    "title": "ให้ใช้พระราชบัญญัติควบคุมการก่อสร้างในเขตเพลิงไหม้ พุทธศักราช ๒๔๗๖ ในบริเวณเขตเพลิงไหม้ที่ตำบลหัวดง อำเภอเมืองพิจิตร จังหวัดพิจิตร"
  }
}