{
  "pages": [
    [
      [
        "พระราชกฤษฎีกา",
        "ให้ใช้พระราชบัญญัติควบคุมอาคาร พ.ศ. ๒๕๒๒",
        "บังคับในเขตองค์การบริหารส่วนตำบลบ้านเนิน และองค์การบริหารส่วนตำบลวังบาล",
        "อำเภอหล่มเก่า จังหวัดเพชรบูรณ์",
        "พ.ศ. ๒๕๖๐",
        "",
        "",
        "สมเด็จพระเจ้าอยู่หัวมหาวชิราลงกรณ บดินทรเทพยวรางกูร",
        "ให้ไว้ ณ วันที่ ๒๓ มกราคม พ.ศ. ๒๕๖๐",
        "เป็นปีที่ ๒ ในรัชกาลปัจจุบัน"
      ]
    ],
    []
  ],
  "metadata": {
    "date_header": "2560-01-23",
    "date_modified": "2560-01-24",
    "date_original": "2560-01-24",
    "doctype": "พระราชกฤษฎีกา",
    "editors": [
      {
        "name": "พรวิภา/ปริยานุช",
        "role": "จัดทำ",
        "date": "2560-01-25"
      },
      {
        "name": "ปริญสินีย์",
        "role": "ตรวจ",
        "date": "2560-01-25"
      }
    ],
    "tag": "a404-2a-2560-a0006",
    "title": "ให้ใช้พระราชบัญญัติควบคุมอาคาร พ.ศ. ๒๕๒๒บังคับในเขตองค์การบริหารส่วนตำบลบ้านเนิน และองค์การบริหารส่วนตำบลวังบาลอำเภอหล่มเก่า จังหวัดเพชรบูรณ์"
  }
}