{
  "pages": [
    [
      [
        "เทศบัญญัติ",
        "ของเทศบาลตำบลกระทุ่มแบน",
        "เรื่อง ควบคุมการก่อสร้างอาคาร",
        "พุทธศักราช ๒๔๙๗"
      ]
    ],
    []
  ],
  "metadata": {
    "date_backmatter": "2497-05-01",
    "date_modified": "2498-03-22",
    "date_original": "2498-03-22",
    "editors": [
      {
        "name": "สุกัญญา",
        "role": "พิมพ์",
        "date": "2550-05-15"
      },
      {
        "name": "ฐิติพงษ์",
        "role": "ตรวจ",
        "date": "2550-12-11"
      }
    ],
    "tag": "a404-2k-2498-a0003"
  }
}