{
  "pages": [
    [
      [
        "เทศบัญญัติเทศบาลเมืองบางบัวทอง",
        "เรื่อง กำหนดจำนวนที่จอดรถยนต์ของอาคารบางชนิดหรือบางประเภท",
        "ลักษณะและขนาดที่จอดรถยนต์ ที่กลับรถยนต์ และทางเข้าออกของรถยนต์",
        "พ.ศ. ๒๕๖๐"
      ]
    ],
    []
  ],
  "metadata": {
    "date_backmatter": "2560-09-08",
    "date_modified": "2560-10-04",
    "date_original": "2560-10-04",
    "editors": [
      {
        "name": "พัชรภรณ์/อัญชลี",
        "role": "จัดทำ",
        "date": "2560-10-06"
      }
    ],
    "tag": "a404-2k-2560-a0011"
  }
}