{
  "pages": [
    [
      [
        "ข้อบัญญัติองค์การบริหารส่วนตำบลปากกราน",
        "เรื่อง กำหนดบริเวณห้ามก่อสร้าง ดัดแปลง หรือเปลี่ยนการใช้อาคารบางชนิดหรือบางประเภท",
        "ในพื้นที่บางส่วนในท้องที่องค์การบริหารส่วนตำบลปากกราน อำเภอพระนครศรีอยุธยา",
        "จังหวัดพระนครศรีอยุธยา",
        "พ.ศ. ๒๕๕๗"
      ]
    ],
    []
  ],
  "metadata": {
    "date_backmatter": "2557-05-26",
    "date_modified": "2557-07-02",
    "date_original": "2557-07-02",
    "editors": [
      {
        "name": "ปริยานุช",
        "role": "ผู้จัดทำ",
        "date": "2557-07-08"
      },
      {
        "name": "ปริญสินีย์",
        "role": "ผู้ตรวจ",
        "date": "2557-07-08"
      }
    ],
    "tag": "a404-2j-2557-a0112"
  }
}