{
  "pages": [
    [
      [
        "พระราชกฤษฎีกา",
        "ให้ใช้พระราชบัญญัติควบคุมการก่อสร้างในเขต",
        "เพลิงไหม้ พุทธศักราช ๒๔๗๖ ในเขตเพลิงไหม้",
        "ที่ตำบลหน้าเมือง อำเภอเมืองราชบุรี จังหวัดราชบุรี",
        "พุทธศักราช ๒๔๘๕",
        "",
        "",
        "ในพระปรมาภิไธยสมเด็จพระเจ้าอยู่หัวอานันทมหิดล",
        "คณะผู้สำเร็จราชการแทนพระองค์",
        "(ตามประกาศประธานสภาผู้แทนราษฎร",
        "ลงวันที่ ๔ สิงหาคม พุทธศักราช ๒๔๘๐",
        "และวันที่ ๑๖ ธันวาคม พุทธศักราช ๒๔๘๔)",
        "อาทิตย์ทิพอาภา",
        "ปรีดี พนมยงค์",
        "ตราไว้ ณ วันที่ ๒๔ เมษายน พุทธศักราช ๒๔๘๕",
        "เป็นปีที่ ๙ ในรัชกาลปัจจุบัน"
      ]
    ],
    []
  ],
  "metadata": {
    "date_header": "2480-08-04",
    "date_modified": "2485-05-05",
    "date_original": "2485-05-05",
    "doctype": "พระราชกฤษฎีกา",
    "editors": [
      {
        "name": "สรัลพร",
        "role": "พิมพ์",
        "date": "2550-12-20"
      },
      {
        "name": "หทัยภัทร",
        "role": "ตรวจ",
        "date": "2551-02-14"
      }
    ],
    "tag": "a404-2a-2485-a0001",
    "title": "ให้ใช้พระราชบัญญัติควบคุมการก่อสร้างในเขตเพลิงไหม้ พุทธศักราช ๒๔๗๖ ในเขตเพลิงไหม้ที่ตำบลหน้าเมือง อำเภอเมืองราชบุรี จังหวัดราชบุรี"
  }
}