{
  "pages": [
    [
      [
        "ประกาศกระทรวงมหาดไทย",
        "เรื่อง กำหนดบริเวณห้ามก่อสร้าง ดัดแปลง หรือเปลี่ยนการใช้อาคารบางชนิด",
        "หรือบางประเภทในพื้นที่บางส่วน ในท้องที่ตำบลบ้านไผ่ ตำบลในเมือง",
        "ตำบลหัวหนอง ตำบลหินตั้ง ตำบลหนองน้ำใส ตำบลบ้านลาน",
        "และตำบลโนนแดง อำเภอบ้านไผ่ จังหวัดของแก่น"
      ]
    ],
    []
  ],
  "metadata": {
    "date_backmatter": "2546-09-02",
    "date_modified": "2546-09-04",
    "date_original": "2546-09-04",
    "doctype": "ประกาศ",
    "editors": [
      {
        "name": "ฐิติพงษ์",
        "role": "พิมพ์",
        "date": "2550-05-15"
      },
      {
        "name": "สุกัญญา",
        "role": "ตรวจ",
        "date": "2550-05-22"
      }
    ],
    "tag": "a404-2e-2546-a0006"
  }
}