{
  "pages": [
    [
      [
        "ประกาศกระทรวงมหาดไทย",
        "เรื่อง กำหนดบริเวณห้ามก่อสร้าง ดัดแปลง หรือเปลี่ยนการใช้อาคาร",
        "บางชนิดหรือบางประเภทในพื้นที่บางส่วน ในท้องที่ตำบลบ้านต๋อม",
        "ตำบลสันป่าม่วง ตำบลท่าวังทอง ตำบลเวียง ตำบลบ้านสาง ตำบลบ้านตุ่น",
        "ตำบลแม่ใส ตำบลแม่ต๋ำ ตำบลจำป่าหวาย ตำบลแม่กา อำเภอเมืองพะเยา",
        "และตำบลดอกคำใต้ อำเภอดอกคำใต้ จังหวัดพะเยา"
      ]
    ],
    []
  ],
  "metadata": {
    "date_backmatter": "2546-09-02",
    "date_modified": "2546-09-04",
    "date_original": "2546-09-04",
    "doctype": "ประกาศ",
    "editors": [
      {
        "name": "โสรศ",
        "role": "พิมพ์",
        "date": "2550-05-21"
      },
      {
        "name": "ฐิติพงษ์",
        "role": "ตรวจ",
        "date": "2550-05-24"
      }
    ],
    "tag": "a404-2e-2546-a0049"
  }
}