{
  "pages": [
    [
      [
        "พระราชบัญญัติ",
        "ควบคุมอาคาร (ฉบับที่ ๔)",
        "พ.ศ. ๒๕๕๐",
        "",
        "",
        "ภูมิพลอดุลยเดช ป.ร.",
        "ให้ไว้ ณ วันที่ ๗ ตุลาคม พ.ศ. ๒๕๕๐",
        "เป็นปีที่ ๖๒ ในรัชกาลปัจจุบัน"
      ]
    ],
    []
  ],
  "metadata": {
    "date_header": "2550-10-07",
    "date_modified": "2550-10-16",
    "date_original": "2550-10-16",
    "doctype": "พระราชบัญญัติ",
    "editors": [
      {
        "name": "วิมล",
        "role": "ตรวจ",
        "date": "2552-09-00"
      },
      {
        "name": "จุฑามาศ",
        "role": "แก้ไข",
        "date": "2555-12-24"
      },
      {
        "name": "ภคมน",
        "role": "ตรวจ",
        "date": "2556-03-01"
      }
    ],
    "tag": "a404-20-2550-a0001",
    "title": "ควบคุมอาคาร (ฉบับที่ ๔)"
  }
}