{
  "pages": [
    [
      [
        "กฎกระทรวง",
        "ฉบับที่ ๑๑ (พ.ศ. ๒๕๒๘)",
        "ออกตามความในพระราชบัญญัติควบคุมอาคาร",
        "พ.ศ. ๒๕๒๒"
      ]
    ],
    []
  ],
  "metadata": {
    "date_backmatter": "2528-08-26",
    "date_modified": "2528-09-26",
    "date_original": "2528-09-26",
    "doctype": "กฎกระทรวง",
    "editors": [
      {
        "name": "ปุณิกา",
        "role": "ผู้จัดทำ",
        "date": "2558-11-05"
      }
    ],
    "tag": "a404-2b-2528-011"
  }
}