{
  "pages": [
    [
      [
        "เทศบัญญัติเทศบาลตำบลสวนหลวง",
        "เรื่อง กำหนดบริเวณห้ามก่อสร้าง ดัดแปลง หรือเปลี่ยนการใช้อาคารบางชนิดหรือบางประเภท",
        "ในท้องที่เขตเทศบาลตำบลสวนหลวง อำเภอกระทุ่มแบน จังหวัดสมุทรสาคร",
        "พ.ศ. ๒๕๕๘"
      ]
    ],
    []
  ],
  "metadata": {
    "date_backmatter": "2558-06-22",
    "date_modified": "2558-08-13",
    "date_original": "2558-08-13",
    "editors": [
      {
        "name": "ปริยานุช",
        "role": "ผู้จัดทำ",
        "date": "2558-08-19"
      },
      {
        "name": "ปุณิกา",
        "role": "ผู้ตรวจ",
        "date": "2558-09-04"
      }
    ],
    "tag": "a404-2k-2558-a0027"
  }
}