{
  "pages": [
    [
      [
        "พระราชกฤษฎีกา",
        "ให้ใช้พระราชบัญญัติควบคุมการก่อสร้างอาคาร",
        "พุทธศักราช ๒๔๗๙ ในเขตเทศบาล",
        "เมืองสุราษฎร์ธานี จังหวัดสุราษฎร์ธานี",
        "พ.ศ. ๒๔๙๒",
        "",
        "",
        "ในพระปรมาภิไธยสมเด็จพระเจ้าอยู่หัวภูมิพลอดุลยเดช",
        "รังสิต กรมขุนชัยนาทนเรนทร",
        "ผู้สำเร็จราชการแทนพระองค์",
        "ให้ไว้ ณ วันที่ ๑๔ พฤศจิกายน พ.ศ. ๒๔๙๒",
        "เป็นปีที่ ๔ ในรัชกาลปัจจุบัน"
      ]
    ],
    []
  ],
  "metadata": {
    "date_header": "2492-11-14",
    "date_modified": "2492-11-22",
    "date_original": "2492-11-22",
    "doctype": "พระราชกฤษฎีกา",
    "editors": [
      {
        "name": "มณฑาทิพย์",
        "role": "พิมพ์",
        "date": "2546-09-01"
      },
      {
        "name": "นวพร",
        "role": "ศุภสรณ์ แก้ไข",
        "date": "2546-09-02"
      }
    ],
    "tag": "a404-2a-2492-a011",
    "title": "ให้ใช้พระราชบัญญัติควบคุมการก่อสร้างอาคารพุทธศักราช ๒๔๗๙ ในเขตเทศบาลเมืองสุราษฎร์ธานี จังหวัดสุราษฎร์ธานี"
  }
}