{
  "pages": [
    [
      [
        "พระราชบัญญัติ",
        "ควบคุมอาคาร (ฉบับที่ ๒)",
        "พ.ศ. ๒๕๓๕",
        "",
        "",
        "ภูมิพลอดุลยเดช ป.ร.",
        "ให้ไว้ ณ วันที่ ๒๙ มีนาคม พ.ศ. ๒๕๓๕",
        "เป็นปีที่ ๔๗ ในรัชกาลปัจจุบัน"
      ]
    ],
    []
  ],
  "metadata": {
    "date_header": "2535-03-29",
    "date_modified": "2535-04-06",
    "date_original": "2535-04-06",
    "doctype": "พระราชบัญญัติ",
    "editors": [
      {
        "name": "จุฑามาศ",
        "role": "แก้ไข",
        "date": "2555-12-24"
      },
      {
        "name": "ภคมน",
        "role": "ตรวจ",
        "date": "2556-01-04"
      },
      {
        "name": "สุเมธ",
        "role": "ปรับปรุง",
        "date": "2558-11-23"
      }
    ],
    "tag": "a404-20-2535-002",
    "title": "ควบคุมอาคาร (ฉบับที่ ๒)"
  }
}