{
  "pages": [
    [
      [
        "ประกาศกระทรวงมหาดไทย",
        "เรื่อง กำหนดบริเวณห้ามก่อสร้าง ดัดแปลง หรือเปลี่ยนการใช้อาคารบางชนิด",
        "หรือบางประเภท ในพื้นที่บางส่วนในท้องที่อำเภอแหลมงอบ",
        "กิ่งอำเภอเกาะช้าง กิ่งอำเภอเกาะกูด อำเภอแหลมงอบ",
        "อำเภอเมืองตราด และอำเภอคลองใหญ่ จังหวัดตราด"
      ]
    ],
    []
  ],
  "metadata": {
    "date_backmatter": "2545-05-16",
    "date_gz_old": "2545-05-29",
    "doctype": "ประกาศ",
    "editors": [
      {
        "name": "พรพิมล/พิมพ์",
        "role": "แก้ไข",
        "date": "2545-10-14"
      }
    ],
    "tag": "a404-2e-2545-a0001"
  }
}