{
  "pages": [
    [
      [
        "เทศบัญญัติเทศบาลตำบลกุฎโง้ง",
        "เรื่อง กำหนดบริเวณห้ามก่อสร้าง ดัดแปลง หรือเปลี่ยนการใช้อาคารบางชนิดหรือบางประเภท",
        "ในท้องที่เทศบาลตำบลกุฎโง้ง อำเภอพนัสนิคม จังหวัดชลบุรี",
        "พ.ศ. ๒๕๕๘"
      ]
    ],
    []
  ],
  "metadata": {
    "date_backmatter": "2558-10-07",
    "date_modified": "2558-10-22",
    "date_original": "2558-10-22",
    "editors": [
      {
        "name": "ปริยานุช",
        "role": "จัดทำ",
        "date": "2558-10-26"
      },
      {
        "name": "วริญา",
        "role": "ตรวจ",
        "date": "2558-10-26"
      }
    ],
    "tag": "a404-2k-2558-a0032"
  }
}