{
  "pages": [
    [
      [
        "พระราชกฤษฎีกา",
        "ให้ใช้พระราชบัญญัติควบคุมอาคาร พ.ศ. ๒๕๒๒",
        "บังคับในเขตสุขาภิบาลนครไทย อำเภอนครไทย เขตสุขาภิบาล",
        "เนินมะปราง อำเภอเนินมะปราง เขตสุขาภิบาลบางกระทุ่ม",
        "เขตสุขาภิบาลเนินกุ่ม อำเภอบางกระทุ่ม เขตสุขาภิบาลบางระกำ",
        "เขตสุขาภิบาลปลักแรด อำเภอบางระกำ เขตสุขาภิบาลวงฆ้อง",
        "เขตสุขาภิบาลพรหมพิราม อำเภอพรหมพิราม เขตสุขาภิบาลวังทอง",
        "อำเภอวังทอง และเขตสุขาภิบาลบ้านใหม่ อำเภอเมืองพิษณุโลก",
        "จังหวัดพิษณุโลก",
        "พ.ศ. ๒๕๓๒",
        "",
        "",
        "ภูมิพลอดุลยเดช ป.ร.",
        "ให้ไว้ ณ วันที่ ๒๓ กันยายน พ.ศ. ๒๕๓๒",
        "เป็นปีที่ ๔๔ ในรัชกาลปัจจุบัน"
      ]
    ],
    []
  ],
  "metadata": {
    "date_header": "2532-09-23",
    "date_modified": "2532-10-04",
    "date_original": "2532-10-04",
    "doctype": "พระราชกฤษฎีกา",
    "editors": [
      {
        "name": "สรัลพร",
        "role": "พิมพ์",
        "date": "2551-01-08"
      },
      {
        "name": "ฐิติพงษ์",
        "role": "ตรวจ",
        "date": "2551-01-15"
      }
    ],
    "tag": "a404-2a-2532-a032",
    "title": "ให้ใช้พระราชบัญญัติควบคุมอาคาร พ.ศ. ๒๕๒๒บังคับในเขตสุขาภิบาลนครไทย อำเภอนครไทย เขตสุขาภิบาลเนินมะปราง อำเภอเนินมะปราง เขตสุขาภิบาลบางกระทุ่มเขตสุขาภิบาลเนินกุ่ม อำเภอบางกระทุ่ม เขตสุขาภิบาลบางระกำเขตสุขาภิบาลปลักแรด อำเภอบางระกำ เขตสุขาภิบาลวงฆ้องเขตสุขาภิบาลพรหมพิราม อำเภอพรหมพิราม เขตสุขาภิบาลวังทองอำเภอวังทอง และเขตสุขาภิบาลบ้านใหม่ อำเภอเมืองพิษณุโลกจังหวัดพิษณุโลก"
  }
}