{
  "pages": [
    [
      [
        "ข้อบัญญัติเมืองพัทยา",
        "เรื่อง กำหนดบริเวณห้ามก่อสร้าง ดัดแปลง หรือเปลี่ยนการใช้อาคารบางชนิดหรือบางประเภท",
        "ในพื้นที่บางส่วนในท้องที่เมืองพัทยา อำเภอบางละมุง จังหวัดชลบุรี",
        "พ.ศ. ๒๕๕๒"
      ]
    ],
    []
  ],
  "metadata": {
    "date_backmatter": "2552-06-08",
    "date_modified": "2552-06-17",
    "date_original": "2552-06-17",
    "editors": [
      {
        "name": "ปริยานุช",
        "role": "ผู้จัดทำ",
        "date": "2552-06-24"
      }
    ],
    "tag": "a404-2j-2552-a0016"
  }
}