{
  "pages": [
    [
      [
        "เทศบัญญัติเทศบาลนครสมุทรปราการ",
        "เรื่อง กำหนดบริเวณห้ามก่อสร้าง ดัดแปลง ใช้หรือเปลี่ยนการใช้อาคารบางชนิด หรือบางประเภท",
        "ในท้องที่เขตเทศบาลนครสมุทรปราการ อำเภอเมืองสมุทรปราการ จังหวัดสมุทรปราการ",
        "พ.ศ. ๒๕๕๑"
      ]
    ],
    []
  ],
  "metadata": {
    "date_backmatter": "2551-07-01",
    "date_modified": "2551-08-20",
    "date_original": "2551-08-20",
    "editors": [
      {
        "name": "วัชศักดิ์",
        "role": "ผู้จัดทำ",
        "date": "2551-08-26"
      }
    ],
    "tag": "a404-2k-2551-a0003"
  }
}