{
  "pages": [
    [
      [
        "เทศบัญญัติเทศบาลตำบลเทพนคร",
        "เรื่อง กำหนดบริเวณห้ามก่อสร้าง ดัดแปลง หรือเปลี่ยนการใช้อาคารบางชนิดหรือบางประเภท",
        "ในพื้นที่บางส่วนในเขตเทศบาลตำบลเทพนคร อำเภอเมืองกำแพงเพชร จังหวัดกำแพงเพชร",
        "พ.ศ. ๒๕๕๘"
      ]
    ],
    []
  ],
  "metadata": {
    "date_backmatter": "2558-05-07",
    "date_modified": "2559-02-17",
    "date_original": "2559-02-17",
    "editors": [
      {
        "name": "ปริยานุช",
        "role": "จัดทำ",
        "date": "2559-02-18"
      },
      {
        "name": "กัญฑรัตน์",
        "role": "ตรวจ",
        "date": "2559-02-29"
      }
    ],
    "tag": "a404-2k-2559-a0005"
  }
}