{
  "pages": [
    [
      [
        "พระราชกฤษฎีกา",
        "ให้ใช้พระราชบัญญัติควบคุมการก่อสร้างในเขตเพลิงไหม้",
        "พุทธศักราช ๒๔๗๖ ในบริเวณเขตเพลิงไหม้ ที่ตำบลในเมือง",
        "และตำบลสะเดียง อำเภอเมืองเพชรบูรณ์ จังหวัดเพชรบูรณ์",
        "พ.ศ. ๒๕๑๑",
        "",
        "",
        "ภูมิพลอดุลยเดช ป.ร.",
        "ให้ไว้ ณ วันที่ ๒๖ กรกฎาคม พ.ศ. ๒๕๑๑",
        "เป็นปีที่ ๒๓ ในรัชกาลปัจจุบัน"
      ]
    ],
    []
  ],
  "metadata": {
    "date_backmatter": "2511-05-03",
    "date_header": "2511-07-26",
    "date_modified": "2511-07-30",
    "date_original": "2511-07-30",
    "doctype": "พระราชกฤษฎีกา",
    "editors": [
      {
        "name": "ณัฐดนัย",
        "role": "พิมพ์",
        "date": "2551-06-11"
      },
      {
        "name": "ฐิติพงษ์",
        "role": "ตรวจ",
        "date": "2551-06-17"
      }
    ],
    "tag": "a404-2a-2511-a005",
    "title": "ให้ใช้พระราชบัญญัติควบคุมการก่อสร้างในเขตเพลิงไหม้พุทธศักราช ๒๔๗๖ ในบริเวณเขตเพลิงไหม้ ที่ตำบลในเมืองและตำบลสะเดียง อำเภอเมืองเพชรบูรณ์ จังหวัดเพชรบูรณ์"
  }
}