{
  "pages": [
    [
      [
        "ประกาศกระทรวงมหาดไทย",
        "เรื่อง กำหนดบริเวณห้ามก่อสร้าง ดัดแปลง หรือเปลี่ยนการใช้",
        "อาคารบางชนิดหรือบางประเภทในพื้นที่บางส่วน ในท้องที่",
        "ตำบลแกใหญ่ ตำบลแสลงพันธ์ ตำบลในเมือง และตำบลนอกเมือง",
        "อำเภอเมืองสุรินทร์ จังหวัดสุรินทร์"
      ]
    ],
    []
  ],
  "metadata": {
    "date_backmatter": "2546-09-02",
    "date_modified": "2546-09-04",
    "date_original": "2546-09-04",
    "doctype": "ประกาศ",
    "editors": [
      {
        "name": "จำปี",
        "role": "พิมพ์",
        "date": "2550-05-22"
      },
      {
        "name": "สุกัญญา",
        "role": "ตรวจ",
        "date": "2550-05-29"
      }
    ],
    "tag": "a404-2e-2546-a0097"
  }
}