{
  "pages": [
    [
      [
        "กฎกระทรวง",
        "กำหนดบริเวณห้ามก่อสร้าง ดัดแปลง หรือเปลี่ยนการใช้อาคารบางชนิด",
        "หรือบางประเภท ในพื้นที่บางส่วนในท้องที่อำเภอบางไทร อำเภอพระนครศรีอยุธยา",
        "อำเภอบางปะอิน และอำเภอวังน้อย จังหวัดพระนครศรีอยุธยา (ฉบับที่ ๒)",
        "พ.ศ. ๒๕๕๐"
      ]
    ],
    []
  ],
  "metadata": {
    "date_backmatter": "2549-11-21",
    "date_modified": "2550-11-07",
    "date_original": "2550-11-07",
    "doctype": "กฎกระทรวง",
    "editors": [
      {
        "name": "วัชศักดิ์",
        "role": "ผู้จัดทำ",
        "date": "2550-11-20"
      }
    ],
    "tag": "a404-2b-2550-a0007"
  }
}