{
  "pages": [
    [
      [
        "เทศบัญญัติเทศบาลตำบลน้ำคอก",
        "เรื่อง กำหนดบริเวณห้ามก่อสร้าง ดัดแปลง หรือเปลี่ยนการใช้อาคารบางชนิดหรือบางประเภท",
        "ในท้องที่เขตเทศบาลตำบลน้ำคอก อำเภอเมืองระยอง จังหวัดระยอง",
        "พ.ศ. ๒๕๕๖"
      ]
    ],
    []
  ],
  "metadata": {
    "date_backmatter": "2556-04-11",
    "date_modified": "2556-07-25",
    "date_original": "2556-07-25",
    "editors": [
      {
        "name": "ปริยานุช",
        "role": "ผู้จัดทำ",
        "date": "2556-07-30"
      },
      {
        "name": "โชติกานต์",
        "role": "ผู้ตรวจ",
        "date": "2556-08-13"
      }
    ],
    "tag": "a404-2k-2556-a0026"
  }
}