{
  "pages": [
    [
      [
        "พระราชกฤษฎีกา",
        "ให้ใช้พระราชบัญญัติควบคุมอาคาร พ.ศ. ๒๕๒๒",
        "บังคับในท้องที่บางแห่งในตำบลดงพระราม ตำบลรอบเมือง",
        "ตำบลบางบริบูรณ์ และตำบลท่างาม อำเภอเมืองปราจีนบุรี",
        "จังหวัดปราจีนบุรี",
        "พ.ศ. ๒๕๓๔",
        "",
        "",
        "ภูมิพลอดุลยเดช ป.ร.",
        "ให้ไว้ ณ วันที่ ๖ กันยายน พ.ศ. ๒๕๓๔",
        "เป็นปีที่ ๔๖ ในรัชกาลปัจจุบัน"
      ]
    ],
    []
  ],
  "metadata": {
    "date_header": "2534-09-06",
    "date_modified": "2534-09-18",
    "date_original": "2534-09-18",
    "doctype": "พระราชกฤษฎีกา",
    "editors": [
      {
        "name": "สรัลพร",
        "role": "พิมพ์",
        "date": "2551-01-11"
      },
      {
        "name": "ฐิติพงษ์",
        "role": "ตรวจ",
        "date": "2551-01-21"
      }
    ],
    "tag": "a404-2a-2534-a028",
    "title": "ให้ใช้พระราชบัญญัติควบคุมอาคาร พ.ศ. ๒๕๒๒บังคับในท้องที่บางแห่งในตำบลดงพระราม ตำบลรอบเมืองตำบลบางบริบูรณ์ และตำบลท่างาม อำเภอเมืองปราจีนบุรีจังหวัดปราจีนบุรี"
  }
}