{
  "pages": [
    [
      [
        "ข้อบัญญัติองค์การบริหารส่วนตำบลย่านยาว",
        "เรื่อง กำหนดบริเวณห้ามก่อสร้างดัดแปลงหรือเปลี่ยนการใช้อาคารบางชนิด",
        "หรือบางประเภท ในพื้นที่บางส่วนในเขตองค์การบริหารส่วนตำบลย่านยาว",
        "อำเภอสวรรคโลก จังหวัดสุโขทัย",
        "พ.ศ. ๒๕๕๖"
      ]
    ],
    []
  ],
  "metadata": {
    "date_backmatter": "2556-07-15",
    "date_modified": "2557-01-20",
    "date_original": "2557-01-20",
    "editors": [
      {
        "name": "ปริยานุช",
        "role": "ผู้จัดทำ",
        "date": "2557-01-29"
      },
      {
        "name": "จุฑามาศ",
        "role": "ผู้ตรวจ",
        "date": "2557-02-20"
      }
    ],
    "tag": "a404-2j-2557-a0002"
  }
}