{
  "pages": [
    [
      [
        "พระราชกฤษฎีกา",
        "ให้ใช้พระราชบัญญัติควบคุมอาคาร พ.ศ. ๒๕๒๒",
        "บังคับในเขตสุขาภิบาลทองผาภูมิ อำเภอทองผาภูมิ",
        "และเขตสุขาภิบาลท่าม่วง อำเภอท่าม่วง จังหวัดกาญจนบุรี",
        "พ.ศ. ๒๕๓๒",
        "",
        "",
        "ภูมิพลอดุลยเดช ป.ร.",
        "ให้ไว้ ณ วันที่ ๒๐ กันยายน พ.ศ. ๒๕๓๒",
        "เป็นปีที่ ๔๔ ในรัชกาลปัจจุบัน"
      ]
    ],
    []
  ],
  "metadata": {
    "date_header": "2532-09-20",
    "date_modified": "2532-10-04",
    "date_original": "2532-10-04",
    "doctype": "พระราชกฤษฎีกา",
    "editors": [
      {
        "name": "สุกัญญา",
        "role": "พิมพ์",
        "date": "2550-04-04"
      },
      {
        "name": "ฐิติพงษ์",
        "role": "ตรวจ",
        "date": "2550-04-24"
      }
    ],
    "tag": "a404-2a-2532-a002",
    "title": "ให้ใช้พระราชบัญญัติควบคุมอาคาร พ.ศ. ๒๕๒๒บังคับในเขตสุขาภิบาลทองผาภูมิ อำเภอทองผาภูมิและเขตสุขาภิบาลท่าม่วง อำเภอท่าม่วง จังหวัดกาญจนบุรี"
  }
}