{
  "pages": [
    [
      [
        "พระราชกฤษฎีกา",
        "ให้ใช้พระราชบัญญัติควบคุมการก่อสร้างในเขต",
        "เพลิงไหม้ พุทธศักราช ๒๔๗๖ ในเขตเพลิงไหม้",
        "ที่ตำบลตลาดปากน้ำโพ อำเภอเมืองนครสวรรค์",
        "จังหวัดนครสวรรค์ พุทธศักราช ๒๔๘๓",
        "",
        "",
        "ในพระปรมาภิไธยสมเด็จพระเจ้าอยู่หัวอานันทมหิดล",
        "คณะผู้สำเร็จราชการแทนพระองค์",
        "(ตามประกาศประธานสภาผู้แทนราษฎร",
        "ลงวันที่ ๔ สิงหาคม พุทธศักราช ๒๔๘๐)",
        "อาทิตย์ทิพอาภา",
        "พล.อ. พิชเยนทร โยธิน",
        "ตราไว้ ณ วันที่ ๙ กรกฎาคม พุทธศักราช ๒๔๘๓",
        "เป็นปีที่ ๗ ในรัชกาลปัจจุบัน"
      ]
    ],
    []
  ],
  "metadata": {
    "date_header": "2480-08-04",
    "date_modified": "2483-07-16",
    "date_original": "2483-07-16",
    "doctype": "พระราชกฤษฎีกา",
    "editors": [
      {
        "name": null,
        "role": null,
        "date": "2546-08-29"
      },
      {
        "name": "พชร",
        "role": "นิลวรรณ แก้ไข",
        "date": "2546-09-09"
      }
    ],
    "tag": "a404-2a-2483-a0002",
    "title": "ให้ใช้พระราชบัญญัติควบคุมการก่อสร้างในเขตเพลิงไหม้ พุทธศักราช ๒๔๗๖ ในเขตเพลิงไหม้ที่ตำบลตลาดปากน้ำโพ อำเภอเมืองนครสวรรค์จังหวัดนครสวรรค์"
  }
}