{
  "pages": [
    [
      [
        "พระราชกฤษฎีกา",
        "ให้ใช้พระราชบัญญัติควบคุมอาคาร พ.ศ. ๒๕๒๒",
        "บังคับในเขตสุขาภิบาลบ้านตาก อำเภอบ้านตาก จังหวัดตาก",
        "พ.ศ. ๒๕๓๐",
        "",
        "",
        "ภูมิพลอดุลยเดช ป.ร.",
        "ให้ไว้ ณ วันที่ ๗ ธันวาคม พ.ศ. ๒๕๓๐",
        "เป็นปีที่ ๔๒ ในรัชกาลปัจจุบัน"
      ]
    ],
    []
  ],
  "metadata": {
    "date_header": "2530-12-07",
    "date_modified": "2530-12-18",
    "date_original": "2530-12-18",
    "doctype": "พระราชกฤษฎีกา",
    "editors": [
      {
        "name": "สรัลพร",
        "role": "พิมพ์",
        "date": "2550-12-26"
      },
      {
        "name": "ฐิติพงษ์",
        "role": "ตรวจ",
        "date": "2551-01-11"
      }
    ],
    "tag": "a404-2a-2530-a003",
    "title": "ให้ใช้พระราชบัญญัติควบคุมอาคาร พ.ศ. ๒๕๒๒บังคับในเขตสุขาภิบาลบ้านตาก อำเภอบ้านตาก จังหวัดตาก"
  }
}