{
  "pages": [
    [
      [
        "กฎกระทรวง",
        "ฉบับที่ ๕ (พ.ศ. ๒๕๑๒)",
        "ออกตามความในพระราชบัญญัติควบคุมการก่อสร้างอาคาร",
        "พุทธศักราช ๒๔๗๙"
      ]
    ],
    []
  ],
  "metadata": {
    "date_backmatter": "2512-05-27",
    "date_gz_old": "2512-06-17",
    "doctype": "กฎกระทรวง",
    "editors": [
      {
        "name": "พุทธชาด",
        "role": "แก้ไข",
        "date": "2545-10-24"
      }
    ],
    "tag": "a404-2b-2512-a0001"
  }
}