{
  "pages": [
    [
      [
        "เทศบัญญัติเทศบาลตำบลบางกระสั้น",
        "เรื่อง กำหนดอัตราค่าตอบแทนการตรวจแบบแปลนก่อสร้างดัดแปลงอาคาร",
        "พ.ศ. ๒๕๕๑"
      ]
    ],
    []
  ],
  "metadata": {
    "date_backmatter": "2551-10-07",
    "date_modified": "2553-02-04",
    "date_original": "2553-02-04",
    "editors": [
      {
        "name": "ปริยานุช",
        "role": "ผู้จัดทำ",
        "date": "2553-02-09"
      },
      {
        "name": "นันท์นภัสร์",
        "role": "ตรวจ",
        "date": "2553-02-09"
      }
    ],
    "tag": "a404-2k-2553-a0007"
  }
}