{
  "pages": [
    [
      [
        "เทศบัญญัติเทศบาลเมืองนครพนม",
        "เรื่อง กำหนดบริเวณห้ามก่อสร้าง ดัดแปลงอาคารบางชนิดหรือบางประเภทในพื้นที่บางส่วน",
        "ในเขตเทศบาลเมืองนครพนม พ.ศ. ๒๕๔๗"
      ]
    ],
    []
  ],
  "metadata": {
    "date_backmatter": "2548-07-07",
    "date_modified": "2548-09-07",
    "date_original": "2548-09-07",
    "editors": [
      {
        "name": "ฐิติพงษ์",
        "role": "พิมพ์",
        "date": "2550-04-20"
      }
    ],
    "tag": "a404-2k-2548-a0003"
  }
}