{
  "pages": [
    [
      [
        "เทศบัญญัติเทศบาลตำบลฉมัน",
        "เรื่อง กำหนดบริเวณห้ามก่อสร้าง ดัดแปลง หรือเปลี่ยนการใช้อาคารบางชนิดหรือบางประเภท",
        "ในเขตเทศบาลตำบลฉมัน อำเภอมะขาม จังหวัดจันทบุรี",
        "พ.ศ. ๒๕๕๗"
      ]
    ],
    []
  ],
  "metadata": {
    "date_backmatter": "2557-11-10",
    "date_modified": "2557-12-30",
    "date_original": "2557-12-30",
    "editors": [
      {
        "name": "ปริยานุช",
        "role": "ผู้จัดทำ",
        "date": "2558-01-08"
      },
      {
        "name": "วิศนี",
        "role": "ผู้ตรวจ",
        "date": "2558-01-19"
      }
    ],
    "tag": "a404-2k-2557-a0035"
  }
}