{
  "pages": [
    [
      [
        "ประกาศกระทรวงมหาดไทย",
        "เรื่อง กำหนดบริเวณห้ามก่อสร้าง ดัดแปลง หรือเปลี่ยนการใช้อาคาร",
        "บางชนิดหรือบางประเภทในพื้นที่บางส่วน ในท้องที่ตำบลโพธิ์ศรี",
        "ตำบลโพธิ์ไทร ตำบลพิบูล และตำบลกุดชมภู อำเภอพิบูลมังสาหาร",
        "จังหวัดอุบลราชธานี"
      ]
    ],
    []
  ],
  "metadata": {
    "date_backmatter": "2546-09-02",
    "date_modified": "2546-09-04",
    "date_original": "2546-09-04",
    "doctype": "ประกาศ",
    "editors": [
      {
        "name": "สุพัฒตา",
        "role": "พิมพ์",
        "date": "2550-05-23"
      },
      {
        "name": "ฐิติพงษ์",
        "role": "ตรวจ",
        "date": "2550-11-27"
      }
    ],
    "tag": "a404-2e-2546-a0109"
  }
}