{
  "pages": [
    [
      [
        "กฎกระทรวง",
        "ฉบับที่ 8 (พ.ศ. 2528)",
        "ออกตามความในพระราชบัญญัติควบคุมอาคาร",
        "พ.ศ. 2522"
      ]
    ],
    []
  ],
  "metadata": {
    "date_backmatter": "2528-01-08",
    "doctype": "กฎกระทรวง",
    "editors": [],
    "tag": "a404-2b-2528-008"
  }
}