{
  "pages": [
    [
      [
        "ประกาศกระทรวงมหาดไทย",
        "เรื่อง กำหนดบริเวณห้ามก่อสร้าง ดัดแปลง หรือเปลี่ยนการใช้",
        "อาคารบางชนิดหรือบางประเภทในพื้นที่บางส่วนในท้องที่จังหวัดนครปฐม"
      ]
    ],
    []
  ],
  "metadata": {
    "date_backmatter": "2557-01-03",
    "date_modified": "2557-01-28",
    "date_original": "2557-01-28",
    "doctype": "ประกาศ",
    "editors": [
      {
        "name": "ปริยานุช",
        "role": "ผู้จัดทำ",
        "date": "2557-02-10"
      },
      {
        "name": "อุษมล",
        "role": "ผู้ตรวจ",
        "date": "2557-02-26"
      }
    ],
    "tag": "a404-2e-2557-a0001"
  }
}