{
  "pages": [
    [
      [
        "กฎกระทรวง",
        "กำหนดบริเวณห้ามก่อสร้าง ดัดแปลง หรือเปลี่ยนการใช้อาคารบางชนิด",
        "หรือบางประเภท ในพื้นที่บางส่วนในท้องที่ตำบลบ้านกร่าง ตำบลจอมทอง",
        "ตำบลปากโทก ตำบลหัวรอ ตำบลดอนทอง ตำบลพลายชุมพล ตำบลสมอแข",
        "ตำบลบ้านคลอง ตำบลอรัญญิก ตำบลในเมือง ตำบลวัดจันทร์ ตำบลท่าทอง",
        "ตำบลบึงพระ และตำบลท่าโพธิ์ อำเภอเมืองพิษณุโลก และตำบลวังทอง",
        "และตำบลวังพิกุล อำเภอวังทอง จังหวัดพิษณุโลก",
        "พ.ศ. ๒๕๔๗"
      ]
    ],
    []
  ],
  "metadata": {
    "date_backmatter": "2547-09-01",
    "date_modified": "2547-09-03",
    "date_original": "2547-09-03",
    "doctype": "กฎกระทรวง",
    "editors": [
      {
        "name": "ประชุมพร",
        "role": "พิมพ์",
        "date": "2549-05-19"
      },
      {
        "name": "เชิงชาย/ปาจรีย์",
        "role": "ผู้จัดทำ",
        "date": "2549-05-26"
      }
    ],
    "tag": "a404-2b-2547-a0116"
  }
}