{
  "pages": [
    [
      [
        "เทศบัญญัติของเทศบาลนครกรุงเทพ",
        "เรื่อง ควบคุมการก่อสร้างอาคาร (ฉบับที่ ๘)",
        "พ.ศ. ๒๕๐๙"
      ]
    ],
    []
  ],
  "metadata": {
    "date_backmatter": "2510-01-24",
    "date_modified": "2510-02-07",
    "date_original": "2510-02-07",
    "editors": [
      {
        "name": "อัมภิญา",
        "role": "พิมพ์",
        "date": "2551-04-30"
      },
      {
        "name": "รัศม์วรรณวลัย ฐิติพงษ์",
        "role": "ตรวจ",
        "date": "2551-05-06"
      }
    ],
    "tag": "a404-2k-2510-a005"
  }
}