{
  "pages": [
    [
      [
        "พระราชกฤษฎีกา",
        "ให้ใช้พระราชบัญญัติควบคุมอาคาร พ.ศ. ๒๕๒๒",
        "บังคับในเขตสุขาภิบาลขนอม อำเภอขนอม และเขตสุขาภิบาลสิชล",
        "อำเภอสิชล จังหวัดนครศรีธรรมราช",
        "พ.ศ. ๒๕๒๙",
        "",
        "",
        "ภูมิพลอดุลยเดช ป.ร.",
        "ให้ไว้ ณ วันที่ ๒๖ กรกฎาคม พ.ศ. ๒๕๒๙",
        "เป็นปีที่ ๔๑ ในรัชกาลปัจจุบัน"
      ]
    ],
    []
  ],
  "metadata": {
    "date_header": "2529-07-26",
    "date_modified": "2529-08-07",
    "date_original": "2529-08-07",
    "doctype": "พระราชกฤษฎีกา",
    "editors": [
      {
        "name": "สรัลพร",
        "role": "พิมพ์",
        "date": "2550-12-25"
      },
      {
        "name": "ฐิติพงษ์",
        "role": "ตรวจ",
        "date": "2551-01-08"
      }
    ],
    "tag": "a404-2a-2529-a015",
    "title": "ให้ใช้พระราชบัญญัติควบคุมอาคาร พ.ศ. ๒๕๒๒บังคับในเขตสุขาภิบาลขนอม อำเภอขนอม และเขตสุขาภิบาลสิชลอำเภอสิชล จังหวัดนครศรีธรรมราช"
  }
}