{
  "pages": [
    [
      [
        "พระราชกฤษฎีกา",
        "ให้ใช้พระราชบัญญัติควบคุมอาคาร พ.ศ. ๒๕๒๒",
        "บังคับในท้องที่บางแห่งในตำบลบ้านฉาง ตำบลบ้านกระแชง",
        "ตำบลสวนพริกไทย ตำบลบ้านกลาง ตำบลบางหลาง ตำบลบางกะดี",
        "และตำบลบางเดื่อ อำเภอเมืองปทุมธานี จังหวัดปทุมธานี",
        "พ.ศ. ๒๕๓๓",
        "",
        "",
        "ภูมิพลอดุลยเดช ป.ร.",
        "ให้ไว้ ณ วันที่ ๒๕ พฤษภาคม พ.ศ. ๒๕๓๓",
        "เป็นปีที่ ๔๕ ในรัชกาลปัจจุบัน"
      ]
    ],
    []
  ],
  "metadata": {
    "date_header": "2533-05-25",
    "date_modified": "2533-06-04",
    "date_original": "2533-06-04",
    "doctype": "พระราชกฤษฎีกา",
    "editors": [
      {
        "name": "สรัลพร",
        "role": "พิมพ์",
        "date": "2551-01-10"
      },
      {
        "name": "หทัยภัทร",
        "role": "ตรวจ",
        "date": "2551-01-17"
      }
    ],
    "tag": "a404-2a-2533-a008",
    "title": "ให้ใช้พระราชบัญญัติควบคุมอาคาร พ.ศ. ๒๕๒๒บังคับในท้องที่บางแห่งในตำบลบ้านฉาง ตำบลบ้านกระแชงตำบลสวนพริกไทย ตำบลบ้านกลาง ตำบลบางหลาง ตำบลบางกะดีและตำบลบางเดื่อ อำเภอเมืองปทุมธานี จังหวัดปทุมธานี"
  }
}