{
  "pages": [
    [
      [
        "กฎกระทรวง",
        "ฉบับที่ ๗ (พ.ศ. ๒๕๑๗)",
        "ออกตามความในพระราชบัญญัติควบคุมการก่อสร้างอาคาร",
        "พุทธศักราช ๒๔๗๙"
      ]
    ],
    []
  ],
  "metadata": {
    "date_backmatter": "2515-07-31",
    "date_modified": "2537-08-31",
    "date_original": "2517-05-21",
    "doctype": "กฎกระทรวง",
    "editors": [],
    "tag": "a404-2b-2537-044"
  }
}