{
  "pages": [
    [
      [
        "เทศบัญญัติเทศบาลตำบลเนินสูง",
        "เรื่อง กำหนดบริเวณห้ามก่อสร้าง ดัดแปลง ใช้หรือเปลี่ยนการใช้อาคารบางชนิดหรือบางประเภท",
        "ในท้องที่เทศบาลตำบลเนินสูง อำเภอท่าใหม่ จังหวัดจันทบุรี",
        "พ.ศ. ๒๕๕๒"
      ]
    ],
    []
  ],
  "metadata": {
    "date_backmatter": "2552-09-07",
    "date_modified": "2552-11-09",
    "date_original": "2552-11-09",
    "editors": [
      {
        "name": "ปริยานุช",
        "role": "ผู้จัดทำ",
        "date": "2552-11-12"
      },
      {
        "name": "นันท์นภัสร์",
        "role": "ตรวจ",
        "date": "2552-11-12"
      }
    ],
    "tag": "a404-2k-2552-a0025"
  }
}