{
  "pages": [
    [
      [
        "เทศบัญญัติเทศบาลตำบลสันทราย",
        "เรื่อง กำหนดบริเวณห้ามก่อสร้าง ดัดแปลง หรือเปลี่ยนการใช้อาคารบางชนิดหรือบางประเภท",
        "ในท้องที่เขตเทศบาลตำบลสันทราย อำเภอเมืองเชียงราย จังหวัดเชียงราย",
        "พ.ศ. ๒๕๕๗"
      ]
    ],
    []
  ],
  "metadata": {
    "date_backmatter": "2557-12-26",
    "date_modified": "2558-03-06",
    "date_original": "2558-03-06",
    "editors": [
      {
        "name": "ปริยานุช",
        "role": "ผู้จัดทำ",
        "date": "2558-03-10"
      },
      {
        "name": "กฤษดายุทธ",
        "role": "ผู้ตรวจ",
        "date": "2558-03-10"
      }
    ],
    "tag": "a404-2k-2558-a0010"
  }
}