{
  "pages": [
    [
      [
        "พระราชกฤษฎีกา",
        "ให้ใช้พระราชบัญญัติควบคุมอาคาร พ.ศ. ๒๕๒๒",
        "บังคับในเขตสุขาภิบาลโพธิ์สว่าง อำเภอเมืองอุดรธานี จังหวัดอุดรธานี",
        "พ.ศ. ๒๕๓๒",
        "",
        "",
        "ภูมิพลอดุลยเดช ป.ร.",
        "ให้ไว้ ณ วันที่ ๒๙ ธันวาคม พ.ศ. ๒๕๓๒",
        "เป็นปีที่ ๔๔ ในรัชกาลปัจจุบัน"
      ]
    ],
    []
  ],
  "metadata": {
    "date_header": "2532-12-29",
    "date_modified": "2532-12-31",
    "date_original": "2532-12-31",
    "doctype": "พระราชกฤษฎีกา",
    "editors": [
      {
        "name": "สรัลพร",
        "role": "พิมพ์",
        "date": "2551-01-10"
      },
      {
        "name": "หทัยภัทร",
        "role": "ตรวจ",
        "date": "2551-01-17"
      }
    ],
    "tag": "a404-2a-2532-a005",
    "title": "ให้ใช้พระราชบัญญัติควบคุมอาคาร พ.ศ. ๒๕๒๒บังคับในเขตสุขาภิบาลโพธิ์สว่าง อำเภอเมืองอุดรธานี จังหวัดอุดรธานี"
  }
}