{
  "pages": [
    [
      [
        "เทศบัญญัติเทศบาลตำบลพะวง",
        "เรื่อง กำหนดบริเวณห้ามก่อสร้าง ดัดแปลง ใช้หรือเปลี่ยนการใช้อาคารบางชนิด หรือบางประเภท",
        "ในท้องที่เขตเทศบาลตำบลพะวง อำเภอเมือง จังหวัดสงขลา",
        "(ฉบับที่ ๒)",
        "พ.ศ. ๒๕๕๖"
      ]
    ],
    []
  ],
  "metadata": {
    "date_backmatter": "2556-05-02",
    "date_modified": "2557-03-28",
    "date_original": "2557-03-28",
    "editors": [
      {
        "name": "ปริยานุช",
        "role": "ผู้จัดทำ",
        "date": "2557-03-31"
      },
      {
        "name": "โชติกานต์",
        "role": "ผู้ตรวจ",
        "date": "2557-04-18"
      }
    ],
    "tag": "a404-2k-2557-a0009"
  }
}