{
  "pages": [
    [
      [
        "ประกาศกระทรวงมหาดไทย",
        "เรื่อง กำหนดบริเวณห้ามก่อสร้าง ดัดแปลง หรือเปลี่ยนการใช้อาคาร",
        "บางชนิดหรือบางประเภทในพื้นที่บางส่วน ในท้องที่ตำบลท่าซุง",
        "อำเภอเมืองอุทัยธานี จังหวัดอุทัยธานี"
      ]
    ],
    []
  ],
  "metadata": {
    "date_backmatter": "2546-09-02",
    "date_modified": "2546-09-04",
    "date_original": "2546-09-04",
    "doctype": "ประกาศ",
    "editors": [
      {
        "name": "นันติญา",
        "role": "พิมพ์",
        "date": "2550-05-22"
      },
      {
        "name": "สุกัญญา",
        "role": "ตรวจ",
        "date": "2550-05-28"
      }
    ],
    "tag": "a404-2e-2546-a0106"
  }
}