{
  "pages": [
    [
      [
        "เทศบัญญัติเทศบาลตำบลบางนายสี",
        "เรื่อง กำหนดบริเวณห้ามก่อสร้าง ดัดแปลง หรือเปลี่ยนการใช้อาคารบางชนิดหรือบางประเภท",
        "ในท้องที่เทศบาลตำบลบางนายสี อำเภอตะกั่วป่า จังหวัดพังงา",
        "พ.ศ. ๒๕๕๖"
      ]
    ],
    []
  ],
  "metadata": {
    "date_backmatter": "2556-01-21",
    "date_modified": "2556-04-19",
    "date_original": "2556-04-19",
    "editors": [
      {
        "name": "ปริยานุช",
        "role": "ผู้จัดทำ",
        "date": "2556-04-24"
      },
      {
        "name": "โชติกานต์",
        "role": "ผู้ตรวจ",
        "date": "2556-05-20"
      }
    ],
    "tag": "a404-2k-2556-a0018"
  }
}