{
  "pages": [
    [
      [
        "เทศบัญญัติเทศบาลตำบลแหลมฟ้าผ่า",
        "เรื่อง กำหนดบริเวณห้ามก่อสร้าง ดัดแปลง ใช้หรือเปลี่ยนการใช้อาคารบางชนิด หรือบางประเภท",
        "ในท้องที่เขตเทศบาลตำบลแหลมฟ้าผ่า อำเภอพระสมุทรเจดีย์ จังหวัดสมุทรปราการ",
        "พ.ศ. ๒๕๕๑"
      ]
    ],
    []
  ],
  "metadata": {
    "date_backmatter": "2551-07-25",
    "date_modified": "2551-09-22",
    "date_original": "2551-09-22",
    "editors": [
      {
        "name": "วัชศักดิ์",
        "role": "ผู้จัดทำ",
        "date": "2551-09-24"
      }
    ],
    "tag": "a404-2k-2551-a0005"
  }
}