{
  "pages": [
    [
      [
        "พระราชกฤษฎีกา",
        "ให้ใช้พระราชบัญญัติควบคุมอาคาร พ.ศ. ๒๕๒๒",
        "บังคับในท้องที่บางแห่งในตำบลบ้านค้อ ตำบลสำราญ ตำบลศิลา",
        "ตำบลแดงใหญ่ ตำบลบ้านเป็ด ตำบลบึงเนียม ตำบลพระลับ",
        "ตำบลเมืองเก่า ตำบลบ้านหว้า และตำบลท่าพระ",
        "อำเภอเมืองขอนแก่น จังหวัดขอนแก่น",
        "พ.ศ. ๒๕๓๔",
        "",
        "",
        "ภูมิพลอดุลยเดช ป.ร.",
        "ให้ไว้ ณ วันที่ ๒๙ ธันวาคม พ.ศ. ๒๕๓๔",
        "เป็นปีที่ ๔๖ ในรัชกาลปัจจุบัน"
      ]
    ],
    []
  ],
  "metadata": {
    "date_header": "2534-12-29",
    "date_modified": "2534-12-31",
    "date_original": "2534-12-31",
    "doctype": "พระราชกฤษฎีกา",
    "editors": [
      {
        "name": "สรัลพร",
        "role": "พิมพ์",
        "date": "2551-01-15"
      },
      {
        "name": "ฐิติพงษ์",
        "role": "ตรวจ",
        "date": "2551-01-28"
      }
    ],
    "tag": "a404-2a-2534-a023",
    "title": "ให้ใช้พระราชบัญญัติควบคุมอาคาร พ.ศ. ๒๕๒๒บังคับในท้องที่บางแห่งในตำบลบ้านค้อ ตำบลสำราญ ตำบลศิลาตำบลแดงใหญ่ ตำบลบ้านเป็ด ตำบลบึงเนียม ตำบลพระลับตำบลเมืองเก่า ตำบลบ้านหว้า และตำบลท่าพระอำเภอเมืองขอนแก่น จังหวัดขอนแก่น"
  }
}