{
  "pages": [
    [
      [
        "กฎกระทรวง",
        "ฉบับที่ ๕๗ (พ.ศ. ๒๕๔๔)",
        "ออกตามความในพระราชบัญญัติควบคุมอาคาร พ.ศ. ๒๕๒๒"
      ]
    ],
    []
  ],
  "metadata": {
    "date_backmatter": "2544-07-23",
    "date_gz_old": "2544-08-02",
    "doctype": "กฎกระทรวง",
    "editors": [
      {
        "name": "ภคินี",
        "role": "แก้ไข",
        "date": "2545-05-08"
      }
    ],
    "tag": "a404-2b-2544-a0001"
  }
}