{
  "pages": [
    [
      [
        "ประกาศกระทรวงมหาดไทย",
        "เรื่อง กำหนดบริเวณห้ามก่อสร้าง ดัดแปลง หรือเปลี่ยนการใช้อาคารบางชนิดหรือบางประเภท",
        "ในพื้นที่บางส่วนในท้องที่ตำบลนิคมลำนารายณ์ ตำบลลำนารายณ์ ตำบลบ้านใหม่สามัคคี",
        "ตำบลบัวชุม ตำบลชัยนารายณ์ ตำบลท่ามะนาว และตำบลท่าดินดำ",
        "อำเภอชัยบาดาล จังหวัดลพบุรี"
      ]
    ],
    []
  ],
  "metadata": {
    "date_backmatter": "2558-04-07",
    "date_modified": "2558-07-17",
    "date_original": "2558-07-17",
    "doctype": "ประกาศ",
    "editors": [
      {
        "name": "ปริยานุช",
        "role": "ผู้จัดทำ",
        "date": "2558-07-21"
      },
      {
        "name": "ปัญจพร",
        "role": "ผู้ตรวจ",
        "date": "2558-07-21"
      }
    ],
    "tag": "a404-2e-2558-a0004"
  }
}