{
  "pages": [
    [
      [
        "กฎกระทรวง",
        "ฉบับที่ 40 (พ.ศ. 2537)",
        "ออกตามความในพระราชบัญญัติควบคุมอาคาร",
        "พ.ศ. 2522"
      ]
    ],
    []
  ],
  "metadata": {
    "date_backmatter": "2536-07-28",
    "doctype": "กฎกระทรวง",
    "editors": [],
    "tag": "a404-2b-2537-040"
  }
}