{
  "pages": [
    [
      [
        "กฎกระทรวง",
        "ฉบับที่ ๖๖ (พ.ศ. ๒๕๕๙)",
        "ออกตามความในพระราชบัญญัติควบคุมอาคาร พ.ศ. ๒๕๒๒"
      ]
    ],
    []
  ],
  "metadata": {
    "date_backmatter": "2559-07-28",
    "date_modified": "2559-08-19",
    "date_original": "2559-08-19",
    "doctype": "กฎกระทรวง",
    "editors": [
      {
        "name": "ปริยานุช",
        "role": "จัดทำ",
        "date": "2559-08-22"
      },
      {
        "name": "ชวัลพร",
        "role": "ตรวจ",
        "date": "2559-08-22"
      }
    ],
    "tag": "a404-2b-2559-a0009"
  }
}