{
  "pages": [
    [
      [
        "ข้อบัญญัติองค์การบริหารส่วนตำบลยายชา",
        "เรื่อง กำหนดบริเวณห้ามก่อสร้าง ดัดแปลง หรือเปลี่ยนการใช้อาคารบางชนิดหรือบางประเภท",
        "ในท้องที่องค์การบริหารส่วนตำบลยายชา อำเภอสามพราน จังหวัดนครปฐม",
        "พ.ศ. ๒๕๕๗"
      ]
    ],
    []
  ],
  "metadata": {
    "date_backmatter": "2557-02-28",
    "date_modified": "2557-04-01",
    "date_original": "2557-04-01",
    "editors": [
      {
        "name": "ปริยานุช",
        "role": "ผู้จัดทำ",
        "date": "2557-04-08"
      },
      {
        "name": "จุฑามาศ",
        "role": "ผู้ตรวจ",
        "date": "2557-04-11"
      }
    ],
    "tag": "a404-2j-2557-a0012"
  }
}