{
  "pages": [
    [
      [
        "ประกาศกระทรวงมหาดไทย",
        "เรื่อง กำหนดบริเวณห้ามก่อสร้าง ดัดแปลง หรือเปลี่ยนการใช้อาคารบางชนิด",
        "หรือบางประเภทในพื้นที่บางส่วน ในท้องที่ตำบลหอไกร ตำบลบางมูลนาก",
        "และตำบลเนินมะกอก อำเภอบางมูลนาก จังหวัดพิจิตร"
      ]
    ],
    []
  ],
  "metadata": {
    "date_backmatter": "2546-09-02",
    "date_modified": "2546-09-04",
    "date_original": "2546-09-04",
    "doctype": "ประกาศ",
    "editors": [
      {
        "name": "ณัฐดนัย",
        "role": "พิมพ์",
        "date": "2550-05-24"
      },
      {
        "name": "ฐิติพงษ์",
        "role": "ตรวจ",
        "date": "2550-06-05"
      }
    ],
    "tag": "a404-2e-2546-a0056"
  }
}