{
  "pages": [
    [
      [
        "พระราชบัญญัติ",
        "ควบคุมอาคาร",
        "พ.ศ. ๒๕๒๒",
        "",
        "",
        "ภูมิพลอดุลยเดช ป.ร.",
        "ให้ไว้ ณ วันที่ ๘ พฤษภาคม พ.ศ. ๒๕๒๒",
        "เป็นปีที่ ๓๔ ในรัชกาลปัจจุบัน"
      ]
    ],
    []
  ],
  "metadata": {
    "date_header": "2522-05-08",
    "date_modified": "2550-10-16",
    "date_original": "2522-05-14",
    "doctype": "พระราชบัญญัติ",
    "editors": [
      {
        "name": "วศิน",
        "role": "แก้ไข",
        "date": "2553-11-24"
      },
      {
        "name": "จุฑามาศ",
        "role": "แก้ไข",
        "date": "2555-12-24"
      },
      {
        "name": "ภคมน",
        "role": "ตรวจ",
        "date": "2556-03-01"
      }
    ],
    "tag": "a404-20-2550-a0002",
    "title": "ควบคุมอาคาร"
  }
}