{
  "pages": [
    [
      [
        "เทศบัญญัติเทศบาลเมืองสุรินทร์",
        "เรื่อง กำหนดบริเวณห้ามก่อสร้าง ดัดแปลง หรือเปลี่ยนการใช้อาคารบางชนิด หรือบางประเภท",
        "ในท้องที่เขตเทศบาลเมืองสุรินทร์ อำเภอเมืองสุรินทร์ จังหวัดสุรินทร์",
        "พ.ศ. ๒๕๖๐"
      ]
    ],
    []
  ],
  "metadata": {
    "date_backmatter": "2560-10-17",
    "date_modified": "2560-12-28",
    "date_original": "2560-12-28",
    "editors": [
      {
        "name": "ปวันวิทย์/อัญชลี",
        "role": "จัดทำ",
        "date": "2561-01-04"
      }
    ],
    "tag": "a404-2k-2560-a0015"
  }
}