{
  "pages": [
    [
      [
        "เทศบัญญัติของเทศบาล",
        "เมืองหาดใหญ่",
        "เรื่อง ควบคุมการก่อสร้างอาคาร",
        "พุทธศักราช ๒๔๙๔"
      ]
    ],
    []
  ],
  "metadata": {
    "date_backmatter": "2493-11-14",
    "date_modified": "2511-08-06",
    "date_original": "2494-02-06",
    "editors": [
      {
        "name": "ฐิติพงษ์",
        "role": "พิมพ์",
        "date": "2550-04-19"
      }
    ],
    "tag": "a404-2k-9996-update"
  }
}