{
  "pages": [
    [
      [
        "เทศบัญญัติเทศบาลตำบลท่าลาน",
        "เรื่อง กำหนดบริเวณห้ามก่อสร้าง ดัดแปลง หรือเปลี่ยนการใช้อาคารบางชนิดหรือบางประเภท",
        "ในเขตเทศบาลตำบลท่าลาน อำเภอบ้านหมอ จังหวัดสระบุรี",
        "พ.ศ. ๒๕๕๖"
      ]
    ],
    []
  ],
  "metadata": {
    "date_backmatter": "2556-01-11",
    "date_modified": "2556-06-21",
    "date_original": "2556-06-21",
    "editors": [
      {
        "name": "ปริยานุช",
        "role": "ผู้จัดทำ",
        "date": "2556-06-25"
      },
      {
        "name": "อุษมล",
        "role": "ผู้ตรวจ",
        "date": "2556-07-02"
      }
    ],
    "tag": "a404-2k-2556-a0023"
  }
}