{
  "pages": [
    [
      [
        "พระราชกฤษฎีกา",
        "ให้ใช้พระราชบัญญัติควบคุมการก่อสร้างอาคาร",
        "พุทธศักราช ๒๔๗๙",
        "ในเขตเทศบาลเมืองบางบัวทอง จังหวัดนนทบุรี",
        "พ.ศ. ๒๕๐๓",
        "",
        "",
        "ในพระปรมาภิไธย",
        "พระบาทสมเด็จพระปรมินทรมหาภูมิพลอดุลยเดช",
        "สังวาลย์",
        "ผู้สำเร็จราชการแทนพระองค์",
        "ให้ไว้ ณ วันที่ ๖ กันยายน พ.ศ. ๒๕๐๓",
        "เป็นปีที่ ๑๕ ในรัชกาลปัจจุบัน"
      ]
    ],
    []
  ],
  "metadata": {
    "date_header": "2503-09-06",
    "date_modified": "2503-09-20",
    "date_original": "2503-09-20",
    "doctype": "พระราชกฤษฎีกา",
    "editors": [
      {
        "name": "ดลธี",
        "role": "พิมพ์",
        "date": "2551-06-02"
      },
      {
        "name": "รัศม์วรรณวลัย",
        "role": "ตรวจ",
        "date": "2551-06-02"
      }
    ],
    "tag": "a404-2a-2503-a004",
    "title": "ให้ใช้พระราชบัญญัติควบคุมการก่อสร้างอาคารพุทธศักราช ๒๔๗๙ในเขตเทศบาลเมืองบางบัวทอง จังหวัดนนทบุรี"
  }
}