{
  "pages": [
    [
      [
        "เทศบัญญัติเทศบาลเมืองมุกดาหาร",
        "เรื่อง กำหนดบริเวณห้ามก่อสร้าง ดัดแปลง หรือเปลี่ยนการใช้อาคารบางชนิด หรือบางประเภท",
        "ในพื้นที่บางส่วนในเขตเทศบาลเมืองมุกดาหาร อำเภอเมืองมุกดาหาร จังหวัดมุกดาหาร",
        "พ.ศ. ๒๕๕๔"
      ]
    ],
    []
  ],
  "metadata": {
    "date_backmatter": "2554-08-10",
    "date_modified": "2554-08-30",
    "date_original": "2554-08-30",
    "editors": [
      {
        "name": "ปริยานุช",
        "role": "ผู้จัดทำ",
        "date": "2554-09-15"
      },
      {
        "name": "ปณตภร",
        "role": "ผู้ตรวจ",
        "date": "2554-10-10"
      }
    ],
    "tag": "a404-2k-2554-a0017"
  }
}