{
  "pages": [
    [
      [
        "เทศบัญญัติเทศบาลนครอ้อมน้อย",
        "เรื่อง กำหนดบริเวณห้ามก่อสร้าง ดัดแปลง หรือเปลี่ยนการใช้อาคารบางชนิดหรือบางประเภท",
        "ในพื้นที่บางส่วนในเขตเทศบาลนครอ้อมน้อย อำเภอกระทุ่มแบน จังหวัดสมุทรสาคร",
        "พ.ศ. ๒๕๕๕"
      ]
    ],
    []
  ],
  "metadata": {
    "date_backmatter": "2555-11-05",
    "date_modified": "2555-12-26",
    "date_original": "2555-12-26",
    "editors": [
      {
        "name": "อุษมล",
        "role": "ผู้จัดทำ",
        "date": "2556-01-08"
      },
      {
        "name": "เอกฤทธิ์",
        "role": "ผู้ตรวจ",
        "date": "2556-01-08"
      }
    ],
    "tag": "a404-2k-2555-a0024"
  }
}