{
  "pages": [
    [
      [
        "เทศบัญญัติตำบลท่าศาลา",
        "เรื่อง กำหนดบริเวณห้ามก่อสร้าง ดัดแปลง หรือเปลี่ยนการใช้อาคารบางชนิด",
        "หรือบางประเภทในพื้นที่บางส่วนในท้องที่ตำบลท่าศาลา",
        "อำเภอเมืองลพบุรี จังหวัดลพบุรี",
        "พ.ศ. ๒๕๕๑"
      ]
    ],
    []
  ],
  "metadata": {
    "date_backmatter": "2551-12-29",
    "date_modified": "2552-02-06",
    "date_original": "2552-02-06",
    "editors": [
      {
        "name": "ปริยานุช",
        "role": "ผู้จัดทำ",
        "date": "2552-02-11"
      }
    ],
    "tag": "a404-2k-2552-a0001"
  }
}