{
  "pages": [
    [
      [
        "พระราชกฤษฎีกา",
        "ให้ใช้พระราชบัญญัติควบคุมการก่อสร้าง",
        "ในเขตเพลิงไหม้ พ.ศ. ๒๔๗๖ ทุกมาตรา",
        "ในเขตเพลิงไหม้ที่ตำบลสะแกกรัง อำเภอน้ำซึม",
        "จังหวัดอุทัยธานี พุทธศักราช ๒๔๗๙",
        "",
        "",
        "ในพระปรมาภิไธยสมเด็จพระเจ้าอยู่หัวอานันทมหิดล",
        "คณะผู้สำเร็จราชการแทนพระองค์",
        "(ตามประกาศประธานสภาผู้แทนราษฎร",
        "ลงวันที่ ๒๐ สิงหาคม พุทธศักราช ๒๔๗๘)",
        "อาทิตย์ทิพอาภา"
      ]
    ],
    []
  ],
  "metadata": {
    "date_header": "2478-08-20",
    "date_modified": "2479-05-03",
    "date_original": "2479-05-03",
    "doctype": "พระราชกฤษฎีกา",
    "editors": [
      {
        "name": "สรัลพร",
        "role": "พิมพ์",
        "date": "2550-12-19"
      },
      {
        "name": "ฐิติพงษ์",
        "role": "ตรวจ",
        "date": "2551-02-12"
      }
    ],
    "tag": "a404-2a-2479-a0001",
    "title": "ให้ใช้พระราชบัญญัติควบคุมการก่อสร้างในเขตเพลิงไหม้ พ.ศ. ๒๔๗๖ ทุกมาตราในเขตเพลิงไหม้ที่ตำบลสะแกกรัง อำเภอน้ำซึมจังหวัดอุทัยธานี"
  }
}