{
  "pages": [
    [
      [
        "กฎกระทรวง",
        "ฉบับที่ 39 (พ.ศ. 2537)",
        "ออกตามความในพระราชบัญญัติควบคุมอาคาร",
        "พ.ศ. 2522"
      ]
    ],
    []
  ],
  "metadata": {
    "date_backmatter": "2537-05-31",
    "doctype": "กฎกระทรวง",
    "editors": [],
    "tag": "a404-2b-2537-039"
  }
}