{
  "pages": [
    [
      [
        "เทศบัญญัติเทศบาลตำบลโพธิ์กลาง",
        "เรื่อง กำหนดบริเวณห้ามก่อสร้าง ดัดแปลง หรือเปลี่ยนการใช้อาคารบางชนิด หรือบางประเภท",
        "ในเขตพื้นที่บางส่วนของเทศบาลตำบลโพธิ์กลาง อำเภอเมืองนครราชสีมา จังหวัดนครราชสีมา",
        "พ.ศ. ๒๕๕๖"
      ]
    ],
    []
  ],
  "metadata": {
    "date_backmatter": "2556-07-08",
    "date_modified": "2556-08-14",
    "date_original": "2556-08-14",
    "editors": [
      {
        "name": "ปริยานุช",
        "role": "ผู้จัดทำ",
        "date": "2556-08-19"
      },
      {
        "name": "อุษมล",
        "role": "ผู้ตรวจ",
        "date": "2556-08-22"
      }
    ],
    "tag": "a404-2k-2556-a0029"
  }
}