{
  "pages": [
    [
      [
        "กฎกระทรวง",
        "ฉบับที่ ๖ (พ.ศ. ๒๕๑๕)",
        "ออกตามความในพระราชบัญญัติควบคุม",
        "การก่อสร้างอาคาร พุทธศักราช ๒๔๗๙"
      ]
    ],
    []
  ],
  "metadata": {
    "date_backmatter": "2515-12-13",
    "date_gz_old": "2515-12-13",
    "doctype": "กฎกระทรวง",
    "editors": [
      {
        "name": "ฐาปนี",
        "role": "แก้ไข",
        "date": "2545-11-01"
      }
    ],
    "tag": "a404-2b-2515-a0001"
  }
}