{
  "pages": [
    [
      [
        "ประกาศกระทรวงมหาดไทย",
        "เรื่อง กำหนดบริเวณห้ามก่อสร้าง ดัดแปลง หรือเปลี่ยนการใช้อาคารบางชนิดหรือบางประเภท",
        "ในท้องที่ตำบลขะเนจื้อ ตำบลแม่ระมาด ตำบลแม่จะเรา อำเภอแม่ระมาด ตำบลแม่กาษา ตำบลแม่ปะ",
        "ตำบลท่าสายลวด ตำบลแม่สอด ตำบลพระธาตุผาแดง ตำบลแม่ตาว ตำบลแม่กุ ตำบลมหาวัน อำเภอแม่สอด",
        "และตำบลช่องแคบ ตำบลพบพระ ตำบลวาเล่ย์ อำเภอพบพระ จังหวัดตาก"
      ]
    ],
    []
  ],
  "metadata": {
    "date_backmatter": "2560-03-09",
    "date_modified": "2560-05-02",
    "date_original": "2560-05-02",
    "doctype": "ประกาศ",
    "editors": [
      {
        "name": "ปุณิกา/ภวรรณตรี",
        "role": "จัดทำ",
        "date": "2560-05-05"
      },
      {
        "name": "นุสรา",
        "role": "ตรวจ",
        "date": "2560-07-21"
      }
    ],
    "tag": "a404-2e-2560-a0004"
  }
}