{
  "pages": [
    [
      [
        "เทศบัญญัติของเทศบาลตำบลวัดสิงห์",
        "เรื่อง ควบคุมการก่อสร้างอาคาร",
        "พ.ศ. ๒๕๐๙"
      ]
    ],
    []
  ],
  "metadata": {
    "date_backmatter": "2510-12-13",
    "date_modified": "2510-08-15",
    "date_original": "2510-08-15",
    "editors": [
      {
        "name": "สรัลพร",
        "role": "พิมพ์",
        "date": "2551-04-30"
      },
      {
        "name": "ฐิติพงษ์",
        "role": "ตรวจ",
        "date": "2551-05-23"
      }
    ],
    "tag": "a404-2k-2510-a008"
  }
}