{
  "pages": [
    [
      [
        "พระราชกฤษฎีกา",
        "ให้ใช้พระราชบัญญัติควบคุมอาคาร พ.ศ. ๒๕๒๒",
        "บังคับในเขตเทศบาลตำบลห้วยยอด อำเภอห้วยยอด จังหวัดตรัง",
        "พ.ศ. ๒๕๓๒",
        "",
        "",
        "ภูมิพลอดุลยเดช ป.ร.",
        "ให้ไว้ ณ วันที่ ๔ กันยายน พ.ศ. ๒๕๓๒",
        "เป็นปีที่ ๔๔ ในรัชกาลปัจจุบัน"
      ]
    ],
    []
  ],
  "metadata": {
    "date_header": "2532-09-04",
    "date_modified": "2532-09-20",
    "date_original": "2532-09-20",
    "doctype": "พระราชกฤษฎีกา",
    "editors": [
      {
        "name": "สรัลพร",
        "role": "พิมพ์",
        "date": "2550-12-26"
      },
      {
        "name": "หทัยภัทร",
        "role": "ตรวจ",
        "date": "2551-01-14"
      }
    ],
    "tag": "a404-2a-2532-a010",
    "title": "ให้ใช้พระราชบัญญัติควบคุมอาคาร พ.ศ. ๒๕๒๒บังคับในเขตเทศบาลตำบลห้วยยอด อำเภอห้วยยอด จังหวัดตรัง"
  }
}