{
  "pages": [
    [
      [
        "ข้อบัญญัติองค์การบริหารส่วนตำบลหนองอ้อ",
        "เรื่อง กำหนดบริเวณห้ามก่อสร้าง ดัดแปลง หรือเปลี่ยนการใช้อาคารบางชนิดหรือบางประเภท",
        "ในท้องที่บางส่วนขององค์การบริหารส่วนตำบลหนองอ้อ อำเภอบ้านโป่ง จังหวัดราชบุรี",
        "พ.ศ. ๒๕๕๕"
      ]
    ],
    []
  ],
  "metadata": {
    "date_backmatter": "2555-01-24",
    "date_modified": "2555-07-06",
    "date_original": "2555-07-06",
    "editors": [
      {
        "name": "ปริยานุช",
        "role": "ผู้จัดทำ",
        "date": "2555-07-12"
      },
      {
        "name": "ณัฐพร",
        "role": "ผู้ตรวจ",
        "date": "2555-07-12"
      }
    ],
    "tag": "a404-2j-2555-a0022"
  }
}