{
  "pages": [
    [
      [
        "กฎกระทรวง",
        "กำหนดลักษณะอาคารประเภทอื่นที่ใช้ประกอบธุรกิจโรงแรม",
        "พ.ศ. ๒๕๕๙"
      ]
    ],
    []
  ],
  "metadata": {
    "date_backmatter": "2559-08-11",
    "date_modified": "2561-10-25",
    "date_original": "2559-08-19",
    "doctype": "กฎกระทรวง",
    "editors": [
      {
        "name": "พิมพ์มาดา",
        "role": "จัดทำ",
        "date": "2562-03-04"
      },
      {
        "name": "วิชพงษ์",
        "role": "ตรวจ",
        "date": "2562-03-15"
      }
    ],
    "tag": "a404-2b-9985-update"
  }
}