{
  "pages": [
    [
      [
        "ประกาศกระทรวงมหาดไทย",
        "เรื่อง กำหนดบริเวณห้ามก่อสร้าง ดัดแปลง หรือเปลี่ยนการใช้อาคารบางชนิด",
        "หรือบางประเภทในพื้นที่บางส่วน ในท้องที่ตำบลหนองโสน ตำบลบ้านกุ่ม",
        "ตำบลบางจาก ตำบลธงชัย ตำบลวังตะโก ตำบลเวียงคอย ตำบลคลองกระแชง",
        "ตำบลไร่ส้ม ตำบลหัวสะพาน ตำบลช่องสะแก ตำบลท่าราบ ตำบลบ้านหม้อ",
        "ตำบลนาวุ้ง ตำบลโพไร่หวาน ตำบลต้นมะม่วง อำเภอเมืองเพชรบุรี",
        "และตำบลลาดโพธิ์ ตำบลบ้านหาด ตำบลสมอพลือ",
        "ตำบลบ้านลาด ตำบลท่าเสน อำเภอบ้านลาด",
        "จังหวัดเพชรบุรี"
      ]
    ],
    []
  ],
  "metadata": {
    "date_backmatter": "2546-09-02",
    "date_modified": "2546-09-04",
    "date_original": "2546-09-04",
    "doctype": "ประกาศ",
    "editors": [
      {
        "name": "ณัฐดนัย",
        "role": "พิมพ์",
        "date": "2550-05-24"
      },
      {
        "name": "สุกัญญา",
        "role": "ตรวจ",
        "date": "2550-05-30"
      }
    ],
    "tag": "a404-2e-2546-a0058"
  }
}