{
  "pages": [
    [
      [
        "เทศบัญญัติเทศบาลตำบลแหลมสัก",
        "เรื่อง กำหนดบริเวณห้ามก่อสร้าง ดัดแปลง หรือเปลี่ยนการใช้อาคารบางชนิดหรือบางประเภท",
        "ในเขตเทศบาลตำบลแหลมสัก อำเภออ่าวลึก จังหวัดกระบี่",
        "พ.ศ. ๒๕๕๕"
      ]
    ],
    []
  ],
  "metadata": {
    "date_backmatter": "2555-03-09",
    "date_modified": "2555-04-26",
    "date_original": "2555-04-26",
    "editors": [
      {
        "name": "ปริยานุช",
        "role": "ผู้จัดทำ",
        "date": "2555-04-30"
      },
      {
        "name": "ปณตภร",
        "role": "ผู้ตรวจ",
        "date": "2555-05-11"
      }
    ],
    "tag": "a404-2k-2555-a0008"
  }
}