{
  "pages": [
    [
      [
        "ประกาศกระทรวงมหาดไทย",
        "เรื่อง กำหนดบริเวณห้ามก่อสร้าง ดัดแปลง หรือเปลี่ยนการใช้อาคารบางชนิดหรือบางประเภท",
        "ในพื้นที่บางส่วนในท้องที่ตำบลกลัดหลวง และตำบลเขากระปุก อำเภอท่ายาง จังหวัดเพชรบุรี"
      ]
    ],
    []
  ],
  "metadata": {
    "date_backmatter": "2559-02-15",
    "date_modified": "2559-03-15",
    "date_original": "2559-03-15",
    "doctype": "ประกาศ",
    "editors": [
      {
        "name": "ปริยานุช",
        "role": "จัดทำ",
        "date": "2559-03-23"
      },
      {
        "name": "วิศนี",
        "role": "ตรวจ",
        "date": "2559-03-30"
      }
    ],
    "tag": "a404-2e-2559-a0002"
  }
}