{
  "pages": [
    [
      [
        "ข้อบัญญัติองค์การบริหารส่วนตำบลท่าทองหลาง",
        "เรื่อง กำหนดบริเวณห้ามก่อสร้าง ดัดแปลง หรือเปลี่ยนการใช้อาคารบางชนิดหรือบางประเภท",
        "ในพื้นที่บางส่วนในท้องที่องค์การบริหารส่วนตำบลท่าทองหลาง อำเภอบางคล้า จังหวัดฉะเชิงเทรา",
        "พ.ศ. ๒๕๕๔"
      ]
    ],
    []
  ],
  "metadata": {
    "date_backmatter": "2554-12-14",
    "date_modified": "2555-05-30",
    "date_original": "2555-05-30",
    "editors": [
      {
        "name": "ปริยานุช",
        "role": "ผู้จัดทำ",
        "date": "2555-06-07"
      },
      {
        "name": "ชาญ",
        "role": "ผู้ตรวจ",
        "date": "2555-06-08"
      }
    ],
    "tag": "a404-2j-2555-a0012"
  }
}