{
  "pages": [
    [
      [
        "กฎกระทรวง",
        "กำหนดบริเวณห้ามก่อสร้าง ดัดแปลง หรือเปลี่ยนการใช้อาคารบางชนิดหรือบางประเภท",
        "ในพื้นที่บางส่วนในท้องที่จังหวัดลำปาง",
        "พ.ศ. ๒๕๕๙"
      ]
    ],
    []
  ],
  "metadata": {
    "date_backmatter": "2559-10-04",
    "date_modified": "2559-10-27",
    "date_original": "2559-10-27",
    "doctype": "กฎกระทรวง",
    "editors": [
      {
        "name": "ปริยานุช",
        "role": "จัดทำ",
        "date": "2559-11-02"
      },
      {
        "name": "ชวัลพร",
        "role": "ตรวจ",
        "date": "2559-11-04"
      }
    ],
    "tag": "a404-2b-2559-a0014"
  }
}