{
  "pages": [
    [
      [
        "ประกาศกระทรวงมหาดไทย",
        "เรื่อง กำหนดบริเวณห้ามก่อสร้าง ดัดแปลง หรือเปลี่ยนการใช้อาคารบางชนิด",
        "หรือบางประเภท ในพื้นที่บางส่วนในท้องที่อำเภอกระบุรี อำเภอละอุ่น",
        "อำเภอเมืองระนอง อำเภอกะเปอร์ และกิ่งอำเภอสุขสำราญ อำเภอกะเปอร์",
        "จังหวัดระนอง"
      ]
    ],
    []
  ],
  "metadata": {
    "date_backmatter": "2548-08-31",
    "date_modified": "2548-09-22",
    "date_original": "2548-09-22",
    "doctype": "ประกาศ",
    "editors": [
      {
        "name": "ฐิติพงษ์",
        "role": "ผู้จัดทำ",
        "date": "2548-10-04"
      }
    ],
    "tag": "a404-2e-2548-a0007"
  }
}