{
  "pages": [
    [
      [
        "พระราชกฤษฎีกา",
        "ให้ใช้พระราชบัญญัติควบคุมอาคาร พ.ศ. ๒๕๒๒",
        "บังคับในท้องที่บางแห่งในตำบลบางบัวทอง ตำบลละหาร ตำบลลำโพ",
        "ตำบลพิมลราช ตำบลโสนลอย ตำบลบางรักใหญ่ อำเภอบางบัวทอง",
        "ตำบลคลองข่อย ตำบลบางพลับ ตำบลคลองพระอุดม ตำบล",
        "บางตะไนย์ ตำบลบางพูด ตำบลบ้านใหม่ ตำบลอ้อมเกร็ด",
        "ตำบลเกาะเกร็ด ตำบลปากเกร็ด ตำบลท่าอิฐ ตำบลบางตลาด",
        "อำเภอปากเกร็ด ตำบลเสาธงหิน ตำบลบางเลน ตำบลบางม่วง",
        "อำเภอบางใหญ่ ตำบลบางคูเวียง ตำบลบางขุนกอง ตำบลบางขนุน",
        "ตำบลบางสีทอง ตำบลบางกรวย ตำบลปลายบาง ตำบลมหาสวัสดิ์",
        "ตำบลวัดชลอ อำเภอบางกรวย และตำบลบางรักน้อย ตำบลไทรม้า",
        "ตำบลท่าทราย ตำบลบางกระสอ ตำบลตลาดขวัญ ตำบลบางกร่าง",
        "ตำบลบางศรีเมือง ตำบลบางเขน ตำบลบางไผ่",
        "อำเภอเมืองนนทบุรี จังหวัดนนทบุรี พ.ศ. ๒๕๓๐",
        "",
        "",
        "ภูมิพลอดุลยเดช ป.ร.",
        "ให้ไว้ ณ วันที่ ๑๐ สิงหาคม พ.ศ. ๒๕๓๐",
        "เป็นปีที่ ๔๒ ในรัชกาลปัจจุบัน"
      ]
    ],
    []
  ],
  "metadata": {
    "date_header": "2530-08-10",
    "date_modified": "2530-08-16",
    "date_original": "2530-08-16",
    "doctype": "พระราชกฤษฎีกา",
    "editors": [
      {
        "name": "สรัลพร",
        "role": "พิมพ์",
        "date": "2550-12-25"
      },
      {
        "name": "ฐิติพงษ์",
        "role": "ตรวจ",
        "date": "2551-01-09"
      }
    ],
    "tag": "a404-2a-2530-a008",
    "title": "ให้ใช้พระราชบัญญัติควบคุมอาคาร พ.ศ. ๒๕๒๒บังคับในท้องที่บางแห่งในตำบลบางบัวทอง ตำบลละหาร ตำบลลำโพตำบลพิมลราช ตำบลโสนลอย ตำบลบางรักใหญ่ อำเภอบางบัวทองตำบลคลองข่อย ตำบลบางพลับ ตำบลคลองพระอุดม ตำบลบางตะไนย์ ตำบลบางพูด ตำบลบ้านใหม่ ตำบลอ้อมเกร็ดตำบลเกาะเกร็ด ตำบลปากเกร็ด ตำบลท่าอิฐ ตำบลบางตลาดอำเภอปากเกร็ด ตำบลเสาธงหิน ตำบลบางเลน ตำบลบางม่วงอำเภอบางใหญ่ ตำบลบางคูเวียง ตำบลบางขุนกอง ตำบลบางขนุนตำบลบางสีทอง ตำบลบางกรวย ตำบลปลายบาง ตำบลมหาสวัสดิ์ตำบลวัดชลอ อำเภอบางกรวย และตำบลบางรักน้อย ตำบลไทรม้าตำบลท่าทราย ตำบลบางกระสอ ตำบลตลาดขวัญ ตำบลบางกร่างตำบลบางศรีเมือง ตำบลบางเขน ตำบลบางไผ่อำเภอเมืองนนทบุรี จังหวัดนนทบุรี"
  }
}