{
  "pages": [
    [
      [
        "พระราชบัญญัติ",
        "ยา",
        "พ.ศ. ๒๕๑๐",
        "",
        "",
        "ภูมิพลอดุลยเดช ป.ร.",
        "ให้ไว้ ณ วันที่ ๑๕ ตุลาคม พ.ศ. ๒๕๑๐",
        "เป็นปีที่ ๒๒ ในรัชกาลปัจจุบัน"
      ]
    ],
    []
  ],
  "metadata": {
    "date_header": "2510-10-15",
    "date_modified": "2518-02-20",
    "date_original": "2510-10-20",
    "doctype": "พระราชบัญญัติ",
    "editors": [
      {
        "name": "วศิน",
        "role": "ผู้จัดทำ",
        "date": "2552-02-17"
      }
    ],
    "tag": "c204-20-2518-002u",
    "title": "ยา"
  }
}