{
  "pages": [
    [
      [
        "ประกาศกระทรวงสาธารณสุข",
        "เรื่อง ยาที่ต้องแจ้งคำเตือนการใช้ยาไว้ในฉลากและที่เอกสารกำกับยา",
        "และข้อความของคำเตือน",
        "ฉบับที่ ๕๘"
      ]
    ],
    []
  ],
  "metadata": {
    "date_backmatter": "2559-11-17",
    "date_modified": "2559-12-28",
    "date_original": "2559-12-28",
    "doctype": "ประกาศ",
    "editors": [
      {
        "name": "ชนิกา/ปริยานุช",
        "role": "จัดทำ",
        "date": "2560-01-04"
      },
      {
        "name": "ปริญสินีย์",
        "role": "ตรวจ",
        "date": "2560-01-30"
      }
    ],
    "tag": "c204-2e-2559-a0011"
  }
}