{
  "pages": [
    [
      [
        "พระราชบัญญัติ",
        "ยา (ฉบับที่ ๓)",
        "พ.ศ. ๒๕๒๒",
        "",
        "",
        "ภูมิพลอดุลยเดช ป.ร",
        "ให้ไว้ ณ วันที่ ๘ พฤษภาคม พ.ศ. ๒๕๒๒",
        "เป็นปีที่ ๓๔ ในรัชกาลปัจจุบัน"
      ]
    ],
    []
  ],
  "metadata": {
    "date_header": "2522-05-08",
    "date_modified": "2522-05-13",
    "date_original": "2522-05-13",
    "doctype": "พระราชบัญญัติ",
    "editors": [
      {
        "name": "วศิน",
        "role": "ผู้จัดทำ",
        "date": "2552-02-11"
      }
    ],
    "tag": "c204-20-2522-003",
    "title": "ยา (ฉบับที่ ๓)"
  }
}