{
  "pages": [
    [
      [
        "คำสั่งกระทรวงสาธารณสุข",
        "ที่ ๑๖๓๖/๒๕๕๘",
        "เรื่อง แก้ไขทะเบียนตำรับยารามิพริล (Ramipril)",
        "",
        "",
        "จากผลการตรวจวิเคราะห์ยารามิพริล (Ramipril) ทั้งรูปแบบเม็ดและแคปซูลได้รับการขึ้นทะเบียนตำรับยาไว้แล้ว พบว่า ส่วนใหญ่ผิดมาตรฐานในหัวข้อปริมาณตัวยาสำคัญ (Active Ingredient) และสารที่เกี่ยวข้องกับผลิตภัณฑ์ (Related substances) ส่งผลต่อประสิทธิภาพและความปลอดภัยในการรักษาดังนั้นเพื่อคุ้มครองความปลอดภัยของผู้ใช้ยา จึงจำเป็นต้องให้แก้ไขทะเบียนตำรับยารามิพริล (Ramipril) เพื่อการควบคุมคุณภาพยาดังกล่าว"
      ]
    ],
    []
  ],
  "metadata": {
    "date_backmatter": "2558-09-28",
    "date_modified": "2558-11-09",
    "date_original": "2558-11-09",
    "editors": [
      {
        "name": "ปริยานุช, ปุณิกา",
        "role": "จัดทำ",
        "date": "2558-11-27"
      }
    ],
    "tag": "c204-2f-2558-a0004"
  }
}