{
  "pages": [
    [
      [
        "ประกาศสำนักงานคณะกรรมการอาหารและยา",
        "เรื่อง กำหนดสถานที่ตรวจวิเคราะห์หรือห้องปฏิบัติการที่กรมวิทยาศาสตร์การแพทย์ให้การรับรองแล้ว",
        "สามารถตรวจวิเคราะห์ผลิตภัณฑ์สุขภาพเพื่อประกอบการขออนุญาตหรือขึ้นทะเบียน",
        "(ฉบับที่ ๑๒)"
      ]
    ],
    []
  ],
  "metadata": {
    "date_backmatter": "2556-09-27",
    "date_modified": "2556-11-19",
    "date_original": "2556-11-19",
    "doctype": "ประกาศ",
    "editors": [
      {
        "name": "ปริยานุช",
        "role": "ผู้จัดทำ",
        "date": "2556-11-21"
      },
      {
        "name": "อุษมล",
        "role": "ผู้ตรวจ",
        "date": "2556-11-27"
      }
    ],
    "tag": "c204-2e-2556-a0017"
  }
}