{
  "pages": [
    [
      [
        "คำสั่งกระทรวงสาธารณสุข",
        "ที่ ๑๑๔๐/๒๕๔๓",
        "เรื่อง แก้ไขทะเบียนตำรับยา",
        "ซึ่งมียาฟีนิลโปรปาโนลามีน (Phenylpropanolamine) เป็นส่วนผสม"
      ]
    ],
    []
  ],
  "metadata": {
    "date_backmatter": "2543-12-14",
    "date_modified": "2543-12-19",
    "date_original": "2543-12-19",
    "editors": [
      {
        "name": "อัมพิกา",
        "role": "แก้ไข",
        "date": "2545-05-02"
      },
      {
        "name": "สุกัญญา",
        "role": "ผู้จัดทำ",
        "date": "2552-05-13"
      },
      {
        "name": "รัศม์วรรณวลัย",
        "role": "ตรวจ",
        "date": "2552-06-01"
      }
    ],
    "tag": "c204-2f-2543-a0001"
  }
}