{
  "pages": [
    [
      [
        "ประกาศกระทรวงสาธารณสุข",
        "เรื่อง ยาอันตราย"
      ]
    ],
    []
  ],
  "metadata": {
    "date_backmatter": "2521-05-26",
    "date_modified": "2557-05-30",
    "date_original": "2521-07-04",
    "doctype": "ประกาศ",
    "editors": [
      {
        "name": "กฤษดายุทธ",
        "role": "ผู้จัดทำ",
        "date": "2557-06-19"
      }
    ],
    "tag": "c204-2e-2557-a0016"
  }
}