{
  "pages": [
    [
      [
        "ประกาศสำนักงานคณะกรรมการอาหารและยา",
        "เรื่อง กำหนดให้ยาเดกซ์ซาเมธาโซน (Dexamethasone) และยาเพร็ดนิโซโลน (Prednisolone)",
        "ชนิดรับประทานต้องรายงานต่อสำนักงานคณะกรรมการอาหารและยา",
        "(ฉบับที่ ๒)"
      ]
    ],
    []
  ],
  "metadata": {
    "date_backmatter": "2552-01-26",
    "date_modified": "2552-03-13",
    "date_original": "2552-03-13",
    "doctype": "ประกาศ",
    "editors": [
      {
        "name": "ปริยานุช",
        "role": "ผู้จัดทำ",
        "date": "2552-03-16"
      }
    ],
    "tag": "c204-2e-2552-a0004"
  }
}