{
  "pages": [
    [
      [
        "ประกาศสำนักงานคณะกรรมการอาหารและยา",
        "เรื่อง กำหนดสถานที่ตรวจวิเคราะห์หรือห้องปฏิบัติการที่กรมวิทยาศาสตร์การแพทย์ให้การรับรองแล้ว",
        "สามารถตรวจวิเคราะห์ผลิตภัณฑ์สุขภาพเพื่อประกอบการขออนุญาตหรือขึ้นทะเบียน",
        "(ฉบับที่ ๑๑)"
      ]
    ],
    []
  ],
  "metadata": {
    "date_backmatter": "2556-05-14",
    "date_modified": "2556-06-26",
    "date_original": "2556-06-26",
    "doctype": "ประกาศ",
    "editors": [
      {
        "name": "ปริยานุช",
        "role": "ผู้จัดทำ",
        "date": "2556-06-27"
      },
      {
        "name": "โชติกานต์",
        "role": "ผู้ตรวจ",
        "date": "2556-07-17"
      }
    ],
    "tag": "c204-2e-2556-a0011"
  }
}