{
  "pages": [
    [
      [
        "ประกาศสำนักงานคณะกรรมการอาหารและยา",
        "เรื่อง กำหนดสถานที่ตรวจวิเคราะห์หรือห้องปฏิบัติการที่กรมวิทยาศาสตร์การแพทย์ให้การรับรองแล้ว",
        "สามารถตรวจวิเคราะห์ผลิตภัณฑ์สุขภาพเพื่อประกอบการขออนุญาตหรือขึ้นทะเบียน (ฉบับที่ ๑๕)"
      ]
    ],
    []
  ],
  "metadata": {
    "date_backmatter": "2558-04-29",
    "date_modified": "2558-10-15",
    "date_original": "2558-10-15",
    "doctype": "ประกาศ",
    "editors": [
      {
        "name": "ปริยานุช",
        "role": "ผู้จัดทำ",
        "date": "2558-10-19"
      },
      {
        "name": "ปุณิกา",
        "role": "ผู้ตรวจ",
        "date": "2558-11-09"
      }
    ],
    "tag": "c204-2e-2558-a0008"
  }
}