{
  "pages": [
    [
      [
        "ประกาศกระทรวงสาธารณสุข",
        "เรื่อง ยาอันตราย"
      ]
    ],
    []
  ],
  "metadata": {
    "date_backmatter": "2521-05-26",
    "date_modified": "2521-07-04",
    "date_original": "2521-07-04",
    "doctype": "ประกาศ",
    "editors": [
      {
        "name": "ณัฐดนัย",
        "role": "พิมพ์",
        "date": "2551-11-10"
      },
      {
        "name": "นันท์นภัสร์",
        "role": "จัดทำ",
        "date": "2551-11-10"
      },
      {
        "name": "รัศม์วรรณวลัย",
        "role": "ปรับปรุง",
        "date": "2552-06-15"
      },
      {
        "name": "ปณตภร",
        "role": "ปรับปรุง",
        "date": "2555-06-26"
      }
    ],
    "tag": "c204-2e-2521-a0001"
  }
}