{
  "pages": [
    [
      [
        "ประกาศกระทรวงสาธารณสุข",
        "เรื่อง ยาอันตราย",
        "ฉบับที่ ๒๖"
      ]
    ],
    []
  ],
  "metadata": {
    "date_backmatter": "2555-11-13",
    "date_modified": "2555-12-25",
    "date_original": "2555-12-25",
    "doctype": "ประกาศ",
    "editors": [
      {
        "name": "โชติกานต์",
        "role": "ผู้จัดทำ",
        "date": "2556-01-18"
      },
      {
        "name": "เอกฤทธิ์",
        "role": "ผู้ตรวจ",
        "date": "2556-01-18"
      }
    ],
    "tag": "c204-2e-2555-a0012"
  }
}