{
  "pages": [
    [
      [
        "ระเบียบสำนักงานคณะกรรมการอาหารและยา",
        "ว่าด้วยหลักเกณฑ์การยื่นอุทธรณ์โฆษณาผลิตภัณฑ์สุขภาพ",
        "พ.ศ. ๒๕๔๘"
      ]
    ],
    []
  ],
  "metadata": {
    "date_backmatter": "2548-01-07",
    "date_modified": null,
    "date_original": null,
    "editors": [
      {
        "name": "พุทธพัท",
        "role": "จัดทำ",
        "date": "2548-06-03"
      },
      {
        "name": "ศิรวัชร์",
        "role": "ปรับปรุง",
        "date": "2561-12-25"
      }
    ],
    "tag": "c204-2g-2548-a0001"
  }
}