{
  "pages": [
    [
      [
        "ระเบียบสำนักงานคณะกรรมการอาหารและยา",
        "ว่าด้วยหลักเกณฑ์การโฆษณาขายยา",
        "พ.ศ. ๒๕๔๕"
      ]
    ],
    []
  ],
  "metadata": {
    "date_backmatter": "2545-12-02",
    "date_modified": "2560-02-24",
    "date_original": "2546-01-27",
    "editors": [
      {
        "name": "พิมพ์มาดา",
        "role": "จัดทำ",
        "date": "2560-03-15"
      },
      {
        "name": "ปริญสินีย์",
        "role": "ตรวจ",
        "date": "2560-04-05"
      }
    ],
    "tag": "c204-2g-9999-update"
  }
}