{
  "pages": [
    [
      [
        "ประกาศกระทรวงสาธารณสุข",
        "เรื่อง ยาสามัญประจำบ้านแผนปัจจุบัน"
      ]
    ],
    []
  ],
  "metadata": {
    "date_backmatter": "2542-03-28",
    "date_modified": "2549-10-20",
    "date_original": "2542-05-13",
    "doctype": "ประกาศ",
    "editors": [
      {
        "name": "โชติกานต์",
        "role": "ผู้จัดทำ",
        "date": "2556-04-29"
      }
    ],
    "tag": "c204-2e-2549-a0016"
  }
}