{
  "pages": [
    [
      [
        "คำสั่งสำนักงานคณะกรรมการอาหารและยา",
        "ที่ ๑๑๒/๒๕๔๗",
        "เรื่อง มอบอำนาจเลขาธิการคณะกรรมการอาหารและยา",
        "ตามกฎหมายเฉพาะให้ผู้ว่าราชการจังหวัด"
      ]
    ],
    []
  ],
  "metadata": {
    "date_backmatter": "2547-02-03",
    "date_modified": "2547-03-12",
    "date_original": "2547-03-12",
    "editors": [
      {
        "name": "ศุภชัย",
        "role": "พิมพ์",
        "date": "2547-06-23"
      },
      {
        "name": "สุนันทา/จีระ",
        "role": "ตรวจ",
        "date": "2547-06-30"
      }
    ],
    "tag": "c204-2f-2547-a0001"
  }
}