{
  "pages": [
    [
      [
        "ประกาศกระทรวงสาธารณสุข",
        "เรื่อง ยาที่ต้องแจ้งคำเตือนการใช้ยาไว้ในฉลากและที่เอกสารกำกับยา",
        "และข้อความของคำเตือน"
      ]
    ],
    []
  ],
  "metadata": {
    "date_backmatter": "2533-02-16",
    "date_modified": "2558-03-09",
    "date_original": "2533-03-19",
    "doctype": "ประกาศ",
    "editors": [
      {
        "name": "ปณตภร",
        "role": "ผู้จัดทำ",
        "date": "2556-07-09"
      },
      {
        "name": "จุฑามาศ",
        "role": "ปรับปรุง",
        "date": "2557-06-03"
      },
      {
        "name": "ปริญสินีย์",
        "role": "ปรับปรุง",
        "date": "2557-12-11"
      },
      {
        "name": "วริษา",
        "role": "เพิ่มเติม",
        "date": "2558-03-26"
      },
      {
        "name": "นุสรา",
        "role": "ผู้ตรวจ",
        "date": "2558-06-15"
      }
    ],
    "tag": "c204-2e-2558-a0009"
  }
}