{
  "pages": [
    [
      [
        "คำสั่งกระทรวงสาธารณสุข",
        "ที่ ๑๐๔/๒๕๖๑",
        "เรื่อง เพิกถอนทะเบียนตำรับยา"
      ]
    ],
    []
  ],
  "metadata": {
    "date_backmatter": "2561-01-25",
    "date_modified": "2561-03-09",
    "date_original": "2561-03-09",
    "editors": [
      {
        "name": "นุสรา/จัดทำ",
        "role": "ตรวจ",
        "date": "2561-03-10"
      }
    ],
    "tag": "c204-2f-2561-a0003"
  }
}