{
  "pages": [
    [
      [
        "กฎกระทรวง",
        "ฉบับที่ ๕ (พ.ศ. ๒๕๑๐)",
        "ออกตามความในพระราชบัญญัติยา",
        "พ.ศ. ๒๕๑๐"
      ]
    ],
    []
  ],
  "metadata": {
    "date_backmatter": "2510-12-08",
    "date_modified": null,
    "date_original": "2510-12-15",
    "doctype": "กฎกระทรวง",
    "editors": [
      {
        "name": "รัศม์วรรณวลัย",
        "role": "ผู้จัดทำ",
        "date": "2552-06-23"
      }
    ],
    "tag": "c204-2b-9992-update"
  }
}