{
  "pages": [
    [
      [
        "ประกาศกระทรวงสาธารณสุข",
        "เรื่อง ยาควบคุมพิเศษ",
        "ฉบับที่ ๑๘"
      ]
    ],
    []
  ],
  "metadata": {
    "date_backmatter": "2540-02-10",
    "date_modified": "2540-03-27",
    "date_original": "2540-03-27",
    "doctype": "ประกาศ",
    "editors": [
      {
        "name": "อัมพิกา",
        "role": "แก้ไข",
        "date": "2544-09-06"
      },
      {
        "name": "สุกัญญา",
        "role": "ผู้จัดทำ",
        "date": "2552-05-13"
      },
      {
        "name": "รัศม์วรรณวลัย",
        "role": "ตรวจ",
        "date": "2552-05-27"
      }
    ],
    "tag": "c204-2e-2540-018"
  }
}