{
  "pages": [
    [
      [
        "คำสั่งกระทรวงสาธารณสุข",
        "ที่ ๗๓๖/๒๕๕๒",
        "เรื่อง เพิกถอนทะเบียนตำรับยา"
      ]
    ],
    []
  ],
  "metadata": {
    "date_backmatter": "2552-06-05",
    "date_modified": "2552-08-31",
    "date_original": "2552-08-31",
    "editors": [
      {
        "name": "ปริยานุช",
        "role": "ผู้จัดทำ",
        "date": "2552-09-02"
      }
    ],
    "tag": "c204-2f-2552-a0004"
  }
}