{
  "pages": [
    [
      [
        "ประกาศกระทรวงสาธารณสุข",
        "เรื่อง ยาควบคุมพิเศษ",
        "ฉบับที่ ๒๓"
      ]
    ],
    []
  ],
  "metadata": {
    "date_backmatter": "2544-07-30",
    "date_modified": "2544-09-12",
    "date_original": "2544-09-12",
    "doctype": "ประกาศ",
    "editors": [
      {
        "name": "อัมพิกา",
        "role": "แก้ไข",
        "date": "2545-05-10"
      },
      {
        "name": "สุกัญญา",
        "role": "ผู้จัดทำ",
        "date": "2552-05-13"
      },
      {
        "name": "รัศม์วรรณวลัย",
        "role": "ตรวจ",
        "date": "2552-05-27"
      }
    ],
    "tag": "c204-2e-2544-a003"
  }
}