{
  "pages": [
    [
      [
        "คำสั่งกระทรวงสาธารณสุข",
        "ที่ ๓๕๕/๒๕๕๐",
        "เรื่อง เพิกถอนทะเบียนตำรับยา"
      ]
    ],
    []
  ],
  "metadata": {
    "date_backmatter": "2550-04-10",
    "date_modified": "2550-05-30",
    "date_original": "2550-05-30",
    "editors": [
      {
        "name": "วัชศักดิ์",
        "role": "ผู้จัดทำ",
        "date": "2550-06-04"
      }
    ],
    "tag": "c204-2f-2550-a0002"
  }
}