{
  "pages": [
    [
      [
        "ประกาศกระทรวงสาธารณสุข",
        "เรื่อง ยาควบคุมพิเศษ",
        "ฉบับที่ ๑๖"
      ]
    ],
    []
  ],
  "metadata": {
    "date_backmatter": "2537-01-19",
    "date_modified": "2537-02-28",
    "date_original": "2537-02-28",
    "doctype": "ประกาศ",
    "editors": [
      {
        "name": "สุกัญญา",
        "role": "พิมพ์",
        "date": "2551-07-31"
      },
      {
        "name": "นันท์นภัสร์",
        "role": "ตรวจ",
        "date": "2551-08-05"
      }
    ],
    "tag": "c204-2e-2537-a0004"
  }
}