{
  "pages": [
    [
      [
        "ประกาศกระทรวงสาธารณสุข",
        "เรื่อง ยาควบคุมพิเศษ"
      ]
    ],
    []
  ],
  "metadata": {
    "date_backmatter": "2521-05-26",
    "date_modified": "2521-07-04",
    "date_original": "2521-07-04",
    "doctype": "ประกาศ",
    "editors": [
      {
        "name": "สุกัญญา",
        "role": "พิมพ์",
        "date": "2551-07-31"
      },
      {
        "name": "นันท์นภัสร์",
        "role": "จัดทำ",
        "date": "2551-08-05"
      }
    ],
    "tag": "c204-2e-2533-a0012"
  }
}