{
  "pages": [
    [
      [
        "ประกาศกระทรวงสาธารณสุข",
        "เรื่อง การกำหนดรายละเอียดเกี่ยวกับหลักเกณฑ์และวิธีการในการผลิตยาแผนปัจจุบัน",
        "และแก้ไขเพิ่มเติมหลักเกณฑ์และวิธีการในการผลิตยาแผนโบราณ ตามกฎหมายว่าด้วยยา",
        "พ.ศ. ๒๕๕๙"
      ]
    ],
    []
  ],
  "metadata": {
    "date_backmatter": "2559-05-18",
    "date_modified": "2559-09-14",
    "date_original": "2559-09-14",
    "doctype": "ประกาศ",
    "editors": [
      {
        "name": "ปริยานุช",
        "role": "จัดทำ",
        "date": "2559-09-15"
      },
      {
        "name": "กัญฑรัตน์",
        "role": "ตรวจ",
        "date": "2559-09-15"
      }
    ],
    "tag": "c204-2e-2559-a0006"
  }
}