{
  "pages": [
    [
      [
        "คำสั่งกระทรวงสาธารณสุข",
        "ที่ ๙๘๕/๒๕๕๓",
        "เรื่อง เพิกถอนทะเบียนตำรับยา"
      ]
    ],
    []
  ],
  "metadata": {
    "date_backmatter": "2553-05-20",
    "date_modified": "2553-06-23",
    "date_original": "2553-06-23",
    "editors": [
      {
        "name": "ปริยานุช",
        "role": "ผู้จัดทำ",
        "date": "2553-07-01"
      },
      {
        "name": "นันท์นภัสร์",
        "role": "ตรวจ",
        "date": "2553-07-01"
      }
    ],
    "tag": "c204-2f-2553-a0004"
  }
}