{
  "pages": [
    [
      [
        "ประกาศกระทรวงสาธารณสุข",
        "เรื่อง ยาควบคุมพิเศษ",
        "ฉบับที่ ๒๔"
      ]
    ],
    []
  ],
  "metadata": {
    "date_backmatter": "2545-02-03",
    "date_modified": "2545-04-19",
    "date_original": "2545-04-19",
    "doctype": "ประกาศ",
    "editors": [
      {
        "name": "พรพิมล",
        "role": "แก้ไข",
        "date": "2545-07-12"
      },
      {
        "name": "สุกัญญา",
        "role": "ผู้จัดทำ",
        "date": "2552-05-13"
      },
      {
        "name": "รัศม์วรรณวลัย",
        "role": "ตรวจ",
        "date": "2552-05-27"
      }
    ],
    "tag": "c204-2e-2545-a0001"
  }
}