{
  "pages": [
    [
      [
        "ประกาศกระทรวงสาธารณสุข",
        "เรื่อง ยาอันตราย",
        "ฉบับที่ ๒๒"
      ]
    ],
    []
  ],
  "metadata": {
    "date_backmatter": "2551-07-08",
    "date_modified": "2551-10-17",
    "date_original": "2551-10-17",
    "doctype": "ประกาศ",
    "editors": [
      {
        "name": "ปริยานุช",
        "role": "ผู้จัดทำ",
        "date": "2551-10-21"
      },
      {
        "name": "ปณตภร",
        "role": "ปรับปรุง",
        "date": "2555-06-26"
      }
    ],
    "tag": "c204-2e-2551-a0008"
  }
}