{
  "pages": [
    [
      [
        "ประกาศกระทรวงสาธารณสุข",
        "เรื่อง ยาอันตราย",
        "ฉบับที่ ๒๘"
      ]
    ],
    []
  ],
  "metadata": {
    "date_backmatter": "2560-01-30",
    "date_modified": "2560-04-04",
    "date_original": "2560-04-04",
    "doctype": "ประกาศ",
    "editors": [
      {
        "name": "พรวิภา/ภวรรณตรี",
        "role": "จัดทำ",
        "date": "2560-04-10"
      },
      {
        "name": "นุสรา",
        "role": "ตรวจ",
        "date": "2560-05-22"
      }
    ],
    "tag": "c204-2e-2560-a0003"
  }
}