{
  "pages": [
    [
      [
        "ประกาศสำนักงานคณะกรรมการอาหารและยา",
        "เรื่อง กำหนดให้ยาน้ำที่มีไดเฟนไฮดรามีน (Diphenhydramine) หรือโปรเมทาซีน (Promethazine)",
        "เป็นส่วนประกอบต้องรายงานต่อสำนักงานคณะกรรมการอาหารและยา"
      ]
    ],
    []
  ],
  "metadata": {
    "date_backmatter": "2551-09-05",
    "date_modified": "2552-01-14",
    "date_original": "2552-01-14",
    "doctype": "ประกาศ",
    "editors": [
      {
        "name": "วัชศักดิ์",
        "role": "ผู้จัดทำ",
        "date": "2552-01-20"
      }
    ],
    "tag": "c204-2e-2552-a0001"
  }
}