{
  "pages": [
    [
      [
        "ประกาศกระทรวงสาธารณสุข",
        "เรื่อง ยาที่ต้องแจ้งคำเตือนการใช้ยาไว้ในฉลากและที่เอกสาร",
        "กำกับยา และข้อความของคำเตือน",
        "ฉบับที่ ๑๔"
      ]
    ],
    []
  ],
  "metadata": {
    "date_backmatter": "2536-11-03",
    "date_modified": "2536-12-15",
    "date_original": "2536-12-15",
    "doctype": "ประกาศ",
    "editors": [
      {
        "name": "ประภาศรี",
        "role": "พิมพ์",
        "date": "2550-08-10"
      }
    ],
    "tag": "c204-2e-2536-a0006"
  }
}