{
  "pages": [
    [
      [
        "ประกาศกระทรวงสาธารณสุข",
        "เรื่อง ยาอันตราย",
        "ฉบับที่ ๑๘"
      ]
    ],
    []
  ],
  "metadata": {
    "date_backmatter": "2546-04-22",
    "date_modified": "2546-05-12",
    "date_original": "2546-05-12",
    "doctype": "ประกาศ",
    "editors": [
      {
        "name": "พรพิมล",
        "role": "พิมพ์",
        "date": "2546-07-31"
      },
      {
        "name": "ปาจรีย์/นิลวรรณ",
        "role": "จัดทำ",
        "date": "2546-08-18"
      },
      {
        "name": "ปณตภร",
        "role": "ปรับปรุง",
        "date": "2555-06-26"
      }
    ],
    "tag": "c204-2e-2546-a0005"
  }
}