{
  "pages": [
    [
      [
        "ประกาศสำนักงานคณะกรรมการอาหารและยา",
        "เรื่อง หลักเกณฑ์ วิธีการ และเงื่อนไข ในการขายยา"
      ]
    ],
    []
  ],
  "metadata": {
    "date_backmatter": "2558-07-15",
    "date_modified": "2558-08-04",
    "date_original": "2558-08-04",
    "doctype": "ประกาศ",
    "editors": [
      {
        "name": "ปริยานุช",
        "role": "ผู้จัดทำ",
        "date": "2558-08-07"
      },
      {
        "name": "นุสรา",
        "role": "ผู้ตรวจ",
        "date": "2558-10-26"
      }
    ],
    "tag": "c204-2e-2558-a0005"
  }
}