{
  "pages": [
    [
      [
        "คำสั่งกระทรวงสาธารณสุข",
        "ที่ ๓๗๘/๒๕๖๑",
        "เรื่อง เพิกถอนทะเบียนตำรับยา"
      ]
    ],
    []
  ],
  "metadata": {
    "date_backmatter": "2561-03-28",
    "date_modified": "2561-04-24",
    "date_original": "2561-04-24",
    "editors": [
      {
        "name": "ปวันวิทย์",
        "role": "จัดทำ",
        "date": "2561-06-01"
      }
    ],
    "tag": "c204-2f-2561-a0007"
  }
}