{
  "pages": [
    [
      [
        "ประกาศกระทรวงสาธารณสุข",
        "เรื่อง วัตถุที่ได้รับการยกเว้นไม่เป็นยา",
        "(ฉบับที่ ๓๕) พ.ศ. ๒๕๖๐"
      ]
    ],
    []
  ],
  "metadata": {
    "date_backmatter": "2560-05-26",
    "date_modified": "2560-07-03",
    "date_original": "2560-07-03",
    "doctype": "ประกาศ",
    "editors": [
      {
        "name": "ภวรรณตรี",
        "role": "จัดทำ",
        "date": "2560-07-11"
      },
      {
        "name": "พรวิภา",
        "role": "ตรวจ",
        "date": "2560-08-01"
      }
    ],
    "tag": "c204-2e-2560-a0009"
  }
}