{
  "pages": [
    [
      [
        "ประกาศกระทรวงสาธารณสุข",
        "เรื่อง กำหนดจำนวนสถานที่ขายยาแผนปัจจุบันเฉพาะยาบรรจุเสร็จ",
        "ที่ไม่ใช่ยาอันตรายหรือยาควบคุมพิเศษในแต่ละจังหวัด"
      ]
    ],
    []
  ],
  "metadata": {
    "date_backmatter": "2548-01-12",
    "date_modified": "2548-03-23",
    "date_original": "2548-03-23",
    "doctype": "ประกาศ",
    "editors": [
      {
        "name": "พงษ์พิลัย",
        "role": "จัดทำ",
        "date": "2548-07-15"
      },
      {
        "name": "ศิรวัชร์",
        "role": "ปรับปรุง",
        "date": "2561-12-14"
      }
    ],
    "tag": "c204-2e-2548-a0001"
  }
}