{
  "pages": [
    [
      [
        "ประกาศสำนักงานคณะกรรมการอาหารและยา",
        "เรื่อง แนวทางการขอเปลี่ยนแปลงสถานที่ผลิตยาในทะเบียนตำรับยาแผนโบราณ"
      ]
    ],
    []
  ],
  "metadata": {
    "date_backmatter": "2559-01-12",
    "date_modified": "2559-02-24",
    "date_original": "2559-02-24",
    "doctype": "ประกาศ",
    "editors": [
      {
        "name": "ชวัลพร/ปริยานุช",
        "role": "จัดทำ",
        "date": "2559-03-03"
      }
    ],
    "tag": "c204-2e-2559-a0001"
  }
}