{
  "pages": [
    [
      [
        "คำสั่งกระทรวงสาธารณสุข",
        "ที่ ๑๘๐๗/๒๕๖๐",
        "เรื่อง เพิกถอนทะเบียนตำรับยา"
      ]
    ],
    []
  ],
  "metadata": {
    "date_backmatter": "2560-12-12",
    "date_modified": "2561-02-14",
    "date_original": "2561-02-14",
    "editors": [
      {
        "name": "พิมพ์มาดา",
        "role": "จัดทำ",
        "date": "2561-04-03"
      }
    ],
    "tag": "c204-2f-2561-a0001"
  }
}