{
  "pages": [
    [
      [
        "คำสั่งกระทรวงสาธารณสุข",
        "ที่ ๔๔๒/๒๕๕๐",
        "เรื่อง เพิกถอนทะเบียนตำรับยา"
      ]
    ],
    []
  ],
  "metadata": {
    "date_backmatter": "2550-05-16",
    "date_modified": "2550-07-13",
    "date_original": "2550-07-13",
    "editors": [
      {
        "name": "วัชศักดิ์",
        "role": "ผู้จัดทำ",
        "date": "2550-08-06"
      }
    ],
    "tag": "c204-2f-2550-a0003"
  }
}