{
  "pages": [
    [
      [
        "ประกาศกระทรวงสาธารณสุข",
        "เรื่อง ยาที่ต้องแจ้งคำเตือนการใช้ยาไว้ในฉลากและที่เอกสารกำกับยา",
        "และข้อความของคำเตือน",
        "ฉบับที่ ๔๖"
      ]
    ],
    []
  ],
  "metadata": {
    "date_backmatter": "2553-11-25",
    "date_modified": "2553-12-29",
    "date_original": "2553-12-29",
    "doctype": "ประกาศ",
    "editors": [
      {
        "name": "ปริยานุช",
        "role": "ผู้จัดทำ",
        "date": "2554-01-13"
      },
      {
        "name": "ณัฐวดี",
        "role": "ตรวจ",
        "date": "2554-01-13"
      }
    ],
    "tag": "c204-2e-2553-a0017"
  }
}