{
  "pages": [
    [
      [
        "คำสั่งกระทรวงสาธารณสุข",
        "ที่ ๒๑๓/๒๕๔๐",
        "เรื่อง แก้ไขทะเบียนตำรับยากลุ่มยาเม็ดคุมกำเนิดหลังร่วมเพศ",
        "ที่ประกอบด้วยโปรเจสโตเจนในขนาดสูง (Progestogen High Dose)"
      ]
    ],
    []
  ],
  "metadata": {
    "date_backmatter": "2540-03-12",
    "date_modified": "2540-05-15",
    "date_original": "2540-05-15",
    "editors": [
      {
        "name": "อัมภิญา",
        "role": "พิมพ์",
        "date": "2551-02-13"
      },
      {
        "name": "นฤดล",
        "role": "ตรวจ",
        "date": "2551-05-28"
      }
    ],
    "tag": "c204-2f-2540-001"
  }
}