{
  "pages": [
    [
      [
        "คำสั่งกระทรวงสาธารณสุข",
        "ที่ ๑๒๒/๒๕๔๘",
        "เรื่อง เพิกถอนทะเบียนตำรับยาสูตรผสมฟีนิลบิวตาโซน (Phenylbutazone) และเกลือของ",
        "ฟีนิลบิวตาโซน (Phenylbutazone) ที่มียาอื่นผสม"
      ]
    ],
    []
  ],
  "metadata": {
    "date_backmatter": "2548-12-07",
    "date_modified": "2549-01-18",
    "date_original": "2549-01-18",
    "editors": [
      {
        "name": "พชร",
        "role": "จัดทำ",
        "date": "2549-01-24"
      },
      {
        "name": "ศิรวัชร์",
        "role": "ปรับปรุง",
        "date": "2561-12-24"
      }
    ],
    "tag": "c204-2f-2549-a0001"
  }
}