{
  "pages": [
    [
      [
        "พระราชบัญญัติ",
        "คุ้มครองสิ่งบ่งชี้ทางภูมิศาสตร์",
        "พ.ศ. ๒๕๔๖",
        "",
        "",
        "ภูมิพลอดุลยเดช ป.ร.",
        "ให้ไว้ ณ วันที่ ๒๐ ตุลาคม พ.ศ. ๒๕๔๖",
        "เป็นปีที่ ๕๘ ในรัชกาลปัจจุบัน"
      ]
    ],
    []
  ],
  "metadata": {
    "date_header": "2546-10-20",
    "date_modified": "2560-02-11",
    "date_original": "2546-10-31",
    "doctype": "พระราชบัญญัติ",
    "editors": [
      {
        "name": "พรวิภา",
        "role": "จัดทำ",
        "date": "2560-02-14"
      },
      {
        "name": "พจนา",
        "role": "ตรวจ",
        "date": "2560-02-20"
      }
    ],
    "tag": "a494-20-9999-update",
    "title": "คุ้มครองสิ่งบ่งชี้ทางภูมิศาสตร์"
  }
}