{
  "pages": [
    [
      [
        "พระราชบัญญัติ",
        "กองอาสารักษาดินแดน",
        "พ.ศ. ๒๔๙๗",
        "",
        "",
        "ภูมิพลอดุลยเดช ป.ร.",
        "ให้ไว้ ณ วันที่ ๑๐ กุมภาพันธ์ พ.ศ. ๒๔๙๗",
        "เป็นปีที่ ๙ ในรัชกาลปัจจุบัน"
      ]
    ],
    []
  ],
  "metadata": {
    "date_header": "2497-02-10",
    "date_modified": "2497-02-23",
    "date_original": "2497-02-23",
    "doctype": "พระราชบัญญัติ",
    "editors": [
      {
        "name": "พรพิมล",
        "role": "แก้ไข",
        "date": "2544-08-29"
      },
      {
        "name": "พัชรินทร์",
        "role": "แก้ไข",
        "date": "2547-12-21"
      },
      {
        "name": "วศิน",
        "role": "แก้ไข",
        "date": "2552-03-09"
      },
      {
        "name": "กฤษดายุทธ",
        "role": "ปรับปรุง",
        "date": "2556-11-20"
      },
      {
        "name": "ปณตภร",
        "role": "ตรวจ",
        "date": "2556-11-25"
      }
    ],
    "tag": "a106-20-2497-001",
    "title": "กองอาสารักษาดินแดน"
  }
}