{
  "pages": [
    [
      [
        "ระเบียบกองอาสารักษาดินแดน",
        "ว่าด้วย การปลดสมาชิกกองอาสารักษาดินแดนประเภท",
        "ประจำกองเป็นประเภทกองหนุน",
        "พ.ศ. ๒๕๑๖"
      ]
    ],
    []
  ],
  "metadata": {
    "date_backmatter": "2516-09-21",
    "editors": [
      {
        "name": "จุฑามาศ",
        "role": "ปรับปรุง",
        "date": "2558-08-25"
      }
    ],
    "tag": "a106-2g-2516-001"
  }
}