{
  "pages": [
    [
      [
        "พระราชบัญญัติ",
        "กองอาสารักษาดินแดน (ฉบับที่ ๒)",
        "พ.ศ. ๒๕๐๔",
        "",
        "",
        "ภูมิพลอดุลยเดช ป.ร.",
        "ให้ไว้ ณ วันที่ ๒๐ กุมภาพันธ์ พ.ศ. ๒๕๐๔",
        "เป็นปีที่ ๑๖ ในรัชกาลปัจจุบัน"
      ]
    ],
    []
  ],
  "metadata": {
    "date_header": "2504-02-20",
    "date_modified": "2504-02-28",
    "date_original": "2504-02-28",
    "doctype": "พระราชบัญญัติ",
    "editors": [
      {
        "name": "พรพิมล",
        "role": "แก้ไข",
        "date": "2544-08-29"
      },
      {
        "name": "พัชรินทร์",
        "role": "แก้ไข",
        "date": "2547-12-22"
      },
      {
        "name": "วศิน",
        "role": "แก้ไข",
        "date": "2552-03-09"
      },
      {
        "name": "กฤษดายุทธ",
        "role": "ปรับปรุง",
        "date": "2556-11-20"
      },
      {
        "name": "ปณตภร",
        "role": "ตรวจ",
        "date": "2556-11-25"
      }
    ],
    "tag": "a106-20-2504-002",
    "title": "กองอาสารักษาดินแดน (ฉบับที่ ๒)"
  }
}