{
  "pages": [
    [
      [
        "ประกาศคณะกรรมการข้าราชการรัฐสภา",
        "เรื่อง ค่าตอบแทนและสิทธิประโยชน์ของพนักงานราชการ (ฉบับที่ ๕)",
        "พ.ศ. ๒๕๕๔"
      ]
    ],
    []
  ],
  "metadata": {
    "date_backmatter": "2554-05-27",
    "date_modified": "2554-06-17",
    "date_original": "2554-06-17",
    "doctype": "ประกาศ",
    "editors": [
      {
        "name": "ปริยานุช",
        "role": "ผู้จัดทำ",
        "date": "2554-06-29"
      },
      {
        "name": "ณัฐวดี",
        "role": "ตรวจ",
        "date": "2554-06-29"
      },
      {
        "name": "ปณตภร",
        "role": "ปรับปรุง",
        "date": "2555-05-25"
      }
    ],
    "tag": "c353-2e-2554-a0004"
  }
}