{
  "pages": [
    [
      [
        "กฎ ก.ร.",
        "ว่าด้วยการเลื่อนเงินเดือน",
        "พ.ศ. ๒๕๕๕"
      ]
    ],
    []
  ],
  "metadata": {
    "date_backmatter": "2555-07-27",
    "date_modified": "2556-06-13",
    "date_original": "2555-08-10",
    "editors": [
      {
        "name": "เอกฤทธิ์",
        "role": "ผู้จัดทำ",
        "date": "2556-07-02"
      }
    ],
    "tag": "c353-2c-9999-update"
  }
}