{
  "pages": [
    [
      [
        "ประกาศคณะกรรมการข้าราชการรัฐสภา",
        "เรื่อง ค่าตอบแทนและสิทธิประโยชน์ของพนักงานราชการ (ฉบับที่ ๘)",
        "พ.ศ. ๒๕๕๖"
      ]
    ],
    []
  ],
  "metadata": {
    "date_backmatter": "2556-05-28",
    "date_modified": "2556-06-21",
    "date_original": "2556-06-21",
    "doctype": "ประกาศ",
    "editors": [
      {
        "name": "ปริยานุช",
        "role": "ผู้จัดทำ",
        "date": "2556-06-25"
      },
      {
        "name": "อุษมล",
        "role": "ผู้ตรวจ",
        "date": "2556-07-02"
      }
    ],
    "tag": "c353-2e-2556-a0003"
  }
}