{
  "pages": [
    [
      [
        "ประมวลจริยธรรมข้าราชการรัฐสภา",
        "",
        "",
        "คำปรารภ"
      ]
    ],
    []
  ],
  "metadata": {
    "date_backmatter": "2554-02-01",
    "date_modified": "2556-04-11",
    "date_original": "2554-02-26",
    "editors": [
      {
        "name": "ณัฐพร",
        "role": "ผู้จัดทำ",
        "date": "2556-10-16"
      }
    ],
    "tag": "c353-2i-9999-update"
  }
}