{
  "pages": [
    [
      [
        "ระเบียบ ก.ร.",
        "ว่าด้วยการขอยกเว้นให้เข้ารับราชการกรณีมีลักษณะต้องห้ามเป็นข้าราชการรัฐสภาสามัญ",
        "พ.ศ. ๒๕๕๕"
      ]
    ],
    []
  ],
  "metadata": {
    "date_backmatter": "2555-06-29",
    "date_modified": "2555-07-17",
    "date_original": "2555-07-17",
    "editors": [
      {
        "name": "ปริยานุช",
        "role": "ผู้จัดทำ",
        "date": "2555-07-20"
      },
      {
        "name": "ปณตภร",
        "role": "ผู้ตรวจ",
        "date": "2555-07-26"
      }
    ],
    "tag": "c353-2g-2555-a0006"
  }
}