{
  "pages": [
    [
      [
        "ประกาศรัฐสภา",
        "เรื่อง การปรับเงินเดือนขั้นต่ำขั้นสูงของข้าราชการรัฐสภาสามัญ",
        "พ.ศ. ๒๕๕๔"
      ]
    ],
    []
  ],
  "metadata": {
    "date_backmatter": "2554-05-27",
    "date_modified": "2554-06-08",
    "date_original": "2554-06-08",
    "doctype": "ประกาศ",
    "editors": [
      {
        "name": "ปริยานุช",
        "role": "ผู้จัดทำ",
        "date": "2554-06-21"
      },
      {
        "name": "ณัฐวดี",
        "role": "ตรวจ",
        "date": "2554-06-21"
      }
    ],
    "tag": "c353-2e-2554-a0001"
  }
}