{
  "pages": [
    [
      [
        "พระราชบัญญัติ",
        "ระเบียบข้าราชการรัฐสภา",
        "พ.ศ. ๒๕๕๔",
        "",
        "",
        "ภูมิพลอดุลยเดช ป.ร.",
        "ให้ไว้ ณ วันที่ ๓ พฤษภาคม พ.ศ. ๒๕๕๔",
        "เป็นปีที่ ๖๖ ในรัชกาลปัจจุบัน"
      ]
    ],
    []
  ],
  "metadata": {
    "date_header": "2554-05-03",
    "date_modified": "2558-05-21",
    "date_original": "2554-05-11",
    "doctype": "พระราชบัญญัติ",
    "editors": [
      {
        "name": "ปริยานุช",
        "role": "ผู้จัดทำ",
        "date": "2554-05-18"
      },
      {
        "name": "ณัฐวดี",
        "role": "ตรวจ",
        "date": "2554-05-18"
      },
      {
        "name": "วริญา",
        "role": "เพิ่มเติม",
        "date": "2558-05-25"
      },
      {
        "name": "ปัญญา",
        "role": "ตรวจ",
        "date": "2558-05-25"
      }
    ],
    "tag": "c353-20-9999-update",
    "title": "ระเบียบข้าราชการรัฐสภา"
  }
}