{
  "pages": [
    [
      [
        "ประกาศคณะกรรมการข้าราชการฝ่ายรัฐสภา",
        "เรื่อง ค่าตอบแทนและสิทธิประโยชน์ของพนักงานราชการ"
      ]
    ],
    []
  ],
  "metadata": {
    "date_backmatter": "2548-03-16",
    "date_modified": "2557-09-26",
    "date_original": "2548-09-10",
    "doctype": "ประกาศ",
    "editors": [
      {
        "name": "ปณตภร",
        "role": "ผู้จัดทำ",
        "date": "2555-05-25"
      },
      {
        "name": "อุษมล",
        "role": "เพิ่มเติม",
        "date": "2556-07-02"
      },
      {
        "name": "จุฑามาศ",
        "role": "เพิ่มเติม",
        "date": "2557-10-28"
      }
    ],
    "tag": "c353-2e-9998-update"
  }
}