{
  "pages": [
    [
      [
        "ประกาศกระทรวงเกษตรและสหกรณ์",
        "เรื่อง รายงานผลการปฏิบัติงานและงบดุลของสำนักงานกองทุนสงเคราะห์การทำสวนยาง",
        "ประจำปีสงเคราะห์ ๒๕๕๑"
      ]
    ],
    []
  ],
  "metadata": {
    "date_backmatter": "2552-12-03",
    "date_modified": "2553-01-21",
    "date_original": "2553-01-21",
    "doctype": "ประกาศ",
    "editors": [
      {
        "name": "ปริยานุช",
        "role": "ผู้จัดทำ",
        "date": "2553-01-26"
      },
      {
        "name": "นันท์นภัสร์",
        "role": "ตรวจ",
        "date": "2553-01-26"
      }
    ],
    "tag": "a104-2e-2553-a0001"
  }
}