{
  "pages": [
    [
      [
        "ระเบียบกองทุนสงเคราะห์การทำสวนยาง",
        "ว่าด้วยการเบิกจ่ายค่าตอบแทนพิเศษของพนักงานและ",
        "ลูกจ้างผู้ได้รับเงินเดือนหรือค่าจ้างถึงขั้นสูงของระดับหรือตำแหน่ง",
        "พ.ศ. ๒๕๕๒"
      ]
    ],
    []
  ],
  "metadata": {
    "date_backmatter": "2552-11-17",
    "date_modified": "2553-01-11",
    "date_original": "2553-01-11",
    "editors": [
      {
        "name": "ปริยานุช",
        "role": "ผู้จัดทำ",
        "date": "2553-01-20"
      },
      {
        "name": "นันท์นภัสร์",
        "role": "ตรวจ",
        "date": "2553-01-20"
      },
      {
        "name": "จุฑามาศ",
        "role": "ปรับปรุง",
        "date": "2558-07-06"
      }
    ],
    "tag": "a104-2g-2553-a0001"
  }
}