{
  "pages": [
    [
      [
        "ประกาศกระทรวงศึกษาธิการ",
        "เรื่อง กำหนดประเภทและหลักเกณฑ์ของคนพิการทางการศึกษา",
        "พ.ศ. ๒๕๕๒"
      ]
    ],
    []
  ],
  "metadata": {
    "date_backmatter": "2552-05-06",
    "date_modified": "2552-06-08",
    "date_original": "2552-06-08",
    "doctype": "ประกาศ",
    "editors": [
      {
        "name": "ปริยานุช",
        "role": "จัดทำ",
        "date": "2552-06-16"
      },
      {
        "name": "โชติกานต์",
        "role": "ปรับปรุง",
        "date": "2561-08-17"
      }
    ],
    "tag": "a1125-2e-2552-a0001"
  }
}