{
  "pages": [
    [
      [
        "ประกาศสำนักงานคณะกรรมการกิจการโทรคมนาคมแห่งชาติ",
        "เรื่อง เครื่องวิทยุคมนาคมที่ผ่านการทดสอบรับรองตัวอย่าง",
        "(ฉบับที่ ๑๐/๒๕๔๘)"
      ]
    ],
    []
  ],
  "metadata": {
    "date_backmatter": "2548-10-07",
    "date_modified": "2548-11-24",
    "date_original": "2548-11-24",
    "doctype": "ประกาศ",
    "editors": [
      {
        "name": "นันทนา",
        "role": "ผู้จัดทำ",
        "date": "2548-11-28"
      }
    ],
    "tag": "c732-2e-2548-a0011"
  }
}