{
  "pages": [
    [
      [
        "ประกาศสำนักงานคณะกรรมการกิจการโทรคมนาคมแห่งชาติ",
        "เรื่อง เครื่องโทรคมนาคมและอุปกรณ์ที่ผ่านการตรวจสอบและรับรองมาตรฐาน",
        "(ฉบับที่ ๑๑/๒๕๕๓)"
      ]
    ],
    []
  ],
  "metadata": {
    "date_backmatter": "2553-11-25",
    "date_modified": "2554-01-13",
    "date_original": "2554-01-13",
    "doctype": "ประกาศ",
    "editors": [
      {
        "name": "ปริยานุช",
        "role": "ผู้จัดทำ",
        "date": "2554-01-24"
      },
      {
        "name": "ณัฐวดี",
        "role": "ตรวจ",
        "date": "2554-01-24"
      }
    ],
    "tag": "c732-2e-2554-a0011"
  }
}