{
  "pages": [
    [
      [
        "ประกาศกรมไปรษณีย์โทรเลข",
        "เรื่อง การอนุญาตให้ประชาชนใช้เครื่องวิทยุคมนาคม",
        "ประเภทวิทยุบังคับสิ่งประดิษฐ์จำลอง ย่านความถี่วิทยุสูงมาก 72 MHz"
      ]
    ],
    []
  ],
  "metadata": {
    "date_backmatter": "2542-09-27",
    "date_gz_old": "2542-11-03",
    "doctype": "ประกาศ",
    "editors": [
      {
        "name": "อัมพิกา",
        "role": "แก้ไข",
        "date": "2545-05-28"
      }
    ],
    "tag": "c732-2e-2542-a002"
  }
}