{
  "pages": [
    [
      [
        "ระเบียบคณะกรรมการกิจการกระจายเสียง กิจการโทรทัศน์",
        "และกิจการโทรคมนาคมแห่งชาติ",
        "ว่าด้วยการรับตรวจสอบและรับรองมาตรฐานของเครื่องโทรคมนาคมและอุปกรณ์",
        "โดยสำนักงานคณะกรรมการกิจการกระจายเสียง กิจการโทรทัศน์ และกิจการโทรคมนาคมแห่งชาติ"
      ]
    ],
    []
  ],
  "metadata": {
    "date_backmatter": "2559-07-04",
    "date_modified": "2559-08-16",
    "date_original": "2559-08-16",
    "editors": [
      {
        "name": "ปริยานุช",
        "role": "จัดทำ",
        "date": "2559-08-22"
      },
      {
        "name": "ชวัลพร",
        "role": "ตรวจ",
        "date": "2559-08-22"
      }
    ],
    "tag": "c732-2g-2559-a0001"
  }
}