{
  "pages": [
    [
      [
        "ประกาศคณะกรรมการกิจการกระจายเสียง กิจการโทรทัศน์",
        "และกิจการโทรคมนาคมแห่งชาติ",
        "เรื่อง หลักเกณฑ์การอนุญาตให้ใช้เครื่องวิทยุคมนาคมสำหรับกิจการเคลื่อนที่ทางทะเล",
        "ย่านความถี่ ๒๗ เมกะเฮิรตซ์"
      ]
    ],
    []
  ],
  "metadata": {
    "date_backmatter": "2560-08-18",
    "date_modified": "2560-09-18",
    "date_original": "2560-09-18",
    "doctype": "ประกาศ",
    "editors": [
      {
        "name": "พิมพ์มาดา/อัญชลี",
        "role": "จัดทำ",
        "date": "2560-09-20"
      },
      {
        "name": "นุสรา",
        "role": "ตรวจ",
        "date": "2560-09-23"
      }
    ],
    "tag": "c732-2e-2560-a0011"
  }
}