{
  "pages": [
    [
      [
        "กฎกระทรวง",
        "ฉบับที่ ๑๑ (พ.ศ. ๒๕๑๑)",
        "ออกตามความในพระราชบัญญัติวิทยุคมนาคม",
        "พ.ศ. ๒๔๙๘"
      ]
    ],
    []
  ],
  "metadata": {
    "date_backmatter": "2511-12-26",
    "date_gz_old": "2511-12-31",
    "doctype": "กฎกระทรวง",
    "editors": [],
    "tag": "c732-2b-2511-011"
  }
}