{
  "pages": [
    [
      [
        "ประกาศสำนักงานคณะกรรมการกิจการกระจายเสียง กิจการโทรทัศน์",
        "และกิจการโทรคมนาคมแห่งชาติ",
        "เรื่อง การยื่นคำร้องขอเปลี่ยนแปลงประเภทการทดลองประกอบกิจการวิทยุกระจายเสียง"
      ]
    ],
    []
  ],
  "metadata": {
    "date_backmatter": "2559-10-06",
    "date_modified": "2559-11-11",
    "date_original": "2559-11-11",
    "doctype": "ประกาศ",
    "editors": [
      {
        "name": "ปริยานุช",
        "role": "จัดทำ",
        "date": "2559-11-15"
      },
      {
        "name": "ปุณิกา",
        "role": "ตรวจ",
        "date": "2559-11-15"
      }
    ],
    "tag": "c732-2e-2559-a0013"
  }
}