{
  "pages": [
    [
      [
        "ประกาศคณะกรรมการกิจการกระจายเสียง กิจการโทรทัศน์",
        "และกิจการโทรคมนาคมแห่งชาติ",
        "เรื่อง การแต่งตั้งพนักงานเจ้าหน้าที่และการมอบหมายให้ปฏิบัติการแทน",
        "คณะกรรมการกิจการกระจายเสียง กิจการโทรทัศน์ และกิจการโทรคมนาคมแห่งชาติ",
        "ในการกำกับดูแลการประกอบกิจการกระจายเสียงและกิจการโทรทัศน์ (เพิ่มเติม)"
      ]
    ],
    []
  ],
  "metadata": {
    "date_backmatter": "2558-04-24",
    "date_modified": "2558-05-06",
    "date_original": "2558-05-06",
    "doctype": "ประกาศ",
    "editors": [
      {
        "name": "ปริยานุช",
        "role": "ผู้จัดทำ",
        "date": "2558-05-11"
      },
      {
        "name": "วิศนี",
        "role": "ผู้ตรวจ",
        "date": "2558-05-21"
      }
    ],
    "tag": "c732-2e-2558-a0004"
  }
}