{
  "pages": [
    [
      [
        "ประกาศสำนักงานคณะกรรมการกิจการโทรคมนาคมแห่งชาติ",
        "เรื่อง เครื่องโทรคมนาคมและอุปกรณ์ที่ผ่านการตรวจสอบและรับรองมาตรฐาน",
        "(ฉบับที่ ๑๐/๒๕๕๑)"
      ]
    ],
    []
  ],
  "metadata": {
    "date_backmatter": "2551-09-24",
    "date_modified": "2551-12-04",
    "date_original": "2551-12-04",
    "doctype": "ประกาศ",
    "editors": [
      {
        "name": "วัชศักดิ์",
        "role": "ผู้จัดทำ",
        "date": "2551-12-12"
      }
    ],
    "tag": "c732-2e-2551-a0013"
  }
}