{
  "pages": [
    [
      [
        "กฎกระทรวง",
        "ฉบับที่ ๘ (พ.ศ. ๒๕๐๕)",
        "ออกตามความในพระราชบัญญัติวิทยุคมนาคม",
        "พ.ศ. ๒๔๙๘"
      ]
    ],
    []
  ],
  "metadata": {
    "date_backmatter": "2505-11-30",
    "date_gz_old": "2505-12-11",
    "doctype": "กฎกระทรวง",
    "editors": [],
    "tag": "c732-2b-2505-008"
  }
}