{
  "pages": [
    [
      [
        "ประกาศคณะกรรมการกิจการกระจายเสียง กิจการโทรทัศน์",
        "และกิจการโทรคมนาคมแห่งชาติ",
        "เรื่อง มาตรฐานทางเทคนิคของเครื่องโทรคมนาคมและอุปกรณ์",
        "สำหรับเครื่องวิทยุคมนาคมลูกข่าย (Pocket Unit)",
        "ระบบเครื่องวิทยุติดตามตัวเฉพาะกลุ่ม (On-site Paging system)"
      ]
    ],
    []
  ],
  "metadata": {
    "date_backmatter": "2558-02-10",
    "date_modified": "2558-03-09",
    "date_original": "2558-03-09",
    "doctype": "ประกาศ",
    "editors": [
      {
        "name": "ปริยานุช",
        "role": "ผู้จัดทำ",
        "date": "2558-03-13"
      },
      {
        "name": "นุสรา",
        "role": "ผู้ตรวจ",
        "date": "2558-03-25"
      }
    ],
    "tag": "c732-2e-2558-a0002"
  }
}