{
  "pages": [
    [
      [
        "พระราชบัญญัติ",
        "วิทยุคมนาคม",
        "พ.ศ. ๒๔๙๘",
        "",
        "",
        "ภูมิพลอดุลยเดช ป.ร.",
        "ให้ไว้ ณ วันที่ ๒๒ มกราคม พ.ศ. ๒๔๙๘",
        "เป็นปีที่ ๑๐ ในรัชกาลปัจจุบัน"
      ]
    ],
    []
  ],
  "metadata": {
    "date_header": "2498-01-22",
    "date_modified": "2545-10-08",
    "date_original": "2498-02-08",
    "doctype": "พระราชบัญญัติ",
    "editors": [
      {
        "name": "วสุ สรรกำเนิด",
        "role": "ผู้ปรับปรุง",
        "date": "2552-09-11"
      }
    ],
    "tag": "c732-20-9999-update",
    "title": "วิทยุคมนาคม"
  }
}