{
  "pages": [
    [
      [
        "ประกาศกรมไปรษณีย์โทรเลข",
        "เรื่อง การอนุญาตให้ประชาชนทั่วไปใช้เครื่องวิทยุคมนาคมระบบ",
        "โทรศัพท์ไร้สายแบบดิจิตอล (Digital Cordless",
        "Telephone System) ย่านความถี่วิทยุ 1880-1900 MHz"
      ]
    ],
    []
  ],
  "metadata": {
    "date_backmatter": "2539-10-09",
    "doctype": "ประกาศ",
    "editors": [],
    "tag": "c732-2e-2540-001"
  }
}