{
  "pages": [
    [
      [
        "ประกาศกรมไปรษณีย์โทรเลข",
        "เรื่อง การอนุญาตให้ประชาชนทั่วไปใช้เครื่องวิทยุคมนาคม",
        "ย่านความถี่วิทยุ ๒๔๐๐ - ๒๕๐๐ MHz"
      ]
    ],
    []
  ],
  "metadata": {
    "date_backmatter": "2539-09-30",
    "date_gz_old": "2539-10-15",
    "doctype": "ประกาศ",
    "editors": [
      {
        "name": "ฐาปนี",
        "role": "แก้ไข",
        "date": "2545-09-04"
      }
    ],
    "tag": "c732-2e-2539-a006"
  }
}