{
  "pages": [
    [
      [
        "ประกาศสำนักงานคณะกรรมการกิจการกระจายเสียง กิจการโทรทัศน์",
        "และกิจการโทรคมนาคมแห่งชาติ",
        "เรื่อง เครื่องโทรคมนาคมและอุปกรณ์ที่ผ่านการตรวจสอบและรับรองมาตรฐาน",
        "ฉบับที่ (๒/๒๕๖๐)"
      ]
    ],
    []
  ],
  "metadata": {
    "date_backmatter": "2560-08-07",
    "date_modified": "2560-09-21",
    "date_original": "2560-09-21",
    "doctype": "ประกาศ",
    "editors": [
      {
        "name": "พิมพ์มาดา/อัญชลี",
        "role": "จัดทำ",
        "date": "2560-09-25"
      },
      {
        "name": "นุสรา",
        "role": "ตรวจ",
        "date": "2560-09-26"
      }
    ],
    "tag": "c732-2e-2560-a0014"
  }
}