{
  "pages": [
    [
      [
        "ประกาศกรมไปรษณีย์โทรเลข",
        "เรื่อง หลักเกณฑ์การอนุญาตให้ตั้งสถานีวิทยุคมนาคมประเภทสถานี",
        "ทวนสัญญาณ (Repeater) ในกิจการวิทยุสมัครเล่น"
      ]
    ],
    []
  ],
  "metadata": {
    "date_backmatter": "2544-02-23",
    "date_gz_old": "2544-05-01",
    "doctype": "ประกาศ",
    "editors": [
      {
        "name": "ละออง",
        "role": "พิมพ์",
        "date": "2544-07-30"
      }
    ],
    "tag": "c732-2e-2544-a002"
  }
}