{
  "pages": [
    [
      [
        "ประกาศกรมไปรษณีย์โทรเลข",
        "เรื่อง การอนุญาตให้ประชาชนใช้เครื่องวิทยุคมนาคม ตั้งสถานีวิทยุคมนาคม",
        "ย่านความถี่วิทยุสูงมาก ๗๘ MHz (ฉบับที่ ๒) พ.ศ. ๒๕๔๓"
      ]
    ],
    []
  ],
  "metadata": {
    "date_backmatter": "2543-07-27",
    "date_gz_old": "2543-09-21",
    "doctype": "ประกาศ",
    "editors": [
      {
        "name": "ปรียนันท์",
        "role": "แก้ไข"
      },
      {
        "name": "๒๕/๔",
        "role": "๔๕"
      }
    ],
    "tag": "c732-2e-2543-a003"
  }
}