{
  "pages": [
    [
      [
        "ประกาศสำนักงานคณะกรรมการกิจการกระจายเสียง กิจการโทรทัศน์",
        "และกิจการโทรคมนาคมแห่งชาติ",
        "เรื่อง เครื่องโทรคมนาคมและอุปกรณ์ที่ผ่านการตรวจสอบและรับรองมาตรฐาน",
        "(ฉบับที่ ๔/๒๕๕๘)"
      ]
    ],
    []
  ],
  "metadata": {
    "date_backmatter": "2558-09-04",
    "date_modified": "2558-10-22",
    "date_original": "2558-10-22",
    "doctype": "ประกาศ",
    "editors": [
      {
        "name": "ปริยานุช",
        "role": "จัดทำ",
        "date": "2558-10-26"
      },
      {
        "name": "วริญา",
        "role": "ตรวจ",
        "date": "2558-10-26"
      }
    ],
    "tag": "c732-2e-2558-a0009"
  }
}