{
  "pages": [
    [
      [
        "กฎกระทรวง",
        "ฉบับที่ 6 (พ.ศ. 2504)",
        "ออกตามความในพระราชบัญญัติวิทยุคมนาคม",
        "พ.ศ. 2498"
      ]
    ],
    []
  ],
  "metadata": {
    "date_backmatter": "2504-01-20",
    "date_gz_old": "2504-01-23",
    "doctype": "กฎกระทรวง",
    "editors": [],
    "tag": "c732-2b-2504-006"
  }
}