{
  "pages": [
    [
      [
        "ประกาศสำนักงานคณะกรรมการกิจการกระจายเสียง",
        "กิจการโทรทัศน์ และกิจการโทรคมนาคมแห่งชาติ",
        "เรื่อง เครื่องโทรคมนาคมและอุปกรณ์ที่ผ่านการตรวจสอบและรับรองมาตรฐาน",
        "(ฉบับที่ ๖/๒๕๕๔)"
      ]
    ],
    []
  ],
  "metadata": {
    "date_backmatter": "2554-06-15",
    "date_modified": "2554-09-01",
    "date_original": "2554-09-01",
    "doctype": "ประกาศ",
    "editors": [
      {
        "name": "ปริยานุช",
        "role": "ผู้จัดทำ",
        "date": "2554-09-30"
      },
      {
        "name": "ปณตภร",
        "role": "ผู้ตรวจ",
        "date": "2554-10-14"
      }
    ],
    "tag": "c732-2e-2554-a0030"
  }
}