{
  "pages": [
    [
      [
        "ประกาศสำนักงานคณะกรรมการกิจการโทรคมนาคมแห่งชาติ",
        "เรื่อง เครื่องโทรคมนาคมและอุปกรณ์ที่ผ่านการตรวจสอบและรับรองมาตรฐาน",
        "(ฉบับที่ ๑๐/๒๕๕๒)"
      ]
    ],
    []
  ],
  "metadata": {
    "date_backmatter": "2552-11-03",
    "date_modified": "2552-11-19",
    "date_original": "2552-11-19",
    "doctype": "ประกาศ",
    "editors": [
      {
        "name": "ปริยานุช",
        "role": "ผู้จัดทำ",
        "date": "2552-11-24"
      },
      {
        "name": "นันท์นภัสร์",
        "role": "ตรวจ",
        "date": "2552-11-24"
      }
    ],
    "tag": "c732-2e-2552-a0015"
  }
}