{
  "pages": [
    [
      [
        "กฎกระทรวง",
        "ฉบับที่ ๒๒ (พ.ศ. ๒๕๓๕)",
        "ออกตามความในพระราชบัญญัติวิทยุคมนาคม",
        "พ.ศ. ๒๔๙๘"
      ]
    ],
    []
  ],
  "metadata": {
    "date_backmatter": "2535-04-10",
    "date_gz_old": "2535-04-19",
    "doctype": "กฎกระทรวง",
    "editors": [],
    "tag": "c732-2b-2535-022"
  }
}