{
  "pages": [
    [
      [
        "ประกาศสำนักนายกรัฐมนตรี",
        "เรื่อง พระราชทานพระบรมราชานุญาตให้ใช้ตราประจำชาด"
      ]
    ],
    []
  ],
  "metadata": {
    "date_backmatter": "2549-03-07",
    "date_modified": "2549-04-20",
    "date_original": "2549-04-20",
    "doctype": "ประกาศ",
    "editors": [
      {
        "name": "ภิรมย์พร",
        "role": "ผู้จัดทำ",
        "date": "2553-11-10"
      },
      {
        "name": "กวินทราดา",
        "role": "ผู้ตรวจ",
        "date": "2553-11-10"
      }
    ],
    "tag": "a818-2e-2549-a0001"
  }
}