{
  "pages": [
    [
      [
        "พระราชกฤษฎีกา",
        "กำหนดจำนวน ที่ตั้ง เขตศาล และวันเปิดทำการของศาลแรงงานภาค",
        "พ.ศ. ๒๕๔๖",
        "",
        "",
        "ภูมิพลอดุลยเดช ป.ร.",
        "ให้ไว้ ณ วันที่ ๒๒ เมษายน พ.ศ. ๒๕๔๖",
        "เป็นปีที่ ๕๘ ในรัชกาลปัจจุบัน"
      ]
    ],
    []
  ],
  "metadata": {
    "date_header": "2546-04-22",
    "date_modified": "2547-06-24",
    "date_original": "2546-05-01",
    "doctype": "พระราชกฤษฎีกา",
    "editors": [
      {
        "name": "ภิรมย์พร",
        "role": "ผู้จัดทำ",
        "date": "2554-10-29"
      },
      {
        "name": "กวินทราดา",
        "role": "ผู้ตรวจ",
        "date": "2554-01-11"
      }
    ],
    "tag": "a818-2a-2547-a0002",
    "title": "กำหนดจำนวน ที่ตั้ง เขตศาล และวันเปิดทำการของศาลแรงงานภาค"
  }
}