{
  "pages": [
    [
      [
        "พระราชบัญญัติ",
        "เหรียญราชนิยม",
        "พุทธศักราช ๒๔๘๔",
        "",
        "",
        "ในพระปรมาภิไธยสมเด็จพระเจ้าอยู่หัวอานันทมหิดล",
        "คณะผู้สำเร็จราชการแทนพระองค์",
        "(ตามประกาศประธานสภาผู้แทนราษฎร",
        "ลงวันที่ ๔ สิงหาคม พุทธศักราช ๒๔๘๐)",
        "อาทิตย์ทิพอาภา",
        "พล.อ. พิชเยนทร โยธิน",
        "ตราไว้ ณ วันที่ ๒๔ ตุลาคม พุทธศักราช ๒๔๘๔",
        "เป็นปีที่ ๘ ในรัชกาลปัจจุบัน"
      ]
    ],
    []
  ],
  "metadata": {
    "date_header": "2480-08-04",
    "date_modified": "2484-11-12",
    "date_original": "2484-11-12",
    "doctype": "พระราชบัญญัติ",
    "editors": [
      {
        "name": "วิภา",
        "role": "แก้ไข",
        "date": "2556-11-11"
      },
      {
        "name": "วศิน",
        "role": "ตรวจ",
        "date": "2556-11-11"
      }
    ],
    "tag": "cb31-20-2484-a0001",
    "title": "เหรียญราชนิยม"
  }
}