{
  "pages": [
    [
      [
        "พระราชกฤษฎีกา",
        "กำหนดวันเปิดทำการ",
        "ศาลทรัพย์สินทางปัญญา",
        "และการค้าระหว่างประเทศกลาง",
        "พ.ศ. ๒๕๔๐",
        "",
        "",
        "ภูมิพลอดุลยเดช ป.ร.",
        "ให้ไว้ ณ วันที่ ๕ พฤศจิกายน พ.ศ. ๒๕๔๐",
        "เป็นปีที่ ๕๒ ในรัชกาลปัจจุบัน"
      ]
    ],
    []
  ],
  "metadata": {
    "date_header": "2540-11-05",
    "date_modified": "2540-11-11",
    "date_original": "2540-11-11",
    "doctype": "พระราชกฤษฎีกา",
    "editors": [
      {
        "name": "วิชชุตา",
        "role": "ผู้จัดทำ",
        "date": "2554-07-06"
      }
    ],
    "tag": "a824-2a-2540-a0001",
    "title": "กำหนดวันเปิดทำการศาลทรัพย์สินทางปัญญาและการค้าระหว่างประเทศกลาง"
  }
}