{
  "pages": [
    [
      [
        "ประกาศกรมการค้าภายใน",
        "เรื่อง แบบและวิธีการจัดส่งแบบรายงานประจำปี",
        "แสดงข้อมูลสินค้าที่ทำการเก็บรักษาสินค้าเฉพาะแก่บริษัทในเครือ"
      ]
    ],
    []
  ],
  "metadata": {
    "date_backmatter": "2559-04-04",
    "date_modified": "2559-05-04",
    "date_original": "2559-05-04",
    "doctype": "ประกาศ",
    "editors": [
      {
        "name": "ชวัลพร/ปริยานุช",
        "role": "จัดทำ",
        "date": "2559-05-11"
      },
      {
        "name": "นุสรา",
        "role": "ตรวจ",
        "date": "2559-06-16"
      }
    ],
    "tag": "a4121-2e-2559-a0005"
  }
}