{
  "pages": [
    [
      [
        "กฎกระทรวง",
        "กำหนดค่าธรรมเนียมสำหรับการประกอบกิจการคลังสินค้า",
        "กิจการไซโล และกิจการห้องเย็น",
        "พ.ศ. ๒๕๕๙"
      ]
    ],
    []
  ],
  "metadata": {
    "date_backmatter": "2559-11-30",
    "date_modified": "2559-12-21",
    "date_original": "2559-12-21",
    "doctype": "กฎกระทรวง",
    "editors": [
      {
        "name": "ปริยานุช",
        "role": "จัดทำ",
        "date": "2559-12-26"
      },
      {
        "name": "ชวัลพร",
        "role": "ตรวจ",
        "date": "2560-01-17"
      }
    ],
    "tag": "a4121-2b-2559-a0001"
  }
}