{
  "pages": [
    [
      [
        "ระเบียบกระทรวงการคลัง",
        "ว่าด้วยการบริหารกองทุนเพื่อการศึกษา",
        "(ฉบับที่ ๓) พ.ศ. ๒๕๕๐"
      ]
    ],
    []
  ],
  "metadata": {
    "date_backmatter": "2550-10-17",
    "date_modified": "2552-05-01",
    "date_original": "2552-05-01",
    "editors": [
      {
        "name": "ปริยานุช",
        "role": "ผู้จัดทำ",
        "date": "2552-05-06"
      },
      {
        "name": "ก้องเกียรติ",
        "role": "ผู้จัดทำ",
        "date": "2552-06-08"
      },
      {
        "name": "ชุติมา",
        "role": "ปรับปรุง",
        "date": "2561-05-25"
      }
    ],
    "tag": "a701-2g-2552-a0004"
  }
}