{
  "pages": [
    [
      [
        "ข้อบังคับ",
        "ว่าด้วยเงินขายบิล",
        "พ.ศ. ๒๔๙๕"
      ]
    ],
    []
  ],
  "metadata": {
    "date_backmatter": "2495-04-02",
    "date_modified": "2512-08-26",
    "date_original": "2495-04-15",
    "editors": [
      {
        "name": "พรพิมล",
        "role": "พิมพ์",
        "date": "2544-07-24"
      },
      {
        "name": "นันทพล",
        "role": "ปรับปรุง",
        "date": "2549-11-30"
      },
      {
        "name": "ก้องเกียรติ",
        "role": "ผู้จัดทำ",
        "date": "2551-09-18"
      },
      {
        "name": "ชุติมา",
        "role": "ปรับปรุง",
        "date": "2561-05-25"
      }
    ],
    "tag": "a701-2i-2512-003"
  }
}