{
  "pages": [
    [
      [
        "ระเบียบกรมทรัพยากรน้ำบาดาล",
        "ว่าด้วยการจ่ายเงินสินบนรางวัล",
        "และเงินค่าใช้จ่ายจากเงินค่าปรับทางอาญา",
        "พ.ศ. ๒๕๕๐"
      ]
    ],
    []
  ],
  "metadata": {
    "date_backmatter": "2550-08-20",
    "date_modified": "2551-08-25",
    "date_original": "2550-10-19",
    "editors": [
      {
        "name": "ก้องเกียรติ",
        "role": "ผู้จัดทำ",
        "date": "2551-09-18"
      },
      {
        "name": "ชุติมา",
        "role": "ปรับปรุง",
        "date": "2561-05-25"
      }
    ],
    "tag": "a701-2g-9996-update"
  }
}