{
  "pages": [
    [
      [
        "ประกาศกระทรวงการคลัง",
        "เรื่อง การประมูลตั๋วเงินคลังในเดือนตุลาคม พ.ศ. ๒๕๔๙"
      ]
    ],
    []
  ],
  "metadata": {
    "date_backmatter": "2549-10-00",
    "date_header": "2549-10-00",
    "date_modified": "2549-10-06",
    "date_original": "2549-10-06",
    "doctype": "ประกาศ",
    "editors": [
      {
        "name": "ก้องเกียรติ",
        "role": "ผู้จัดทำ",
        "date": "2551-09-30"
      },
      {
        "name": "ชุติมา",
        "role": "ปรับปรุง",
        "date": "2561-05-25"
      }
    ],
    "tag": "a701-2e-2549-a0007"
  }
}