{
  "pages": [
    [
      [
        "ประกาศกระทรวงการคลัง",
        "เรื่อง การประมูลตั๋วเงินคลัง"
      ]
    ],
    []
  ],
  "metadata": {
    "date_backmatter": "2546-03-00",
    "date_modified": "2546-02-28",
    "date_original": "2546-02-28",
    "doctype": "ประกาศ",
    "editors": [
      {
        "name": "เกษร",
        "role": "พิมพ์",
        "date": "2546-05-14"
      },
      {
        "name": "ทรงยศ",
        "role": "สราวุฒิ จัดทำ",
        "date": "2546-05-14"
      },
      {
        "name": "นันทพล",
        "role": "ปรับปรุง",
        "date": "2549-11-29"
      },
      {
        "name": "ก้องเกียรติ",
        "role": "ผู้จัดทำ",
        "date": "2551-09-30"
      },
      {
        "name": "ชุติมา",
        "role": "ปรับปรุง",
        "date": "2561-05-25"
      }
    ],
    "tag": "a701-2e-2546-a0001"
  }
}