{
  "pages": [
    [
      [
        "ประกาศกระทรวงการคลัง",
        "เรื่อง การกำหนดประเภท และอัตราการหักเงินค่าปรับก่อนนำส่งคลัง",
        "(ฉบับที่ ๓)"
      ]
    ],
    []
  ],
  "metadata": {
    "date_backmatter": "2548-03-10",
    "date_modified": "2550-01-29",
    "date_original": "2550-01-29",
    "doctype": "ประกาศ",
    "editors": [
      {
        "name": "ก้องเกียรติ",
        "role": "ผู้จัดทำ",
        "date": "2551-09-30"
      },
      {
        "name": "ชุติมา",
        "role": "ปรับปรุง",
        "date": "2561-05-25"
      }
    ],
    "tag": "a701-2e-2550-a0003"
  }
}