{
  "pages": [
    [
      [
        "ระเบียบกรมสนับสนุนบริการสุขภาพ",
        "ว่าด้วย หลักเกณฑ์ วิธีการ และเงื่อนไขการจ่ายเงินสินบน เงินรางวัล",
        "และค่าใช้จ่ายในการดำเนินงาน พ.ศ. ๒๕๔๙"
      ]
    ],
    []
  ],
  "metadata": {
    "date_backmatter": "2549-09-28",
    "date_modified": "2550-03-08",
    "date_original": "2550-03-08",
    "editors": [
      {
        "name": "ก้องเกียรติ",
        "role": "ผู้จัดทำ",
        "date": "2551-09-16"
      },
      {
        "name": "ชุติมา",
        "role": "ปรับปรุง",
        "date": "2561-05-25"
      }
    ],
    "tag": "a701-2g-2550-a0002"
  }
}