{
  "pages": [
    [
      [
        "ระเบียบกระทรวงการคลัง",
        "ว่าด้วย การบริหารกองทุนเพื่อการศึกษา",
        "(ฉบับที่ ๖) พ.ศ. ๒๕๕๕"
      ]
    ],
    []
  ],
  "metadata": {
    "date_backmatter": "2555-06-08",
    "date_modified": "2555-07-31",
    "date_original": "2555-07-31",
    "editors": [
      {
        "name": "ปริยานุช",
        "role": "ผู้จัดทำ",
        "date": "2555-08-07"
      },
      {
        "name": "ชาญ",
        "role": "ผู้ตรวจ",
        "date": "2555-08-14"
      }
    ],
    "tag": "a701-2g-2555-a0002"
  }
}