{
  "pages": [
    [
      [
        "ประกาศคณะกรรมการกองทุนเพื่อการศึกษา",
        "เรื่อง กำหนดหลักสูตร/ประเภทวิชา และสาขาวิชาที่เป็นความต้องการหลัก",
        "และมีความชัดเจนของการผลิตกำลังคนสำหรับนิสิต หรือนักศึกษาที่เข้าร่วมโครงการ",
        "ปีการศึกษา ๒๕๕๖",
        "พ.ศ. ๒๕๕๖"
      ]
    ],
    []
  ],
  "metadata": {
    "date_backmatter": "2556-09-11",
    "date_modified": "2556-12-27",
    "date_original": "2556-12-27",
    "doctype": "ประกาศ",
    "editors": [
      {
        "name": "ปริยานุช",
        "role": "ผู้จัดทำ",
        "date": "2557-01-07"
      },
      {
        "name": "โชติกานต์",
        "role": "ผู้ตรวจ",
        "date": "2557-01-07"
      }
    ],
    "tag": "a701-2e-2556-a0005"
  }
}