{
  "pages": [
    [
      [
        "ข้อบังคับ",
        "ว่าด้วยเงินขายบิล",
        "(ฉบับที่ ๔)",
        "พ.ศ. ๒๕๔๒"
      ]
    ],
    []
  ],
  "metadata": {
    "date_backmatter": "2542-11-03",
    "date_modified": "2542-11-15",
    "date_original": "2542-11-15",
    "editors": [
      {
        "name": "พรพิมล/พิมพ์",
        "role": "แก้ไข",
        "date": "2545-05-24"
      },
      {
        "name": "นันทพล",
        "role": "ปรับปรุง",
        "date": "2549-11-30"
      },
      {
        "name": "ก้องเกียรติ",
        "role": "ผู้จัดทำ",
        "date": "2551-09-18"
      },
      {
        "name": "ชุติมา",
        "role": "ปรับปรุง",
        "date": "2561-05-25"
      }
    ],
    "tag": "a701-2i-2542-a0001"
  }
}