{
  "pages": [
    [
      [
        "ระเบียบท่าเรือแหลมฉบัง",
        "ว่าด้วยการออกบัตรอนุญาตผ่านเข้าออกในเขตศุลกากรท่าเรือแหลมฉบัง",
        "พ.ศ. ๒๕๔๖"
      ]
    ],
    []
  ],
  "metadata": {
    "date_backmatter": "2546-08-20",
    "date_modified": "2546-10-15",
    "date_original": "2546-10-15",
    "editors": [
      {
        "name": "มยุรี",
        "role": "พิมพ์",
        "date": "2547-02-26"
      },
      {
        "name": "สุมลรัตน์/ศุภสรณ์",
        "role": "ตรวจ",
        "date": "2547-04-12"
      },
      {
        "name": "ปิยะธิดา",
        "role": "ปรับปรุง",
        "date": "2560-11-13"
      }
    ],
    "tag": "a120-2g-2546-a0004"
  }
}