{
  "pages": [
    [
      [
        "ประกาศการท่าเรือแห่งประเทศไทย",
        "เรื่อง การขนส่งสินค้าในวันหยุดเนื่องในเทศกาลสงกรานต์"
      ]
    ],
    []
  ],
  "metadata": {
    "date_backmatter": "2551-03-04",
    "date_modified": "2551-04-04",
    "date_original": "2551-04-04",
    "doctype": "ประกาศ",
    "editors": [
      {
        "name": "ปริยานุช",
        "role": "ผู้จัดทำ",
        "date": "2551-04-10"
      },
      {
        "name": "ปิยะธิดา",
        "role": "ปรับปรุง",
        "date": "2560-11-03"
      }
    ],
    "tag": "a120-2e-2551-a0003"
  }
}