{
  "pages": [
    [
      [
        "ประกาศการท่าเรือแห่งประเทศไทย",
        "เรื่อง ชะลอการวางหลักประกันความเสียหายตามระเบียบการท่าเรือแห่งประเทศไทย",
        "ว่าด้วยการขอบัตรอนุญาตขนส่งของและภาชนะขนส่งขาเข้าออกจากท่าเรือกรุงเทพ",
        "พ.ศ. ๒๕๕๑"
      ]
    ],
    []
  ],
  "metadata": {
    "date_backmatter": "2551-06-27",
    "date_modified": "2551-07-16",
    "date_original": "2551-07-16",
    "doctype": "ประกาศ",
    "editors": [
      {
        "name": "วัชศักดิ์",
        "role": "ผู้จัดทำ",
        "date": "2551-07-21"
      },
      {
        "name": "ปิยะธิดา",
        "role": "ปรับปรุง",
        "date": "2560-11-06"
      }
    ],
    "tag": "a120-2e-2551-a0007"
  }
}