{
  "pages": [
    [
      [
        "ระเบียบการท่าเรือแห่งประเทศไทย",
        "ว่าด้วยการออกบัตรอนุญาตผ่านเข้าออกเขตศุลกากร (ฉบับที่ ๓) พ.ศ. ๒๕๕๙"
      ]
    ],
    []
  ],
  "metadata": {
    "date_backmatter": "2559-10-25",
    "date_modified": "2559-12-01",
    "date_original": "2559-12-01",
    "editors": [
      {
        "name": "วิศนี/ปริยานุช",
        "role": "จัดทำ",
        "date": "2559-12-08"
      },
      {
        "name": "ปริญสินีย์",
        "role": "ตรวจ",
        "date": "2559-12-30"
      }
    ],
    "tag": "a120-2g-2559-a0014"
  }
}