{
  "pages": [
    [
      [
        "ประกาศการท่าเรือแห่งประเทศไทย",
        "เรื่อง การหยุดให้บริการเนื่องในเทศกาลสงกรานต์"
      ]
    ],
    []
  ],
  "metadata": {
    "date_backmatter": "2552-03-25",
    "date_modified": "2552-04-22",
    "date_original": "2552-04-22",
    "doctype": "ประกาศ",
    "editors": [
      {
        "name": "ปริยานุช",
        "role": "ผู้จัดทำ",
        "date": "2552-05-20"
      },
      {
        "name": "ปิยะธิดา",
        "role": "ปรับปรุง",
        "date": "2560-11-06"
      }
    ],
    "tag": "a120-2e-2552-a0014"
  }
}