{
  "pages": [
    [
      [
        "ประกาศการท่าเรือแห่งประเทศไทย",
        "เรื่อง การปิดท่า 20 F เพื่อติดตั้งปั้นจั่นยกตู้สินค้าหน้าท่าชนิดเดินบนราง",
        "(Rail Mounted Shore side Gantry Crane)"
      ]
    ],
    []
  ],
  "metadata": {
    "date_backmatter": "2551-02-04",
    "date_modified": "2551-03-06",
    "date_original": "2551-03-06",
    "doctype": "ประกาศ",
    "editors": [
      {
        "name": "ปริยานุช",
        "role": "ผู้จัดทำ",
        "date": "2551-03-12"
      },
      {
        "name": "ปิยะธิดา",
        "role": "ปรับปรุง",
        "date": "2560-11-03"
      }
    ],
    "tag": "a120-2e-2551-a0002"
  }
}