{
  "pages": [
    [
      [
        "ประกาศการท่าเรือแห่งประเทศไทย",
        "เรื่อง การเก็บค่าภาระและค่าธรรมเนียมการเคลื่อนย้ายตู้สินค้าขึ้นหรือลงรถไฟ"
      ]
    ],
    []
  ],
  "metadata": {
    "date_backmatter": "2558-03-30",
    "date_modified": "2558-05-28",
    "date_original": "2558-05-28",
    "doctype": "ประกาศ",
    "editors": [
      {
        "name": "ปริยานุช",
        "role": "ผู้จัดทำ",
        "date": "2558-06-03"
      },
      {
        "name": "ปริญสินีย์",
        "role": "ผู้ตรวจ",
        "date": "2558-06-03"
      }
    ],
    "tag": "a120-2e-2558-a0006"
  }
}