{
  "pages": [
    [
      [
        "ระเบียบการท่าเรือแห่งประเทศไทย",
        "ว่าด้วยเครื่องแบบของพนักงาน",
        "พ.ศ. ๒๕๕๔"
      ]
    ],
    []
  ],
  "metadata": {
    "date_backmatter": "2554-08-31",
    "date_modified": "2554-11-16",
    "date_original": "2554-11-16",
    "editors": [
      {
        "name": "ปริยานุช",
        "role": "ผู้จัดทำ",
        "date": "2554-11-22"
      },
      {
        "name": "ชาญ",
        "role": "ผู้ตรวจ",
        "date": "2554-11-25"
      }
    ],
    "tag": "a120-2g-2554-a0005"
  }
}