{
  "pages": [
    [
      [
        "ระเบียบการท่าเรือแห่งประเทศไทย",
        "ว่าด้วยการกำหนดขั้นตอนและระยะเวลาการปฏิบัติงานเพื่อประชาชน",
        "ในการให้บริการเกี่ยวกับที่ดินและอาคาร พ.ศ. ๒๕๓๖"
      ]
    ],
    []
  ],
  "metadata": {
    "date_backmatter": "2537-07-27",
    "date_modified": "2537-07-21",
    "date_original": "2537-07-21",
    "editors": [
      {
        "name": "ปิยะธิดา",
        "role": "ปรับปรุง",
        "date": "2560-11-08"
      }
    ],
    "tag": "a120-2g-2537-003"
  }
}