{
  "pages": [
    [
      [
        "ประกาศการท่าเรือแห่งประเทศไทย",
        "เรื่อง การให้บริการในวันหยุดตามมติคณะรัฐมนตรี"
      ]
    ],
    []
  ],
  "metadata": {
    "date_backmatter": "2551-12-19",
    "date_modified": "2552-01-28",
    "date_original": "2552-01-28",
    "doctype": "ประกาศ",
    "editors": [
      {
        "name": "วัชศักดิ์",
        "role": "ผู้จัดทำ",
        "date": "2552-02-05"
      },
      {
        "name": "ปิยะธิดา",
        "role": "ปรับปรุง",
        "date": "2560-11-06"
      }
    ],
    "tag": "a120-2e-2552-a0006"
  }
}