{
  "pages": [
    [
      [
        "ประกาศการท่าเรือแห่งประเทศไทย",
        "เรื่อง กำหนดอัตราค่าธรรมเนียมการขอเช่าโทรศัพท์ของการท่าเรือแห่งประเทศไทย"
      ]
    ],
    []
  ],
  "metadata": {
    "date_backmatter": "2549-09-21",
    "date_modified": "2549-11-08",
    "date_original": "2549-11-08",
    "doctype": "ประกาศ",
    "editors": [
      {
        "name": "วัชศักดิ์",
        "role": "ผู้จัดทำ",
        "date": "2549-11-16"
      },
      {
        "name": "ปิยะธิดา",
        "role": "ปรับปรุง",
        "date": "2560-11-03"
      }
    ],
    "tag": "a120-2e-2549-a0002"
  }
}