{
  "pages": [
    [
      [
        "ประกาศการท่าเรือแห่งประเทศไทย",
        "เรื่อง การดำเนินการตามพระราชบัญญัติข้อมูลข่าวสารของราชการ พ.ศ. ๒๕๔๐",
        "เกี่ยวกับการจัดระบบข้อมูลข่าวสารส่วนบุคคลของการท่าเรือแห่งประเทศไทย"
      ]
    ],
    []
  ],
  "metadata": {
    "date_backmatter": "2553-09-30",
    "date_modified": "2553-11-30",
    "date_original": "2553-11-30",
    "doctype": "ประกาศ",
    "editors": [
      {
        "name": "ปริยานุช",
        "role": "ผู้จัดทำ",
        "date": "2553-12-13"
      },
      {
        "name": "ณัฐวดี",
        "role": "ตรวจ",
        "date": "2553-12-13"
      }
    ],
    "tag": "a120-2e-2553-a0016"
  }
}