{
  "pages": [
    [
      [
        "ประกาศการท่าเรือแห่งประเทศไทย",
        "เรื่อง ค่าบริการพิเศษในการจัดเรียงสินค้า ณ แผนกโรงพักสินค้า ๑๔",
        "(สินค้าเพื่อการส่งออก)"
      ]
    ],
    []
  ],
  "metadata": {
    "date_backmatter": "2549-10-13",
    "date_modified": "2549-11-27",
    "date_original": "2549-11-27",
    "doctype": "ประกาศ",
    "editors": [
      {
        "name": "โสรศ",
        "role": "ผู้จัดทำ",
        "date": "2549-12-07"
      },
      {
        "name": "ปิยะธิดา",
        "role": "ปรับปรุง",
        "date": "2560-11-03"
      }
    ],
    "tag": "a120-2e-2549-a0004"
  }
}