{
  "pages": [
    [
      [
        "ระเบียบการท่าเรือแห่งประเทศไทย",
        "ว่าด้วยวิธีปฏิบัติในการใช้ท่าเรือ บริการ และความสะดวกต่าง ๆ",
        "ของท่าเรือพาณิชย์เชียงแสน และของท่าเรือเชียงของ พ.ศ. ๒๕๕๘"
      ]
    ],
    []
  ],
  "metadata": {
    "date_backmatter": "2558-03-03",
    "date_modified": "2558-04-16",
    "date_original": "2558-04-16",
    "editors": [
      {
        "name": "ปริยานุช",
        "role": "ผู้จัดทำ",
        "date": "2558-04-17"
      },
      {
        "name": "วริญา",
        "role": "ผู้ตรวจ",
        "date": "2558-04-21"
      }
    ],
    "tag": "a120-2g-2558-a0003"
  }
}