{
  "pages": [
    [
      [
        "พระราชกฤษฎีกา",
        "กำหนดอาณาบริเวณของการท่าเรือแห่งประเทศไทย",
        "ณ ท่าเรือกรุงเทพฯ",
        "พ.ศ. ๒๔๙๙",
        "",
        "",
        "ภูมิพลอดุลยเดช ป.ร.",
        "ให้ไว้ ณ วันที่ ๑ ธันวาคม พ.ศ. ๒๔๙๙",
        "เป็นปีที่ ๑๑ ในรัชกาลปัจจุบัน"
      ]
    ],
    []
  ],
  "metadata": {
    "date_header": "2499-12-01",
    "date_modified": "2499-12-04",
    "date_original": "2499-12-04",
    "doctype": "พระราชกฤษฎีกา",
    "editors": [
      {
        "name": "ปิยะธิดา",
        "role": "ปรับปรุง",
        "date": "2560-10-10"
      }
    ],
    "tag": "a120-2a-2499-001",
    "title": "กำหนดอาณาบริเวณของการท่าเรือแห่งประเทศไทยณ ท่าเรือกรุงเทพฯ"
  }
}