{
  "pages": [
    [
      [
        "ระเบียบการท่าเรือแห่งประเทศไทย",
        "ว่าด้วยวิธีปฏิบัติในการใช้ท่าเรือ บริการ และความสะดวกต่าง ๆ (ฉบับที่ ๑๓)",
        "พ.ศ. ๒๕๕๙"
      ]
    ],
    []
  ],
  "metadata": {
    "date_backmatter": "2559-09-14",
    "date_modified": "2560-11-16",
    "date_original": "2560-11-16",
    "editors": [
      {
        "name": "พรวิภา/อัญชลี",
        "role": "จัดทำ",
        "date": "2560-11-21"
      },
      {
        "name": "นุสรา",
        "role": "ตรวจ",
        "date": "2561-08-31"
      }
    ],
    "tag": "a120-2g-2560-a0004"
  }
}