{
  "pages": [
    [
      [
        "ระเบียบการท่าเรือแห่งประเทศไทย",
        "ว่าด้วยวิธีปฏิบัติในการรับเรื่องราวร้องทุกข์ของผู้ใช้บริการการท่าเรือแห่งประเทศไทย",
        "พ.ศ. ๒๕๕๔"
      ]
    ],
    []
  ],
  "metadata": {
    "date_backmatter": "2554-09-15",
    "date_modified": "2554-10-12",
    "date_original": "2554-10-12",
    "editors": [
      {
        "name": "ปริยานุช",
        "role": "ผู้จัดทำ",
        "date": "2554-10-20"
      },
      {
        "name": "ปณตภร",
        "role": "ผู้ตรวจ",
        "date": "2554-10-26"
      }
    ],
    "tag": "a120-2g-2554-a0004"
  }
}