{
  "pages": [
    [
      [
        "ระเบียบการท่าเรือแห่งประเทศไทย",
        "ว่าด้วยวิธีปฏิบัติในการรับฝากและส่งมอบสินค้า",
        "ในคลังสินค้าทัณฑ์บน (ฉบับที่ ๒)",
        "พ.ศ. ๒๕๔๕"
      ]
    ],
    []
  ],
  "metadata": {
    "date_backmatter": "2545-06-07",
    "date_modified": "2545-10-17",
    "date_original": "2545-10-17",
    "editors": [
      {
        "name": "พุทธชาด",
        "role": "แก้ไข",
        "date": "2545-12-18"
      },
      {
        "name": "ปิยะธิดา",
        "role": "ปรับปรุง",
        "date": "2560-11-10"
      }
    ],
    "tag": "a120-2g-2545-a005"
  }
}