{
  "pages": [
    [
      [
        "ประกาศการท่าเรือแห่งประเทศไทย",
        "เรื่อง การนำสินค้า หรือตู้สินค้าขาเข้าออกจากท่าเรือกรุงเทพ"
      ]
    ],
    []
  ],
  "metadata": {
    "date_backmatter": "2559-01-26",
    "date_modified": "2559-03-10",
    "date_original": "2559-03-10",
    "doctype": "ประกาศ",
    "editors": [
      {
        "name": "ปุณิกา/ปริยานุช",
        "role": "จัดทำ",
        "date": "2559-03-14"
      },
      {
        "name": "นุสรา",
        "role": "ตรวจ",
        "date": "2559-05-10"
      }
    ],
    "tag": "a120-2e-2559-a0003"
  }
}