{
  "pages": [
    [
      [
        "พระราชกฤษฎีกา",
        "จัดตั้งสำนักงานปฏิรูปการศึกษา",
        "พ.ศ. ๒๕๔๒",
        "",
        "",
        "ภูมิพลอดุลยเดช ป.ร.",
        "ให้ไว้ ณ วันที่ ๑๘ พฤศจิกายน พ.ศ. ๒๕๔๒",
        "เป็นปีที่ ๕๔ ในรัชกาลปัจจุบัน"
      ]
    ],
    []
  ],
  "metadata": {
    "date_header": "2542-11-18",
    "date_modified": "2542-11-25",
    "date_original": "2542-11-25",
    "doctype": "พระราชกฤษฎีกา",
    "editors": [
      {
        "name": "ดลธี",
        "role": "ผู้จัดทำ",
        "date": "2552-02-11"
      },
      {
        "name": "พัชรินทร์",
        "role": "ตรวจ",
        "date": "2552-02-11"
      },
      {
        "name": "วิมล",
        "role": "ปรับปรุง",
        "date": "2559-04-29"
      },
      {
        "name": "ภัทรวีร์",
        "role": "ปรับปรุง",
        "date": "2560-08-31"
      }
    ],
    "tag": "a198-2a-2542-a0001",
    "title": "จัดตั้งสำนักงานปฏิรูปการศึกษา"
  }
}