{
  "pages": [
    [
      [
        "ประกาศกระทรวงศึกษาธิการ",
        "เรื่อง แบบหลักฐานระเบียนแสดงผลการประเมินเทียบระดับการศึกษานอกระบบ",
        "และการศึกษาตามอัธยาศัย ระดับการศึกษาขั้นพื้นฐาน และแบบรายงาน",
        "ผู้ผ่านการประเมินเทียบระดับการศึกษานอกระบบและการศึกษาตามอัธยาศัย",
        "ระดับการศึกษาขั้นพื้นฐาน"
      ]
    ],
    []
  ],
  "metadata": {
    "date_backmatter": "2554-08-03",
    "date_modified": "2554-09-09",
    "date_original": "2554-09-09",
    "doctype": "ประกาศ",
    "editors": [
      {
        "name": "ปริยานุช",
        "role": "ผู้จัดทำ",
        "date": "2554-09-27"
      },
      {
        "name": "ปณตภร",
        "role": "ผู้ตรวจ",
        "date": "2554-10-12"
      }
    ],
    "tag": "a198-2e-2554-a0005"
  }
}