{
  "pages": [
    [
      [
        "ประกาศกระทรวงศึกษาธิการ",
        "เรื่อง มาตรฐานสถาบันอุดมศึกษา",
        "พ.ศ. ๒๕๕๔"
      ]
    ],
    []
  ],
  "metadata": {
    "date_backmatter": "2554-02-24",
    "date_modified": "2554-04-24",
    "date_original": "2554-04-24",
    "doctype": "ประกาศ",
    "editors": [
      {
        "name": "ปริยานุช",
        "role": "ผู้จัดทำ",
        "date": "2554-05-10"
      },
      {
        "name": "ณัฐวดี",
        "role": "ตรวจ",
        "date": "2554-05-10"
      }
    ],
    "tag": "a198-2e-2554-a0001"
  }
}