{
  "pages": [
    [
      [
        "ประกาศกระทรวงศึกษาธิการ",
        "เรื่อง วิธีการและเงื่อนไขการแสดงถึงความสมัครใจให้โอนสถานศึกษาขั้นพื้นฐาน",
        "ไปสังกัดองค์กรปกครองส่วนท้องถิ่น",
        "พ.ศ. ๒๕๔๙"
      ]
    ],
    []
  ],
  "metadata": {
    "date_backmatter": "2549-01-13",
    "date_modified": "2549-01-19",
    "date_original": "2549-01-19",
    "doctype": "ประกาศ",
    "editors": [
      {
        "name": "ดลธี",
        "role": "ผู้จัดทำ",
        "date": "2552-02-11"
      },
      {
        "name": "พัชรินทร์",
        "role": "ตรวจ",
        "date": "2552-02-11"
      },
      {
        "name": "วิมล",
        "role": "ปรับปรุง",
        "date": "2559-05-16"
      },
      {
        "name": "ภัทรวีร์",
        "role": "ปรับปรุง",
        "date": "2560-08-31"
      }
    ],
    "tag": "a198-2e-2549-a0001"
  }
}