{
  "pages": [
    [
      [
        "ระเบียบกระทรวงศึกษาธิการ",
        "ว่าด้วยสถาบันศึกษาปอเนาะ",
        "(ฉบับที่ ๒) พ.ศ. ๒๕๔๘"
      ]
    ],
    []
  ],
  "metadata": {
    "date_backmatter": "2548-09-07",
    "date_modified": "2548-10-21",
    "date_original": "2548-10-21",
    "editors": [
      {
        "name": "ดลธี",
        "role": "ผู้จัดทำ",
        "date": "2552-02-11"
      },
      {
        "name": "พัชรินทร์",
        "role": "ตรวจ",
        "date": "2552-02-11"
      },
      {
        "name": "ภัทรวีร์",
        "role": "ปรับปรุง",
        "date": "2560-08-31"
      }
    ],
    "tag": "a198-2g-2548-a0002"
  }
}