{
  "pages": [
    [
      [
        "ประกาศกระทรวงศึกษาธิการ",
        "เรื่อง ปรับปรุงแก้ไขการกำหนดเขตพื้นที่การศึกษา และกำหนดเขตพื้นที่การศึกษาเพิ่มเติม",
        "พ.ศ. ๒๕๕๑"
      ]
    ],
    []
  ],
  "metadata": {
    "date_backmatter": "2551-01-18",
    "date_modified": "2551-02-04",
    "date_original": "2551-02-04",
    "doctype": "ประกาศ",
    "editors": [
      {
        "name": "ดลธี",
        "role": "ผู้จัดทำ",
        "date": "2552-02-11"
      },
      {
        "name": "พัชรินทร์",
        "role": "ตรวจ",
        "date": "2552-02-11"
      },
      {
        "name": "วิมล",
        "role": "ปรับปรุง",
        "date": "2559-05-16"
      }
    ],
    "tag": "a198-2e-2551-a0001"
  }
}