{
  "pages": [
    [
      [
        "ประกาศกระทรวงศึกษาธิการ",
        "เรื่อง การเปลี่ยนชื่อศูนย์การศึกษาพิเศษ ประจำจังหวัดนครนายก"
      ]
    ],
    []
  ],
  "metadata": {
    "date_backmatter": "2556-03-04",
    "date_modified": "2556-04-18",
    "date_original": "2556-04-18",
    "doctype": "ประกาศ",
    "editors": [
      {
        "name": "ปริยานุช",
        "role": "ผู้จัดทำ",
        "date": "2556-04-23"
      },
      {
        "name": "โชติกานต์",
        "role": "ผู้ตรวจ",
        "date": "2556-05-15"
      }
    ],
    "tag": "a198-2e-2556-a0003"
  }
}