{
  "pages": [
    [
      [
        "พระราชบัญญัติ",
        "การศึกษาแห่งชาติ (ฉบับที่ ๒)",
        "พ.ศ. ๒๕๔๕",
        "",
        "",
        "ภูมิพลอดุลยเดช ป.ร.",
        "ให้ไว้ ณ วันที่ ๘ ธันวาคม พ.ศ. ๒๕๔๕",
        "เป็นปีที่ ๕๗ ในรัชกาลปัจจุบัน"
      ]
    ],
    []
  ],
  "metadata": {
    "date_header": "2545-12-08",
    "date_modified": "2545-12-19",
    "date_original": "2545-12-19",
    "doctype": "พระราชบัญญัติ",
    "editors": [
      {
        "name": "เพ็ญพร/พิมพ์",
        "role": "แก้ไข",
        "date": "2546-02-19"
      },
      {
        "name": "วศิน",
        "role": "แก้ไข",
        "date": "2552-05-07"
      },
      {
        "name": "ณัฐพร",
        "role": "ปรับปรุง",
        "date": "2556-05-27"
      },
      {
        "name": "พลัฐวัษ",
        "role": "ตรวจ",
        "date": "2556-05-27"
      },
      {
        "name": "ปริญสินีย์",
        "role": "ปรับปรุง",
        "date": "2560-08-17"
      },
      {
        "name": "ภัทรวีร์",
        "role": "ปรับปรุง",
        "date": "2560-08-31"
      }
    ],
    "tag": "a198-20-2545-a0002",
    "title": "การศึกษาแห่งชาติ (ฉบับที่ ๒)"
  }
}