{
  "pages": [
    [
      [
        "ประกาศกระทรวงศึกษาธิการ",
        "เรื่อง การกำหนดเขตพื้นที่การศึกษามัธยมศึกษา"
      ]
    ],
    []
  ],
  "metadata": {
    "date_backmatter": "2553-08-17",
    "date_modified": "2553-08-18",
    "date_original": "2553-08-18",
    "doctype": "ประกาศ",
    "editors": [
      {
        "name": "ปริยานุช",
        "role": "ผู้จัดทำ",
        "date": "2553-08-23"
      },
      {
        "name": "นันทนภัสร์",
        "role": "ตรวจ",
        "date": "2553-08-23"
      },
      {
        "name": "วิมล",
        "role": "ปรับปรุง",
        "date": "2559-05-17"
      }
    ],
    "tag": "a198-2e-2553-a0003"
  }
}