{
  "pages": [
    [
      [
        "ระเบียบกระทรวงศึกษาธิการ",
        "ว่าด้วยการแก้วัน เดือน ปีเกิด ของนักเรียนและนักศึกษา",
        "พ.ศ. ๒๕๔๗"
      ]
    ],
    []
  ],
  "metadata": {
    "date_backmatter": "2547-09-30",
    "date_modified": "2547-11-17",
    "date_original": "2547-11-17",
    "editors": [
      {
        "name": "ดลธี",
        "role": "ผู้จัดทำ",
        "date": "2552-02-11"
      },
      {
        "name": "พัชรินทร์",
        "role": "ตรวจ",
        "date": "2552-02-11"
      },
      {
        "name": "วิมล",
        "role": "ปรับปรุง",
        "date": "2559-05-19"
      }
    ],
    "tag": "a198-2g-2547-a0002"
  }
}