{
  "pages": [
    [
      [
        "พระราชบัญญัติ",
        "ป้องกันและปราบปรามยาเสพติด",
        "พ.ศ. ๒๕๑๙",
        "",
        "",
        "ภูมิพลอดุลยเดช ป.ร.",
        "ให้ไว้ ณ วันที่ ๑๖ พฤศจิกายน พ.ศ. ๒๕๑๙",
        "เป็นปีที่ ๓๑ ในรัชกาลปัจจุบัน"
      ]
    ],
    []
  ],
  "metadata": {
    "date_header": "2519-11-16",
    "date_modified": "2534-09-27",
    "date_original": "2519-11-17",
    "doctype": "พระราชบัญญัติ",
    "editors": [
      {
        "name": "ปรียนันท์",
        "role": "แก้ไข",
        "date": "2545-02-27"
      },
      {
        "name": "ปัญญา",
        "role": "ตรวจ",
        "date": "2552-07-29"
      },
      {
        "name": "โชติกานต์",
        "role": "ปรับปรุง",
        "date": "2560-06-09"
      }
    ],
    "tag": "bb23-20-2541-a0001",
    "title": "ป้องกันและปราบปรามยาเสพติด"
  }
}