{
  "pages": [
    [
      [
        "ระเบียบคณะกรรมการป้องกัน",
        "และปราบปรามยาเสพติด",
        "ว่าด้วยการแต่งตั้ง การปฏิบัติหน้าที่และการกำกับดูแล",
        "การปฏิบัติหน้าที่ของเจ้าพนักงาน ป.ป.ส. พ.ศ. ๒๕๔๕"
      ]
    ],
    []
  ],
  "metadata": {
    "date_backmatter": "2545-12-27",
    "date_modified": "2558-03-09",
    "date_original": "2546-01-29",
    "editors": [
      {
        "name": "ณัฐดนัย",
        "role": "พิมพ์",
        "date": "2551-10-24"
      },
      {
        "name": "รัศม์วรรณวลัย",
        "role": "ตรวจ",
        "date": "2551-10-29"
      },
      {
        "name": null,
        "role": null,
        "date": "2552-02-02"
      },
      {
        "name": "วริษา",
        "role": "เพิ่มเติม",
        "date": "2558-03-26"
      },
      {
        "name": "นุสรา",
        "role": "ผู้ตรวจ",
        "date": "2558-06-15"
      }
    ],
    "tag": "bb23-2g-2558-a0003"
  }
}