{
  "pages": [
    [
      [
        "ประกาศคณะกรรมการป้องกัน",
        "และปราบปรามยาเสพติด",
        "เรื่อง กำหนดหลักเกณฑ์ วิธีการและเงื่อนไขการตรวจ",
        "หรือทดสอบว่าบุคคลหรือกลุ่มบุคคลใด",
        "มีสารเสพติดอยู่ในร่างกายหรือไม่"
      ]
    ],
    []
  ],
  "metadata": {
    "date_backmatter": "2543-07-11",
    "date_modified": "2543-08-04",
    "date_original": "2543-08-04",
    "doctype": "ประกาศ",
    "editors": [
      {
        "name": "อัมพิกา",
        "role": "ปรับปรุง",
        "date": "2545-04-23"
      },
      {
        "name": "วงศ์ชนก",
        "role": "ปรับปรุง",
        "date": "2552-01-20"
      },
      {
        "name": "รัศม์วรรณวลัย",
        "role": "ตรวจ",
        "date": "2552-02-04"
      },
      {
        "name": "โชติกานต์",
        "role": "ปรับปรุง",
        "date": "2560-06-15"
      }
    ],
    "tag": "bb23-2e-2543-a002"
  }
}