{
  "pages": [
    [
      [
        "คำสั่งคณะกรรมการป้องกันและปราบปรามยาเสพติด",
        "ที่ ๑๓/๒๕๕๔",
        "เรื่อง กำหนดสถานตรวจพิสูจน์ (เพิ่มเติม)"
      ]
    ],
    []
  ],
  "metadata": {
    "date_backmatter": "2554-12-30",
    "date_modified": "2555-01-20",
    "date_original": "2555-01-20",
    "editors": [
      {
        "name": "ปริยานุช",
        "role": "ผู้จัดทำ",
        "date": "2555-01-30"
      },
      {
        "name": "ณัฐพร",
        "role": "ผู้ตรวจ",
        "date": "2555-01-30"
      }
    ],
    "tag": "bb23-2f-2555-a0001"
  }
}