{
  "pages": [
    [
      [
        "ประกาศสำนักนายกรัฐมนตรี",
        "(พ.ศ. ๒๕๔๒)",
        "เรื่อง กำหนดผู้แทนหน่วยงานเพิ่มเติมในคณะกรรมการกลั่นกรองข้อมูล",
        "หรือข่าวสารการกระทำที่เกี่ยวข้องกับยาเสพติด"
      ]
    ],
    []
  ],
  "metadata": {
    "date_backmatter": "2542-03-23",
    "date_modified": "2542-05-27",
    "date_original": "2542-05-27",
    "doctype": "ประกาศ",
    "editors": [
      {
        "name": "สรัลพร",
        "role": "พิมพ์",
        "date": "2551-04-04"
      },
      {
        "name": "หทัยภัทร",
        "role": "ตรวจ",
        "date": "2551-04-21"
      },
      {
        "name": "วงศ์ชนก",
        "role": "ปรับปรุง",
        "date": "2552-01-20"
      },
      {
        "name": "รัศม์วรรณวลัย",
        "role": "ตรวจ",
        "date": "2552-02-04"
      },
      {
        "name": "โชติกานต์",
        "role": "ปรับปรุง",
        "date": "2560-06-15"
      }
    ],
    "tag": "bb23-2e-2542-a0001"
  }
}