{
  "pages": [
    [
      [
        "พระราชบัญญัติ",
        "ป้องกันและปราบปรามยาเสพติด",
        "พ.ศ. ๒๕๑๙",
        "",
        "",
        "ภูมิพลอดุลยเดช ป.ร.",
        "ให้ไว้ ณ วันที่ ๑๖ พฤศจิกายน พ.ศ. ๒๕๑๙",
        "เป็นปีที่ ๓๑ ในรัชกาลปัจจุบัน"
      ]
    ],
    []
  ],
  "metadata": {
    "date_header": "2519-11-16",
    "date_modified": "2545-10-08",
    "date_original": "2519-11-17",
    "doctype": "พระราชบัญญัติ",
    "editors": [
      {
        "name": "ปัทมา",
        "role": "แก้ไข",
        "date": "2553-03-29"
      },
      {
        "name": "วศิน",
        "role": "ตรวจ",
        "date": "2553-03-29"
      }
    ],
    "tag": "bb23-20-2545-a0003",
    "title": "ป้องกันและปราบปรามยาเสพติด"
  }
}