{
  "pages": [
    [
      [
        "พระราชกฤษฎีกา",
        "ว่าด้วยปริญญาในสาขาวิชา อักษรย่อสำหรับสาขาวิชา",
        "ครุยวิทยฐานะ เข็มวิทยฐานะ และครุยประจำตำแหน่ง",
        "ของมหาวิทยาลัยอุบลราชธานี",
        "พ.ศ. ๒๕๓๙",
        "",
        "",
        "ภูมิพลอดุลยเดช ป.ร.",
        "ให้ไว้ ณ วันที่ ๗ กรกฎาคม พ.ศ. ๒๕๓๙",
        "เป็นปีที่ ๕๑ ในรัชกาลปัจจุบัน"
      ]
    ],
    []
  ],
  "metadata": {
    "date_header": "2539-07-07",
    "date_modified": "2542-12-27",
    "date_original": "2539-07-11",
    "doctype": "พระราชกฤษฎีกา",
    "editors": [
      {
        "name": "วิภา",
        "role": "ผู้จัดทำ",
        "date": "2553-12-17"
      },
      {
        "name": "วรวิมล",
        "role": "ตรวจ",
        "date": "2554-06-09"
      }
    ],
    "tag": "c115-2a-2542-a0001u",
    "title": "ว่าด้วยปริญญาในสาขาวิชา อักษรย่อสำหรับสาขาวิชาครุยวิทยฐานะ เข็มวิทยฐานะ และครุยประจำตำแหน่งของมหาวิทยาลัยอุบลราชธานี"
  }
}