{
  "pages": [
    [
      [
        "พระราชบัญญัติ",
        "สถานพยาบาล",
        "พ.ศ. ๒๕๔๑",
        "",
        "",
        "ภูมิพลอดุลยเดช ป.ร.",
        "ให้ไว้ ณ วันที่ ๑๕ มีนาคม พ.ศ. ๒๕๔๑",
        "เป็นปีที่ ๕๓ ในรัชกาลปัจจุบัน"
      ]
    ],
    []
  ],
  "metadata": {
    "date_header": "2541-03-15",
    "date_modified": "2541-03-24",
    "date_original": "2541-03-24",
    "doctype": "พระราชบัญญัติ",
    "editors": [
      {
        "name": "ภคินี",
        "role": "แก้ไข",
        "date": "2545-02-06"
      },
      {
        "name": "ศุภสรณ์/อภิสิทธิ์",
        "role": "ผู้จัดทำ",
        "date": "2546-05-15"
      },
      {
        "name": "ปณตภร",
        "role": "ปรับปรุง",
        "date": "2556-02-18"
      }
    ],
    "tag": "ca53-20-2541-001",
    "title": "สถานพยาบาล"
  }
}