{
  "pages": [
    [
      [
        "ประกาศกระทรวงสาธารณสุข",
        "เรื่อง หลักเกณฑ์ วิธีการ และเงื่อนไขการกำหนดค่าใช้จ่ายในการดำเนินการผู้ป่วยฉุกเฉินวิกฤต"
      ]
    ],
    []
  ],
  "metadata": {
    "date_backmatter": "2560-03-29",
    "date_modified": "2560-03-31",
    "date_original": "2560-03-31",
    "doctype": "ประกาศ",
    "editors": [
      {
        "name": "ภวรรณตรี",
        "role": "จัดทำ",
        "date": "2560-04-05"
      },
      {
        "name": "ปุณิกา",
        "role": "ตรวจ",
        "date": "2560-04-05"
      }
    ],
    "tag": "ca53-2e-2560-a0003"
  }
}