{
  "pages": [
    [
      [
        "พระราชบัญญัติ",
        "สถานพยาบาล (ฉบับที่ ๒)",
        "พ.ศ. ๒๕๔๗",
        "",
        "",
        "ภูมิพลอดุลยเดช ป.ร.",
        "ให้ไว้ ณ วันที่ ๙ กรกฎาคม พ.ศ. ๒๕๔๗",
        "เป็นปีที่ ๕๙ ในรัชกาลปัจจุบัน"
      ]
    ],
    []
  ],
  "metadata": {
    "date_header": "2547-07-09",
    "date_modified": "2547-08-30",
    "date_original": "2547-08-30",
    "doctype": "พระราชบัญญัติ",
    "editors": [
      {
        "name": "วชิระ",
        "role": "พิมพ์",
        "date": "2547-09-17"
      },
      {
        "name": "วชิระ/ยงยุทธ",
        "role": "ตรวจ",
        "date": "2547-09-17"
      },
      {
        "name": "ปณตภร",
        "role": "ปรับปรุง",
        "date": "2556-02-18"
      }
    ],
    "tag": "ca53-20-2547-a0001",
    "title": "สถานพยาบาล (ฉบับที่ ๒)"
  }
}