{
  "pages": [
    [
      [
        "กฎกระทรวง",
        "ว่าด้วยการประกอบกิจการสถานพยาบาล (ฉบับที่ ๒)",
        "พ.ศ. ๒๕๕๐"
      ]
    ],
    []
  ],
  "metadata": {
    "date_backmatter": "2550-02-23",
    "date_modified": "2550-06-18",
    "date_original": "2550-06-18",
    "doctype": "กฎกระทรวง",
    "editors": [
      {
        "name": "วัชศักดิ์",
        "role": "ผู้จัดทำ",
        "date": "2550-06-27"
      },
      {
        "name": "รัศมิ์วรรณวลัย",
        "role": "ตรวจ",
        "date": "2552-02-17"
      },
      {
        "name": "ดลธี",
        "role": "ผู้จัดทำ",
        "date": "2552-02-24"
      },
      {
        "name": "รัศม์วรรณวลัย",
        "role": "ตรวจ",
        "date": "2552-03-03"
      }
    ],
    "tag": "ca53-2b-2550-a0001"
  }
}