{
  "pages": [
    [
      [
        "ประกาศกระทรวงสาธารณสุข",
        "เรื่อง การกำหนดลักษณะของสถานพยาบาลและมาตรฐานซึ่งได้รับ",
        "การยกเว้นไม่ต้องอยู่ในบังคับตามกฎหมายว่าด้วยสถานพยาบาล"
      ]
    ],
    []
  ],
  "metadata": {
    "date_backmatter": "2561-03-20",
    "date_modified": "2561-04-19",
    "date_original": "2561-04-19",
    "doctype": "ประกาศ",
    "editors": [
      {
        "name": "พรวิภา",
        "role": "จัดทำ",
        "date": "2561-07-10"
      },
      {
        "name": "ปริญสินีย์",
        "role": "ตรวจ",
        "date": "2561-07-11"
      }
    ],
    "tag": "ca53-2e-2561-a0008"
  }
}