{
  "pages": [
    [
      [
        "ประกาศกระทรวงสาธารณสุข",
        "เรื่อง การกำหนดแบบหลักเกณฑ์และเงื่อนไขตามกฎกระทรวง",
        "ว่าด้วยการประกอบกิจการ สถานพยาบาล พ.ศ. ๒๕๔๕ และตามกฎกระทรวง",
        "ว่าด้วยวิชาชีพและจำนวนผู้ประกอบวิชาชีพในสถานพยาบาล พ.ศ. ๒๕๔๕",
        "ซึ่งออกตามพระราชบัญญัติสถานพยาบาล พ.ศ. ๒๕๔๑"
      ]
    ],
    []
  ],
  "metadata": {
    "date_backmatter": "2545-07-26",
    "date_modified": "2558-11-26",
    "date_original": "2545-08-30",
    "doctype": "ประกาศ",
    "editors": [
      {
        "name": "วริญา",
        "role": "จัดทำ",
        "date": "2558-12-08"
      },
      {
        "name": "วิชพงษ์",
        "role": "ตรวจ",
        "date": "2558-12-18"
      }
    ],
    "tag": "ca53-2e-9997-update"
  }
}