{
  "pages": [
    [
      [
        "พระราชบัญญัติ",
        "การเนรเทศ (ฉบับที่ ๒)",
        "พ.ศ. ๒๕๐๗",
        "",
        "",
        "ภูมิพลอดุลยเดช ป.ร.",
        "ให้ไว้ ณ วันที่ ๖ สิงหาคม พ.ศ. ๒๕๐๗",
        "เป็นปีที่ ๑๙ ในรัชกาลปัจจุบัน"
      ]
    ],
    []
  ],
  "metadata": {
    "date_header": "2507-08-06",
    "date_modified": "2507-08-14",
    "date_original": "2507-08-14",
    "doctype": "พระราชบัญญัติ",
    "editors": [
      {
        "name": "ละออง",
        "role": "แก้ไข",
        "date": "2544-07-25"
      },
      {
        "name": "พัชรินทร์",
        "role": "แก้ไข",
        "date": "2548-02-01"
      },
      {
        "name": "วศิน",
        "role": "แก้ไข",
        "date": "2552-04-21"
      }
    ],
    "tag": "a122-20-2507-002",
    "title": "การเนรเทศ (ฉบับที่ ๒)"
  }
}