{
  "pages": [
    [
      [
        "พระราชบัญญัติ",
        "การเนรเทศ",
        "พ.ศ. ๒๔๙๙",
        "",
        "",
        "ภูมิพลอดุลยเดช ป.ร.",
        "ให้ไว้ ณ วันที่ ๑๗ มกราคม พ.ศ. ๒๕๐๐",
        "เป็นปีที่ ๑๒ ในรัชกาลปัจจุบัน"
      ]
    ],
    []
  ],
  "metadata": {
    "date_header": "2500-01-17",
    "date_modified": "2500-01-29",
    "date_original": "2500-01-29",
    "doctype": "พระราชบัญญัติ",
    "editors": [
      {
        "name": "ละออง",
        "role": "แก้ไข",
        "date": "2544-07-25"
      },
      {
        "name": "พัชรินทร์",
        "role": "แก้ไข",
        "date": "2548-02-01"
      },
      {
        "name": "วศิน",
        "role": "แก้ไข",
        "date": "2552-04-21"
      },
      {
        "name": "พจณัฏฐ์",
        "role": "ปรับปรุง",
        "date": "2560-10-17"
      }
    ],
    "tag": "a122-20-2500-001",
    "title": "การเนรเทศ"
  }
}