{
  "pages": [
    [
      [
        "ประกาศคณะกรรมการกีฬาอาชีพ",
        "เรื่อง ประมวลจริยธรรมและจรรยาบรรณของนักกีฬาอาชีพและบุคลากรกีฬาอาชีพ",
        "พ.ศ. ๒๕๖๐"
      ]
    ],
    []
  ],
  "metadata": {
    "date_backmatter": "2560-07-17",
    "date_modified": "2560-09-01",
    "date_original": "2560-09-01",
    "doctype": "ประกาศ",
    "editors": [
      {
        "name": "ปุณิกา/ภวรรณตรี",
        "role": "จัดทำ",
        "date": "2560-09-06"
      }
    ],
    "tag": "ca86-2e-2560-a0002"
  }
}