{
  "pages": [
    [
      [
        "ระเบียบคณะกรรมการกีฬาอาชีพ",
        "ว่าด้วยการช่วยเหลือ การส่งเสริม และการสนับสนุนผู้จัดการแข่งขันกีฬาอาชีพ",
        "พ.ศ. ๒๕๕๙"
      ]
    ],
    []
  ],
  "metadata": {
    "date_backmatter": "2559-01-14",
    "date_modified": "2559-05-11",
    "date_original": "2559-05-11",
    "editors": [
      {
        "name": "ปริยานุช",
        "role": "จัดทำ",
        "date": "2559-05-13"
      },
      {
        "name": "วริญา",
        "role": "ตรวจ",
        "date": "2559-05-23"
      }
    ],
    "tag": "ca86-2g-2559-a0003"
  }
}