{
  "pages": [
    [
      [
        "ระเบียบคณะกรรมการกีฬาอาชีพ",
        "ว่าด้วยคุณสมบัติผู้ยื่นคำขอ หลักเกณฑ์ วิธีการ และเงื่อนไขการยื่นคำขอรับการช่วยเหลือ",
        "การส่งเสริม และการสนับสนุนสโมสรกีฬาอาชีพหรือสมาคมกีฬาอาชีพ",
        "พ.ศ. ๒๕๖๐"
      ]
    ],
    []
  ],
  "metadata": {
    "date_backmatter": "2560-10-10",
    "date_modified": "2560-11-29",
    "date_original": "2560-11-29",
    "editors": [
      {
        "name": "พิมพ์มาดา/อัญชลี",
        "role": "จัดทำ",
        "date": "2560-12-06"
      }
    ],
    "tag": "ca86-2g-2560-a0005"
  }
}