{
  "pages": [
    [
      [
        "คำสั่งคณะกรรมการสถาบันพัฒนาองค์กรชุมชน",
        "ที่ ๑/๒๕๕๑",
        "เรื่อง แต่งตั้งคณะอนุกรรมการสรรหาผู้อำนวยการสถาบันพัฒนาองค์กรชุมชน"
      ]
    ],
    []
  ],
  "metadata": {
    "date_backmatter": "2551-10-22",
    "date_modified": "2552-05-13",
    "date_original": "2552-05-13",
    "editors": [
      {
        "name": "ปริยานุช",
        "role": "ผู้จัดทำ",
        "date": "2552-05-21"
      },
      {
        "name": "นฤดล",
        "role": "ผู้ตรวจ",
        "date": "2554-04-20"
      }
    ],
    "tag": "cd17-2f-2552-a0002"
  }
}