{
  "pages": [
    [
      [
        "ประกาศสำนักงานบริหารการแปลงสินทรัพย์เป็นทุน (องค์การมหาชน)",
        "เรื่อง โครงสร้างและการจัดส่วนงาน อำนาจหน้าที่ วิธีการดำเนินงาน",
        "และสถานที่ติดต่อเพื่อขอรับข้อมูลข่าวสาร",
        "ของสำนักงานบริหารการแปลงสินทรัพย์เป็นทุน (องค์การมหาชน)"
      ]
    ],
    []
  ],
  "metadata": {
    "date_backmatter": "2548-05-18",
    "date_modified": "2548-07-07",
    "date_original": "2548-07-07",
    "doctype": "ประกาศ",
    "editors": [
      {
        "name": "ฐิติพงษ์",
        "role": "ผู้จัดทำ",
        "date": "2548-07-27"
      },
      {
        "name": "นฤดล",
        "role": "ผู้ตรวจ",
        "date": "2554-04-20"
      }
    ],
    "tag": "cd17-2e-2548-a0002"
  }
}