{
  "pages": [
    [
      [
        "พระราชกฤษฎีกา",
        "จัดตั้งศูนย์มานุษยวิทยาสิรินธร (องค์การมหาชน) (ฉบับที่ ๒)",
        "พ.ศ. ๒๕๔๗",
        "",
        "",
        "ภูมิพลอดุลยเดช ป.ร.",
        "ให้ไว้ ณ วันที่ ๒๓ พฤษภาคม พ.ศ. ๒๕๔๗",
        "เป็นปีที่ ๕๙ ในรัชกาลปัจจุบัน"
      ]
    ],
    []
  ],
  "metadata": {
    "date_header": "2547-05-23",
    "date_modified": "2547-07-06",
    "date_original": "2547-07-06",
    "doctype": "พระราชกฤษฎีกา",
    "editors": [
      {
        "name": "อมราลักษณ์",
        "role": "ผู้จัดทำ",
        "date": "2547-08-23"
      },
      {
        "name": "นฤดล",
        "role": "ผู้ตรวจ",
        "date": "2554-04-20"
      }
    ],
    "tag": "cd17-2a-2547-a0002",
    "title": "จัดตั้งศูนย์มานุษยวิทยาสิรินธร (องค์การมหาชน) (ฉบับที่ ๒)"
  }
}