{
  "pages": [
    [
      [
        "ข้อบังคับสถาบันคุณวุฒิวิชาชีพ (องค์การมหาชน)",
        "ว่าด้วยหลักเกณฑ์ วิธีการ และเงื่อนไขการให้คุณวุฒิวิชาชีพ",
        "พ.ศ. ๒๕๕๗"
      ]
    ],
    []
  ],
  "metadata": {
    "date_backmatter": "2557-02-05",
    "date_modified": "2557-02-28",
    "date_original": "2557-02-28",
    "editors": [
      {
        "name": "ปริยานุช",
        "role": "ผู้จัดทำ",
        "date": "2557-03-05"
      },
      {
        "name": "อังศุมาลี",
        "role": "ผู้ตรวจ",
        "date": "2557-03-12"
      }
    ],
    "tag": "cd17-2i-2557-a0001"
  }
}