{
  "pages": [
    [
      [
        "ระเบียบสถาบันบริหารจัดการธนาคารที่ดิน (องค์การมหาชน)",
        "ว่าด้วยหลักเกณฑ์การสรรหา และการแต่งตั้งผู้อำนวยการ พ.ศ. ๒๕๖๐"
      ]
    ],
    []
  ],
  "metadata": {
    "date_backmatter": "2560-09-28",
    "date_modified": "2560-12-13",
    "date_original": "2560-12-13",
    "editors": [
      {
        "name": "พัชรภรณ์/อัญชลี",
        "role": "จัดทำ",
        "date": "2560-12-18"
      },
      {
        "name": "นุสรา",
        "role": "ตรวจ",
        "date": "2560-12-30"
      }
    ],
    "tag": "cd17-2g-2560-a0001"
  }
}