{
  "pages": [
    [
      [
        "ประกาศสถาบันคุณวุฒิวิชาชีพ (องค์การมหาชน)",
        "เรื่อง มาตรฐานอาชีพในสาขาวิชาชีพรถไฟความเร็วสูงและระบบราง"
      ]
    ],
    []
  ],
  "metadata": {
    "date_backmatter": "2557-03-07",
    "date_modified": "2558-06-19",
    "date_original": "2558-06-19",
    "doctype": "ประกาศ",
    "editors": [
      {
        "name": "ปริยานุช",
        "role": "ผู้จัดทำ",
        "date": "2558-06-23"
      },
      {
        "name": "วริญา",
        "role": "ผู้ตรวจ",
        "date": "2558-06-23"
      }
    ],
    "tag": "cd17-2e-2558-a0005"
  }
}