{
  "pages": [
    [
      [
        "พระราชกฤษฎีกา",
        "จัดตั้งสำนักงานนวัตกรรมแห่งชาติ (องค์การมหาชน)",
        "พ.ศ. ๒๕๕๒",
        "",
        "",
        "ภูมิพลอดุลยเดช ป.ร.",
        "ให้ไว้ ณ วันที่ ๑๙ สิงหาคม พ.ศ. ๒๕๕๒",
        "เป็นปีที่ ๖๔ ในรัชกาลปัจจุบัน"
      ]
    ],
    []
  ],
  "metadata": {
    "date_header": "2552-08-19",
    "date_modified": "2552-09-01",
    "date_original": "2552-09-01",
    "doctype": "พระราชกฤษฎีกา",
    "editors": [
      {
        "name": "ปริยานุช",
        "role": "ผู้จัดทำ",
        "date": "2552-09-09"
      },
      {
        "name": "นฤดล",
        "role": "ผู้ตรวจ",
        "date": "2554-04-20"
      }
    ],
    "tag": "cd17-2a-2552-a0005",
    "title": "จัดตั้งสำนักงานนวัตกรรมแห่งชาติ (องค์การมหาชน)"
  }
}