{
  "pages": [
    [
      [
        "พระราชกฤษฎีกา",
        "จัดตั้งสถาบันระหว่างประเทศเพื่อการค้าและการพัฒนา (องค์การมหาชน)",
        "พ.ศ. ๒๕๔๔",
        "",
        "",
        "ภูมิพลอดุลยเดช ป.ร.",
        "ให้ไว้ ณ วันที่ ๒๔ พฤษภาคม พ.ศ. ๒๕๔๔",
        "เป็นปีที่ ๕๖ ในรัชกาลปัจจุบัน"
      ]
    ],
    []
  ],
  "metadata": {
    "date_header": "2544-05-24",
    "date_modified": "2544-05-31",
    "date_original": "2544-05-31",
    "doctype": "พระราชกฤษฎีกา",
    "editors": [
      {
        "name": "สุกัญญา",
        "role": "แก้ไข",
        "date": "2551-08-18"
      },
      {
        "name": "นฤดล",
        "role": "ผู้ตรวจ",
        "date": "2554-04-20"
      }
    ],
    "tag": "cd17-2a-2544-a0001",
    "title": "จัดตั้งสถาบันระหว่างประเทศเพื่อการค้าและการพัฒนา (องค์การมหาชน)"
  }
}