{
  "pages": [
    [
      [
        "ข้อบังคับสถาบันพัฒนาองค์กรชุมชน (องค์การมหาชน)",
        "ฉบับที่ ๖",
        "ว่าด้วยโครงการเสริมสร้างความเข้มแข็งขององค์กรชุมชนเมืองและชนบท"
      ]
    ],
    []
  ],
  "metadata": {
    "date_backmatter": "2543-12-01",
    "date_modified": "2550-09-20",
    "date_original": "2550-09-20",
    "editors": [
      {
        "name": "นฤดล",
        "role": "ผู้จัดทำ",
        "date": "2554-05-10"
      }
    ],
    "tag": "cd17-2i-9998-update"
  }
}