{
  "pages": [
    [
      [
        "พระราชกฤษฎีกา",
        "ยุบเลิกสำนักงานพัฒนาพิงคนคร (องค์การมหาชน)",
        "พ.ศ. ๒๕๖๒",
        "",
        "",
        "สมเด็จพระเจ้าอยู่หัวมหาวชิราลงกรณ บดินทรเทพยวรางกูร",
        "ให้ไว้ ณ วันที่ ๑๒ เมษายน พ.ศ. ๒๕๖๒",
        "เป็นปีที่ ๔ ในรัชกาลปัจจุบัน"
      ]
    ],
    []
  ],
  "metadata": {
    "date_header": "2562-04-12",
    "date_modified": "2562-04-14",
    "date_original": null,
    "doctype": "พระราชกฤษฎีกา",
    "editors": [
      {
        "name": "ปุณิกา",
        "role": "จัดทำ",
        "date": "2562-04-18"
      },
      {
        "name": "นุสรา",
        "role": "ตรวจ",
        "date": "2562-04-20"
      }
    ],
    "tag": "cd17-2a-2562-a0016",
    "title": "ยุบเลิกสำนักงานพัฒนาพิงคนคร (องค์การมหาชน)"
  }
}