{
  "pages": [
    [
      [
        "ข้อบังคับสถาบันพัฒนาองค์กรชุมชน (องค์การมหาชน)",
        "ฉบับที่ ๒๖",
        "ว่าด้วยโครงการบ้านมั่นคงภายใต้แผนปฏิบัติการไทยเข้มแข็ง ๒๕๕๕"
      ]
    ],
    []
  ],
  "metadata": {
    "date_backmatter": "2552-12-24",
    "date_modified": "2553-08-27",
    "date_original": "2553-08-27",
    "editors": [
      {
        "name": "ณัฐวดี",
        "role": "ตรวจ",
        "date": "2553-09-07"
      },
      {
        "name": "นฤดล",
        "role": "ผู้ตรวจ",
        "date": "2554-04-20"
      }
    ],
    "tag": "cd17-2i-2553-a0005"
  }
}