{
  "pages": [
    [
      [
        "พระราชกฤษฎีกา",
        "จัดตั้งสถาบันบริหารจัดการธนาคารที่ดิน (องค์การมหาชน) (ฉบับที่ ๒)",
        "พ.ศ. ๒๕๕๙",
        "",
        "",
        "ภูมิพลอดุลยเดช ป.ร.",
        "ให้ไว้ ณ วันที่ ๒ มิถุนายน พ.ศ. ๒๕๕๙",
        "เป็นปีที่ ๗๑ ในรัชกาลปัจจุบัน"
      ]
    ],
    []
  ],
  "metadata": {
    "date_header": "2559-06-02",
    "date_modified": "2559-06-07",
    "date_original": "2559-06-07",
    "doctype": "พระราชกฤษฎีกา",
    "editors": [
      {
        "name": "ชวัลพร/ปริยานุช",
        "role": "จัดทำ",
        "date": "2559-06-12"
      },
      {
        "name": "วิชพงษ์",
        "role": "ตรวจ",
        "date": "2559-06-17"
      }
    ],
    "tag": "cd17-2a-2559-a0003",
    "title": "จัดตั้งสถาบันบริหารจัดการธนาคารที่ดิน (องค์การมหาชน) (ฉบับที่ ๒)"
  }
}