{
  "pages": [
    [
      [
        "พระราชกฤษฎีกา",
        "จัดตั้งสถาบันเทคโนโลยีนิวเคลียร์แห่งชาติ",
        "(องค์การมหาชน) (ฉบับที่ ๒)",
        "พ.ศ. ๒๕๖๑",
        "",
        "",
        "สมเด็จพระเจ้าอยู่หัวมหาวชิราลงกรณ บดินทรเทพยวรางกูร",
        "ให้ไว้ ณ วันที่ ๑๐ สิงหาคม พ.ศ. ๒๕๖๑",
        "เป็นปีที่ ๓ ในรัชกาลปัจจุบัน"
      ]
    ],
    []
  ],
  "metadata": {
    "date_header": "2561-08-10",
    "date_modified": "2561-08-13",
    "date_original": "2561-08-13",
    "doctype": "พระราชกฤษฎีกา",
    "editors": [
      {
        "name": "พัชรภรณ์",
        "role": "จัดทำ",
        "date": "2561-08-14"
      }
    ],
    "tag": "cd17-2a-2561-a0009",
    "title": "จัดตั้งสถาบันเทคโนโลยีนิวเคลียร์แห่งชาติ(องค์การมหาชน) (ฉบับที่ ๒)"
  }
}