{
  "pages": [
    [
      [
        "ประกาศสถาบันพัฒนาองค์กรชุมชน (องค์การมหาชน)",
        "เรื่อง สถานที่ส่งบัญชีรายชื่อการจดแจ้งการจัดตั้งสภาองค์กรชุมชนตำบล"
      ]
    ],
    []
  ],
  "metadata": {
    "date_backmatter": "2551-06-02",
    "date_modified": "2552-01-22",
    "date_original": "2552-01-22",
    "doctype": "ประกาศ",
    "editors": [
      {
        "name": "วัชศักดิ์",
        "role": "ผู้จัดทำ",
        "date": "2552-01-26"
      },
      {
        "name": "นฤดล",
        "role": "ผู้ตรวจ",
        "date": "2554-04-20"
      }
    ],
    "tag": "cd17-2e-2552-a0002"
  }
}