{
  "pages": [
    [
      [
        "พระราชกฤษฎีกา",
        "จัดตั้งโรงเรียนมหิดลวิทยานุสรณ์",
        "พ.ศ. ๒๕๔๓",
        "",
        "",
        "ภูมิพลอดุลยเดช ป.ร.",
        "ให้ไว้ ณ วันที่ ๑๕ สิงหาคม พ.ศ. ๒๕๔๓",
        "เป็นปีที่ ๕๕ ในรัชกาลปัจจุบัน"
      ]
    ],
    []
  ],
  "metadata": {
    "date_header": "2543-08-15",
    "date_modified": "2543-08-25",
    "date_original": "2543-08-25",
    "doctype": "พระราชกฤษฎีกา",
    "editors": [
      {
        "name": "สุกัญญา",
        "role": "แก้ไข",
        "date": "2551-08-18"
      },
      {
        "name": "นฤดล",
        "role": "ผู้ตรวจ",
        "date": "2554-04-20"
      }
    ],
    "tag": "cd17-2a-2543-a005",
    "title": "จัดตั้งโรงเรียนมหิดลวิทยานุสรณ์"
  }
}