{
  "pages": [
    [
      [
        "ข้อบังคับสถาบันพัฒนาองค์กรชุมชน",
        "ฉบับที่ ๑๒",
        "ว่าด้วยการมอบอำนาจให้ปฏิบัติกิจการที่เกี่ยวกับบุคคลภายนอก"
      ]
    ],
    []
  ],
  "metadata": {
    "date_backmatter": "2547-06-21",
    "date_modified": "2550-09-20",
    "date_original": "2550-09-20",
    "editors": [
      {
        "name": "วัชศักดิ์",
        "role": "ผู้จัดทำ",
        "date": "2550-09-25"
      },
      {
        "name": "นฤดล",
        "role": "ผู้ตรวจ",
        "date": "2554-04-20"
      }
    ],
    "tag": "cd17-2i-2550-a0020"
  }
}