{
  "pages": [
    [
      [
        "ประกาศคณะกรรมการบริหารการพัฒนาพื้นที่พิเศษ",
        "เพื่อการท่องเที่ยวอย่างยั่งยืน",
        "เรื่อง กำหนดแนวเขตพื้นที่พิเศษเพื่อการท่องเที่ยวอย่างยั่งยืน",
        "หมู่เกาะช้างและพื้นที่เชื่อมโยง"
      ]
    ],
    []
  ],
  "metadata": {
    "date_backmatter": "2547-09-13",
    "date_modified": "2547-09-24",
    "date_original": "2547-09-24",
    "doctype": "ประกาศ",
    "editors": [
      {
        "name": "สุนันทา",
        "role": "ตรวจ",
        "date": "2551-06-12"
      },
      {
        "name": "นฤดล",
        "role": "ผู้ตรวจ",
        "date": "2554-04-20"
      }
    ],
    "tag": "cd17-2e-2547-a0001"
  }
}