{
  "pages": [
    [
      [
        "ประกาศสถาบันพัฒนาองค์กรชุมชน (องค์การมหาชน)",
        "เรื่อง การปรับอัตราดอกเบี้ยสินเชื่อในโครงการบ้านมั่นคง"
      ]
    ],
    []
  ],
  "metadata": {
    "date_backmatter": "2552-12-01",
    "date_modified": "2554-01-10",
    "date_original": "2554-01-10",
    "doctype": "ประกาศ",
    "editors": [
      {
        "name": "ณัฐวดี",
        "role": "ตรวจ",
        "date": "2554-01-21"
      },
      {
        "name": "นฤดล",
        "role": "ผู้ตรวจ",
        "date": "2554-04-20"
      }
    ],
    "tag": "cd17-2e-2554-a0005"
  }
}