{
  "pages": [
    [
      [
        "ระเบียบสถาบันพัฒนาองค์กรชุมชน (องค์การมหาชน)",
        "ว่าด้วยหลักเกณฑ์การเบิกจ่ายงบประมาณสนับสนุนการพัฒนาที่อยู่อาศัยและที่ดินทำกิน",
        "พ.ศ. ๒๕๕๓"
      ]
    ],
    []
  ],
  "metadata": {
    "date_backmatter": "2553-04-26",
    "date_modified": "2553-08-27",
    "date_original": "2553-08-27",
    "editors": [
      {
        "name": "ณัฐวดี",
        "role": "ตรวจ",
        "date": "2553-09-07"
      },
      {
        "name": "นฤดล",
        "role": "ผู้ตรวจ",
        "date": "2554-04-20"
      }
    ],
    "tag": "cd17-2g-2553-a0004"
  }
}