{
  "pages": [
    [
      [
        "พระราชกฤษฎีกา",
        "จัดตั้งศูนย์คุณธรรม (องค์การมหาชน)",
        "พ.ศ. ๒๕๕๔",
        "",
        "",
        "ภูมิพลอดุลยเดช ป.ร.",
        "ให้ไว้ ณ วันที่ ๒ มิถุนายน พ.ศ. ๒๕๕๔",
        "เป็นปีที่ ๖๖ ในรัชกาลปัจจุบัน"
      ]
    ],
    []
  ],
  "metadata": {
    "date_header": "2554-06-02",
    "date_modified": "2554-06-09",
    "date_original": "2554-06-09",
    "doctype": "พระราชกฤษฎีกา",
    "editors": [
      {
        "name": "ปริยานุช",
        "role": "ผู้จัดทำ",
        "date": "2554-06-14"
      },
      {
        "name": "ณัฐวดี",
        "role": "ตรวจ",
        "date": "2554-06-14"
      }
    ],
    "tag": "cd17-2a-2554-a0006",
    "title": "จัดตั้งศูนย์คุณธรรม (องค์การมหาชน)"
  }
}