{
  "pages": [
    [
      [
        "พระราชกฤษฎีกา",
        "จัดตั้งสถาบันระหว่างประเทศเพื่อการค้าและการพัฒนา",
        "(องค์การมหาชน) (ฉบับที่ ๒)",
        "พ.ศ. ๒๕๖๑",
        "",
        "",
        "สมเด็จพระเจ้าอยู่หัวมหาวชิราลงกรณ บดินทรเทพยวรางกูร",
        "ให้ไว้ ณ วันที่ ๒๕ กรกฎาคม พ.ศ. ๒๕๖๑",
        "เป็นปีที่ ๓ ในรัชกาลปัจจุบัน"
      ]
    ],
    []
  ],
  "metadata": {
    "date_header": "2561-07-25",
    "date_modified": "2561-07-27",
    "date_original": "2561-07-27",
    "doctype": "พระราชกฤษฎีกา",
    "editors": [
      {
        "name": "วิวรรธน์",
        "role": "จัดทำ",
        "date": "2561-08-02"
      },
      {
        "name": "นุสรา",
        "role": "ตรวจ",
        "date": "2561-10-19"
      }
    ],
    "tag": "cd17-2a-2561-a0006",
    "title": "จัดตั้งสถาบันระหว่างประเทศเพื่อการค้าและการพัฒนา(องค์การมหาชน) (ฉบับที่ ๒)"
  }
}