{
  "pages": [
    [
      [
        "ประกาศทบวงมหาวิทยาลัย",
        "เรื่อง การแบ่งส่วนราชการในคณะรัฐศาสตร์ จุฬาลงกรณ์มหาวิทยาลัย",
        "พ.ศ. ๒๕๒๙"
      ]
    ],
    []
  ],
  "metadata": {
    "date_backmatter": "2529-04-01",
    "date_modified": "2529-04-10",
    "date_original": "2529-04-10",
    "doctype": "ประกาศ",
    "editors": [
      {
        "name": "คุณากร",
        "role": "ผู้จัดทำ",
        "date": "2554-04-29"
      },
      {
        "name": "วิชชุตา",
        "role": "ผู้ตรวจ",
        "date": "2554-06-01"
      }
    ],
    "tag": "a820-2e-2529-001"
  }
}