{
  "pages": [
    [
      [
        "ประกาศทบวงมหาวิทยาลัย",
        "เรื่อง การแบ่งส่วนราชการในคณะจิตวิทยา จุฬาลงกรณ์มหาวิทยาลัย",
        "พ.ศ. ๒๕๓๙"
      ]
    ],
    []
  ],
  "metadata": {
    "date_backmatter": "2539-09-09",
    "date_modified": "2539-09-17",
    "date_original": "2539-09-17",
    "doctype": "ประกาศ",
    "editors": [
      {
        "name": "คุณากร",
        "role": "ผู้จัดทำ",
        "date": "2554-05-03"
      },
      {
        "name": "วิชชุตา",
        "role": "ผู้ตรวจ",
        "date": "2554-06-01"
      }
    ],
    "tag": "a820-2e-2539-a004"
  }
}