{
  "pages": [
    [
      [
        "ประกาศทบวงมหาวิทยาลัย",
        "เรื่อง การแบ่งส่วนราชการในคณะวิศวกรรมศาสตร์",
        "จุฬาลงกรณ์มหาวิทยาลัย พ.ศ. ๒๕๓๔"
      ]
    ],
    []
  ],
  "metadata": {
    "date_backmatter": "2534-10-24",
    "date_modified": "2534-10-31",
    "date_original": "2534-10-31",
    "doctype": "ประกาศ",
    "editors": [
      {
        "name": "สุกัญญา",
        "role": "ผู้จัดทำ",
        "date": "2552-03-18"
      },
      {
        "name": "รัศม์วรรณวลัย",
        "role": "ตรวจ",
        "date": "2552-03-25"
      }
    ],
    "tag": "a820-2e-2534-002"
  }
}