{
  "pages": [
    [
      [
        "พระราชกฤษฎีกา",
        "จัดตั้งคณะพยาบาลศาสตร์ จุฬาลงกรณ์มหาวิทยาลัย",
        "พ.ศ. ๒๕๓๑",
        "",
        "",
        "ภูมิพลอดุลยเดช ป.ร.",
        "ให้ไว้ ณ วันที่ ๒๘ ธันวาคม พ.ศ. ๒๕๓๑",
        "เป็นปีที่ ๔๓ ในรัชกาลปัจจุบัน"
      ]
    ],
    []
  ],
  "metadata": {
    "date_header": "2531-12-28",
    "date_modified": "2531-12-30",
    "date_original": "2531-12-30",
    "doctype": "พระราชกฤษฎีกา",
    "editors": [
      {
        "name": "คุณากร",
        "role": "ผู้จัดทำ",
        "date": "2554-04-29"
      },
      {
        "name": "วิชชุตา",
        "role": "ผู้ตรวจ",
        "date": "2554-06-01"
      }
    ],
    "tag": "a820-2a-2531-002",
    "title": "จัดตั้งคณะพยาบาลศาสตร์ จุฬาลงกรณ์มหาวิทยาลัย"
  }
}