{
  "pages": [
    [
      [
        "ประกาศทบวงมหาวิทยาลัย",
        "เรื่อง การแบ่งส่วนราชการในคณะทันตแพทยศาสตร์",
        "จุฬาลงกรณ์มหาวิทยาลัย",
        "พ.ศ. ๒๕๓๑"
      ]
    ],
    []
  ],
  "metadata": {
    "date_backmatter": "2531-08-02",
    "date_modified": "2531-08-05",
    "date_original": "2531-08-05",
    "doctype": "ประกาศ",
    "editors": [
      {
        "name": "คุณากร",
        "role": "ผู้จัดทำ",
        "date": "2554-05-02"
      },
      {
        "name": "วิชชุตา",
        "role": "ผู้ตรวจ",
        "date": "2554-06-01"
      }
    ],
    "tag": "a820-2e-2531-001"
  }
}