{
  "pages": [
    [
      [
        "ประกาศทบวงมหาวิทยาลัย",
        "เรื่อง การแบ่งส่วนราชการในคณะวิทยาศาสตร์",
        "จุฬาลงกรณ์มหาวิทยาลัย",
        "พ.ศ. ๒๕๒๗"
      ]
    ],
    []
  ],
  "metadata": {
    "date_backmatter": "2527-01-04",
    "date_modified": "2527-01-11",
    "date_original": "2527-01-11",
    "doctype": "ประกาศ",
    "editors": [
      {
        "name": "คุณากร",
        "role": "ผู้จัดทำ",
        "date": "2554-04-29"
      },
      {
        "name": "วิชชุตา",
        "role": "ผู้ตรวจ",
        "date": "2554-06-01"
      }
    ],
    "tag": "a820-2e-2527-001"
  }
}