{
  "pages": [
    [
      [
        "ประกาศทบวงมหาวิทยาลัย",
        "เรื่อง การเปลี่ยนชื่อภาควิชาในคณะแพทยศาสตร์",
        "จุฬาลงกรณ์มหาวิทยาลัย"
      ]
    ],
    []
  ],
  "metadata": {
    "date_backmatter": "2523-07-25",
    "date_modified": "2523-08-13",
    "date_original": "2523-08-13",
    "doctype": "ประกาศ",
    "editors": [
      {
        "name": "คุณากร",
        "role": "ผู้จัดทำ",
        "date": "2554-04-29"
      },
      {
        "name": "วิชชุตา",
        "role": "ผู้ตรวจ",
        "date": "2554-06-01"
      }
    ],
    "tag": "a820-2e-2523-001"
  }
}