{
  "pages": [
    [
      [
        "ระเบียบคณะกรรมการเครื่องสำอาง",
        "ว่าด้วยหลักเกณฑ์การเปรียบเทียบ",
        "ตามพระราชบัญญัติเครื่องสำอาง พ.ศ. ๒๕๕๘ (ฉบับที่ ๒)",
        "พ.ศ. ๒๕๖๐"
      ]
    ],
    []
  ],
  "metadata": {
    "date_backmatter": "2560-01-30",
    "date_modified": "2560-02-23",
    "date_original": "2560-02-23",
    "editors": [
      {
        "name": "พิมพ์มาดา/ปริยานุช",
        "role": "จัดทำ",
        "date": "2560-02-27"
      },
      {
        "name": "ปริญสินีย์",
        "role": "ตรวจ",
        "date": "2560-04-04"
      }
    ],
    "tag": "a446-2g-2560-a0001"
  }
}