{
  "pages": [
    [
      [
        "ประกาศคณะกรรมการเครื่องสำอาง",
        "(ฉบับที่ ๖) พ.ศ. ๒๕๓๗",
        "เรื่อง การแสดงคำเตือนในฉลากของเครื่องสำอางควบคุมพิเศษ (ฉบับที่ ๒)"
      ]
    ],
    []
  ],
  "metadata": {
    "date_backmatter": "2537-02-07",
    "date_gz_old": "2537-02-28",
    "doctype": "ประกาศ",
    "editors": [],
    "tag": "a446-2e-2537-006"
  }
}