{
  "pages": [
    [
      [
        "ระเบียบกระทรวงสาธารณสุข",
        "ว่าด้วย",
        "การขอความเห็น ค่าป่วยการ และระยะเวลาในการให้ความเห็น",
        "เกี่ยวกับฉลากของเครื่องสำอางที่มีการควบคุมฉลาก",
        "พ.ศ. 2536"
      ]
    ],
    []
  ],
  "metadata": {
    "date_backmatter": "2536-03-15",
    "editors": [],
    "tag": "a446-2g-2536-001"
  }
}