{
  "pages": [
    [
      [
        "ประกาศกระทรวงสาธารณสุข",
        "เรื่อง กำหนดลักษณะของเครื่องสำอางที่ห้ามผลิต นำเข้า หรือขาย"
      ]
    ],
    []
  ],
  "metadata": {
    "date_backmatter": "2553-02-15",
    "date_modified": "2553-04-23",
    "date_original": "2553-04-23",
    "doctype": "ประกาศ",
    "editors": [
      {
        "name": "ปริยานุช",
        "role": "ผู้จัดทำ",
        "date": "2553-06-17"
      },
      {
        "name": "นันท์นภัสร์",
        "role": "ตรวจ",
        "date": "2553-06-17"
      }
    ],
    "tag": "a446-2e-2553-a0001"
  }
}