{
  "pages": [
    [
      [
        "ประกาศกระทรวงสาธารณสุข",
        "เรื่อง ค่าใช้จ่ายที่จะจัดเก็บจากผู้ยื่นคำขอในกระบวนการพิจารณาอนุญาตผลิตภัณฑ์เครื่องสำอาง",
        "พ.ศ. ๒๕๖๐"
      ]
    ],
    []
  ],
  "metadata": {
    "date_backmatter": "2560-07-26",
    "date_modified": "2560-08-04",
    "date_original": "2560-08-04",
    "doctype": "ประกาศ",
    "editors": [
      {
        "name": "พรวิภา/ภวรรณตรี",
        "role": "จัดทำ",
        "date": "2560-08-09"
      }
    ],
    "tag": "a446-2e-2560-a0020"
  }
}