{
  "pages": [
    [
      [
        "ประกาศคณะกรรมการเครื่องสำอาง",
        "(ฉบับที่ ๑๗) พ.ศ. ๒๕๕๐",
        "เรื่อง การระบุข้อความอันจำเป็นที่ฉลากของเครื่องสำอาง"
      ]
    ],
    []
  ],
  "metadata": {
    "date_backmatter": "2550-09-18",
    "date_modified": "2558-05-22",
    "date_original": "2550-10-29",
    "doctype": "ประกาศ",
    "editors": [
      {
        "name": "ปริยานุช",
        "role": "ผู้จัดทำ",
        "date": "2550-11-06"
      },
      {
        "name": "วริญา",
        "role": "เพิ่มเติม",
        "date": "2558-06-12"
      }
    ],
    "tag": "a446-2e-2550-a0005"
  }
}