{
  "pages": [
    [
      [
        "ประกาศกระทรวงสาธารณสุข",
        "เรื่อง กำหนดวัตถุที่ห้ามใช้เป็นส่วนผสมในการผลิตเครื่องสำอาง"
      ]
    ],
    []
  ],
  "metadata": {
    "date_backmatter": "2551-03-26",
    "date_modified": "2557-03-28",
    "date_original": "2551-05-12",
    "doctype": "ประกาศ",
    "editors": [
      {
        "name": "ปณตภร",
        "role": "ผู้จัดทำ",
        "date": "2556-10-03"
      },
      {
        "name": "โชติกานต์",
        "role": "เพิ่มเติม",
        "date": "2557-05-12"
      }
    ],
    "tag": "a446-2e-2557-a0008"
  }
}