{
  "pages": [
    [
      [
        "ประกาศกระทรวงสาธารณสุข",
        "(ฉบับที่ ๔๗) พ.ศ. ๒๕๕๐",
        "เรื่อง กำหนดวัตถุกันเสียที่อาจใช้เป็นส่วนผสมในการผลิตเครื่องสำอาง"
      ]
    ],
    []
  ],
  "metadata": {
    "date_backmatter": "2550-10-08",
    "date_modified": "2557-11-25",
    "date_original": "2552-09-30",
    "doctype": "ประกาศ",
    "editors": [
      {
        "name": "ภีราพร",
        "role": "ผู้จัดทำ",
        "date": "2557-12-08"
      },
      {
        "name": "วิชพงษ์",
        "role": "ผู้ตรวจ",
        "date": "2558-01-16"
      }
    ],
    "tag": "a446-2e-2557-a0007"
  }
}