{
  "pages": [
    [
      [
        "ประกาศคณะกรรมการเครื่องสำอาง",
        "เรื่อง ฉลากของเครื่องสำอาง"
      ]
    ],
    []
  ],
  "metadata": {
    "date_backmatter": "2551-09-02",
    "date_modified": "2551-09-22",
    "date_original": "2551-09-22",
    "doctype": "ประกาศ",
    "editors": [
      {
        "name": "วัชศักดิ์",
        "role": "ผู้จัดทำ",
        "date": "2551-09-24"
      }
    ],
    "tag": "a446-2e-2551-a0003"
  }
}