{
  "pages": [
    [
      [
        "ประกาศคณะกรรมการเครื่องสำอาง",
        "เรื่อง การแสดงค่าความสามารถในการป้องกันแสงแดดของ",
        "ผลิตภัณฑ์เครื่องสำอางที่มีสารป้องกันแสงแดด"
      ]
    ],
    []
  ],
  "metadata": {
    "date_backmatter": "2556-05-07",
    "date_modified": "2556-06-21",
    "date_original": "2556-06-21",
    "doctype": "ประกาศ",
    "editors": [
      {
        "name": "ปริยานุช",
        "role": "ผู้จัดทำ",
        "date": "2556-06-25"
      },
      {
        "name": "อุษมล",
        "role": "ผู้ตรวจ",
        "date": "2556-07-02"
      }
    ],
    "tag": "a446-2e-2556-a0005"
  }
}