{
  "pages": [
    [
      [
        "ประกาศกระทรวงสาธารณสุข",
        "เรื่อง การกำหนดเครื่องสำอางควบคุม"
      ]
    ],
    []
  ],
  "metadata": {
    "date_backmatter": "2551-07-08",
    "date_modified": "2551-09-25",
    "date_original": "2551-09-25",
    "doctype": "ประกาศ",
    "editors": [
      {
        "name": "วัชศักดิ์",
        "role": "ผู้จัดทำ",
        "date": "2551-09-29"
      }
    ],
    "tag": "a446-2e-2551-a0005"
  }
}