{
  "pages": [
    [
      [
        "ประกาศกระทรวงสาธารณสุข",
        "เรื่อง ผลิตภัณฑ์เครื่องสำอางที่มีสารป้องกันแสงแดด (ฉบับที่ ๒)"
      ]
    ],
    []
  ],
  "metadata": {
    "date_backmatter": "2554-12-30",
    "date_modified": "2555-02-23",
    "date_original": "2555-02-23",
    "doctype": "ประกาศ",
    "editors": [
      {
        "name": "ปริยานุช",
        "role": "ผู้จัดทำ",
        "date": "2555-02-27"
      },
      {
        "name": "ปณตภร",
        "role": "ผู้ตรวจ",
        "date": "2555-03-07"
      }
    ],
    "tag": "a446-2e-2555-a0001"
  }
}