{
  "pages": [
    [
      [
        "ประกาศกระทรวงสาธารณสุข",
        "เรื่อง กำหนดแบบบัตรประจำตัวพนักงานเจ้าหน้าที่",
        "ตามพระราชบัญญัติเครื่องสำอาง พ.ศ. ๒๕๕๘",
        "พ.ศ. ๒๕๕๙"
      ]
    ],
    []
  ],
  "metadata": {
    "date_backmatter": "2559-11-03",
    "date_modified": "2559-12-26",
    "date_original": "2559-12-26",
    "doctype": "ประกาศ",
    "editors": [
      {
        "name": "ชนิกา/ปริยานุช",
        "role": "จัดทำ",
        "date": "2560-01-05"
      },
      {
        "name": "ปริญสินีย์",
        "role": "ตรวจ",
        "date": "2560-01-31"
      }
    ],
    "tag": "a446-2e-2559-a0005"
  }
}