{
  "pages": [
    [
      [
        "ประกาศคณะกรรมการเครื่องสำอาง",
        "ฉบับที่ ๒ (พ.ศ. ๒๕๓๖)",
        "เรื่อง การแสดงคำเตือนในฉลากของเครื่องสำอางควบคุม"
      ]
    ],
    []
  ],
  "metadata": {
    "date_backmatter": "2536-02-04",
    "date_modified": "2550-07-25",
    "date_original": "2536-03-23",
    "doctype": "ประกาศ",
    "editors": [
      {
        "name": "สัญชัย",
        "role": "ผู้จัดทำ",
        "date": "2551-07-21"
      }
    ],
    "tag": "a446-2e-9995-update"
  }
}