{
  "pages": [
    [
      [
        "ประกาศกระทรวงสาธารณสุข",
        "เรื่อง การยื่นคำขอและการออกหนังสือรับรองเกี่ยวกับเครื่องสำอาง",
        "หนังสือรับรองการขาย หนังสือรับรองการขายพร้อมแนบสูตร หรือหนังสือรับรองแหล่งกำเนิดผลิตภัณฑ์",
        "พ.ศ. ๒๕๖๑"
      ]
    ],
    []
  ],
  "metadata": {
    "date_backmatter": "2561-04-29",
    "date_modified": "2561-06-08",
    "date_original": "2561-06-08",
    "doctype": "ประกาศ",
    "editors": [
      {
        "name": "ปวันวิทย์",
        "role": "จัดทำ",
        "date": "2561-07-02"
      }
    ],
    "tag": "a446-2e-2561-a0004"
  }
}