{
  "pages": [
    [
      [
        "ประกาศคณะกรรมการเครื่องสำอาง",
        "เรื่อง การระบุข้อความอันจำเป็นที่ฉลากของเครื่องสำอาง",
        "(ฉบับที่ ๓)"
      ]
    ],
    []
  ],
  "metadata": {
    "date_backmatter": "2558-04-21",
    "date_modified": "2558-05-22",
    "date_original": "2558-05-22",
    "doctype": "ประกาศ",
    "editors": [
      {
        "name": "ปริยานุช",
        "role": "ผู้จัดทำ",
        "date": "2558-05-28"
      },
      {
        "name": "วริญา",
        "role": "ผู้ตรวจ",
        "date": "2558-06-12"
      }
    ],
    "tag": "a446-2e-2558-a0003"
  }
}