{
  "pages": [
    [
      [
        "พระราชบัญญัติ",
        "คุณสมบัติมาตรฐานสำหรับกรรมการและพนักงานรัฐวิสาหกิจ",
        "พ.ศ. ๒๕๑๘",
        "",
        "",
        "ภูมิพลอดุลยเดช ป.ร.",
        "ให้ไว้ ณ วันที่ ๑๔ มกราคม พ.ศ. ๒๕๑๘",
        "เป็นปีที่ ๓๐ ในรัชกาลปัจจุบัน"
      ]
    ],
    []
  ],
  "metadata": {
    "date_header": "2518-01-14",
    "date_modified": "2558-07-09",
    "date_original": "2518-01-25",
    "doctype": "พระราชบัญญัติ",
    "editors": [
      {
        "name": "ศรตม์",
        "role": "ปรับปรุง",
        "date": "2556-03-27"
      },
      {
        "name": "อุดมลักษณ์",
        "role": "ตรวจ",
        "date": "2556-03-27"
      },
      {
        "name": "ปุณิกา",
        "role": "ปรับปรุง",
        "date": "2558-07-13"
      },
      {
        "name": "วิชพงษ์",
        "role": "ตรวจ",
        "date": "2558-07-14"
      }
    ],
    "tag": "a431-20-9999-update",
    "title": "คุณสมบัติมาตรฐานสำหรับกรรมการและพนักงานรัฐวิสาหกิจ"
  }
}