{
  "pages": [
    [
      [
        "พระราชบัญญัติ",
        "คุณสมบัติมาตรฐานสำหรับกรรมการและพนักงานรัฐวิสาหกิจ (ฉบับที่ ๕)",
        "พ.ศ. ๒๕๕๐",
        "",
        "",
        "ภูมิพลอดุลยเดช ป.ร.",
        "ให้ไว้ ณ วันที่ ๒๘ สิงหาคม พ.ศ. ๒๕๕๐",
        "เป็นปีที่ ๖๒ ในรัชกาลปัจจุบัน"
      ]
    ],
    []
  ],
  "metadata": {
    "date_header": "2550-08-28",
    "date_modified": "2550-09-05",
    "date_original": "2550-09-05",
    "doctype": "พระราชบัญญัติ",
    "editors": [
      {
        "name": "วัชศักดิ์",
        "role": "ผู้จัดทำ",
        "date": "2550-09-12"
      }
    ],
    "tag": "a431-20-2550-a0001",
    "title": "คุณสมบัติมาตรฐานสำหรับกรรมการและพนักงานรัฐวิสาหกิจ (ฉบับที่ ๕)"
  }
}