{
  "pages": [
    [
      [
        "ระเบียบสำนักนายกรัฐมนตรี",
        "ว่าด้วยการใช้ การชัก หรือการแสดงธงชาติ",
        "และธงของต่างประเทศในราชอาณาจักร",
        "พ.ศ. ๒๕๒๙"
      ]
    ],
    []
  ],
  "metadata": {
    "date_backmatter": "2529-03-31",
    "date_modified": "2560-07-27",
    "date_original": "2529-04-03",
    "editors": [
      {
        "name": "นุสรา",
        "role": "ปรับปรุง",
        "date": "2560-10-20"
      }
    ],
    "tag": "b801-2g-9999-update"
  }
}