{
  "pages": [
    [
      [
        "ประกาศคณะกรรมการกำกับตลาดทุน",
        "ที่ ทธ. ๑/๒๕๖๐",
        "เรื่อง การให้บริการแก่ลูกค้าในการลงทุนในผลิตภัณฑ์",
        "ในตลาดทุนที่เป็นสกุลเงินตราต่างประเทศ"
      ]
    ],
    []
  ],
  "metadata": {
    "date_backmatter": "2560-01-17",
    "date_modified": "2561-02-15",
    "date_original": "2560-02-15",
    "doctype": "ประกาศ",
    "editors": [
      {
        "name": "ปริยานุช",
        "role": "จัดทำ",
        "date": "2560-02-20"
      },
      {
        "name": "วริญา",
        "role": "ตรวจ",
        "date": "2560-02-28"
      },
      {
        "name": "พรวิภา",
        "role": "เพิ่มเติม",
        "date": "2560-11-30"
      },
      {
        "name": "พิมพ์มาดา",
        "role": "เพิ่มเติม",
        "date": "2561-03-26"
      }
    ],
    "tag": "ca65-2e-9961-update"
  }
}