{
  "pages": [
    [
      [
        "ประกาศคณะกรรมการกำกับตลาดทุน",
        "ที่ ทธ. ๘๐/๒๕๕๒",
        "เรื่อง หลักเกณฑ์การประกอบธุรกิจสัญญาซื้อขายล่วงหน้าสำหรับ",
        "ผู้ได้รับใบอนุญาตเป็นตัวแทนซื้อขายสัญญาซื้อขายล่วงหน้า"
      ]
    ],
    []
  ],
  "metadata": {
    "date_backmatter": "2547-12-22",
    "date_modified": "2552-08-29",
    "date_original": "2552-08-29",
    "doctype": "ประกาศ",
    "editors": [
      {
        "name": "ปริยานุช",
        "role": "ผู้จัดทำ",
        "date": "2552-09-08"
      },
      {
        "name": "ปณตภร",
        "role": "ปรับปรุง",
        "date": "2556-06-25"
      }
    ],
    "tag": "ca65-2e-2552-a0004"
  }
}