{
  "pages": [
    [
      [
        "ประกาศสำนักงานคณะกรรมการกำกับหลักทรัพย์และตลาดหลักทรัพย์",
        "ที่ สธ. ๕๑/๒๕๖๐",
        "เรื่อง การคำนวณและการรายงานการคำนวณเงินกองทุน",
        "สภาพคล่องสุทธิของผู้ได้รับใบอนุญาตเป็นตัวแทน",
        "ซื้อขายสัญญาซื้อขายล่วงหน้า"
      ]
    ],
    []
  ],
  "metadata": {
    "date_backmatter": "2560-12-29",
    "date_modified": "2561-01-11",
    "date_original": "2561-01-11",
    "doctype": "ประกาศ",
    "editors": [
      {
        "name": "ปุณิกา/อัญชลี",
        "role": "จัดทำ",
        "date": "2561-01-15"
      },
      {
        "name": "นุสรา",
        "role": "ตรวจ",
        "date": "2561-01-16"
      }
    ],
    "tag": "ca65-2e-2561-a0002"
  }
}