{
  "pages": [
    [
      [
        "ประกาศคณะกรรมการกำกับหลักทรัพย์และตลาดหลักทรัพย์",
        "ที่ กธ. ๑๐/๒๕๖๐",
        "เรื่อง การให้ความเห็นชอบนิติบุคคลตามกฎหมายต่างประเทศ",
        "เพื่อให้คำแนะนำทั่วไปแก่ผู้ลงทุน"
      ]
    ],
    []
  ],
  "metadata": {
    "date_backmatter": "2560-02-20",
    "date_modified": "2560-02-28",
    "date_original": "2560-02-28",
    "doctype": "ประกาศ",
    "editors": [
      {
        "name": "ปริยานุช",
        "role": "จัดทำ",
        "date": "2560-03-08"
      },
      {
        "name": "พรวิภา",
        "role": "ตรวจ",
        "date": "2560-03-08"
      }
    ],
    "tag": "ca65-2e-2560-a0013"
  }
}