{
  "pages": [
    [
      [
        "ประกาศคณะกรรมการกำกับหลักทรัพย์และตลาดหลักทรัพย์",
        "ที่ กด. ๒๑/๒๕๕๒",
        "เรื่อง การออกใบอนุญาตประกอบการเป็นศูนย์ซื้อขายสัญญา",
        "ซื้อขายล่วงหน้าและสำนักหักบัญชีสัญญาซื้อขายล่วงหน้า"
      ]
    ],
    []
  ],
  "metadata": {
    "date_backmatter": "2558-09-01",
    "date_modified": "2558-09-01",
    "date_original": "2552-08-25",
    "doctype": "ประกาศ",
    "editors": [
      {
        "name": "วิศนี",
        "role": "ผู้จัดทำ",
        "date": "2558-09-17"
      }
    ],
    "tag": "ca65-2e-2558-a0028"
  }
}