{
  "pages": [
    [
      [
        "ประกาศคณะกรรมการกำกับหลักทรัพย์และตลาดหลักทรัพย์",
        "ที่ กธ/น/ข. ๒๗/๒๕๖๐",
        "เรื่อง การอนุญาตการประกอบธุรกิจสัญญาซื้อขายล่วงหน้า",
        "(ฉบับที่ ๕)"
      ]
    ],
    []
  ],
  "metadata": {
    "date_backmatter": "2560-10-31",
    "date_modified": "2560-11-23",
    "date_original": "2560-11-23",
    "doctype": "ประกาศ",
    "editors": [
      {
        "name": "ภวรรณตรี",
        "role": "จัดทำ",
        "date": "2560-12-08"
      },
      {
        "name": "ปวันวิทย์",
        "role": "ตรวจ",
        "date": "2560-12-28"
      }
    ],
    "tag": "ca65-2e-2560-a0027"
  }
}