{
  "pages": [
    [
      [
        "ประกาศสำนักงานคณะกรรมการกำกับหลักทรัพย์และตลาดหลักทรัพย์",
        "ที่ สธ. ๘๓/๒๕๕๘",
        "เรื่อง หลักเกณฑ์เกี่ยวกับการแต่งตั้งบุคคลอื่นเป็นผู้ให้บริการ",
        "ในนามของตัวแทนซื้อขายสัญญาซื้อขายล่วงหน้าเพิ่มเติม"
      ]
    ],
    []
  ],
  "metadata": {
    "date_backmatter": "2558-12-02",
    "date_modified": "2558-12-14",
    "date_original": "2558-12-14",
    "doctype": "ประกาศ",
    "editors": [
      {
        "name": "ปริยานุช ,กัญฑรัตน์",
        "role": "จัดทำ",
        "date": "2558-12-16"
      },
      {
        "name": "นุสรา",
        "role": "ตรวจ",
        "date": "2558-12-16"
      }
    ],
    "tag": "ca65-2e-2558-a0015"
  }
}