{
  "pages": [
    [
      [
        "ประกาศคณะกรรมการกำกับตลาดทุน",
        "ที่ ทธ. ๒/๒๕๕๓",
        "เรื่อง หลักเกณฑ์การประกอบธุรกิจสัญญาซื้อขายล่วงหน้าสำหรับ",
        "ผู้ได้รับใบอนุญาตเป็นตัวแทนซื้อขายสัญญาซื้อขายล่วงหน้า",
        "(ฉบับที่ ๒)"
      ]
    ],
    []
  ],
  "metadata": {
    "date_backmatter": "2553-02-01",
    "date_modified": "2553-02-26",
    "date_original": "2553-02-26",
    "doctype": "ประกาศ",
    "editors": [
      {
        "name": "ปริยานุช",
        "role": "ผู้จัดทำ",
        "date": "2553-03-10"
      },
      {
        "name": "นันท์นภัสร์",
        "role": "ตรวจ",
        "date": "2553-03-10"
      },
      {
        "name": "ปณตภร",
        "role": "ปรับปรุง",
        "date": "2556-06-25"
      }
    ],
    "tag": "ca65-2e-2553-a0005"
  }
}