{
  "pages": [
    [
      [
        "ประกาศคณะกรรมการกำกับตลาดทุน",
        "ที่ ทค. ๙๐/๒๕๕๒",
        "เรื่อง การเปิดเผยข้อมูลข่าวสารตามพระราชบัญญัติสัญญาซื้อขายล่วงหน้า",
        "พ.ศ. ๒๕๔๖"
      ]
    ],
    []
  ],
  "metadata": {
    "date_backmatter": "2552-08-21",
    "date_modified": "2552-08-29",
    "date_original": "2552-08-29",
    "doctype": "ประกาศ",
    "editors": [
      {
        "name": "ปริยานุช",
        "role": "ผู้จัดทำ",
        "date": "2552-09-04"
      }
    ],
    "tag": "ca65-2e-2552-a0014"
  }
}