{
  "pages": [
    [
      [
        "ประกาศคณะกรรมการกำกับตลาดทุน",
        "ที่ ทธ. ๓๑/๒๕๕๖",
        "เรื่อง หลักเกณฑ์การขออนุญาตและการอนุญาต",
        "ให้ผู้ประกอบธุรกิจมีสำนักงานสาขา"
      ]
    ],
    []
  ],
  "metadata": {
    "date_backmatter": "2556-06-26",
    "date_modified": "2556-07-17",
    "date_original": "2556-07-17",
    "doctype": "ประกาศ",
    "editors": [
      {
        "name": "ปริยานุช",
        "role": "ผู้จัดทำ",
        "date": "2556-07-26"
      },
      {
        "name": "อุษมล",
        "role": "ผู้ตรวจ",
        "date": "2556-07-26"
      }
    ],
    "tag": "ca65-2e-2556-a0008"
  }
}