{
  "pages": [
    [
      [
        "ประกาศคณะกรรมการกำกับหลักทรัพย์และตลาดหลักทรัพย์",
        "ที่ กธ. ๖/๒๕๕๕",
        "เรื่อง การจดทะเบียนเป็นผู้ประกอบธุรกิจสัญญาซื้อขายล่วงหน้า",
        "ประเภทตัวแทนซื้อขายสัญญาซื้อขายล่วงหน้า",
        "และผู้ค้าสัญญาซื้อขายล่วงหน้า",
        "(ฉบับที่ ๒)"
      ]
    ],
    []
  ],
  "metadata": {
    "date_backmatter": "2555-06-29",
    "date_modified": "2555-07-18",
    "date_original": "2555-07-18",
    "doctype": "ประกาศ",
    "editors": [
      {
        "name": "ปริยานุช",
        "role": "ผู้จัดทำ",
        "date": "2555-07-24"
      },
      {
        "name": "ปณตภร",
        "role": "ผู้ตรวจ",
        "date": "2555-07-27"
      }
    ],
    "tag": "ca65-2e-2555-a0010"
  }
}