{
  "pages": [
    [
      [
        "ประกาศคณะกรรมการกำกับตลาดทุน",
        "ที่ ทธ. ๒๒/๒๕๕๓",
        "เรื่อง หลักเกณฑ์การประกอบธุรกิจสัญญาซื้อขายล่วงหน้าสำหรับ",
        "ผู้ได้รับการจดทะเบียนเป็นตัวแทนซื้อขายสัญญาซื้อขายล่วงหน้า",
        "และผู้ค้าสัญญาซื้อขายล่วงหน้า"
      ]
    ],
    []
  ],
  "metadata": {
    "date_backmatter": "2553-06-01",
    "date_modified": "2560-02-15",
    "date_original": "2553-06-15",
    "doctype": "ประกาศ",
    "editors": [
      {
        "name": "ปณตภร",
        "role": "ผู้จัดทำ",
        "date": "2556-06-26"
      },
      {
        "name": "ปณตภร",
        "role": "เพิ่มเติม",
        "date": "2557-03-12"
      },
      {
        "name": "วริญา",
        "role": "เพิ่มเติม",
        "date": "2560-02-24"
      }
    ],
    "tag": "ca65-2e-9982-update"
  }
}