{
  "pages": [
    [
      [
        "ประกาศคณะกรรมการกำกับตลาดทุน",
        "ที่ ทน. ๓/๒๕๕๑",
        "เรื่อง หลักเกณฑ์การจัดการเงินทุนสัญญาซื้อขายล่วงหน้า"
      ]
    ],
    []
  ],
  "metadata": {
    "date_backmatter": "2551-04-02",
    "date_modified": "2551-05-20",
    "date_original": "2551-05-20",
    "doctype": "ประกาศ",
    "editors": [
      {
        "name": "ปริยานุช",
        "role": "ผู้จัดทำ",
        "date": "2551-05-29"
      }
    ],
    "tag": "ca65-2e-2551-a0003"
  }
}