{
  "pages": [
    [
      [
        "ประกาศคณะกรรมการกำกับหลักทรัพย์และตลาดหลักทรัพย์",
        "ที่ กธ. ๙/๒๕๕๖",
        "เรื่อง การแยกและจัดการทรัพย์สินของลูกค้า",
        "ในกรณีผู้ประกอบธุรกิจถูกศาล",
        "สั่งพิทักษ์ทรัพย์"
      ]
    ],
    []
  ],
  "metadata": {
    "date_backmatter": "2556-10-18",
    "date_modified": "2556-11-08",
    "date_original": "2556-11-08",
    "doctype": "ประกาศ",
    "editors": [
      {
        "name": "ปริยานุช",
        "role": "ผู้จัดทำ",
        "date": "2556-11-12"
      },
      {
        "name": "อังศุมาลี",
        "role": "ผู้ตรวจ",
        "date": "2556-11-12"
      }
    ],
    "tag": "ca65-2e-2556-a0019"
  }
}