{
  "pages": [
    [
      [
        "ประกาศคณะกรรมการกำกับตลาดทุน",
        "ที่ ทธ. ๒๐/๒๕๖๐",
        "เรื่อง หลักเกณฑ์ชั่วคราวในการประกอบธุรกิจสำหรับ",
        "ผู้ประกอบธุรกิจหลักทรัพย์และผู้ประกอบธุรกิจ",
        "สัญญาซื้อขายล่วงหน้าบางประเภท"
      ]
    ],
    []
  ],
  "metadata": {
    "date_backmatter": "2560-02-20",
    "date_modified": "2560-02-28",
    "date_original": "2560-02-28",
    "doctype": "ประกาศ",
    "editors": [
      {
        "name": "ปริยานุช",
        "role": "จัดทำ",
        "date": "2560-03-08"
      },
      {
        "name": "พรวิภา",
        "role": "ตรวจ",
        "date": "2560-03-08"
      }
    ],
    "tag": "ca65-2e-2560-a0015"
  }
}