{
  "pages": [
    [
      [
        "ประกาศคณะกรรมการกำกับตลาดทุน",
        "ที่ ทธ. ๖/๒๕๖๐",
        "เรื่อง มาตรฐานการประกอบธุรกิจ โครงสร้างการบริหารงาน ระบบงาน",
        "และการให้บริการของผู้ประกอบธุรกิจหลักทรัพย์",
        "และผู้ประกอบธุรกิจสัญญาซื้อขายล่วงหน้า",
        "(ฉบับที่ ๗)"
      ]
    ],
    []
  ],
  "metadata": {
    "date_backmatter": "2560-02-09",
    "date_modified": "2560-02-15",
    "date_original": "2560-02-15",
    "doctype": "ประกาศ",
    "editors": [
      {
        "name": "วริญา/ปริยานุช",
        "role": "จัดทำ",
        "date": "2560-02-20"
      }
    ],
    "tag": "ca65-2e-2560-a0011"
  }
}