{
  "pages": [
    [
      [
        "ประกาศคณะกรรมการกำกับหลักทรัพย์",
        "และตลาดหลักทรัพย์",
        "ที่ กธ. ๕๒/๒๕๔๘",
        "เรื่อง การดูแลรักษาทรัพย์สินที่สำนักหักบัญชี",
        "สัญญาซื้อขายล่วงหน้าได้รับมาหรือมีไว้เพื่อสมาชิก"
      ]
    ],
    []
  ],
  "metadata": {
    "date_backmatter": "2548-10-28",
    "date_modified": "2548-12-16",
    "date_original": "2548-12-16",
    "doctype": "ประกาศ",
    "editors": [
      {
        "name": "พชร",
        "role": "ผู้จัดทำ",
        "date": "2548-12-21"
      }
    ],
    "tag": "ca65-2e-2548-a0012"
  }
}