{
  "pages": [
    [
      [
        "ประกาศสำนักงานคณะกรรมการกำกับหลักทรัพย์และตลาดหลักทรัพย์",
        "ที่ สธ. ๑๑/๒๕๕๔",
        "เรื่อง หลักเกณฑ์สำหรับตัวแทนซื้อขายสัญญาซื้อขายล่วงหน้า",
        "ในการใช้บริการด้านผู้ติดต่อกับผู้ลงทุนใน",
        "สัญญาซื้อขายล่วงหน้าที่เกี่ยวกับโลหะมีค่า"
      ]
    ],
    []
  ],
  "metadata": {
    "date_backmatter": "2554-04-29",
    "date_modified": "2554-05-25",
    "date_original": "2554-05-25",
    "doctype": "ประกาศ",
    "editors": [
      {
        "name": "ปริยานุช",
        "role": "ผู้จัดทำ",
        "date": "2554-06-07"
      },
      {
        "name": "ณัฐวดี",
        "role": "ตรวจ",
        "date": "2554-06-07"
      }
    ],
    "tag": "ca65-2e-2554-a0003"
  }
}