{
  "pages": [
    [
      [
        "ประกาศคณะกรรมการกำกับหลักทรัพย์และตลาดหลักทรัพย์",
        "ที่ กธ. ๒๖/๒๕๕๘",
        "เรื่อง การกำหนดทุนจดทะเบียนซึ่งชำระแล้วของ",
        "ผู้ประกอบธุรกิจสัญญาซื้อขายล่วงหน้า"
      ]
    ],
    []
  ],
  "metadata": {
    "date_backmatter": "2558-12-02",
    "date_modified": "2560-04-26",
    "date_original": "2558-12-14",
    "doctype": "ประกาศ",
    "editors": [
      {
        "name": "ปริยานุช ,กัญฑรัตน์",
        "role": "จัดทำ",
        "date": "2558-12-16"
      },
      {
        "name": "นุสรา",
        "role": "ตรวจ",
        "date": "2558-12-16"
      },
      {
        "name": "วริญา",
        "role": "เพิ่มเติม",
        "date": "2560-05-25"
      }
    ],
    "tag": "ca65-2e-9965-update"
  }
}