{
  "pages": [
    [
      [
        "ประกาศคณะกรรมการกำกับตลาดทุน",
        "ที่ ทธ. ๓๘/๒๕๕๖",
        "เรื่อง หลักเกณฑ์การจัดการเงินทุนสัญญาซื้อขายล่วงหน้า",
        "สำหรับผู้ได้รับการจดทะเบียนเป็นผู้จัดการเงินทุน",
        "สัญญาซื้อขายล่วงหน้า"
      ]
    ],
    []
  ],
  "metadata": {
    "date_backmatter": "2556-10-02",
    "date_modified": "2557-02-07",
    "date_original": "2556-10-29",
    "doctype": "ประกาศ",
    "editors": [
      {
        "name": "ปณตภร",
        "role": "ผู้จัดทำ",
        "date": "2557-03-12"
      }
    ],
    "tag": "ca65-2e-2557-a0016"
  }
}