{
  "pages": [
    [
      [
        "ประกาศสำนักงานคณะกรรมการกำกับหลักทรัพย์",
        "และตลาดหลักทรัพย์",
        "ที่ สธ. ๒๒/๒๕๔๙",
        "เรื่อง การกำหนดอัตราหรือมูลค่าของทรัพย์สินที่ต้องวางเป็นประกัน"
      ]
    ],
    []
  ],
  "metadata": {
    "date_backmatter": "2549-05-08",
    "date_modified": "2549-06-19",
    "date_original": "2549-06-19",
    "doctype": "ประกาศ",
    "editors": [
      {
        "name": "นันทนา",
        "role": "ผู้จัดทำ",
        "date": "2549-06-27"
      }
    ],
    "tag": "ca65-2e-2549-a0011"
  }
}