{
  "pages": [
    [
      [
        "ประกาศคณะกรรมการกำกับหลักทรัพย์และตลาดหลักทรัพย์",
        "ที่ กด. ๒๑/๒๕๕๓",
        "เรื่อง การกำหนดประเภทสินค้าและตัวแปรเพิ่มเติม"
      ]
    ],
    []
  ],
  "metadata": {
    "date_backmatter": "2553-12-02",
    "date_modified": "2553-12-15",
    "date_original": "2553-12-15",
    "doctype": "ประกาศ",
    "editors": [
      {
        "name": "ปริยานุช",
        "role": "ผู้จัดทำ",
        "date": "2553-12-22"
      },
      {
        "name": "ณัฐวดี",
        "role": "ตรวจ",
        "date": "2553-12-22"
      }
    ],
    "tag": "ca65-2e-2553-a0020"
  }
}