{
  "pages": [
    [
      [
        "ประกาศกระทรวงการคลัง",
        "เรื่อง แบบบัตรประจำตัวพนักงานเจ้าหน้าที่ปฏิบัติการ",
        "ตามพระราชบัญญัติสัญญาซื้อขายล่วงหน้า พ.ศ. ๒๕๔๖"
      ]
    ],
    []
  ],
  "metadata": {
    "date_backmatter": "2547-09-13",
    "date_modified": "2547-11-01",
    "date_original": "2547-11-01",
    "doctype": "ประกาศ",
    "editors": [
      {
        "name": "สุภาพร",
        "role": "พิมพ์",
        "date": "2548-03-22"
      },
      {
        "name": "สุนันทา/นวพร",
        "role": "ตรวจ",
        "date": "2548-04-22"
      }
    ],
    "tag": "ca65-2e-2547-a0011"
  }
}