{
  "pages": [
    [
      [
        "ประกาศสำนักงานคณะกรรมการกำกับหลักทรัพย์และตลาดหลักทรัพย์",
        "ที่ สธ/น. ๔๕/๒๕๕๙",
        "เรื่อง หลักเกณฑ์ในรายละเอียดเกี่ยวกับข้อกำหนดในการจัดให้มี",
        "ระบบการบริหารความเสี่ยงเพื่อการดำเนินธุรกิจ",
        "อย่างต่อเนื่องของผู้ประกอบธุรกิจ"
      ]
    ],
    []
  ],
  "metadata": {
    "date_backmatter": "2559-10-21",
    "date_modified": "2559-12-21",
    "date_original": "2559-12-21",
    "doctype": "ประกาศ",
    "editors": [
      {
        "name": "ปริยานุช",
        "role": "จัดทำ",
        "date": "2559-12-26"
      },
      {
        "name": "ชวัลพร",
        "role": "ตรวจ",
        "date": "2560-01-27"
      }
    ],
    "tag": "ca65-2e-2559-a0015"
  }
}