{
  "pages": [
    [
      [
        "ประกาศสำนักงานคณะกรรมการกำกับหลักทรัพย์",
        "และตลาดหลักทรัพย์",
        "ที่ สธ. ๙/๒๕๔๙",
        "เรื่อง การจัดทำและการยื่นรายงานของผู้ได้รับใบอนุญาต",
        "เป็นตัวแทนซื้อขายสัญญาซื้อขายล่วงหน้า"
      ]
    ],
    []
  ],
  "metadata": {
    "date_backmatter": "2549-03-31",
    "date_modified": "2549-07-19",
    "date_original": "2549-05-24",
    "doctype": "ประกาศ",
    "editors": [
      {
        "name": "วาทินี",
        "role": "ปรับปรุง",
        "date": "2549-10-18"
      }
    ],
    "tag": "ca65-2e-9993-update"
  }
}