{
  "pages": [
    [
      [
        "ประกาศสำนักงานคณะกรรมการกำกับหลักทรัพย์และตลาดหลักทรัพย์",
        "ที่ สธ. ๕๙/๒๕๕๘",
        "เรื่อง การขอความเห็นชอบและการให้ความเห็นชอบบุคคลที่เป็น",
        "หรือจะเป็นผู้ถือหุ้นรายใหญ่ของผู้ประกอบธุรกิจ",
        "สัญญาซื้อขายล่วงหน้า"
      ]
    ],
    []
  ],
  "metadata": {
    "date_backmatter": "2558-07-10",
    "date_modified": "2558-07-20",
    "date_original": "2558-07-20",
    "doctype": "ประกาศ",
    "editors": [
      {
        "name": "ปริยานุช",
        "role": "ผู้จัดทำ",
        "date": "2558-07-22"
      },
      {
        "name": "วริญา",
        "role": "ผู้ตรวจ",
        "date": "2558-08-10"
      }
    ],
    "tag": "ca65-2e-2558-a0003"
  }
}