{
  "pages": [
    [
      [
        "ประกาศสำนักงานคณะกรรมการกำกับหลักทรัพย์และตลาดหลักทรัพย์",
        "ที่ สอ. ๘/๒๕๕๖",
        "เรื่อง กระบวนการอนุญาโตตุลาการของสำนักงาน",
        "(ฉบับที่ ๒)"
      ]
    ],
    []
  ],
  "metadata": {
    "date_backmatter": "2556-02-18",
    "date_modified": "2556-03-12",
    "date_original": "2556-03-12",
    "doctype": "ประกาศ",
    "editors": [
      {
        "name": "ปริยานุช",
        "role": "ผู้จัดทำ",
        "date": "2556-03-15"
      },
      {
        "name": "อุษมล",
        "role": "ผู้ตรวจ",
        "date": "2556-03-20"
      }
    ],
    "tag": "ca65-2e-2556-a0003"
  }
}