{
  "pages": [
    [
      [
        "ประกาศคณะกรรมการกำกับและส่งเสริมการประกอบธุรกิจประกันภัย",
        "เรื่อง การจัดสรรสินทรัพย์ไว้สำหรับหนี้สินและภาระผูกพันตามสัญญาประกันภัย",
        "และการฝากสินทรัพย์ไว้กับสถาบันการเงิน (ฉบับที่ ๒)",
        "พ.ศ. ๒๕๕๕"
      ]
    ],
    []
  ],
  "metadata": {
    "date_backmatter": "2555-03-13",
    "date_modified": "2555-04-26",
    "date_original": "2555-04-26",
    "doctype": "ประกาศ",
    "editors": [
      {
        "name": "ปริยานุช",
        "role": "ผู้จัดทำ",
        "date": "2555-04-30"
      },
      {
        "name": "ปณตภร",
        "role": "ผู้ตรวจ",
        "date": "2555-05-11"
      }
    ],
    "tag": "bb10-2e-2555-a0008"
  }
}