{
  "pages": [
    [
      [
        "คำสั่งนายทะเบียน",
        "ที่ ๖/๒๕๕๐",
        "เรื่อง ให้ใช้กรมธรรม์ประกันภัยและเอกสารแนบท้ายกรมธรรม์ประกันภัย",
        "คุ้มครองผู้ประสบภัยจากรถแทนฉบับเดิม"
      ]
    ],
    []
  ],
  "metadata": {
    "date_backmatter": "2550-04-23",
    "date_modified": "2550-08-03",
    "date_original": "2550-08-03",
    "editors": [
      {
        "name": "ปริญสินีย์",
        "role": "ผู้จัดทำ",
        "date": "2555-05-31"
      },
      {
        "name": "จุฑามาศ",
        "role": "ปรับปรุง",
        "date": "2557-08-21"
      }
    ],
    "tag": "bb10-2f-2550-a0009"
  }
}