{
  "pages": [
    [
      [
        "ประกาศคณะกรรมการกำกับและส่งเสริมการประกอบธุรกิจประกันภัย",
        "เรื่อง กำหนดอัตรา หลักเกณฑ์ วิธีการ เงื่อนไข และระยะเวลาที่บริษัทต้องนำส่งเงินเข้า",
        "กองทุนประกันวินาศภัย (ฉบับที่ ๒)",
        "พ.ศ. ๒๕๕๖"
      ]
    ],
    []
  ],
  "metadata": {
    "date_backmatter": "2556-04-19",
    "date_modified": "2556-06-06",
    "date_original": "2556-06-06",
    "doctype": "ประกาศ",
    "editors": [
      {
        "name": "ปริยานุช",
        "role": "ผู้จัดทำ",
        "date": "2556-06-10"
      },
      {
        "name": "อุษมล",
        "role": "ผู้ตรวจ",
        "date": "2556-06-13"
      }
    ],
    "tag": "bb10-2e-2556-a0001"
  }
}