{
  "pages": [
    [
      [
        "คำสั่งนายทะเบียน",
        "ที่ ๒/๒๕๕๔",
        "เรื่อง ให้แก้ไขเพิ่มเติมพิกัดอัตราเบี้ยประกันภัยรถยนต์",
        "และตารางอัตราเบี้ยประกันภัยรถยนต์ภาคสมัครใจสำหรับรถยนต์ลากจูง (รหัส ๔๒๐)"
      ]
    ],
    []
  ],
  "metadata": {
    "date_backmatter": "2554-01-14",
    "date_modified": "2554-03-04",
    "date_original": "2554-03-04",
    "editors": [
      {
        "name": "ปริญสินีย์",
        "role": "ผู้จัดทำ",
        "date": "2555-05-31"
      },
      {
        "name": "จุฑามาศ",
        "role": "ปรับปรุง",
        "date": "2557-10-31"
      }
    ],
    "tag": "bb10-2f-2554-a0001"
  }
}