{
  "pages": [
    [
      [
        "คำสั่งนายทะเบียน",
        "ที่ ๑/๒๕๔๓",
        "เรื่อง เลื่อนกำหนดระยะเวลาให้บริษัทประกันวินาศภัย",
        "ยื่นรายงานการประกันภัยรถยนต์ภาคสมัครใจ"
      ]
    ],
    []
  ],
  "metadata": {
    "date_backmatter": "2543-01-18",
    "date_modified": "2543-04-24",
    "date_original": "2543-04-24",
    "editors": [
      {
        "name": "ปริญสินีย์",
        "role": "ผู้จัดทำ",
        "date": "2555-05-31"
      },
      {
        "name": "จุฑามาศ",
        "role": "ปรับปรุง",
        "date": "2557-08-19"
      }
    ],
    "tag": "bb10-2f-2543-a009"
  }
}