{
  "pages": [
    [
      [
        "ประกาศคณะกรรมการกำกับและส่งเสริมการประกอบธุรกิจประกันภัย",
        "เรื่อง กำหนดหลักเกณฑ์ วิธีการ เงื่อนไข การขออนุญาต การอนุญาต",
        "และการต่ออายุใบอนุญาตเป็นตัวแทนประกันวินาศภัย และนายหน้าประกันวินาศภัย",
        "พ.ศ. ๒๕๕๑"
      ]
    ],
    []
  ],
  "metadata": {
    "date_backmatter": "2551-12-09",
    "date_modified": "2552-02-15",
    "date_original": "2552-02-15",
    "doctype": "ประกาศ",
    "editors": [
      {
        "name": "ปริญสินีย์",
        "role": "ผู้จัดทำ",
        "date": "2555-05-31"
      },
      {
        "name": "จุฑามาศ",
        "role": "ปรับปรุง",
        "date": "2557-08-14"
      }
    ],
    "tag": "bb10-2e-2552-a0005"
  }
}