{
  "pages": [
    [
      [
        "ประกาศนายทะเบียน",
        "เรื่อง หลักเกณฑ์ วิธีการและเงื่อนไขให้ผู้สอบบัญชีประเมินระบบ",
        "การควบคุมภายในและระเบียบวิธีปฏิบัติการลงทุนประกอบธุรกิจอื่น",
        "ของบริษัทประกันวินาศภัย"
      ]
    ],
    []
  ],
  "metadata": {
    "date_backmatter": "2547-03-29",
    "date_modified": "2547-06-25",
    "date_original": "2547-06-25",
    "doctype": "ประกาศ",
    "editors": [
      {
        "name": "ปริญสินีย์",
        "role": "ผู้จัดทำ",
        "date": "2555-05-31"
      },
      {
        "name": "อภิญญา",
        "role": "ปรับปรุง",
        "date": "2557-08-22"
      }
    ],
    "tag": "bb10-2e-2547-a0005"
  }
}