{
  "pages": [
    [
      [
        "ประกาศกระทรวงพาณิชย์",
        "เรื่อง วิธีเก็บเบี้ยประกันภัย"
      ]
    ],
    []
  ],
  "metadata": {
    "date_backmatter": "2522-11-05",
    "date_modified": "2534-10-31",
    "date_original": "2522-11-29",
    "doctype": "ประกาศ",
    "editors": [
      {
        "name": "ปริญสินีย์",
        "role": "ผู้จัดทำ",
        "date": "2555-05-31"
      },
      {
        "name": "โชติกานต์",
        "role": "ปรับปรุง",
        "date": "2557-08-19"
      },
      {
        "name": "จุฑามาศ",
        "role": "ปรับปรุง",
        "date": "2559-01-13"
      }
    ],
    "tag": "bb10-2e-9999-update"
  }
}