{
  "pages": [
    [
      [
        "ประกาศสำนักงานคณะกรรมการกำกับและส่งเสริมการประกอบธุรกิจประกันภัย",
        "เรื่อง หลักเกณฑ์ วิธีการ และเงื่อนไขการขึ้นทะเบียนกิจกรรมทางอิเล็กทรอนิกส์",
        "การขอรับความเห็นชอบการใช้บริการบุคคลภายนอก และการรับรองระบบสารสนเทศ",
        "พ.ศ. ๒๕๖๐"
      ]
    ],
    []
  ],
  "metadata": {
    "date_backmatter": "2560-05-25",
    "date_modified": "2560-08-18",
    "date_original": "2560-08-18",
    "doctype": "ประกาศ",
    "editors": [
      {
        "name": "ภวรรณตรี",
        "role": "จัดทำ",
        "date": "2560-08-22"
      },
      {
        "name": "พิมพ์มาดา",
        "role": "ตรวจ",
        "date": "2560-08-22"
      }
    ],
    "tag": "bb10-2e-2560-a0005"
  }
}