{
  "pages": [
    [
      [
        "ประกาศนายทะเบียน",
        "เรื่อง กำหนดหลักสูตรและวิธีการสอบความรู้เกี่ยวกับ",
        "การประกันวินาศภัย สำหรับตัวแทนประกันวินาศภัย เฉพาะการประกันภัย",
        "รถจักรยานยนต์ ตามพระราชบัญญัติคุ้มครองผู้ประสบภัยจากรถ",
        "พ.ศ. ๒๕๓๕ ของ บริษัท กลางคุ้มครองผู้ประสบภัยจากรถ จำกัด"
      ]
    ],
    []
  ],
  "metadata": {
    "date_backmatter": "2542-09-14",
    "date_modified": "2542-10-08",
    "date_original": "2542-10-08",
    "doctype": "ประกาศ",
    "editors": [
      {
        "name": "ปริญสินีย์",
        "role": "ผู้จัดทำ",
        "date": "2555-05-31"
      },
      {
        "name": "อภิญญา",
        "role": "ปรับปรุง",
        "date": "2557-08-19"
      }
    ],
    "tag": "bb10-2e-2542-a007"
  }
}