{
  "pages": [
    [
      [
        "ประกาศกรมการประกันภัย",
        "เรื่อง ให้ยกเลิกหลักเกณฑ์การให้ความเห็นชอบนิติบุคคล",
        "ที่ประกอบธุรกิจประเมินราคาอสังหาริมทรัพย์"
      ]
    ],
    []
  ],
  "metadata": {
    "date_backmatter": "2544-06-04",
    "date_modified": "2544-08-20",
    "date_original": "2544-08-20",
    "doctype": "ประกาศ",
    "editors": [
      {
        "name": "ปริญสินีย์",
        "role": "ผู้จัดทำ",
        "date": "2555-05-31"
      },
      {
        "name": "อภิญญา",
        "role": "ปรับปรุง",
        "date": "2557-08-20"
      }
    ],
    "tag": "bb10-2e-2544-a007"
  }
}