{
  "pages": [
    [
      [
        "คำสั่งนายทะเบียน",
        "ที่ ๒๓/๒๕๕๓",
        "เรื่อง กำหนดแบบ ข้อความและอัตราเบี้ยประกันภัยกรมธรรม์ประกันภัยอุบัติเหตุ",
        "สำหรับผู้ขับขี่รถจักรยานยนต์รับจ้าง (มอเตอร์ไซค์ยิ้ม) สำหรับบริษัทประกันวินาศภัย"
      ]
    ],
    []
  ],
  "metadata": {
    "date_backmatter": "2553-05-04",
    "date_modified": "2553-07-23",
    "date_original": "2553-07-23",
    "editors": [
      {
        "name": "ปริญสินีย์",
        "role": "ผู้จัดทำ",
        "date": "2555-05-31"
      },
      {
        "name": "จุฑามาศ",
        "role": "ปรับปรุง",
        "date": "2557-08-25"
      }
    ],
    "tag": "bb10-2f-2553-a0010"
  }
}