{
  "pages": [
    [
      [
        "คำสั่งนายทะเบียน",
        "ที่ ๔๖/๒๕๕๔",
        "เรื่อง ให้บริษัทเปิดเผยข้อมูลเกี่ยวกับฐานะการเงินและผลการดำเนินงาน",
        "ของบริษัทประกันวินาศภัย (ฉบับที่ ๔)"
      ]
    ],
    []
  ],
  "metadata": {
    "date_backmatter": "2554-11-11",
    "date_modified": "2554-12-20",
    "date_original": "2554-12-20",
    "editors": [
      {
        "name": "ปริยานุช",
        "role": "ผู้จัดทำ",
        "date": "2554-12-23"
      },
      {
        "name": "ปณตภร",
        "role": "ผู้ตรวจ",
        "date": "2554-12-27"
      }
    ],
    "tag": "bb10-2f-2554-a0010"
  }
}