{
  "pages": [
    [
      [
        "พระราชบัญญัติ",
        "ประกันวินาศภัย (ฉบับที่ ๓)",
        "พ.ศ. ๒๕๕๘",
        "",
        "",
        "ภูมิพลอดุลยเดช ป.ร.",
        "ให้ไว้ ณ วันที่ ๒๗ กุมภาพันธ์ พ.ศ. ๒๕๕๘",
        "เป็นปีที่ ๗๐ ในรัชกาลปัจจุบัน"
      ]
    ],
    []
  ],
  "metadata": {
    "date_header": "2558-02-27",
    "date_modified": "2558-03-05",
    "date_original": "2558-03-05",
    "doctype": "พระราชบัญญัติ",
    "editors": [
      {
        "name": "ปริยานุช",
        "role": "ผู้จัดทำ",
        "date": "2558-03-10"
      },
      {
        "name": "กฤษดายุทธ",
        "role": "ผู้ตรวจ",
        "date": "2558-03-10"
      }
    ],
    "tag": "bb10-20-2558-a0001",
    "title": "ประกันวินาศภัย (ฉบับที่ ๓)"
  }
}