{
  "pages": [
    [
      [
        "คำสั่งนายทะเบียน",
        "ที่ ๑/๒๕๕๘",
        "เรื่อง ให้แก้ไขแบบ ข้อความกรมธรรม์ประกันภัยคุ้มครองผู้ประสบภัยจากรถ",
        "และกรมธรรม์ประกันภัยรถยนต์รวมการคุ้มครองผู้ประสบภัยจากรถ"
      ]
    ],
    []
  ],
  "metadata": {
    "date_backmatter": "2558-01-27",
    "date_modified": "2559-04-04",
    "date_original": "2559-04-04",
    "editors": [
      {
        "name": "วริญา/ปริยานุช",
        "role": "จัดทำ",
        "date": "2559-04-05"
      },
      {
        "name": "นุสรา",
        "role": "ตรวจ",
        "date": "2559-05-11"
      }
    ],
    "tag": "bb10-2f-2559-a0002"
  }
}