{
  "pages": [
    [
      [
        "คำสั่งนายทะเบียน",
        "ที่ ๒๒/๒๕๕๑",
        "เรื่อง ให้ใช้แบบ ข้อความกรมธรรม์ประกันภัย เอกสารประกอบ",
        "และเอกสารแนบท้ายที่แก้ไข ปรับปรุงแทนแบบ ข้อความกรมธรรม์ประกันภัย",
        "เอกสารประกอบ และเอกสารแนบท้ายที่ถูกยกเลิก"
      ]
    ],
    []
  ],
  "metadata": {
    "date_backmatter": "2551-09-29",
    "date_modified": "2552-08-03",
    "date_original": "2552-08-03",
    "editors": [
      {
        "name": "ปริญสินีย์",
        "role": "ผู้จัดทำ",
        "date": "2555-05-31"
      }
    ],
    "tag": "bb10-2f-2552-a0005"
  }
}