{
  "pages": [
    [
      [
        "คำสั่งนายทะเบียน",
        "ที่ ๓๒/๒๕๔๒",
        "เรื่อง ให้บริษัทประกันวินาศภัยยื่นรายงาน",
        "การประกันภัยรถยนต์ภาคสมัครใจ"
      ]
    ],
    []
  ],
  "metadata": {
    "date_backmatter": "2542-11-24",
    "date_modified": "2543-04-24",
    "date_original": "2543-04-24",
    "editors": [
      {
        "name": "รัศม์วรรณวลัย",
        "role": "ผู้จัดทำ",
        "date": "2551-10-01"
      }
    ],
    "tag": "bb10-2f-9995-update"
  }
}