{
  "pages": [
    [
      [
        "คำสั่งนายทะเบียน",
        "ที่ ๑๑/๒๕๖๐",
        "เรื่อง ให้แก้ไขแบบ ข้อความกรมธรรม์ประกันภัย และเอกสารแนบท้ายของกรมธรรม์ประกันภัย"
      ]
    ],
    []
  ],
  "metadata": {
    "date_backmatter": "2560-03-16",
    "date_modified": "2560-05-19",
    "date_original": "2560-05-19",
    "editors": [
      {
        "name": "พิมพ์มาดา/ภวรรณตรี",
        "role": "จัดทำ",
        "date": "2560-05-24"
      }
    ],
    "tag": "bb10-2f-2560-a0005"
  }
}