{
  "pages": [
    [
      [
        "คำสั่งนายทะเบียน",
        "ที่ ๓๒/๒๕๕๕",
        "เรื่อง กำหนดอัตราเบี้ยประกันภัยสำหรับผู้เอาประกันภัยโดยตรงกับบริษัทประกันวินาศภัย"
      ]
    ],
    []
  ],
  "metadata": {
    "date_backmatter": "2555-08-28",
    "date_modified": "2555-10-10",
    "date_original": "2555-10-10",
    "editors": [
      {
        "name": "ปริยานุช",
        "role": "ผู้จัดทำ",
        "date": "2555-10-12"
      },
      {
        "name": "ปณตภร",
        "role": "ผู้ตรวจ",
        "date": "2555-10-26"
      }
    ],
    "tag": "bb10-2f-2555-a0006"
  }
}