{
  "pages": [
    [
      [
        "คำสั่งนายทะเบียน",
        "ที่ ๗/๒๕๕๒",
        "เรื่อง ให้บริษัทเปิดเผยข้อมูลเกี่ยวกับฐานะการเงินและผลการดำเนินงานของบริษัทประกันวินาศภัย",
        "(ฉบับที่ ๒)"
      ]
    ],
    []
  ],
  "metadata": {
    "date_backmatter": "2552-02-18",
    "date_modified": "2552-04-08",
    "date_original": "2552-04-08",
    "editors": [
      {
        "name": "ปริญสินีย์",
        "role": "ผู้จัดทำ",
        "date": "2555-05-31"
      },
      {
        "name": "จุฑามาศ",
        "role": "ปรับปรุง",
        "date": "2557-10-31"
      }
    ],
    "tag": "bb10-2f-2552-a0002"
  }
}