{
  "pages": [
    [
      [
        "ประกาศนายทะเบียน",
        "เรื่อง กำหนดแบบและรายการรายงานประจำปีแสดงฐานะการเงินและกิจการ",
        "ของบริษัทประกันวินาศภัย"
      ]
    ],
    []
  ],
  "metadata": {
    "date_backmatter": "2546-12-03",
    "date_modified": "2548-04-07",
    "date_original": "2547-02-19",
    "doctype": "ประกาศ",
    "editors": [
      {
        "name": "สุกัญญา",
        "role": "พิมพ์",
        "date": "2549-11-07"
      },
      {
        "name": "ต่อศักดิ์",
        "role": "ผู้จัดทำ",
        "date": "2549-11-07"
      }
    ],
    "tag": "bb10-2e-9995-update"
  }
}