{
  "pages": [
    [
      [
        "คำสั่งนายทะเบียน",
        "ที่ ๑๐/๒๕๕๔",
        "เรื่อง แก้ไข เปลี่ยนแปลง อัตราเบี้ยประกันภัยสินค้าที่ขนส่งภายในประเทศ",
        "ฉบับภาษาไทย และฉบับภาษาอังกฤษ"
      ]
    ],
    []
  ],
  "metadata": {
    "date_backmatter": "2554-02-17",
    "date_modified": "2554-03-31",
    "date_original": "2554-03-31",
    "editors": [
      {
        "name": "ปริญสินีย์",
        "role": "ผู้จัดทำ",
        "date": "2555-05-31"
      },
      {
        "name": "จุฑามาศ",
        "role": "ปรับปรุง",
        "date": "2557-08-25"
      }
    ],
    "tag": "bb10-2f-2554-a0004"
  }
}