{
  "pages": [
    [
      [
        "คำสั่งนายทะเบียน",
        "ที่ ๒๑/๒๕๔๕",
        "เรื่อง แก้ไขคำสั่งนายทะเบียนที่ ๕/๒๕๔๔ เรื่อง ให้บริษัทยื่นรายงาน",
        "การใช้ การชำรุด หรือสูญหายของเครื่องหมาย"
      ]
    ],
    []
  ],
  "metadata": {
    "date_backmatter": "2545-05-31",
    "date_modified": "2545-09-24",
    "date_original": "2545-09-24",
    "editors": [
      {
        "name": "ปริญสินีย์",
        "role": "ผู้จัดทำ",
        "date": "2555-05-31"
      },
      {
        "name": "จุฑามาศ",
        "role": "ปรับปรุง",
        "date": "2557-08-19"
      }
    ],
    "tag": "bb10-2f-2545-a0002"
  }
}