{
  "pages": [
    [
      [
        "ประกาศคณะกรรมการกำกับและส่งเสริมการประกอบธุรกิจประกันภัย",
        "เรื่อง กำหนดให้บริษัทประกันวินาศภัยเปิดทำการติดต่อกับประชาชน",
        "ประจำปี พ.ศ. ๒๕๕๐"
      ]
    ],
    []
  ],
  "metadata": {
    "date_backmatter": "2550-11-23",
    "date_modified": "2550-12-20",
    "date_original": "2550-12-20",
    "doctype": "ประกาศ",
    "editors": [
      {
        "name": "ปริญสินีย์",
        "role": "ผู้จัดทำ",
        "date": "2555-05-31"
      },
      {
        "name": "อภิญญา",
        "role": "ปรับปรุง",
        "date": "2557-08-26"
      }
    ],
    "tag": "bb10-2e-2550-a0011"
  }
}