{
  "pages": [
    [
      [
        "คำสั่งนายทะเบียน",
        "ที่ ๑๔/๒๕๕๑",
        "เรื่อง ให้ใช้อัตราเบี้ยประกันภัยรถยนต์ภาคสมัครใจ สำหรับรถยนต์ที่ใช้แก๊สธรรมชาติเป็นเชื้อเพลิง"
      ]
    ],
    []
  ],
  "metadata": {
    "date_backmatter": "2551-06-18",
    "date_modified": "2551-07-25",
    "date_original": "2551-07-25",
    "editors": [
      {
        "name": "ปริญสินีย์",
        "role": "ผู้จัดทำ",
        "date": "2555-05-31"
      },
      {
        "name": "จุฑามาศ",
        "role": "ปรับปรุง",
        "date": "2557-08-22"
      }
    ],
    "tag": "bb10-2f-2551-a0004"
  }
}