{
  "pages": [
    [
      [
        "พระราชบัญญัติ",
        "แก้ไขเพิ่มเติมบทบัญญัติแห่งกฎหมาย",
        "ที่เกี่ยวกับความรับผิดในทางอาญาของผู้แทนนิติบุคคล",
        "พ.ศ. ๒๕๖๐",
        "",
        "",
        "สมเด็จพระเจ้าอยู่หัวมหาวชิราลงกรณ บดินทรเทพยวรางกูร",
        "ให้ไว้ ณ วันที่ ๑๐ กุมภาพันธ์ พ.ศ. ๒๕๖๐",
        "เป็นปีที่ ๒ ในรัชกาลปัจจุบัน"
      ]
    ],
    []
  ],
  "metadata": {
    "date_header": "2560-02-10",
    "date_modified": "2560-02-11",
    "date_original": "2560-02-11",
    "doctype": "พระราชบัญญัติ",
    "editors": [
      {
        "name": "ชวัลพร/ปริยานุช",
        "role": "จัดทำ",
        "date": "2560-02-14"
      },
      {
        "name": "นุสรา",
        "role": "ตรวจ",
        "date": "2560-02-14"
      }
    ],
    "tag": "bb10-20-2560-a0001",
    "title": "แก้ไขเพิ่มเติมบทบัญญัติแห่งกฎหมายที่เกี่ยวกับความรับผิดในทางอาญาของผู้แทนนิติบุคคล"
  }
}