{
  "pages": [
    [
      [
        "ประกาศนายทะเบียน",
        "เรื่อง กำหนดหลักเกณฑ์ วิธีการ และเงื่อนไข ในการจัดทำ",
        "รายงานการดำรงเงินกองทุนของบริษัทประกันวินาศภัย (ฉบับที่ ๒)",
        "พ.ศ. ๒๕๕๔"
      ]
    ],
    []
  ],
  "metadata": {
    "date_backmatter": "2554-11-11",
    "date_modified": "2554-12-20",
    "date_original": "2554-12-20",
    "doctype": "ประกาศ",
    "editors": [
      {
        "name": "ปริยานุช",
        "role": "ผู้จัดทำ",
        "date": "2554-12-23"
      },
      {
        "name": "ปณตภร",
        "role": "ผู้ตรวจ",
        "date": "2554-12-27"
      },
      {
        "name": "จุฑามาศ",
        "role": "ปรับปรุง",
        "date": "2557-10-31"
      }
    ],
    "tag": "bb10-2e-2554-a0014"
  }
}