{
  "pages": [
    [
      [
        "ประกาศกรมการประกันภัย",
        "เรื่อง หลักเกณฑ์การให้ความเห็นชอบนิติบุคคลที่ประกอบธุรกิจ",
        "ประเมินราคาอสังหาริมทรัพย์"
      ]
    ],
    []
  ],
  "metadata": {
    "date_backmatter": "2539-11-27",
    "date_modified": "2540-07-31",
    "date_original": "2539-12-17",
    "doctype": "ประกาศ",
    "editors": [
      {
        "name": "รัศม์วรรณวลัย",
        "role": "ผู้จัดทำ",
        "date": "2551-10-01"
      }
    ],
    "tag": "bb10-2e-9993-update"
  }
}