{
  "pages": [
    [
      [
        "พระราชบัญญัติ",
        "ประกันวินาศภัย",
        "พ.ศ. ๒๕๓๕",
        "",
        "",
        "ภูมิพลอดุลยเดช ป.ร.",
        "ให้ไว้ ณ วันที่ ๔ เมษายน พ.ศ. ๒๕๓๕",
        "เป็นปีที่ ๔๗ ในรัชกาลปัจจุบัน"
      ]
    ],
    []
  ],
  "metadata": {
    "date_header": "2535-04-04",
    "date_modified": "2551-02-05",
    "date_original": "2535-04-10",
    "doctype": "พระราชบัญญัติ",
    "editors": [
      {
        "name": "ภิรมย์พร",
        "role": "แก้ไข",
        "date": "2556-06-24"
      },
      {
        "name": "วศิน",
        "role": "ตรวจ",
        "date": "2556-06-24"
      }
    ],
    "tag": "bb10-20-2551-a0002",
    "title": "ประกันวินาศภัย"
  }
}