{
  "pages": [
    [
      [
        "ประกาศคณะกรรมการกำกับและส่งเสริมการประกอบธุรกิจประกันภัย",
        "เรื่อง การขยายระยะเวลาการจำหน่ายอสังหาริมทรัพย์ของบริษัทประกันวินาศภัย",
        "พ.ศ. ๒๕๕๘"
      ]
    ],
    []
  ],
  "metadata": {
    "date_backmatter": "2558-12-28",
    "date_modified": "2559-02-04",
    "date_original": "2559-02-04",
    "doctype": "ประกาศ",
    "editors": [
      {
        "name": "ปริยานุช",
        "role": "จัดทำ",
        "date": "2559-02-08"
      },
      {
        "name": "ปุณิกา",
        "role": "ตรวจ",
        "date": "2559-02-08"
      }
    ],
    "tag": "bb10-2e-2559-a0004"
  }
}