{
  "pages": [
    [
      [
        "กฎกระทรวง",
        "กำหนดแบบบัตรประจำตัวนายทะเบียนและพนักงานเจ้าหน้าที่",
        "พ.ศ. ๒๕๕๓"
      ]
    ],
    []
  ],
  "metadata": {
    "date_backmatter": "2553-01-15",
    "date_modified": "2553-01-21",
    "date_original": "2553-01-21",
    "doctype": "กฎกระทรวง",
    "editors": [
      {
        "name": "ปริญสินีย์",
        "role": "ผู้จัดทำ",
        "date": "2555-05-31"
      },
      {
        "name": "อภิญญา",
        "role": "ปรับปรุง",
        "date": "2557-08-14"
      }
    ],
    "tag": "bb10-2b-2553-a0001"
  }
}