{
  "pages": [
    [
      [
        "ข้อกำหนดสภาวิชาชีพบัญชี",
        "เรื่อง หลักเกณฑ์และวิธีการสอบสวนของคณะอนุกรรมการสอบสวน",
        "พ.ศ. ๒๕๕๐"
      ]
    ],
    []
  ],
  "metadata": {
    "date_backmatter": "2550-05-23",
    "date_modified": "2550-06-18",
    "date_original": "2550-06-18",
    "editors": [
      {
        "name": "ปริญสินีย์",
        "role": "ผู้จัดทำ",
        "date": "2555-05-17"
      },
      {
        "name": "วิชพงษ์",
        "role": "ผู้ตรวจ",
        "date": "2555-05-29"
      }
    ],
    "tag": "c767-2h-2550-a0001"
  }
}