{
  "pages": [
    [
      [
        "ประกาศสภาวิชาชีพบัญชี",
        "ที่ ๒๕/๒๕๖๐",
        "เรื่อง มาตรฐานการบัญชี ฉบับที่ ๒๓ (ปรับปรุง ๒๕๖๐)",
        "เรื่อง ต้นทุนการกู้ยืม"
      ]
    ],
    []
  ],
  "metadata": {
    "date_backmatter": "2560-07-05",
    "date_modified": "2560-09-26",
    "date_original": "2560-09-26",
    "doctype": "ประกาศ",
    "editors": [
      {
        "name": "ภวรรณตรี",
        "role": "จัดทำ",
        "date": "2560-10-12"
      },
      {
        "name": "ปุณิกา",
        "role": "ตรวจ",
        "date": "2560-10-12"
      }
    ],
    "tag": "c767-2e-2560-a0079"
  }
}