{
  "pages": [
    [
      [
        "ประกาศสภาวิชาชีพบัญชี",
        "ที่ ๗๓/๒๕๕๘",
        "เรื่อง แนวปฏิบัติทางบัญชีสำหรับการวัดมูลค่าและรับรู้รายการของพืชเพื่อการให้ผลิตผล"
      ]
    ],
    []
  ],
  "metadata": {
    "date_backmatter": "2558-10-08",
    "date_modified": "2558-11-06",
    "date_original": "2558-11-06",
    "doctype": "ประกาศ",
    "editors": [
      {
        "name": "ปริยานุช/กัญฑรัตน์",
        "role": "จัดทำ",
        "date": "2558-11-12"
      },
      {
        "name": "",
        "role": "ตรวจ",
        "date": "2558-11-12"
      }
    ],
    "tag": "c767-2e-2558-a0084"
  }
}