{
  "pages": [
    [
      [
        "ข้อบังคับสภาวิชาชีพบัญชี",
        "ว่าด้วยค่าบำรุงสมาชิกและค่าธรรมเนียม",
        "พ.ศ. ๒๕๕๖"
      ]
    ],
    []
  ],
  "metadata": {
    "date_backmatter": "2556-12-24",
    "date_modified": "2556-12-27",
    "date_original": "2556-12-27",
    "editors": [
      {
        "name": "ปริยานุช",
        "role": "ผู้จัดทำ",
        "date": "2557-01-07"
      },
      {
        "name": "โชติกานต์",
        "role": "ผู้ตรวจ",
        "date": "2557-01-07"
      }
    ],
    "tag": "c767-2i-2556-a0005"
  }
}