{
  "pages": [
    [
      [
        "ประกาศคณะกรรมการสภาวิชาชีพบัญชี",
        "ฉบับที่ ๑๐/๒๕๔๘",
        "เรื่อง ประกาศใช้มาตรฐานการบัญชี",
        "ฉบับที่ ๕๒-๕๔"
      ]
    ],
    []
  ],
  "metadata": {
    "date_backmatter": "2548-01-01",
    "date_modified": "2548-06-09",
    "date_original": "2548-06-09",
    "doctype": "ประกาศ",
    "editors": [
      {
        "name": "ปริญสินีย์",
        "role": "ผู้จัดทำ",
        "date": "2555-05-17"
      },
      {
        "name": "วิชพงษ์",
        "role": "ผู้ตรวจ",
        "date": "2555-05-29"
      }
    ],
    "tag": "c767-2e-2548-a"
  }
}