{
  "pages": [
    [
      [
        "ข้อบังคับสภาวิชาชีพบัญชี",
        "(ฉบับที่ ๑๒)",
        "เรื่อง การพิจารณาเกี่ยวกับจรรยาบรรณ",
        "พ.ศ. ๒๕๔๙"
      ]
    ],
    []
  ],
  "metadata": {
    "date_backmatter": "2549-05-24",
    "date_modified": "2554-08-30",
    "date_original": "2549-06-19",
    "editors": [
      {
        "name": "ปริญสินีย์",
        "role": "ผู้จัดทำ",
        "date": "2555-05-17"
      },
      {
        "name": "วิชพงษ์",
        "role": "ผู้ตรวจ",
        "date": "2555-05-29"
      }
    ],
    "tag": "c767-2i-9996-update"
  }
}