{
  "pages": [
    [
      [
        "ข้อบังคับสภาวิชาชีพบัญชี",
        "(ฉบับที่ ๔)",
        "เรื่อง คุณสมบัติและลักษณะต้องห้ามของนายกสภาวิชาชีพบัญชี",
        "กรรมการผู้ทรงคุณวุฒิ และกรรมการสภาวิชาชีพบัญชี",
        "และหลักเกณฑ์และวิธีการเลือกตั้ง",
        "พ.ศ. ๒๕๔๗"
      ]
    ],
    []
  ],
  "metadata": {
    "date_backmatter": "2547-12-22",
    "date_modified": "2547-12-29",
    "date_original": "2547-12-29",
    "editors": [
      {
        "name": "ปริญสินีย์",
        "role": "ผู้จัดทำ",
        "date": "2555-05-17"
      },
      {
        "name": "วิชพงษ์",
        "role": "ผู้ตรวจ",
        "date": "2555-05-29"
      }
    ],
    "tag": "c767-2i-2547-a0004"
  }
}