{
  "pages": [
    [
      [
        "ข้อบังคับสภาวิชาชีพบัญชี",
        "ว่าด้วยการประชุมใหญ่และการเสนอเรื่องให้ที่ประชุมใหญ่พิจารณา",
        "พ.ศ. ๒๕๕๖"
      ]
    ],
    []
  ],
  "metadata": {
    "date_backmatter": "2556-09-12",
    "date_modified": "2556-11-06",
    "date_original": "2556-11-06",
    "editors": [
      {
        "name": "ปริยานุช",
        "role": "ผู้จัดทำ",
        "date": "2556-11-08"
      },
      {
        "name": "อังศุมาลี",
        "role": "ผู้ตรวจ",
        "date": "2556-11-08"
      }
    ],
    "tag": "c767-2i-2556-a0001"
  }
}