{
  "pages": [
    [
      [
        "ประกาศมหาวิทยาลัยเทคโนโลยีสุรนารี",
        "เรื่อง การแบ่งส่วนงาน (ฉบับที่ ๘)",
        "พ.ศ. ๒๕๖๑"
      ]
    ],
    []
  ],
  "metadata": {
    "date_backmatter": "2561-07-04",
    "date_modified": "2561-07-19",
    "date_original": "2561-07-19",
    "doctype": "ประกาศ",
    "editors": [
      {
        "name": "ปวันวิทย์",
        "role": "จัดทำ",
        "date": "2561-09-03"
      }
    ],
    "tag": "c112-2e-2561-a0004"
  }
}