{
  "pages": [
    [
      [
        "ข้อกำหนดมหาวิทยาลัยเทคโนโลยีสุรนารี",
        "ว่าด้วยการจัดตั้งสำนักวิชาสาธารณสุขศาสตร์",
        "พ.ศ. ๒๕๖๐"
      ]
    ],
    []
  ],
  "metadata": {
    "date_backmatter": "2560-06-17",
    "date_modified": "2560-07-17",
    "date_original": "2560-07-17",
    "editors": [
      {
        "name": "ภวรรณตรี",
        "role": "จัดทำ",
        "date": "2560-07-21"
      },
      {
        "name": "ชวัลพร",
        "role": "ตรวจ",
        "date": "2560-08-21"
      }
    ],
    "tag": "c112-2h-2560-a0001"
  }
}