{
  "pages": [
    [
      [
        "ประกาศมหาวิทยาลัยเทคโนโลยีสุรนารี",
        "เรื่อง การแบ่งส่วนงาน",
        "พ.ศ. ๒๕๕๘"
      ]
    ],
    []
  ],
  "metadata": {
    "date_backmatter": "2558-11-06",
    "date_modified": "2559-04-22",
    "date_original": "2558-11-24",
    "doctype": "ประกาศ",
    "editors": [
      {
        "name": "ปริยานุช",
        "role": "จัดทำ",
        "date": "2558-11-26"
      },
      {
        "name": "วริญา",
        "role": "ตรวจ",
        "date": "2558-11-27"
      },
      {
        "name": "วิศนี",
        "role": "เพิ่มเติม",
        "date": "2559-05-19"
      },
      {
        "name": "ปัญญา",
        "role": "ตรวจ",
        "date": "2559-06-07"
      }
    ],
    "tag": "c112-2e-2559-a0003"
  }
}