{
  "pages": [
    [
      [
        "ข้อบังคับมหาวิทยาลัยเทคโนโลยีสุรนารี",
        "ว่าด้วยการสรรหาอธิการบดี (ฉบับที่ ๒) พ.ศ. ๒๕๕๒"
      ]
    ],
    []
  ],
  "metadata": {
    "date_backmatter": "2552-02-26",
    "editors": [
      {
        "name": "ปริญสินีย์",
        "role": "ผู้จัดทำ",
        "date": "2554-05-11"
      }
    ],
    "tag": "c112-2i-2552-a0001"
  }
}