{
  "pages": [
    [
      [
        "กฎกระทรวง",
        "กำหนดผลิตผลเกษตรกรรมเป็นสินค้าที่ได้รับยกเว้นตามกฎหมาย",
        "ว่าด้วยความรับผิดต่อความเสียหายที่เกิดขึ้นจากสินค้าที่ไม่ปลอดภัย",
        "พ.ศ. ๒๕๕๓"
      ]
    ],
    []
  ],
  "metadata": {
    "date_backmatter": "2553-11-26",
    "date_modified": "2553-12-03",
    "date_original": "2553-12-03",
    "doctype": "กฎกระทรวง",
    "editors": [
      {
        "name": "ปริยานุช",
        "role": "ผู้จัดทำ",
        "date": "2553-12-09"
      },
      {
        "name": "ณัฐวดี",
        "role": "ตรวจ",
        "date": "2553-12-09"
      }
    ],
    "tag": "a4109-2b-2553-a0001"
  }
}