{
  "pages": [
    [
      [
        "ระเบียบสำนักงานสลากกินแบ่งรัฐบาล",
        "ว่าด้วย เครื่องแบบและเครื่องหมายพนักงาน",
        "พ.ศ. ๒๕๔๓"
      ]
    ],
    []
  ],
  "metadata": {
    "date_backmatter": "2543-05-01",
    "date_modified": "2543-06-30",
    "date_original": "2543-06-30",
    "editors": [
      {
        "name": "ต่อศักดิ์",
        "role": "จัดทำ",
        "date": "2549-11-28"
      }
    ],
    "tag": "ca28-2g-2543-a0001"
  }
}