{
  "pages": [
    [
      [
        "คำสั่งสำนักงานสลากกินแบ่งรัฐบาล",
        "ที่ ๔๗/๒๕๔๒",
        "เรื่อง การจ่ายเงินรางวัลสลากกินแบ่งรัฐบาลแก่ผู้ที่รับซื้อรางวัล",
        "ก่อนการตรวจสอบพิสูจน์ความถูกต้องของตัวสลากที่ถูกรางวัล"
      ]
    ],
    []
  ],
  "metadata": {
    "date_backmatter": "2542-03-05",
    "date_modified": "2545-06-27",
    "date_original": "2545-06-27",
    "editors": [
      {
        "name": "เพ็ญพร/พิมพ์",
        "role": "แก้ไข",
        "date": "2545-10-24"
      },
      {
        "name": "สถาพร",
        "role": "ปรับปรุง",
        "date": "2549-12-19"
      }
    ],
    "tag": "ca28-2f-2545-a0001"
  }
}