{
  "pages": [
    [
      [
        "พระราชกฤษฎีกา",
        "มอบอำนาจของรัฐมนตรีตามมาตรา ๘ และมาตรา ๙",
        "แห่งพระราชบัญญัติสำหรับรักษาช้างป่า",
        "พระพุทธศักราช ๒๔๖๔ ให้ผู้ว่าราชการจังหวัดทำการแทน",
        "พ.ศ. ๒๕๐๑",
        "",
        "",
        "ภูมิพลอดุลยเดช ป.ร.",
        "ให้ไว้ ณ วันที่ ๑๒ พฤษภาคม พ.ศ. ๒๕๐๑",
        "เป็นปีที่ ๑๓ ในรัชกาลปัจจุบัน"
      ]
    ],
    []
  ],
  "metadata": {
    "date_backmatter": "2467-10-25",
    "date_header": "2501-05-12",
    "date_modified": "2501-05-20",
    "date_original": "2501-05-20",
    "doctype": "พระราชกฤษฎีกา",
    "editors": [
      {
        "name": "จุฑามาศ",
        "role": "ผู้จัดทำ",
        "date": "2556-03-05"
      },
      {
        "name": "วิชพงษ์",
        "role": "ผู้ตรวจ",
        "date": "2556-03-13"
      }
    ],
    "tag": "ca33-2a-2501-a0001",
    "title": "มอบอำนาจของรัฐมนตรีตามมาตรา ๘ และมาตรา ๙แห่งพระราชบัญญัติสำหรับรักษาช้างป่าพระพุทธศักราช ๒๔๖๔ ให้ผู้ว่าราชการจังหวัดทำการแทน"
  }
}