{
  "pages": [
    [
      [
        "พระราชบัญญัติ",
        "ยกฐานะศาลแขวงแม่สะเรียง ศาลแขวงแม่สอด",
        "ศาลแขวงตะกั่วป่า และศาลแขวงหลังสวน",
        "เป็นศาลจังหวัด พุทธศักราช ๒๔๗๙",
        "",
        "",
        "ในพระปรมาภิไธยสมเด็จพระเจ้าอยู่หัว อานันทมหิดล",
        "คณะผู้สำเร็จราชการแทนพระองค์",
        "(ตามประกาศประธานสภาผู้แทนราษฎร",
        "ลงวันที่ ๒๐ สิงหาคม พุทธศักราช ๒๔๗๘)",
        "อาทิตย์ทิพอาภา"
      ]
    ],
    []
  ],
  "metadata": {
    "date_header": "2478-08-20",
    "date_modified": "2494-05-29",
    "date_original": "2480-04-19",
    "doctype": "พระราชบัญญัติ",
    "editors": [
      {
        "name": "ปณตภร",
        "role": "ผู้จัดทำ",
        "date": "2557-03-28"
      }
    ],
    "tag": "c217-20-2494-a0002",
    "title": "ยกฐานะศาลแขวงแม่สะเรียง ศาลแขวงแม่สอดศาลแขวงตะกั่วป่า และศาลแขวงหลังสวนเป็นศาลจังหวัด"
  }
}