{
  "pages": [
    [
      [
        "ประกาศกระทรวงการพัฒนาสังคมและความมั่นคงของมนุษย์",
        "เรื่อง รายชื่อสถานสงเคราะห์ของรัฐ"
      ]
    ],
    []
  ],
  "metadata": {
    "date_backmatter": "2554-01-31",
    "date_modified": "2554-03-10",
    "date_original": "2554-03-10",
    "doctype": "ประกาศ",
    "editors": [
      {
        "name": "วิภา",
        "role": "ผู้จัดทำ",
        "date": "2554-12-14"
      },
      {
        "name": "ชุติมา",
        "role": "ปรับปรุง",
        "date": "2560-10-05"
      }
    ],
    "tag": "ca74-2e-2554-a0006"
  }
}