{
  "pages": [
    [
      [
        "ประกาศกระทรวงการพัฒนาสังคมและความมั่นคงของมนุษย์",
        "เรื่อง กำหนดวิธีปฏิบัติเกี่ยวกับการตัดหนี้เป็นสูญของกองทุนส่งเสริมและพัฒนาคุณภาพชีวิตคนพิการ",
        "ตามระเบียบคณะกรรมการส่งเสริมและพัฒนาคุณภาพชีวิตคนพิการแห่งชาติ",
        "ว่าด้วยการตัดหนี้เป็นสูญ พ.ศ. ๒๕๕๓"
      ]
    ],
    []
  ],
  "metadata": {
    "date_backmatter": "2553-12-21",
    "date_modified": "2554-02-03",
    "date_original": "2554-02-03",
    "doctype": "ประกาศ",
    "editors": [
      {
        "name": "ปริยานุช",
        "role": "ผู้จัดทำ",
        "date": "2554-02-16"
      },
      {
        "name": "ดำรง",
        "role": "ตรวจ",
        "date": "2554-02-16"
      },
      {
        "name": "ชุติมา",
        "role": "ปรับปรุง",
        "date": "2560-10-05"
      }
    ],
    "tag": "ca74-2e-2554-a0001"
  }
}