{
  "pages": [
    [
      [
        "ระเบียบคณะกรรมการส่งเสริมและพัฒนาคุณภาพชีวิตคนพิการแห่งชาติ",
        "ว่าด้วยหลักเกณฑ์และวิธีการปรับสภาพแวดล้อมที่อยู่อาศัยให้แก่คนพิการ การมีผู้ช่วย",
        "คนพิการ การช่วยเหลือคนพิการที่ไม่มีผู้ดูแล และสิทธิของผู้ดูแลคนพิการ",
        "พ.ศ. ๒๕๕๒"
      ]
    ],
    []
  ],
  "metadata": {
    "date_backmatter": "2552-09-14",
    "date_modified": "2555-10-05",
    "date_original": "2552-10-02",
    "editors": [
      {
        "name": "วิภา",
        "role": "ผู้จัดทำ",
        "date": "2554-12-15"
      },
      {
        "name": "พจณัฏฐ์",
        "role": "ปรับปรุง",
        "date": "2560-10-09"
      }
    ],
    "tag": "ca74-2g-9992-update"
  }
}