{
  "pages": [
    [
      [
        "ข้อบัญญัติองค์การบริหารส่วนตำบลหนองช้างแล่น",
        "เรื่อง การส่งเสริมและพัฒนาคุณภาพชีวิตคนพิการตำบลหนองช้างแล่น",
        "พ.ศ. ๒๕๕๓"
      ]
    ],
    []
  ],
  "metadata": {
    "date_backmatter": "2553-09-10",
    "date_modified": "2553-11-03",
    "date_original": "2553-11-03",
    "editors": [
      {
        "name": "วิภา",
        "role": "ผู้จัดทำ",
        "date": "2554-12-15"
      },
      {
        "name": "พจณัฏฐ์",
        "role": "ปรับปรุง",
        "date": "2560-10-02"
      }
    ],
    "tag": "ca74-2j-2553-a0002"
  }
}