{
  "pages": [
    [
      [
        "ประกาศกระทรวงการพัฒนาสังคมและความมั่นคงของมนุษย์",
        "เรื่อง แต่งตั้งพนักงานเจ้าหน้าที่เพื่อปฏิบัติการตาม",
        "พระราชบัญญัติส่งเสริมและพัฒนาคุณภาพชีวิตคนพิการ พ.ศ. ๒๕๕๐"
      ]
    ],
    []
  ],
  "metadata": {
    "date_backmatter": "2553-02-02",
    "date_modified": "2553-03-30",
    "date_original": "2553-03-30",
    "doctype": "ประกาศ",
    "editors": [
      {
        "name": "วิภา",
        "role": "ผู้จัดทำ",
        "date": "0255-12-15"
      }
    ],
    "tag": "ca74-2e-2553-a0004"
  }
}