{
  "pages": [
    [
      [
        "ระเบียบคณะกรรมการส่งเสริมและพัฒนาคุณภาพชีวิตคนพิการแห่งชาติ",
        "ว่าด้วยการพิจารณาอนุมัติการจ่ายเงินเพื่อการส่งเสริมและพัฒนาคุณภาพชีวิตคนพิการ",
        "และการจัดทำรายงานสถานะการเงินและการบริหารกองทุนส่งเสริมและพัฒนาคุณภาพชีวิตคนพิการ",
        "(ฉบับที่ ๓)",
        "พ.ศ. ๒๕๕๘"
      ]
    ],
    []
  ],
  "metadata": {
    "date_backmatter": "2558-12-09",
    "date_modified": "2558-12-14",
    "date_original": "2558-12-14",
    "editors": [
      {
        "name": "ปริยานุช, กัญฑรัตน์",
        "role": "จัดทำ",
        "date": "2558-12-16"
      },
      {
        "name": "นุสรา",
        "role": "ตรวจ",
        "date": "2559-02-02"
      },
      {
        "name": "พจณัฏฐ์",
        "role": "ปรับปรุง",
        "date": "2560-10-11"
      }
    ],
    "tag": "ca74-2g-2558-a0002"
  }
}