{
  "pages": [
    [
      [
        "ระเบียบคณะกรรมการส่งเสริมและพัฒนาคุณภาพชีวิตคนพิการแห่งชาติ",
        "ว่าด้วยบริการล่ามภาษามือ (ฉบับที่ ๒)",
        "พ.ศ. ๒๕๕๔"
      ]
    ],
    []
  ],
  "metadata": {
    "date_backmatter": "2554-05-10",
    "date_modified": "2554-06-08",
    "date_original": "2554-06-08",
    "editors": [
      {
        "name": "วิภา",
        "role": "ผู้จัดทำ",
        "date": "2554-12-15"
      },
      {
        "name": "พจณัฏฐ์",
        "role": "ปรับปรุง",
        "date": "2560-10-06"
      }
    ],
    "tag": "ca74-2g-2554-a0005"
  }
}