{
  "pages": [
    [
      [
        "ระเบียบมหาวิทยาลัยวลัยลักษณ์",
        "ว่าด้วยการชำระหนี้ของนักศึกษา",
        "พ.ศ. ๒๕๔๔"
      ]
    ],
    []
  ],
  "metadata": {
    "date_backmatter": "2544-11-26",
    "date_modified": "2545-04-04",
    "date_original": "2545-04-04",
    "editors": [
      {
        "name": "ดลธี",
        "role": "พิมพ์",
        "date": "2553-11-09"
      },
      {
        "name": "มณฑิตา",
        "role": "ผู้จัดทำ",
        "date": "2553-11-23"
      },
      {
        "name": "วิภา",
        "role": "ผู้ตรวจ",
        "date": "2554-06-01"
      }
    ],
    "tag": "c116-2g-2545-a0001"
  }
}