{
  "pages": [
    [
      [
        "ระเบียบมหาวิทยาลัยวลัยลักษณ์",
        "ว่าด้วยการเทียบโอนหน่วยกิต (ฉบับที่ ๒)",
        "พ.ศ. ๒๕๔๓"
      ]
    ],
    []
  ],
  "metadata": {
    "date_backmatter": "2543-11-13",
    "date_modified": "2544-10-12",
    "date_original": "2544-10-12",
    "editors": [
      {
        "name": "ดลธี",
        "role": "พิมพ์",
        "date": "2553-11-09"
      }
    ],
    "tag": "c116-2g-2544-a0002"
  }
}