{
  "pages": [
    [
      [
        "ระเบียบคณะกรรมการมาตรวิทยาแห่งชาติ",
        "ว่าด้วยการเงิน การบัญชี และการงบประมาณ",
        "ฉบับที่ ๒ (แก้ไขเพิ่มเติม) พ.ศ. ๒๕๔๔"
      ]
    ],
    []
  ],
  "metadata": {
    "date_backmatter": "2544-01-23",
    "date_modified": "2544-02-16",
    "date_original": "2544-02-16",
    "editors": [
      {
        "name": "สุรินทร์",
        "role": "แก้ไข",
        "date": "2544-07-10"
      },
      {
        "name": "สุกัญญา",
        "role": "ผู้จัดทำ",
        "date": "2549-09-29"
      }
    ],
    "tag": "be15-2g-2544-a002"
  }
}