{
  "pages": [
    [
      [
        "พระราชบัญญัติ",
        "ล้างมลทินในโอกาสครบ ๒๕ พุทธศตวรรษ",
        "พ.ศ. ๒๔๙๙",
        "",
        "",
        "ภูมิพลอดุลยเดช ป.ร.",
        "ให้ไว้ ณ วันที่ ๑๗ มกราคม พ.ศ. ๒๕๐๐",
        "เป็นปีที่ ๑๒ ในรัชกาลปัจจุบัน"
      ]
    ],
    []
  ],
  "metadata": {
    "date_header": "2500-01-17",
    "date_modified": "2500-01-29",
    "date_original": "2500-01-29",
    "doctype": "พระราชบัญญัติ",
    "editors": [
      {
        "name": "สุกัญญา",
        "role": "ผู้จัดทำ",
        "date": "2554-01-04"
      }
    ],
    "tag": "c507-20-2500-001",
    "title": "ล้างมลทินในโอกาสครบ ๒๕ พุทธศตวรรษ"
  }
}