{
  "pages": [
    [
      [
        "ประกาศคณะกรรมการนโยบายการให้เอกชนร่วมลงทุนในกิจการของรัฐ",
        "เรื่อง หลักเกณฑ์และวิธีการจัดทำบัญชีรายชื่อผู้เชี่ยวชาญที่จะได้รับการแต่งตั้งให้เป็นกรรมการ",
        "ผู้ทรงคุณวุฒิในคณะกรรมการคัดเลือก และคณะกรรมการกำกับดูแล",
        "พ.ศ. ๒๕๕๖"
      ]
    ],
    []
  ],
  "metadata": {
    "date_backmatter": "2556-10-15",
    "date_modified": "2557-03-25",
    "date_original": "2557-03-25",
    "doctype": "ประกาศ",
    "editors": [
      {
        "name": "ปริยานุช",
        "role": "ผู้จัดทำ",
        "date": "2557-03-31"
      },
      {
        "name": "โชติกานต์",
        "role": "ผู้ตรวจ",
        "date": "2557-04-17"
      }
    ],
    "tag": "a1138-2e-2557-a0006"
  }
}