{
  "pages": [
    [
      [
        "ประกาศกระทรวงการคลัง",
        "เรื่อง ประโยชน์ตอบแทนของกรรมการ อนุกรรมการ และผู้เชี่ยวชาญ",
        "ตามพระราชบัญญัติการให้เอกชนร่วมลงทุนในกิจการของรัฐ พ.ศ. ๒๕๕๖",
        "พ.ศ. ๒๕๕๗"
      ]
    ],
    []
  ],
  "metadata": {
    "date_backmatter": "2557-02-07",
    "date_modified": "2557-02-25",
    "date_original": "2557-02-25",
    "doctype": "ประกาศ",
    "editors": [
      {
        "name": "ปริยานุช",
        "role": "ผู้จัดทำ",
        "date": "2557-03-04"
      },
      {
        "name": "อังศุมาลี",
        "role": "ผู้ตรวจ",
        "date": "2557-03-07"
      }
    ],
    "tag": "a1138-2e-2557-a0001"
  }
}