{
  "pages": [
    [
      [
        "ประกาศคณะกรรมการนโยบายการให้เอกชนร่วมลงทุนในกิจการของรัฐ",
        "เรื่อง รายละเอียดที่ต้องมีในผลการศึกษาและวิเคราะห์โครงการของหน่วยงานเจ้าของโครงการ",
        "พ.ศ. ๒๕๕๗"
      ]
    ],
    []
  ],
  "metadata": {
    "date_backmatter": "2557-01-29",
    "date_modified": "2557-02-25",
    "date_original": "2557-02-25",
    "doctype": "ประกาศ",
    "editors": [
      {
        "name": "ปริยานุช",
        "role": "ผู้จัดทำ",
        "date": "2557-03-04"
      },
      {
        "name": "อังศุมาลี",
        "role": "ผู้ตรวจ",
        "date": "2557-03-07"
      }
    ],
    "tag": "a1138-2e-2557-a0003"
  }
}