{
  "pages": [
    [
      [
        "ประกาศกระทรวงการคลัง",
        "เรื่อง หลักเกณฑ์และวิธีการสรรหากรรมการผู้ทรงคุณวุฒิ",
        "ในคณะกรรมการนโยบายการให้เอกชนร่วมลงทุนในกิจการของรัฐ"
      ]
    ],
    []
  ],
  "metadata": {
    "date_backmatter": "2556-06-26",
    "date_modified": "2556-07-08",
    "date_original": "2556-07-08",
    "doctype": "ประกาศ",
    "editors": [
      {
        "name": "ปริยานุช",
        "role": "ผู้จัดทำ",
        "date": "2556-07-11"
      },
      {
        "name": "โชติกานต์",
        "role": "ผู้ตรวจ",
        "date": "2556-08-01"
      }
    ],
    "tag": "a1138-2e-2556-a0001"
  }
}