{
  "pages": [
    [
      [
        "พระราชบัญญัติ",
        "คุ้มครองหมุดหลักฐานการแผนที่",
        "พุทธศักราช ๒๔๗๘",
        "",
        "",
        "ในพระปรมาภิไธยสมเด็จพระเจ้าอยู่หัวอานันทมหิดล",
        "คณะผู้สำเร็จราชการแทนพระองค์",
        "(ตามประกาศประธานสภาผู้แทนราษฎร",
        "ลงวันที่ ๒๐ สิงหาคม พุทธศักราช ๒๔๗๘)",
        "อาทิตย์ทิพอาภา",
        "พล. อ. เจ้าพระยาพิชเยนทร โยธิน",
        "ตราไว้ณวันที่ ๗ เมษายน พุทธศักราช ๒๔๗๙",
        "เป็นปีที่ ๓ ในรัชชกาลปัจจุบัน"
      ]
    ],
    []
  ],
  "metadata": {
    "date_header": "2478-08-20",
    "date_modified": "2479-04-08",
    "date_original": "2479-04-08",
    "doctype": "พระราชบัญญัติ",
    "editors": [
      {
        "name": "ปัทมา",
        "role": "ตรวจ",
        "date": "2552-08-14"
      },
      {
        "name": "ฐิติพร",
        "role": "ปรับปรุง",
        "date": "2555-12-21"
      },
      {
        "name": "พจนา",
        "role": "ตรวจ",
        "date": "2555-12-25"
      }
    ],
    "tag": "a474-20-2479-001",
    "title": "คุ้มครองหมุดหลักฐานการแผนที่"
  }
}