{
  "pages": [
    [
      [
        "ประกาศกระทรวงศึกษาธิการ",
        "เรื่อง เปลี่ยนแปลง แก้ไข เพิ่มเติมหลักฐานแสดงผลการประเมินเทียบระดับการศึกษานอกระบบและ",
        "การศึกษาตามอัธยาศัยและแบบรายงานผู้ผ่านการประเมินเทียบระดับการศึกษานอกระบบ",
        "และการศึกษาตามอัธยาศัย"
      ]
    ],
    []
  ],
  "metadata": {
    "date_backmatter": "2552-04-30",
    "date_modified": "2552-07-02",
    "date_original": "2552-07-02",
    "doctype": "ประกาศ",
    "editors": [
      {
        "name": "ปริยานุช",
        "role": "ผู้จัดทำ",
        "date": "2552-07-13"
      }
    ],
    "tag": "ca80-2e-2552-a0001"
  }
}