{
  "pages": [
    [
      [
        "กฎกระทรวง",
        "กำหนดจำนวนอนุกรรมการ คุณสมบัติ หลักเกณฑ์ วิธีการได้มา",
        "ของประธานและอนุกรรมการ วาระการดำรงตำแหน่ง การพ้นจากตำแหน่ง",
        "และอำนาจหน้าที่ของคณะอนุกรรมการภาคีเครือข่าย",
        "พ.ศ. ๒๕๕๕"
      ]
    ],
    []
  ],
  "metadata": {
    "date_backmatter": "2555-10-18",
    "date_modified": "2555-11-14",
    "date_original": "2555-11-14",
    "doctype": "กฎกระทรวง",
    "editors": [
      {
        "name": "ปริยานุช",
        "role": "ผู้จัดทำ",
        "date": "2555-11-15"
      },
      {
        "name": "ชาญ",
        "role": "ผู้ตรวจ",
        "date": "2555-11-20"
      }
    ],
    "tag": "ca80-2b-2555-a0002"
  }
}