{
  "pages": [
    [
      [
        "ประกาศกระทรวงศึกษาธิการ",
        "เรื่อง แก้ไขการกำหนดอำนาจหน้าที่และชื่อของสถานศึกษา"
      ]
    ],
    []
  ],
  "metadata": {
    "date_backmatter": "2551-05-23",
    "date_modified": "2551-07-07",
    "date_original": "2551-07-07",
    "doctype": "ประกาศ",
    "editors": [
      {
        "name": "วัชศักดิ์",
        "role": "ผู้จัดทำ",
        "date": "2551-07-09"
      }
    ],
    "tag": "ca80-2e-2551-a0003"
  }
}