{
  "pages": [
    [
      [
        "ระเบียบคณะกรรมการป้องกันและปราบปรามการค้ามนุษย์",
        "ว่าด้วยการรายงานสถานะการเงินและการจัดการกองทุน",
        "เพื่อการป้องกันและปราบปรามการค้ามนุษย์",
        "พ.ศ. ๒๕๕๒"
      ]
    ],
    []
  ],
  "metadata": {
    "date_backmatter": "2552-06-28",
    "date_modified": "2552-09-18",
    "date_original": "2552-09-18",
    "editors": [
      {
        "name": "นฤตยา",
        "role": "ผู้จัดทำ",
        "date": "2553-10-26"
      },
      {
        "name": "เอกฤทธิ์",
        "role": "ตรวจ",
        "date": "2553-11-03"
      }
    ],
    "tag": "bb47-2g-2552-a0004"
  }
}