{
  "pages": [
    [
      [
        "ข้อบังคับแพทยสภา",
        "ว่าด้วยหลักเกณฑ์การออกหนังสืออนุมัติและวุฒิบัตรแสดงความรู้ความชำนาญ",
        "ในการประกอบวิชาชีพเวชกรรมสาขาต่าง ๆ",
        "(ฉบับที่ ๒) พ.ศ. ๒๕๓๗"
      ]
    ],
    []
  ],
  "metadata": {
    "date_backmatter": "2537-09-29",
    "date_gz_old": "2537-10-07",
    "editors": [
      {
        "name": "ฐาปนี",
        "role": "แก้ไข",
        "date": "2545-09-19"
      }
    ],
    "tag": "c726-2i-2537-a0001"
  }
}