{
  "pages": [
    [
      [
        "ข้อบังคับแพทยสภา",
        "ว่าด้วยหลักเกณฑ์การประเมินและรับรองความรู้ความสามารถ",
        "ในการประกอบวิชาชีพเวชกรรม",
        "พ.ศ. ๒๕๔๘"
      ]
    ],
    []
  ],
  "metadata": {
    "date_backmatter": "2548-03-17",
    "date_modified": "2548-05-25",
    "date_original": "2548-05-25",
    "editors": [
      {
        "name": "ฐิติพงษ์",
        "role": "ผู้จัดทำ",
        "date": "2548-07-19"
      }
    ],
    "tag": "c726-2i-2548-a0004"
  }
}