{
  "pages": [
    [
      [
        "ข้อบังคับแพทยสภา",
        "ว่าด้วยการรักษาจริยธรรมแห่งวิชาชีพเวชกรรม พ.ศ. ๒๕๔๙"
      ]
    ],
    []
  ],
  "metadata": {
    "date_backmatter": "2549-09-14",
    "date_modified": "2549-11-01",
    "date_original": "2549-11-01",
    "editors": [
      {
        "name": "วัชศักดิ์",
        "role": "ผู้จัดทำ",
        "date": "2549-11-01"
      },
      {
        "name": "อุรารักษ์",
        "role": "ตรวจ",
        "date": "2552-03-25"
      },
      {
        "name": "จุฑามาศ",
        "role": "ปรับปรุง",
        "date": "2558-03-17"
      }
    ],
    "tag": "c726-2i-2549-a0003"
  }
}