{
  "pages": [
    [
      [
        "ข้อบังคับแพทยสภา",
        "ว่าด้วยการเลือกและการเลือกตั้งกรรมการ",
        "(ฉบับที่ ๓) พ.ศ. ๒๕๔๑"
      ]
    ],
    []
  ],
  "metadata": {
    "date_backmatter": "2541-02-27",
    "date_gz_old": "2541-06-02",
    "editors": [
      {
        "name": "พรพิมล/พิมพ์",
        "role": "แก้ไข",
        "date": "2545-07-22"
      }
    ],
    "tag": "c726-2i-2541-a003"
  }
}