{
  "pages": [
    [
      [
        "ข้อบังคับแพทยสภา",
        "ว่าด้วยหลักเกณฑ์การขึ้นทะเบียน",
        "และการออกใบอนุญาตเป็นผู้ประกอบวิชาชีพเวชกรรม",
        "พ.ศ. ๒๕๔๘"
      ]
    ],
    []
  ],
  "metadata": {
    "date_backmatter": "2548-03-04",
    "date_modified": "2548-05-17",
    "date_original": "2548-05-17",
    "editors": [
      {
        "name": "สุนันทา",
        "role": "ผู้จัดทำ",
        "date": "2548-07-18"
      }
    ],
    "tag": "c726-2i-2548-a0002"
  }
}