{
  "pages": [
    [
      [
        "ข้อบังคับแพทยสภา",
        "ว่าด้วยหลักเกณฑ์การออกหนังสืออนุมัติและวุฒิบัตร",
        "เพื่อแสดงความรู้ความชำนาญในการประกอบวิชาชีพเวชกรรม",
        "พ.ศ. ๒๕๕๒"
      ]
    ],
    []
  ],
  "metadata": {
    "date_backmatter": "2552-02-12",
    "date_modified": "2558-08-10",
    "date_original": "2552-03-27",
    "editors": [
      {
        "name": "ปุณิกา",
        "role": "ผู้จัดทำ",
        "date": "2558-08-26"
      },
      {
        "name": "ปัญญา",
        "role": "ตรวจ",
        "date": "2558-08-26"
      }
    ],
    "tag": "c726-2i-9997-update"
  }
}