{
  "pages": [
    [
      [
        "ข้อบังคับแพทยสภา",
        "ว่าด้วยการกำหนดค่าจดทะเบียนสมาชิก ค่าธรรมเนียม",
        "และค่าบำรุงอื่น ๆ",
        "พ.ศ. 2526"
      ]
    ],
    []
  ],
  "metadata": {
    "date_backmatter": "2526-03-23",
    "editors": [],
    "tag": "c726-2i-2526-005"
  }
}