{
  "pages": [
    [
      [
        "ข้อบังคับแพทยสภา",
        "ว่าด้วยการศึกษาต่อเนื่องสำหรับผู้ประกอบวิชาชีพเวชกรรม",
        "(ฉบับที่ ๒) พ.ศ. ๒๕๔๖"
      ]
    ],
    []
  ],
  "metadata": {
    "date_backmatter": "2546-07-09",
    "date_modified": "2546-07-25",
    "date_original": "2546-07-25",
    "editors": [
      {
        "name": "มัตติกา",
        "role": "พิมพ์",
        "date": "2546-10-16"
      },
      {
        "name": "มัตติกา",
        "role": "แก้ไข",
        "date": "2546-10-29"
      }
    ],
    "tag": "c726-2i-2546-a0001"
  }
}