{
  "pages": [
    [
      [
        "พระราชบัญญัติ",
        "โอนงบประมาณรายจ่าย",
        "พ.ศ. ๒๕๖๑",
        "",
        "",
        "สมเด็จพระเจ้าอยู่หัวมหาวชิราลงกรณ บดินทรเทพยวรางกูร",
        "ให้ไว้ ณ วันที่ ๒ สิงหาคม พ.ศ. ๒๕๖๑",
        "เป็นปีที่ ๓ ในรัชกาลปัจจุบัน"
      ]
    ],
    []
  ],
  "metadata": {
    "date_header": "2561-08-02",
    "date_modified": "2561-08-05",
    "date_original": "2561-08-05",
    "doctype": "พระราชบัญญัติ",
    "editors": [
      {
        "name": "ปุณิกา",
        "role": "จัดทำ",
        "date": "2561-08-06"
      }
    ],
    "tag": "cd26-20-2561-a0001",
    "title": "โอนงบประมาณรายจ่าย"
  }
}