{
  "pages": [
    [
      [
        "ประกาศกรมสรรพสามิต",
        "เรื่อง การออกใบอนุญาตขายสุรา ยาสูบ และไพ่ ประจำปี",
        "พ.ศ. ๒๕๕๐"
      ]
    ],
    []
  ],
  "metadata": {
    "date_backmatter": "2549-09-26",
    "date_modified": "2549-11-16",
    "date_original": "2549-11-16",
    "doctype": "ประกาศ",
    "editors": [
      {
        "name": "วฤษาย์",
        "role": "ผู้จัดทำ",
        "date": "2552-10-27"
      }
    ],
    "tag": "be10-2e-2549-a0001"
  }
}