{
  "pages": [
    [
      [
        "ประกาศกรมสรรพสามิต",
        "เรื่อง กำหนดสถานที่ยื่นชำระภาษี ตามพระราชบัญญัติสุรา พ.ศ. ๒๔๙๓",
        "พระราชบัญญัติยาสูบ พ.ศ. ๒๕๐๙ และพระราชบัญญัติไพ่ พุทธศักราช ๒๔๘๖"
      ]
    ],
    []
  ],
  "metadata": {
    "date_backmatter": "2557-01-10",
    "date_modified": "2557-02-18",
    "date_original": "2557-02-18",
    "doctype": "ประกาศ",
    "editors": [
      {
        "name": "ปริยานุช",
        "role": "ผู้จัดทำ",
        "date": "2557-02-25"
      },
      {
        "name": "อุษมล",
        "role": "ผู้ตรวจ",
        "date": "2557-02-26"
      }
    ],
    "tag": "be10-2e-2557-a0001"
  }
}