{
  "pages": [
    [
      [
        "ประกาศกรมศิลปากร",
        "เรื่อง กำหนดเขตที่ดินโบราณสถาน"
      ]
    ],
    []
  ],
  "metadata": {
    "date_backmatter": "2547-02-12",
    "date_modified": "2547-05-10",
    "date_original": "2547-05-10",
    "doctype": "ประกาศ",
    "editors": [
      {
        "name": "ศุภชัย",
        "role": "พิมพ์",
        "date": "2547-07-22"
      },
      {
        "name": "พัชรินทร์/อรดา",
        "role": "ตรวจ",
        "date": "2547-08-10"
      },
      {
        "name": "สถาพร",
        "role": "ปรับปรุง",
        "date": "2549-11-14"
      }
    ],
    "tag": "ba10-2e-2547-a0017"
  }
}