{
  "pages": [
    [
      [
        "ประกาศกรมศิลปากร",
        "เรื่อง อัตราค่าธรรมเนียมและวิธีการยื่นคำขออนุญาตถ่ายทำภาพยนตร์ในเขตโบราณสถาน"
      ]
    ],
    []
  ],
  "metadata": {
    "date_backmatter": "2536-06-24",
    "date_modified": "2536-11-09",
    "date_original": "2536-11-09",
    "doctype": "ประกาศ",
    "editors": [
      {
        "name": "ธิดาวรรณ",
        "role": "แก้ไข",
        "date": "2545-09-16"
      },
      {
        "name": "สถาพร",
        "role": "ปรับปรุง",
        "date": "2549-11-15"
      }
    ],
    "tag": "ba10-2e-2536-a0001"
  }
}