{
  "pages": [
    [
      [
        "ประกาศกรมศิลปากร",
        "เรื่อง ขึ้นทะเบียนและกำหนดเขตที่ดินโบราณสถาน"
      ]
    ],
    []
  ],
  "metadata": {
    "date_backmatter": "2556-12-11",
    "date_modified": "2557-01-29",
    "date_original": "2557-01-29",
    "doctype": "ประกาศ",
    "editors": [
      {
        "name": "ปริยานุช",
        "role": "ผู้จัดทำ",
        "date": "2557-02-07"
      },
      {
        "name": "อุษมล",
        "role": "ผู้ตรวจ",
        "date": "2557-02-26"
      }
    ],
    "tag": "ba10-2e-2557-a0001"
  }
}