{
  "pages": [
    [
      [
        "ประกาศกรมศิลปากร",
        "เรื่อง แก้ไขการประกาศขึ้นทะเบียนโบราณวัตถุและศิลปวัตถุ"
      ]
    ],
    []
  ],
  "metadata": {
    "date_backmatter": "2549-11-24",
    "date_modified": "2550-04-19",
    "date_original": null,
    "doctype": "ประกาศ",
    "editors": [
      {
        "name": "วัชศักดิ์",
        "role": "ผู้จัดทำ",
        "date": "2550-05-08"
      }
    ],
    "tag": "ba10-2e-2550-a0001"
  }
}