{
  "pages": [
    [
      [
        "ประกาศกรมศิลปากร",
        "เรื่อง ขึ้นทะเบียนและกำหนดเขตที่ดินโบราณสถาน"
      ]
    ],
    []
  ],
  "metadata": {
    "date_backmatter": "2547-01-28",
    "date_modified": "2547-05-10",
    "date_original": "2547-05-10",
    "doctype": "ประกาศ",
    "editors": [
      {
        "name": "ศุภชัย",
        "role": "พิมพ์",
        "date": "2547-07-14"
      },
      {
        "name": "พัชรินทร์/สุมลรัตน์",
        "role": "ตรวจ",
        "date": "2547-07-28"
      },
      {
        "name": "สถาพร",
        "role": "ปรับปรุง",
        "date": "2549-11-14"
      }
    ],
    "tag": "ba10-2e-2547-a0008"
  }
}