{
  "pages": [
    [
      [
        "ระเบียบกรมศิลปากร",
        "ฉบับที่ ๔ พ.ศ. ๒๕๐๔",
        "ว่าด้วยการขออนุญาตส่งหรือนำโบราณวัตถุหรือศิลปวัตถุ",
        "ออกนอกราชอาณาจักร"
      ]
    ],
    []
  ],
  "metadata": {
    "date_backmatter": "2504-09-28",
    "date_modified": "2504-09-30",
    "date_original": "2504-09-30",
    "editors": [
      {
        "name": "จารุวรรณ",
        "role": "พิมพ์",
        "date": "2545-10-25"
      },
      {
        "name": "สถาพร",
        "role": "ปรับปรุง",
        "date": "2549-11-15"
      }
    ],
    "tag": "ba10-2g-2504-004"
  }
}