{
  "pages": [
    [
      [
        "ประกาศกรมศิลปากร",
        "เรื่อง กำหนดเขตที่ดินโบราณสถาน"
      ]
    ],
    []
  ],
  "metadata": {
    "date_backmatter": "2548-08-04",
    "date_modified": "2548-11-07",
    "date_original": "2548-11-07",
    "doctype": "ประกาศ",
    "editors": [
      {
        "name": "พชร",
        "role": "ผู้จัดทำ",
        "date": "2548-11-10"
      },
      {
        "name": "สถาพร",
        "role": "ปรับปรุง",
        "date": "2549-11-14"
      }
    ],
    "tag": "ba10-2e-2548-a0003"
  }
}