{
  "pages": [
    [
      [
        "กฎกระทรวง",
        "ฉบับที่ ๗ (พ.ศ. ๒๕๓๙)",
        "ออกตามความในพระราชบัญญัติโบราณสถาน โบราณวัตถุ ศิลปวัตถุ",
        "และพิพิธภัณฑสถานแห่งชาติ",
        "พ.ศ. ๒๕๐๔"
      ]
    ],
    []
  ],
  "metadata": {
    "date_backmatter": "2539-06-26",
    "date_modified": "2539-07-18",
    "date_original": "2539-07-18",
    "doctype": "กฎกระทรวง",
    "editors": [
      {
        "name": "สถาพร",
        "role": "ปรับปรุง",
        "date": "2549-11-14"
      }
    ],
    "tag": "ba10-2b-2539-007"
  }
}