{
  "pages": [
    [
      [
        "ระเบียบกรมศิลปากร",
        "ว่าด้วยการขออนุญาตส่งหรือนำโบราณวัตถุหรือศิลปวัตถุ",
        "ออกนอกราชอาณาจักร",
        "ฉบับที่ ๕ (พ.ศ. ๒๕๑๓)"
      ]
    ],
    []
  ],
  "metadata": {
    "date_backmatter": "2513-01-30",
    "date_modified": "2513-02-17",
    "date_original": "2513-02-17",
    "editors": [
      {
        "name": "เพ็ญพร/พิมพ์",
        "role": "แก้ไข",
        "date": "2545-10-18"
      },
      {
        "name": "สถาพร",
        "role": "ปรับปรุง",
        "date": "2549-11-15"
      }
    ],
    "tag": "ba10-2g-2513-005"
  }
}