{
  "pages": [
    [
      [
        "กฎกระทรวง",
        "ให้ใช้บังคับผังเมืองรวมเมืองพนัสนิคม จังหวัดชลบุรี",
        "พ.ศ. ๒๕๔๘"
      ]
    ],
    []
  ],
  "metadata": {
    "date_backmatter": "2548-02-04",
    "date_modified": "2547-03-24",
    "date_original": "2547-03-24",
    "doctype": "กฎกระทรวง",
    "editors": [],
    "tag": "a126-2b-2548-a0003"
  }
}