{
  "pages": [
    [
      [
        "กฎกระทรวง",
        "ให้ใช้บังคับผังเมืองรวมจังหวัดประจวบคีรีขันธ์",
        "พ.ศ. ๒๕๕๘"
      ]
    ],
    []
  ],
  "metadata": {
    "date_backmatter": "2558-12-04",
    "date_modified": "2558-12-25",
    "date_original": "2558-12-25",
    "doctype": "กฎกระทรวง",
    "editors": [
      {
        "name": "ปริยานุช, วริญา",
        "role": "จัดทำ",
        "date": "2558-12-29"
      },
      {
        "name": "วิชพงษ์",
        "role": "ตรวจ",
        "date": "2559-01-07"
      }
    ],
    "tag": "a126-2b-2558-a0073"
  }
}