{
  "pages": [
    [
      [
        "กฎกระทรวง",
        "ฉบับที่ ๓๕๔ (พ.ศ. ๒๕๔๐)",
        "ออกตามความในพระราชบัญญัติการผังเมือง",
        "พ.ศ. ๒๕๑๘"
      ]
    ],
    []
  ],
  "metadata": {
    "date_backmatter": "2540-10-06",
    "date_modified": "2540-10-10",
    "date_original": "2540-10-10",
    "doctype": "กฎกระทรวง",
    "editors": [
      {
        "name": "สุกัญญา",
        "role": "พิมพ์",
        "date": "2551-09-25"
      },
      {
        "name": "สุนันทา",
        "role": "ตรวจ",
        "date": "2551-11-06"
      }
    ],
    "tag": "a126-2b-2540-a010"
  }
}