{
  "pages": [
    [
      [
        "กฎกระทรวง",
        "ฉบับที่ ๑๕ (พ.ศ. ๒๕๒๙)",
        "ออกตามความในพระราชบัญญัติการผังเมือง",
        "พ.ศ. ๒๕๑๘"
      ]
    ],
    []
  ],
  "metadata": {
    "date_backmatter": "2529-02-18",
    "date_modified": "2529-05-07",
    "date_original": "2529-05-07",
    "doctype": "กฎกระทรวง",
    "editors": [
      {
        "name": "สุกัญญา",
        "role": "แก้ไข",
        "date": "2551-11-17"
      },
      {
        "name": "รัศม์วรรณวลัย",
        "role": "ตรวจ",
        "date": "2551-11-25"
      }
    ],
    "tag": "a126-2b-2529-a0004"
  }
}