{
  "pages": [
    [
      [
        "กฎกระทรวง",
        "ให้ใช้บังคับผังเมืองรวมเมืองทุ่งสง จังหวัดนครศรีธรรมราช",
        "พ.ศ. ๒๕๔๖"
      ]
    ],
    []
  ],
  "metadata": {
    "date_backmatter": "2546-07-10",
    "date_modified": "2551-08-15",
    "date_original": "2546-11-06",
    "doctype": "กฎกระทรวง",
    "editors": [
      {
        "name": "ณัฐดนัย",
        "role": "พิมพ์",
        "date": "2551-04-24"
      },
      {
        "name": "รัศมีวรรณวลัย",
        "role": "ตรวจ",
        "date": "2551-04-30"
      },
      {
        "name": "สุนันทา",
        "role": "ผู้จัดทำ",
        "date": "2551-12-11"
      }
    ],
    "tag": "a126-2b-9953-update"
  }
}