{
  "pages": [
    [
      [
        "กฎกระทรวง",
        "ฉบับที่ ๓๒๒ (พ.ศ. ๒๕๔๐)",
        "ออกตามความในพระราชบัญญัติการผังเมือง",
        "พ.ศ. ๒๕๑๘"
      ]
    ],
    []
  ],
  "metadata": {
    "date_backmatter": "2540-05-28",
    "date_modified": "2545-06-17",
    "date_original": "2540-06-24",
    "doctype": "กฎกระทรวง",
    "editors": [
      {
        "name": "สุพัฒตา",
        "role": "พิมพ์",
        "date": "2550-05-14"
      },
      {
        "name": "หทัยภัทร",
        "role": "ตรวจ",
        "date": "2550-06-26"
      },
      {
        "name": "สุนันทา",
        "role": "ผู้จัดทำ",
        "date": "2551-12-11"
      }
    ],
    "tag": "a126-2b-2545-a024"
  }
}