{
  "pages": [
    [
      [
        "กฎกระทรวง",
        "ฉบับที่ ๔๕๖ (พ.ศ. ๒๕๔๓)",
        "ออกตามความในพระราชบัญญัติการผังเมือง",
        "พ.ศ. ๒๕๑๘"
      ]
    ],
    []
  ],
  "metadata": {
    "date_backmatter": "2543-06-19",
    "date_modified": "2543-06-22",
    "date_original": "2543-06-22",
    "doctype": "กฎกระทรวง",
    "editors": [],
    "tag": "a126-2b-2543-a017"
  }
}