{
  "pages": [
    [
      [
        "กฎกระทรวง",
        "ให้ใช้บังคับผังเมืองรวมชุมชนล้อมแรด จังหวัดลำปาง",
        "พ.ศ. ๒๕๕๘"
      ]
    ],
    []
  ],
  "metadata": {
    "date_backmatter": "2558-11-13",
    "date_modified": "2558-11-26",
    "date_original": "2558-11-26",
    "doctype": "กฎกระทรวง",
    "editors": [
      {
        "name": "ปริยานุช, วริญา",
        "role": "จัดทำ",
        "date": "2558-12-18"
      },
      {
        "name": "วิชพงษ์",
        "role": "ตรวจ",
        "date": "2558-12-22"
      }
    ],
    "tag": "a126-2b-2558-a0058"
  }
}