{
  "pages": [
    [
      [
        "พระราชกฤษฎีกา",
        "กำหนดเขตที่ดินที่จะทำการสำรวจเพื่อการวางและจัดทำผังเมืองรวม",
        "ในท้องที่ตำบลบ้านฉาง ตำบลบางปรอก และตำบลบ้านกลาง",
        "อำเภอเมืองปทุมธานี จังหวัดปทุมธานี",
        "พ.ศ. ๒๕๒๒",
        "",
        "",
        "ภูมิพลอดุลยเดช ป.ร.",
        "ให้ไว้ ณ วันที่ ๒๓ กรกฎาคม พ.ศ. ๒๕๒๒",
        "เป็นปีที่ ๓๔ ในรัชกาลปัจจุบัน"
      ]
    ],
    []
  ],
  "metadata": {
    "date_header": "2522-07-23",
    "date_modified": "2522-08-09",
    "date_original": "2522-08-09",
    "doctype": "พระราชกฤษฎีกา",
    "editors": [
      {
        "name": "อัมภิญา",
        "role": "พิมพ์",
        "date": "2550-10-18"
      },
      {
        "name": "ฐิติพงษ์",
        "role": "ตรวจ",
        "date": "2550-11-12"
      },
      {
        "name": "วิภา",
        "role": "ปรับปรุง",
        "date": "2558-07-15"
      }
    ],
    "tag": "a126-2a-2522-a004",
    "title": "กำหนดเขตที่ดินที่จะทำการสำรวจเพื่อการวางและจัดทำผังเมืองรวมในท้องที่ตำบลบ้านฉาง ตำบลบางปรอก และตำบลบ้านกลางอำเภอเมืองปทุมธานี จังหวัดปทุมธานี"
  }
}