{
  "pages": [
    [
      [
        "กฎกระทรวง",
        "ให้ใช้บังคับผังเมืองรวมจังหวัดปทุมธานี",
        "พ.ศ. ๒๕๕๘"
      ]
    ],
    []
  ],
  "metadata": {
    "date_backmatter": "2558-03-26",
    "date_modified": "2558-06-10",
    "date_original": "2558-06-10",
    "doctype": "กฎกระทรวง",
    "editors": [
      {
        "name": "ปริยานุช",
        "role": "ผู้จัดทำ",
        "date": "2558-06-11"
      },
      {
        "name": "ปุณิกา - วิชพงษ์",
        "role": "ผู้ตรวจ",
        "date": "2558-06-24"
      }
    ],
    "tag": "a126-2b-2558-a0012"
  }
}