{
  "pages": [
    [
      [
        "กฎกระทรวง",
        "ฉบับที่ ๓๙๑ (พ.ศ. ๒๕๔๑)",
        "ออกตามความในพระราชบัญญัติการผังเมือง พ.ศ. ๒๕๑๘"
      ]
    ],
    []
  ],
  "metadata": {
    "date_backmatter": "2541-11-20",
    "date_modified": "2541-12-08",
    "date_original": "2541-12-08",
    "doctype": "กฎกระทรวง",
    "editors": [
      {
        "name": "ประภาศรี",
        "role": "พิมพ์",
        "date": "2551-04-25"
      },
      {
        "name": "รัศม์วรรณวลัย",
        "role": "ตรวจ",
        "date": "2551-04-29"
      },
      {
        "name": "วิภา",
        "role": "ปรับปรุง",
        "date": "2558-11-11"
      }
    ],
    "tag": "a126-2b-2541-a018"
  }
}