{
  "pages": [
    [
      [
        "ระเบียบกระทรวงมหาดไทย",
        "ว่าด้วยวิธีการประกาศเชิญชวนให้ผู้มีส่วนได้เสียไปตรวจดูแผนผัง",
        "(ฉบับที่ ๒) พ.ศ. ๒๕๔๗"
      ]
    ],
    []
  ],
  "metadata": {
    "date_backmatter": "2547-09-30",
    "date_modified": "2547-10-27",
    "date_original": "2547-10-27",
    "editors": [
      {
        "name": "พรพิมล",
        "role": "พิมพ์",
        "date": "2547-03-28"
      },
      {
        "name": "ธัญกมล/ศุภสรณ์",
        "role": "ตรวจ",
        "date": "2548-04-22"
      }
    ],
    "tag": "a126-2g-2547-a0003"
  }
}