{
  "pages": [
    [
      [
        "กฎกระทรวง",
        "ให้ใช้บังคับผังเมืองรวมจังหวัดพิจิตร",
        "พ.ศ. ๒๕๖๐"
      ]
    ],
    []
  ],
  "metadata": {
    "date_backmatter": "2560-01-09",
    "date_modified": "2560-01-31",
    "date_original": "2560-01-31",
    "doctype": "กฎกระทรวง",
    "editors": [
      {
        "name": "ปริยานุช",
        "role": "จัดทำ",
        "date": "2560-02-02"
      },
      {
        "name": "ปุณิกา",
        "role": "ตรวจ",
        "date": "2560-02-02"
      }
    ],
    "tag": "a126-2b-2560-a0012"
  }
}