{
  "pages": [
    [
      [
        "กฎกระทรวง",
        "ให้ใช้บังคับผังเมืองรวมเมืองอัมพวา จังหวัดสมุทรสงคราม",
        "พ.ศ. ๒๕๔๕"
      ]
    ],
    []
  ],
  "metadata": {
    "date_backmatter": "2545-01-16",
    "date_modified": "2551-08-15",
    "date_original": "2545-02-12",
    "doctype": "กฎกระทรวง",
    "editors": [
      {
        "name": "ศิริยา",
        "role": "พิมพ์",
        "date": "2550-04-09"
      },
      {
        "name": "สุนันทา",
        "role": "ผู้จัดทำ",
        "date": "2551-12-11"
      }
    ],
    "tag": "a126-2b-9978-update"
  }
}