{
  "pages": [
    [
      [
        "กฎกระทรวง",
        "ฉบับที่ ๔๓๒ (พ.ศ. ๒๕๔๒)",
        "ออกตามความในพระราชบัญญัติการผังเมือง พ.ศ. ๒๕๑๘"
      ]
    ],
    []
  ],
  "metadata": {
    "date_backmatter": "2542-11-26",
    "date_gz_old": "2542-12-20",
    "doctype": "กฎกระทรวง",
    "editors": [
      {
        "name": "ภคินี",
        "role": "แก้ไข",
        "date": "2545-05-24"
      }
    ],
    "tag": "a126-2b-2542-a035"
  }
}