{
  "pages": [
    [
      [
        "กฎกระทรวง",
        "ฉบับที่ ๑๙๐ (พ.ศ. ๒๕๓๗)",
        "ออกตามความในพระราชบัญญัติการผังเมือง",
        "พ.ศ. ๒๕๑๘"
      ]
    ],
    []
  ],
  "metadata": {
    "date_backmatter": "2537-09-30",
    "date_modified": "2537-10-03",
    "date_original": "2537-10-03",
    "doctype": "กฎกระทรวง",
    "editors": [
      {
        "name": "วิภา",
        "role": "ปรับปรุง",
        "date": "2558-09-15"
      }
    ],
    "tag": "a126-2b-2537-a025"
  }
}