{
  "pages": [
    [
      [
        "ประกาศกรมโยธาธิการและผังเมือง",
        "เรื่อง กำหนดหลักเกณฑ์การใช้ประโยชน์ในทรัพย์สิน",
        "เพื่อประโยชน์ในการวางและจัดทำผังเมืองรวม",
        "ในท้องที่จังหวัดสตูล",
        "พ.ศ. ๒๕๕๘"
      ]
    ],
    []
  ],
  "metadata": {
    "date_backmatter": "2558-11-05",
    "date_modified": "2558-12-02",
    "date_original": "2558-12-02",
    "doctype": "ประกาศ",
    "editors": [
      {
        "name": "ปริยานุช",
        "role": "จัดทำ",
        "date": "2558-12-25"
      },
      {
        "name": "ปริญสินีย์",
        "role": "ตรวจ",
        "date": "2558-12-25"
      }
    ],
    "tag": "a126-2e-2558-a0033"
  }
}