{
  "pages": [
    [
      [
        "กฎกระทรวง",
        "ให้ใช้บังคับผังเมืองรวมชุมชนทับกวาง จังหวัดสระบุรี",
        "พ.ศ. ๒๕๕๐"
      ]
    ],
    []
  ],
  "metadata": {
    "date_backmatter": "2550-07-02",
    "date_modified": "2550-07-25",
    "date_original": "2550-07-25",
    "doctype": "กฎกระทรวง",
    "editors": [
      {
        "name": "โสรศ",
        "role": "ผู้จัดทำ",
        "date": "2550-08-06"
      }
    ],
    "tag": "a126-2b-2550-a0007"
  }
}