{
  "pages": [
    [
      [
        "ประกาศกรมโยธาธิการและผังเมือง",
        "เรื่อง กำหนดหลักเกณฑ์การใช้ประโยชน์ในทรัพย์สินเพื่อประโยชน์ในการวาง",
        "และจัดทำผังเมืองรวมในท้องที่จังหวัดตรัง"
      ]
    ],
    []
  ],
  "metadata": {
    "date_backmatter": "2550-07-09",
    "date_modified": "2550-08-23",
    "date_original": "2550-08-23",
    "doctype": "ประกาศ",
    "editors": [
      {
        "name": "วัชศักดิ์",
        "role": "ผู้จัดทำ",
        "date": "2550-08-30"
      }
    ],
    "tag": "a126-2e-2550-a0034"
  }
}