{
  "pages": [
    [
      [
        "กฎกระทรวง",
        "ฉบับที่ ๔๓๓ (พ.ศ. ๒๕๔๒)",
        "ออกตามความในพระราชบัญญัติการผังเมือง พ.ศ. ๒๕๑๘"
      ]
    ],
    []
  ],
  "metadata": {
    "date_backmatter": "2542-11-26",
    "date_modified": "2542-12-20",
    "date_original": "2542-12-20",
    "doctype": "กฎกระทรวง",
    "editors": [],
    "tag": "a126-2b-2542-a037"
  }
}