{
  "pages": [
    [
      [
        "ราชกฤษฎีกา",
        "กำหนดเขตที่ดินที่จะทำการสำรวจเพื่อการวางและจัดทำผังเมืองเฉพาะ",
        "ในท้องที่เขตลาดกระบัง เขตประเวศ กรุงเทพมหานคร",
        "และอำเภอบางพลี อำเภอบางเสาธง จังหวัดสมุทรปราการ",
        "พ.ศ. ๒๕๕๒",
        "",
        "",
        "ภูมิพลอดุลยเดช ป.ร.",
        "ให้ไว้ ณ วันที่ ๑ มิถุนายน พ.ศ. ๒๕๕๒",
        "เป็นปีที่ ๖๔ ในรัชกาลปัจจุบัน"
      ]
    ],
    []
  ],
  "metadata": {
    "date_header": "2552-06-01",
    "date_modified": "2552-06-29",
    "date_original": "2552-06-29",
    "editors": [
      {
        "name": "ปริยานุช",
        "role": "ผู้จัดทำ",
        "date": "2552-07-09"
      },
      {
        "name": "วิภา",
        "role": "ปรับปรุง",
        "date": "2558-08-03"
      }
    ],
    "tag": "a126-2a-2552-a0001"
  }
}