{
  "pages": [
    [
      [
        "กฎกระทรวง",
        "ให้ใช้บังคับผังเมืองรวมจังหวัดจันทบุรี",
        "พ.ศ. ๒๕๕๕"
      ]
    ],
    []
  ],
  "metadata": {
    "date_backmatter": "2555-12-26",
    "date_modified": "2561-06-15",
    "date_original": "2556-05-29",
    "doctype": "กฎกระทรวง",
    "editors": [
      {
        "name": "ปริยานุช",
        "role": "ผู้จัดทำ",
        "date": "2556-06-04"
      },
      {
        "name": "ปณตภร",
        "role": "ผู้ตรวจ",
        "date": "2556-06-05"
      },
      {
        "name": "วิวรรธน์",
        "role": "เพิ่มเติม",
        "date": "2561-07-09"
      },
      {
        "name": "ปริญสินีย์",
        "role": "ตรวจ",
        "date": "2561-11-30"
      }
    ],
    "tag": "a126-2b-9921-update"
  }
}