{
  "pages": [
    [
      [
        "กฎกระทรวง",
        "ฉบับที่ ๓๐๖ (พ.ศ. ๒๕๓๙)",
        "ออกตามความในพระราชบัญญัติการผังเมือง",
        "พ.ศ. ๒๕๑๘"
      ]
    ],
    []
  ],
  "metadata": {
    "date_backmatter": "2539-11-15",
    "date_modified": "2539-11-26",
    "date_original": "2539-11-26",
    "doctype": "กฎกระทรวง",
    "editors": [
      {
        "name": "วิภา",
        "role": "ปรับปรุง",
        "date": "2558-10-14"
      }
    ],
    "tag": "a126-2b-2539-a025"
  }
}