{
  "pages": [
    [
      [
        "กฎกระทรวง",
        "ให้ใช้บังคับผังเมืองรวมชุมชนพะตง - พังลา จังหวัดสงขลา",
        "พ.ศ. ๒๕๕๖"
      ]
    ],
    []
  ],
  "metadata": {
    "date_backmatter": "2556-01-24",
    "date_modified": "2556-08-02",
    "date_original": "2556-08-02",
    "doctype": "กฎกระทรวง",
    "editors": [
      {
        "name": "ปริยานุช",
        "role": "ผู้จัดทำ",
        "date": "2556-08-05"
      },
      {
        "name": "ณัฐพร",
        "role": "ผู้ตรวจ",
        "date": "2556-08-05"
      }
    ],
    "tag": "a126-2b-2556-a0020"
  }
}