{
  "pages": [
    [
      [
        "กฎกระทรวง",
        "ฉบับที่ ๔๑๕ (พ.ศ. ๒๕๔๒)",
        "ออกตามความในพระราชบัญญัติการผังเมือง",
        "พ.ศ. ๒๕๑๘"
      ]
    ],
    []
  ],
  "metadata": {
    "date_backmatter": "2542-08-19",
    "date_modified": "2542-09-02",
    "date_original": "2542-09-02",
    "doctype": "กฎกระทรวง",
    "editors": [
      {
        "name": "ปรียนันท์",
        "role": "พิมพ์",
        "date": "2551-08-28"
      },
      {
        "name": "๔/๔",
        "role": "๔๕",
        "date": "2551-08-28"
      },
      {
        "name": "สุกัญญา",
        "role": "แก้ไข",
        "date": "2551-08-28"
      },
      {
        "name": "วิภา",
        "role": "ปรับปรุง",
        "date": "2558-11-27"
      }
    ],
    "tag": "a126-2b-2542-a022"
  }
}