{
  "pages": [
    [
      [
        "กฎกระทรวง",
        "ให้ใช้บังคับผังเมืองรวมชุมชนบางปะกง จังหวัดฉะเชิงเทรา (ฉบับที่ ๒)",
        "พ.ศ. ๒๕๕๘"
      ]
    ],
    []
  ],
  "metadata": {
    "date_backmatter": "2558-11-20",
    "date_modified": "2558-12-08",
    "date_original": "2558-12-08",
    "doctype": "กฎกระทรวง",
    "editors": [
      {
        "name": "ปริยานุช",
        "role": "จัดทำ",
        "date": "2558-12-14"
      },
      {
        "name": "วิศนี",
        "role": "ตรวจ",
        "date": "2559-01-08"
      }
    ],
    "tag": "a126-2b-2558-a0065"
  }
}