{
  "pages": [
    [
      [
        "กฎกระทรวง",
        "ฉบับที่ ๑๒๑ (พ.ศ. ๒๕๓๕)",
        "ออกตามความในพระราชบัญญัติการผังเมือง",
        "พ.ศ. ๒๕๑๘"
      ]
    ],
    []
  ],
  "metadata": {
    "date_backmatter": "2535-08-10",
    "date_modified": "2535-08-17",
    "date_original": "2535-08-17",
    "doctype": "กฎกระทรวง",
    "editors": [
      {
        "name": "วิภา",
        "role": "ปรับปรุง",
        "date": "2558-03-07"
      }
    ],
    "tag": "a126-2b-2535-a0001"
  }
}