{
  "pages": [
    [
      [
        "กฎกระทรวง",
        "กำหนดการขยายระยะเวลาการใช้บังคับผังเมืองรวม (ฉบับที่ ๒)",
        "พ.ศ. ๒๕๔๙"
      ]
    ],
    []
  ],
  "metadata": {
    "date_backmatter": "2549-05-16",
    "date_modified": "2549-05-25",
    "date_original": "2549-05-25",
    "doctype": "กฎกระทรวง",
    "editors": [
      {
        "name": "ปริญสินีย์",
        "role": "ปรับปรุง",
        "date": "2557-10-10"
      }
    ],
    "tag": "a126-2b-2549-a0008"
  }
}