{
  "pages": [
    [
      [
        "กฎกระทรวง",
        "ฉบับที่ ๔๐๑ (พ.ศ. ๒๕๔๒)",
        "ออกตามความในพระราชบัญญัติการผังเมือง",
        "พ.ศ. ๒๕๑๘"
      ]
    ],
    []
  ],
  "metadata": {
    "date_backmatter": "2542-04-07",
    "date_modified": "2551-08-15",
    "date_original": "2542-05-04",
    "doctype": "กฎกระทรวง",
    "editors": [
      {
        "name": "สุกัญญา",
        "role": "แก้ไข",
        "date": "2551-09-10"
      },
      {
        "name": "สุนันทา",
        "role": "ผู้จัดทำ",
        "date": "2551-12-11"
      }
    ],
    "tag": "a126-2b-9951-update"
  }
}