{
  "pages": [
    [
      [
        "กฎกระทรวง",
        "ให้ใช้บังคับผังเมืองรวมเมืองห้วยยอด จังหวัดตรัง",
        "พ.ศ. ๒๕๕๔"
      ]
    ],
    []
  ],
  "metadata": {
    "date_backmatter": "2554-04-22",
    "date_modified": "2554-06-03",
    "date_original": "2554-06-03",
    "doctype": "กฎกระทรวง",
    "editors": [
      {
        "name": "ปริยานุช",
        "role": "ผู้จัดทำ",
        "date": "2554-06-06"
      },
      {
        "name": "ณัฐวดี",
        "role": "ตรวจ",
        "date": "2554-06-06"
      }
    ],
    "tag": "a126-2b-2554-a0011"
  }
}