{
  "pages": [
    [
      [
        "พระราชกฤษฎีกา",
        "กำหนดเขตที่ดินที่จะทำการสำรวจเพื่อการวาง",
        "และจัดทำผังเมืองรวมในท้องที่ตำบลบ่อยาง",
        "และตำบลเขารูปช้าง อำเภอเมืองสงขลา",
        "จังหวัดสงขลา พ.ศ. ๒๕๑๙",
        "",
        "",
        "ภูมิพลอดุลยเดช ป.ร.",
        "ให้ไว้ ณ วันที่ ๒๑ กันยายน พ.ศ. ๒๕๑๙",
        "เป็นปีที่ ๓๑ ในรัชกาลปัจจุบัน"
      ]
    ],
    []
  ],
  "metadata": {
    "date_header": "2519-09-21",
    "date_modified": "2519-09-28",
    "date_original": "2519-09-28",
    "doctype": "พระราชกฤษฎีกา",
    "editors": [
      {
        "name": "นันติญา",
        "role": "พิมพ์",
        "date": "2550-10-18"
      },
      {
        "name": "ฐิติพงษ์",
        "role": "ตรวจ",
        "date": "2550-10-22"
      },
      {
        "name": "วิภา",
        "role": "ปรับปรุง",
        "date": "2558-07-15"
      }
    ],
    "tag": "a126-2a-2519-a0001",
    "title": "กำหนดเขตที่ดินที่จะทำการสำรวจเพื่อการวางและจัดทำผังเมืองรวมในท้องที่ตำบลบ่อยางและตำบลเขารูปช้าง อำเภอเมืองสงขลาจังหวัดสงขลา"
  }
}