{
  "pages": [
    [
      [
        "กฎกระทรวง",
        "ฉบับที่ ๒๔๖ (พ.ศ. ๒๕๓๘)",
        "ออกตามความในพระราชบัญญัติการผังเมือง",
        "พ.ศ. ๒๕๑๘"
      ]
    ],
    []
  ],
  "metadata": {
    "date_backmatter": "2538-10-09",
    "date_modified": "2538-10-09",
    "date_original": "2538-10-09",
    "doctype": "กฎกระทรวง",
    "editors": [
      {
        "name": "วิภา",
        "role": "ปรับปรุง",
        "date": "2558-09-28"
      }
    ],
    "tag": "a126-2b-2538-a037"
  }
}