{
  "pages": [
    [
      [
        "กฎกระทรวง",
        "ให้ใช้บังคับผังเมืองรวมเมืองลพบุรี (ฉบับที่ ๒)",
        "พ.ศ. ๒๕๔๙"
      ]
    ],
    []
  ],
  "metadata": {
    "date_backmatter": "2549-07-13",
    "date_modified": "2549-08-01",
    "date_original": "2549-08-01",
    "doctype": "กฎกระทรวง",
    "editors": [
      {
        "name": "นันทนา",
        "role": "ผู้จัดทำ",
        "date": "2549-08-09"
      }
    ],
    "tag": "a126-2b-2549-a0017"
  }
}