{
  "pages": [
    [
      [
        "กฎกระทรวง",
        "ให้ใช้บังคับผังเมืองรวมชุมชนบางสะพานน้อย จังหวัดประจวบคีรีขันธ์",
        "พ.ศ. ๒๕๖๐"
      ]
    ],
    []
  ],
  "metadata": {
    "date_backmatter": "2560-11-07",
    "date_modified": "2561-03-07",
    "date_original": "2561-03-07",
    "doctype": "กฎกระทรวง",
    "editors": [
      {
        "name": "พรวิภา",
        "role": "จัดทำ",
        "date": "2561-03-07"
      },
      {
        "name": "นุสรา",
        "role": "ตรวจ",
        "date": "2561-10-11"
      }
    ],
    "tag": "a126-2b-2561-a0021"
  }
}