{
  "pages": [
    [
      [
        "กฎกระทรวง",
        "ฉบับที่ ๔๔๙ (พ.ศ. ๒๕๔๓)",
        "ออกตามความในพระราชบัญญัติการผังเมือง",
        "พ.ศ. ๒๕๑๘"
      ]
    ],
    []
  ],
  "metadata": {
    "date_backmatter": "2543-05-18",
    "date_modified": "2543-06-05",
    "date_original": "2543-06-05",
    "doctype": "กฎกระทรวง",
    "editors": [],
    "tag": "a126-2b-2543-a010"
  }
}