{
  "pages": [
    [
      [
        "กฎกระทรวง",
        "ฉบับที่ ๓๖๒ (พ.ศ. ๒๕๔๐)",
        "ออกตามความในพระราชบัญญัติการผังเมือง พ.ศ. ๒๕๑๘"
      ]
    ],
    []
  ],
  "metadata": {
    "date_backmatter": "2540-11-05",
    "date_modified": null,
    "date_original": "2540-11-07",
    "doctype": "กฎกระทรวง",
    "editors": [
      {
        "name": "วิภา",
        "role": "ปรับปรุง",
        "date": "2558-11-02"
      }
    ],
    "tag": "a126-2b-2540-a036"
  }
}