{
  "pages": [
    [
      [
        "กฎกระทรวง",
        "ฉบับที่ ๓๔๕ (พ.ศ. ๒๕๔๐)",
        "ออกตามความในพระราชบัญญัติการผังเมือง พ.ศ. ๒๕๑๘"
      ]
    ],
    []
  ],
  "metadata": {
    "date_backmatter": "2540-06-26",
    "date_modified": "2540-07-03",
    "date_original": "2540-07-03",
    "doctype": "กฎกระทรวง",
    "editors": [
      {
        "name": "วิภา",
        "role": "ปรับปรุง",
        "date": "2558-10-14"
      }
    ],
    "tag": "a126-2b-2540-a0001"
  }
}