{
  "pages": [
    [
      [
        "กฎกระทรวง",
        "ฉบับที่ ๓๗๓ (พ.ศ. ๒๕๔๑)",
        "ออกตามความในพระราชบัญญัติการผังเมือง พ.ศ. ๒๕๑๘"
      ]
    ],
    []
  ],
  "metadata": {
    "date_backmatter": "2541-03-13",
    "date_modified": "2541-03-16",
    "date_original": "2541-03-16",
    "doctype": "กฎกระทรวง",
    "editors": [
      {
        "name": "ภคินี",
        "role": "แก้ไข",
        "date": "2545-06-05"
      },
      {
        "name": "สุกัญญา",
        "role": "แก้ไข",
        "date": "2551-09-10"
      },
      {
        "name": "วิภา",
        "role": "ปรับปรุง",
        "date": "2558-11-11"
      }
    ],
    "tag": "a126-2b-2541-a006"
  }
}