{
  "pages": [
    [
      [
        "กฎกระทรวง",
        "ให้ใช้บังคับผังเมืองรวมจังหวัดศรีสะเกษ",
        "พ.ศ. ๒๕๖๐"
      ]
    ],
    []
  ],
  "metadata": {
    "date_backmatter": "2560-04-11",
    "date_modified": "2560-04-28",
    "date_original": "2560-04-28",
    "doctype": "กฎกระทรวง",
    "editors": [
      {
        "name": "ภวรรณตรี",
        "role": "จัดทำ",
        "date": "2560-05-03"
      },
      {
        "name": "วริญา",
        "role": "ตรวจ",
        "date": "2560-05-03"
      }
    ],
    "tag": "a126-2b-2560-a0041"
  }
}