{
  "pages": [
    [
      [
        "กฎกระทรวง",
        "ให้ใช้บังคับผังเมืองรวมเมืองชลบุรี",
        "พ.ศ. ๒๕๕๓"
      ]
    ],
    []
  ],
  "metadata": {
    "date_backmatter": "2553-02-16",
    "date_modified": "2553-05-07",
    "date_original": "2553-05-07",
    "doctype": "กฎกระทรวง",
    "editors": [
      {
        "name": "ปริยานุช",
        "role": "จัดทำ",
        "date": "2553-05-25"
      },
      {
        "name": "นันท์นภัสร์",
        "role": "ตรวจ",
        "date": "2553-05-25"
      }
    ],
    "tag": "a126-2b-2553-a0003"
  }
}