{
  "pages": [
    [
      [
        "ประกาศกรมโยธาธิการและผังเมือง",
        "เรื่อง กำหนดหลักเกณฑ์การใช้ประโยชน์ในทรัพย์สินเพื่อประโยชน์ในการวาง",
        "และจัดทำผังเมืองรวมในท้องที่จังหวัดลำพูน"
      ]
    ],
    []
  ],
  "metadata": {
    "date_backmatter": "2546-08-18",
    "date_modified": "2546-08-22",
    "date_original": "2546-08-22",
    "doctype": "ประกาศ",
    "editors": [
      {
        "name": "ดลธี",
        "role": "จัดทำ",
        "date": "2550-10-31"
      },
      {
        "name": "หทัยภัทร",
        "role": "ตรวจ",
        "date": "2550-11-22"
      },
      {
        "name": "สุเมธ",
        "role": "ปรับปรุง",
        "date": "2558-11-10"
      }
    ],
    "tag": "a126-2e-2546-a0016"
  }
}