{
  "pages": [
    [
      [
        "กฎกระทรวง",
        "ให้ใช้บังคับผังเมืองรวมเมืองสตูล",
        "พ.ศ. ๒๕๕๘"
      ]
    ],
    []
  ],
  "metadata": {
    "date_backmatter": "2558-08-17",
    "date_modified": "2558-09-01",
    "date_original": "2558-09-01",
    "doctype": "กฎกระทรวง",
    "editors": [
      {
        "name": "ปริยานุช",
        "role": "ผู้จัดทำ",
        "date": "2558-09-04"
      },
      {
        "name": "วิศนี - วิชพงษ์",
        "role": "ผู้ตรวจ",
        "date": "2558-09-16"
      }
    ],
    "tag": "a126-2b-2558-a0047"
  }
}