{
  "pages": [
    [
      [
        "กฎกระทรวง",
        "ให้ใช้บังคับผังเมืองรวมชุมชนบ้านแพ้ว จังหวัดสมุทรสาคร (ฉบับที่ ๒)",
        "พ.ศ. ๒๕๖๐"
      ]
    ],
    []
  ],
  "metadata": {
    "date_backmatter": "2560-02-03",
    "date_modified": "2560-02-10",
    "date_original": "2560-02-10",
    "doctype": "กฎกระทรวง",
    "editors": [
      {
        "name": "ชวัลพร/ปริยานุช",
        "role": "จัดทำ",
        "date": "2560-02-14"
      }
    ],
    "tag": "a126-2b-2560-a0017"
  }
}