{
  "pages": [
    [
      [
        "กฎกระทรวง",
        "กำหนดการขยายระยะเวลาการใช้บังคับผังเมืองรวม (ฉบับที่ ๒๖)",
        "พ.ศ. ๒๕๕๘"
      ]
    ],
    []
  ],
  "metadata": {
    "date_backmatter": "2558-02-02",
    "date_modified": "2558-02-06",
    "date_original": "2558-02-06",
    "doctype": "กฎกระทรวง",
    "editors": [
      {
        "name": "ปริยานุช",
        "role": "ผู้จัดทำ",
        "date": "2558-02-10"
      },
      {
        "name": "กฤษดายุทธ",
        "role": "ผู้ตรวจ",
        "date": "2558-02-10"
      }
    ],
    "tag": "a126-2b-2558-a0001"
  }
}