{
  "pages": [
    [
      [
        "กฎกระทรวง",
        "ฉบับที่ ๔๖๘ (พ.ศ. ๒๕๔๓)",
        "ออกตามความในพระราชบัญญัติการผังเมือง",
        "พ.ศ. ๒๕๑๘"
      ]
    ],
    []
  ],
  "metadata": {
    "date_backmatter": "2543-11-27",
    "date_modified": "2543-11-30",
    "date_original": "2543-11-30",
    "doctype": "กฎกระทรวง",
    "editors": [],
    "tag": "a126-2b-2543-a029"
  }
}