{
  "pages": [
    [
      [
        "กฎกระทรวง",
        "ฉบับที่ ๓๙๕ (พ.ศ. ๒๕๔๑)",
        "ออกตามความในพระราชบัญญัติการผังเมือง พ.ศ. ๒๕๑๘"
      ]
    ],
    []
  ],
  "metadata": {
    "date_backmatter": "2541-12-11",
    "date_modified": "2541-12-25",
    "date_original": "2541-12-25",
    "doctype": "กฎกระทรวง",
    "editors": [
      {
        "name": "สุกัญญา",
        "role": "พิมพ์",
        "date": "2551-10-08"
      },
      {
        "name": "รัศม์วรรณวลัย",
        "role": "ตรวจ",
        "date": "2551-11-18"
      }
    ],
    "tag": "a126-2b-2541-a022"
  }
}