{
  "pages": [
    [
      [
        "กฎกระทรวง",
        "ให้ใช้บังคับผังเมืองรวมเมืองอ่างทอง",
        "พ.ศ. ๒๕๕๘"
      ]
    ],
    []
  ],
  "metadata": {
    "date_backmatter": "2558-11-17",
    "date_modified": "2559-02-19",
    "date_original": "2559-02-19",
    "doctype": "กฎกระทรวง",
    "editors": [
      {
        "name": "กัญฑรัตน์/ปริยานุช",
        "role": "จัดทำ",
        "date": "2559-02-23"
      },
      {
        "name": "วิชพงษ์",
        "role": "ตรวจ",
        "date": "2559-02-29"
      }
    ],
    "tag": "a126-2b-2559-a0003"
  }
}