{
  "pages": [
    [
      [
        "กฎกระทรวง",
        "กำหนดการขยายระยะเวลาการใช้บังคับผังเมืองรวม (ฉบับที่ ๗)",
        "พ.ศ. ๒๕๕๐"
      ]
    ],
    []
  ],
  "metadata": {
    "date_backmatter": "2550-10-30",
    "date_modified": "2550-11-19",
    "date_original": "2550-11-19",
    "doctype": "กฎกระทรวง",
    "editors": [
      {
        "name": "วัชศักดิ์",
        "role": "ผู้จัดทำ",
        "date": "2550-11-27"
      },
      {
        "name": "ปริญสินีย์",
        "role": "ปรับปรุง",
        "date": "2557-10-31"
      }
    ],
    "tag": "a126-2b-2550-a0013"
  }
}