{
  "pages": [
    [
      [
        "ประกาศกรมโยธาธิการและผังเมือง",
        "เรื่อง กำหนดหลักเกณฑ์การใช้ประโยชน์ในทรัพย์สินเพื่อประโยชน์ในการวางและจัดทำผังเมืองรวม",
        "ในท้องที่จังหวัดพัทลุง (ฉบับที่ ๒)",
        "พ.ศ. ๒๕๕๗"
      ]
    ],
    []
  ],
  "metadata": {
    "date_backmatter": "2557-07-10",
    "date_modified": "2557-07-28",
    "date_original": "2557-07-28",
    "doctype": "ประกาศ",
    "editors": [
      {
        "name": "ปริยานุช",
        "role": "ผู้จัดทำ",
        "date": "2557-07-30"
      },
      {
        "name": "กฤษดายุทธ",
        "role": "ผู้ตรวจ",
        "date": "2557-07-30"
      }
    ],
    "tag": "a126-2e-2557-a0001"
  }
}