{
  "pages": [
    [
      [
        "กฎกระทรวง",
        "ให้ใช้บังคับผังเมืองรวมชุมชนสุวินทวงศ์ จังหวัดฉะเชิงเทรา (ฉบับที่ ๒)",
        "พ.ศ. ๒๕๖๐"
      ]
    ],
    []
  ],
  "metadata": {
    "date_backmatter": "2560-07-20",
    "date_modified": "2560-07-24",
    "date_original": "2560-07-24",
    "doctype": "กฎกระทรวง",
    "editors": [
      {
        "name": "ปุณิกา/อัญชลี",
        "role": "จัดทำ",
        "date": "2560-07-26"
      },
      {
        "name": "นุสรา",
        "role": "ตรวจ",
        "date": "2560-09-02"
      }
    ],
    "tag": "a126-2b-2560-a0048"
  }
}