{
  "pages": [
    [
      [
        "ประกาศกรมโยธาธิการและผังเมือง",
        "เรื่อง กำหนดหลักเกณฑ์การใช้ประโยชน์ในทรัพย์สินเพื่อประโยชน์ในการวาง",
        "และจัดทำผังเมืองรวมในท้องที่จังหวัดนครพนม",
        "พ.ศ. ๒๕๕๐"
      ]
    ],
    []
  ],
  "metadata": {
    "date_backmatter": "2550-08-06",
    "date_modified": "2550-08-30",
    "date_original": "2550-08-30",
    "doctype": "ประกาศ",
    "editors": [
      {
        "name": "วัชศักดิ์",
        "role": "ผู้จัดทำ",
        "date": "2550-09-12"
      },
      {
        "name": "สุเมธ",
        "role": "ปรับปรุง",
        "date": "2559-01-15"
      }
    ],
    "tag": "a126-2e-2550-a0045"
  }
}