{
  "pages": [
    [
      [
        "กฎกระทรวง",
        "ให้ใช้บังคับผังเมืองรวมชุมชนผักไห่ - ลาดชะโด จังหวัดพระนครศรีอยุธยา",
        "พ.ศ. ๒๕๕๕"
      ]
    ],
    []
  ],
  "metadata": {
    "date_backmatter": "2555-01-11",
    "date_modified": "2555-04-11",
    "date_original": "2555-04-11",
    "doctype": "กฎกระทรวง",
    "editors": [
      {
        "name": "ปริยานุช",
        "role": "ผู้จัดทำ",
        "date": "2555-04-18"
      },
      {
        "name": "ณัฐพร",
        "role": "ผู้ตรวจ",
        "date": "2555-04-18"
      }
    ],
    "tag": "a126-2b-2555-a0010"
  }
}