{
  "pages": [
    [
      [
        "ประกาศกรมโยธาธิการและผังเมือง",
        "เรื่อง กำหนดหลักเกณฑ์การใช้ประโยชน์ในทรัพย์สินเพื่อประโยชน์",
        "ในการวางและจัดทำผังเมืองรวม ในท้องที่ตำบลเขาเพิ่ม",
        "ตำบลศรีกะอาง ตำบลบ้านพริก ตำบลป่าขะ ตำบลบ้านนา",
        "ตำบลบ้านพร้าว ตำบลพิกุลออก อำเภอบ้านนา จังหวัดนครนายก",
        "ตำบลชำผักแพว ตำบลท่ามะปราง ตำบลชะอม ตำบลห้วยแห้ง",
        "อำเภอแก่งคอย ตำบลมิตรภาพ อำเภอมวกเหล็ก ตำบลเจริญธรรม",
        "ตำบลคลองเรือ ตำบลบ้านลำ ตำบลหนองสรวง ตำบลวิหารแดง",
        "อำเภอวิหารแดง จังหวัดสระบุรี"
      ]
    ],
    []
  ],
  "metadata": {
    "date_backmatter": "2547-03-10",
    "date_modified": "2547-03-15",
    "date_original": "2547-03-15",
    "doctype": "ประกาศ",
    "editors": [
      {
        "name": "มัตติกา",
        "role": "จัดทำ",
        "date": "2547-07-07"
      },
      {
        "name": "จีระ/สุนันทา",
        "role": "ตรวจ",
        "date": "2547-07-23"
      },
      {
        "name": "สุเมธ",
        "role": "ปรับปรุง",
        "date": "2558-11-11"
      }
    ],
    "tag": "a126-2e-2547-a0001"
  }
}