{
  "pages": [
    [
      [
        "กฎกระทรวง",
        "ฉบับที่ ๑๕๖ (พ.ศ. ๒๕๓๖)",
        "ออกตามความในพระราชบัญญัติการผังเมือง",
        "พ.ศ. ๒๕๑๘"
      ]
    ],
    []
  ],
  "metadata": {
    "date_backmatter": "2536-12-16",
    "date_modified": "2536-12-21",
    "date_original": "2536-12-21",
    "doctype": "กฎกระทรวง",
    "editors": [
      {
        "name": "วิภา",
        "role": "ปรับปรุง",
        "date": "2558-09-14"
      }
    ],
    "tag": "a126-2b-2536-a015"
  }
}