{
  "pages": [
    [
      [
        "กฎกระทรวง",
        "ให้ใช้บังคับผังเมืองรวมเมืองร้อยเอ็ด",
        "พ.ศ. ๒๕๔๙"
      ]
    ],
    []
  ],
  "metadata": {
    "date_backmatter": "2549-09-28",
    "date_modified": "2549-10-11",
    "date_original": "2549-10-11",
    "doctype": "กฎกระทรวง",
    "editors": [
      {
        "name": "โสรศ",
        "role": "ผู้จัดทำ",
        "date": "2549-10-27"
      }
    ],
    "tag": "a126-2b-2549-a0022"
  }
}