{
  "pages": [
    [
      [
        "กฎกระทรวง",
        "ให้ใช้บังคับผังเมืองรวมชุมชนพิกุลทอง จังหวัดนราธิวาส",
        "พ.ศ. ๒๕๕๘"
      ]
    ],
    []
  ],
  "metadata": {
    "date_backmatter": "2558-04-07",
    "date_modified": "2558-06-05",
    "date_original": "2558-06-05",
    "doctype": "กฎกระทรวง",
    "editors": [
      {
        "name": "ปริยานุช",
        "role": "ผู้จัดทำ",
        "date": "2558-06-08"
      },
      {
        "name": "วิศนี - วิชพงษ์",
        "role": "ผู้ตรวจ",
        "date": "2558-06-15"
      }
    ],
    "tag": "a126-2b-2558-a0010"
  }
}