{
  "pages": [
    [
      [
        "กฎกระทรวง",
        "ฉบับที่ ๒๐ (พ.ศ. ๒๕๒๙)",
        "ออกตามความในพระราชบัญญัติการผังเมือง",
        "พ.ศ. ๒๕๑๘"
      ]
    ],
    []
  ],
  "metadata": {
    "date_backmatter": "2529-07-17",
    "date_modified": "2529-11-16",
    "date_original": "2529-11-16",
    "doctype": "กฎกระทรวง",
    "editors": [
      {
        "name": "ศิริยา",
        "role": "พิมพ์",
        "date": "2550-05-29"
      }
    ],
    "tag": "a126-2b-2529-a002"
  }
}