{
  "pages": [
    [
      [
        "กฎกระทรวง",
        "ฉบับที่ ๓๙๙ (พ.ศ. ๒๕๔๒)",
        "ออกตามความในพระราชบัญญัติการผังเมือง พ.ศ. ๒๕๑๘"
      ]
    ],
    []
  ],
  "metadata": {
    "date_backmatter": "2542-04-07",
    "date_modified": "2542-04-19",
    "date_original": "2542-04-19",
    "doctype": "กฎกระทรวง",
    "editors": [
      {
        "name": "สุกัญญา",
        "role": "แก้ไข",
        "date": "2551-09-10"
      },
      {
        "name": "วิภา",
        "role": "ปรับปรุง",
        "date": "2558-11-27"
      }
    ],
    "tag": "a126-2b-2542-a012"
  }
}