{
  "pages": [
    [
      [
        "กฎกระทรวง",
        "ให้ใช้บังคับผังเมืองรวมชุมชนบ้านค่าย - มาบข่า จังหวัดระยอง",
        "พ.ศ. ๒๕๕๕"
      ]
    ],
    []
  ],
  "metadata": {
    "date_backmatter": "2555-05-17",
    "date_modified": "2561-02-16",
    "date_original": "2555-07-24",
    "doctype": "กฎกระทรวง",
    "editors": [
      {
        "name": "พิมพ์มาดา",
        "role": "จัดทำ",
        "date": "2561-03-06"
      },
      {
        "name": "วิชพงษ์",
        "role": "ตรวจ",
        "date": "1561-04-18"
      }
    ],
    "tag": "a126-2b-9926-update"
  }
}