{
  "pages": [
    [
      [
        "กฎกระทรวง",
        "ฉบับที่ ๑๘๑ (พ.ศ. ๒๕๓๗)",
        "ออกตามความในพระราชบัญญัติการผังเมือง",
        "พ.ศ. ๒๕๑๘"
      ]
    ],
    []
  ],
  "metadata": {
    "date_backmatter": "2537-08-25",
    "date_modified": "2537-09-07",
    "date_original": "2537-09-07",
    "doctype": "กฎกระทรวง",
    "editors": [
      {
        "name": "วิภา",
        "role": "ปรับปรุง",
        "date": "2558-09-14"
      }
    ],
    "tag": "a126-2b-2537-a005"
  }
}