{
  "pages": [
    [
      [
        "ตราครุฑ",
        "กฎกระทรวง",
        "ฉบับที่ ๒๗ (พ.ศ. ๒๕๓๐)",
        "ออกตามความในพระราชบัญญัติการผังเมือง",
        "พ.ศ. ๒๕๑๘"
      ]
    ],
    []
  ],
  "metadata": {
    "date_backmatter": "2530-02-04",
    "date_modified": "2530-04-03",
    "date_original": "2530-04-03",
    "editors": [
      {
        "name": "สุกัญญา",
        "role": "แก้ไข",
        "date": "2551-09-01"
      }
    ],
    "tag": "a126-2b-2530-027"
  }
}