{
  "pages": [
    [
      [
        "กฎกระทรวง",
        "ฉบับที่ ๓๓ (พ.ศ. ๒๕๓๐)",
        "ออกตามความในพระราชบัญญัติการผังเมือง",
        "พ.ศ. ๒๕๑๘"
      ]
    ],
    []
  ],
  "metadata": {
    "date_backmatter": "2530-06-23",
    "date_modified": "2530-08-28",
    "date_original": "2530-08-28",
    "doctype": "กฎกระทรวง",
    "editors": [
      {
        "name": "สุกัญญา",
        "role": "แก้ไข",
        "date": "2551-11-20"
      },
      {
        "name": "รัศม์วรรณวลัย",
        "role": "ตรวจ",
        "date": "2551-12-08"
      }
    ],
    "tag": "a126-2b-2530-a0006"
  }
}