{
  "pages": [
    [
      [
        "กฎกระทรวง",
        "ฉบับที่ ๓๓๙ (พ.ศ. ๒๕๔๐)",
        "ออกตามความในพระราชบัญญัติการผังเมือง พ.ศ. ๒๕๑๘"
      ]
    ],
    []
  ],
  "metadata": {
    "date_backmatter": "2540-06-26",
    "date_modified": null,
    "date_original": "2540-07-03",
    "doctype": "กฎกระทรวง",
    "editors": [],
    "tag": "a126-2b-2540-a027"
  }
}