{
  "pages": [
    [
      [
        "กฎกระทรวง",
        "ให้ใช้บังคับผังเมืองรวมจังหวัดระยอง (ฉบับที่ ๒)",
        "พ.ศ. ๒๕๖๑"
      ]
    ],
    []
  ],
  "metadata": {
    "date_backmatter": "2561-08-07",
    "date_modified": "2561-08-16",
    "date_original": "2561-08-16",
    "doctype": "กฎกระทรวง",
    "editors": [
      {
        "name": "พัชรภรณ์",
        "role": "จัดทำ",
        "date": "2561-12-06"
      }
    ],
    "tag": "a126-2b-2561-a0016"
  }
}