{
  "pages": [
    [
      [
        "ประกาศกรมโยธาธิการและผังเมือง",
        "เรื่อง กำหนดหลักเกณฑ์การใช้ประโยชน์ในทรัพย์สินเพื่อประโยชน์ในการวาง",
        "และจัดทำผังเมืองรวมในท้องที่จังหวัดปทุมธานี",
        "พ.ศ. ๒๕๕๒"
      ]
    ],
    []
  ],
  "metadata": {
    "date_backmatter": "2552-08-30",
    "date_modified": "2552-08-30",
    "date_original": "2552-08-30",
    "doctype": "ประกาศ",
    "editors": [
      {
        "name": "ปริยานุช",
        "role": "ผู้จัดทำ",
        "date": "2552-09-07"
      }
    ],
    "tag": "a126-2e-2552-a0026"
  }
}