{
  "pages": [
    [
      [
        "กฎกระทรวง",
        "ให้ใช้บังคับผังเมืองรวมจังหวัดพิษณุโลก",
        "พ.ศ. ๒๕๕๕"
      ]
    ],
    []
  ],
  "metadata": {
    "date_backmatter": "2555-10-10",
    "date_modified": "2558-04-29",
    "date_original": "2556-06-25",
    "doctype": "กฎกระทรวง",
    "editors": [
      {
        "name": "วันทิตา",
        "role": "ปรับปรุง",
        "date": "2558-06-17"
      },
      {
        "name": "นุสรา",
        "role": "ผู้ตรวจ",
        "date": "2558-07-01"
      }
    ],
    "tag": "a126-2b-9940-update"
  }
}