{
  "pages": [
    [
      [
        "กฎกระทรวง",
        "ให้ใช้บังคับผังเมืองรวมจังหวัดระยอง",
        "พ.ศ. ๒๕๖๐"
      ]
    ],
    []
  ],
  "metadata": {
    "date_backmatter": "2555-11-09",
    "date_modified": "2560-01-19",
    "date_original": "2560-01-19",
    "doctype": "กฎกระทรวง",
    "editors": [
      {
        "name": "ปุณิกา/ปริยานุช",
        "role": "จัดทำ",
        "date": "2560-01-20"
      },
      {
        "name": "นุสรา",
        "role": "ตรวจ",
        "date": "2560-02-08"
      }
    ],
    "tag": "a126-2b-2560-a0008"
  }
}