{
  "pages": [
    [
      [
        "กฎกระทรวง",
        "ฉบับที่ ๒๕๗ (พ.ศ. ๒๕๓๙)",
        "ออกตามความในพระราชบัญญัติการผังเมือง",
        "พ.ศ. ๒๕๑๘"
      ]
    ],
    []
  ],
  "metadata": {
    "date_backmatter": "2539-04-26",
    "date_modified": "2539-04-26",
    "date_original": "2539-04-26",
    "doctype": "กฎกระทรวง",
    "editors": [
      {
        "name": "ฐาปนี",
        "role": "แก้ไข",
        "date": "2545-08-13"
      },
      {
        "name": "สุกัญญา",
        "role": "แก้ไข",
        "date": "2551-09-03"
      },
      {
        "name": "วิภา",
        "role": "ปรับปรุง",
        "date": "2558-10-12"
      }
    ],
    "tag": "a126-2b-2539-a040"
  }
}