{
  "pages": [
    [
      [
        "ประกาศกรมโยธาธิการและผังเมือง",
        "เรื่อง กำหนดหลักเกณฑ์การใช้ประโยชน์ในทรัพย์สินเพื่อประโยชน์ในการวาง",
        "และจัดทำผังเมืองรวมในท้องที่จังหวัดเชียงใหม่"
      ]
    ],
    []
  ],
  "metadata": {
    "date_backmatter": "2546-09-08",
    "date_modified": "2546-09-10",
    "date_original": "2546-09-10",
    "doctype": "ประกาศ",
    "editors": [
      {
        "name": "สุภาพร",
        "role": "จัดทำ",
        "date": "2546-12-09"
      },
      {
        "name": "สุนันทา/อรดา",
        "role": "ตรวจ",
        "date": "2546-12-11"
      },
      {
        "name": "พรพิมล",
        "role": "ปรับปรุง",
        "date": "2546-12-12"
      },
      {
        "name": "สุเมธ",
        "role": "ปรับปรุง"
      }
    ],
    "tag": "a126-2e-2546-a0004"
  }
}