{
  "pages": [
    [
      [
        "กฎกระทรวง",
        "ฉบับที่ ๑๒๒ (พ.ศ. ๒๕๓๕)",
        "ออกตามความในพระราชบัญญัติการผังเมือง",
        "พ.ศ. ๒๕๑๘"
      ]
    ],
    []
  ],
  "metadata": {
    "date_backmatter": "2535-08-16",
    "date_modified": "2535-08-17",
    "date_original": "2535-08-17",
    "doctype": "กฎกระทรวง",
    "editors": [
      {
        "name": "ศิริยา",
        "role": "พิมพ์",
        "date": "2550-05-17"
      }
    ],
    "tag": "a126-2b-2535-a006"
  }
}