{
  "pages": [
    [
      [
        "กฎกระทรวง",
        "ให้ใช้บังคับผังเมืองรวมจังหวัดปราจีนบุรี",
        "พ.ศ. ๒๕๕๕"
      ]
    ],
    []
  ],
  "metadata": {
    "date_backmatter": "2555-07-02",
    "date_modified": "2558-09-23",
    "date_original": "2555-11-02",
    "doctype": "กฎกระทรวง",
    "editors": [
      {
        "name": "ปริยานุช",
        "role": "ผู้จัดทำ",
        "date": "2555-11-05"
      },
      {
        "name": "ปณตภร",
        "role": "ผู้ตรวจ",
        "date": "2555-11-09"
      },
      {
        "name": "วริญา",
        "role": "เพิ่มเติม",
        "date": "2558-09-29"
      },
      {
        "name": "นุสรา",
        "role": "ตรวจ",
        "date": "2558-01-20"
      }
    ],
    "tag": "a126-2b-9938-update"
  }
}