{
  "pages": [
    [
      [
        "กฎกระทรวง",
        "ให้ใช้บังคับผังเมืองรวมชุมชนจุฬาภรณ์ จังหวัดนครศรีธรรมราช",
        "พ.ศ. ๒๕๕๕"
      ]
    ],
    []
  ],
  "metadata": {
    "date_backmatter": "2555-08-28",
    "date_modified": "2555-12-06",
    "date_original": "2555-12-06",
    "doctype": "กฎกระทรวง",
    "editors": [
      {
        "name": "ปริยานุช",
        "role": "ผู้จัดทำ",
        "date": "2555-12-11"
      },
      {
        "name": "ชาญ",
        "role": "ผู้ตรวจ",
        "date": "2555-12-14"
      }
    ],
    "tag": "a126-2b-2555-a0047"
  }
}