{
  "pages": [
    [
      [
        "กฎกระทรวง",
        "ฉบับที่ ๔๓ (พ ศ. ๒๕๓๑)",
        "ออกตามความในพระราชบัญญัติการผังเมือง",
        "พ.ศ. ๒๕๑๘"
      ]
    ],
    []
  ],
  "metadata": {
    "date_backmatter": "2530-11-09",
    "date_modified": "2531-04-22",
    "date_original": "2531-04-22",
    "doctype": "กฎกระทรวง",
    "editors": [
      {
        "name": "ศิริยา",
        "role": "พิมพ์",
        "date": "2550-05-28"
      }
    ],
    "tag": "a126-2b-2531-a002"
  }
}