{
  "pages": [
    [
      [
        "กฎกระทรวง",
        "ขยายระยะเวลาการใช้บังคับผังเมืองรวมชุมชนตะพง จังหวัดระยอง",
        "พ.ศ. ๒๕๔๕"
      ]
    ],
    []
  ],
  "metadata": {
    "date_backmatter": "2545-06-05",
    "date_modified": "2545-06-17",
    "date_original": "2545-06-17",
    "doctype": "กฎกระทรวง",
    "editors": [
      {
        "name": "พรพิมล/พิมพ์",
        "role": "แก้ไข",
        "date": "2545-07-30"
      },
      {
        "name": "สุกัญญา",
        "role": "แก้ไข",
        "date": "2551-08-25"
      }
    ],
    "tag": "a126-2b-2545-a0001"
  }
}