{
  "pages": [
    [
      [
        "พระราชบัญญัติ",
        "สงวนและคุ้มครองสัตว์ป่า (ฉบับที่ ๓)",
        "พ.ศ. ๒๕๕๗",
        "",
        "",
        "ภูมิพลอดุลยเดช ป.ร.",
        "ให้ไว้ ณ วันที่ ๒๙ ธันวาคม พ.ศ. ๒๕๕๗",
        "เป็นปีที่ ๖๙ ในรัชกาลปัจจุบัน"
      ]
    ],
    []
  ],
  "metadata": {
    "date_header": "2557-12-29",
    "date_modified": "2557-12-30",
    "date_original": "2557-12-30",
    "doctype": "พระราชบัญญัติ",
    "editors": [
      {
        "name": "ปริยานุช",
        "role": "ผู้จัดทำ",
        "date": "2558-01-05"
      }
    ],
    "tag": "ca04-20-2557-a0001",
    "title": "สงวนและคุ้มครองสัตว์ป่า (ฉบับที่ ๓)"
  }
}