{
  "pages": [
    [
      [
        "กฎกระทรวง",
        "กำหนดชนิดของสัตว์ป่าคุ้มครองให้เป็นสัตว์ป่าชนิดที่เพาะพันธุ์ได้",
        "พ.ศ. ๒๕๔๖"
      ]
    ],
    []
  ],
  "metadata": {
    "date_backmatter": "2546-06-16",
    "date_modified": "2556-04-26",
    "date_original": "2546-06-27",
    "doctype": "กฎกระทรวง",
    "editors": [
      {
        "name": "ศิรวัชร์",
        "role": "จัดทำ",
        "date": "2561-02-08"
      }
    ],
    "tag": "ca04-2b-9998-update"
  }
}