{
  "pages": [
    [
      [
        "กฎกระทรวง",
        "ฉบับที่ ๘ (พ.ศ. ๒๕๓๘)",
        "ออกตามความในพระราชบัญญัติสงวนและคุ้มครองสัตว์ป่า",
        "พ.ศ. ๒๕๓๕"
      ]
    ],
    []
  ],
  "metadata": {
    "date_backmatter": "2538-03-30",
    "date_modified": "2538-04-28",
    "date_original": "2538-04-28",
    "doctype": "กฎกระทรวง",
    "editors": [
      {
        "name": "ศิรวัชร์",
        "role": "ปรับปรุง",
        "date": "2561-02-12"
      }
    ],
    "tag": "ca04-2b-2538-008"
  }
}