{
  "pages": [
    [
      [
        "พระราชบัญญัติ",
        "สงวนและคุ้มครองสัตว์ป่า (ฉบับที่ ๒)",
        "พ.ศ. ๒๕๔๖",
        "",
        "",
        "ภูมิพลอดุลยเดช ป.ร.",
        "ให้ไว้ ณ วันที่ ๒๒ เมษายน พ.ศ. ๒๕๔๖",
        "เป็นปีที่ ๕๘ ในรัชกาลปัจจุบัน"
      ]
    ],
    []
  ],
  "metadata": {
    "date_header": "2546-04-22",
    "date_modified": "2546-05-12",
    "date_original": "2546-05-12",
    "doctype": "พระราชบัญญัติ",
    "editors": [
      {
        "name": "มณฑาทิพย์",
        "role": "พิมพ์",
        "date": "2546-05-21"
      },
      {
        "name": "ทรงยศ",
        "role": "สราวุฒิ จัดทำ",
        "date": "2546-07-30"
      },
      {
        "name": "ศิรวัชร์",
        "role": "ปรับปรุง",
        "date": "2561-01-17"
      }
    ],
    "tag": "ca04-20-2546-a0001",
    "title": "สงวนและคุ้มครองสัตว์ป่า (ฉบับที่ ๒)"
  }
}