{
  "pages": [
    [
      [
        "ประกาศกระทรวงทรัพยากรธรรมชาติและสิ่งแวดล้อม",
        "เรื่อง กำหนดพื้นที่ที่ดินสาธารณประโยชน์บึงละหาน",
        "ในท้องที่ตำบลหนองบัวบาน ตำบลบ้านกอก ตำบลละหาน",
        "และตำบลหนองบัวใหญ่ อำเภอจัตุรัส จังหวัดชัยภูมิ",
        "ให้เป็นเขตห้ามล่าสัตว์ป่า",
        "ตามพระราชบัญญัติสงวนและคุ้มครองสัตว์ป่า พ.ศ. ๒๕๓๕"
      ]
    ],
    []
  ],
  "metadata": {
    "date_backmatter": "2560-11-23",
    "date_modified": "2561-01-24",
    "date_original": "2561-01-24",
    "doctype": "ประกาศ",
    "editors": [
      {
        "name": "พรวิภา",
        "role": "จัดทำ",
        "date": "2561-01-23"
      }
    ],
    "tag": "ca04-2e-2561-a0001"
  }
}