{
  "pages": [
    [
      [
        "ประกาศกระทรวงทรัพยากรธรรมชาติและสิ่งแวดล้อม",
        "เรื่อง กำหนดพื้นที่ป่าสงวนแห่งชาติป่าลุ่มน้ำวังทองฝั่งซ้าย",
        "ในท้องที่ตำบลท่าหมื่นราม ตำบลพันชาลี อำเภอวังทอง",
        "และตำบลชมพู อำเภอเนินมะปราง จังหวัดพิษณุโลก",
        "ให้เป็นเขตห้ามล่าสัตว์ป่า",
        "ตามพระราชบัญญัติสงวนและคุ้มครองสัตว์ป่า พ.ศ. ๒๕๓๕"
      ]
    ],
    []
  ],
  "metadata": {
    "date_backmatter": "2559-11-22",
    "date_modified": "2560-01-05",
    "date_original": "2560-01-05",
    "doctype": "ประกาศ",
    "editors": [
      {
        "name": "ปริยานุช",
        "role": "จัดทำ",
        "date": "2560-01-10"
      },
      {
        "name": "ชวัลพร",
        "role": "ตรวจ",
        "date": "2560-02-27"
      }
    ],
    "tag": "ca04-2e-2560-a0002"
  }
}