{
  "pages": [
    [
      [
        "ประกาศกระทรวงทรัพยากรธรรมชาติและสิ่งแวดล้อม",
        "เรื่อง กำหนดพื้นที่ป่าสงวนแห่งชาติป่าดอนทราย และป่ากลอง ป่าสงวนแห่งชาติป่าบ้านกุมแป",
        "ป่าบ้านในลุ่ม และป่าพรุควนเคร็ง ป่าสงวนแห่งชาติป่าคลองค็อง และป่าสงวนแห่งชาติป่าท่าช้างข้ามในท้องที่ตำบลควนพัง อำเภอร่อนพิบูลย์ ตำบลทางพูน ตำบลสวนหลวง อำเภอเฉลิมพระเกียรติ",
        "ตำบลบ้านตูล ตำบลชะอวด อำเภอชะอวด และตำบลแม่เจ้าอยู่หัว ตำบลการะเกด อำเภอเชียรใหญ่จังหวัดนครศรีธรรมราช ให้เป็นเขตห้ามล่าสัตว์ป่า ตามพระราชบัญญัติสงวนและคุ้มครองสัตว์ป่า",
        "พ.ศ. ๒๕๓๕"
      ]
    ],
    []
  ],
  "metadata": {
    "date_backmatter": "2555-11-05",
    "date_modified": "2555-12-04",
    "date_original": "2555-12-04",
    "doctype": "ประกาศ",
    "editors": [
      {
        "name": "ปริยานุช",
        "role": "ผู้จัดทำ",
        "date": "2555-12-06"
      },
      {
        "name": "ชาญ",
        "role": "ผู้ตรวจ",
        "date": "2555-12-17"
      }
    ],
    "tag": "ca04-2e-2555-a0003"
  }
}