{
  "pages": [
    [
      [
        "พระราชกฤษฎีกา",
        "กำหนดบริเวณที่ดินป่าสลักพระในท้องที่",
        "ตำบลท่ากระดาน อำเภอศรีสวัสดิ์ ตำบลหนองรี",
        "ตำบลบ่อพลอย อำเภอบ่อพลอย และตำบลช่องสะเดา",
        "ตำบลวังด้ง อำเภอเมืองกาญจนบุรี จังหวัดกาญจนบุรี",
        "ให้เป็นเขตรักษาพันธุ์สัตว์ป่า พ.ศ. ๒๕๐๘",
        "",
        "",
        "ภูมิพลอดุลยเดช ป.ร.",
        "ให้ไว้ ณ วันที่ ๑๔ ธันวาคม พ.ศ. ๒๕๐๘",
        "เป็นปีที่ ๒๐ ในรัชกาลปัจจุบัน"
      ]
    ],
    []
  ],
  "metadata": {
    "date_header": "2508-12-14",
    "date_modified": "2508-12-31",
    "date_original": "2508-12-31",
    "doctype": "พระราชกฤษฎีกา",
    "editors": [
      {
        "name": "ศิรวัชร์",
        "role": "จัดทำ",
        "date": "2561-02-07"
      }
    ],
    "tag": "ca04-2a-2508-a0001",
    "title": "กำหนดบริเวณที่ดินป่าสลักพระในท้องที่ตำบลท่ากระดาน อำเภอศรีสวัสดิ์ ตำบลหนองรีตำบลบ่อพลอย อำเภอบ่อพลอย และตำบลช่องสะเดาตำบลวังด้ง อำเภอเมืองกาญจนบุรี จังหวัดกาญจนบุรีให้เป็นเขตรักษาพันธุ์สัตว์ป่า"
  }
}