{
  "pages": [
    [
      [
        "พระราชกฤษฎีกา",
        "กำหนดบริเวณที่ดินป่าคลองแสง ในท้องที่ตำบลตะกุกเหนือ",
        "อำเภอคีรีรัฐนิคม และตำบลเขาพัง ตำบลไกรสร",
        "กิ่งอำเภอบ้านตาขุน อำเภอคีรีรัฐนิคม",
        "จังหวัดสุราษฎร์ธานี ให้เป็นเขตรักษาพันธุ์สัตว์ป่า",
        "พ.ศ. ๒๕๑๗",
        "",
        "",
        "ภูมิพลอดุลยเดช ป.ร.",
        "ให้ไว้ ณ วันที่ ๑๖ ธันวาคม พ.ศ. ๒๕๑๗",
        "เป็นปีที่ ๒๙ ในรัชกาลปัจจุบัน"
      ]
    ],
    []
  ],
  "metadata": {
    "date_header": "2517-12-16",
    "date_modified": "2517-12-18",
    "date_original": "2517-12-18",
    "doctype": "พระราชกฤษฎีกา",
    "editors": [
      {
        "name": "ศิรวัชร์",
        "role": "จัดทำ",
        "date": "2561-02-06"
      }
    ],
    "tag": "ca04-2a-2517-a002",
    "title": "กำหนดบริเวณที่ดินป่าคลองแสง ในท้องที่ตำบลตะกุกเหนืออำเภอคีรีรัฐนิคม และตำบลเขาพัง ตำบลไกรสรกิ่งอำเภอบ้านตาขุน อำเภอคีรีรัฐนิคมจังหวัดสุราษฎร์ธานี ให้เป็นเขตรักษาพันธุ์สัตว์ป่า"
  }
}