{
  "pages": [
    [
      [
        "พระราชกฤษฎีกา",
        "กำหนดบริเวณที่ดินป่าทุ่งมน ป่าบักได ป่าตาเบา",
        "ป่าฝั่งซ้ายห้วยทับทัน และป่าห้วยสำราญ ในท้องที่ตำบลกาบเชิง",
        "ตำบลโคกตะเคียน ตำบลตะเคียน ตำบลด่าน ตำบลแนงมุด ตำบลบักได",
        "ตำบลตาเมียง อำเภอกาบเชิง ตำบลตาตุม ตำบลเทพรักษา",
        "อำเภอสังขะ และตำบลอาโพน ตำบลจรัส",
        "อำเภอบัวเชด จังหวัดสุรินทร์",
        "ให้เป็นเขตรักษาพันธุ์สัตว์ป่า",
        "พ.ศ. 2538",
        "----------------",
        "",
        "ภูมิพลอดุลยเดช ป.ร.",
        "ให้ไว้ ณ วันที่ 22 ธันวาคม พ.ศ. 2538",
        "เป็นปีที่ 50 ในรัชกาลปัจจุบัน"
      ]
    ],
    []
  ],
  "metadata": {
    "date_header": "2538-12-22",
    "editors": [],
    "tag": "ca04-2a-2542-a0001"
  }
}