{
  "pages": [
    [
      [
        "ประกาศของคณะปฏิวัติ",
        "ฉบับที่ ๖๔"
      ]
    ],
    []
  ],
  "metadata": {
    "date_backmatter": "2515-02-02",
    "date_modified": "2515-02-03",
    "date_original": "2515-02-03",
    "doctype": "ประกาศ",
    "editors": [
      {
        "name": "ศิรวัชร์",
        "role": "จัดทำ",
        "date": "2561-02-16"
      }
    ],
    "tag": "ca04-2l-2515-a0001"
  }
}