{
  "pages": [
    [
      [
        "ข้อบัญญัติองค์การบริหารส่วนตำบลหนองแก้ว",
        "เรื่อง การอนุรักษ์พันธุ์สัตว์ป่าและป่าไม้ในเขตสาธารณประโยชน์ตำบลหนองแก้ว",
        "พ.ศ. ๒๕๕๐"
      ]
    ],
    []
  ],
  "metadata": {
    "date_backmatter": "2550-10-11",
    "date_modified": "2551-02-05",
    "date_original": "2551-02-05",
    "editors": [
      {
        "name": "ปริยานุช",
        "role": "จัดทำ",
        "date": "2551-02-13"
      },
      {
        "name": "ศิรวัชร์",
        "role": "ปรับปรุง",
        "date": "2561-02-16"
      }
    ],
    "tag": "ca04-2j-2551-a0001"
  }
}