{
  "pages": [
    [
      [
        "ประกาศคณะกรรมการมาตรฐานสินค้าเกษตร",
        "และอาหารแห่งชาติ",
        "เรื่อง กำหนดมาตรฐานสินค้าเกษตรและอาหารแห่งชาติ : ปูม้า",
        "พ.ศ. ๒๕๔๘"
      ]
    ],
    []
  ],
  "metadata": {
    "date_backmatter": "2548-09-29",
    "date_modified": "2549-01-25",
    "date_original": "2549-01-25",
    "doctype": "ประกาศ",
    "editors": [
      {
        "name": "นันทนา",
        "role": "ผู้จัดทำ",
        "date": "2549-01-26"
      }
    ],
    "tag": "c141-2e-2549-a0005"
  }
}