{
  "pages": [
    [
      [
        "ประกาศกระทรวงเกษตรและสหกรณ์",
        "เรื่อง กำหนดมาตรฐานสินค้าเกษตร :",
        "การปฏิบัติทางการเกษตรที่ดีสำหรับใบชาสด",
        "ตามพระราชบัญญัติมาตรฐานสินค้าเกษตร พ.ศ. ๒๕๕๑"
      ]
    ],
    []
  ],
  "metadata": {
    "date_backmatter": "2556-09-03",
    "date_modified": "2556-11-29",
    "date_original": "2556-11-29",
    "doctype": "ประกาศ",
    "editors": [
      {
        "name": "ปริยานุช",
        "role": "ผู้จัดทำ",
        "date": "2556-12-03"
      },
      {
        "name": "อังศุมาลี",
        "role": "ผู้ตรวจ",
        "date": "2556-12-03"
      }
    ],
    "tag": "c141-2e-2556-a0020"
  }
}