{
  "pages": [
    [
      [
        "ประกาศสำนักงานมาตรฐานสินค้าเกษตรและอาหารแห่งชาติ",
        "เรื่อง กำหนดแบบบันทึกการจำหน่าย แบบใบยืนยันการรม และ แบบบันทึกการรับซื้อ",
        "ผลไม้สดรมด้วยก๊าซซัลเฟอร์ไดออกไซด์"
      ]
    ],
    []
  ],
  "metadata": {
    "date_backmatter": "2559-07-28",
    "date_modified": "2559-12-15",
    "date_original": "2559-12-15",
    "doctype": "ประกาศ",
    "editors": [
      {
        "name": "ปุณิกา/ปริยานุช",
        "role": "จัดทำ",
        "date": "2559-12-19"
      },
      {
        "name": "นุสรา",
        "role": "ตรวจ",
        "date": "2560-01-24"
      }
    ],
    "tag": "c141-2e-2559-a0027"
  }
}