{
  "pages": [
    [
      [
        "ประกาศกระทรวงเกษตรและสหกรณ์",
        "เรื่อง กำหนดมาตรฐานสินค้าเกษตร :",
        "หลักการชักตัวอย่างสินค้าส่งมอบเพื่อการตรวจสอบด้านสุขอนามัยพืช",
        "ตามพระราชบัญญัติมาตรฐานสินค้าเกษตร",
        "พ.ศ. ๒๕๕๑"
      ]
    ],
    []
  ],
  "metadata": {
    "date_backmatter": "2555-07-06",
    "date_modified": "2555-09-19",
    "date_original": "2555-09-19",
    "doctype": "ประกาศ",
    "editors": [
      {
        "name": "ปริยานุช",
        "role": "ผู้จัดทำ",
        "date": "2555-09-24"
      },
      {
        "name": "ปณตภร",
        "role": "ผู้ตรวจ",
        "date": "2555-10-02"
      }
    ],
    "tag": "c141-2e-2555-a0019"
  }
}