{
  "pages": [
    [
      [
        "ประกาศคณะกรรมการมาตรฐานสินค้าเกษตร",
        "เรื่อง กำหนดหลักเกณฑ์และวิธีการรับฟังความคิดเห็นก่อนออกกฎกระทรวงกำหนดให้",
        "สินค้าเกษตรเป็นมาตรฐานบังคับ"
      ]
    ],
    []
  ],
  "metadata": {
    "date_backmatter": "2556-08-26",
    "date_modified": "2556-10-31",
    "date_original": "2556-10-31",
    "doctype": "ประกาศ",
    "editors": [
      {
        "name": "ปริยานุช",
        "role": "ผู้จัดทำ",
        "date": "2556-11-04"
      },
      {
        "name": "อุษมล",
        "role": "ผู้ตรวจ",
        "date": "2556-11-06"
      }
    ],
    "tag": "c141-2e-2556-a0017"
  }
}