{
  "pages": [
    [
      [
        "ประกาศสำนักงานมาตรฐานสินค้าเกษตรและอาหารแห่งชาติ",
        "เรื่อง กำหนดสถานที่ยื่นคำขอรับใบอนุญาตเป็นผู้ผลิต ผู้ส่งออก หรือผู้นำเข้าสินค้าเกษตร",
        "และสถานที่แจ้งการส่งออก หรือนำเข้าสินค้าเกษตรตามมาตรฐานบังคับ"
      ]
    ],
    []
  ],
  "metadata": {
    "date_backmatter": "2557-04-01",
    "date_modified": "2559-02-17",
    "date_original": "2557-05-16",
    "doctype": "ประกาศ",
    "editors": [
      {
        "name": "ปริยานุช",
        "role": "ผู้จัดทำ",
        "date": "2557-05-26"
      },
      {
        "name": "จุฑามาศ",
        "role": "ผู้ตรวจ",
        "date": "2557-06-03"
      },
      {
        "name": "กัญฑรัตน์",
        "role": "เพิ่มเติม",
        "date": "2559-02-29"
      }
    ],
    "tag": "c141-2e-9996-update"
  }
}