{
  "pages": [
    [
      [
        "ประกาศกระทรวงเกษตรและสหกรณ์",
        "เรื่อง กำหนดมาตรฐานสินค้าเกษตร : แนวปฏิบัติในการใช้มาตรฐานสินค้าเกษตร",
        "การปฏิบัติทางการเกษตรที่ดีสำหรับฟาร์มสุกร",
        "ตามพระราชบัญญัติมาตรฐานสินค้าเกษตร พ.ศ. ๒๕๕๑"
      ]
    ],
    []
  ],
  "metadata": {
    "date_backmatter": "2558-09-21",
    "date_modified": "2558-11-19",
    "date_original": "2558-11-19",
    "doctype": "ประกาศ",
    "editors": [
      {
        "name": "ปริยานุช",
        "role": "จัดทำ",
        "date": "2558-11-24"
      },
      {
        "name": "วิศนี",
        "role": "ตรวจ",
        "date": "2558-12-21"
      }
    ],
    "tag": "c141-2e-2558-a0066"
  }
}