{
  "pages": [
    [
      [
        "ประกาศกระทรวงเกษตรและสหกรณ์",
        "เรื่อง กำหนดมาตรฐานสินค้าเกษตร : การชันสูตรโรคหัวเหลืองในกุ้ง",
        "ตามพระราชบัญญัติมาตรฐานสินค้าเกษตร พ.ศ. ๒๕๕๑"
      ]
    ],
    []
  ],
  "metadata": {
    "date_backmatter": "2552-09-30",
    "date_modified": "2552-12-28",
    "date_original": "2552-12-28",
    "doctype": "ประกาศ",
    "editors": [
      {
        "name": "ปริยานุช",
        "role": "ผู้จัดทำ",
        "date": "2553-01-05"
      },
      {
        "name": "นันท์นภัสร์",
        "role": "ตรวจ",
        "date": "2553-01-05"
      }
    ],
    "tag": "c141-2e-2552-a0031"
  }
}