{
  "pages": [
    [
      [
        "ประกาศคณะกรรมการมาตรฐานสินค้าเกษตรและอาหารแห่งชาติ",
        "เรื่อง กำหนดมาตรฐานสินค้าเกษตรและอาหารแห่งชาติ :",
        "การชันสูตรโรคอเมริกันฟาวล์บรูดในผึ้ง",
        "พ.ศ. ๒๕๕๐"
      ]
    ],
    []
  ],
  "metadata": {
    "date_backmatter": "2550-09-26",
    "date_modified": "2551-01-04",
    "date_original": "2551-01-04",
    "doctype": "ประกาศ",
    "editors": [
      {
        "name": "ปริยานุช",
        "role": "ผู้จัดทำ",
        "date": "2551-01-22"
      }
    ],
    "tag": "c141-2e-2551-a0014"
  }
}