{
  "pages": [
    [
      [
        "ประกาศกระทรวงเกษตรและสหกรณ์",
        "เรื่อง กำหนดมาตรฐานสินค้าเกษตร : แนวปฏิบัติในการใช้มาตรฐานสินค้าเกษตร",
        "การปฏิบัติที่ดีสำหรับศูนย์รวบรวมน้ำนมดิบ",
        "ตามพระราชบัญญัติมาตรฐานสินค้าเกษตร พ.ศ. ๒๕๕๑"
      ]
    ],
    []
  ],
  "metadata": {
    "date_backmatter": "2560-05-17",
    "date_modified": "2560-06-27",
    "date_original": "2560-06-27",
    "doctype": "ประกาศ",
    "editors": [
      {
        "name": "ปุณิกา/อัญชลี",
        "role": "จัดทำ",
        "date": "2560-06-28"
      },
      {
        "name": "นุสรา",
        "role": "ตรวจ",
        "date": "2560-09-25"
      }
    ],
    "tag": "c141-2e-2560-a0020"
  }
}