{
  "pages": [
    [
      [
        "ประกาศกระทรวงเกษตรและสหกรณ์",
        "เรื่อง กำหนดมาตรฐานสินค้าเกษตร :",
        "การปฏิบัติทางการเพาะเลี้ยงสัตว์น้ำที่ดีสำหรับฟาร์มเลี้ยงปลาทะเล",
        "ตามพระราชบัญญัติมาตรฐานสินค้าเกษตร พ.ศ. ๒๕๕๑"
      ]
    ],
    []
  ],
  "metadata": {
    "date_backmatter": "2559-10-20",
    "date_modified": "2560-02-02",
    "date_original": "2560-02-02",
    "doctype": "ประกาศ",
    "editors": [
      {
        "name": "ปริยานุช",
        "role": "จัดทำ",
        "date": "2560-02-06"
      },
      {
        "name": "ปุณิกา",
        "role": "ตรวจ",
        "date": "2560-02-06"
      }
    ],
    "tag": "c141-2e-2560-a0003"
  }
}