{
  "pages": [
    [
      [
        "ประกาศคณะกรรมการมาตรฐานสินค้าเกษตรและอาหารแห่งชาติ",
        "เรื่อง กำหนดมาตรฐานสินค้าเกษตรและอาหารแห่งชาติ : กุ้งแห้ง",
        "พ.ศ. ๒๕๕๑"
      ]
    ],
    []
  ],
  "metadata": {
    "date_backmatter": "2551-08-14",
    "date_modified": "2551-08-18",
    "date_original": "2551-08-18",
    "doctype": "ประกาศ",
    "editors": [
      {
        "name": "ปริยานุช",
        "role": "ผู้จัดทำ",
        "date": "2551-08-21"
      }
    ],
    "tag": "c141-2e-2551-a0026"
  }
}