{
  "pages": [
    [
      [
        "ประกาศสำนักงานมาตรฐานสินค้าเกษตรและอาหารแห่งชาติ",
        "เรื่อง กำหนดหลักเกณฑ์การใช้ชื่อย่อของมาตรฐานสินค้าเกษตร"
      ]
    ],
    []
  ],
  "metadata": {
    "date_backmatter": "2553-09-30",
    "date_modified": "2553-11-15",
    "date_original": "2553-11-15",
    "doctype": "ประกาศ",
    "editors": [
      {
        "name": "ปริยานุช",
        "role": "ผู้จัดทำ",
        "date": "2553-11-19"
      },
      {
        "name": "ณัฐวดี",
        "role": "ตรวจ",
        "date": "2553-11-19"
      }
    ],
    "tag": "c141-2e-2553-a0023"
  }
}