{
  "pages": [
    [
      [
        "ประกาศคณะกรรมการมาตรฐานสินค้าเกษตร",
        "และอาหารแห่งชาติ",
        "เรื่อง กำหนดมาตรฐานสินค้าเกษตรและอาหารแห่งชาติ:",
        "เกษตรอินทรีย์ เล่ม ๑",
        "พ.ศ. ๒๕๔๖"
      ]
    ],
    []
  ],
  "metadata": {
    "date_backmatter": "2546-05-21",
    "date_modified": "2546-07-23",
    "date_original": "2546-07-23",
    "doctype": "ประกาศ",
    "editors": [
      {
        "name": "ญาณี",
        "role": "พิมพ์",
        "date": "2546-10-24"
      },
      {
        "name": "ต่อศักดิ์/พัลลภ",
        "role": "ตรวจ",
        "date": "2546-10-31"
      }
    ],
    "tag": "c141-2e-2546-a0001"
  }
}