{
  "pages": [
    [
      [
        "ประกาศคณะกรรมการมาตรฐานสินค้าเกษตร",
        "เรื่อง กำหนดหลักเกณฑ์ วิธีการ และเงื่อนไขการสั่งให้ผู้ผลิต ผู้ส่งออก หรือผู้นำเข้าสินค้าเกษตร",
        "แก้ไขหรือปรับปรุง และทำลายหรือส่งกลับคืนสินค้าเกษตรที่ไม่เป็นไปตามมาตรฐาน"
      ]
    ],
    []
  ],
  "metadata": {
    "date_backmatter": "2556-09-22",
    "date_modified": "2556-11-13",
    "date_original": "2556-11-13",
    "doctype": "ประกาศ",
    "editors": [
      {
        "name": "ปริยานุช",
        "role": "ผู้จัดทำ",
        "date": "2556-11-18"
      },
      {
        "name": "โชติกานต์",
        "role": "ผู้ตรวจ",
        "date": "2556-11-26"
      }
    ],
    "tag": "c141-2e-2556-a0019"
  }
}