{
  "pages": [
    [
      [
        "ประกาศกระทรวงเกษตรและสหกรณ์",
        "เรื่อง กำหนดมาตรฐานสินค้าเกษตร : การชันสูตรโรคพีอาร์อาร์เอส",
        "ตามพระราชบัญญัติมาตรฐานสินค้าเกษตร พ.ศ. ๒๕๕๑"
      ]
    ],
    []
  ],
  "metadata": {
    "date_backmatter": "2559-07-26",
    "date_modified": "2559-11-18",
    "date_original": "2559-11-18",
    "doctype": "ประกาศ",
    "editors": [
      {
        "name": "ปริยานุช",
        "role": "จัดทำ",
        "date": "2559-11-22"
      },
      {
        "name": "วิศนี",
        "role": "ตรวจ",
        "date": "2559-11-22"
      }
    ],
    "tag": "c141-2e-2559-a0018"
  }
}