{
  "pages": [
    [
      [
        "ประกาศกระทรวงเกษตรและสหกรณ์",
        "เรื่อง กำหนดมาตรฐานสินค้าเกษตร :",
        "การปฏิบัติทางการเกษตรที่ดีสำหรับพืชสมุนไพร",
        "ตามพระราชบัญญัติมาตรฐานสินค้าเกษตร พ.ศ. ๒๕๕๑"
      ]
    ],
    []
  ],
  "metadata": {
    "date_backmatter": "2561-02-09",
    "date_modified": "2561-04-17",
    "date_original": "2561-04-17",
    "doctype": "ประกาศ",
    "editors": [
      {
        "name": "พรวิภา",
        "role": "จัดทำ",
        "date": "2561-04-20"
      }
    ],
    "tag": "c141-2e-2561-a0044"
  }
}