{
  "pages": [
    [
      [
        "ประกาศคณะกรรมการกำกับหลักทรัพย์และตลาดหลักทรัพย์",
        "ที่ กจ. ๑๙/๒๕๕๑",
        "เรื่อง การกำหนดค่าธรรมเนียมเกี่ยวกับการขออนุญาตเสนอขาย",
        "หลักทรัพย์ที่ออกใหม่ และการขออนุมัติโครงการ",
        "แปลงสินทรัพย์เป็นหลักทรัพย์"
      ]
    ],
    []
  ],
  "metadata": {
    "date_backmatter": "2551-12-15",
    "date_modified": "2551-12-29",
    "date_original": "2551-12-29",
    "doctype": "ประกาศ",
    "editors": [
      {
        "name": "วัชศักดิ์",
        "role": "ผู้จัดทำ",
        "date": "2552-01-08"
      }
    ],
    "tag": "b902-2e-2551-a0001"
  }
}