{
  "pages": [
    [
      [
        "ข้อบังคับการประปาส่วนภูมิภาค",
        "ว่าด้วยการชำระหนี้และค่าเสียหายของบุคคลภายนอก",
        "พ.ศ. ๒๕๓๖"
      ]
    ],
    []
  ],
  "metadata": {
    "date_backmatter": "2536-12-27",
    "date_modified": "2554-07-28",
    "date_original": "2554-07-28",
    "editors": [
      {
        "name": "ปริยานุช",
        "role": "ผู้จัดทำ",
        "date": "2554-08-18"
      },
      {
        "name": "ณัฐวดี",
        "role": "ตรวจ",
        "date": "2554-08-18"
      }
    ],
    "tag": "a153-2i-2554-a0003"
  }
}