{
  "pages": [
    [
      [
        "ข้อบังคับการประปาส่วนภูมิภาค",
        "ว่าด้วยการกำหนดราคาจำหน่ายน้ำประปา (ฉบับที่ ๓)",
        "พ.ศ. ๒๕๓๐"
      ]
    ],
    []
  ],
  "metadata": {
    "date_backmatter": "2530-10-01",
    "date_modified": "2553-01-18",
    "date_original": "2553-01-18",
    "editors": [
      {
        "name": "ปริยานุช",
        "role": "จัดทำ",
        "date": "2553-01-29"
      },
      {
        "name": "นันท์นภัสร์",
        "role": "ตรวจ",
        "date": "2553-01-29"
      },
      {
        "name": "สุเมธ",
        "role": "ปรับปรุง",
        "date": "2558-06-23"
      }
    ],
    "tag": "a153-2i-2553-a0003"
  }
}