{
  "pages": [
    [
      [
        "ระเบียบการประปาส่วนภูมิภาค",
        "ว่าด้วยการกำหนดขั้นตอนและระยะเวลาการปฏิบัติงานเพื่อประชาชน",
        "พ.ศ. ๒๕๔๑"
      ]
    ],
    []
  ],
  "metadata": {
    "date_backmatter": "2541-01-30",
    "date_modified": "2554-07-28",
    "date_original": "2554-07-28",
    "editors": [
      {
        "name": "ปริยานุช",
        "role": "ผู้จัดทำ",
        "date": "2554-08-18"
      },
      {
        "name": "ณัฐวดี",
        "role": "ตรวจ",
        "date": "2554-08-18"
      }
    ],
    "tag": "a153-2g-2554-a0001"
  }
}