{
  "pages": [
    [
      [
        "ประกาศการประปาส่วนภูมิภาค",
        "เรื่อง การออกพันธบัตรการประปาส่วนภูมิภาค",
        "พ.ศ. ๒๕๕๒ ครั้งที่ ๑"
      ]
    ],
    []
  ],
  "metadata": {
    "date_backmatter": "2552-05-22",
    "date_modified": "2552-06-24",
    "date_original": "2552-06-24",
    "doctype": "ประกาศ",
    "editors": [
      {
        "name": "ปริยานุช",
        "role": "ผู้จัดทำ",
        "date": "2552-07-01"
      },
      {
        "name": "สุเมธ",
        "role": "ปรับปรุง",
        "date": "2558-06-22"
      }
    ],
    "tag": "a153-2e-2552-a0001"
  }
}