{
  "pages": [
    [
      [
        "ระเบียบการประปาส่วนภูมิภาค",
        "ว่าด้วยตัวแทนเก็บเงินค่าน้ำประปาและการจ่ายเงินค่าตอบแทน",
        "ให้แก่ตัวแทนเก็บเงินค่าน้ำประปา (ฉบับที่ ๒)",
        "พ.ศ. ๒๕๔๒"
      ]
    ],
    []
  ],
  "metadata": {
    "date_backmatter": "2542-06-05",
    "date_modified": "2553-01-18",
    "date_original": "2553-01-18",
    "editors": [
      {
        "name": "ปริยานุช",
        "role": "ผู้จัดทำ",
        "date": "2553-01-29"
      },
      {
        "name": "นันท์นภัสร์",
        "role": "ตรวจ",
        "date": "2553-01-29"
      },
      {
        "name": "สุเมธ",
        "role": "ปรับปรุง",
        "date": "2558-06-23"
      }
    ],
    "tag": "a153-2g-2553-a0007"
  }
}