{
  "pages": [
    [
      [
        "ประกาศการประปาส่วนภูมิภาค",
        "เรื่อง การออกพันธบัตรการประปาส่วนภูมิภาค",
        "พ.ศ. ๒๕๔๓ ครั้งที่ ๑"
      ]
    ],
    []
  ],
  "metadata": {
    "date_backmatter": "2543-04-28",
    "date_modified": "2543-05-16",
    "date_original": "2543-05-16",
    "doctype": "ประกาศ",
    "editors": [
      {
        "name": "ณัฐดนัย",
        "role": "พิมพ์",
        "date": "2551-01-07"
      },
      {
        "name": "ปฐมพร",
        "role": "จัดทำ",
        "date": "2551-01-11"
      },
      {
        "name": "สุเมธ",
        "role": "ปรับปรุง",
        "date": "2558-06-22"
      }
    ],
    "tag": "a153-2e-2543-a0002"
  }
}