{
  "pages": [
    [
      [
        "พระราชบัญญัติ",
        "มาตรการของฝ่ายบริหารในการป้องกันและปราบปรามการทุจริต",
        "พ.ศ. ๒๕๕๑",
        "",
        "",
        "ภูมิพลอดุลยเดช ป.ร.",
        "ให้ไว้ ณ วันที่ ๒๓ มกราคม พ.ศ. ๒๕๕๑",
        "เป็นปีที่ ๖๓ ในรัชกาลปัจจุบัน"
      ]
    ],
    []
  ],
  "metadata": {
    "date_header": "2551-01-23",
    "date_modified": "2551-01-24",
    "date_original": "2551-01-24",
    "doctype": "พระราชบัญญัติ",
    "editors": [
      {
        "name": "สุกัญญา",
        "role": "ผู้จัดทำ",
        "date": "2553-11-24"
      },
      {
        "name": "พัชรินทร์",
        "role": "ปรับปรุง",
        "date": "2553-12-01"
      }
    ],
    "tag": "c140-20-2551-a0001",
    "title": "มาตรการของฝ่ายบริหารในการป้องกันและปราบปรามการทุจริต"
  }
}