{
  "pages": [
    [
      [
        "ระเบียบคณะกรรมการป้องกันและปราบปรามการทุจริตในภาครัฐ",
        "ว่าด้วยหลักเกณฑ์ วิธีการ และเงื่อนไขในการมอบหมายให้",
        "เลขาธิการไต่สวนข้อเท็จจริงเบื้องต้นแทนคณะกรรมการป้องกันและปราบปรามการทุจริตในภาครัฐ",
        "พ.ศ. ๒๕๕๙"
      ]
    ],
    []
  ],
  "metadata": {
    "date_backmatter": "2559-10-06",
    "date_modified": "2559-10-27",
    "date_original": "2559-10-27",
    "editors": [
      {
        "name": "ปริยานุช",
        "role": "จัดทำ",
        "date": "2559-11-02"
      },
      {
        "name": "ชวัลพร",
        "role": "ตรวจ",
        "date": "2559-11-15"
      }
    ],
    "tag": "c140-2g-2559-a0003"
  }
}