{
  "pages": [
    [
      [
        "กฎกระทรวง",
        "(พ.ศ. ๒๕๑๕)",
        "ออกตามความในประกาศของคณะปฏิวัติ ฉบับที่ ๒๕๓",
        "ลงวันที่ ๑๖ พฤศจิกายน พ.ศ. ๒๕๑๕"
      ]
    ],
    []
  ],
  "metadata": {
    "date_backmatter": "2515-11-16",
    "date_header": "2515-11-16",
    "date_modified": "2515-11-20",
    "date_original": "2515-11-20",
    "doctype": "กฎกระทรวง",
    "editors": [
      {
        "name": "ปณตภร",
        "role": "ตรวจ",
        "date": "2556-12-17"
      }
    ],
    "tag": "bbc724-2b-2515-a0001"
  }
}