{
  "pages": [
    [
      [
        "ระเบียบกระทรวงมหาดไทย",
        "ว่าด้วยเงินช่วยค่าครองชีพผู้รับบำนาญของราชการส่วนท้องถิ่น",
        "(ฉบับที่ ๖) พ.ศ. ๒๕๓๔"
      ]
    ],
    []
  ],
  "metadata": {
    "date_backmatter": "2534-03-12",
    "date_modified": "2548-12-13",
    "date_original": "2548-12-13",
    "editors": [
      {
        "name": "ฐิติพงษ์",
        "role": "พิมพ์",
        "date": "2550-10-24"
      }
    ],
    "tag": "c342-2g-2548-a0008"
  }
}