{
  "pages": [
    [
      [
        "พระราชบัญญัติ",
        "ระเบียบบริหารราชการเมืองพัทยา (ฉบับที่ ๒)",
        "พ.ศ. ๒๕๕๒",
        "",
        "",
        "ภูมิพลอดุลยเดช ป.ร.",
        "ให้ไว้ ณ วันที่ ๓ พฤศจิกายน พ.ศ. ๒๕๕๒",
        "เป็นปีที่ ๖๔ ในรัชกาลปัจจุบัน"
      ]
    ],
    []
  ],
  "metadata": {
    "date_header": "2552-11-03",
    "date_modified": "2552-11-13",
    "date_original": "2552-11-13",
    "doctype": "พระราชบัญญัติ",
    "editors": [
      {
        "name": "ชาตินัย",
        "role": "ผู้จัดทำ",
        "date": "2554-07-21"
      }
    ],
    "tag": "c342-20-2552-a0001",
    "title": "ระเบียบบริหารราชการเมืองพัทยา (ฉบับที่ ๒)"
  }
}