{
  "pages": [
    [
      [
        "พระราชบัญญัติ",
        "ยศทหาร (ฉบับที่ ๓)",
        "พุทธศักราช ๒๔๘๕",
        "",
        "",
        "ในพระปรมาภิไธยสมเด็จพระเจ้าอยู่หัวอานันทมหิดล",
        "คณะผู้สำเร็จราชการแทนพระองค์",
        "(ตามประกาศประธานสภาผู้แทนราษฎร",
        "ลงวันที่ ๔ สิงหาคม พุทธศักราช ๒๔๘๐",
        "และวันที่ ๑๖ ธันวาคม พุทธศักราช ๒๔๘๔)",
        "อาทิตย์ทิพอาภา",
        "ปรีดี พนมยงค์",
        "ตราไว้ ณ วันที่ ๒๗ พฤศจิกายน พุทธศักราช ๒๔๘๕",
        "เป็นปีที่ ๙ ในรัชกาลปัจจุบัน"
      ]
    ],
    []
  ],
  "metadata": {
    "date_header": "2480-08-04",
    "date_modified": "2485-12-08",
    "date_original": "2485-12-08",
    "doctype": "พระราชบัญญัติ",
    "editors": [
      {
        "name": "วศิน",
        "role": "ผู้จัดทำ",
        "date": "2552-01-22"
      },
      {
        "name": "วิมล",
        "role": "ปรับปรุง",
        "date": "2556-11-06"
      },
      {
        "name": "ณัฐพร",
        "role": "ตรวจ",
        "date": "2556-12-13"
      }
    ],
    "tag": "c202-20-2485-003",
    "title": "ยศทหาร (ฉบับที่ ๓)"
  }
}