{
  "pages": [
    [
      [
        "พระราชบัญญัติ",
        "ยศทหาร พุทธศักราช ๒๔๗๙",
        "",
        "",
        "ในพระปรมาภิไธยสมเด็จพระเจ้าอยู่หัวอานันทมหิดล",
        "คณะผู้สำเร็จราชการแทนพระองค์",
        "(ตามประกาศประธานสภาผู้แทนราษฎร",
        "ลงวันที่ ๒๐ สิงหาคม พุทธศักราช ๒๔๗๘)",
        "เจ้าพระยายมราช",
        "พล.อ. เจ้าพระยาพิชเยนทร โยธิน",
        "ตราไว้ ณ วันที่ ๓๑ ตุลาคม พุทธศักราช ๒๔๗๙",
        "เป็นปีที่ ๓ ในรัชกาลปัจจุบัน"
      ]
    ],
    []
  ],
  "metadata": {
    "date_header": "2478-08-20",
    "date_modified": "2479-11-08",
    "date_original": "2479-11-08",
    "doctype": "พระราชบัญญัติ",
    "editors": [
      {
        "name": "วศิน",
        "role": "ผู้จัดทำ",
        "date": "2552-01-22"
      },
      {
        "name": "วิมล",
        "role": "ปรับปรุง",
        "date": "2556-11-06"
      },
      {
        "name": "ณัฐพร",
        "role": "ตรวจ",
        "date": "2556-12-13"
      }
    ],
    "tag": "c202-20-2479-001",
    "title": "ยศทหาร"
  }
}