{
  "pages": [
    [
      [
        "ประกาศกรมโรงงานอุตสาหกรรม",
        "เรื่อง หนังสือรับรองการฝึกอบรมหลักสูตรคนงานควบคุม ส่ง และบรรจุก๊าซประจำโรงงาน",
        "พ.ศ. ๒๕๕๓"
      ]
    ],
    []
  ],
  "metadata": {
    "date_backmatter": "2553-03-30",
    "date_modified": "2553-06-14",
    "date_original": "2553-06-14",
    "doctype": "ประกาศ",
    "editors": [
      {
        "name": "ปริยานุช",
        "role": "ผู้จัดทำ",
        "date": "2553-06-24"
      },
      {
        "name": "นันท์นภัสร์",
        "role": "ตรวจ",
        "date": "2553-06-24"
      }
    ],
    "tag": "c332-2e-2553-a0002"
  }
}