{
  "pages": [
    [
      [
        "ระเบียบกรมโรงงานอุตสาหกรรม",
        "ว่าด้วยเรื่องรายละเอียดหลักเกณฑ์การพิจารณาอนุญาต",
        "ประเภทหรือชนิดของโรงงาน ลำดับที่ ๑๐๕ และลำดับที่ ๑๐๖",
        "พ.ศ. ๒๕๔๕"
      ]
    ],
    []
  ],
  "metadata": {
    "date_backmatter": "2545-11-25",
    "date_modified": "2551-01-25",
    "date_original": "2545-11-28",
    "editors": [
      {
        "name": "รัศม์วรรณวลัย",
        "role": "ผู้จัดทำ",
        "date": "2551-08-28"
      }
    ],
    "tag": "c332-2g-9997-update"
  }
}