{
  "pages": [
    [
      [
        "ประกาศกระทรวงอุตสาหกรรม",
        "เรื่อง มาตรการความปลอดภัยเกี่ยวกับหม้อน้ำและหม้อต้มที่ใช้ของเหลวเป็นสื่อนำความร้อน",
        "พ.ศ. ๒๕๔๙"
      ]
    ],
    []
  ],
  "metadata": {
    "date_backmatter": "2549-10-31",
    "date_modified": "2559-11-29",
    "date_original": "2549-12-04",
    "doctype": "ประกาศ",
    "editors": [
      {
        "name": "วัชศักดิ์",
        "role": "ผู้จัดทำ",
        "date": "2549-12-18"
      },
      {
        "name": "วิศนี",
        "role": "ปรับปรุง",
        "date": "2559-12-26"
      },
      {
        "name": "ปริญสินีย์",
        "role": "ตรวจ",
        "date": "2559-12-30"
      }
    ],
    "tag": "c332-2e-9991-update"
  }
}