{
  "pages": [
    [
      [
        "ประกาศกระทรวงอุตสาหกรรม",
        "ฉบับที่ ๔ (พ.ศ. ๒๕๓๗)",
        "ออกตามความในพระราชบัญญัติโรงงาน พ.ศ. ๒๕๓๕",
        "เรื่อง กำหนดท้องที่ภายในตำบลมาบยางพร และตำบลปลวกแดง",
        "อำเภอปลวกแดง จังหวัดระยอง เป็นเขตประกอบการอุตสาหกรรม"
      ]
    ],
    []
  ],
  "metadata": {
    "date_backmatter": "2537-03-15",
    "date_modified": "2537-03-29",
    "date_original": "2537-03-29",
    "doctype": "ประกาศ",
    "editors": [
      {
        "name": "นันติญา",
        "role": "พิมพ์",
        "date": "2550-11-22"
      },
      {
        "name": "สุนันทา",
        "role": "ตรวจ",
        "date": "2550-12-25"
      }
    ],
    "tag": "c332-2e-2537-a0011"
  }
}