{
  "pages": [
    [
      [
        "ประกาศกระทรวงอุตสาหกรรม",
        "ฉบับที่ ๑๓ (พ.ศ. ๒๕๒๕)",
        "ออกตามความในพระราชบัญญัติโรงงาน พ.ศ. ๒๕๑๒",
        "เรื่อง หน้าที่ของผู้รับใบอนุญาตประกอบกิจการโรงงาน"
      ]
    ],
    []
  ],
  "metadata": {
    "date_backmatter": "2525-06-04",
    "date_modified": "2525-06-29",
    "date_original": "2525-06-29",
    "doctype": "ประกาศ",
    "editors": [
      {
        "name": "ฐาปนี",
        "role": "แก้ไข",
        "date": "2545-11-27"
      }
    ],
    "tag": "c332-2e-2525-a003"
  }
}