{
  "pages": [
    [
      [
        "ระเบียบกรมโรงงานอุตสาหกรรม",
        "ว่าด้วยการจ่ายเงินสินบนรางวัลและค่าใช้จ่ายในการดำเนินงาน",
        "ตามพระราชบัญญัติโรงงาน พ.ศ. ๒๕๓๕",
        "พ.ศ. ๒๕๔๙"
      ]
    ],
    []
  ],
  "metadata": {
    "date_backmatter": "2549-05-25",
    "date_modified": "2550-08-15",
    "date_original": "2549-07-06",
    "editors": [
      {
        "name": "นันทนา",
        "role": "ผู้จัดทำ",
        "date": "2549-07-14"
      },
      {
        "name": "สุนันทา",
        "role": "ผู้จัดทำ",
        "date": "2550-11-21"
      }
    ],
    "tag": "c332-2g-2550-a0003"
  }
}