{
  "pages": [
    [
      [
        "กฎกระทรวง",
        "ฉบับที่ ๒ (พ.ศ. ๒๕๓๕)",
        "ออกตามความในพระราชบัญญัติโรงงาน",
        "พ.ศ. ๒๕๓๕"
      ]
    ],
    []
  ],
  "metadata": {
    "date_backmatter": "2535-09-24",
    "date_modified": "2549-06-21",
    "date_original": "2535-10-16",
    "doctype": "กฎกระทรวง",
    "editors": [
      {
        "name": "ปณตภร",
        "role": "ผู้จัดทำ",
        "date": "2556-04-22"
      }
    ],
    "tag": "c332-2b-2549-a0006"
  }
}