{
  "pages": [
    [
      [
        "กฎกระทรวง",
        "ฉบับที่ ๔ (พ.ศ. ๒๕๓๕)",
        "ออกตามความในพระราชบัญญัติโรงงาน",
        "พ.ศ. ๒๕๓๕"
      ]
    ],
    []
  ],
  "metadata": {
    "date_backmatter": "2535-09-24",
    "date_gz_old": "2535-10-16",
    "doctype": "กฎกระทรวง",
    "editors": [
      {
        "name": "พุทธชาด",
        "role": "แก้ไข",
        "date": "2545-09-23"
      }
    ],
    "tag": "c332-2b-2535-004"
  }
}