{
  "pages": [
    [
      [
        "ประกาศกระทรวงอุตสาหกรรม",
        "ฉบับที่ ๔ (พ.ศ. ๒๕๑๔)",
        "ออกตามความในพระราชบัญญัติโรงงาน พ.ศ. ๒๕๑๒",
        "เรื่อง หน้าที่ของผู้รับใบอนุญาตประกอบกิจการโรงงาน"
      ]
    ],
    []
  ],
  "metadata": {
    "date_backmatter": "2514-08-11",
    "date_modified": "2514-08-14",
    "date_original": "2514-08-14",
    "doctype": "ประกาศ",
    "editors": [
      {
        "name": "สุกัญญา",
        "role": "พิมพ์",
        "date": "2549-10-05"
      }
    ],
    "tag": "c332-2e-2514-a0002"
  }
}