{
  "pages": [
    [
      [
        "ระเบียบกระทรวงอุตสาหกรรม",
        "ว่าด้วยการเปรียบเทียบคดี พ.ศ. ๒๕๓๖"
      ]
    ],
    []
  ],
  "metadata": {
    "date_backmatter": "2536-03-17",
    "date_modified": "2540-07-04",
    "date_original": "2536-05-25",
    "editors": [
      {
        "name": "ปณตภร",
        "role": "ผู้จัดทำ",
        "date": "2555-04-10"
      }
    ],
    "tag": "c332-2g-2540-a0003"
  }
}