{
  "pages": [
    [
      [
        "ประกาศกระทรวงอุตสาหกรรม",
        "เรื่อง กำหนดมาตรการคุ้มครองความปลอดภัยในการประกอบกิจการโรงงาน",
        "ที่เกี่ยวกับการผลิต การเก็บ การบรรจุ การใช้ และการขนส่งก๊าซ",
        "(ฉบับที่ ๒)",
        "พ.ศ. ๒๕๕๒"
      ]
    ],
    []
  ],
  "metadata": {
    "date_backmatter": "2552-09-29",
    "date_modified": "2552-09-30",
    "date_original": "2552-09-30",
    "doctype": "ประกาศ",
    "editors": [
      {
        "name": "ปริยานุช",
        "role": "ผู้จัดทำ",
        "date": "2552-10-07"
      },
      {
        "name": "นันท์นภัสร์",
        "role": "ตรวจ",
        "date": "2552-10-12"
      }
    ],
    "tag": "c332-2e-2552-a0004"
  }
}