{
  "pages": [
    [
      [
        "ประกาศกระทรวงอุตสาหกรรม",
        "เรื่อง กำหนดท้องที่ห้ามตั้งหรือขยายโรงงานสกัดน้ำมัน",
        "จากชิ้นไม้กฤษณาและให้โรงงานซึ่งประกอบกิจการเกี่ยวกับ",
        "ชิ้นไม้กฤษณาใช้วัตถุดิบจากแหล่งที่กำหนด",
        "พ.ศ. ๒๕๔๕"
      ]
    ],
    []
  ],
  "metadata": {
    "date_backmatter": "2545-07-12",
    "date_gz_old": "2545-07-30",
    "doctype": "ประกาศ",
    "editors": [
      {
        "name": "พุทธชาด",
        "role": "แก้ไข",
        "date": "2545-12-11"
      }
    ],
    "tag": "c332-2e-2545-a004"
  }
}