{
  "pages": [
    [
      [
        "กฎกระทรวง",
        "ยกเว้นค่าธรรมเนียมรายปีให้แก่ผู้ประกอบกิจการโรงงาน",
        "พ.ศ. ๒๕๕๓"
      ]
    ],
    []
  ],
  "metadata": {
    "date_backmatter": "2553-09-21",
    "date_modified": "2553-09-23",
    "date_original": "2553-09-23",
    "doctype": "กฎกระทรวง",
    "editors": [
      {
        "name": "ปริยานุช",
        "role": "ผู้จัดทำ",
        "date": "2553-09-27"
      },
      {
        "name": "นันท์นภัสร์",
        "role": "ตรวจ",
        "date": "2553-09-27"
      }
    ],
    "tag": "c332-2b-2553-a0002"
  }
}