{
  "pages": [
    [
      [
        "ประกาศกระทรวงอุตสาหกรรม",
        "เรื่อง ยกเว้นค่าธรรมเนียมรายปีและค่าธรรมเนียมการต่ออายุใบอนุญาต",
        "ประกอบกิจการโรงงานแก่ผู้ประกอบกิจการโรงงานซึ่งได้รับ",
        "ความเสียหายจากภัยธรรมชาติน้ำท่วมปี พ.ศ. ๒๕๔๙ (ครั้งที่ ๓)"
      ]
    ],
    []
  ],
  "metadata": {
    "date_backmatter": "2550-09-12",
    "date_modified": "2550-09-28",
    "date_original": "2550-09-28",
    "doctype": "ประกาศ",
    "editors": [
      {
        "name": "วัชศักดิ์",
        "role": "ผู้จัดทำ",
        "date": "2550-10-09"
      }
    ],
    "tag": "c332-2e-2550-a0009"
  }
}