{
  "pages": [
    [
      [
        "ประกาศกระทรวงอุตสาหกรรม",
        "เรื่อง นโยบายอุตสาหกรรมประกอบรถยนต์บรรทุกและรถยนต์โดยสาร"
      ]
    ],
    []
  ],
  "metadata": {
    "date_backmatter": "2522-12-26",
    "date_gz_old": "2523-01-08",
    "doctype": "ประกาศ",
    "editors": [
      {
        "name": "เพ็ญพร/พิมพ์",
        "role": "แก้ไข",
        "date": "2545-10-18"
      }
    ],
    "tag": "c332-2e-2523-a003"
  }
}