{
  "pages": [
    [
      [
        "ประกาศกระทรวงอุตสาหกรรม",
        "ฉบับที่ ๕ (พ.ศ. ๒๕๓๘)",
        "ออกตามความในพระราชบัญญัติโรงงาน พ.ศ. ๒๕๓๕",
        "เรื่อง กำหนดท้องที่ภายในตำบลประจันตคาม อำเภอประจันตคาม",
        "จังหวัดปราจีนบุรี เป็นเขตประกอบการอุตสาหกรรม"
      ]
    ],
    []
  ],
  "metadata": {
    "date_backmatter": "2538-06-27",
    "date_modified": "2538-07-25",
    "date_original": "2538-07-25",
    "doctype": "ประกาศ",
    "editors": [
      {
        "name": "นันติญา",
        "role": "พิมพ์",
        "date": "2550-11-22"
      },
      {
        "name": "สุนันทา",
        "role": "ตรวจ",
        "date": "2550-12-25"
      }
    ],
    "tag": "c332-2e-2538-a0003"
  }
}