{
  "pages": [
    [
      [
        "กฎกระทรวง",
        "ฉบับที่ ๒๒ (พ.ศ. ๒๕๕๖)",
        "ออกตามความในพระราชบัญญัติโรงงาน พ.ศ. ๒๕๓๕"
      ]
    ],
    []
  ],
  "metadata": {
    "date_backmatter": "2556-02-05",
    "date_modified": "2556-02-13",
    "date_original": "2556-02-13",
    "doctype": "กฎกระทรวง",
    "editors": [
      {
        "name": "ปริยานุช",
        "role": "ผู้จัดทำ",
        "date": "2556-02-14"
      },
      {
        "name": "ณัฐพร",
        "role": "ผู้ตรวจ",
        "date": "2556-02-14"
      }
    ],
    "tag": "c332-2b-2556-a0001"
  }
}