{
  "pages": [
    [
      [
        "ประกาศกระทรวงสาธารณสุข",
        "เรื่อง กำหนดชื่อและปริมาณวัตถุออกฤทธิ์ในประเภท ๓ หรือประเภท ๔ ที่ผู้ประกอบวิชาชีพเวชกรรม",
        "ผู้ประกอบวิชาชีพทันตกรรมหรือผู้ประกอบวิชาชีพการสัตวแพทย์ชั้นหนึ่งมีไว้ในครอบครองได้ตามมาตรา ๙๐",
        "พ.ศ. ๒๕๖๑"
      ]
    ],
    []
  ],
  "metadata": {
    "date_backmatter": "2561-08-27",
    "date_modified": "2561-09-25",
    "date_original": "2561-09-25",
    "doctype": "ประกาศ",
    "editors": [
      {
        "name": "พัชรภรณ์",
        "role": "จัดทำ",
        "date": "2562-01-28"
      }
    ],
    "tag": "c702-2e-2561-a0017"
  }
}