{
  "pages": [
    [
      [
        "ประกาศกระทรวงสาธารณสุข",
        "(ฉบับที่ ๑๑๘) พ.ศ. ๒๕๔๔",
        "ออกตามความในพระราชบัญญัติวัตถุที่ออกฤทธิ์ต่อจิตและประสาท",
        "พ.ศ. ๒๕๑๘",
        "เรื่อง ระบุชื่อและจัดแบ่งประเภทวัตถุออกฤทธิ์ (เพิ่มเติม)"
      ]
    ],
    []
  ],
  "metadata": {
    "date_backmatter": "2544-10-19",
    "date_modified": "2544-11-21",
    "date_original": "2544-11-21",
    "doctype": "ประกาศ",
    "editors": [
      {
        "name": "ปรียนันท์",
        "role": "พิมพ์",
        "date": "2545-04-23"
      },
      {
        "name": "โชติกานต์",
        "role": "ปรับปรุง",
        "date": "2561-01-29"
      }
    ],
    "tag": "c702-2e-2544-a004"
  }
}