{
  "pages": [
    [
      [
        "ประกาศกระทรวงสาธารณสุข",
        "ฉบับที่ ๗๒ (พ.ศ. ๒๕๓๔)",
        "เรื่อง การอนุญาตให้ผู้ประกอบวิชาชีพเวชกรรม ผู้ประกอบโรคศิลปะ",
        "แผนปัจจุบันชั้นหนึ่งในสาขาทันตกรรม หรือผู้ประกอบการบำบัดโรคสัตว์",
        "ชั้นหนึ่ง มีวัตถุออกฤทธิ์ไว้ในครอบครองได้ ตามความในพระราชบัญญัติ",
        "วัตถุที่ออกฤทธิ์ต่อจิตและประสาท",
        "พ.ศ. ๒๕๑๘"
      ]
    ],
    []
  ],
  "metadata": {
    "date_backmatter": "2534-06-14",
    "date_modified": "2534-07-09",
    "date_original": "2534-07-09",
    "doctype": "ประกาศ",
    "editors": [
      {
        "name": "โชติกานต์",
        "role": "ปรับปรุง",
        "date": "2561-01-25"
      }
    ],
    "tag": "c702-2e-2534-072"
  }
}