{
  "pages": [
    [
      [
        "ประกาศกระทรวงสาธารณสุข",
        "(ฉบับที่ ๑๒๑) พ.ศ. ๒๕๔๖",
        "เรื่อง แต่งตั้งพนักงานเจ้าหน้าที่เพื่อปฏิบัติการ",
        "ตามกฎหมายว่าด้วยวัตถุที่ออกฤทธิ์ต่อจิตและประสาท"
      ]
    ],
    []
  ],
  "metadata": {
    "date_backmatter": "2546-11-07",
    "date_modified": "2546-11-28",
    "date_original": "2546-11-28",
    "doctype": "ประกาศ",
    "editors": [
      {
        "name": "มยุรี",
        "role": "พิมพ์",
        "date": "2547-03-15"
      },
      {
        "name": "สุนันทา/อรดา",
        "role": "ตรวจ",
        "date": "2547-04-07"
      }
    ],
    "tag": "c702-2e-2546-a0001"
  }
}