{
  "pages": [
    [
      [
        "กฎกระทรวง",
        "การขออนุญาตและการอนุญาตให้ขายวัตถุออกฤทธิ์ในประเภท ๒",
        "พ.ศ. ๒๕๖๐"
      ]
    ],
    []
  ],
  "metadata": {
    "date_backmatter": "2560-12-13",
    "date_modified": "2560-12-20",
    "date_original": "2560-12-20",
    "doctype": "กฎกระทรวง",
    "editors": [
      {
        "name": "พรวิภา/ภวรรณตรี",
        "role": "จัดทำ",
        "date": "2561-01-23"
      },
      {
        "name": "วิชพงษ์",
        "role": "ตรวจ",
        "date": "2561-01-24"
      }
    ],
    "tag": "c702-2b-2560-a0001"
  }
}