{
  "pages": [
    [
      [
        "ประกาศคณะกรรมการวัตถุที่ออกฤทธิ์ต่อจิตและประสาท",
        "เรื่อง กำหนดหลักเกณฑ์ วิธีการและเงื่อนไขในการทำบัญชีและควบคุมการทำบัญชี",
        "เกี่ยวกับการผลิต การขาย การนำเข้า และการส่งออกซึ่งวัตถุออกฤทธิ์ในประเภท ๒"
      ]
    ],
    []
  ],
  "metadata": {
    "date_backmatter": "2560-12-14",
    "date_modified": "2560-12-20",
    "date_original": "2560-12-20",
    "doctype": "ประกาศ",
    "editors": [
      {
        "name": "พรวิภา/ภวรรณตรี",
        "role": "จัดทำ",
        "date": "2561-01-04"
      }
    ],
    "tag": "c702-2e-2560-a0012"
  }
}