{
  "pages": [
    [
      [
        "ข้อบังคับเจ้าพนักงานจราจรในเขตกรุงเทพมหานคร",
        "ว่าด้วยการห้ามหยุดห้ามจอดรถ การห้ามเลี้ยวรถ และกำหนดให้รถเดินได้ทางเดียว",
        "ในถนนหรือซอยต่าง ๆ ในเขตกรุงเทพมหานคร",
        "(ฉบับที่ ๒)",
        "พ.ศ. ๒๕๕๘"
      ]
    ],
    []
  ],
  "metadata": {
    "date_backmatter": "2558-11-26",
    "date_modified": "2558-12-11",
    "date_original": "2558-12-11",
    "editors": [
      {
        "name": "ปริยานุช",
        "role": "จัดทำ",
        "date": "2558-12-14"
      },
      {
        "name": "วิศนี",
        "role": "ตรวจ",
        "date": "2559-01-15"
      }
    ],
    "tag": "a803-2i-2558-a0016"
  }
}