{
  "pages": [
    [
      [
        "ประกาศเจ้าพนักงานจราจรทางบกจังหวัดภูเก็ต",
        "ฉบับที่ ๒/๒๕๕๑",
        "เรื่อง การจัดระบบการจราจรในเขตรับผิดชอบ สภ.ถลาง",
        "อำเภอถลาง จังหวัดภูเก็ต"
      ]
    ],
    []
  ],
  "metadata": {
    "date_backmatter": "2551-09-01",
    "date_modified": "2551-10-20",
    "date_original": "2551-10-20",
    "doctype": "ประกาศ",
    "editors": [
      {
        "name": "ปริยานุช",
        "role": "ผู้จัดทำ",
        "date": "2551-10-24"
      }
    ],
    "tag": "a803-2e-2551-a0004"
  }
}