{
  "pages": [
    [
      [
        "ประกาศเจ้าพนักงานจราจรทางบกจังหวัดนนทบุรี",
        "ฉบับที่ ๑/๒๕๔๙",
        "เรื่อง การจัดระบบการเดินรถในเขตจังหวัดนนทบุรี"
      ]
    ],
    []
  ],
  "metadata": {
    "date_backmatter": "2549-02-03",
    "date_modified": "2549-03-20",
    "date_original": null,
    "doctype": "ประกาศ",
    "editors": [
      {
        "name": "นันทนา",
        "role": "ผู้จัดทำ",
        "date": "2549-03-23"
      }
    ],
    "tag": "a803-2e-2549-a0001"
  }
}