{
  "pages": [
    [
      [
        "ประกาศเจ้าพนักงานจราจรจังหวัดอุทัยธานี",
        "เรื่อง กำหนดอัตราความเร็วของรถในทาง ในเขตพื้นที่อำเภอเมืองอุทัยธานี จังหวัดอุทัยธานี"
      ]
    ],
    []
  ],
  "metadata": {
    "date_backmatter": "2560-09-19",
    "date_modified": "2560-11-15",
    "date_original": "2560-11-15",
    "doctype": "ประกาศ",
    "editors": [
      {
        "name": "พรวิภา/อัญชลี",
        "role": "จัดทำ",
        "date": "2560-11-20"
      },
      {
        "name": "นุสรา",
        "role": "ตรวจ",
        "date": "2561-08-31"
      }
    ],
    "tag": "a803-2e-2560-a0013"
  }
}