{
  "pages": [
    [
      [
        "พระราชบัญญัติ",
        "จราจรทางบก (ฉบับที่ ๖)",
        "พ.ศ. ๒๕๔๒",
        "",
        "",
        "ภูมิพลอดุลยเดช ป.ร.",
        "ให้ไว้ ณ วันที่ ๑๗ มีนาคม พ.ศ. ๒๕๔๒",
        "เป็นปีที่ ๕๔ ในรัชกาลปัจจุบัน"
      ]
    ],
    []
  ],
  "metadata": {
    "date_header": "2542-03-17",
    "date_modified": "2542-03-25",
    "date_original": "2542-03-25",
    "doctype": "พระราชบัญญัติ",
    "editors": [
      {
        "name": "สัญชัย",
        "role": "ผู้จัดทำ",
        "date": "2552-02-23"
      }
    ],
    "tag": "a803-20-2542-a0001",
    "title": "จราจรทางบก (ฉบับที่ ๖)"
  }
}