{
  "pages": [
    [
      [
        "ข้อบังคับเจ้าพนักงานจราจรในเขตกรุงเทพมหานคร",
        "ว่าด้วยการห้ามจอดรถทุกชนิด ในซอยวิภาวดีรังสิต ๖๐ ซอยแยก",
        "พ.ศ. ๒๕๕๙"
      ]
    ],
    []
  ],
  "metadata": {
    "date_backmatter": "2559-01-13",
    "date_modified": "2559-02-12",
    "date_original": "2559-02-12",
    "editors": [
      {
        "name": "วิศนี/ปริยานุช",
        "role": "จัดทำ",
        "date": "2559-03-02"
      },
      {
        "name": "นุสรา",
        "role": "ตรวจ",
        "date": "2559-05-03"
      }
    ],
    "tag": "a803-2i-2559-a0003"
  }
}