{
  "pages": [
    [
      [
        "ข้อบังคับเจ้าพนักงานจราจรจังหวัดพระนครศรีอยุธยา",
        "ว่าด้วยการห้ามรถยนต์บรรทุกพ่วงและรถยนต์บรรทุกกึ่งพ่วงเดินรถผ่านถนนในหมู่บ้าน",
        "เขตตำบลโพธิ์เอน อำเภอท่าเรือ จังหวัดพระนครศรีอยุธยา"
      ]
    ],
    []
  ],
  "metadata": {
    "date_backmatter": "2560-05-12",
    "date_modified": "2560-06-09",
    "date_original": "2560-06-09",
    "editors": [
      {
        "name": "พรวิภา/ภวรรณตรี",
        "role": "จัดทำ",
        "date": "2560-06-12"
      },
      {
        "name": "ปริญสินีย์",
        "role": "ตรวจ",
        "date": "2560-07-31"
      }
    ],
    "tag": "a803-2i-2560-a0005"
  }
}