{
  "pages": [
    [
      [
        "ข้อบังคับเจ้าพนักงานจราจรในเขตกรุงเทพมหานคร",
        "ว่าด้วยการห้ามรถบรรทุกตั้งแต่ ๖ ล้อขึ้นไปเข้าซอยอินทามาระ ๑๕ และการห้ามหยุดห้ามจอดรถ",
        "ทุกชนิดในซอยกรุงแมน ซอยพหลโยธิน ๔๒ ซอยมีนบุรี ซอยพระรามเก้า ๔๓, ๔๕ และ ๔๙",
        "ซอยบางขุนนนท์ ๑๓ และกำหนดให้เดินรถได้ทางเดียวในซอยสีหบุรานุกิจ ๑๑",
        "พ.ศ. ๒๕๕๔"
      ]
    ],
    []
  ],
  "metadata": {
    "date_backmatter": "2554-07-28",
    "date_modified": "2554-08-26",
    "date_original": "2554-08-26",
    "editors": [
      {
        "name": "ปริยานุช",
        "role": "ผู้จัดทำ",
        "date": "2554-09-15"
      },
      {
        "name": "ปณตภร",
        "role": "ผู้ตรวจ",
        "date": "2554-10-10"
      }
    ],
    "tag": "a803-2i-2554-a0010"
  }
}