{
  "pages": [
    [
      [
        "ประกาศเจ้าพนักงานจราจรทางบกจังหวัดภูเก็ต",
        "ฉบับที่ ๑/๒๕๕๑",
        "เรื่อง ห้ามรถบรรทุกตั้งแต่ ๖ ล้อขึ้นไป วิ่งในซอยเชิงทะเล ๒, ๔, ๖, ๘, ๑๐, ๑๒, ๑๔, ๑๖ และ ๑๖/๑",
        "เขตเทศบาลตำบลเชิงทะเล อำเภอถลาง จังหวัดภูเก็ต"
      ]
    ],
    []
  ],
  "metadata": {
    "date_backmatter": "2551-09-01",
    "date_modified": "2551-10-20",
    "date_original": "2551-10-20",
    "doctype": "ประกาศ",
    "editors": [
      {
        "name": "ปริยานุช",
        "role": "ผู้จัดทำ",
        "date": "2551-10-24"
      }
    ],
    "tag": "a803-2e-2551-a0003"
  }
}