{
  "pages": [
    [
      [
        "ข้อบังคับเจ้าพนักงานจราจรจังหวัดสมุทรปราการ",
        "ว่าด้วย การห้ามรถยนต์บรรทุกตั้งแต่ ๑๐ ล้อขึ้นไป รถบรรทุกที่มีเพลาตั้งแต่ ๓ เพลาขึ้นไป และรถพ่วง",
        "เดินรถและห้ามรถทุกชนิดจอดในถนนบางสาย",
        "พ.ศ. ๒๕๕๒"
      ]
    ],
    []
  ],
  "metadata": {
    "date_backmatter": "2552-12-15",
    "date_modified": "2553-02-05",
    "date_original": "2553-02-05",
    "editors": [
      {
        "name": "ปริยานุช",
        "role": "ผู้จัดทำ",
        "date": "2553-02-17"
      },
      {
        "name": "นันท์นภัสร์",
        "role": "ตรวจ",
        "date": "2553-02-17"
      }
    ],
    "tag": "a803-2i-2553-a0002"
  }
}