{
  "pages": [
    [
      [
        "ข้อบังคับเจ้าพนักงานจราจรทางบกจังหวัดนนทบุรี",
        "ว่าด้วยการห้ามจอดรถในเขตอำเภอเมืองนนทบุรี จังหวัดนนทบุรี"
      ]
    ],
    []
  ],
  "metadata": {
    "date_backmatter": "2559-11-25",
    "date_modified": "2559-12-26",
    "date_original": "2559-12-26",
    "editors": [
      {
        "name": "ชนิกา/ปริยานุช",
        "role": "จัดทำ",
        "date": "2560-01-05"
      },
      {
        "name": "ปริญสินีย์",
        "role": "ตรวจ",
        "date": "2560-01-31"
      }
    ],
    "tag": "a803-2i-2559-a0025"
  }
}