{
  "pages": [
    [
      [
        "พระราชบัญญัติ",
        "จราจรทางบก (ฉบับที่ ๓)",
        "พ.ศ. ๒๕๒๙",
        "",
        "",
        "ภูมิพลอดุลยเดช ป.ร.",
        "ให้ไว้ ณ วันที่ ๑๓ ตุลาคม พ.ศ. ๒๕๒๙",
        "เป็นปีที่ ๔๑ ในรัชกาลปัจจุบัน"
      ]
    ],
    []
  ],
  "metadata": {
    "date_header": "2529-10-13",
    "date_modified": "2529-10-17",
    "date_original": "2529-10-17",
    "doctype": "พระราชบัญญัติ",
    "editors": [
      {
        "name": "สัญชัย",
        "role": "ผู้จัดทำ",
        "date": "2552-02-20"
      }
    ],
    "tag": "a803-20-2529-003",
    "title": "จราจรทางบก (ฉบับที่ ๓)"
  }
}