{
  "pages": [
    [
      [
        "ข้อบังคับเจ้าพนักงานจราจรในเขตกรุงเทพมหานคร",
        "ว่าด้วย การห้ามหยุด หรือห้ามจอดรถทุกชนิดในซอยบุญช่วย, ถนนพิษณุโลก, ซอยวิภาวดี ๖๐",
        "ซอยนาวงประชาพัฒนา ๒๑, ซอยงามวงศ์วาน ๕๒, ซอยรามคำแหง ๒๔, ๔๔ ถนนโชคชัย ๔",
        "ถนนนาคนิวาส, บริเวณศูนย์การค้าวรจักร, ตรอกโรงเลี้ยงเด็ก, ซอยจรัญสนิทวงศ์ ๘๙ และถนนลาดกระบัง",
        "พ.ศ. ๒๕๕๔"
      ]
    ],
    []
  ],
  "metadata": {
    "date_backmatter": "2554-09-22",
    "date_modified": "2554-11-02",
    "date_original": "2554-11-02",
    "editors": [
      {
        "name": "ปริยานุช",
        "role": "ผู้จัดทำ",
        "date": "2554-11-09"
      },
      {
        "name": "ชาญ",
        "role": "ผู้ตรวจ",
        "date": "2554-11-16"
      }
    ],
    "tag": "a803-2i-2554-a0013"
  }
}