{
  "pages": [
    [
      [
        "ประกาศเจ้าพนักงานจราจรทางบกจังหวัดปทุมธานี",
        "เรื่อง การจอดรถ ห้ามกลับรถ บนถนนรังสิต - ปทุมธานี"
      ]
    ],
    []
  ],
  "metadata": {
    "date_backmatter": "2554-09-10",
    "date_modified": "2554-11-30",
    "date_original": "2554-11-30",
    "doctype": "ประกาศ",
    "editors": [
      {
        "name": "ปริยานุช",
        "role": "ผู้จัดทำ",
        "date": "2554-12-02"
      },
      {
        "name": "ปณตภร",
        "role": "ผู้ตรวจ",
        "date": "2554-12-11"
      }
    ],
    "tag": "a803-2e-2554-a0009"
  }
}