{
  "pages": [
    [
      [
        "ประกาศเจ้าพนักงานจราจรจังหวัดกำแพงเพชร",
        "เรื่อง กำหนดอัตราความเร็วของรถในทาง ในเขตเทศบาลเมืองกำแพงเพชร",
        "อำเภอเมืองกำแพงเพชร จังหวัดกำแพงเพชร"
      ]
    ],
    []
  ],
  "metadata": {
    "date_backmatter": "2560-10-10",
    "date_modified": "2560-12-06",
    "date_original": "2560-12-06",
    "doctype": "ประกาศ",
    "editors": [
      {
        "name": "ภวรรณตรี",
        "role": "จัดทำ",
        "date": "2560-12-25"
      },
      {
        "name": "ปุณิกา",
        "role": "ตรวจ",
        "date": "2560-12-30"
      }
    ],
    "tag": "a803-2e-2560-a0014"
  }
}