{
  "pages": [
    [
      [
        "คำสั่งหัวหน้าคณะรักษาความสงบแห่งชาติ",
        "ที่ ๑๔/๒๕๖๐",
        "เรื่อง มาตรการเพิ่มประสิทธิภาพการบังคับใช้กฎหมายว่าด้วยการจราจรทางบก"
      ]
    ],
    []
  ],
  "metadata": {
    "date_backmatter": "2560-03-21",
    "date_modified": "2560-03-21",
    "date_original": "2560-03-21",
    "editors": [
      {
        "name": "วริญา/ภวรรณตรี",
        "role": "จัดทำ",
        "date": "2560-03-22"
      },
      {
        "name": "ปริญสินีย์",
        "role": "ตรวจ",
        "date": "2560-03-23"
      }
    ],
    "tag": "a803-20-2560-a0001"
  }
}