{
  "pages": [
    [
      [
        "ข้อบังคับเจ้าพนักงานจราจรในเขตกรุงเทพมหานคร",
        "ว่าด้วย การห้ามหยุดห้ามจอดรถในถนนคู้บอน",
        "พ.ศ. ๒๕๕๐"
      ]
    ],
    []
  ],
  "metadata": {
    "date_backmatter": "2550-05-18",
    "date_modified": "2550-07-11",
    "date_original": "2550-07-11",
    "editors": [
      {
        "name": "วัชศักดิ์",
        "role": "ผู้จัดทำ",
        "date": "2550-07-18"
      }
    ],
    "tag": "a803-2i-2550-a0012"
  }
}