{
  "pages": [
    [
      [
        "ข้อบังคับเจ้าพนักงานจราจรจังหวัดสมุทรปราการ",
        "ว่าด้วยการห้ามรถทุกชนิด เดินรถหรือจอดรถในถนนบางสาย เขตเทศบาลนครสมุทรปราการ",
        "พ.ศ. ๒๕๕๗"
      ]
    ],
    []
  ],
  "metadata": {
    "date_backmatter": "2557-09-16",
    "date_modified": "2557-10-07",
    "date_original": "2557-10-07",
    "editors": [
      {
        "name": "ปริยานุช",
        "role": "ผู้จัดทำ",
        "date": "2557-10-09"
      },
      {
        "name": "กฤษดายุทธ",
        "role": "ผู้ตรวจ",
        "date": "2557-10-09"
      }
    ],
    "tag": "a803-2i-2557-a0009"
  }
}