{
  "pages": [
    [
      [
        "ประกาศเจ้าพนักงานจราจรจังหวัดตรัง",
        "เรื่อง กำหนดอัตราความเร็วของรถในทาง เส้นทางหลวงหมายเลข ๔",
        "สายเพชรเกษม (ตรัง - พัทลุง) อำเภอนาโยง จังหวัดตรัง"
      ]
    ],
    []
  ],
  "metadata": {
    "date_backmatter": "2560-10-17",
    "date_modified": "2560-12-12",
    "date_original": "2560-12-12",
    "doctype": "ประกาศ",
    "editors": [
      {
        "name": "พัชรภรณ์/อัญชลี",
        "role": "จัดทำ",
        "date": "2560-12-16"
      },
      {
        "name": "นุสรา",
        "role": "ตรวจ",
        "date": "2560-12-30"
      }
    ],
    "tag": "a803-2e-2560-a0015"
  }
}