{
  "pages": [
    [
      [
        "ประกาศเจ้าพนักงานจราจรทางบกจังหวัดนนทบุรี",
        "ฉบับที่ ๑/๒๕๕๓",
        "เรื่อง ห้ามจอดรถในเขตจังหวัดนนทบุรี"
      ]
    ],
    []
  ],
  "metadata": {
    "date_backmatter": "2553-03-26",
    "date_modified": "2553-05-03",
    "date_original": "2553-05-03",
    "doctype": "ประกาศ",
    "editors": [
      {
        "name": "ปริยานุช",
        "role": "ผู้จัดทำ",
        "date": "2553-05-31"
      },
      {
        "name": "นันท์นภัสร์",
        "role": "ตรวจ",
        "date": "2553-05-31"
      }
    ],
    "tag": "a803-2e-2553-a0001"
  }
}