{
  "pages": [
    [
      [
        "ข้อกำหนดเจ้าพนักงานจราจรทั่วราชอาณาจักร",
        "เรื่อง กำหนดแบบใบสั่งของเจ้าพนักงานจราจรหรือพนักงานเจ้าหน้าที่",
        "และใบรับแทนใบอนุญาตขับขี่",
        "(ฉบับที่ ๓)",
        "พ.ศ. ๒๕๕๙"
      ]
    ],
    []
  ],
  "metadata": {
    "date_backmatter": "2559-03-23",
    "date_modified": "2560-08-18",
    "date_original": "2559-04-12",
    "editors": [
      {
        "name": "พิมพ์มาดา",
        "role": "จัดทำ",
        "date": "2560-08-30"
      }
    ],
    "tag": "a803-2h-9997-update"
  }
}