{
  "pages": [
    [
      [
        "ประกาศเจ้าพนักงานจราจรจังหวัดน่าน",
        "เรื่อง กำหนดอัตราความเร็วของรถในทาง ในเขตเทศบาลเมืองน่าน",
        "อำเภอเมืองน่าน จังหวัดน่าน"
      ]
    ],
    []
  ],
  "metadata": {
    "date_backmatter": "2561-08-10",
    "date_modified": "2561-08-30",
    "date_original": "2561-08-30",
    "doctype": "ประกาศ",
    "editors": [
      {
        "name": "ปวันวิทย์",
        "role": "จัดทำ",
        "date": "2561-10-01"
      }
    ],
    "tag": "a803-2e-2561-a0015"
  }
}