{
  "pages": [
    [
      [
        "ข้อบังคับเจ้าพนักงานจราจรในเขตกรุงเทพมหานคร",
        "ว่าด้วย การห้ามหยุดห้ามจอดรถทุกชนิด ในถนนหรือซอยต่างๆ ในเขตกรุงเทพมหานคร",
        "พ.ศ. ๒๕๕๐"
      ]
    ],
    []
  ],
  "metadata": {
    "date_backmatter": "2550-10-30",
    "date_modified": "2550-12-17",
    "date_original": "2550-12-17",
    "editors": [
      {
        "name": "วัชศักดิ์",
        "role": "ผู้จัดทำ",
        "date": "2551-01-16"
      }
    ],
    "tag": "a803-2i-2550-a0033"
  }
}