{
  "pages": [
    [
      [
        "พระราชบัญญัติ",
        "นิรโทษกรรมแก่ผู้กระทำการอันเป็นความผิดต่อความมั่นคงของรัฐ",
        "ภายในราชอาณาจักร ตามประมวลกฎหมายอาญาและความผิด",
        "ตามกฎหมายว่าด้วยการป้องกันการกระทำอันเป็นคอมมิวนิสต์",
        "พ.ศ. ๒๕๓๒",
        "",
        "",
        "ภูมิพลอดุลยเดช ป.ร.",
        "ให้ไว้ ณ วันที่ ๒๔ สิงหาคม พ.ศ. ๒๕๓๒",
        "เป็นปีที่ ๔๔ ในรัชกาลปัจจุบัน"
      ]
    ],
    []
  ],
  "metadata": {
    "date_header": "2532-08-24",
    "date_modified": "2532-08-30",
    "date_original": "2532-08-30",
    "doctype": "พระราชบัญญัติ",
    "editors": [
      {
        "name": "สุกัญญา",
        "role": "ผู้จัดทำ",
        "date": "2554-02-21"
      },
      {
        "name": "สุนันทา",
        "role": "ตรวจ",
        "date": "2554-03-18"
      }
    ],
    "tag": "b901-20-2532-001",
    "title": "นิรโทษกรรมแก่ผู้กระทำการอันเป็นความผิดต่อความมั่นคงของรัฐภายในราชอาณาจักร ตามประมวลกฎหมายอาญาและความผิดตามกฎหมายว่าด้วยการป้องกันการกระทำอันเป็นคอมมิวนิสต์"
  }
}