{
  "pages": [
    [
      [
        "ประกาศสำนักนายกรัฐมนตรี",
        "เรื่อง การอนุมัติพระราชกำหนดนิรโทษกรรมแก่ผู้ก่อความไม่สงบ",
        "เพื่อยึดอำนาจการปกครองแผ่นดิน ระหว่างวันที่ ๓๑ มีนาคม",
        "ถึงวันที่ ๓ เมษายน พ.ศ. ๒๕๒๔ พ.ศ. ๒๕๒๔"
      ]
    ],
    []
  ],
  "metadata": {
    "date_backmatter": "2524-05-26",
    "date_header": "2524-04-03",
    "date_modified": "2524-05-27",
    "date_original": "2524-05-27",
    "doctype": "ประกาศ",
    "editors": [
      {
        "name": "พรรณิศา",
        "role": "ผู้จัดทำ",
        "date": "2553-10-22"
      }
    ],
    "tag": "b901-2e-2524-001"
  }
}