{
  "pages": [
    [
      [
        "พระราชบัญญัติ",
        "นิรโทษกรรมแก่ผู้กระทำการต่อต้านการดำเนินการ",
        "สงครามของญี่ปุ่น",
        "พุทธศักราช ๒๔๘๙",
        "",
        "",
        "อานันทมหิดล",
        "ตราไว้ ณ วันที่ ๒๖ เมษายน พุทธศักราช ๒๔๘๙",
        "เป็นปีที่ ๑๓ ในรัชกาลปัจจุบัน"
      ]
    ],
    []
  ],
  "metadata": {
    "date_header": "2489-04-26",
    "date_modified": "2489-04-30",
    "date_original": "2489-04-30",
    "doctype": "พระราชบัญญัติ",
    "editors": [
      {
        "name": "สุกัญญา",
        "role": "ผู้จัดทำ",
        "date": "2554-02-21"
      },
      {
        "name": "สุนันทา",
        "role": "ตรวจ",
        "date": "2554-03-15"
      }
    ],
    "tag": "b901-20-2489-001",
    "title": "นิรโทษกรรมแก่ผู้กระทำการต่อต้านการดำเนินการสงครามของญี่ปุ่น"
  }
}