{
  "pages": [
    [
      [
        "พระราชบัญญัติ",
        "นิรโทษกรรมแก่ผู้กระทำการยึดอำนาจการปกครองประเทศ",
        "เมื่อวันที่ ๖ ตุลาคม พ.ศ. ๒๕๑๙",
        "พ.ศ. ๒๕๑๙",
        "",
        "",
        "ภูมิพลอดุลยเดช ป.ร.",
        "ให้ไว้ ณ วันที่ ๒๔ ธันวาคม พ.ศ. ๒๕๑๙",
        "เป็นปีที่ ๓๑ ในรัชกาลปัจจุบัน"
      ]
    ],
    []
  ],
  "metadata": {
    "date_backmatter": "2519-10-06",
    "date_header": "2519-10-06",
    "date_modified": "2519-12-24",
    "date_original": "2519-12-24",
    "doctype": "พระราชบัญญัติ",
    "editors": [
      {
        "name": "สุกัญญา",
        "role": "ผู้จัดทำ",
        "date": "2554-02-21"
      },
      {
        "name": "สุนันทา",
        "role": "ตรวจ",
        "date": "2554-03-15"
      }
    ],
    "tag": "b901-20-2519-001",
    "title": "นิรโทษกรรมแก่ผู้กระทำการยึดอำนาจการปกครองประเทศเมื่อวันที่ ๖ ตุลาคม พ.ศ. ๒๕๑๙"
  }
}