{
  "pages": [
    [
      [
        "พระราชกฤษฎีกา",
        "โอนกรรมสิทธิ์ที่วัด วัดใหม่ขุนเขวา",
        "ตำบลเขวา อำเภอเมืองมหาสารคาม จังหวัดมหาสารคาม",
        "ให้แก่กรมทางหลวง",
        "พ.ศ. ๒๕๕๕",
        "",
        "",
        "ภูมิพลอดุลยเดช ป.ร.",
        "ให้ไว้ ณ วันที่ ๑๔ มิถุนายน พ.ศ. ๒๕๕๕",
        "เป็นปีที่ ๖๗ ในรัชกาลปัจจุบัน"
      ]
    ],
    []
  ],
  "metadata": {
    "date_header": "2555-06-14",
    "date_modified": "2555-06-22",
    "date_original": "2555-06-22",
    "doctype": "พระราชกฤษฎีกา",
    "editors": [
      {
        "name": "ปริยานุช",
        "role": "ผู้จัดทำ",
        "date": "2555-06-25"
      },
      {
        "name": "ชาญ",
        "role": "ผู้ตรวจ",
        "date": "2555-06-28"
      }
    ],
    "tag": "a401-2a-2555-a0008",
    "title": "โอนกรรมสิทธิ์ที่วัด วัดใหม่ขุนเขวาตำบลเขวา อำเภอเมืองมหาสารคาม จังหวัดมหาสารคามให้แก่กรมทางหลวง"
  }
}