{
  "pages": [
    [
      [
        "พระราชกฤษฎีกา",
        "โอนกรรมสิทธิ์ที่ธรณีสงฆ์ ในท้องที่ตำบลบางเลน",
        "อำเภอสองพี่น้อง จังหวัดสุพรรณบุรี ของวัดมเหยงคณ์ ตำบลท่าระหัด",
        "อำเภอเมืองสุพรรณบุรี จังหวัดสุพรรณบุรี",
        "ให้แก่กรมชลประทาน",
        "พ.ศ. ๒๕๕๖",
        "",
        "",
        "ภูมิพลอดุลยเดช ป.ร.",
        "ให้ไว้ ณ วันที่ ๓๑ กรกฎาคม พ.ศ. ๒๕๕๖",
        "เป็นปีที่ ๖๘ ในรัชกาลปัจจุบัน"
      ]
    ],
    []
  ],
  "metadata": {
    "date_header": "2556-07-31",
    "date_modified": "2556-08-21",
    "date_original": "2556-08-21",
    "doctype": "พระราชกฤษฎีกา",
    "editors": [
      {
        "name": "ปริยานุช",
        "role": "ผู้จัดทำ",
        "date": "2556-08-23"
      },
      {
        "name": "ปณตภร",
        "role": "ผู้ตรวจ",
        "date": "2556-08-26"
      }
    ],
    "tag": "a401-2a-2556-a0015",
    "title": "โอนกรรมสิทธิ์ที่ธรณีสงฆ์ ในท้องที่ตำบลบางเลนอำเภอสองพี่น้อง จังหวัดสุพรรณบุรี ของวัดมเหยงคณ์ ตำบลท่าระหัดอำเภอเมืองสุพรรณบุรี จังหวัดสุพรรณบุรีให้แก่กรมชลประทาน"
  }
}