{
  "pages": [
    [
      [
        "พระราชกฤษฎีกา",
        "โอนกรรมสิทธิ์ที่ธรณีสงฆ์ ในท้องที่ตำบลโคกเพลาะ",
        "อำเภอพนัสนิคม จังหวัดชลบุรี ของวัดเขาบางทราย",
        "ตำบลบางทราย อำเภอเมืองชลบุรี จังหวัดชลบุรี",
        "ให้แก่กรมชลประทาน",
        "พ.ศ. ๒๕๕๕",
        "",
        "",
        "ภูมิพลอดุลยเดช ป.ร.",
        "ให้ไว้ ณ วันที่ ๘ มีนาคม พ.ศ. ๒๕๕๕",
        "เป็นปีที่ ๖๗ ในรัชกาลปัจจุบัน"
      ]
    ],
    []
  ],
  "metadata": {
    "date_header": "2555-03-08",
    "date_modified": "2555-03-16",
    "date_original": "2555-03-16",
    "doctype": "พระราชกฤษฎีกา",
    "editors": [
      {
        "name": "ปริยานุช",
        "role": "ผู้จัดทำ",
        "date": "2555-03-19"
      },
      {
        "name": "ปณตภร",
        "role": "ผู้ตรวจ",
        "date": "2555-03-21"
      }
    ],
    "tag": "a401-2a-2555-a0001",
    "title": "โอนกรรมสิทธิ์ที่ธรณีสงฆ์ ในท้องที่ตำบลโคกเพลาะอำเภอพนัสนิคม จังหวัดชลบุรี ของวัดเขาบางทรายตำบลบางทราย อำเภอเมืองชลบุรี จังหวัดชลบุรีให้แก่กรมชลประทาน"
  }
}