{
  "pages": [
    [
      [
        "พระราชบัญญัติ",
        "โอนกรรมสิทธิ์ที่ธรณีสงฆ์ วัดสิริจันทรนิมิตร",
        "ตำบลโคกกระเทียม อำเภอเมืองลพบุรี จังหวัดลพบุรี",
        "ให้แก่กรมชลประทาน",
        "พ.ศ. ๒๕๐๘",
        "",
        "",
        "ภูมิพลอดุลยเดช ป.ร.",
        "ให้ไว้ ณ วันที่ ๒๓ กุมภาพันธ์ พ.ศ. ๒๕๐๘",
        "เป็นปีที่ ๒๐ ในรัชกาลปัจจุบัน"
      ]
    ],
    []
  ],
  "metadata": {
    "date_header": "2508-02-23",
    "date_modified": "2508-03-16",
    "date_original": "2508-03-16",
    "doctype": "พระราชบัญญัติ",
    "editors": [
      {
        "name": "ละออง",
        "role": "พิมพ์",
        "date": "2544-07-10"
      },
      {
        "name": "ปาจรีย์",
        "role": "ปรับปรุง",
        "date": "2549-09-01"
      }
    ],
    "tag": "a401-20-2508-a002",
    "title": "โอนกรรมสิทธิ์ที่ธรณีสงฆ์ วัดสิริจันทรนิมิตรตำบลโคกกระเทียม อำเภอเมืองลพบุรี จังหวัดลพบุรีให้แก่กรมชลประทาน"
  }
}