{
  "pages": [
    [
      [
        "ประกาศสถาปนา",
        "",
        "",
        "ภูมิพลอดุลยเดช ป.ร."
      ]
    ],
    []
  ],
  "metadata": {
    "date_backmatter": "2499-12-20",
    "date_modified": "2500-01-12",
    "date_original": "2500-01-12",
    "doctype": "ประกาศ",
    "editors": [
      {
        "name": "วนิดา",
        "role": "พิมพ์",
        "date": "2549-09-22"
      },
      {
        "name": "อมรรัตน์/นันทพล",
        "role": "ผู้จัดทำ",
        "date": "2549-09-26"
      }
    ],
    "tag": "a401-2e-2500-a0001"
  }
}