{
  "pages": [
    [
      [
        "ประกาศสถาปนา",
        "สมเด็จพระวชิรญาณวงศ์ ขึ้นเป็นสมเด็จพระสังฆราช",
        "",
        "",
        "ในพระปรมาภิไธยสมเด็จพระเจ้าอยู่หัวอานันทมหิดล",
        "ผู้สำเร็จราชการแทนพระองค์",
        "(ตามประกาศประธานสภาผู้แทนราษฎร",
        "ลงวันที่ ๑ สิงหาคม พุทธศักราช ๒๔๘๗)",
        "ปรีดี พนมยงค์"
      ]
    ],
    []
  ],
  "metadata": {
    "date_backmatter": "2488-01-31",
    "date_header": "2487-08-01",
    "date_modified": "2488-02-06",
    "date_original": "2488-02-06",
    "doctype": "ประกาศ",
    "editors": [
      {
        "name": "วัชศักดิ์",
        "role": "พิมพ์",
        "date": "2549-09-21"
      },
      {
        "name": "อมรรัตน์/นันทพล",
        "role": "ผู้จัดทำ",
        "date": "2549-09-26"
      }
    ],
    "tag": "a401-2e-2488-a0001"
  }
}