{
  "pages": [
    [
      [
        "ประกาศสำนักงานพระพุทธศาสนาแห่งชาติ",
        "เรื่อง งบประมาณประจำปีของศาสนสมบัติกลาง",
        "พ.ศ. ๒๕๕๖"
      ]
    ],
    []
  ],
  "metadata": {
    "date_backmatter": "2556-12-24",
    "date_modified": "2556-12-27",
    "date_original": "2556-12-27",
    "doctype": "ประกาศ",
    "editors": [
      {
        "name": "ปริยานุช",
        "role": "ผู้จัดทำ",
        "date": "2557-01-07"
      },
      {
        "name": "โชติกานต์",
        "role": "ผู้ตรวจ",
        "date": "2557-01-07"
      }
    ],
    "tag": "a401-2e-2556-a0001"
  }
}