{
  "pages": [
    [
      [
        "พระราชบัญญัติ",
        "โอนกรรมสิทธิ์ที่วัดเหนือท่า ตำบลในเมือง",
        "อำเภอเมืองอุบล จังหวัดอุบลราชธานี ให้แก่สภากาชาดสยาม",
        "พุทธศักราช ๒๔๘๐",
        "",
        "",
        "ในพระปรมาภิไธยสมเด็จพระเจ้าอยู่หัวอานันทมหิดล",
        "คณะผู้สำเร็จราชการแทนพระองค์",
        "(ตามประกาศประธานสภาผู้แทนราษฎร",
        "ลงวันที่ ๔ สิงหาคม พุทธศักราช ๒๔๘๐)",
        "อาทิตย์ ทิพอาภา",
        "เจ้าพระยายมราช",
        "พล.อ. เจ้าพระยาพิชเยนทร โยธิน",
        "ตราไว้ ณ วันที่ ๒๘ มกราคม พุทธศักราช ๒๔๘๐",
        "เป็นปีที่ ๔ ในรัชกาลปัจจุบัน"
      ]
    ],
    []
  ],
  "metadata": {
    "date_header": "2480-08-04",
    "date_modified": "2480-02-07",
    "date_original": "2480-02-07",
    "doctype": "พระราชบัญญัติ",
    "editors": [
      {
        "name": "ดวงใจ",
        "role": "พิมพ์",
        "date": "2549-09-01"
      },
      {
        "name": "ปาจรีย์",
        "role": "ปรับปรุง",
        "date": "2549-09-01"
      }
    ],
    "tag": "a401-20-2480-a002",
    "title": "โอนกรรมสิทธิ์ที่วัดเหนือท่า ตำบลในเมืองอำเภอเมืองอุบล จังหวัดอุบลราชธานี ให้แก่สภากาชาดสยาม"
  }
}