{
  "pages": [
    [
      [
        "พระราชกฤษฎีกา",
        "โอนกรรมสิทธิ์ที่วัดและที่ธรณีสงฆ์ วัดโพธาราม",
        "ตำบลคลองตาล อำเภอศรีสำโรง จังหวัดสุโขทัย",
        "ให้แก่กรมทางหลวง",
        "พ.ศ. ๒๕๕๕",
        "",
        "",
        "ภูมิพลอดุลยเดช ป.ร.",
        "ให้ไว้ ณ วันที่ ๑๑ เมษายน พ.ศ. ๒๕๕๕",
        "เป็นปีที่ ๖๗ ในรัชกาลปัจจุบัน"
      ]
    ],
    []
  ],
  "metadata": {
    "date_header": "2555-04-11",
    "date_modified": "2555-04-20",
    "date_original": "2555-04-20",
    "doctype": "พระราชกฤษฎีกา",
    "editors": [
      {
        "name": "ปริยานุช",
        "role": "ผู้จัดทำ",
        "date": "2555-04-23"
      },
      {
        "name": "ชาญ",
        "role": "ผู้ตรวจ",
        "date": "2555-04-24"
      }
    ],
    "tag": "a401-2a-2555-a0003",
    "title": "โอนกรรมสิทธิ์ที่วัดและที่ธรณีสงฆ์ วัดโพธารามตำบลคลองตาล อำเภอศรีสำโรง จังหวัดสุโขทัยให้แก่กรมทางหลวง"
  }
}