{
  "pages": [
    [
      [
        "พระราชกฤษฎีกา",
        "โอนที่วัด และที่ธรณีสงฆ์ วัดวังขอน ตำบลแม่พุง อำเภอวังชิ้น จังหวัดแพร่",
        "ให้แก่กรมทางหลวง",
        "พ.ศ. ๒๕๔๕",
        "",
        "",
        "ภูมิพลอดุลยเดช ป.ร.",
        "ให้ไว้ ณ วันที่ ๒๒ กันยายน พ.ศ. ๒๕๔๕",
        "เป็นปีที่ ๕๗ ในรัชกาลปัจจุบัน"
      ]
    ],
    []
  ],
  "metadata": {
    "date_header": "2545-09-22",
    "date_modified": "2545-09-27",
    "date_original": "2545-09-27",
    "doctype": "พระราชกฤษฎีกา",
    "editors": [
      {
        "name": "ธิดาวรรณ",
        "role": "แก้ไข",
        "date": "2545-11-15"
      },
      {
        "name": "ปาจรีย์",
        "role": "ปรับปรุง",
        "date": "2549-09-19"
      }
    ],
    "tag": "a401-2a-2545-a0002",
    "title": "โอนที่วัด และที่ธรณีสงฆ์ วัดวังขอน ตำบลแม่พุง อำเภอวังชิ้น จังหวัดแพร่ให้แก่กรมทางหลวง"
  }
}