{
  "pages": [
    [
      [
        "พระราชบัญญัติ",
        "โอนกรรมสิทธิ์ที่วัดเขาสำมะลึง ตำบลทะเลชุบสร อำเภอ",
        "เมืองลพบุรี จังหวัดลพบุรี ให้แก่กระทรวงกลาโหม",
        "พุทธศักราช ๒๔๘๖",
        "",
        "",
        "ในพระปรมาภิไธยสมเด็จพระเจ้าอยู่หัวอานันทมหิดล",
        "คณะผู้สำเร็จราชการแทนพระองค์",
        "(ตามประกาศประธานสภาผู้แทนพระองค์",
        "ลงวันที่ ๔ สิงหาคม พุทธศักราช ๒๔๘๐",
        "และวันที่ ๑๖ ธันวาคม พุทธศักราช ๒๔๘๔)",
        "อาทิตย์ทิพอาภา",
        "ปรีดี พนมยงค์",
        "ตราไว้ ณ วันที่ ๑๗ ธันวาคม พุทธศักราช ๒๔๘๖",
        "เป็นปีที่ ๑๐ ในรัชกาลปัจจุบัน"
      ]
    ],
    []
  ],
  "metadata": {
    "date_header": "2480-08-04",
    "date_modified": "2486-12-28",
    "date_original": "2486-12-28",
    "doctype": "พระราชบัญญัติ",
    "editors": [
      {
        "name": "ปรียนันท์ ศรีทอง",
        "role": "พิมพ์",
        "date": "2549-09-01"
      },
      {
        "name": "ปาจรีย์",
        "role": "ปรับปรุง",
        "date": "2549-09-01"
      }
    ],
    "tag": "a401-20-2486-a006",
    "title": "โอนกรรมสิทธิ์ที่วัดเขาสำมะลึง ตำบลทะเลชุบสร อำเภอเมืองลพบุรี จังหวัดลพบุรี ให้แก่กระทรวงกลาโหม"
  }
}