{
  "pages": [
    [
      [
        "พระราชบัญญัติ",
        "โอนกรรมสิทธิ์ที่วัด วัดบ่อเงินเจริญสุข",
        "ตำบลโพธิ์เก้าต้น อำเภอเมืองลพบุรี จังหวัดลพบุรี",
        "ให้แก่กรมชลประทาน",
        "พ.ศ. ๒๕๐๗",
        "",
        "",
        "ภูมิพลอดุลยเดช ป.ร.",
        "ให้ไว้ ณ วันที่ ๒ เมษายน พ.ศ. ๒๕๐๗",
        "เป็นปีที่ ๑๙ ในรัชกาลปัจจุบัน"
      ]
    ],
    []
  ],
  "metadata": {
    "date_header": "2507-04-02",
    "date_modified": "2507-06-02",
    "date_original": "2507-06-02",
    "doctype": "พระราชบัญญัติ",
    "editors": [
      {
        "name": "ละออง",
        "role": "พิมพ์",
        "date": "2544-07-09"
      },
      {
        "name": "ปาจรีย์",
        "role": "ปรับปรุง",
        "date": "2549-09-01"
      }
    ],
    "tag": "a401-20-2507-a003",
    "title": "โอนกรรมสิทธิ์ที่วัด วัดบ่อเงินเจริญสุขตำบลโพธิ์เก้าต้น อำเภอเมืองลพบุรี จังหวัดลพบุรีให้แก่กรมชลประทาน"
  }
}