{
  "pages": [
    [
      [
        "ประกาศ",
        "สถาปนาสมเด็จพระสังฆราชเจ้า"
      ]
    ],
    []
  ],
  "metadata": {
    "date_backmatter": "2464-08-20",
    "date_modified": "2464-08-27",
    "date_original": "2464-08-27",
    "doctype": "ประกาศ",
    "editors": [
      {
        "name": "วัชศักดิ์",
        "role": "พิมพ์",
        "date": "2548-09-21"
      },
      {
        "name": "อมรรัตน์/นันทพล",
        "role": "ผู้จัดทำ",
        "date": "2549-09-26"
      }
    ],
    "tag": "a401-2e-2464-a0001"
  }
}