{
  "pages": [
    [
      [
        "พระราชกฤษฎีกา",
        "โอนกรรมสิทธิ์ที่ธรณีสงฆ์ วัดเกาะลอย",
        "ตำบลเกาะพลับพลา อำเภอเมืองราชบุรี จังหวัดราชบุรี",
        "ให้แก่กรมชลประทาน",
        "พ.ศ. ๒๕๕๕",
        "",
        "",
        "ภูมิพลอดุลยเดช ป.ร.",
        "ให้ไว้ ณ วันที่ ๑๙ พฤศจิกายน พ.ศ. ๒๕๕๕",
        "เป็นปีที่ ๖๗ ในรัชกาลปัจจุบัน"
      ]
    ],
    []
  ],
  "metadata": {
    "date_header": "2555-11-19",
    "date_modified": "2555-11-23",
    "date_original": "2555-11-23",
    "doctype": "พระราชกฤษฎีกา",
    "editors": [
      {
        "name": "ปริยานุช",
        "role": "ผู้จัดทำ",
        "date": "2555-11-26"
      },
      {
        "name": "ปณตภร",
        "role": "ผู้ตรวจ",
        "date": "2555-12-04"
      }
    ],
    "tag": "a401-2a-2555-a0012",
    "title": "โอนกรรมสิทธิ์ที่ธรณีสงฆ์ วัดเกาะลอยตำบลเกาะพลับพลา อำเภอเมืองราชบุรี จังหวัดราชบุรีให้แก่กรมชลประทาน"
  }
}