{
  "pages": [
    [
      [
        "พระราชกฤษฎีกา",
        "โอนกรรมสิทธิ์ที่วัดและที่ธรณีสงฆ์ วัดบุ่งวังงิ้ว",
        "ตำบลป่าเซ่า อำเภอเมืองอุตรดิตถ์ จังหวัดอุตรดิตถ์",
        "ให้แก่กรมทางหลวง",
        "พ.ศ. ๒๕๔๖",
        "",
        "",
        "ภูมิพลอดุลยเดช ป.ร.",
        "ให้ไว้ ณ วันที่ ๒๐ ตุลาคม พ.ศ. ๒๕๔๖",
        "เป็นปีที่ ๕๘ ในรัชกาลปัจจุบัน"
      ]
    ],
    []
  ],
  "metadata": {
    "date_header": "2546-10-20",
    "date_modified": "2546-11-04",
    "date_original": "2546-11-04",
    "doctype": "พระราชกฤษฎีกา",
    "editors": [
      {
        "name": "มัตติกา",
        "role": "พิมพ์",
        "date": "2547-01-06"
      },
      {
        "name": "พัชรินทร์/ทรงยศ",
        "role": "ตรวจ",
        "date": "2547-01-08"
      },
      {
        "name": "ปาจรีย์",
        "role": "ปรับปรุง",
        "date": "2549-09-04"
      }
    ],
    "tag": "a401-2a-2546-a0003",
    "title": "โอนกรรมสิทธิ์ที่วัดและที่ธรณีสงฆ์ วัดบุ่งวังงิ้วตำบลป่าเซ่า อำเภอเมืองอุตรดิตถ์ จังหวัดอุตรดิตถ์ให้แก่กรมทางหลวง"
  }
}