{
  "pages": [
    [
      [
        "ประกาศสำนักงานพระพุทธศาสนาแห่งชาติ",
        "เรื่อง งบประมาณประจำปีของศาสนสมบัติกลาง",
        "พ.ศ. ๒๕๕๓"
      ]
    ],
    []
  ],
  "metadata": {
    "date_backmatter": "2553-11-24",
    "date_modified": "2553-12-02",
    "date_original": "2553-12-02",
    "doctype": "ประกาศ",
    "editors": [
      {
        "name": "ปริยานุช",
        "role": "ผู้จัดทำ",
        "date": "2553-12-15"
      },
      {
        "name": "ณัฐวดี",
        "role": "ตรวจ",
        "date": "2553-12-15"
      }
    ],
    "tag": "a401-2e-2553-a0001"
  }
}