{
  "pages": [
    [
      [
        "ประกาศสำนักงานพระพุทธศาสนาแห่งชาติ",
        "เรื่อง งบประมาณประจำปีของศาสนสมบัติกลาง พ.ศ. ๒๕๔๖"
      ]
    ],
    []
  ],
  "metadata": {
    "date_backmatter": "2546-10-06",
    "date_modified": "2546-10-10",
    "date_original": "2546-10-10",
    "doctype": "ประกาศ",
    "editors": [
      {
        "name": "บรรณพต",
        "role": "พิมพ์",
        "date": "2547-01-09"
      },
      {
        "name": "สุมลรัตน์/พัชรินทร์",
        "role": "ตรวจ",
        "date": "2547-01-16"
      }
    ],
    "tag": "a401-2e-2546-a0001"
  }
}