{
  "pages": [
    [
      [
        "พระราชบัญญัติ",
        "ระเบียบข้าราชการฝ่ายตุลาการศาลยุติธรรม",
        "พ.ศ. ๒๕๔๓",
        "",
        "",
        "ภูมิพลอดุลยเดช ป.ร.",
        "ให้ไว้ ณ วันที่ ๔ พฤษภาคม พ.ศ. ๒๕๔๓",
        "เป็นปีที่ ๕๕ ในรัชกาลปัจจุบัน"
      ]
    ],
    []
  ],
  "metadata": {
    "date_header": "2543-05-04",
    "date_modified": "2560-08-13",
    "date_original": "2543-05-18",
    "doctype": "พระราชบัญญัติ",
    "editors": [
      {
        "name": "พิมพ์มาดา",
        "role": "เพิ่มเติม",
        "date": "2560-08-15"
      }
    ],
    "tag": "c344-20-2560-a0003",
    "title": "ระเบียบข้าราชการฝ่ายตุลาการศาลยุติธรรม"
  }
}