{
  "pages": [
    [
      [
        "ประกาศคณะกรรมการตุลาการศาลยุติธรรม",
        "เรื่อง กำหนดตำแหน่งและเทียบตำแหน่งข้าราชการตุลาการที่เรียกชื่ออย่างอื่น"
      ]
    ],
    []
  ],
  "metadata": {
    "date_backmatter": "2561-05-31",
    "date_modified": "2561-06-12",
    "date_original": "2561-06-12",
    "doctype": "ประกาศ",
    "editors": [
      {
        "name": "วิวรรธน์",
        "role": "จัดทำ",
        "date": "2561-06-13"
      }
    ],
    "tag": "c344-2e-2561-a0003"
  }
}