{
  "pages": [
    [
      [
        "ระเบียบคณะกรรมการตุลาการศาลยุติธรรม",
        "ว่าด้วยหลักเกณฑ์การแต่งตั้ง การเลื่อนตำแหน่ง การโยกย้ายแต่งตั้ง",
        "และการเลื่อนเงินเดือนและเงินประจำตำแหน่งข้าราชการตุลาการ",
        "พ.ศ. ๒๕๕๔"
      ]
    ],
    []
  ],
  "metadata": {
    "date_backmatter": "2554-05-25",
    "date_modified": "2558-10-09",
    "date_original": "2554-06-03",
    "editors": [
      {
        "name": "ปริญสินีย์",
        "role": "ผู้จัดทำ",
        "date": "2558-04-20"
      },
      {
        "name": "วิศนี",
        "role": "เพิ่มเติม",
        "date": "2558-11-11"
      },
      {
        "name": "ปัญญา",
        "role": "ตรวจ",
        "date": "2558-11-17"
      }
    ],
    "tag": "c344-2g-2558-a0005"
  }
}