{
  "pages": [
    [
      [
        "ประกาศคณะกรรมการตุลาการศาลยุติธรรม",
        "เรื่อง กำหนดตำแหน่งข้าราชการตุลาการที่เรียกชื่ออย่างอื่น"
      ]
    ],
    []
  ],
  "metadata": {
    "date_backmatter": "2550-11-22",
    "date_modified": "2550-12-14",
    "date_original": "2550-12-14",
    "doctype": "ประกาศ",
    "editors": [
      {
        "name": "วิมล",
        "role": "ผู้จัดทำ",
        "date": "2553-06-25"
      },
      {
        "name": "นฤดล",
        "role": "ผู้ตรวจ",
        "date": "2554-02-16"
      }
    ],
    "tag": "c344-2e-2550-a0003"
  }
}