{
  "pages": [
    [
      [
        "ประกาศคณะกรรมการตุลาการศาลยุติธรรม",
        "เรื่อง การกำหนดตำแหน่งและเทียบตำแหน่งข้าราชการตุลาการที่เรียกชื่ออย่างอื่น"
      ]
    ],
    []
  ],
  "metadata": {
    "date_backmatter": "2555-06-20",
    "date_modified": "2555-07-04",
    "date_original": "2555-07-04",
    "doctype": "ประกาศ",
    "editors": [
      {
        "name": "ปริยานุช",
        "role": "ผู้จัดทำ",
        "date": "2555-07-05"
      },
      {
        "name": "ณัฐพร",
        "role": "ผู้ตรวจ",
        "date": "2555-07-05"
      }
    ],
    "tag": "c344-2e-2555-a0003"
  }
}