{
  "pages": [
    [
      [
        "ระเบียบคณะกรรมการตุลาการศาลยุติธรรม",
        "ว่าด้วยหลักเกณฑ์และวิธีการสอบสวน พ.ศ. ๒๕๔๔"
      ]
    ],
    []
  ],
  "metadata": {
    "date_backmatter": "2544-06-15",
    "date_modified": "2544-07-04",
    "date_original": "2544-07-04",
    "editors": [
      {
        "name": "วิมล",
        "role": "ผู้จัดทำ",
        "date": "2553-06-25"
      },
      {
        "name": "นฤดล",
        "role": "ผู้ตรวจ",
        "date": "2554-02-16"
      }
    ],
    "tag": "c344-2g-2544-a0001"
  }
}