{
  "pages": [
    [
      [
        "ระเบียบคณะกรรมการตุลาการศาลยุติธรรม",
        "ว่าด้วยหลักเกณฑ์การแต่งตั้ง การเลื่อนตำแหน่ง การโยกย้ายแต่งตั้ง",
        "และการเลื่อนเงินเดือนและเงินประจำตำแหน่งข้าราชการตุลาการ (ฉบับที่ ๓)",
        "พ.ศ. ๒๕๕๕"
      ]
    ],
    []
  ],
  "metadata": {
    "date_backmatter": "2555-02-27",
    "date_modified": "2555-03-06",
    "date_original": "2555-03-06",
    "editors": [
      {
        "name": "ปริยานุช",
        "role": "ผู้จัดทำ",
        "date": "2555-03-09"
      },
      {
        "name": "ชาญ",
        "role": "ผู้ตรวจ",
        "date": "2555-03-16"
      }
    ],
    "tag": "c344-2g-2555-a0002"
  }
}