{
  "pages": [
    [
      [
        "ระเบียบคณะกรรมการตุลาการศาลยุติธรรม",
        "ว่าด้วยหลักเกณฑ์การแต่งตั้ง การเลื่อนตำแหน่ง การโยกย้ายแต่งตั้ง",
        "และการเลื่อนเงินเดือนและเงินประจำตำแหน่งข้าราชการตุลาการ",
        "พ.ศ. ๒๕๔๕"
      ]
    ],
    []
  ],
  "metadata": {
    "date_backmatter": "2545-07-12",
    "date_modified": "2548-12-26",
    "date_original": "2545-08-08",
    "editors": [
      {
        "name": "วิมล",
        "role": "ผู้จัดทำ",
        "date": "2553-06-25"
      },
      {
        "name": "นฤดล",
        "role": "ผู้ตรวจ",
        "date": "2554-02-16"
      }
    ],
    "tag": "c344-2g-2548-a0009"
  }
}