{
  "pages": [
    [
      [
        "พระราชบัญญัติ",
        "ระเบียบข้าราชการฝ่ายตุลาการศาลยุติธรรม (ฉบับที่ ๔)",
        "พ.ศ. ๒๕๕๐",
        "",
        "",
        "ภูมิพลอดุลยเดช ป.ร.",
        "ให้ไว้ ณ วันที่ ๑๗ สิงหาคม พ.ศ. ๒๕๕๐",
        "เป็นปีที่ ๖๒ ในรัชกาลปัจจุบัน"
      ]
    ],
    []
  ],
  "metadata": {
    "date_header": "2550-08-17",
    "date_modified": "2550-08-24",
    "date_original": "2550-08-24",
    "doctype": "พระราชบัญญัติ",
    "editors": [
      {
        "name": "สุกัญญา",
        "role": "ผู้จัดทำ",
        "date": "2553-12-09"
      },
      {
        "name": "ชาญ",
        "role": "ตรวจ",
        "date": "2554-07-06"
      }
    ],
    "tag": "c344-20-2550-a0003",
    "title": "ระเบียบข้าราชการฝ่ายตุลาการศาลยุติธรรม (ฉบับที่ ๔)"
  }
}