{
  "pages": [
    [
      [
        "ประกาศคณะกรรมการตุลาการศาลยุติธรรม",
        "เรื่อง กำหนดตำแหน่งและเทียบตำแหน่งข้าราชการตุลาการที่เรียกชื่ออย่างอื่น"
      ]
    ],
    []
  ],
  "metadata": {
    "date_backmatter": "2554-04-29",
    "date_modified": "2554-05-20",
    "date_original": "2554-05-20",
    "doctype": "ประกาศ",
    "editors": [
      {
        "name": "ปริยานุช",
        "role": "ผู้จัดทำ",
        "date": "2554-05-23"
      },
      {
        "name": "ณัฐวดี",
        "role": "ตรวจ",
        "date": "2554-05-23"
      }
    ],
    "tag": "c344-2e-2554-a0002"
  }
}