{
  "pages": [
    [
      [
        "ประกาศคณะกรรมการตุลาการศาลยุติธรรม",
        "เรื่อง การกำหนดตำแหน่งและเทียบตำแหน่งข้าราชการตุลาการที่เรียกชื่ออย่างอื่น"
      ]
    ],
    []
  ],
  "metadata": {
    "date_backmatter": "2559-02-12",
    "date_modified": "2559-02-25",
    "date_original": "2559-02-25",
    "doctype": "ประกาศ",
    "editors": [
      {
        "name": "ชวัลพร/ปริยานุช",
        "role": "จัดทำ",
        "date": "2559-03-03"
      }
    ],
    "tag": "c344-2e-2559-a0001"
  }
}