{
  "pages": [
    [
      [
        "ประกาศคณะกรรมการพิจารณาค่าตอบแทนผู้เสียหาย",
        "และค่าทดแทนและค่าใช้จ่ายแก่จำเลยในคดีอาญา",
        "เรื่อง การกำหนดให้หน่วยงานเป็นสำนักงาน และมอบหมายให้ปฏิบัติหน้าที่",
        "ตามพระราชบัญญัติค่าตอบแทนผู้เสียหาย และค่าทดแทนและค่าใช้จ่ายแก่จำเลยในคดีอาญา พ.ศ. ๒๕๔๔",
        "ซึ่งแก้ไขเพิ่มเติมโดยพระราชบัญญัติค่าตอบแทนผู้เสียหาย",
        "และค่าทดแทนและค่าใช้จ่ายแก่จำเลยในคดีอาญา (ฉบับที่ ๒) พ.ศ. ๒๕๕๙"
      ]
    ],
    []
  ],
  "metadata": {
    "date_backmatter": "2560-03-13",
    "date_modified": "2560-05-02",
    "date_original": "2560-05-02",
    "doctype": "ประกาศ",
    "editors": [
      {
        "name": "ปุณิกา/ภวรรณตรี",
        "role": "จัดทำ",
        "date": "2560-05-05"
      },
      {
        "name": "นุสรา",
        "role": "ตรวจ",
        "date": "2560-07-21"
      }
    ],
    "tag": "a489-2e-2560-a0005"
  }
}