{
  "pages": [
    [
      [
        "ประกาศสำนักงานช่วยเหลือทางการเงินแก่ผู้เสียหายและจำเลยในคดีอาญา",
        "เรื่อง แบบอุทธรณ์คำวินิจฉัยคณะกรรมการพิจารณาค่าตอบแทนผู้เสียหาย",
        "และค่าทดแทนและค่าใช้จ่ายแก่จำเลยในคดีอาญาของผู้เสียหายในคดีอาญา",
        "และแบบอุทธรณ์คำวินิจฉัยคณะกรรมการพิจารณาค่าตอบแทนผู้เสียหาย",
        "และค่าทดแทนและค่าใช้จ่ายแก่จำเลยในคดีอาญาของจำเลยในคดีอาญา",
        "พ.ศ. ๒๕๕๙"
      ]
    ],
    []
  ],
  "metadata": {
    "date_backmatter": "2559-12-23",
    "date_modified": "2560-01-27",
    "date_original": "2560-01-27",
    "doctype": "ประกาศ",
    "editors": [
      {
        "name": "พรวิภา/ปริยานุช",
        "role": "จัดทำ",
        "date": "2560-01-31"
      },
      {
        "name": "ปริญสินีย์",
        "role": "ตรวจ",
        "date": "2560-03-01"
      }
    ],
    "tag": "a489-2e-2560-a0003"
  }
}