{
  "pages": [
    [
      [
        "พระราชกฤษฎีกา",
        "ว่าด้วยครุยประจำตำแหน่งของมหาวิทยาลัยธรรมศาสตร์",
        "พ.ศ. ๒๕๔๑",
        "",
        "",
        "ภูมิพลอดุลยเดช ป.ร.",
        "ให้ไว้ ณ วันที่ ๒๕ ตุลาคม พ.ศ. ๒๕๔๑",
        "เป็นปีที่ ๕๓ ในรัชกาลปัจจุบัน"
      ]
    ],
    []
  ],
  "metadata": {
    "date_header": "2541-10-25",
    "date_modified": "2541-11-05",
    "date_original": "2541-11-05",
    "doctype": "พระราชกฤษฎีกา",
    "editors": [
      {
        "name": "วิชชุตา",
        "role": "ผู้จัดการ",
        "date": "2554-02-07"
      },
      {
        "name": "นฤตยา",
        "role": "ผู้ตรวจ",
        "date": "2554-05-20"
      }
    ],
    "tag": "c104-2a-2541-a0001",
    "title": "ว่าด้วยครุยประจำตำแหน่งของมหาวิทยาลัยธรรมศาสตร์"
  }
}