{
  "pages": [
    [
      [
        "ประกาศทบวงมหาวิทยาลัย",
        "เรื่อง การแบ่งส่วนราชการในมหาวิทยาลัยธรรมศาสตร์",
        "พ.ศ. ๒๕๓๒"
      ]
    ],
    []
  ],
  "metadata": {
    "date_backmatter": "2532-09-12",
    "date_modified": "2540-10-08",
    "date_original": "2532-09-19",
    "doctype": "ประกาศ",
    "editors": [
      {
        "name": "วิชชุตา",
        "role": "ผู้จัดทำ",
        "date": "2554-02-08"
      },
      {
        "name": "นฤตยา",
        "role": "ผู้ตรวจ",
        "date": "2554-05-20"
      }
    ],
    "tag": "c104-2e-2540-010u"
  }
}