{
  "pages": [
    [
      [
        "ข้อบังคับมหาวิทยาลัยธรรมศาสตร์",
        "ว่าด้วยการแบ่งส่วนงานในสถาบันเทคโนโลยีนานาชาติสิรินธรเป็นภาควิชา",
        "พ.ศ. ๒๕๖๐"
      ]
    ],
    []
  ],
  "metadata": {
    "date_backmatter": "2560-07-03",
    "date_modified": "2560-08-28",
    "date_original": "2560-08-28",
    "editors": [
      {
        "name": "ปุณิกา/ภวรรณตรี",
        "role": "จัดทำ",
        "date": "2560-09-04"
      }
    ],
    "tag": "c104-2i-2560-a0002"
  }
}