{
  "pages": [
    [
      [
        "ประกาศทบวงมหาวิทยาลัย",
        "เรื่อง การแบ่งส่วนราชการในมหาวิทยาลัยธรรมศาสตร์ (ฉบับที่ ๙)",
        "พ.ศ. ๒๕๔๐"
      ]
    ],
    []
  ],
  "metadata": {
    "date_backmatter": "2540-04-17",
    "date_modified": "2540-04-22",
    "date_original": "2540-04-22",
    "doctype": "ประกาศ",
    "editors": [
      {
        "name": "วิชชุตา",
        "role": "ผู้จัดทำ",
        "date": "2554-02-09"
      },
      {
        "name": "นฤตยา",
        "role": "ผู้ตรวจ",
        "date": "2554-05-20"
      }
    ],
    "tag": "c104-2e-2540-009"
  }
}