{
  "pages": [
    [
      [
        "พระราชกฤษฎีกา",
        "จัดตั้งส่วนราชการในมหาวิทยาลัยธรรมศาสตร์",
        "ทบวงมหาวิทยาลัย",
        "พ.ศ. ๒๕๓๙",
        "",
        "",
        "ภูมิพลอดุลยเดช ป.ร.",
        "ให้ไว้ ณ วันที่ ๙ กุมภาพันธ์ พ.ศ. ๒๕๓๙",
        "เป็นปีที่ ๕๑ ในรัชกาลปัจจุบัน"
      ]
    ],
    []
  ],
  "metadata": {
    "date_header": "2539-02-09",
    "date_modified": "2539-06-28",
    "date_original": "2539-04-21",
    "doctype": "พระราชกฤษฎีกา",
    "editors": [
      {
        "name": "วิชชุตา",
        "role": "ผู้จัดทำ",
        "date": "2554-02-07"
      },
      {
        "name": "นฤตยา",
        "role": "ผู้ตรวจ",
        "date": "2554-05-23"
      }
    ],
    "tag": "c104-2a-9996-update",
    "title": "จัดตั้งส่วนราชการในมหาวิทยาลัยธรรมศาสตร์ทบวงมหาวิทยาลัย"
  }
}