{
  "pages": [
    [
      [
        "พระราชกฤษฎีกา",
        "ว่าด้วยปริญญาในสาขาวิชา อักษรย่อสำหรับสาขาวิชา",
        "ครุยวิทยฐานะ และเข็มวิทยฐานะของมหาวิทยาลัยธรรมศาสตร์",
        "พ.ศ. ๒๕๔๕",
        "",
        "",
        "ภูมิพลอดุลยเดช ป.ร.",
        "ให้ไว้ ณ วันที่ ๑ กันยายน พ.ศ. ๒๕๔๕",
        "เป็นปีที่ ๕๗ ในรัชกาลปัจจุบัน"
      ]
    ],
    []
  ],
  "metadata": {
    "date_header": "2545-09-01",
    "date_modified": "2550-07-06",
    "date_original": "2545-09-13",
    "doctype": "พระราชกฤษฎีกา",
    "editors": [
      {
        "name": "วิชชุตา",
        "role": "ผู้จัดทำ",
        "date": "2554-02-08"
      },
      {
        "name": "นฤตยา",
        "role": "ผู้ตรวจ",
        "date": "2554-05-23"
      }
    ],
    "tag": "c104-2a-9995-update",
    "title": "ว่าด้วยปริญญาในสาขาวิชา อักษรย่อสำหรับสาขาวิชาครุยวิทยฐานะ และเข็มวิทยฐานะของมหาวิทยาลัยธรรมศาสตร์"
  }
}