{
  "pages": [
    [
      [
        "ข้อบังคับ",
        "เนติบัณฑิตยสภา",
        "พ.ศ. ๒๕๐๗"
      ]
    ],
    []
  ],
  "metadata": {
    "date_modified": "2508-10-05",
    "date_original": "2507-04-21",
    "editors": [
      {
        "name": "วรวิมล",
        "role": "ผู้จัดทำ",
        "date": "2553-10-26"
      },
      {
        "name": "กวินทราดา",
        "role": "ผู้ตรวจ",
        "date": "2553-11-03"
      }
    ],
    "tag": "b903-2i-2508-002"
  }
}