{
  "pages": [
    [
      [
        "กฎกระทรวง",
        "(พ.ศ. ๒๕๒๘)",
        "ออกตามความในพระราชบัญญัติจัดสรรเงินภาษีสุรา",
        "พ.ศ. ๒๕๒๗"
      ]
    ],
    []
  ],
  "metadata": {
    "date_backmatter": "2528-02-20",
    "date_modified": "2528-03-08",
    "date_original": "2528-03-08",
    "doctype": "กฎกระทรวง",
    "editors": [
      {
        "name": "พัสสน",
        "role": "ผู้จัดทำ",
        "date": "2552-10-22"
      }
    ],
    "tag": "a809-2b-2528-001"
  }
}