{
  "pages": [
    [
      [
        "พระราชบัญญัติ",
        "คุ้มครองการดำเนินงานขององค์การข่ายงานศูนย์เพาะเลี้ยงสัตว์น้ำ",
        "แห่งเอเชียและแปซิฟิก",
        "พ.ศ. ๒๕๓๖",
        "",
        "",
        "ภูมิพลอดุลยเดช ป.ร.",
        "ให้ไว้ ณ วันที่ ๔ กันยายน พ.ศ. ๒๕๓๖",
        "เป็นปีที่ ๔๘ ในรัชกาลปัจจุบัน"
      ]
    ],
    []
  ],
  "metadata": {
    "date_header": "2536-09-04",
    "date_modified": "2536-09-16",
    "date_original": "2536-09-16",
    "doctype": "พระราชบัญญัติ",
    "editors": [
      {
        "name": "ณัฐพร",
        "role": "แก้ไข",
        "date": "2553-10-04"
      },
      {
        "name": "วศิน",
        "role": "ตรวจ",
        "date": "2553-10-04"
      }
    ],
    "tag": "a467-20-2536-001",
    "title": "คุ้มครองการดำเนินงานขององค์การข่ายงานศูนย์เพาะเลี้ยงสัตว์น้ำแห่งเอเชียและแปซิฟิก"
  }
}