{
  "pages": [
    [
      [
        "ประกาศทบวงมหาวิทยาลัย",
        "เรื่อง การแบ่งส่วนราชการในมหาวิทยาลัยศิลปากร (ฉบับที่ ๔)",
        "พ.ศ. ๒๕๒๘"
      ]
    ],
    []
  ],
  "metadata": {
    "date_backmatter": "2528-06-05",
    "date_modified": "2528-06-19",
    "date_original": "2528-06-19",
    "doctype": "ประกาศ",
    "editors": [
      {
        "name": "กนกพร",
        "role": "ผู้จัดทำ",
        "date": "2553-11-04"
      },
      {
        "name": "กวินทราดา",
        "role": "ผู้ตรวจ"
      }
    ],
    "tag": "c108-2e-2528-a002"
  }
}