{
  "pages": [
    [
      [
        "ประกาศทบวงมหาวิทยาลัย",
        "เรื่อง การแบ่งส่วนราชการในมหาวิทยาลัยศิลปากร",
        "พ.ศ. ๒๕๒๖"
      ]
    ],
    []
  ],
  "metadata": {
    "date_backmatter": "2526-06-24",
    "date_modified": "2532-08-23",
    "date_original": "2526-06-29",
    "doctype": "ประกาศ",
    "editors": [
      {
        "name": "กนกพร",
        "role": "ผู้จัดทำ",
        "date": "2553-11-16"
      },
      {
        "name": "กวินทราดา",
        "role": "ผู้ตรวจ"
      }
    ],
    "tag": "c108-2e-2532-001u"
  }
}