{
  "pages": [
    [
      [
        "ระเบียบกรมสวัสดิการและคุ้มครองแรงงาน",
        "ว่าด้วยการดำเนินคดีอาญาและการเปรียบเทียบผู้กระทำความผิด",
        "ตามกฎหมายว่าด้วยการคุ้มครองแรงงานและความปลอดภัยในการทำงาน",
        "พ.ศ. ๒๕๕๘"
      ]
    ],
    []
  ],
  "metadata": {
    "date_backmatter": "2558-09-25",
    "date_modified": "2559-08-23",
    "date_original": "2558-10-02",
    "editors": [
      {
        "name": "วริญา",
        "role": "เพิ่มเติม",
        "date": "2559-08-24"
      },
      {
        "name": "นุสรา",
        "role": "ตรวจ",
        "date": "2559-11-17"
      }
    ],
    "tag": "a477-2g-2559-a0003"
  }
}