{
  "pages": [
    [
      [
        "ประกาศกรมสวัสดิการและคุ้มครองแรงงาน",
        "เรื่อง ชนิดและประเภทเครื่องจักรและอุปกรณ์ที่ใช้ในการทำงานก่อสร้างที่ต้องตรวจรับรองประจำปี"
      ]
    ],
    []
  ],
  "metadata": {
    "date_backmatter": "2554-07-12",
    "date_modified": "2554-07-14",
    "date_original": "2554-07-14",
    "doctype": "ประกาศ",
    "editors": [
      {
        "name": "ปริยานุช",
        "role": "ผู้จัดทำ",
        "date": "2554-08-02"
      },
      {
        "name": "ณัฐวดี",
        "role": "ตรวจ",
        "date": "2554-08-02"
      }
    ],
    "tag": "a477-2e-2554-a0009"
  }
}