{
  "pages": [
    [
      [
        "ประกาศกรมสวัสดิการและคุ้มครองแรงงาน",
        "เรื่อง กำหนดระยะเวลาและวิธีการจ่ายค่าจ้าง ค่าล่วงเวลา",
        "ค่าทำงานในวันหยุด และค่าล่วงเวลาในวันหยุด",
        "ในกิจการบรรทุกหรือขนถ่ายสินค้าเรือเดินทะเล"
      ]
    ],
    []
  ],
  "metadata": {
    "date_backmatter": "2539-02-18",
    "date_modified": "2539-05-09",
    "date_original": "2539-05-09",
    "doctype": "ประกาศ",
    "editors": [
      {
        "name": "ประภาศรี",
        "role": "พิมพ์",
        "date": "2551-04-25"
      },
      {
        "name": "รัศม์วรรณวลัย",
        "role": "ตรวจ",
        "date": "2551-04-29"
      }
    ],
    "tag": "a477-2e-2539-a0003"
  }
}