{
  "pages": [
    [
      [
        "ประกาศกระทรวงแรงงาน",
        "เรื่อง อัตราค่าจ้างขั้นต่ำ"
      ]
    ],
    []
  ],
  "metadata": {
    "date_backmatter": "2545-12-23",
    "date_modified": "2546-07-31",
    "date_original": "2545-12-25",
    "doctype": "ประกาศ",
    "editors": [
      {
        "name": "รัศม์วรรณวลัย",
        "role": "ผู้จัดทำ",
        "date": "2551-10-16"
      }
    ],
    "tag": "a477-2e-9995-update"
  }
}