{
  "pages": [
    [
      [
        "ประกาศกรมสวัสดิการและคุ้มครองแรงงาน",
        "เรื่อง หลักเกณฑ์และวิธีการ การใช้เชือก ลวดสลิง และรอก",
        "พ.ศ. ๒๕๕๓"
      ]
    ],
    []
  ],
  "metadata": {
    "date_backmatter": "2553-11-16",
    "date_modified": "2553-12-17",
    "date_original": "2553-12-17",
    "doctype": "ประกาศ",
    "editors": [
      {
        "name": "ปริยานุช",
        "role": "ผู้จัดทำ",
        "date": "2553-12-28"
      },
      {
        "name": "ณัฐวดี",
        "role": "ตรวจ",
        "date": "2553-12-28"
      }
    ],
    "tag": "a477-2e-2553-a0013"
  }
}