{
  "pages": [
    [
      [
        "กฎกระทรวง",
        "ฉบับที่ ๗ (พ.ศ. ๒๕๔๑)",
        "ออกตามความในพระราชบัญญัติคุ้มครองแรงงาน",
        "พ.ศ. ๒๕๔๑"
      ]
    ],
    []
  ],
  "metadata": {
    "date_backmatter": "2541-08-22",
    "date_modified": "2543-02-07",
    "date_original": "2541-08-24",
    "doctype": "กฎกระทรวง",
    "editors": [
      {
        "name": "พรพิมล",
        "role": "พิมพ์",
        "date": "2544-07-24"
      },
      {
        "name": "สุนันทา",
        "role": "ผู้จัดทำ",
        "date": "2549-11-06"
      }
    ],
    "tag": "a477-2b-9999-update"
  }
}