{
  "pages": [
    [
      [
        "คำสั่งกรมสวัสดิการและคุ้มครองแรงงาน",
        "ที่ ๑๒๙๕/๒๕๔๑",
        "เรื่อง มอบหมายอำนาจหน้าที่ตามพระราชบัญญัติคุ้มครองแรงงาน พ.ศ. ๒๕๔๑"
      ]
    ],
    []
  ],
  "metadata": {
    "date_backmatter": "2541-12-01",
    "date_modified": "2541-12-17",
    "date_original": "2541-12-17",
    "editors": [
      {
        "name": "สุกัญญา",
        "role": "พิมพ์",
        "date": "2550-07-23"
      },
      {
        "name": "รัศม์วรรณวลัย",
        "role": "ตรวจ",
        "date": "2551-04-11"
      }
    ],
    "tag": "a477-2f-2541-a0001"
  }
}