{
  "pages": [
    [
      [
        "ประกาศกรมสวัสดิการและคุ้มครองแรงงาน",
        "เรื่อง ช่วงเวลาการทำงานในวันทำงานปกติและในวันหยุด",
        "ในงานบรรทุกหรือขนถ่ายสินค้าเรือเดินทะเล"
      ]
    ],
    []
  ],
  "metadata": {
    "date_backmatter": "2541-09-16",
    "date_gz_old": "2541-09-23",
    "doctype": "ประกาศ",
    "editors": [],
    "tag": "a477-2e-2541-a002"
  }
}