{
  "pages": [
    [
      [
        "ประกาศกรมสวัสดิการและคุ้มครองแรงงาน",
        "เรื่อง หลักเกณฑ์และวิธีการขึ้นทะเบียนเป็นหน่วยงานฝึกอบรมการดับเพลิงขั้นต้น",
        "หน่วยงานฝึกซ้อมดับเพลิงและหนีไฟ"
      ]
    ],
    []
  ],
  "metadata": {
    "date_backmatter": "2549-09-27",
    "date_modified": "2549-11-30",
    "date_original": "2549-11-30",
    "doctype": "ประกาศ",
    "editors": [
      {
        "name": "วัชศักดิ์",
        "role": "ผู้จัดทำ",
        "date": "2549-12-13"
      }
    ],
    "tag": "a477-2e-2549-a0009"
  }
}