{
  "pages": [
    [
      [
        "คำสั่งกระทรวงแรงงาน",
        "ที่ ๑๓๘/๒๕๖๑",
        "เรื่อง แต่งตั้งพนักงานตรวจแรงงานตามพระราชบัญญัติคุ้มครองแรงงาน พ.ศ. ๒๕๔๑"
      ]
    ],
    []
  ],
  "metadata": {
    "date_backmatter": "2561-04-03",
    "date_modified": "2561-05-09",
    "date_original": "2561-05-09",
    "editors": [
      {
        "name": "พิมพ์มาดา",
        "role": "จัดทำ",
        "date": "2561-06-18"
      }
    ],
    "tag": "a477-2f-2561-a0001"
  }
}