{
  "pages": [
    [
      [
        "กฎกระทรวง",
        "ฉบับที่ ๖ (พ.ศ. ๒๕๔๑)",
        "ออกตามความในพระราชบัญญัติคุ้มครองแรงงาน",
        "พ.ศ. ๒๕๔๑"
      ]
    ],
    []
  ],
  "metadata": {
    "date_backmatter": "2541-08-19",
    "date_gz_old": "2541-08-19",
    "doctype": "กฎกระทรวง",
    "editors": [
      {
        "name": "พรพิมล",
        "role": "พิมพ์ฺ",
        "date": "2544-07-24"
      }
    ],
    "tag": "a477-2b-2541-a006"
  }
}