{
  "pages": [
    [
      [
        "กฎกระทรวง",
        "ฉบับที่ ๑๓ (พ.ศ. ๒๕๔๓)",
        "ออกตามความในพระราชบัญญัติคุ้มครองแรงงาน พ.ศ. ๒๕๔๑"
      ]
    ],
    []
  ],
  "metadata": {
    "date_backmatter": "2543-01-27",
    "date_modified": "2543-02-07",
    "date_original": "2543-02-07",
    "doctype": "กฎกระทรวง",
    "editors": [],
    "tag": "a477-2b-2543-a0001"
  }
}