{
  "pages": [
    [
      [
        "พระราชบัญญัติ",
        "คุ้มครองแรงงาน (ฉบับที่ ๖)",
        "พ.ศ. ๒๕๖๐",
        "",
        "",
        "สมเด็จพระเจ้าอยู่หัวมหาวชิราลงกรณ บดินทรเทพยวรางกูร",
        "ให้ไว้ ณ วันที่ ๒๗ สิงหาคม พ.ศ. ๒๕๖๐",
        "เป็นปีที่ ๒ ในรัชกาลปัจจุบัน"
      ]
    ],
    []
  ],
  "metadata": {
    "date_header": "2560-08-27",
    "date_modified": "2560-08-31",
    "date_original": "2560-08-31",
    "doctype": "พระราชบัญญัติ",
    "editors": [
      {
        "name": "ปุณิกา/ภวรรณตรี",
        "role": "จัดทำ",
        "date": "2560-09-01"
      },
      {
        "name": "วิชพงษ์",
        "role": "ตรวจ",
        "date": "2560-09-05"
      }
    ],
    "tag": "a477-20-2560-a0004",
    "title": "คุ้มครองแรงงาน (ฉบับที่ ๖)"
  }
}