{
  "pages": [
    [
      [
        "ประกาศกรมการจัดหางาน",
        "เรื่อง กำหนดแบบหนังสือรับรองการจ้าง"
      ]
    ],
    []
  ],
  "metadata": {
    "date_backmatter": "2554-06-21",
    "date_modified": "2554-07-12",
    "date_original": "2554-07-12",
    "doctype": "ประกาศ",
    "editors": [
      {
        "name": "ปริยานุช",
        "role": "ผู้จัดทำ",
        "date": "2554-08-03"
      },
      {
        "name": "ณัฐวดี",
        "role": "ตรวจ",
        "date": "2554-08-03"
      }
    ],
    "tag": "a477-2e-2554-a0005"
  }
}