{
  "pages": [
    [
      [
        "กฎกระทรวง",
        "คุ้มครองแรงงานในงานประมงทะเล",
        "พ.ศ. ๒๕๕๗"
      ]
    ],
    []
  ],
  "metadata": {
    "date_backmatter": "2557-12-22",
    "date_modified": "2561-04-02",
    "date_original": "2557-12-30",
    "doctype": "กฎกระทรวง",
    "editors": [
      {
        "name": "ปริยานุช",
        "role": "จัดทำ",
        "date": "2558-01-05"
      },
      {
        "name": "วันทิตา",
        "role": "ตรวจ",
        "date": "2558-01-15"
      },
      {
        "name": "ปุณิกา",
        "role": "จัดทำ",
        "date": "2561-08-03"
      }
    ],
    "tag": "a477-2b-9996-update"
  }
}