{
  "pages": [
    [
      [
        "ระเบียบกรมสวัสดิการและคุ้มครองแรงงาน",
        "ว่าด้วยการนำส่งเงินเพื่อเก็บรักษาในกองทุนสงเคราะห์ลูกจ้าง",
        "และการจ่ายคืน พ.ศ. 2542"
      ]
    ],
    []
  ],
  "metadata": {
    "date_backmatter": "2542-12-14",
    "date_gz_old": "2543-01-04",
    "editors": [],
    "tag": "a477-2g-2543-a0001"
  }
}