{
  "pages": [
    [
      [
        "ประกาศกระทรวงแรงงานและสวัสดิการสังคม",
        "เรื่อง การคุ้มครองแรงงานในกิจการประมงทะเล (ฉบับที่ ๓)"
      ]
    ],
    []
  ],
  "metadata": {
    "date_backmatter": "2538-07-31",
    "date_modified": "2538-07-31",
    "date_original": "2538-07-31",
    "doctype": "ประกาศ",
    "editors": [
      {
        "name": "อุษมล",
        "role": "ผู้จัดทำ",
        "date": "2554-12-22"
      }
    ],
    "tag": "a477-2e-2538-a0002"
  }
}