{
  "pages": [
    [
      [
        "ประกาศกองทัพเรือ",
        "เรื่องเทียบตำแหน่งเจ้าหน้าที่ทหารเรือ",
        "(ฉบับที่ ๓)"
      ]
    ],
    []
  ],
  "metadata": {
    "date_backmatter": "2492-04-29",
    "date_modified": "2492-05-17",
    "date_original": "2492-05-17",
    "doctype": "ประกาศ",
    "editors": [
      {
        "name": "ดลธี",
        "role": "พิมพ์",
        "date": "2554-02-02"
      }
    ],
    "tag": "cb07-2e-2492-a0001"
  }
}