{
  "pages": [
    [
      [
        "พระราชบัญญัติ",
        "ให้อำนาจทหารเรือปราบปรามการกระทำความผิด",
        "บางอย่างทางทะเล (ฉบับที่ ๒)",
        "พ.ศ. ๒๕๒๒",
        "",
        "",
        "ภูมิพลอดุลยเดช ป.ร.",
        "ให้ไว้ ณ วันที่ ๒๒ เมษายน พ.ศ. ๒๕๒๒",
        "เป็นปีที่ ๓๔ ในรัชกาลปัจจุบัน"
      ]
    ],
    []
  ],
  "metadata": {
    "date_header": "2522-04-22",
    "date_modified": "2522-04-22",
    "date_original": "2522-04-22",
    "doctype": "พระราชบัญญัติ",
    "editors": [
      {
        "name": "วสุ สรรกำเนิด",
        "role": "ผู้ปรับปรุง",
        "date": "2552-05-15"
      },
      {
        "name": "สุทธนา",
        "role": "ปรับปรุง",
        "date": "2556-11-18"
      },
      {
        "name": "วิชพงษ์",
        "role": "ตรวจ",
        "date": "2556-12-23"
      }
    ],
    "tag": "cb07-20-2522-002",
    "title": "ให้อำนาจทหารเรือปราบปรามการกระทำความผิดบางอย่างทางทะเล (ฉบับที่ ๒)"
  }
}