{
  "pages": [
    [
      [
        "พระราชบัญญัติ",
        "ให้อำนาจทหารเรือปราบปรามการกระทำความผิด",
        "บางอย่างทางทะเล",
        "พ.ศ. ๒๔๙๐",
        "",
        "",
        "ในพระปรมาภิไธยสมเด็จพระเจ้าอยู่หัวภูมิพลอดุลยเดช",
        "คณะอภิรัฐมนตรี ในหน้าที่คณะผู้สำเร็จราชการแทนพระองค์",
        "รังสิต กรมขุนชัยนาทนเรนทร",
        "อลงกฏ",
        "ธานีนิวัต",
        "มานวราชเสวี",
        "อดุลเดชจรัส",
        "ให้ไว้ ณ วันที่ ๑๕ ธันวาคม พ.ศ. ๒๔๙๐",
        "เป็นปีที่ ๒ ในรัชกาลปัจจุบัน"
      ]
    ],
    []
  ],
  "metadata": {
    "date_header": "2490-12-15",
    "date_modified": "2534-12-29",
    "date_original": "2490-12-16",
    "doctype": "พระราชบัญญัติ",
    "editors": [
      {
        "name": "ณัฐพร",
        "role": "แก้ไข",
        "date": "2553-10-06"
      },
      {
        "name": "วศิน",
        "role": "ตรวจ",
        "date": "2553-10-06"
      },
      {
        "name": "สุทธนา",
        "role": "ปรับปรุง",
        "date": "2556-11-18"
      },
      {
        "name": "วิชพงษ์",
        "role": "ตรวจ",
        "date": "2556-12-23"
      }
    ],
    "tag": "cb07-20-9999-update",
    "title": "ให้อำนาจทหารเรือปราบปรามการกระทำความผิดบางอย่างทางทะเล"
  }
}