{
  "pages": [
    [
      [
        "ประกาศกระทรวงศึกษาธิการ",
        "เรื่อง การแบ่งส่วนราชการในมหาวิทยาลัยราชภัฏบุรีรัมย์",
        "พ.ศ. ๒๕๔๙"
      ]
    ],
    []
  ],
  "metadata": {
    "date_backmatter": "2549-05-22",
    "date_modified": "2549-06-29",
    "date_original": "2549-06-29",
    "doctype": "ประกาศ",
    "editors": [
      {
        "name": "ปริญสินีย์",
        "role": "ผู้จัดทำ",
        "date": "2554-04-26"
      },
      {
        "name": "คุณากร",
        "role": "ผู้ตรวจ"
      }
    ],
    "tag": "c134-2e-2549-a0010"
  }
}