{
  "pages": [
    [
      [
        "พระราชกฤษฎีกา",
        "ว่าด้วยปริญญาในสาขาวิชา อักษรย่อสำหรับสาขาวิชา",
        "ครุยวิทยฐานะ เข็มวิทยฐานะ และครุยประจำตำแหน่ง",
        "ของมหาวิทยาลัยราชภัฏชัยภูมิ",
        "พ.ศ. ๒๕๕๓",
        "",
        "",
        "ภูมิพลอดุลยเดช ป.ร",
        "ให้ไว้ ณ วันที่ ๒๔ มิถุนายน พ.ศ. ๒๕๕๓",
        "เป็นปีที่ ๖๕ ในรัชกาลปัจจุบัน"
      ]
    ],
    []
  ],
  "metadata": {
    "date_header": "2553-06-24",
    "date_modified": "2558-04-10",
    "date_original": "2553-07-02",
    "doctype": "พระราชกฤษฎีกา",
    "editors": [
      {
        "name": "ปุณิกา",
        "role": "ผู้จัดทำ",
        "date": "2558-05-07"
      },
      {
        "name": "นุสรา",
        "role": "ผู้ตรวจ",
        "date": "2558-06-18"
      }
    ],
    "tag": "c134-2a-2558-a0017",
    "title": "ว่าด้วยปริญญาในสาขาวิชา อักษรย่อสำหรับสาขาวิชาครุยวิทยฐานะ เข็มวิทยฐานะ และครุยประจำตำแหน่งของมหาวิทยาลัยราชภัฏชัยภูมิ"
  }
}