{
  "pages": [
    [
      [
        "พระราชกฤษฎีกา",
        "ว่าด้วยปริญญาในสาขาวิชา อักษรย่อสำหรับสาขาวิชา ครุยวิทยฐานะ เข็มวิทยฐานะ",
        "และครุยประจำตำแหน่งของมหาวิทยาลัยราชภัฏธนบุรี (ฉบับที่ ๓)",
        "พ.ศ. ๒๕๕๙",
        "",
        "",
        "ภูมิพลอดุลยเดช ป.ร.",
        "ให้ไว้ ณ วันที่ ๔ มีนาคม พ.ศ. ๒๕๕๙",
        "เป็นปีที่ ๗๑ ในรัชกาลปัจจุบัน"
      ]
    ],
    []
  ],
  "metadata": {
    "date_header": "2559-03-04",
    "date_modified": "2559-03-11",
    "date_original": "2559-03-11",
    "doctype": "พระราชกฤษฎีกา",
    "editors": [
      {
        "name": "ปุณิกา/ปริยานุช",
        "role": "จัดทำ",
        "date": "2559-03-14"
      },
      {
        "name": "นุสรา",
        "role": "ตรวจ",
        "date": "2559-03-24"
      }
    ],
    "tag": "c134-2a-2559-a0006",
    "title": "ว่าด้วยปริญญาในสาขาวิชา อักษรย่อสำหรับสาขาวิชา ครุยวิทยฐานะ เข็มวิทยฐานะและครุยประจำตำแหน่งของมหาวิทยาลัยราชภัฏธนบุรี (ฉบับที่ ๓)"
  }
}