{
  "pages": [
    [
      [
        "ข้อบังคับสภามหาวิทยาลัยราชภัฎสวนสุนันทา",
        "ว่าด้วยหลักเกณฑ์ วิธีการ และเงื่อนไขการกลับเข้ารับราชการ การนับวันรับราชการ",
        "และเงินเดือนที่จะได้รับของผู้ขอกลับเข้ารับราชการเป็นข้าราชการพลเรือนในสถาบันอุดมศึกษา",
        "พ.ศ. ๒๕๕๑"
      ]
    ],
    []
  ],
  "metadata": {
    "date_backmatter": "2551-12-22",
    "date_modified": "2552-04-07",
    "date_original": "2552-04-07",
    "editors": [
      {
        "name": "ปริญสินีย์",
        "role": "ผู้จัดทำ",
        "date": "2554-04-28"
      },
      {
        "name": "คุณากร",
        "role": "ผู้ตรวจ"
      }
    ],
    "tag": "c134-2i-2552-a0004"
  }
}