{
  "pages": [
    [
      [
        "พระราชกฤษฎีกา",
        "ว่าด้วยปริญญาในสาขาวิชา อักษรย่อสำหรับสาขาวิชา",
        "ครุยวิทยฐานะ เข็มวิทยฐานะ และครุยประจำตำแหน่ง",
        "ของมหาวิทยาลัยราชภัฏเพชรบูรณ์",
        "พ.ศ. ๒๕๕๓",
        "",
        "",
        "ภูมิพลอดุลยเดช ป.ร.",
        "ให้ไว้ ณ วันที่ ๑ ธันวาคม พ.ศ. ๒๕๕๓",
        "เป็นปีที่ ๖๕ ในรัชกาลปัจจุบัน"
      ]
    ],
    []
  ],
  "metadata": {
    "date_header": "2553-12-01",
    "date_modified": "2553-12-14",
    "date_original": "2553-12-14",
    "doctype": "พระราชกฤษฎีกา",
    "editors": [
      {
        "name": "ปริญสินีย์",
        "role": "ผู้จัดทำ",
        "date": "2554-04-11"
      },
      {
        "name": "คุณากร",
        "role": "ผู้ตรวจ"
      }
    ],
    "tag": "c134-2a-2553-a0012",
    "title": "ว่าด้วยปริญญาในสาขาวิชา อักษรย่อสำหรับสาขาวิชาครุยวิทยฐานะ เข็มวิทยฐานะ และครุยประจำตำแหน่งของมหาวิทยาลัยราชภัฏเพชรบูรณ์"
  }
}