{
  "pages": [
    [
      [
        "ข้อบังคับสภามหาวิทยาลัยราชภัฏสวนสุนันทา",
        "ว่าด้วยการจัดตั้งบัณฑิตวิทยาลัย",
        "พ.ศ. ๒๕๕๑"
      ]
    ],
    []
  ],
  "metadata": {
    "date_backmatter": "2551-11-24",
    "date_modified": "2552-04-07",
    "date_original": "2552-04-07",
    "editors": [
      {
        "name": "ปริญสินีย์",
        "role": "ผู้จัดทำ",
        "date": "2554-04-28"
      },
      {
        "name": "คุณากร",
        "role": "ผู้ตรวจ"
      }
    ],
    "tag": "c134-2i-2552-a0002"
  }
}