{
  "pages": [
    [
      [
        "กฎกระทรวง",
        "จัดตั้งส่วนราชการในมหาวิทยาลัยราชภัฏสุราษฎร์ธานี",
        "กระทรวงศึกษาธิการ",
        "พ.ศ. ๒๕๔๘"
      ]
    ],
    []
  ],
  "metadata": {
    "date_backmatter": "2548-03-01",
    "date_modified": "2548-03-08",
    "date_original": "2548-03-08",
    "doctype": "กฎกระทรวง",
    "editors": [
      {
        "name": "ปริญสินีย์",
        "role": "ผู้จัดทำ",
        "date": "2554-04-26"
      },
      {
        "name": "คุณากร",
        "role": "ผู้ตรวจ"
      }
    ],
    "tag": "c134-2b-2548-a0036"
  }
}