{
  "pages": [
    [
      [
        "ประกาศกระทรวงศึกษาธิการ",
        "เรื่อง การแบ่งส่วนราชการในมหาวิทยาลัยราชภัฏเชียงใหม่ (ฉบับที่ ๒)",
        "พ.ศ. ๒๕๕๘"
      ]
    ],
    []
  ],
  "metadata": {
    "date_backmatter": "2558-12-30",
    "date_modified": "2559-01-14",
    "date_original": "2559-01-14",
    "doctype": "ประกาศ",
    "editors": [
      {
        "name": "กัญฑรัตน์/ปริยานุช",
        "role": "จัดทำ",
        "date": "2559-01-18"
      }
    ],
    "tag": "c134-2e-2559-a0001"
  }
}