{
  "pages": [
    [
      [
        "พระราชกฤษฎีกา",
        "ว่าด้วยปริญญาในสาขาวิชา อักษรย่อสำหรับสาขาวิชา",
        "ครุยวิทยฐานะ เข็มวิทยฐานะ และครุยประจำตำแหน่ง",
        "ของมหาวิทยาลัยราชภัฏบ้านสมเด็จเจ้าพระยา",
        "พ.ศ. ๒๕๕๒",
        "",
        "",
        "ภูมิพลอดุลยเดช ป.ร.",
        "ให้ไว้ ณ วันที่ ๑๐ พฤศจิกายน พ.ศ. ๒๕๕๒",
        "เป็นปีที่ ๖๔ ในรัชกาลปัจจุบัน"
      ]
    ],
    []
  ],
  "metadata": {
    "date_header": "2552-11-10",
    "date_modified": "2552-11-20",
    "date_original": "2552-11-20",
    "doctype": "พระราชกฤษฎีกา",
    "editors": [
      {
        "name": "ปริญสินีย์",
        "role": "ผู้จัดทำ",
        "date": "2554-04-11"
      }
    ],
    "tag": "c134-2a-2552-a0009",
    "title": "ว่าด้วยปริญญาในสาขาวิชา อักษรย่อสำหรับสาขาวิชาครุยวิทยฐานะ เข็มวิทยฐานะ และครุยประจำตำแหน่งของมหาวิทยาลัยราชภัฏบ้านสมเด็จเจ้าพระยา"
  }
}