{
  "pages": [
    [
      [
        "พระราชกฤษฎีกา",
        "ว่าด้วยปริญญาในสาขาวิชา อักษรย่อสำหรับสาขาวิชา ครุยวิทยฐานะ เข็มวิทยฐานะ",
        "และครุยประจำตำแหน่งของมหาวิทยาลัยราชภัฏธนบุรี",
        "พ.ศ. ๒๕๕๒",
        "",
        "",
        "ภูมิพลอดุลยเดช ป.ร.",
        "ให้ไว้ ณ วันที่ ๑๐ สิงหาคม พ.ศ. ๒๕๕๒",
        "เป็นปีที่ ๖๔ ในรัชกาลปัจจุบัน"
      ]
    ],
    []
  ],
  "metadata": {
    "date_header": "2552-08-10",
    "date_modified": "2559-03-11",
    "date_original": "2552-08-26",
    "doctype": "พระราชกฤษฎีกา",
    "editors": [
      {
        "name": "นุสรา",
        "role": "ปรับปรุง",
        "date": "2559-03-29"
      }
    ],
    "tag": "c134-2a-9998-update",
    "title": "ว่าด้วยปริญญาในสาขาวิชา อักษรย่อสำหรับสาขาวิชา ครุยวิทยฐานะ เข็มวิทยฐานะและครุยประจำตำแหน่งของมหาวิทยาลัยราชภัฏธนบุรี"
  }
}