{
  "pages": [
    [
      [
        "ข้อบังคับมหาวิทยาลัยราชภัฏสวนสุนันทา",
        "ว่าด้วยคุณสมบัติ หลักเกณฑ์ และวิธีการสรรหานายกสภามหาวิทยาลัย",
        "พ.ศ. ๒๕๕๒"
      ]
    ],
    []
  ],
  "metadata": {
    "date_backmatter": "2552-08-26",
    "date_modified": "2552-11-20",
    "date_original": "2552-11-20",
    "editors": [
      {
        "name": "ปริญสินีย์",
        "role": "ผู้จัดทำ",
        "date": "2554-04-28"
      },
      {
        "name": "คุณากร",
        "role": "ผู้ตรวจ"
      }
    ],
    "tag": "c134-2i-2552-a0006"
  }
}