{
  "pages": [
    [
      [
        "กฎกระทรวง",
        "แบ่งส่วนราชการสำนักงานปลัดกระทรวง",
        "กระทรวงศึกษาธิการ (ฉบับที่ ๓)",
        "พ.ศ. ๒๕๕๖"
      ]
    ],
    []
  ],
  "metadata": {
    "date_backmatter": "2556-07-31",
    "date_modified": "2556-08-16",
    "date_original": "2556-08-16",
    "doctype": "กฎกระทรวง",
    "editors": [
      {
        "name": "ปริยานุช",
        "role": "ผู้จัดทำ",
        "date": "2556-08-19"
      },
      {
        "name": "ชาญ",
        "role": "ผู้ตรวจ",
        "date": "2556-08-30"
      }
    ],
    "tag": "c346-2b-2556-a0004"
  }
}