{
  "pages": [
    [
      [
        "ระเบียบกระทรวงศึกษาธิการ",
        "ว่าด้วยหลักเกณฑ์ วิธีการและเงื่อนไขการอุดหนุนเพื่อการพัฒนาศักยภาพการจัดการศึกษา",
        "ให้แก่โรงเรียนในจังหวัดชายแดนภาคใต้",
        "พ.ศ. ๒๕๕๖"
      ]
    ],
    []
  ],
  "metadata": {
    "date_backmatter": "2556-07-16",
    "date_modified": "2556-10-17",
    "date_original": "2556-10-17",
    "editors": [
      {
        "name": "ปริยานุช",
        "role": "ผู้จัดทำ",
        "date": "2556-10-18"
      },
      {
        "name": "โชติกานต์",
        "role": "ผู้ตรวจ",
        "date": "2556-10-24"
      }
    ],
    "tag": "c346-2g-2556-a0001"
  }
}