{
  "pages": [
    [
      [
        "กฎกระทรวง",
        "กำหนดหลักเกณฑ์และวิธีการประเมินความพร้อมในการจัดการศึกษาขั้นพื้นฐาน",
        "ขององค์กรปกครองส่วนท้องถิ่น (ฉบับที่ ๒)",
        "พ.ศ. ๒๕๔๙"
      ]
    ],
    []
  ],
  "metadata": {
    "date_backmatter": "2549-01-10",
    "date_modified": "2549-01-11",
    "date_original": "2549-01-11",
    "doctype": "กฎกระทรวง",
    "editors": [
      {
        "name": "ชัชสรัญ",
        "role": "ผู้จัดทำ",
        "date": "2549-01-17"
      }
    ],
    "tag": "c346-2b-2549-a0001"
  }
}