{
  "pages": [
    [
      [
        "ประกาศกระทรวงศึกษาธิการ",
        "เรื่อง หลักเกณฑ์การขอเปิดและดำเนินการหลักสูตรระดับปริญญา",
        "ในระบบการศึกษาทางไกล พ.ศ. ๒๕๔๘"
      ]
    ],
    []
  ],
  "metadata": {
    "date_backmatter": "2548-10-04",
    "date_modified": "2548-10-26",
    "date_original": "2548-10-26",
    "doctype": "ประกาศ",
    "editors": [
      {
        "name": "ฐิติพงษ์",
        "role": "ผู้จัดทำ",
        "date": "2548-11-03"
      },
      {
        "name": "ดลธี",
        "role": "ผู้จัดทำ",
        "date": "2552-02-11"
      },
      {
        "name": "พัชรินทร์",
        "role": "ตรวจ",
        "date": "2552-02-11"
      }
    ],
    "tag": "c346-2e-2548-a0006"
  }
}