{
  "pages": [
    [
      [
        "ประกาศกระทรวงศึกษาธิการ",
        "เรื่อง แก้ไขบัญชีรายละเอียด ๓ แนบท้ายประกาศกระทรวงศึกษาธิการ เรื่อง หลักเกณฑ์ วิธีการ",
        "เงื่อนไข ตัวชี้วัด และระดับคุณภาพในการประเมินความพร้อมในการจัดการศึกษาขั้นพื้นฐาน",
        "ขององค์กรปกครองส่วนท้องถิ่น พ.ศ. ๒๕๔๗"
      ]
    ],
    []
  ],
  "metadata": {
    "date_backmatter": "2549-12-01",
    "date_modified": "2549-12-20",
    "date_original": "2549-12-20",
    "doctype": "ประกาศ",
    "editors": [
      {
        "name": "วัชศักดิ์",
        "role": "ผู้จัดทำ",
        "date": "2549-12-26"
      }
    ],
    "tag": "c346-2e-2549-a0004"
  }
}