{
  "pages": [
    [
      [
        "ประกาศกระทรวงศึกษาธิการ",
        "เรื่อง มาตรฐานคุณวุฒิระดับบัณฑิตศึกษา สาขาวิชารัฐประศาสนศาสตร์",
        "พ.ศ. ๒๕๕๘"
      ]
    ],
    []
  ],
  "metadata": {
    "date_backmatter": "2558-06-26",
    "date_modified": "2558-07-22",
    "date_original": "2558-07-22",
    "doctype": "ประกาศ",
    "editors": [
      {
        "name": "ปริยานุช",
        "role": "ผู้จัดทำ",
        "date": "2558-07-24"
      },
      {
        "name": "วริญา",
        "role": "ผู้ตรวจ",
        "date": "2558-07-24"
      }
    ],
    "tag": "c346-2e-2558-a0004"
  }
}