{
  "pages": [
    [
      [
        "ประกาศกระทรวงศึกษาธิการ",
        "เรื่อง มาตรฐานคุณวุฒิระดับบัณฑิตศึกษา สาขาพยาบาลศาสตร์",
        "พ.ศ. ๒๕๖๐"
      ]
    ],
    []
  ],
  "metadata": {
    "date_backmatter": "2560-11-06",
    "date_modified": "2561-01-03",
    "date_original": "2561-01-03",
    "doctype": "ประกาศ",
    "editors": [
      {
        "name": "ภวรรณตรี",
        "role": "จัดทำ",
        "date": "2561-01-11"
      },
      {
        "name": "พิมพ์มาดา",
        "role": "ตรวจ",
        "date": "2561-02-11"
      }
    ],
    "tag": "c346-2e-2561-a0002"
  }
}