{
  "pages": [
    [
      [
        "ประกาศกระทรวงศึกษาธิการ",
        "เรื่อง มาตรฐานคุณวุฒิระดับปริญญาตรี สาขาวิทยาศาสตร์และเทคโนโลยีสิ่งแวดล้อม",
        "พ.ศ. ๒๕๕๙"
      ]
    ],
    []
  ],
  "metadata": {
    "date_backmatter": "2559-09-16",
    "date_modified": "2559-11-14",
    "date_original": "2559-11-14",
    "doctype": "ประกาศ",
    "editors": [
      {
        "name": "ปริยานุช",
        "role": "จัดทำ",
        "date": "2559-11-21"
      },
      {
        "name": "วิศนี",
        "role": "ตรวจ",
        "date": "2559-11-21"
      }
    ],
    "tag": "c346-2e-2559-a0005"
  }
}