{
  "pages": [
    [
      [
        "ระเบียบกระทรวงศึกษาธิการ",
        "ว่าด้วยการจัดการศึกษาและการประเมินผลการเรียนตามหลักสูตรประกาศนียบัตรวิชาชีพ",
        "พุทธศักราช ๒๕๕๖"
      ]
    ],
    []
  ],
  "metadata": {
    "date_backmatter": "2559-06-20",
    "date_modified": "2559-09-08",
    "date_original": "2559-09-08",
    "editors": [
      {
        "name": "วิศนี/ปริยานุช",
        "role": "จัดทำ",
        "date": "2559-09-14"
      }
    ],
    "tag": "c346-2g-2559-a0001"
  }
}