{
  "pages": [
    [
      [
        "ระเบียบกระทรวงศึกษาธิการ",
        "ว่าด้วยการตรวจราชการ การติดตาม ตรวจสอบ และประเมินผลการจัดการศึกษา",
        "พ.ศ. ๒๕๖๐"
      ]
    ],
    []
  ],
  "metadata": {
    "date_backmatter": "2560-07-21",
    "date_modified": "2560-09-08",
    "date_original": "2560-09-08",
    "editors": [
      {
        "name": "พรวิภา/อัญชลี",
        "role": "จัดทำ",
        "date": "2560-09-11"
      }
    ],
    "tag": "c346-2g-2560-a0001"
  }
}