{
  "pages": [
    [
      [
        "ประกาศกระทรวงศึกษาธิการ",
        "เรื่อง ปรับปรุงแก้ไขการกำหนดเขตพื้นที่การศึกษา และกำหนดเขตพื้นที่การศึกษาเพิ่มเติม",
        "พ.ศ. ๒๕๕๐"
      ]
    ],
    []
  ],
  "metadata": {
    "date_backmatter": "2550-02-09",
    "date_modified": "2550-03-14",
    "date_original": "2550-03-14",
    "doctype": "ประกาศ",
    "editors": [
      {
        "name": "วัชศักดิ์",
        "role": "ผู้จัดทำ",
        "date": "2550-03-19"
      },
      {
        "name": "ดลธี",
        "role": "ผู้จัดทำ",
        "date": "2552-02-11"
      },
      {
        "name": "พัชรินทร์",
        "role": "ตรวจ",
        "date": "2552-02-11"
      }
    ],
    "tag": "c346-2e-2550-a0002"
  }
}