{
  "pages": [
    [
      [
        "ประกาศกระทรวงสาธารณสุข",
        "เรื่อง รายชื่อสถานบำบัดรักษาทางสุขภาพจิต (ฉบับที่ ๖)",
        "พ.ศ. ๒๕๕๙"
      ]
    ],
    []
  ],
  "metadata": {
    "date_backmatter": "2559-06-22",
    "date_modified": "2559-07-28",
    "date_original": "2559-07-28",
    "doctype": "ประกาศ",
    "editors": [
      {
        "name": "ปุณิกา/ปริยานุช",
        "role": "จัดทำ",
        "date": "2559-08-01"
      },
      {
        "name": "นุสรา",
        "role": "ตรวจ",
        "date": "2559-11-01"
      }
    ],
    "tag": "ca79-2e-2559-a0001"
  }
}