{
  "pages": [
    [
      [
        "ระเบียบคณะกรรมการสุขภาพจิตแห่งชาติ",
        "ว่าด้วยหลักเกณฑ์และวิธีการในการพิจารณาเพื่อมีคำสั่งให้บุคคลต้องเข้ารับการบำบัดรักษา",
        "พ.ศ. ๒๕๕๑"
      ]
    ],
    []
  ],
  "metadata": {
    "date_backmatter": "2551-08-06",
    "date_modified": "2551-10-28",
    "date_original": "2551-10-28",
    "editors": [
      {
        "name": "ปริยานุช",
        "role": "ผู้จัดทำ",
        "date": "2551-11-04"
      },
      {
        "name": "ชุติมา",
        "role": "ปรับปรุง",
        "date": "2561-02-20"
      }
    ],
    "tag": "ca79-2g-2551-a0007"
  }
}