{
  "pages": [
    [
      [
        "ระเบียบกระทรวงสาธารณสุข",
        "ว่าด้วยการเลือกและการแต่งตั้งผู้แทนองค์กรภาคเอกชนและผู้ทรงคุณวุฒิ",
        "เป็นกรรมการอุทธรณ์ (ฉบับที่ ๒)",
        "พ.ศ. ๒๕๕๙"
      ]
    ],
    []
  ],
  "metadata": {
    "date_backmatter": "2559-09-30",
    "date_modified": "2559-11-14",
    "date_original": "2559-11-14",
    "editors": [
      {
        "name": "ปริยานุช",
        "role": "จัดทำ",
        "date": "2559-11-21"
      },
      {
        "name": "วิศนี",
        "role": "ตรวจ",
        "date": "2559-11-21"
      }
    ],
    "tag": "ca79-2g-2559-a0004"
  }
}