{
  "pages": [
    [
      [
        "ประกาศกระทรวงสาธารณสุข",
        "เรื่อง แต่งตั้งพนักงานเจ้าหน้าที่",
        "พ.ศ. ๒๕๕๑"
      ]
    ],
    []
  ],
  "metadata": {
    "date_backmatter": "2552-03-30",
    "date_modified": "2555-05-14",
    "date_original": "2552-06-04",
    "doctype": "ประกาศ",
    "editors": [
      {
        "name": "ปณตภร",
        "role": "ผู้จัดทำ",
        "date": "2555-07-02"
      },
      {
        "name": "ชุติมา",
        "role": "ปรับปรุง",
        "date": "2561-02-20"
      }
    ],
    "tag": "ca79-2e-2555-a0004"
  }
}