{
  "pages": [
    [
      [
        "พระราชกฤษฎีกา",
        "กำหนดเขตที่ดิน ในท้องที่ตำบลน้ำตก และตำบลกะปาง",
        "อำเภอทุ่งสง จังหวัดนครศรีธรรมราช",
        "ให้เป็นเขตปฏิรูปที่ดิน",
        "พ.ศ. ๒๕๕๕",
        "",
        "",
        "ภูมิพลอดุลยเดช ป.ร.",
        "ให้ไว้ ณ วันที่ ๑๙ เมษายน พ.ศ. ๒๕๕๕",
        "เป็นปีที่ ๖๗ ในรัชกาลปัจจุบัน"
      ]
    ],
    []
  ],
  "metadata": {
    "date_header": "2555-04-19",
    "date_modified": "2555-04-27",
    "date_original": "2555-04-27",
    "doctype": "พระราชกฤษฎีกา",
    "editors": [
      {
        "name": "ปริยานุช",
        "role": "ผู้จัดทำ",
        "date": "2555-04-30"
      },
      {
        "name": "ปณตภร",
        "role": "ผู้ตรวจ",
        "date": "2555-04-30"
      }
    ],
    "tag": "a123-2a-2555-a0020",
    "title": "กำหนดเขตที่ดิน ในท้องที่ตำบลน้ำตก และตำบลกะปางอำเภอทุ่งสง จังหวัดนครศรีธรรมราชให้เป็นเขตปฏิรูปที่ดิน"
  }
}