{
  "pages": [
    [
      [
        "พระราชกฤษฎีกา",
        "กำหนดเขตที่ดินในท้องที่ตำบลไทรย้อย อำเภอเด่นชัย",
        "และตำบลนาพูน อำเภอวังชิ้น จังหวัดแพร่",
        "ให้เป็นเขตปฏิรูปที่ดิน",
        "พ.ศ. ๒๕๕๒",
        "",
        "",
        "ภูมิพลอดุลยเดช ป.ร.",
        "ให้ไว้ ณ วันที่ ๑๘ มิถุนายน พ.ศ. ๒๕๕๒",
        "เป็นปีที่ ๖๔ ในรัชกาลปัจจุบัน"
      ]
    ],
    []
  ],
  "metadata": {
    "date_header": "2552-06-18",
    "date_modified": "2552-07-15",
    "date_original": "2552-07-15",
    "doctype": "พระราชกฤษฎีกา",
    "editors": [
      {
        "name": "ปริยานุช",
        "role": "ผู้จัดทำ",
        "date": "2552-07-17"
      }
    ],
    "tag": "a123-2a-2552-a0032",
    "title": "กำหนดเขตที่ดินในท้องที่ตำบลไทรย้อย อำเภอเด่นชัยและตำบลนาพูน อำเภอวังชิ้น จังหวัดแพร่ให้เป็นเขตปฏิรูปที่ดิน"
  }
}