{
  "pages": [
    [
      [
        "พระราชกฤษฎีกา",
        "กำหนดเขตที่ดิน ในท้องที่ตำบลบ่อเกลือเหนือ อำเภอบ่อเกลือ ตำบลเจดีย์ชัย ตำบลวรนคร",
        "ตำบลปัว ตำบลศิลาแลง ตำบลป่ากลาง ตำบลศิลาเพชร ตำบลอวน อำเภอปัว",
        "ตำบลป่าแลวหลวง ตำบลพงษ์ ตำบลดู่พงษ์ อำเภอสันติสุข และตำบลแม่จริม",
        "ตำบลหนองแดง ตำบลหมอเมือง ตำบลน้ำปาย",
        "ตำบลน้ำพาง อำเภอแม่จริม จังหวัดน่าน",
        "ให้เป็นเขตปฏิรูปที่ดิน",
        "พ.ศ. ๒๕๕๕",
        "",
        "",
        "ภูมิพลอดุลยเดช ป.ร.",
        "ให้ไว้ ณ วันที่ ๒๑ กุมภาพันธ์ พ.ศ. ๒๕๕๕",
        "เป็นปีที่ ๖๗ ในรัชกาลปัจจุบัน"
      ]
    ],
    []
  ],
  "metadata": {
    "date_header": "2555-02-21",
    "date_modified": "2555-03-02",
    "date_original": "2555-03-02",
    "doctype": "พระราชกฤษฎีกา",
    "editors": [
      {
        "name": "ปริยานุช",
        "role": "ผู้จัดทำ",
        "date": "2555-03-05"
      },
      {
        "name": "ณัฐพร",
        "role": "ผู้ตรวจ",
        "date": "2555-03-05"
      }
    ],
    "tag": "a123-2a-2555-a0011",
    "title": "กำหนดเขตที่ดิน ในท้องที่ตำบลบ่อเกลือเหนือ อำเภอบ่อเกลือ ตำบลเจดีย์ชัย ตำบลวรนครตำบลปัว ตำบลศิลาแลง ตำบลป่ากลาง ตำบลศิลาเพชร ตำบลอวน อำเภอปัวตำบลป่าแลวหลวง ตำบลพงษ์ ตำบลดู่พงษ์ อำเภอสันติสุข และตำบลแม่จริมตำบลหนองแดง ตำบลหมอเมือง ตำบลน้ำปายตำบลน้ำพาง อำเภอแม่จริม จังหวัดน่านให้เป็นเขตปฏิรูปที่ดิน"
  }
}