{
  "pages": [
    [
      [
        "พระราชกฤษฎีกา",
        "กำหนดเขตที่ดิน ในท้องที่บางแห่งในอำเภอทรายทองวัฒนา",
        "อำเภอบึงสามัคคี อำเภอคลองขลุง อำเภอขาณุวรลักษบุรี",
        "และอำเภอปางศิลาทอง จังหวัดกำแพงเพชร",
        "ให้เป็นเขตปฏิรูปที่ดิน",
        "พ.ศ. ๒๕๕๓",
        "",
        "",
        "ภูมิพลอดุลยเดช ป.ร.",
        "ให้ไว้ ณ วันที่ ๘ ธันวาคม พ.ศ. ๒๕๕๓",
        "เป็นปีที่ ๖๕ ในรัชกาลปัจจุบัน"
      ]
    ],
    []
  ],
  "metadata": {
    "date_header": "2553-12-08",
    "date_modified": "2553-12-19",
    "date_original": "2553-12-19",
    "doctype": "พระราชกฤษฎีกา",
    "editors": [
      {
        "name": "วิภา",
        "role": "ปรับปรุง",
        "date": "2558-05-01"
      }
    ],
    "tag": "a123-2a-2553-a0027",
    "title": "กำหนดเขตที่ดิน ในท้องที่บางแห่งในอำเภอทรายทองวัฒนาอำเภอบึงสามัคคี อำเภอคลองขลุง อำเภอขาณุวรลักษบุรีและอำเภอปางศิลาทอง จังหวัดกำแพงเพชรให้เป็นเขตปฏิรูปที่ดิน"
  }
}