{
  "pages": [
    [
      [
        "พระราชกฤษฎีกา",
        "กำหนดเขตที่ดิน ในท้องที่ตำบลจุมพล อำเภอโพนพิสัย",
        "และตำบลหนองหลวง อำเภอเฝ้าไร่ จังหวัดหนองคาย",
        "ให้เป็นเขตปฏิรูปที่ดิน",
        "พ.ศ. ๒๕๕๖",
        "",
        "",
        "ภูมิพลอดุลยเดช ป.ร.",
        "ให้ไว้ ณ วันที่ ๑๓ กันยายน พ.ศ. ๒๕๕๖",
        "เป็นปีที่ ๖๘ ในรัชกาลปัจจุบัน"
      ]
    ],
    []
  ],
  "metadata": {
    "date_header": "2556-09-13",
    "date_modified": "2556-09-25",
    "date_original": "2556-09-25",
    "doctype": "พระราชกฤษฎีกา",
    "editors": [
      {
        "name": "ปริยานุช",
        "role": "ผู้จัดทำ",
        "date": "2556-09-26"
      },
      {
        "name": "ณัฐพร",
        "role": "ผู้ตรวจ",
        "date": "2556-09-26"
      }
    ],
    "tag": "a123-2a-2556-a0010",
    "title": "กำหนดเขตที่ดิน ในท้องที่ตำบลจุมพล อำเภอโพนพิสัยและตำบลหนองหลวง อำเภอเฝ้าไร่ จังหวัดหนองคายให้เป็นเขตปฏิรูปที่ดิน"
  }
}