{
  "pages": [
    [
      [
        "พระราชกฤษฎีกา",
        "กำหนดเขตที่ดิน ในท้องที่ตำบลนาปะขอ",
        "อำเภอบางแก้ว จังหวัดพัทลุง",
        "ให้เป็นเขตปฏิรูปที่ดิน",
        "พ.ศ. ๒๕๔๙",
        "",
        "",
        "ภูมิพลอดุลยเดช ป.ร.",
        "ให้ไว้ ณ วันที่ ๒๑ ธันวาคม พ.ศ. ๒๕๔๙",
        "เป็นปีที่ ๖๑ ในรัชกาลปัจจุบัน'"
      ]
    ],
    []
  ],
  "metadata": {
    "date_header": "2549-12-21",
    "date_modified": "2549-12-29",
    "date_original": "2549-12-29",
    "doctype": "พระราชกฤษฎีกา",
    "editors": [
      {
        "name": "วิภา",
        "role": "ปรับปรุง",
        "date": "2558-03-27"
      }
    ],
    "tag": "a123-2a-2549-a0027",
    "title": "กำหนดเขตที่ดิน ในท้องที่ตำบลนาปะขออำเภอบางแก้ว จังหวัดพัทลุงให้เป็นเขตปฏิรูปที่ดิน"
  }
}