{
  "pages": [
    [
      [
        "พระราชกฤษฎีกา",
        "กำหนดเขตที่ดิน ในท้องที่ตำบลวังคัน ตำบลห้วยขมิ้น",
        "ตำบลหนองมะค่าโมง ตำบลนิคมกระเสียว ตำบลด่านช้าง",
        "อำเภอด่านช้าง และตำบลแจงงาม ตำบลหนองขาม ตำบลทัพหลวง",
        "ตำบลหนองหญ้าไซ อำเภอหนองหญ้าไซ จังหวัดสุพรรณบุรี",
        "ให้เป็นเขตปฏิรูปที่ดิน",
        "พ.ศ. ๒๕๓๗",
        "--------------",
        "ภูมิพลอดุลยเดช ป.ร.",
        "ให้ไว้ ณ วันที่ ๑ มิถุนายน พ.ศ. ๒๕๓๗",
        "เป็นปีที่ ๔๙ ในรัชกาลปัจจุบัน"
      ]
    ],
    []
  ],
  "metadata": {
    "date_gz_old": "2537-06-20",
    "date_header": "2537-06-01",
    "doctype": "พระราชกฤษฎีกา",
    "editors": [
      {
        "name": "พรพิมล",
        "role": "แก้ไข",
        "date": "2545-06-07"
      }
    ],
    "tag": "a123-2a-2537-a236",
    "title": "กำหนดเขตที่ดิน ในท้องที่ตำบลวังคัน ตำบลห้วยขมิ้นตำบลหนองมะค่าโมง ตำบลนิคมกระเสียว ตำบลด่านช้างอำเภอด่านช้าง และตำบลแจงงาม ตำบลหนองขาม ตำบลทัพหลวงตำบลหนองหญ้าไซ อำเภอหนองหญ้าไซ จังหวัดสุพรรณบุรีให้เป็นเขตปฏิรูปที่ดินพ.ศ. ๒๕๓๗--------------ภูมิพลอดุลยเดช ป.ร.ให้ไว้ ณ วันที่ ๑ มิถุนายน"
  }
}