{
  "pages": [
    [
      [
        "พระราชกฤษฎีกา",
        "กำหนดเขตที่ดิน ในท้องที่ตำบลทรัพย์ทวี ตำบลบ้านนา อำเภอบ้านนาเดิม",
        "และตำบลเขาตอก อำเภอเคียนซา จังหวัดสุราษฏร์ธานี",
        "ให้เป็นเขตปฏิรูปที่ดิน",
        "พ.ศ. ๒๕๔๒",
        "",
        "",
        "ภูมิพลอดุลยเดช ป.ร.",
        "ให้ไว้ ณ วันที่ ๑๙ ธันวาคม พ.ศ. ๒๕๔๒",
        "เป็นปีที่ ๕๔ ในรัชกาลปัจจุบัน"
      ]
    ],
    []
  ],
  "metadata": {
    "date_backmatter": "2545-01-08",
    "date_gz_old": "2542-12-28",
    "date_header": "2542-12-19",
    "date_modified": "2542-12-28",
    "date_original": "2542-12-28",
    "doctype": "พระราชกฤษฎีกา",
    "editors": [
      {
        "name": "วิภา",
        "role": "ปรับปรุง",
        "date": "2558-01-14"
      }
    ],
    "tag": "a123-2a-2542-a097",
    "title": "กำหนดเขตที่ดิน ในท้องที่ตำบลทรัพย์ทวี ตำบลบ้านนา อำเภอบ้านนาเดิมและตำบลเขาตอก อำเภอเคียนซา จังหวัดสุราษฏร์ธานีให้เป็นเขตปฏิรูปที่ดิน"
  }
}