{
  "pages": [
    [
      [
        "พระราชกฤษฎีกา",
        "กำหนดเขตที่ดิน ในท้องที่ตำบลท่าสะแก อำเภอชาติตระการ",
        "ตำบลหนองกะท้าว ตำบลบ้านพร้าว ตำบลบ้านแยง",
        "ตำบลห้วยเฮี้ย อำเภอนครไทย และตำบลบ้านกลาง",
        "ตำบลแก่งโสภา อำเภอวังทอง จังหวัดพิษณุโลก",
        "ให้เป็นเขตปฏิรูปที่ดิน",
        "พ.ศ. ๒๕๕๒",
        "",
        "",
        "ภูมิพลอดุลยเดช ป.ร.",
        "ให้ไว้ ณ วันที่ ๑๕ กรกฎาคม พ.ศ. ๒๕๕๒",
        "เป็นปีที่ ๖๔ ในรัชกาลปัจจุบัน"
      ]
    ],
    []
  ],
  "metadata": {
    "date_header": "2552-07-15",
    "date_modified": "2552-08-21",
    "date_original": "2552-08-21",
    "doctype": "พระราชกฤษฎีกา",
    "editors": [
      {
        "name": "วิภา",
        "role": "ปรับปรุง",
        "date": "2558-05-01"
      }
    ],
    "tag": "a123-2a-2552-a0087",
    "title": "กำหนดเขตที่ดิน ในท้องที่ตำบลท่าสะแก อำเภอชาติตระการตำบลหนองกะท้าว ตำบลบ้านพร้าว ตำบลบ้านแยงตำบลห้วยเฮี้ย อำเภอนครไทย และตำบลบ้านกลางตำบลแก่งโสภา อำเภอวังทอง จังหวัดพิษณุโลกให้เป็นเขตปฏิรูปที่ดิน"
  }
}