{
  "pages": [
    [
      [
        "พระราชกฤษฎีกา",
        "กำหนดเขตที่ดิน ในท้องที่ตำบลคลองปาง อำเภอรัษฎา จังหวัดตรัง",
        "ให้เป็นเขตปฏิรูปที่ดิน",
        "พ.ศ. ๒๕๕๔",
        "",
        "",
        "ภูมิพลอดุลยเดช ป.ร.",
        "ให้ไว้ ณ วันที่ ๙ พฤศจิกายน พ.ศ. ๒๕๕๔",
        "เป็นปีที่ ๖๖ ในรัชกาลปัจจุบัน"
      ]
    ],
    []
  ],
  "metadata": {
    "date_backmatter": "2540-04-02",
    "date_header": "2554-11-09",
    "date_modified": "2554-11-18",
    "date_original": "2554-11-18",
    "doctype": "พระราชกฤษฎีกา",
    "editors": [
      {
        "name": "ปริยานุช",
        "role": "ผู้จัดทำ",
        "date": "2554-11-21"
      },
      {
        "name": "ปณตภร",
        "role": "ผู้ตรวจ",
        "date": "2554-11-21"
      }
    ],
    "tag": "a123-2a-2554-a0010",
    "title": "กำหนดเขตที่ดิน ในท้องที่ตำบลคลองปาง อำเภอรัษฎา จังหวัดตรังให้เป็นเขตปฏิรูปที่ดิน"
  }
}