{
  "pages": [
    [
      [
        "พระราชกฤษฎีกา",
        "กำหนดเขตที่ดิน ในท้องที่ตำบลร่องเคาะ อำเภอวังเหนือ",
        "ตำบลแม่สุก ตำบลวิเชตนคร ตำบลปงดอน ตำบลแจ้ห่ม อำเภอแจ้ห่ม",
        "และตำบลแจ้ซ้อน ตำบลเมืองปาน ตำบลบ้านขอ อำเภอเมืองปาน จังหวัดลำปาง",
        "ให้เป็นเขตปฏิรูปที่ดิน",
        "พ.ศ. ๒๕๕๒",
        "",
        "",
        "ภูมิพลอดุลยเดช ป.ร.",
        "ให้ไว้ ณ วันที่ ๔ สิงหาคม พ.ศ. ๒๕๕๒",
        "เป็นปีที่ ๖๔ ในรัชกาลปัจจุบัน"
      ]
    ],
    []
  ],
  "metadata": {
    "date_header": "2552-08-04",
    "date_modified": "2552-08-21",
    "date_original": "2552-08-21",
    "doctype": "พระราชกฤษฎีกา",
    "editors": [
      {
        "name": "วิภา",
        "role": "ปรับปรุง",
        "date": "2558-05-01"
      }
    ],
    "tag": "a123-2a-2552-a0097",
    "title": "กำหนดเขตที่ดิน ในท้องที่ตำบลร่องเคาะ อำเภอวังเหนือตำบลแม่สุก ตำบลวิเชตนคร ตำบลปงดอน ตำบลแจ้ห่ม อำเภอแจ้ห่มและตำบลแจ้ซ้อน ตำบลเมืองปาน ตำบลบ้านขอ อำเภอเมืองปาน จังหวัดลำปางให้เป็นเขตปฏิรูปที่ดิน"
  }
}