{
  "pages": [
    [
      [
        "พระราชกฤษฎีกา",
        "กำหนดเขตที่ดิน ในท้องที่ตำบลบ้านผึ้ง ตำบลกุรุคุ และตำบลวังตามัว",
        "อำเภอเมืองนครพนม จังหวัดนครพนม",
        "ให้เป็นเขตปฏิรูปที่ดิน",
        "พ.ศ. ๒๕๔๑",
        "",
        "",
        "ภูมิพลอดุลยเดช ป.ร.",
        "ให้ไว้ ณ วันที่ ๒๘ เมษายน พ.ศ. ๒๕๔๑",
        "เป็นปีที่ ๕๓ ในรัชกาลปัจจุบัน"
      ]
    ],
    []
  ],
  "metadata": {
    "date_header": "2541-04-28",
    "date_modified": "2541-05-15",
    "date_original": "2541-05-15",
    "doctype": "พระราชกฤษฎีกา",
    "editors": [
      {
        "name": "วิภา",
        "role": "ปรับปรุง",
        "date": "2557-12-22"
      }
    ],
    "tag": "a123-2a-2541-a085",
    "title": "กำหนดเขตที่ดิน ในท้องที่ตำบลบ้านผึ้ง ตำบลกุรุคุ และตำบลวังตามัวอำเภอเมืองนครพนม จังหวัดนครพนมให้เป็นเขตปฏิรูปที่ดิน"
  }
}