{
  "pages": [
    [
      [
        "พระราชกฤษฎีกา",
        "กำหนดเขตที่ดิน ในท้องที่ตำบลคุระ และตำบลแม่นางขาว",
        "อำเภอคุระบุรี จังหวัดพังงา",
        "ให้เป็นเขตปฏิรูปที่ดิน",
        "พ.ศ. ๒๕๔๕",
        "",
        "",
        "ภูมิพลอดุลยเดช ป.ร.",
        "ให้ไว้ ณ วันที่ ๒๕ พฤศจิกายน พ.ศ. ๒๕๔๕",
        "เป็นปีที่ ๕๗ ในรัชกาลปัจจุบัน"
      ]
    ],
    []
  ],
  "metadata": {
    "date_header": "2545-11-25",
    "date_modified": "2545-12-02",
    "date_original": "2545-12-02",
    "doctype": "พระราชกฤษฎีกา",
    "editors": [
      {
        "name": "วิภา",
        "role": "ปรับปรุง",
        "date": "2558-02-18"
      }
    ],
    "tag": "a123-2a-2545-a020",
    "title": "กำหนดเขตที่ดิน ในท้องที่ตำบลคุระ และตำบลแม่นางขาวอำเภอคุระบุรี จังหวัดพังงาให้เป็นเขตปฏิรูปที่ดิน"
  }
}