{
  "pages": [
    [
      [
        "พระราชกฤษฎีกา",
        "กำหนดเขตที่ดิน ในท้องที่ตำบลห้วยแย้ ตำบลวังตะเฆ่ ตำบลโคกสะอาด",
        "ตำบลโสกปลาดุก อำเภอหนองบัวระเหว ตำบลโป่งนก ตำบลนายางกลัก",
        "ตำบลบ้านไร่ ตำบลห้วยยายจิ๋ว ตำบลวะตะแบก อำเภอเทพสถิต ตำบลบ้านชวน",
        "ตำบลโคกเพชรพัฒนา ตำบลเกาะมะนาว ตำบลโคกเริงรมย์ อำเภอบำเหน็จณรงค์",
        "จังหวัดชัยภูมิ และตำบลวังยายทอง ตำบลบึงปรือ กิ่งอำเภอเทพารักษ์",
        "อำเภอด่านขุนทด จังหวัดนครราชสีมา",
        "ให้เป็นเขตปฏิรูปที่ดิน",
        "พ.ศ. ๒๕๔๒",
        "",
        "",
        "ภูมิพลอดุลยเดช ป.ร.",
        "ให้ไว้ ณ วันที่ ๑๐ กุมภาพันธ์ พ.ศ. ๒๕๔๒",
        "เป็นปีที่ ๕๔ ในรัชกาลปัจจุบัน"
      ]
    ],
    []
  ],
  "metadata": {
    "date_header": "2542-02-10",
    "date_modified": "2542-03-02",
    "date_original": "2542-03-02",
    "doctype": "พระราชกฤษฎีกา",
    "editors": [
      {
        "name": "วิภา",
        "role": "ปรับปรุง",
        "date": "2558-01-13"
      }
    ],
    "tag": "a123-2a-2542-a056",
    "title": "กำหนดเขตที่ดิน ในท้องที่ตำบลห้วยแย้ ตำบลวังตะเฆ่ ตำบลโคกสะอาดตำบลโสกปลาดุก อำเภอหนองบัวระเหว ตำบลโป่งนก ตำบลนายางกลักตำบลบ้านไร่ ตำบลห้วยยายจิ๋ว ตำบลวะตะแบก อำเภอเทพสถิต ตำบลบ้านชวนตำบลโคกเพชรพัฒนา ตำบลเกาะมะนาว ตำบลโคกเริงรมย์ อำเภอบำเหน็จณรงค์จังหวัดชัยภูมิ และตำบลวังยายทอง ตำบลบึงปรือ กิ่งอำเภอเทพารักษ์อำเภอด่านขุนทด จังหวัดนครราชสีมาให้เป็นเขตปฏิรูปที่ดิน"
  }
}