{
  "pages": [
    [
      [
        "ประกาศกระทรวงเกษตรและสหกรณ์",
        "เรื่อง รายงานรับ - จ่ายเงินของสำนักงานการปฏิรูปที่ดินเพื่อเกษตรกรรม",
        "(เฉพาะส่วนของเงินกองทุนการปฏิรูปที่ดินเพื่อเกษตรกรรม)"
      ]
    ],
    []
  ],
  "metadata": {
    "date_backmatter": "2558-12-24",
    "date_modified": "2559-02-04",
    "date_original": "2559-02-04",
    "doctype": "ประกาศ",
    "editors": [
      {
        "name": "ปริยานุช",
        "role": "จัดทำ",
        "date": "2559-03-18"
      },
      {
        "name": "ปุณิกา",
        "role": "ตรวจ",
        "date": "2559-03-18"
      }
    ],
    "tag": "a123-2e-2559-a0001"
  }
}