{
  "pages": [
    [
      [
        "พระราชกฤษฎีกา",
        "กำหนดเขตที่ดิน ในท้องที่ตำบลบ้านหนุน ตำบลห้วยหม้าย อำเภอสอง",
        "และตำบลทุ่งแค้ว อำเภอหนองม่วงไข่ จังหวัดแพร่",
        "ให้เป็นเขตปฏิรูปที่ดิน",
        "พ.ศ. ๒๕๕๒",
        "",
        "",
        "ภูมิพลอดุลยเดช ป.ร.",
        "ให้ไว้ ณ วันที่ ๔ สิงหาคม พ.ศ. ๒๕๕๒",
        "เป็นปีที่ ๖๔ ในรัชกาลปัจจุบัน"
      ]
    ],
    []
  ],
  "metadata": {
    "date_header": "2552-08-04",
    "date_modified": "2552-08-21",
    "date_original": "2552-08-21",
    "doctype": "พระราชกฤษฎีกา",
    "editors": [
      {
        "name": "วิภา",
        "role": "ปรับปรุง",
        "date": "2558-05-01"
      }
    ],
    "tag": "a123-2a-2552-a0099",
    "title": "กำหนดเขตที่ดิน ในท้องที่ตำบลบ้านหนุน ตำบลห้วยหม้าย อำเภอสองและตำบลทุ่งแค้ว อำเภอหนองม่วงไข่ จังหวัดแพร่ให้เป็นเขตปฏิรูปที่ดิน"
  }
}