{
  "pages": [
    [
      [
        "พระราชกฤษฎีกา",
        "กำหนดเขตที่ดินในท้องที่ตำบลหัวฝาย อำเภอสูงเม่น",
        "และตำบลแม่จั๊วะ อำเภอเด่นชัย จังหวัดแพร่",
        "ให้เป็นเขตปฏิรูปที่ดิน",
        "พ.ศ. ๒๕๕๒",
        "",
        "",
        "ภูมิพลอดุลยเดช ป.ร.",
        "ให้ไว้ ณ วันที่ ๑๘ มิถุนายน พ.ศ. ๒๕๕๒",
        "เป็นปีที่ ๖๔ ในรัชกาลปัจจุบัน"
      ]
    ],
    []
  ],
  "metadata": {
    "date_header": "2552-06-18",
    "date_modified": "2552-07-15",
    "date_original": "2552-07-15",
    "doctype": "พระราชกฤษฎีกา",
    "editors": [
      {
        "name": "วิภา",
        "role": "ปรับปรุง",
        "date": "2558-03-27"
      }
    ],
    "tag": "a123-2a-2552-a0033",
    "title": "กำหนดเขตที่ดินในท้องที่ตำบลหัวฝาย อำเภอสูงเม่นและตำบลแม่จั๊วะ อำเภอเด่นชัย จังหวัดแพร่ให้เป็นเขตปฏิรูปที่ดิน"
  }
}