{
  "pages": [
    [
      [
        "พระราชกฤษฎีกา",
        "กำหนดเขตที่ดิน ในท้องที่ตำบลบ้านนา ตำบลสะพานไม้แก่น อำเภอจะนะ",
        "และตำบลสะกอม อำเภอเทพา จังหวัดสงขลา",
        "ให้เป็นเขตปฏิรูปที่ดิน",
        "พ.ศ. ๒๕๕๒",
        "",
        "",
        "ภูมิพลอดุลยเดช ป.ร.",
        "ให้ไว้ ณ วันที่ ๑๕ กรกฎาคม พ.ศ. ๒๕๕๒",
        "เป็นปีที่ ๖๔ ในรัชกาลปัจจุบัน"
      ]
    ],
    []
  ],
  "metadata": {
    "date_header": "2552-07-15",
    "date_modified": "2552-08-21",
    "date_original": "2552-08-21",
    "doctype": "พระราชกฤษฎีกา",
    "editors": [
      {
        "name": "วิภา",
        "role": "ปรับปรุง",
        "date": "2558-05-01"
      }
    ],
    "tag": "a123-2a-2552-a0089",
    "title": "กำหนดเขตที่ดิน ในท้องที่ตำบลบ้านนา ตำบลสะพานไม้แก่น อำเภอจะนะและตำบลสะกอม อำเภอเทพา จังหวัดสงขลาให้เป็นเขตปฏิรูปที่ดิน"
  }
}