{
  "pages": [
    [
      [
        "พระราชกฤษฎีกา",
        "กำหนดเขตที่ดิน ในท้องที่ตำบลคลองท่อมใต้ ตำบลคลองท่อมเหนือ",
        "ตำบลคลองพน และตำบลทรายขาว อำเภอคลองท่อม จังหวัดกระบี่",
        "ให้เป็นเขตปฏิรูปที่ดิน",
        "พ.ศ. ๒๕๔๗",
        "",
        "",
        "ภูมิพลอดุลยเดช ป.ร.",
        "ให้ไว้ ณ วันที่ ๒๑ ธันวาคม พ.ศ. ๒๕๔๗",
        "เป็นปีที่ ๕๙ ในรัชกาลปัจจุบัน"
      ]
    ],
    []
  ],
  "metadata": {
    "date_header": "2547-12-21",
    "date_modified": "2548-01-19",
    "date_original": "2548-01-19",
    "doctype": "พระราชกฤษฎีกา",
    "editors": [
      {
        "name": "วิภา",
        "role": "ปรับปรุง",
        "date": "2549-02-11"
      }
    ],
    "tag": "a123-2a-2548-a0003",
    "title": "กำหนดเขตที่ดิน ในท้องที่ตำบลคลองท่อมใต้ ตำบลคลองท่อมเหนือตำบลคลองพน และตำบลทรายขาว อำเภอคลองท่อม จังหวัดกระบี่ให้เป็นเขตปฏิรูปที่ดิน"
  }
}