{
  "pages": [
    [
      [
        "พระราชกฤษฎีกา",
        "กำหนดเขตที่ดิน ในท้องที่ตำบลหนองบก อำเภอเหล่าเสือโก้ก",
        "และตำบลท่าเมือง ตำบลเหล่าแดง ตำบลคำไฮใหญ่",
        "อำเภอดอนมดแดง จังหวัดอุบลราชธานี",
        "ให้เป็นเขตปฏิรูปที่ดิน",
        "พ.ศ. ๒๕๕๒",
        "",
        "",
        "ภูมิพลอดุลยเดช ป.ร.",
        "ให้ไว้ ณ วันที่ ๑๓ พฤศจิกายน พ.ศ. ๒๕๕๒",
        "เป็นปีที่ ๖๔ ในรัชกาลปัจจุบัน"
      ]
    ],
    []
  ],
  "metadata": {
    "date_header": "2552-11-13",
    "date_modified": "2552-11-23",
    "date_original": "2552-11-23",
    "doctype": "พระราชกฤษฎีกา",
    "editors": [
      {
        "name": "วิภา",
        "role": "ปรับปรุง",
        "date": "2558-05-01"
      }
    ],
    "tag": "a123-2a-2552-a0117",
    "title": "กำหนดเขตที่ดิน ในท้องที่ตำบลหนองบก อำเภอเหล่าเสือโก้กและตำบลท่าเมือง ตำบลเหล่าแดง ตำบลคำไฮใหญ่อำเภอดอนมดแดง จังหวัดอุบลราชธานีให้เป็นเขตปฏิรูปที่ดิน"
  }
}