{
  "pages": [
    [
      [
        "พระราชกฤษฎีกา",
        "กำหนดเขตที่ดิน ในท้องที่ตำบลป่าอ้อดอนชัย ตำบลท่าสาย ตำบลสันทราย",
        "ตำบลห้วยสัก อำเภอเมืองเชียงราย และตำบลโป่งแพร่ ตำบลบัวสลี ตำบลป่าก่อดำ",
        "ตำบลจอมหมอกแก้ว ตำบลดงมะดะ อำเภอแม่ลาว จังหวัดเชียงราย",
        "ให้เป็นเขตปฏิรูปที่ดิน",
        "พ.ศ. ๒๕๕๒",
        "",
        "",
        "ภูมิพลอดุลยเดช ป.ร.",
        "ให้ไว้ ณ วันที่ ๒๕ มิถุนายน พ.ศ. ๒๕๕๒",
        "เป็นปีที่ ๖๔ ในรัชกาลปัจจุบัน"
      ]
    ],
    []
  ],
  "metadata": {
    "date_header": "2552-06-25",
    "date_modified": "2552-07-21",
    "date_original": "2552-07-21",
    "doctype": "พระราชกฤษฎีกา",
    "editors": [
      {
        "name": "วิภา",
        "role": "ปรับปรุง",
        "date": "2558-03-27"
      }
    ],
    "tag": "a123-2a-2552-a0049",
    "title": "กำหนดเขตที่ดิน ในท้องที่ตำบลป่าอ้อดอนชัย ตำบลท่าสาย ตำบลสันทรายตำบลห้วยสัก อำเภอเมืองเชียงราย และตำบลโป่งแพร่ ตำบลบัวสลี ตำบลป่าก่อดำตำบลจอมหมอกแก้ว ตำบลดงมะดะ อำเภอแม่ลาว จังหวัดเชียงรายให้เป็นเขตปฏิรูปที่ดิน"
  }
}