{
  "pages": [
    [
      [
        "พระราชกฤษฎีกา",
        "กำหนดเขตที่ดิน ในท้องที่ตำบลแม่กุ",
        "และตำบลมหาวัน อำเภอแม่สอด จังหวัดตาก",
        "ให้เป็นเขตปฏิรูปที่ดิน",
        "พ.ศ. ๒๕๕๐",
        "",
        "",
        "ภูมิพลอดุลยเดช ป.ร.",
        "ให้ไว้ ณ วันที่ ๒๓ สิงหาคม พ.ศ. ๒๕๕๐",
        "เป็นปีที่ ๖๒ ในรัชกาลปัจจุบัน"
      ]
    ],
    []
  ],
  "metadata": {
    "date_header": "2550-08-23",
    "date_modified": "2550-09-07",
    "date_original": "2550-09-07",
    "doctype": "พระราชกฤษฎีกา",
    "editors": [
      {
        "name": "วิภา",
        "role": "ปรับปรุง",
        "date": "2558-03-27"
      }
    ],
    "tag": "a123-2a-2550-a0042",
    "title": "กำหนดเขตที่ดิน ในท้องที่ตำบลแม่กุและตำบลมหาวัน อำเภอแม่สอด จังหวัดตากให้เป็นเขตปฏิรูปที่ดิน"
  }
}