{
  "pages": [
    [
      [
        "พระราชกฤษฎีกา",
        "กำหนดเขตที่ดิน ในท้องที่ตำบลทุ่งไทรทอง อำเภอลำทับ จังหวัดกระบี่",
        "ให้เป็นเขตปฏิรูปที่ดิน",
        "พ.ศ. ๒๕๕๕",
        "",
        "",
        "ภูมิพลอดุลยเดช ป.ร.",
        "ให้ไว้ ณ วันที่ ๗ กุมภาพันธ์ พ.ศ. ๒๕๕๕",
        "เป็นปีที่ ๖๗ ในรัชกาลปัจจุบัน"
      ]
    ],
    []
  ],
  "metadata": {
    "date_header": "2555-02-07",
    "date_modified": "2555-02-15",
    "date_original": "2555-02-15",
    "doctype": "พระราชกฤษฎีกา",
    "editors": [
      {
        "name": "ปริยานุช",
        "role": "ผู้จัดทำ",
        "date": "2555-02-16"
      },
      {
        "name": "ชาญ",
        "role": "ผู้ตรวจ",
        "date": "2555-02-21"
      }
    ],
    "tag": "a123-2a-2555-a0001",
    "title": "กำหนดเขตที่ดิน ในท้องที่ตำบลทุ่งไทรทอง อำเภอลำทับ จังหวัดกระบี่ให้เป็นเขตปฏิรูปที่ดิน"
  }
}