{
  "pages": [
    [
      [
        "พระราชกฤษฎีกา",
        "กำหนดเขตที่ดิน ในท้องที่ตำบลแม่กุ ตำบลมหาวัน อำเภอแม่สอด",
        "และตำบลช่องแคบ อำเภอพบพระ จังหวัดตาก",
        "ให้เป็นเขตปฏิรูปที่ดิน",
        "พ.ศ. ๒๕๕๔",
        "",
        "",
        "ภูมิพลอดุลยเดช ป.ร.",
        "ให้ไว้ ณ วันที่ ๑๐ กุมภาพันธ์ พ.ศ. ๒๕๕๔",
        "เป็นปีที่ ๖๖ ในรัชกาลปัจจุบัน"
      ]
    ],
    []
  ],
  "metadata": {
    "date_header": "2554-02-10",
    "date_modified": "2554-02-21",
    "date_original": "2554-02-21",
    "doctype": "พระราชกฤษฎีกา",
    "editors": [
      {
        "name": "ปริยานุช",
        "role": "ผู้จัดทำ",
        "date": "2554-02-24"
      },
      {
        "name": "ณัฐวดี",
        "role": "ตรวจ",
        "date": "2554-02-24"
      }
    ],
    "tag": "a123-2a-2554-a0002",
    "title": "กำหนดเขตที่ดิน ในท้องที่ตำบลแม่กุ ตำบลมหาวัน อำเภอแม่สอดและตำบลช่องแคบ อำเภอพบพระ จังหวัดตากให้เป็นเขตปฏิรูปที่ดิน"
  }
}