{
  "pages": [
    [
      [
        "พระราชกฤษฎีกา",
        "กำหนดเขตที่ดิน ในท้องที่ตำบลบ้านม่วง ตำบลนางิ้ว ตำบลสังคม ตำบลแก้งไก่ ตำบลผาตั้ง",
        "อำเภอสังคม ตำบลพระพุทธบาท ตำบลบ้านหม้อ ตำบลพานพร้าว ตำบลหนองปลาปาก",
        "อำเภอศรีเชียงใหม่ ตำบลด่านศรีสุข ตำบลโพนทอง ตำบลโพธิ์ตาก อำเภอโพธิ์ตาก",
        "และตำบลกองนาง ตำบลน้ำโมง ตำบลท่าบ่อ ตำบลโคกคอน ตำบลบ้านว่าน",
        "ตำบลนาข่า ตำบลบ้านเดื่อ ตำบลบ้านถ่อน ตำบลหนองนาง",
        "อำเภอท่าบ่อ จังหวัดหนองคาย",
        "ให้เป็นเขตปฏิรูปที่ดิน",
        "พ.ศ. ๒๕๕๒",
        "",
        "",
        "ภูมิพลอดุลยเดช ป.ร.",
        "ให้ไว้ ณ วันที่ ๘ ธันวาคม พ.ศ. ๒๕๕๒",
        "เป็นปีที่ ๖๔ ในรัชกาลปัจจุบัน"
      ]
    ],
    []
  ],
  "metadata": {
    "date_header": "2552-12-08",
    "date_modified": "2552-12-21",
    "date_original": "2552-12-21",
    "doctype": "พระราชกฤษฎีกา",
    "editors": [
      {
        "name": "วิภา",
        "role": "ปรับปรุง",
        "date": "2558-05-01"
      }
    ],
    "tag": "a123-2a-2552-a0119",
    "title": "กำหนดเขตที่ดิน ในท้องที่ตำบลบ้านม่วง ตำบลนางิ้ว ตำบลสังคม ตำบลแก้งไก่ ตำบลผาตั้งอำเภอสังคม ตำบลพระพุทธบาท ตำบลบ้านหม้อ ตำบลพานพร้าว ตำบลหนองปลาปากอำเภอศรีเชียงใหม่ ตำบลด่านศรีสุข ตำบลโพนทอง ตำบลโพธิ์ตาก อำเภอโพธิ์ตากและตำบลกองนาง ตำบลน้ำโมง ตำบลท่าบ่อ ตำบลโคกคอน ตำบลบ้านว่านตำบลนาข่า ตำบลบ้านเดื่อ ตำบลบ้านถ่อน ตำบลหนองนางอำเภอท่าบ่อ จังหวัดหนองคายให้เป็นเขตปฏิรูปที่ดิน"
  }
}