{
  "pages": [
    [
      [
        "พระราชกฤษฎีกา",
        "กำหนดเขตที่ดินในท้องที่ตำบลคอนกาม ตำบลยางชุมน้อย ตำบลยางชุมใหญ่",
        "และตำบลลิ้นฟ้า อำเภอยางชุมน้อย จังหวัดศรีสะเกษ",
        "ให้เป็นเขตปฏิรูปที่ดิน",
        "พ.ศ. ๒๕๕๒",
        "",
        "",
        "ภูมิพลอดุลยเดช ป.ร.",
        "ให้ไว้ ณ วันที่ ๑๕ มิถุนายน พ.ศ. ๒๕๕๒",
        "เป็นปีที่ ๖๔ ในรัชกาลปัจจุบัน"
      ]
    ],
    []
  ],
  "metadata": {
    "date_header": "2552-06-15",
    "date_modified": "2552-07-15",
    "date_original": "2552-07-15",
    "doctype": "พระราชกฤษฎีกา",
    "editors": [
      {
        "name": "วิภา",
        "role": "ปรับปรุง",
        "date": "2558-03-27"
      }
    ],
    "tag": "a123-2a-2552-a0030",
    "title": "กำหนดเขตที่ดินในท้องที่ตำบลคอนกาม ตำบลยางชุมน้อย ตำบลยางชุมใหญ่และตำบลลิ้นฟ้า อำเภอยางชุมน้อย จังหวัดศรีสะเกษให้เป็นเขตปฏิรูปที่ดิน"
  }
}