{
  "pages": [
    [
      [
        "พระราชกฤษฎีกา",
        "กำหนดเขตที่ดิน ในท้องที่ตำบลกุดเค้า อำเภอมัญจาคีรี ตำบล",
        "โนนพะยอม ตำบลวังแสง ตำบลกุดเพียขอม ตำบลห้วยแก อำเภอชนบท",
        "ตำบลโนนสะอาด ตำบลแวงใหญ่ ตำบลคอนฉิม ตำบลใหม่นาเพียง",
        "ตำบลโนนทอง อำเภอแวงใหญ่ และตำบลก้านเหลือง ตำบล",
        "ท่านางแนว ตำบลละหานนา ตำบลแวงน้อย",
        "อำเภอแวงน้อย จังหวัดขอนแก่น",
        "ให้เป็นเขตปฏิรูปที่ดิน",
        "พ.ศ. ๒๕๔๒",
        "",
        "",
        "ภูมิพลอดุลยเดช ป.ร.",
        "ให้ไว้ ณ วันที่ ๒๐ กุมภาพันธ์ พ.ศ. ๒๕๔๒",
        "เป็นปีที่ ๕๔ ในรัชกาลปัจจุบัน"
      ]
    ],
    []
  ],
  "metadata": {
    "date_header": "2542-02-20",
    "date_modified": "2542-12-28",
    "date_original": "2542-12-28",
    "doctype": "พระราชกฤษฎีกา",
    "editors": [
      {
        "name": "วิภา",
        "role": "ปรับปรุง",
        "date": "2558-12-15"
      }
    ],
    "tag": "a123-2a-2542-a076",
    "title": "กำหนดเขตที่ดิน ในท้องที่ตำบลกุดเค้า อำเภอมัญจาคีรี ตำบลโนนพะยอม ตำบลวังแสง ตำบลกุดเพียขอม ตำบลห้วยแก อำเภอชนบทตำบลโนนสะอาด ตำบลแวงใหญ่ ตำบลคอนฉิม ตำบลใหม่นาเพียงตำบลโนนทอง อำเภอแวงใหญ่ และตำบลก้านเหลือง ตำบลท่านางแนว ตำบลละหานนา ตำบลแวงน้อยอำเภอแวงน้อย จังหวัดขอนแก่นให้เป็นเขตปฏิรูปที่ดิน"
  }
}