{
  "pages": [
    [
      [
        "พระราชกฤษฎีกา",
        "กำหนดเขตที่ดิน ในท้องที่ตำบลแม่กาษา ตำบลพะวอ ตำบลด่านแม่ละเมา ตำบลแม่ปะ",
        "ตำบลท่าสายลวด อำเภอแม่สอด และตำบลแม่จะเรา อำเภอแม่ระมาด จังหวัดตาก",
        "ให้เป็นเขตปฏิรูปที่ดิน",
        "พ.ศ. ๒๕๕๔",
        "",
        "",
        "ภูมิพลอดุลยเดช ป.ร.",
        "ให้ไว้ ณ วันที่ ๑๘ พฤศจิกายน พ.ศ. ๒๕๕๔",
        "เป็นปีที่ ๖๖ ในรัชกาลปัจจุบัน"
      ]
    ],
    []
  ],
  "metadata": {
    "date_header": "2554-11-18",
    "date_modified": "2554-11-23",
    "date_original": "2554-11-23",
    "doctype": "พระราชกฤษฎีกา",
    "editors": [
      {
        "name": "ปริยานุช",
        "role": "ผู้จัดทำ",
        "date": "2554-11-24"
      },
      {
        "name": "ปณตภร",
        "role": "ผู้ตรวจ",
        "date": "2554-11-25"
      }
    ],
    "tag": "a123-2a-2554-a0018",
    "title": "กำหนดเขตที่ดิน ในท้องที่ตำบลแม่กาษา ตำบลพะวอ ตำบลด่านแม่ละเมา ตำบลแม่ปะตำบลท่าสายลวด อำเภอแม่สอด และตำบลแม่จะเรา อำเภอแม่ระมาด จังหวัดตากให้เป็นเขตปฏิรูปที่ดิน"
  }
}