{
  "pages": [
    [
      [
        "พระราชกฤษฎีกา",
        "กำหนดเขตที่ดิน ในท้องที่ตำบลนพรัตน์ ตำบลศาลาครุ ตำบลบึงกาสาม ตำบลบึงชำอ้อ",
        "ตำบลหนองสามวัง ตำบลบึงบา ตำบลบึงบอน อำเภอหนองเสือ ตำบลคลองเจ็ด",
        "ตำบลคลองหก ตำบลคลองห้า ตำบลคลองสาม ตำบลคลองสี่ อำเภอคลองหลวง",
        "ตำบลบึงน้ำรักษ์ ตำบลบึงสนั่น อำเภอธัญบุรี และตำบลบึงคำพร้อย",
        "ตำบลพืชอุดม อำเภอลำลูกกา จังหวัดปทุมธานี",
        "ให้เป็นเขตปฏิรูปที่ดิน",
        "พ.ศ. ๒๕๕๒",
        "",
        "",
        "ภูมิพลอดุลยเดช ป.ร.",
        "ให้ไว้ ณ วันที่ ๒๘ กรกฎาคม พ.ศ. ๒๕๕๒",
        "เป็นปีที่ ๖๔ ในรัชกาลปัจจุบัน"
      ]
    ],
    []
  ],
  "metadata": {
    "date_header": "2552-07-28",
    "date_modified": "2552-08-05",
    "date_original": "2552-08-05",
    "doctype": "พระราชกฤษฎีกา",
    "editors": [
      {
        "name": "วิภา",
        "role": "ปรับปรุง",
        "date": "2558-05-01"
      }
    ],
    "tag": "a123-2a-2552-a0081",
    "title": "กำหนดเขตที่ดิน ในท้องที่ตำบลนพรัตน์ ตำบลศาลาครุ ตำบลบึงกาสาม ตำบลบึงชำอ้อตำบลหนองสามวัง ตำบลบึงบา ตำบลบึงบอน อำเภอหนองเสือ ตำบลคลองเจ็ดตำบลคลองหก ตำบลคลองห้า ตำบลคลองสาม ตำบลคลองสี่ อำเภอคลองหลวงตำบลบึงน้ำรักษ์ ตำบลบึงสนั่น อำเภอธัญบุรี และตำบลบึงคำพร้อยตำบลพืชอุดม อำเภอลำลูกกา จังหวัดปทุมธานีให้เป็นเขตปฏิรูปที่ดิน"
  }
}