{
  "pages": [
    [
      [
        "ระเบียบคณะกรรมการปฏิรูปที่ดินเพื่อเกษตรกรรม",
        "ว่าด้วย การออก แก้ไขเพิ่มเติม เพิกถอนและออกใบแทน",
        "หนังสืออนุญาตให้เข้าทำประโยชน์ในเขตปฏิรูปที่ดิน",
        "พ.ศ. ๒๕๔๐"
      ]
    ],
    []
  ],
  "metadata": {
    "date_backmatter": "2540-06-17",
    "date_modified": "2540-06-24",
    "date_original": "2540-06-24",
    "editors": [
      {
        "name": "วิภา",
        "role": "ปรับปรุง",
        "date": "2558-06-05"
      }
    ],
    "tag": "a123-2g-2540-001"
  }
}