{
  "pages": [
    [
      [
        "พระราชกฤษฎีกา",
        "กำหนดเขตที่ดิน ในท้องที่ตำบลน้ำพ่น ตำบลหนองบัวบาน ตำบลหนองอ้อ ตำบลโนนหวาย",
        "ตำบลอูบมุง และตำบลกุดหมากไฟ อำเภอหนองวัวซอ จังหวัดอุดรธานี",
        "ให้เป็นเขตปฏิรูปที่ดิน",
        "พ.ศ. ๒๕๕๔",
        "",
        "",
        "ภูมิพลอดุลยเดช ป.ร.",
        "ให้ไว้ ณ วันที่ ๒๑ พฤศจิกายน พ.ศ. ๒๕๕๔",
        "เป็นปีที่ ๖๖ ในรัชกาลปัจจุบัน"
      ]
    ],
    []
  ],
  "metadata": {
    "date_header": "2554-11-21",
    "date_modified": "2554-11-25",
    "date_original": "2554-11-25",
    "doctype": "พระราชกฤษฎีกา",
    "editors": [
      {
        "name": "ปริยานุช",
        "role": "ผู้จัดทำ",
        "date": "2554-11-28"
      },
      {
        "name": "ปณตภร",
        "role": "ผู้ตรวจ",
        "date": "2554-11-28"
      }
    ],
    "tag": "a123-2a-2554-a0022",
    "title": "กำหนดเขตที่ดิน ในท้องที่ตำบลน้ำพ่น ตำบลหนองบัวบาน ตำบลหนองอ้อ ตำบลโนนหวายตำบลอูบมุง และตำบลกุดหมากไฟ อำเภอหนองวัวซอ จังหวัดอุดรธานีให้เป็นเขตปฏิรูปที่ดิน"
  }
}