{
  "pages": [
    [
      [
        "พระราชกฤษฎีกา",
        "กำหนดเขตที่ดิน ในท้องที่ตำบลองครักษ์ ตำบลบางเจ้าฉ่า ตำบลโคกพุทรา",
        "ตำบลอ่างแก้ว อำเภอโพธิ์ทอง ตำบลหลักฟ้า ตำบลชะไว ตำบลจรเข้ร้อง",
        "ตำบลชัยฤทธิ์ อำเภอไชโย ตำบลห้วยคันแหลน อำเภอวิเศษชัยชาญ",
        "และตำบลบางเสด็จ อำเภอป่าโมก จังหวัดอ่างทอง",
        "ให้เป็นเขตปฏิรูปที่ดิน",
        "พ.ศ. ๒๕๕๘",
        "",
        "",
        "ภูมิพลอดุลยเดช ป.ร.",
        "ให้ไว้ ณ วันที่ ๒๔ สิงหาคม พ.ศ. ๒๕๕๘",
        "เป็นปีที่ ๗๐ ในรัชกาลปัจจุบัน"
      ]
    ],
    []
  ],
  "metadata": {
    "date_header": "2558-08-24",
    "date_modified": "2558-08-27",
    "date_original": "2558-08-27",
    "doctype": "พระราชกฤษฎีกา",
    "editors": [
      {
        "name": "ปริยานุช",
        "role": "จัดทำ",
        "date": "2558-08-31"
      },
      {
        "name": "นุสรา",
        "role": "ตรวจ",
        "date": "2558-11-23"
      }
    ],
    "tag": "a123-2a-2558-a0007",
    "title": "กำหนดเขตที่ดิน ในท้องที่ตำบลองครักษ์ ตำบลบางเจ้าฉ่า ตำบลโคกพุทราตำบลอ่างแก้ว อำเภอโพธิ์ทอง ตำบลหลักฟ้า ตำบลชะไว ตำบลจรเข้ร้องตำบลชัยฤทธิ์ อำเภอไชโย ตำบลห้วยคันแหลน อำเภอวิเศษชัยชาญและตำบลบางเสด็จ อำเภอป่าโมก จังหวัดอ่างทองให้เป็นเขตปฏิรูปที่ดิน"
  }
}