{
  "pages": [
    [
      [
        "พระราชกฤษฎีกา",
        "กำหนดเขตที่ดิน ในท้องที่ตำบลทรัพย์ทวี",
        "ตำบลบ้านนา ตำบลนาใต้ อำเภอบ้านนาเดิม ตำบลเขาตอก",
        "อำเภอเคียนซา และตำบลนาสาร ตำบลน้ำพุ ตำบลท่าชี",
        "อำเภอบ้านนาสาร จังหวัดสุราษฎร์ธานี",
        "ให้เป็นเขตปฏิรูปที่ดิน",
        "พ.ศ. ๒๕๔๒",
        "",
        "",
        "ภูมิพลอดุลยเดช ป.ร.",
        "ให้ไว้ ณ วันที่ ๑๐ กุมภาพันธ์ พ.ศ. ๒๕๔๒",
        "เป็นปีที่ ๕๔ ในรัชกาลปัจจุบัน"
      ]
    ],
    []
  ],
  "metadata": {
    "date_header": "2542-02-10",
    "date_modified": "2542-03-02",
    "date_original": "2542-03-02",
    "doctype": "พระราชกฤษฎีกา",
    "editors": [
      {
        "name": "วิภา",
        "role": "ปรับปรุง",
        "date": "2558-01-13"
      }
    ],
    "tag": "a123-2a-2542-a052",
    "title": "กำหนดเขตที่ดิน ในท้องที่ตำบลทรัพย์ทวีตำบลบ้านนา ตำบลนาใต้ อำเภอบ้านนาเดิม ตำบลเขาตอกอำเภอเคียนซา และตำบลนาสาร ตำบลน้ำพุ ตำบลท่าชีอำเภอบ้านนาสาร จังหวัดสุราษฎร์ธานีให้เป็นเขตปฏิรูปที่ดิน"
  }
}