{
  "pages": [
    [
      [
        "พระราชกฤษฎีกา",
        "กำหนดเขตที่ดิน ในท้องที่ตำบลแม่เมาะ อำเภอแม่เมาะ จังหวัดลำปาง",
        "ให้เป็นเขตปฏิรูปที่ดิน",
        "พ.ศ. ๒๕๕๓",
        "",
        "",
        "ภูมิพลอดุลยเดช ป.ร.",
        "ให้ไว้ ณ วันที่ ๒๓ สิงหาคม พ.ศ. ๒๕๕๓",
        "เป็นปีที่ ๖๕ ในรัชกาลปัจจุบัน"
      ]
    ],
    []
  ],
  "metadata": {
    "date_header": "2553-08-23",
    "date_modified": "2553-09-03",
    "date_original": "2553-09-03",
    "doctype": "พระราชกฤษฎีกา",
    "editors": [
      {
        "name": "วิภา",
        "role": "ปรับปรุง",
        "date": "2558-05-01"
      }
    ],
    "tag": "a123-2a-2553-a0017",
    "title": "กำหนดเขตที่ดิน ในท้องที่ตำบลแม่เมาะ อำเภอแม่เมาะ จังหวัดลำปางให้เป็นเขตปฏิรูปที่ดิน"
  }
}