{
  "pages": [
    [
      [
        "พระราชกฤษฎีกา",
        "กำหนดเขตที่ดิน ในท้องที่ตำบลศรีแก้ว",
        "อำเภอเลิงนกทา ตำบลกุดชุม อำเภอกุดชุม และตำบลคำเตย",
        "อำเภอไทยเจริญ จังหวัดยโสธร",
        "ให้เป็นเขตปฏิรูปที่ดิน",
        "พ.ศ. ๒๕๔๒",
        "",
        "",
        "ภูมิพลอดุลยเดช ป.ร.",
        "ให้ไว้ ณ วันที่ ๑๙ ธันวาคม พ.ศ. ๒๕๔๒",
        "เป็นปีที่ ๕๔ ในรัชกาลปัจจุบัน"
      ]
    ],
    []
  ],
  "metadata": {
    "date_header": "2542-12-19",
    "date_modified": "2542-12-28",
    "date_original": "2542-12-28",
    "doctype": "พระราชกฤษฎีกา",
    "editors": [
      {
        "name": "วิภา",
        "role": "ปรับปรุง",
        "date": "2558-02-17"
      }
    ],
    "tag": "a123-2a-2542-a103",
    "title": "กำหนดเขตที่ดิน ในท้องที่ตำบลศรีแก้วอำเภอเลิงนกทา ตำบลกุดชุม อำเภอกุดชุม และตำบลคำเตยอำเภอไทยเจริญ จังหวัดยโสธรให้เป็นเขตปฏิรูปที่ดิน"
  }
}