{
  "pages": [
    [
      [
        "พระราชกฤษฎีกา",
        "กำหนดเขตที่ดิน ในท้องที่ตำบลแม่นางขาว ตำบลบางวัน อำเภอคุระบุรี",
        "และตำบลบางนายสี อำเภอตะกั่วป่า จังหวัดพังงา",
        "ให้เป็นเขตปฏิรูปที่ดิน",
        "พ.ศ. ๒๕๔๗",
        "",
        "",
        "ภูมิพลอดุลยเดช ป.ร.",
        "ให้ไว้ ณ วันที่ ๓ ธันวาคม พ.ศ. ๒๕๔๗",
        "เป็นปีที่ ๕๙ ในรัชกาลปัจจุบัน"
      ]
    ],
    []
  ],
  "metadata": {
    "date_header": "2547-12-03",
    "date_modified": "2547-12-28",
    "date_original": "2547-12-28",
    "doctype": "พระราชกฤษฎีกา",
    "editors": [
      {
        "name": "วิภา",
        "role": "ปรับปรุง",
        "date": "2558-02-25"
      }
    ],
    "tag": "a123-2a-2547-a0021",
    "title": "กำหนดเขตที่ดิน ในท้องที่ตำบลแม่นางขาว ตำบลบางวัน อำเภอคุระบุรีและตำบลบางนายสี อำเภอตะกั่วป่า จังหวัดพังงาให้เป็นเขตปฏิรูปที่ดิน"
  }
}