{
  "pages": [
    [
      [
        "พระราชกฤษฎีกา",
        "กำหนดเขตที่ดิน ในท้องที่ตำบลวังนกแอ่น ตำบลชัยนาม ตำบลดินทอง",
        "ตำบลท่าหมื่นราม ตำบลพันชาลี อำเภอวังทอง และตำบลชมพู ตำบลเนินมะปราง",
        "ตำบลบ้านมุง ตำบลวังยาง ตำบลบ้านน้อยซุ้มขี้เหล็ก ตำบลวังโพรง",
        "อำเภอเนินมะปราง จังหวัดพิษณุโลก",
        "ให้เป็นเขตปฏิรูปที่ดิน",
        "พ.ศ. ๒๕๕๓",
        "",
        "",
        "ภูมิพลอดุลยเดช ป.ร.",
        "ให้ไว้ ณ วันที่ ๒๔ มีนาคม พ.ศ. ๒๕๕๓",
        "เป็นปีที่ ๖๕ ในรัชกาลปัจจุบัน"
      ]
    ],
    []
  ],
  "metadata": {
    "date_header": "2553-03-24",
    "date_modified": "2553-04-02",
    "date_original": "2553-04-02",
    "doctype": "พระราชกฤษฎีกา",
    "editors": [
      {
        "name": "วิภา",
        "role": "ปรับปรุง",
        "date": "2558-05-01"
      }
    ],
    "tag": "a123-2a-2553-a0009",
    "title": "กำหนดเขตที่ดิน ในท้องที่ตำบลวังนกแอ่น ตำบลชัยนาม ตำบลดินทองตำบลท่าหมื่นราม ตำบลพันชาลี อำเภอวังทอง และตำบลชมพู ตำบลเนินมะปรางตำบลบ้านมุง ตำบลวังยาง ตำบลบ้านน้อยซุ้มขี้เหล็ก ตำบลวังโพรงอำเภอเนินมะปราง จังหวัดพิษณุโลกให้เป็นเขตปฏิรูปที่ดิน"
  }
}