{
  "pages": [
    [
      [
        "พระราชกฤษฎีกา",
        "กำหนดเขตที่ดิน ในท้องที่ตำบลแม่ทราย และตำบลร้องกวาง",
        "อำเภอร้องกวาง จังหวัดแพร่",
        "ให้เป็นเขตปฏิรูปที่ดิน",
        "พ.ศ. ๒๕๕๐",
        "",
        "",
        "ภูมิพลอดุลยเดช ป.ร.",
        "ให้ไว้ ณ วันที่ ๒๑ กุมภาพันธ์ พ.ศ. ๒๕๕๐",
        "เป็นปีที่ ๖๒ ในรัชกาลปัจจุบัน"
      ]
    ],
    []
  ],
  "metadata": {
    "date_header": "2550-02-21",
    "date_modified": "2550-03-07",
    "date_original": "2550-03-07",
    "doctype": "พระราชกฤษฎีกา",
    "editors": [
      {
        "name": "วิภา",
        "role": "ปรับปรุง",
        "date": "2558-03-20"
      }
    ],
    "tag": "a123-2a-2550-a0018",
    "title": "กำหนดเขตที่ดิน ในท้องที่ตำบลแม่ทราย และตำบลร้องกวางอำเภอร้องกวาง จังหวัดแพร่ให้เป็นเขตปฏิรูปที่ดิน"
  }
}