{
  "pages": [
    [
      [
        "พระราชกฤษฎีกา",
        "กำหนดเขตที่ดิน ในท้องที่ตำบลขุนฝาง ตำบลบ้านด่านนาขาม ตำบลคุ้งตะเภา ตำบลผาจุก",
        "ตำบลป่าเซ่า และตำบลหาดกรวด อำเภอเมืองอุตรดิตถ์ จังหวัดอุตรดิตถ์",
        "ให้เป็นเขตปฏิรูปที่ดิน",
        "พ.ศ. ๒๕๕๔",
        "",
        "",
        "ภูมิพลอดุลยเดช ป.ร.",
        "ให้ไว้ ณ วันที่ ๒๒ พฤศจิกายน พ.ศ. ๒๕๕๔",
        "เป็นปีที่ ๖๖ ในรัชกาลปัจจุบัน"
      ]
    ],
    []
  ],
  "metadata": {
    "date_header": "2554-11-22",
    "date_modified": "2554-11-30",
    "date_original": "2554-11-30",
    "doctype": "พระราชกฤษฎีกา",
    "editors": [
      {
        "name": "ปริยานุช",
        "role": "ผู้จัดทำ",
        "date": "2554-12-01"
      },
      {
        "name": "ปณตภร",
        "role": "ผู้ตรวจ",
        "date": "2554-12-01"
      }
    ],
    "tag": "a123-2a-2554-a0028",
    "title": "กำหนดเขตที่ดิน ในท้องที่ตำบลขุนฝาง ตำบลบ้านด่านนาขาม ตำบลคุ้งตะเภา ตำบลผาจุกตำบลป่าเซ่า และตำบลหาดกรวด อำเภอเมืองอุตรดิตถ์ จังหวัดอุตรดิตถ์ให้เป็นเขตปฏิรูปที่ดิน"
  }
}