{
  "pages": [
    [
      [
        "พระราชกฤษฎีกา",
        "กำหนดเขตที่ดิน ในท้องที่ตำบลเพหลา และตำบลพรุดินนา",
        "อำเภอคลองท่อม จังหวัดกระบี่",
        "ให้เป็นเขตปฏิรูปที่ดิน",
        "พ.ศ. ๒๕๕๐",
        "",
        "",
        "ภูมิพลอดุลยเดช ป.ร.",
        "ให้ไว้ ณ วันที่ ๑๓ ธันวาคม พ.ศ. ๒๕๕๐",
        "เป็นปีที่ ๖๒ ในรัชกาลปัจจุบัน"
      ]
    ],
    []
  ],
  "metadata": {
    "date_header": "2550-12-13",
    "date_modified": "2550-12-29",
    "date_original": "2550-12-29",
    "doctype": "พระราชกฤษฎีกา",
    "editors": [
      {
        "name": "วิภา",
        "role": "ปรับปรุง",
        "date": "2558-03-30"
      }
    ],
    "tag": "a123-2a-2550-a0043",
    "title": "กำหนดเขตที่ดิน ในท้องที่ตำบลเพหลา และตำบลพรุดินนาอำเภอคลองท่อม จังหวัดกระบี่ให้เป็นเขตปฏิรูปที่ดิน"
  }
}