{
  "pages": [
    [
      [
        "พระราชกฤษฎีกา",
        "กำหนดเขตที่ดิน ในท้องที่ตำบลนายางกลัก และตำบลบ้านไร่",
        "อำเภอเทพสถิต จังหวัดชัยภูมิ",
        "ให้เป็นเขตปฏิรูปที่ดิน",
        "พ.ศ. ๒๕๔๒",
        "----------------------",
        "ภูมิพลอดุลยเดช ป.ร.",
        "ให้ไว้ ณ วันที่ ๒๖ ธันวาคม พ.ศ. ๒๕๔๒",
        "เป็นปีที่ ๕๔ ในรัชกาลปัจจุบัน"
      ]
    ],
    []
  ],
  "metadata": {
    "date_gz_old": "2542-12-30",
    "date_header": "2542-12-26",
    "doctype": "พระราชกฤษฎีกา",
    "editors": [
      {
        "name": "ภคินี",
        "role": "แก้ไข",
        "date": "2545-05-15"
      }
    ],
    "tag": "a123-2a-2542-a116",
    "title": "กำหนดเขตที่ดิน ในท้องที่ตำบลนายางกลัก และตำบลบ้านไร่อำเภอเทพสถิต จังหวัดชัยภูมิให้เป็นเขตปฏิรูปที่ดินพ.ศ. ๒๕๔๒----------------------ภูมิพลอดุลยเดช ป.ร.ให้ไว้ ณ วันที่ ๒๖ ธันวาคม"
  }
}