{
  "pages": [
    [
      [
        "พระราชกฤษฎีกา",
        "กำหนดเขตที่ดิน ในท้องที่ตำบลท่าเสา ตำบลวังกระแจะ ตำบลลุ่มสุ่ม ตำบลสิงห์ ตำบลศรีมงคล",
        "อำเภอไทรโยค ตำบลวังด้ง ตำบลลาดหญ้า ตำบลหนองบัว ตำบลแก่งเสี้ยน ตำบลท่ามะขาม",
        "ตำบลหนองหญ้า ตำบลบ้านเก่า ตำบลวังเย็น อำเภอเมืองกาญจนบุรี และตำบลจรเข้เผือก",
        "ตำบลด่านมะขามเตี้ย ตำบลกลอนโด ตำบลหนองไผ่ อำเภอด่านมะขามเตี้ย จังหวัดกาญจนบุรี",
        "ให้เป็นเขตปฏิรูปที่ดิน",
        "พ.ศ. ๒๕๕๔",
        "",
        "",
        "ภูมิพลอดุลยเดช ป.ร.",
        "ให้ไว้ ณ วันที่ ๒๑ พฤศจิกายน พ.ศ. ๒๕๕๔",
        "เป็นปีที่ ๖๖ ในรัชกาลปัจจุบัน"
      ]
    ],
    []
  ],
  "metadata": {
    "date_header": "2554-11-21",
    "date_modified": "2554-11-25",
    "date_original": "2554-11-25",
    "doctype": "พระราชกฤษฎีกา",
    "editors": [
      {
        "name": "ปริยานุช",
        "role": "ผู้จัดทำ",
        "date": "2554-11-28"
      },
      {
        "name": "ปณตภร",
        "role": "ผู้ตรวจ",
        "date": "2554-11-28"
      }
    ],
    "tag": "a123-2a-2554-a0021",
    "title": "กำหนดเขตที่ดิน ในท้องที่ตำบลท่าเสา ตำบลวังกระแจะ ตำบลลุ่มสุ่ม ตำบลสิงห์ ตำบลศรีมงคลอำเภอไทรโยค ตำบลวังด้ง ตำบลลาดหญ้า ตำบลหนองบัว ตำบลแก่งเสี้ยน ตำบลท่ามะขามตำบลหนองหญ้า ตำบลบ้านเก่า ตำบลวังเย็น อำเภอเมืองกาญจนบุรี และตำบลจรเข้เผือกตำบลด่านมะขามเตี้ย ตำบลกลอนโด ตำบลหนองไผ่ อำเภอด่านมะขามเตี้ย จังหวัดกาญจนบุรีให้เป็นเขตปฏิรูปที่ดิน"
  }
}