{
  "pages": [
    [
      [
        "พระราชกฤษฎีกา",
        "กำหนดเขตที่ดิน ในท้องที่ตำบลโคกสว่าง ตำบลโพธิ์ชัย อำเภอพนมไพร",
        "และตำบลหนองฮี ตำบลดูกอึ่ง กิ่งอำเภอหนองฮี",
        "อำเภอพนมไพร จังหวัดร้อยเอ็ด",
        "ให้เป็นเขตปฏิรูปที่ดิน",
        "พ.ศ. ๒๕๔๒",
        "",
        "",
        "ภูมิพลอดุลยเดช ป.ร.",
        "ให้ไว้ ณ วันที่ ๒๐ ธันวาคม พ.ศ. ๒๕๔๒",
        "เป็นปีที่ ๕๔ ในรัชกาลปัจจุบัน"
      ]
    ],
    []
  ],
  "metadata": {
    "date_header": "2542-12-20",
    "date_modified": "2542-12-28",
    "date_original": "2542-12-28",
    "doctype": "พระราชกฤษฎีกา",
    "editors": [
      {
        "name": "วิภา",
        "role": "ปรับปรุง",
        "date": "2558-02-12"
      }
    ],
    "tag": "a123-2a-2542-a106",
    "title": "กำหนดเขตที่ดิน ในท้องที่ตำบลโคกสว่าง ตำบลโพธิ์ชัย อำเภอพนมไพรและตำบลหนองฮี ตำบลดูกอึ่ง กิ่งอำเภอหนองฮีอำเภอพนมไพร จังหวัดร้อยเอ็ดให้เป็นเขตปฏิรูปที่ดิน"
  }
}