{
  "pages": [
    [
      [
        "พระราชกฤษฎีกา",
        "กำหนดเขตที่ดิน ในท้องที่ตำบลแก่งโสภา",
        "อำเภอวังทอง จังหวัดพิษณุโลก",
        "ให้เป็นเขตปฏิรูปที่ดิน",
        "พ.ศ. ๒๕๕๑",
        "",
        "",
        "ภูมิพลอดุลยเดช ป.ร.",
        "ให้ไว้ ณ วันที่ ๒๗ ธันวาคม พ.ศ. ๒๕๕๑",
        "เป็นปีที่ ๖๓ ในรัชกาลปัจจุบัน"
      ]
    ],
    []
  ],
  "metadata": {
    "date_header": "2551-12-27",
    "date_modified": "2551-12-31",
    "date_original": "2551-12-31",
    "doctype": "พระราชกฤษฎีกา",
    "editors": [
      {
        "name": "วิภา",
        "role": "ปรับปรุง",
        "date": "2558-03-30"
      }
    ],
    "tag": "a123-2a-2551-a0017",
    "title": "กำหนดเขตที่ดิน ในท้องที่ตำบลแก่งโสภาอำเภอวังทอง จังหวัดพิษณุโลกให้เป็นเขตปฏิรูปที่ดิน"
  }
}