{
  "pages": [
    [
      [
        "พระราชกฤษฎีกา",
        "กำหนดเขตที่ดิน ในท้องที่ตำบลป่าเว ตำบลโมถ่าย และตำบลเวียง",
        "อำเภอไชยา จังหวัดสุราษฏร์ธานี",
        "ให้เป็นเขตปฏิรูปที่ดิน",
        "พ.ศ. ๒๕๔๒",
        "",
        "",
        "ภูมิพลอดุลยเดช ป.ร.ให้ไว้ ณ วันที่ ๑๘ ธันวาคม พ.ศ. ๒๕๔๒เป็นปีที่ ๕๔ ในรัชกาลปัจจุบันพระบาทสมเด็จพระปรมินทรมหาภูมิพลอดุลยเดช มีพระบรมราชโองการโปรดเกล้าฯ ให้ประกาศว่า"
      ]
    ],
    []
  ],
  "metadata": {
    "date_header": "2542-12-18",
    "doctype": "พระราชกฤษฎีกา",
    "editors": [],
    "tag": "a123-2a-2542-a093",
    "title": "กำหนดเขตที่ดิน ในท้องที่ตำบลป่าเว ตำบลโมถ่าย และตำบลเวียงอำเภอไชยา จังหวัดสุราษฏร์ธานีให้เป็นเขตปฏิรูปที่ดิน"
  }
}