{
  "pages": [
    [
      [
        "พระราชกฤษฎีกา",
        "กำหนดเขตที่ดิน ในท้องที่ตำบลชะไว ตำบลหลักฟ้า ตำบลตรีณรงค์",
        "และตำบลจรเข้ร้อง อำเภอไชโย จังหวัดอ่างทอง",
        "ให้เป็นเขตปฏิรูปที่ดิน",
        "พ.ศ. ๒๕๕๗",
        "",
        "",
        "ภูมิพลอดุลยเดช ป.ร.",
        "ให้ไว้ ณ วันที่ ๓ พฤศจิกายน พ.ศ. ๒๕๕๗",
        "เป็นปีที่ ๖๙ ในรัชกาลปัจจุบัน"
      ]
    ],
    []
  ],
  "metadata": {
    "date_header": "2557-11-03",
    "date_modified": "2557-11-10",
    "date_original": "2557-11-10",
    "doctype": "พระราชกฤษฎีกา",
    "editors": [
      {
        "name": "ปริยานุช",
        "role": "ผู้จัดทำ",
        "date": "2557-11-12"
      },
      {
        "name": "จุฑามาศ",
        "role": "ผู้ตรวจ",
        "date": "2557-11-18"
      }
    ],
    "tag": "a123-2a-2557-a0001",
    "title": "กำหนดเขตที่ดิน ในท้องที่ตำบลชะไว ตำบลหลักฟ้า ตำบลตรีณรงค์และตำบลจรเข้ร้อง อำเภอไชโย จังหวัดอ่างทองให้เป็นเขตปฏิรูปที่ดิน"
  }
}