{
  "pages": [
    [
      [
        "พระราชกฤษฎีกา",
        "กำหนดเขตที่ดิน ในท้องที่ตำบลผักขะ อำเภอวัฒนานคร",
        "และตำบลคลองทับจันทร์ ตำบลบ้านด่าน อำเภออรัญประเทศ จังหวัดสระแก้ว",
        "ให้เป็นเขตปฏิรูปที่ดิน",
        "พ.ศ. ๒๕๕๔",
        "",
        "",
        "ภูมิพลอดุลยเดช ป.ร.",
        "ให้ไว้ ณ วันที่ ๒๖ ธันวาคม พ.ศ. ๒๕๕๔",
        "เป็นปีที่ ๖๖ ในรัชกาลปัจจุบัน"
      ]
    ],
    []
  ],
  "metadata": {
    "date_header": "2554-12-26",
    "date_modified": "2554-12-31",
    "date_original": "2554-12-31",
    "doctype": "พระราชกฤษฎีกา",
    "editors": [
      {
        "name": "ปริยานุช",
        "role": "ผู้จัดทำ",
        "date": "2555-01-09"
      },
      {
        "name": "ณัฐพร",
        "role": "ผู้ตรวจ",
        "date": "2555-01-09"
      }
    ],
    "tag": "a123-2a-2554-a0040",
    "title": "กำหนดเขตที่ดิน ในท้องที่ตำบลผักขะ อำเภอวัฒนานครและตำบลคลองทับจันทร์ ตำบลบ้านด่าน อำเภออรัญประเทศ จังหวัดสระแก้วให้เป็นเขตปฏิรูปที่ดิน"
  }
}