{
  "pages": [
    [
      [
        "พระราชกฤษฎีกา",
        "กำหนดเขตที่ดินในท้องที่ตำบลถ้ำกระต่ายทองและตำบลเขาคีริส",
        "อำเภอพรานกระต่าย จังหวัดกำแพงเพชร",
        "ให้เป็นเขตปฏิรูปที่ดิน",
        "พ.ศ. ๒๕๕๒",
        "",
        "",
        "ภูมิพลอดุลยเดช ป.ร.",
        "ให้ไว้ ณ วันที่ ๖ มิถุนายน พ.ศ. ๒๕๕๒",
        "เป็นปีที่ ๖๔ ในรัชกาลปัจจุบัน"
      ]
    ],
    []
  ],
  "metadata": {
    "date_header": "2552-06-06",
    "date_modified": "2552-07-15",
    "date_original": "2552-07-15",
    "doctype": "พระราชกฤษฎีกา",
    "editors": [
      {
        "name": "วิภา",
        "role": "ปรับปรุง",
        "date": "2558-03-30"
      }
    ],
    "tag": "a123-2a-2552-a0016",
    "title": "กำหนดเขตที่ดินในท้องที่ตำบลถ้ำกระต่ายทองและตำบลเขาคีริสอำเภอพรานกระต่าย จังหวัดกำแพงเพชรให้เป็นเขตปฏิรูปที่ดิน"
  }
}