{
  "pages": [
    [
      [
        "พระราชกฤษฎีกา",
        "กำหนดเขตที่ดิน ในท้องที่ตำบลเหมาะ",
        "อำเภอกะปง จังหวัดพังงา",
        "ให้เป็นเขตปฏิรูปที่ดิน",
        "พ.ศ. ๒๕๓๗",
        "",
        "",
        "ภูมิพลอดุลยเดช ป.ร.",
        "ให้ไว้ ณ วันที่ ๙ ธันวาคม พ.ศ. ๒๕๓๗",
        "เป็นปีที่ ๔๙ ในรัชกาลปัจจุบัน"
      ]
    ],
    []
  ],
  "metadata": {
    "date_header": "2537-12-09",
    "date_modified": "2537-12-23",
    "date_original": "2537-12-23",
    "doctype": "พระราชกฤษฎีกา",
    "editors": [
      {
        "name": "ศิรวัชร์",
        "role": "จัดทำ",
        "date": "2560-06-22"
      }
    ],
    "tag": "a123-2a-2537-a232",
    "title": "กำหนดเขตที่ดิน ในท้องที่ตำบลเหมาะอำเภอกะปง จังหวัดพังงาให้เป็นเขตปฏิรูปที่ดิน"
  }
}