{
  "pages": [
    [
      [
        "พระราชกฤษฎีกา",
        "กำหนดเขตที่ดิน ในท้องที่ตำบลยางคราม",
        "ตำบลสันติสุข ตำบลดอยหล่อ อำเภอดอยหล่อ และตำบลข่วงเปา",
        "อำเภอจอมทอง จังหวัดเชียงใหม่",
        "ให้เป็นเขตปฏิรูปที่ดิน",
        "พ.ศ. ๒๕๕๑",
        "",
        "",
        "ภูมิพลอดุลยเดช ป.ร.",
        "ให้ไว้ ณ วันที่ ๑๙ กรกฎาคม พ.ศ. ๒๕๕๑",
        "เป็นปีที่ ๖๓ ในรัชกาลปัจจุบัน"
      ]
    ],
    []
  ],
  "metadata": {
    "date_header": "2551-07-19",
    "date_modified": "2551-07-30",
    "date_original": "2551-07-30",
    "doctype": "พระราชกฤษฎีกา",
    "editors": [
      {
        "name": "วิภา",
        "role": "ปรับปรุง",
        "date": "2558-03-30"
      }
    ],
    "tag": "a123-2a-2551-a0009",
    "title": "กำหนดเขตที่ดิน ในท้องที่ตำบลยางครามตำบลสันติสุข ตำบลดอยหล่อ อำเภอดอยหล่อ และตำบลข่วงเปาอำเภอจอมทอง จังหวัดเชียงใหม่ให้เป็นเขตปฏิรูปที่ดิน"
  }
}