{
  "pages": [
    [
      [
        "ประกาศกระทรวงเกษตรและสหกรณ์",
        "เรื่อง รายงานรับ-จ่ายเงินของสำนักงานการปฏิรูปที่ดินเพื่อเกษตรกรรม",
        "(เฉพาะส่วนของเงินกองทุนการปฏิรูปที่ดินเพื่อเกษตรกรรม)"
      ]
    ],
    []
  ],
  "metadata": {
    "date_backmatter": "2552-12-25",
    "date_modified": "2553-01-21",
    "date_original": "2553-01-21",
    "doctype": "ประกาศ",
    "editors": [
      {
        "name": "ปริยานุช",
        "role": "ผู้จัดทำ",
        "date": "2553-01-26"
      },
      {
        "name": "นันท์นภัสร์",
        "role": "ตรวจ",
        "date": "2553-01-26"
      }
    ],
    "tag": "a123-2e-2553-a0001"
  }
}