{
  "pages": [
    [
      [
        "พระราชกฤษฎีกา",
        "กำหนดเขตที่ดิน ในท้องที่ตำบลเขาหลวง และตำบลทรายขาว",
        "อำเภอวังสะพุง จังหวัดเลย",
        "ให้เป็นเขตปฏิรูปที่ดิน",
        "พ.ศ. ๒๕๕๒",
        "",
        "",
        "ภูมิพลอดุลยเดช ป.ร.",
        "ให้ไว้ ณ วันที่ ๔ กรกฎาคม พ.ศ. ๒๕๕๒",
        "เป็นปีที่ ๖๔ ในรัชกาลปัจจุบัน"
      ]
    ],
    []
  ],
  "metadata": {
    "date_header": "2552-07-04",
    "date_modified": "2552-07-21",
    "date_original": "2552-07-21",
    "doctype": "พระราชกฤษฎีกา",
    "editors": [
      {
        "name": "วิภา",
        "role": "ปรับปรุง",
        "date": "2558-03-27"
      }
    ],
    "tag": "a123-2a-2552-a0061",
    "title": "กำหนดเขตที่ดิน ในท้องที่ตำบลเขาหลวง และตำบลทรายขาวอำเภอวังสะพุง จังหวัดเลยให้เป็นเขตปฏิรูปที่ดิน"
  }
}