{
  "pages": [
    [
      [
        "ประกาศกรมทรัพย์สินทางปัญญา",
        "เรื่อง การระบุชื่อสารเคมีเป็นภาษาอังกฤษในคำขอรับสิทธิบัตรและอนุสิทธิบัตร"
      ]
    ],
    []
  ],
  "metadata": {
    "date_backmatter": "2553-12-30",
    "date_modified": "2554-03-23",
    "date_original": "2554-03-23",
    "doctype": "ประกาศ",
    "editors": [],
    "tag": "ca38-2e-2554-a0006"
  }
}