{
  "pages": [
    [
      [
        "กฎกระทรวง",
        "ฉบับที่ ๒๕ (พ.ศ. ๒๕๔๒)",
        "ออกตามความในพระราชบัญญัติสิทธิบัตร",
        "พ.ศ. ๒๕๒๒"
      ]
    ],
    []
  ],
  "metadata": {
    "date_backmatter": "2542-09-24",
    "date_modified": "2542-09-27",
    "date_original": "2542-09-27",
    "doctype": "กฎกระทรวง",
    "editors": [
      {
        "name": "วิชชุตา",
        "role": "ผู้จัดทำ",
        "date": "2554-08-30"
      }
    ],
    "tag": "ca38-2b-2542-a005"
  }
}