{
  "pages": [
    [
      [
        "ประกาศสำนักงานสถิติแห่งชาติ",
        "เรื่อง รายละเอียดเกี่ยวกับวิธีดำเนินการในการสำรวจตัวอย่างการประกอบกิจการโรงแรมและเกสต์เฮาส์ พ.ศ. ๒๕๕๙"
      ]
    ],
    []
  ],
  "metadata": {
    "date_backmatter": "2559-04-29",
    "date_modified": "2559-06-02",
    "date_original": "2559-06-02",
    "doctype": "ประกาศ",
    "editors": [
      {
        "name": "กัญฑรัตน์/ปริยานุช",
        "role": "จัดทำ",
        "date": "2559-06-06"
      },
      {
        "name": "นุสรา",
        "role": "ตรวจ",
        "date": "2559-07-13"
      }
    ],
    "tag": "ca17-2e-2559-a0003"
  }
}