{
  "pages": [
    [
      [
        "กฎกระทรวง",
        "การสำรวจตัวอย่างภาวะเศรษฐกิจและสังคมของครัวเรือน",
        "พ.ศ. ๒๕๕๘"
      ]
    ],
    []
  ],
  "metadata": {
    "date_backmatter": "2558-12-17",
    "date_modified": "2558-12-29",
    "date_original": "2558-12-29",
    "doctype": "กฎกระทรวง",
    "editors": [
      {
        "name": "ปุณิกา/ปริยานุช",
        "role": "จัดทำ",
        "date": "2559-01-08"
      }
    ],
    "tag": "ca17-2b-2558-a0009"
  }
}