{
  "pages": [
    [
      [
        "พระราชกฤษฎีกา",
        "การสำรวจประชากรชาวเขาในเขตท้องที่บางจังหวัด",
        "พ.ศ. ๒๕๐๘",
        "-------------",
        "",
        "ภูมิพลอดุลยเดช ป.ร.",
        "ให้ไว้ ณ วันที่ ๘ ธันวาคม พ.ศ. ๒๕๐๘",
        "เป็นปีที่ ๒๐ ในรัชกาลปัจจุบัน"
      ]
    ],
    []
  ],
  "metadata": {
    "date_backmatter": "2508-12-15",
    "date_gz_old": "2508-12-14",
    "date_header": "2508-12-08",
    "editors": [],
    "tag": "ca17-2a-2508-001"
  }
}