{
  "pages": [
    [
      [
        "พระราชกฤษฎีกา",
        "การสำรวจการเปลี่ยนแปลงของประชากร",
        "พ.ศ. ๒๕๒๗",
        "-------------",
        "",
        "ภูมิพลอดุลยเดช ป.ร.",
        "ให้ไว้ ณ วันที่ ๒๘ เมษายน พ.ศ. ๒๕๒๗",
        "เป็นปีที่ ๓๙ ในรัชกาลปัจจุบัน"
      ]
    ],
    []
  ],
  "metadata": {
    "date_gz_old": "2527-05-09",
    "date_header": "2527-04-28",
    "editors": [],
    "tag": "ca17-2a-2527-028"
  }
}