{
  "pages": [
    [
      [
        "ประกาศสำนักงานสถิติแห่งชาติ",
        "เรื่อง รายละเอียดเกี่ยวกับวิธีดำเนินการในการจัดทำสำมะโนอุตสาหกรรม พ.ศ. ๒๕๖๐",
        "(การเก็บรวบรวมข้อมูลรายละเอียดของสถานประกอบการทั่วประเทศ (แจงนับ) ในปี พ.ศ. ๒๕๖๐)"
      ]
    ],
    []
  ],
  "metadata": {
    "date_backmatter": "2560-04-25",
    "date_modified": "2560-05-25",
    "date_original": "2560-05-25",
    "doctype": "ประกาศ",
    "editors": [
      {
        "name": "ภวรรณตรี",
        "role": "จัดทำ",
        "date": "2560-05-31"
      },
      {
        "name": "ชวัลพร",
        "role": "ตรวจ",
        "date": "2560-05-31"
      }
    ],
    "tag": "ca17-2e-2560-a0002"
  }
}