{
  "pages": [
    [
      [
        "พระราชกฤษฎีกา",
        "การสำรวจภาวะเศรษฐกิจและสังคมของประชาชนทั่วราชอาณาจักร",
        "พ.ศ. ๒๕๑๑",
        "-------------",
        "",
        "ภูมิพลอดุลยเดช ป.ร.",
        "ให้ไว้ ณ วันที่ ๑๓ ธันวาคม พ.ศ. ๒๕๑๑",
        "เป็นปีที่ ๒๓ ในรัชกาลปัจจุบัน"
      ]
    ],
    []
  ],
  "metadata": {
    "date_gz_old": "2511-12-24",
    "date_header": "2511-12-13",
    "editors": [],
    "tag": "ca17-2a-2511-012"
  }
}