{
  "pages": [
    [
      [
        "พระราชกฤษฎีกา",
        "การทำสำมะโนประมงทะเล",
        "พ.ศ. ๒๕๓๗",
        "-----------",
        "",
        "ภูมิพลอดุลยเดช ป.ร.",
        "ให้ไว้ ณ วันที่ ๑๔ เมษายน พ.ศ. ๒๕๓๗",
        "เป็นปีที่ ๔๙ ในรัชกาลปัจจุบัน"
      ]
    ],
    []
  ],
  "metadata": {
    "date_gz_old": "2537-04-27",
    "date_header": "2537-04-14",
    "editors": [],
    "tag": "ca17-2a-2537-037"
  }
}