{
  "pages": [
    [
      [
        "พระราชกฤษฎีกา",
        "การทำสำมะโนและการสำรวจธุรกิจทางการค้าและธุรกิจทางการบริการ",
        "พ.ศ. ๒๕๓๘",
        "-------------",
        "",
        "ภูมิพลอดุลยเดช ป.ร.",
        "ให้ไว้ ณ วันที่ ๑๒ ตุลาคม พ.ศ. ๒๕๓๘",
        "เป็นปีที่ ๕๐ ในรัชกาลปัจจุบัน"
      ]
    ],
    []
  ],
  "metadata": {
    "date_gz_old": "2538-10-25",
    "date_header": "2538-10-12",
    "editors": [],
    "tag": "ca17-2a-2538-040"
  }
}