{
  "pages": [
    [
      [
        "กฎสำนักนายกรัฐมนตรี",
        "ฉบับที่ ๓ (พ.ศ. ๒๕๐๕)",
        "ออกตามความในพระราชบัญญัติสถิติ พ.ศ. ๒๔๙๕"
      ]
    ],
    []
  ],
  "metadata": {
    "date_backmatter": "2505-09-26",
    "date_gz_old": "2505-10-09",
    "editors": [
      {
        "name": "พุทธชาด",
        "role": "แก้ไข",
        "date": "2545-10-25"
      }
    ],
    "tag": "ca17-2b-2505-a002"
  }
}