{
  "pages": [
    [
      [
        "ประกาศของคณะปฏิวัติ",
        "ฉบับที่ 39"
      ]
    ],
    []
  ],
  "metadata": {
    "date_backmatter": "2515-01-12",
    "doctype": "ประกาศ",
    "editors": [],
    "tag": "ca17-2l-2515-a0001"
  }
}