{
  "pages": [
    [
      [
        "พระราชกฤษฎีกา",
        "การสำรวจเนื้อที่และพืชผลการเกษตร",
        "พ.ศ. ๒๕๐๙",
        "-------------",
        "",
        "ในพระปรมาภิไธย"
      ]
    ],
    []
  ],
  "metadata": {
    "date_backmatter": "2509-07-26",
    "date_gz_old": "2509-08-02",
    "editors": [],
    "tag": "ca17-2a-2509-007"
  }
}