{
  "pages": [
    [
      [
        "พระราชกฤษฎีกา",
        "การสำรวจภาวะเศรษฐกิจและสังคมของครัวเรือนทั่วราชอาณาจักร",
        "พ.ศ. ๒๕๔๔",
        "---------",
        "ภูมิพลอดุลยเดช ป.ร.",
        "ให้ไว้ ณ วันที่ ๓๐ ธันวาคม พ.ศ. ๒๕๔๔",
        "เป็นปีที่ ๕๖ ในรัชกาลปัจจุบัน"
      ]
    ],
    []
  ],
  "metadata": {
    "date_backmatter": "2544-12-00",
    "date_gz_old": "2544-12-30",
    "date_header": "2544-12-30",
    "doctype": "พระราชกฤษฎีกา",
    "editors": [
      {
        "name": "ภคินี",
        "role": "แก้ไข",
        "date": "2545-04-29"
      }
    ],
    "tag": "ca17-2a-2544-a0001",
    "title": "การสำรวจภาวะเศรษฐกิจและสังคมของครัวเรือนทั่วราชอาณาจักรพ.ศ. ๒๕๔๔---------ภูมิพลอดุลยเดช ป.ร.ให้ไว้ ณ วันที่ ๓๐ ธันวาคม"
  }
}