{
  "pages": [
    [
      [
        "พระราชกฤษฎีกา",
        "การสำรวจการเปลี่ยนแปลงของประชากร",
        "พ.ศ. ๒๕๑๗",
        "-------------",
        "",
        "ภูมิพลอดุลยเดช ป.ร.",
        "ให้ไว้ ณ วันที่ ๖ เมษายน พ.ศ. ๒๕๑๗",
        "เป็นปีที่ ๒๙ ในรัชกาลปัจจุบัน"
      ]
    ],
    []
  ],
  "metadata": {
    "date_header": "2517-04-06",
    "editors": [],
    "tag": "ca17-2a-2517-015"
  }
}