{
  "pages": [
    [
      [
        "พระราชกฤษฎีกา",
        "การทำสำมะโนและการสำรวจธุรกิจทางการค้า",
        "และธุรกิจทางการบริการ",
        "พ.ศ. ๒๕๒๘",
        "",
        "",
        "ภูมิพลอดุลยเดช ป.ร.",
        "ให้ไว้ ณ วันที่ ๒๐ สิงหาคม พ.ศ. ๒๕๒๘",
        "เป็นปีที่ ๔๐ ในรัชกาลปัจจุบัน"
      ]
    ],
    []
  ],
  "metadata": {
    "date_backmatter": "2528-08-29",
    "date_header": "2528-08-20",
    "date_modified": "2531-03-31",
    "date_original": "2528-08-28",
    "doctype": "พระราชกฤษฎีกา",
    "editors": [
      {
        "name": "สัญชัย",
        "role": "ปรับปรุง",
        "date": "2550-01-15"
      }
    ],
    "tag": "ca17-2a-9999-update",
    "title": "การทำสำมะโนและการสำรวจธุรกิจทางการค้าและธุรกิจทางการบริการ"
  }
}