{
  "pages": [
    [
      [
        "คำสั่งจังหวัดเชียงใหม่",
        "ที่ ๔๐๖๖/๒๕๖๐",
        "เรื่อง ระงับการใช้ความเค็มในการเพาะเลี้ยงสัตว์น้ำในพื้นที่น้ำจืด ท้องที่จังหวัดเชียงใหม่"
      ]
    ],
    []
  ],
  "metadata": {
    "date_backmatter": "2560-08-25",
    "date_modified": "2560-11-15",
    "date_original": "2560-11-15",
    "editors": [
      {
        "name": "พรวิภา/อัญชลี",
        "role": "จัดทำ",
        "date": "2560-11-20"
      },
      {
        "name": "นุสรา",
        "role": "ตรวจ",
        "date": "2561-08-31"
      }
    ],
    "tag": "ca08-2f-2560-a0033"
  }
}