{
  "pages": [
    [
      [
        "ประกาศกรมควบคุมมลพิษ",
        "เรื่อง กำหนดประเภทของแหล่งน้ำในแม่น้ำปิง"
      ]
    ],
    []
  ],
  "metadata": {
    "date_backmatter": "2549-02-08",
    "date_modified": "2549-03-16",
    "date_original": "2549-03-16",
    "doctype": "ประกาศ",
    "editors": [
      {
        "name": "ชัชสรัญ",
        "role": "ผู้จัดทำ",
        "date": "2549-03-22"
      },
      {
        "name": "อมรรัตน์",
        "role": "ปรับปรุง",
        "date": "2549-11-08"
      },
      {
        "name": "ชุติมา",
        "role": "ปรับปรุง",
        "date": "2560-08-03"
      }
    ],
    "tag": "ca08-2e-2549-a0001"
  }
}