{
  "pages": [
    [
      [
        "ประกาศกระทรวงวิทยาศาสตร์ เทคโนโลยีและสิ่งแวดล้อม",
        "ฉบับที่ ๒ (พ.ศ. ๒๕๔๒)",
        "เรื่อง การกำหนดมาตรฐานควบคุมการปล่อยทิ้งอากาศเสียจากโรงไฟฟ้าเก่า"
      ]
    ],
    []
  ],
  "metadata": {
    "date_backmatter": "2542-12-02",
    "date_modified": "2542-12-27",
    "date_original": "2542-12-27",
    "doctype": "ประกาศ",
    "editors": [
      {
        "name": "ประภาศรี",
        "role": "พิมพ์",
        "date": "2550-10-00"
      },
      {
        "name": "จิรพงษ์",
        "role": "ตรวจ",
        "date": "2550-10-00"
      },
      {
        "name": "ชุติมา",
        "role": "ปรับปรุง",
        "date": "2560-08-03"
      }
    ],
    "tag": "ca08-2e-2542-a007"
  }
}