{
  "pages": [
    [
      [
        "ประกาศกระทรวงทรัพยากรธรรมชาติและสิ่งแวดล้อม",
        "ฉบับที่ ๓ (พ.ศ. ๒๕๔๘)",
        "เรื่อง แต่งตั้งเจ้าพนักงานควบคุมมลพิษ"
      ]
    ],
    []
  ],
  "metadata": {
    "date_backmatter": "2548-09-26",
    "date_modified": "2548-10-20",
    "date_original": "2548-10-20",
    "doctype": "ประกาศ",
    "editors": [
      {
        "name": "ชัชสรัญ",
        "role": "ผู้จัดทำ",
        "date": "2548-10-28"
      },
      {
        "name": "อมรรัตน์",
        "role": "ปรับปรุง",
        "date": "2549-11-07"
      },
      {
        "name": "ชุติมา",
        "role": "ปรับปรุง"
      }
    ],
    "tag": "ca08-2e-2548-a0007"
  }
}