{
  "pages": [
    [
      [
        "ประกาศคณะกรรมการสิ่งแวดล้อมแห่งชาติ",
        "ฉบับที่ ๒๕ (พ.ศ. ๒๕๔๗)",
        "เรื่อง กำหนดมาตรฐานคุณภาพดิน"
      ]
    ],
    []
  ],
  "metadata": {
    "date_backmatter": "2547-09-09",
    "date_modified": "2547-10-20",
    "date_original": "2547-10-20",
    "doctype": "ประกาศ",
    "editors": [
      {
        "name": "จิรพงษ์/พิมพ์",
        "role": "ตรวจ",
        "date": "2550-10-30"
      },
      {
        "name": "ชุติมา",
        "role": "ปรับปรุง",
        "date": "2560-08-03"
      }
    ],
    "tag": "ca08-2e-2547-a0010"
  }
}