{
  "pages": [
    [
      [
        "คำสั่งนายกรัฐมนตรี",
        "ที่ ๗/๒๕๕๙",
        "เรื่อง แก้ไขคำสั่งมอบอำนาจให้ผู้ว่าราชการกรุงเทพมหานคร และผู้ว่าราชการจังหวัด",
        "ปฏิบัติราชการแทนนายกรัฐมนตรี"
      ]
    ],
    []
  ],
  "metadata": {
    "date_backmatter": "2559-06-27",
    "date_modified": "2559-07-26",
    "date_original": "2559-07-26",
    "editors": [
      {
        "name": "ปุณิกา/ปริยานุช",
        "role": "จัดทำ",
        "date": "2559-08-03"
      },
      {
        "name": "นุสรา",
        "role": "ตรวจ",
        "date": "2559-10-28"
      }
    ],
    "tag": "ca08-2f-2559-a0001"
  }
}