{
  "pages": [
    [
      [
        "คำสั่งผู้ว่าราชการจังหวัดสระบุรี",
        "ที่ ๑๘๖๐/๒๕๕๔",
        "เรื่อง ระงับการใช้ความเค็มในการเพาะเลี้ยงสัตว์น้ำในเขตพื้นที่จังหวัดสระบุรี"
      ]
    ],
    []
  ],
  "metadata": {
    "date_backmatter": "2554-09-21",
    "date_modified": "2554-10-17",
    "date_original": "2554-10-17",
    "editors": [
      {
        "name": "ปริยานุช",
        "role": "ผู้จัดทำ",
        "date": "2554-10-26"
      },
      {
        "name": "ปณตภร",
        "role": "ผู้ตรวจ",
        "date": "2554-11-10"
      }
    ],
    "tag": "ca08-2f-2554-a0009"
  }
}