{
  "pages": [
    [
      [
        "ประกาศคณะกรรมการสิ่งแวดล้อมแห่งชาติ",
        "ฉบับที่ ๙ (พ.ศ. ๒๕๓๗)",
        "ออกตามความในพระราชบัญญัติส่งเสริมและรักษาคุณภาพสิ่งแวดล้อมแห่งชาติ",
        "พ.ศ. ๒๕๓๕",
        "เรื่อง กำหนดให้ท้องที่เขตจังหวัดสมุทรปราการเป็นเขตควบคุมมลพิษ"
      ]
    ],
    []
  ],
  "metadata": {
    "date_backmatter": "2537-03-15",
    "date_modified": "2537-05-10",
    "date_original": "2537-05-10",
    "doctype": "ประกาศ",
    "editors": [
      {
        "name": "นันทพล",
        "role": "ปรับปรุง",
        "date": "2549-11-07"
      },
      {
        "name": "ชุติมา",
        "role": "ปรับปรุง",
        "date": "2560-08-03"
      }
    ],
    "tag": "ca08-2e-2537-034"
  }
}