{
  "pages": [
    [
      [
        "คำสั่งจังหวัดนครนายก",
        "ที่ ๒๓๒๖/๒๕๖๐",
        "เรื่อง ระงับการใช้ความเค็มในการเพาะเลี้ยงสัตว์น้ำในพื้นที่น้ำจืด พื้นที่จังหวัดนครนายก"
      ]
    ],
    []
  ],
  "metadata": {
    "date_backmatter": "2560-12-26",
    "date_modified": "2561-01-26",
    "date_original": "2561-01-26",
    "editors": [
      {
        "name": "พรวิภา",
        "role": "จัดทำ",
        "date": "2561-01-24"
      }
    ],
    "tag": "ca08-2f-2561-a0001"
  }
}