{
  "pages": [
    [
      [
        "กฎกระทรวง",
        "กำหนดหลักเกณฑ์ วิธีการ และเงื่อนไข",
        "ในการออกคำสั่ง การยกเลิกคำสั่ง การทำและการยกเลิกเครื่องหมาย",
        "ห้ามใช้ยานพาหนะ และการใช้ยานพาหนะในขณะที่มีเครื่องหมายห้ามใช้ยานพาหนะ",
        "พ.ศ. ๒๕๕๐"
      ]
    ],
    []
  ],
  "metadata": {
    "date_backmatter": "2550-03-19",
    "date_modified": "2550-04-12",
    "date_original": "2550-04-12",
    "doctype": "กฎกระทรวง",
    "editors": [
      {
        "name": "โสรศ",
        "role": "ผู้จัดทำ",
        "date": "2550-04-20"
      },
      {
        "name": "ชุติมา",
        "role": "ปรับปรุง",
        "date": "2560-08-03"
      }
    ],
    "tag": "ca08-2b-2550-a0001"
  }
}