{
  "pages": [
    [
      [
        "ประกาศกระทรวงทรัพยากรธรรมชาติและสิ่งแวดล้อม",
        "เรื่อง การยกเลิกการแต่งตั้งเจ้าพนักงานควบคุมมลพิษ"
      ]
    ],
    []
  ],
  "metadata": {
    "date_backmatter": "2547-02-27",
    "date_modified": "2547-03-22",
    "date_original": "2547-03-22",
    "doctype": "ประกาศ",
    "editors": [
      {
        "name": "มยุรี",
        "role": "พิมพ์",
        "date": "2547-07-19"
      },
      {
        "name": "ศุภสรณ์/สุนันทา",
        "role": "ตรวจ",
        "date": "2547-08-08"
      },
      {
        "name": "สถาพร",
        "role": "ปรับปรุง",
        "date": "2549-11-08"
      },
      {
        "name": "ชุติมา",
        "role": "ปรับปรุง",
        "date": "2560-08-03"
      }
    ],
    "tag": "ca08-2e-2547-a0004"
  }
}