{
  "pages": [
    [
      [
        "ประกาศกระทรวงทรัพยากรธรรมชาติและสิ่งแวดล้อม",
        "เรื่อง กำหนดมาตรฐานค่าก๊าซคาร์บอนมอนอกไซด์และ",
        "ก๊าซไฮโดรคาร์บอนจากท่อไอเสียของรถยนต์สามล้อใช้งาน"
      ]
    ],
    []
  ],
  "metadata": {
    "date_backmatter": "2548-11-07",
    "date_modified": "2548-12-29",
    "date_original": "2548-12-29",
    "doctype": "ประกาศ",
    "editors": [
      {
        "name": "พชร",
        "role": "ผู้จัดทำ",
        "date": "2549-01-09"
      },
      {
        "name": "อมรรัตน์",
        "role": "ปรับปรุง",
        "date": "2549-11-07"
      },
      {
        "name": "ชุติมา",
        "role": "ปรับปรุง",
        "date": "2560-08-03"
      }
    ],
    "tag": "ca08-2e-2548-a0019"
  }
}