{
  "pages": [
    [
      [
        "ประกาศกรมควบคุมมลพิษ",
        "เรื่อง เกณฑ์การออกแบบระบบรวบรวมน้ำเสีย และระบบบำบัดน้ำเสียรวมของชุมชน"
      ]
    ],
    []
  ],
  "metadata": {
    "date_backmatter": "2553-03-05",
    "date_modified": "2553-06-08",
    "date_original": "2553-06-08",
    "doctype": "ประกาศ",
    "editors": [
      {
        "name": "ปริยานุช",
        "role": "ผู้จัดทำ",
        "date": "2553-06-16"
      },
      {
        "name": "นันท์นภัสร์",
        "role": "ตรวจ",
        "date": "2553-06-16"
      },
      {
        "name": "ชุติมา",
        "role": "ปรับปรุง",
        "date": "2560-08-03"
      }
    ],
    "tag": "ca08-2e-2553-a0021"
  }
}