{
  "pages": [
    [
      [
        "ประกาศกระทรวงวิทยาศาสตร์ เทคโนโลยีและสิ่งแวดล้อม",
        "เรื่อง กำหนดเขตพื้นที่และมาตรการคุ้มครองสิ่งแวดล้อม",
        "ในบริเวณเมืองพัทยา จังหวัดชลบุรี",
        "พ.ศ.๒๕๔๐"
      ]
    ],
    []
  ],
  "metadata": {
    "date_backmatter": "2540-09-30",
    "date_modified": "2540-10-01",
    "date_original": "2540-10-01",
    "doctype": "ประกาศ",
    "editors": [
      {
        "name": "นันทพล",
        "role": "ปรับปรุง",
        "date": "2549-11-07"
      },
      {
        "name": "ชุติมา",
        "role": "ปรับปรุง",
        "date": "2560-08-03"
      }
    ],
    "tag": "ca08-2e-2540-033"
  }
}