{
  "pages": [
    [
      [
        "ประกาศกระทรวงทรัพยากรธรรมชาติและสิ่งแวดล้อม",
        "เรื่อง กำหนดให้โรงงานกลั่นน้ำมันปิโตรเลียมเป็นแหล่งกำเนิดมลพิษ",
        "ที่จะต้องถูกควบคุมการปล่อยทิ้งอากาศเสียออกสู่บรรยากาศ"
      ]
    ],
    []
  ],
  "metadata": {
    "date_backmatter": "2554-08-30",
    "date_modified": "2554-10-12",
    "date_original": "2554-10-12",
    "doctype": "ประกาศ",
    "editors": [
      {
        "name": "ปริยานุช",
        "role": "ผู้จัดทำ",
        "date": "2554-10-20"
      },
      {
        "name": "ปณตภร",
        "role": "ผู้ตรวจ",
        "date": "2554-10-26"
      }
    ],
    "tag": "ca08-2e-2554-a0007"
  }
}