{
  "pages": [
    [
      [
        "ประกาศกระทรวงทรัพยากรธรรมชาติและสิ่งแวดล้อม",
        "ฉบับที่ ๔ (พ.ศ. ๒๕๕๑)",
        "เรื่อง แต่งตั้งเจ้าพนักงานควบคุมมลพิษ"
      ]
    ],
    []
  ],
  "metadata": {
    "date_backmatter": "2551-07-08",
    "date_modified": "2551-09-29",
    "date_original": "2551-09-29",
    "doctype": "ประกาศ",
    "editors": [
      {
        "name": "ปริยานุช",
        "role": "ผู้จัดทำ",
        "date": "2551-10-02"
      },
      {
        "name": "ชุติมา",
        "role": "ปรับปรุง",
        "date": "2560-08-03"
      }
    ],
    "tag": "ca08-2e-2551-a0017"
  }
}