{
  "pages": [
    [
      [
        "ประกาศกรมควบคุมมลพิษ",
        "เรื่อง กำหนดประเภทของแหล่งน้ำในแม่น้ำลี้"
      ]
    ],
    []
  ],
  "metadata": {
    "date_backmatter": "2551-03-27",
    "date_modified": "2551-04-11",
    "date_original": "2551-04-11",
    "doctype": "ประกาศ",
    "editors": [
      {
        "name": "วัชศักดิ์",
        "role": "ผู้จัดทำ",
        "date": "2551-04-17"
      },
      {
        "name": "ชุติมา",
        "role": "ปรับปรุง",
        "date": "2560-08-03"
      }
    ],
    "tag": "ca08-2e-2551-a0005"
  }
}