{
  "pages": [
    [
      [
        "ประกาศคณะกรรมการสิ่งแวดล้อมแห่งชาติ",
        "ฉบับที่ ๑๒ (พ.ศ. ๒๕๓๘)",
        "ออกตามความในพระราชบัญญัติส่งเสริมและรักษาคุณภาพสิ่งแวดล้อมแห่งชาติ",
        "พ.ศ. ๒๕๓๕",
        "เรื่อง กำหนดมาตรฐานค่าก๊าซซัลเฟอร์ไดออกไซด์",
        "ในบรรยากาศโดยทั่วไปในเวลา ๑ ชั่วโมง"
      ]
    ],
    []
  ],
  "metadata": {
    "date_backmatter": "2539-06-26",
    "date_modified": "2544-04-30",
    "date_original": "2538-07-13",
    "doctype": "ประกาศ",
    "editors": [
      {
        "name": "จิรพงษ์",
        "role": "ปรับปรุง",
        "date": "2550-10-31"
      },
      {
        "name": "ชุติมา",
        "role": "ปรับปรุง",
        "date": "2560-08-03"
      }
    ],
    "tag": "ca08-2e-9994-update"
  }
}