{
  "pages": [
    [
      [
        "ประกาศคณะกรรมการสิ่งแวดล้อมแห่งชาติ",
        "เรื่อง หลักเกณฑ์ และวิธีการในการแต่งตั้งคณะกรรมการผู้ชำนาญการ",
        "พิจารณารายงานการประเมินผลกระทบสิ่งแวดล้อม"
      ]
    ],
    []
  ],
  "metadata": {
    "date_backmatter": "2561-08-11",
    "date_modified": "2561-08-27",
    "date_original": "2561-08-27",
    "doctype": "ประกาศ",
    "editors": [
      {
        "name": "ปวันวิทย์",
        "role": "จัดทำ",
        "date": "2561-10-01"
      }
    ],
    "tag": "ca08-2e-2561-a0010"
  }
}