{
  "pages": [
    [
      [
        "คำสั่งจังหวัดสกลนคร",
        "ที่ ๕๗๑๘/๒๕๕๙",
        "เรื่อง ระงับการใช้ความเค็มในการเพาะเลี้ยงสัตว์น้ำในเขตพื้นที่จังหวัดสกลนคร"
      ]
    ],
    []
  ],
  "metadata": {
    "date_backmatter": "2559-12-30",
    "date_modified": "2560-03-13",
    "date_original": "2560-03-13",
    "editors": [
      {
        "name": "ชวัลพร/ปริยานุช",
        "role": "จัดทำ",
        "date": "2560-03-17"
      },
      {
        "name": "ชุติมา",
        "role": "ปรับปรุง",
        "date": "2560-08-03"
      }
    ],
    "tag": "ca08-2f-2560-a0017"
  }
}