{
  "pages": [
    [
      [
        "ระเบียบคณะกรรมการกองทุนสิ่งแวดล้อม",
        "ว่าด้วยหลักเกณฑ์ เงื่อนไข และวิธีการขอจัดสรร",
        "และขอกู้ยืมเงินกองทุนสิ่งแวดล้อม ฉบับที่ ๒",
        "(พ.ศ. ๒๕๕๘)"
      ]
    ],
    []
  ],
  "metadata": {
    "date_backmatter": "2558-12-28",
    "date_modified": "2559-01-21",
    "date_original": "2559-01-21",
    "editors": [
      {
        "name": "ปริยานุช",
        "role": "จัดทำ",
        "date": "2559-01-25"
      },
      {
        "name": "วริญา",
        "role": "ตรวจ",
        "date": "2559-01-29"
      }
    ],
    "tag": "ca08-2g-2559-a0001"
  }
}