{
  "pages": [
    [
      [
        "ประกาศกระทรวงวิทยาศาสตร์ เทคโนโลยีและสิ่งแวดล้อม",
        "เรื่อง แผนจัดการคุณภาพสิ่งแวดล้อม"
      ]
    ],
    []
  ],
  "metadata": {
    "date_backmatter": "2535-07-19",
    "date_modified": "2536-09-15",
    "date_original": "2536-09-15",
    "doctype": "ประกาศ",
    "editors": [
      {
        "name": "ณัฐดนัย",
        "role": "พิมพ์",
        "date": "2550-10-11"
      },
      {
        "name": "จิรพงษ์",
        "role": "ตรวจ",
        "date": "2550-10-26"
      },
      {
        "name": "ชุติมา",
        "role": "ปรับปรุง",
        "date": "2560-08-03"
      }
    ],
    "tag": "ca08-2e-2536-009"
  }
}