{
  "pages": [
    [
      [
        "กฎกระทรวง",
        "ฉบับที่ ๓ (พ.ศ. ๒๕๔๒)",
        "ออกตามความในพระราชบัญญัติการบริหารองค์กรศาสนาอิสลาม พ.ศ. ๒๕๔๐"
      ]
    ],
    []
  ],
  "metadata": {
    "date_backmatter": "2542-11-03",
    "date_modified": "2542-11-04",
    "date_original": "2542-11-04",
    "doctype": "กฎกระทรวง",
    "editors": [
      {
        "name": "วิชชุตา",
        "role": "ผู้จัดทำ",
        "date": "2554-04-20"
      },
      {
        "name": "นฤตยา",
        "role": "ผู้ตรวจ",
        "date": "2554-05-26"
      }
    ],
    "tag": "a188-2b-2542-a003"
  }
}