{
  "pages": [
    [
      [
        "ประกาศจังหวัดตรัง",
        "เรื่อง จัดตั้งมัสยิด"
      ]
    ],
    []
  ],
  "metadata": {
    "date_backmatter": "2548-09-15",
    "date_modified": "2548-11-10",
    "date_original": "2548-11-10",
    "doctype": "ประกาศ",
    "editors": [
      {
        "name": "วิชชุตา",
        "role": "ผู้จัดทำ",
        "date": "2554-04-22"
      },
      {
        "name": "นฤตยา",
        "role": "ผู้ตรวจ",
        "date": "2554-05-26"
      }
    ],
    "tag": "a188-2e-2548-a0005"
  }
}