{
  "pages": [
    [
      [
        "ประกาศกรุงเทพมหานคร",
        "เรื่อง การจดทะเบียนจัดตั้งมัสยิด"
      ]
    ],
    []
  ],
  "metadata": {
    "date_backmatter": "2556-09-10",
    "date_modified": "2556-10-31",
    "date_original": "2556-10-31",
    "doctype": "ประกาศ",
    "editors": [
      {
        "name": "ปริยานุช",
        "role": "ผู้จัดทำ",
        "date": "2556-11-04"
      },
      {
        "name": "อุษมล",
        "role": "ผู้ตรวจ",
        "date": "2556-11-05"
      }
    ],
    "tag": "a188-2e-2556-a0006"
  }
}