{
  "pages": [
    [
      [
        "ประกาศจังหวัดปัตตานี",
        "เรื่อง การจัดตั้งมัสยิด"
      ]
    ],
    []
  ],
  "metadata": {
    "date_backmatter": "2550-09-06",
    "date_modified": "2550-10-18",
    "date_original": "2550-10-18",
    "doctype": "ประกาศ",
    "editors": [
      {
        "name": "วิชชุตา",
        "role": "ผู้จัดทำ",
        "date": "2554-04-26"
      },
      {
        "name": "นฤตยา",
        "role": "ผู้ตรวจ",
        "date": "2554-05-26"
      }
    ],
    "tag": "a188-2e-2550-a0038"
  }
}