{
  "pages": [
    [
      [
        "ประกาศจังหวัดนราธิวาส",
        "เรื่อง จัดตั้งมัสยิดอัลบายาน"
      ]
    ],
    []
  ],
  "metadata": {
    "date_backmatter": "2549-04-11",
    "date_modified": "2549-05-04",
    "date_original": "2549-05-04",
    "doctype": "ประกาศ",
    "editors": [
      {
        "name": "วิชชุตา",
        "role": "ผู้จัดทำ",
        "date": "2554-04-25"
      },
      {
        "name": "นฤตยา",
        "role": "ผู้ตรวจ",
        "date": "2554-05-26"
      }
    ],
    "tag": "a188-2e-2549-a0012"
  }
}