{
  "pages": [
    [
      [
        "กฎกระทรวง",
        "ฉบับที่ ๓ (พ.ศ. ๒๕๓๘)",
        "ออกตามความในพระราชบัญญัติประกันชีวิต",
        "พ.ศ. ๒๕๓๕"
      ]
    ],
    []
  ],
  "metadata": {
    "date_backmatter": "2538-12-11",
    "date_modified": "2538-12-30",
    "date_original": "2538-12-30",
    "doctype": "กฎกระทรวง",
    "editors": [
      {
        "name": "ปริญสินีย์",
        "role": "ผู้จัดทำ",
        "date": "2555-05-24"
      }
    ],
    "tag": "bb09-2b-2538-003"
  }
}