{
  "pages": [
    [
      [
        "ประกาศกรมการประกันภัย",
        "เรื่อง การมอบหมายการดำเนินงานการสอบความรู้เกี่ยวกับ",
        "การประกันชีวิตสำหรับผู้สมัครสอบความรู้เพื่อขอรับใบอนุญาต",
        "เป็นตัวแทนประกันชีวิตประจำปี ๒๕๔๗ ในภูมิภาค"
      ]
    ],
    []
  ],
  "metadata": {
    "date_backmatter": "2547-03-09",
    "date_modified": "2547-03-26",
    "date_original": "2547-03-26",
    "doctype": "ประกาศ",
    "editors": [
      {
        "name": "ปริญสินีย์",
        "role": "ผู้จัดทำ",
        "date": "2555-05-24"
      },
      {
        "name": "วิภา",
        "role": "ปรับปรุง",
        "date": "2557-10-14"
      }
    ],
    "tag": "bb09-2e-2547-a0002"
  }
}