{
  "pages": [
    [
      [
        "ประกาศนายทะเบียน",
        "เรื่อง หลักเกณฑ์ วิธีการ และเงื่อนไขในการประกอบธุรกิจเกี่ยวกับหลักทรัพย์",
        "ของบริษัทประกันชีวิต",
        "พ.ศ. ๒๕๕๘"
      ]
    ],
    []
  ],
  "metadata": {
    "date_backmatter": "2558-02-16",
    "date_modified": "2558-03-27",
    "date_original": "2558-03-27",
    "doctype": "ประกาศ",
    "editors": [
      {
        "name": "ปริยานุช",
        "role": "ผู้จัดทำ",
        "date": "2558-03-30"
      },
      {
        "name": "ปริญสินีย์",
        "role": "ผู้ตรวจ",
        "date": "2558-03-30"
      }
    ],
    "tag": "bb09-2e-2558-a0006"
  }
}