{
  "pages": [
    [
      [
        "ประกาศสำนักงานคณะกรรมการกำกับและส่งเสริม",
        "การประกอบธุรกิจประกันภัย",
        "เรื่อง ขยายระยะเวลาการจัดทำและยื่นรายงานเกี่ยวกับฐานะการเงิน",
        "และกิจการของบริษัทประกันชีวิต พ.ศ. ๒๕๕๓"
      ]
    ],
    []
  ],
  "metadata": {
    "date_backmatter": "2553-05-27",
    "date_modified": "2553-07-02",
    "date_original": "2553-07-02",
    "doctype": "ประกาศ",
    "editors": [
      {
        "name": "ปริญสินีย์",
        "role": "ผู้จัดทำ",
        "date": "2555-05-24"
      },
      {
        "name": "วิภา",
        "role": "ปรับปรุง",
        "date": "2557-09-01"
      }
    ],
    "tag": "bb09-2e-2553-a0010"
  }
}