{
  "pages": [
    [
      [
        "ประกาศนายทะเบียน",
        "เรื่อง กำหนดให้บริษัทประกันชีวิตเปิดทำการติดต่อกับประชาชน",
        "ประจำปี พ.ศ. ๒๕๕๑"
      ]
    ],
    []
  ],
  "metadata": {
    "date_backmatter": "2550-08-22",
    "date_modified": "2550-09-19",
    "date_original": "2550-09-19",
    "doctype": "ประกาศ",
    "editors": [
      {
        "name": "ปริญสินีย์",
        "role": "ผู้จัดทำ",
        "date": "2555-05-24"
      },
      {
        "name": "วิภา",
        "role": "ปรับปรุง",
        "date": "2557-08-14"
      }
    ],
    "tag": "bb09-2e-2550-a0010"
  }
}