{
  "pages": [
    [
      [
        "ประกาศกระทรวงพาณิชย์",
        "เรื่อง คุณสมบัติและความรู้ของผู้รับรองรายงาน",
        "การคำนวณความรับผิดชอบตามกรมธรรม์ประกันภัย"
      ]
    ],
    []
  ],
  "metadata": {
    "date_backmatter": "2545-08-23",
    "date_modified": "2545-09-02",
    "date_original": "2545-09-02",
    "doctype": "ประกาศ",
    "editors": [
      {
        "name": "ปริญสินีย์",
        "role": "ผู้จัดทำ",
        "date": "2555-05-24"
      },
      {
        "name": "วิภา",
        "role": "ผู้จัดทำ",
        "date": "2557-10-12"
      }
    ],
    "tag": "bb09-2e-2545-a009"
  }
}