{
  "pages": [
    [
      [
        "ประกาศกระทรวงพาณิชย์",
        "เรื่อง หลักเกณฑ์ วิธีการและเงื่อนไขในการขออนุญาตเปิดสาขา",
        "ย้ายที่ตั้งสำนักงานใหญ่ หรือสำนักงานสาขาของบริษัท ประกันชีวิต"
      ]
    ],
    []
  ],
  "metadata": {
    "date_backmatter": "2542-01-05",
    "date_modified": "2542-04-01",
    "date_original": "2542-04-01",
    "doctype": "ประกาศ",
    "editors": [
      {
        "name": "ปริญสินีย์",
        "role": "ผู้จัดทำ",
        "date": "2555-05-24"
      },
      {
        "name": "วิภา",
        "role": "ปรับปรุง",
        "date": "2557-10-14"
      }
    ],
    "tag": "bb09-2e-2542-a002"
  }
}