{
  "pages": [
    [
      [
        "ประกาศนายทะเบียน",
        "เรื่อง หลักเกณฑ์ วิธีการ และเงื่อนไขการจัดทำโครงการพัฒนาอสังหาริมทรัพย์",
        "ของบริษัทประกันชีวิต",
        "พ.ศ. ๒๕๕๘"
      ]
    ],
    []
  ],
  "metadata": {
    "date_backmatter": "2558-09-14",
    "date_modified": "2559-11-24",
    "date_original": "2558-10-29",
    "doctype": "ประกาศ",
    "editors": [
      {
        "name": "ชนิกา",
        "role": "จัดทำ",
        "date": "2559-12-09"
      }
    ],
    "tag": "bb09-2e-9987-update"
  }
}