{
  "pages": [
    [
      [
        "ประกาศกระทรวงพาณิชย์",
        "เรื่อง หลักเกณฑ์ วิธีการ และระยะเวลาที่ถือว่าเป็นการประวิงการใช้เงิน",
        "หรือประวิงการคืนเบี้ยประกันภัยของบริษัทประกันชีวิต"
      ]
    ],
    []
  ],
  "metadata": {
    "date_backmatter": "2548-01-04",
    "date_modified": "2548-03-03",
    "date_original": "2548-03-03",
    "doctype": "ประกาศ",
    "editors": [
      {
        "name": "ปริญสินีย์",
        "role": "ผู้จัดทำ",
        "date": "2555-05-24"
      }
    ],
    "tag": "bb09-2e-2548-a0002"
  }
}