{
  "pages": [
    [
      [
        "ประกาศนายทะเบียน",
        "เรื่อง กำหนดหลักสูตรและวิธีการสอบความรู้",
        "เกี่ยวกับการประกันชีวิต"
      ]
    ],
    []
  ],
  "metadata": {
    "date_backmatter": "2542-06-16",
    "date_modified": "2542-07-13",
    "date_original": "2542-07-13",
    "doctype": "ประกาศ",
    "editors": [
      {
        "name": "ปริญสินีย์",
        "role": "ผู้จัดทำ",
        "date": "2555-05-24"
      }
    ],
    "tag": "bb09-2e-2542-a003"
  }
}