{
  "pages": [
    [
      [
        "ประกาศนายทะเบียน",
        "เรื่อง หลักเกณฑ์การให้ความเห็นชอบแบบและข้อความการจ่ายผลประโยชน์",
        "ตามกรมธรรม์ประกันภัยและอัตราเบี้ยประกันภัย ของกรมธรรม์ประกันชีวิต",
        "ที่ชำระเบี้ยประกันภัยรายงวด",
        "พ.ศ. ๒๕๕๔"
      ]
    ],
    []
  ],
  "metadata": {
    "date_backmatter": "2554-03-17",
    "date_modified": "2554-11-07",
    "date_original": "2554-11-07",
    "doctype": "ประกาศ",
    "editors": [
      {
        "name": "ปริยานุช",
        "role": "ผู้จัดทำ",
        "date": "2554-11-16"
      },
      {
        "name": "ปณตภร",
        "role": "ผู้ตรวจ",
        "date": "2554-11-22"
      }
    ],
    "tag": "bb09-2e-2554-a0013"
  }
}