{
  "pages": [
    [
      [
        "คำสั่งนายทะเบียน",
        "ที่ ๖/๒๕๕๖",
        "เรื่อง ให้นิติบุคคลที่ประกอบธุรกิจนายหน้าประกันชีวิต",
        "ยื่นรายงานเกี่ยวกับผลของการประกอบธุรกิจ"
      ]
    ],
    []
  ],
  "metadata": {
    "date_backmatter": "2556-02-11",
    "date_modified": "2556-03-14",
    "date_original": "2556-03-14",
    "editors": [
      {
        "name": "ปริยานุช",
        "role": "ผู้จัดทำ",
        "date": "2556-03-18"
      },
      {
        "name": "อุษมล",
        "role": "ผู้ตรวจ",
        "date": "2556-03-26"
      }
    ],
    "tag": "bb09-2f-2556-a0001"
  }
}