{
  "pages": [
    [
      [
        "ประกาศนายทะเบียน",
        "เรื่อง การกำหนดรายชื่อรัฐวิสาหกิจที่เป็นบริษัทจำกัด"
      ]
    ],
    []
  ],
  "metadata": {
    "date_backmatter": "2545-06-12",
    "date_modified": "2545-06-18",
    "date_original": "2545-06-18",
    "doctype": "ประกาศ",
    "editors": [
      {
        "name": "ปริญสินีย์",
        "role": "ผู้จัดทำ",
        "date": "2555-05-24"
      },
      {
        "name": "วิภา",
        "role": "ผู้จัดทำ",
        "date": "2557-10-12"
      }
    ],
    "tag": "bb09-2e-2545-a008"
  }
}