{
  "pages": [
    [
      [
        "คำสั่งสำนักงานคณะกรรมการกำกับและส่งเสริม",
        "การประกอบธุรกิจประกันภัย",
        "ที่ ๑๙/๒๕๕๐",
        "เรื่อง การมอบหมายอำนาจหน้าที่"
      ]
    ],
    []
  ],
  "metadata": {
    "date_backmatter": "2550-11-29",
    "date_modified": "2551-05-21",
    "date_original": "2551-05-21",
    "editors": [
      {
        "name": "ปริญสินีย์",
        "role": "ผู้จัดทำ",
        "date": "2555-05-24"
      }
    ],
    "tag": "bb09-2f-2551-a0001"
  }
}