{
  "pages": [
    [
      [
        "ประกาศคณะกรรมการกำกับและส่งเสริมการประกอบธุรกิจประกันภัย",
        "เรื่อง หลักเกณฑ์ วิธีการ และเงื่อนไข ในการจัดสรรเบี้ยประกันภัยไว้เป็นเงินสำรองประกันภัย",
        "สำหรับกรมธรรม์ประกันภัยที่ยังมีความผูกพันอยู่ และเงินสำรองอื่นของบริษัทประกันชีวิต",
        "พ.ศ. ๒๕๕๔"
      ]
    ],
    []
  ],
  "metadata": {
    "date_backmatter": "2554-11-18",
    "date_modified": "2554-12-20",
    "date_original": "2554-12-20",
    "doctype": "ประกาศ",
    "editors": [
      {
        "name": "ปริยานุช",
        "role": "ผู้จัดทำ",
        "date": "2554-12-23"
      },
      {
        "name": "ปณตภร",
        "role": "ผู้ตรวจ",
        "date": "2554-12-27"
      }
    ],
    "tag": "bb09-2e-2554-a0017"
  }
}