{
  "pages": [
    [
      [
        "ประกาศสำนักงานคณะกรรมการกำกับและส่งเสริมการประกอบธุรกิจประกันภัย",
        "เรื่อง กำหนดกรณีที่ถือว่ากรรมการ ผู้จัดการ บุคคลซึ่งมีอำนาจกระทำการแทนบริษัทประกันชีวิต",
        "หรือที่ปรึกษาของบริษัทประกันชีวิต มีประวัติเสียหายหรือดำเนินกิจการใดที่มีลักษณะที่แสดงถึง",
        "การขาดความรับผิดชอบหรือความรอบคอบเยี่ยงผู้ประกอบวิชาชีพในฐานะเช่นนั้น",
        "จักต้องมีตามวิสัยและพฤติการณ์",
        "พ.ศ. ๒๕๕๖"
      ]
    ],
    []
  ],
  "metadata": {
    "date_backmatter": "2556-07-26",
    "date_modified": "2556-08-30",
    "date_original": "2556-08-30",
    "doctype": "ประกาศ",
    "editors": [
      {
        "name": "ปริยานุช",
        "role": "ผู้จัดทำ",
        "date": "2556-09-02"
      },
      {
        "name": "อุษมล",
        "role": "ผู้ตรวจ",
        "date": "2556-09-09"
      }
    ],
    "tag": "bb09-2e-2556-a0004"
  }
}