{
  "pages": [
    [
      [
        "ข้อบังคับกรมการประกันภัย",
        "ว่าด้วยอนุญาโตตุลาการ"
      ]
    ],
    []
  ],
  "metadata": {
    "date_backmatter": "2541-09-01",
    "date_modified": "2541-12-01",
    "date_original": "2541-12-01",
    "editors": [
      {
        "name": "ปริญสินีย์",
        "role": "ผู้จัดทำ",
        "date": "2555-05-24"
      },
      {
        "name": "วิภา",
        "role": "ปรับปรุง",
        "date": "2557-09-01"
      }
    ],
    "tag": "bb09-2i-2541-a0001"
  }
}