{
  "pages": [
    [
      [
        "ประกาศกระทรวงพาณิชย์",
        "เรื่อง การดำรงทรัพย์สินไว้ในประเทศไทยของสาขาบริษัทประกันชีวิตต่างประเทศ"
      ]
    ],
    []
  ],
  "metadata": {
    "date_backmatter": "2536-07-23",
    "date_modified": "2536-08-17",
    "date_original": "2536-08-17",
    "doctype": "ประกาศ",
    "editors": [
      {
        "name": "ปริญสินีย์",
        "role": "ผู้จัดทำ",
        "date": "2555-05-24"
      },
      {
        "name": "วิภา",
        "role": "ปรับปรุง",
        "date": "2557-10-13"
      }
    ],
    "tag": "bb09-2e-2536-006"
  }
}