{
  "pages": [
    [
      [
        "คำสั่งนายทะเบียน",
        "ที่ ๓๐/๒๕๕๓",
        "เรื่อง ให้บริษัทเปิดเผยข้อมูลเกี่ยวกับฐานะการเงินและผลการดำเนินงานของบริษัทประกันชีวิต",
        "(ฉบับที่ ๓)"
      ]
    ],
    []
  ],
  "metadata": {
    "date_backmatter": "2553-05-31",
    "date_modified": "2553-06-30",
    "date_original": "2553-06-30",
    "editors": [
      {
        "name": "ปริญสินีย์",
        "role": "ผู้จัดทำ",
        "date": "2555-05-24"
      }
    ],
    "tag": "bb09-2f-2553-a0004"
  }
}