{
  "pages": [
    [
      [
        "ประกาศคณะกรรมการกำกับและส่งเสริมการประกอบธุรกิจประกันภัย",
        "เรื่อง หลักเกณฑ์ วิธีการออกกรมธรรม์ประกันภัย การเสนอขายกรมธรรม์ประกันภัย",
        "และการชดใช้เงินตามสัญญาประกันชีวิต โดยใช้วิธีการทางอิเล็กทรอนิกส์",
        "พ.ศ. ๒๕๖๐"
      ]
    ],
    []
  ],
  "metadata": {
    "date_backmatter": "2560-02-22",
    "date_modified": "2560-02-27",
    "date_original": "2560-02-27",
    "doctype": "ประกาศ",
    "editors": [
      {
        "name": "ปริยานุช",
        "role": "จัดทำ",
        "date": "2560-03-08"
      },
      {
        "name": "พรวิภา",
        "role": "ตรวจ",
        "date": "2560-03-08"
      }
    ],
    "tag": "bb09-2e-2560-a0002"
  }
}