{
  "pages": [
    [
      [
        "ประกาศนายทะเบียน",
        "เรื่อง กำหนดหลักเกณฑ์ วิธีการ และเงื่อนไข ในการจัดทำ",
        "รายงานการดำรงเงินกองทุนของบริษัทประกันชีวิต",
        "พ.ศ. ๒๕๕๔"
      ]
    ],
    []
  ],
  "metadata": {
    "date_backmatter": "2554-08-31",
    "date_modified": "2554-12-20",
    "date_original": "2554-11-01",
    "doctype": "ประกาศ",
    "editors": [
      {
        "name": "ปณตภร",
        "role": "ผู้จัดทำ",
        "date": "2555-01-17"
      }
    ],
    "tag": "bb09-2e-2554-a0020"
  }
}