{
  "pages": [
    [
      [
        "ประกาศคณะกรรมการกำกับและส่งเสริมการประกอบธุรกิจประกันภัย",
        "เรื่อง กำหนดหลักเกณฑ์ และเงื่อนไขในการเสนอขายกรมธรรม์ประกันภัยผ่านทางสื่อโฆษณา",
        "ตามกฎหมายว่าด้วยการประกันชีวิต",
        "พ.ศ. ๒๕๕๖"
      ]
    ],
    []
  ],
  "metadata": {
    "date_backmatter": "2556-06-24",
    "date_modified": "2556-08-07",
    "date_original": "2556-08-07",
    "doctype": "ประกาศ",
    "editors": [
      {
        "name": "ปริยานุช",
        "role": "ผู้จัดทำ",
        "date": "2556-08-09"
      },
      {
        "name": "โชติกานต์",
        "role": "ผู้ตรวจ",
        "date": "2556-08-09"
      }
    ],
    "tag": "bb09-2e-2556-a0002"
  }
}