{
  "pages": [
    [
      [
        "พระราชบัญญัติ",
        "ประกันชีวิต",
        "พ.ศ. ๒๕๓๕",
        "",
        "",
        "ภูมิพลอดุลยเดช ป.ร.",
        "ให้ไว้ ณ วันที่ ๔ เมษายน พ.ศ. ๒๕๓๕",
        "เป็นปีที่ ๔๗ ในรัชกาลปัจจุบัน"
      ]
    ],
    []
  ],
  "metadata": {
    "date_header": "2535-04-04",
    "date_modified": "2535-04-10",
    "date_original": "2535-04-10",
    "doctype": "พระราชบัญญัติ",
    "editors": [
      {
        "name": "พรพิมล",
        "role": "แก้ไข",
        "date": "2544-11-29"
      },
      {
        "name": "พชร/อรดา/หทัยชนก",
        "role": "จัดทำ",
        "date": "2546-05-27"
      },
      {
        "name": "สุนันทา",
        "role": "แก้ไข",
        "date": "2547-03-29"
      },
      {
        "name": "วาทินี/ปฐมพร",
        "role": "ปรับปรุง",
        "date": "2549-07-13"
      },
      {
        "name": "ปัญญา",
        "role": "แก้ไข",
        "date": "2552-06-30"
      }
    ],
    "tag": "bb09-20-2535-001",
    "title": "ประกันชีวิต"
  }
}