{
  "pages": [
    [
      [
        "พระราชบัญญัติ",
        "ประกันชีวิต",
        "พ.ศ. ๒๕๓๕",
        "",
        "",
        "ภูมิพลอดุลยเดช ป.ร.",
        "ให้ไว้ ณ วันที่ ๔ เมษายน พ.ศ. ๒๕๓๕",
        "เป็นปีที่ ๔๗ ในรัชกาลปัจจุบัน"
      ]
    ],
    []
  ],
  "metadata": {
    "date_header": "2535-04-04",
    "date_modified": "2560-02-11",
    "date_original": "2535-04-10",
    "doctype": "พระราชบัญญัติ",
    "editors": [
      {
        "name": "ภิรมย์พร",
        "role": "แก้ไข",
        "date": "2556-06-24"
      },
      {
        "name": "วศิน",
        "role": "ตรวจ",
        "date": "2556-06-24"
      },
      {
        "name": "กฤษดายุทธ",
        "role": "เพิ่มเติม",
        "date": "2558-03-19"
      },
      {
        "name": "วิชพงษ์",
        "role": "ปรับปรุง",
        "date": "2560-02-16"
      }
    ],
    "tag": "bb09-20-9999-update",
    "title": "ประกันชีวิต"
  }
}