{
  "pages": [
    [
      [
        "คำสั่งนายทะเบียน",
        "ที่ ๕/๒๕๔๓",
        "เรื่อง ให้ยกเลิกแบบ ข้อความ และอัตราเบี้ยประกันอุบัติเหตุส่วนบุคคล"
      ]
    ],
    []
  ],
  "metadata": {
    "date_backmatter": "2543-03-06",
    "date_modified": "2543-06-19",
    "date_original": "2543-06-19",
    "editors": [
      {
        "name": "ปริญสินีย์",
        "role": "ผู้จัดทำ",
        "date": "2555-05-24"
      },
      {
        "name": "วิภา",
        "role": "ปรับปรุง",
        "date": "2557-09-01"
      }
    ],
    "tag": "bb09-2f-2543-a004"
  }
}