{
  "pages": [
    [
      [
        "ประกาศคณะกรรมการกำกับและส่งเสริมการประกอบธุรกิจประกันภัย",
        "เรื่อง กำหนดแบบและรายการสมุดทะเบียนเกี่ยวกับธุรกิจของบริษัทประกันชีวิต",
        "พ.ศ. ๒๕๕๑"
      ]
    ],
    []
  ],
  "metadata": {
    "date_backmatter": "2551-09-30",
    "date_modified": "2551-11-24",
    "date_original": "2551-11-24",
    "doctype": "ประกาศ",
    "editors": [
      {
        "name": "ปริญสินีย์",
        "role": "ผู้จัดทำ",
        "date": "2555-05-24"
      },
      {
        "name": "วิภา",
        "role": "ปรับปรุง",
        "date": "2557-08-15"
      }
    ],
    "tag": "bb09-2e-2551-a0007"
  }
}