{
  "pages": [
    [
      [
        "ประกาศคณะกรรมการกำกับและส่งเสริมการประกอบธุรกิจประกันภัย",
        "เรื่อง กำหนดหลักเกณฑ์ วิธีการออก การเสนอขายกรมธรรม์ประกันภัย",
        "และการปฏิบัติหน้าที่ของตัวแทนประกันชีวิต นายหน้าประกันชีวิต และธนาคาร",
        "พ.ศ. ๒๕๕๑"
      ]
    ],
    []
  ],
  "metadata": {
    "date_backmatter": "2551-12-30",
    "date_modified": "2552-02-18",
    "date_original": "2552-02-18",
    "doctype": "ประกาศ",
    "editors": [
      {
        "name": "ปริญสินีย์",
        "role": "ผู้จัดทำ",
        "date": "2555-05-24"
      },
      {
        "name": "วิภา",
        "role": "ปรับปรุง",
        "date": "2557-08-15"
      }
    ],
    "tag": "bb09-2e-2552-a0008"
  }
}