{
  "pages": [
    [
      [
        "ประกาศคณะกรรมการกำกับและส่งเสริมการประกอบธุรกิจประกันภัย",
        "เรื่อง หลักเกณฑ์ วิธีการ และเงื่อนไขการวางเงินสำรองประกันภัยของบริษัทประกันชีวิต",
        "พ.ศ. ๒๕๕๗"
      ]
    ],
    []
  ],
  "metadata": {
    "date_backmatter": "2557-06-23",
    "date_modified": "2557-07-28",
    "date_original": "2557-07-28",
    "doctype": "ประกาศ",
    "editors": [
      {
        "name": "ปริยานุช",
        "role": "ผู้จัดทำ",
        "date": "2557-07-30"
      },
      {
        "name": "กฤษดายุทธ",
        "role": "ผู้ตรวจ",
        "date": "2557-07-30"
      }
    ],
    "tag": "bb09-2e-2557-a0008"
  }
}