{
  "pages": [
    [
      [
        "ประกาศคณะกรรมการกำกับและส่งเสริมการประกอบธุรกิจประกันภัย",
        "เรื่อง การกำหนดอัตราเงินค่าเวนคืนตามกรมธรรม์ประกันภัย และเงื่อนไขการจ่ายเงิน",
        "พ.ศ. ๒๕๕๒"
      ]
    ],
    []
  ],
  "metadata": {
    "date_backmatter": "2552-10-29",
    "date_modified": "2553-01-13",
    "date_original": "2553-01-13",
    "doctype": "ประกาศ",
    "editors": [
      {
        "name": "ปริญสินีย์",
        "role": "ผู้จัดทำ",
        "date": "2555-05-24"
      },
      {
        "name": "วิภา",
        "role": "ปรับปรุง",
        "date": "2557-09-01"
      }
    ],
    "tag": "bb09-2e-2553-a0002"
  }
}