{
  "pages": [
    [
      [
        "ประกาศนายทะเบียน",
        "เรื่อง หลักเกณฑ์การให้ความเห็นชอบแบบและข้อความการจ่ายผลประโยชน์",
        "ตามสัญญาตะกาฟุลและอัตราเงินสมทบตะกาฟุล",
        "ที่ชำระเงินสมทบตะกาฟุลครั้งเดียว",
        "พ.ศ. ๒๕๕๗"
      ]
    ],
    []
  ],
  "metadata": {
    "date_backmatter": "2557-01-30",
    "date_modified": "2557-02-25",
    "date_original": "2557-02-25",
    "doctype": "ประกาศ",
    "editors": [
      {
        "name": "ปริยานุช",
        "role": "ผู้จัดทำ",
        "date": "2557-03-04"
      },
      {
        "name": "อังศุมาลี",
        "role": "ผู้ตรวจ",
        "date": "2557-03-07"
      }
    ],
    "tag": "bb09-2e-2557-a0001"
  }
}