{
  "pages": [
    [
      [
        "ประกาศนายทะเบียน",
        "เรื่อง กำหนดให้บริษัทประกันชีวิตเปิดทำการติดต่อกับประชาชน",
        "ประจำปี พ.ศ. ๒๕๔๕"
      ]
    ],
    []
  ],
  "metadata": {
    "date_backmatter": "2544-07-20",
    "date_modified": "2544-08-28",
    "date_original": "2544-08-28",
    "doctype": "ประกาศ",
    "editors": [
      {
        "name": "ปริญสินีย์",
        "role": "ผู้จัดทำ",
        "date": "2555-05-24"
      },
      {
        "name": "วิภา",
        "role": "ปรับปรุง",
        "date": "2557-10-13"
      }
    ],
    "tag": "bb09-2e-2544-a002"
  }
}