{
  "pages": [
    [
      [
        "ประกาศนายทะเบียน",
        "เรื่อง กำหนดแบบคำขอรับใบอนุญาต คำขอต่ออายุใบอนุญาต",
        "และแบบใบอนุญาตเป็นนักคณิตศาสตร์ประกันภัย",
        "ตามกฎหมายว่าด้วยการประกันชีวิต",
        "พ.ศ. ๒๕๕๔"
      ]
    ],
    []
  ],
  "metadata": {
    "date_backmatter": "2554-10-11",
    "date_modified": "2555-01-05",
    "date_original": "2555-01-05",
    "doctype": "ประกาศ",
    "editors": [
      {
        "name": "ปริยานุช",
        "role": "ผู้จัดทำ",
        "date": "2555-01-13"
      },
      {
        "name": "ชาญ",
        "role": "ผู้ตรวจ",
        "date": "2555-01-16"
      }
    ],
    "tag": "bb09-2e-2555-a0001"
  }
}