{
  "pages": [
    [
      [
        "ประกาศกรมการค้าภายใน",
        "เรื่อง หลักเกณฑ์และเงื่อนไขการสนับสนุนสินเชื่อด้านการจัดระบบตลาด",
        "ตามโครงการจัดระบบพิเศษเฉพาะพื้นที่มันสำปะหลัง ปี ๒๕๕๐/๕๑"
      ]
    ],
    []
  ],
  "metadata": {
    "date_backmatter": "2550-11-29",
    "date_modified": "2551-01-21",
    "date_original": "2551-01-21",
    "doctype": "ประกาศ",
    "editors": [
      {
        "name": "ปริยานุช",
        "role": "จัดทำ",
        "date": "2551-02-06"
      },
      {
        "name": "โชติกานต์",
        "role": "ปรับปรุง",
        "date": "2559-08-24"
      }
    ],
    "tag": "a196-2e-2551-a0001"
  }
}