{
  "pages": [
    [
      [
        "ประกาศกระทรวงเกษตรและสหกรณ์",
        "เรื่อง กำหนดแบบใบสมัครรับเลือกตั้ง วิธีการลงคะแนน ลักษณะและขนาด",
        "ของบัตรเลือกตั้ง หีบบัตรเลือกตั้ง วิธีการนับคะแนน การประกาศผล",
        "การนับคะแนน การรายงานผลของการนับคะแนน วิธีการเก็บบัตรเลือกตั้ง",
        "และการเก็บรักษาเอกสารหลักฐานในการเลือกตั้งผู้แทนเกษตรกร"
      ]
    ],
    []
  ],
  "metadata": {
    "date_backmatter": "2545-04-11",
    "date_modified": "2545-06-04",
    "date_original": "2545-04-29",
    "doctype": "ประกาศ",
    "editors": [
      {
        "name": "พรพิมล",
        "role": "แก้ไข",
        "date": "2545-08-14"
      },
      {
        "name": "สถาพร",
        "role": "ปรับปรุง",
        "date": "2549-12-18"
      },
      {
        "name": "พัชรินทร์",
        "role": "ปรับปรุง",
        "date": "2551-07-25"
      },
      {
        "name": "โชติกานต์",
        "role": "ปรับปรุง",
        "date": "2559-08-23"
      }
    ],
    "tag": "a196-2e-2545-a0010"
  }
}