{
  "pages": [
    [
      [
        "ประกาศกระทรวงเกษตรและสหกรณ์",
        "เรื่อง การกำหนดหน่วยเลือกตั้งและที่เลือกตั้งผู้แทนเกษตรกร"
      ]
    ],
    []
  ],
  "metadata": {
    "date_backmatter": "2545-04-22",
    "date_modified": "2545-06-04",
    "date_original": "2545-04-29",
    "doctype": "ประกาศ",
    "editors": [
      {
        "name": "สถาพร",
        "role": "ผู้จัดทำ",
        "date": "2549-12-18"
      },
      {
        "name": "พัชรินทร์",
        "role": "ผู้จัดทำ",
        "date": "2551-07-25"
      },
      {
        "name": "โชติกานต์",
        "role": "ปรับปรุง",
        "date": "2559-08-24"
      }
    ],
    "tag": "a196-2e-2545-a0011"
  }
}