{
  "pages": [
    [
      [
        "ประกาศกระทรวงเกษตรและสหกรณ์",
        "เรื่อง กำหนดแบบใบสมัครรับเลือกตั้ง วิธีการลงคะแนน ลักษณะและ",
        "ขนาดของบัตรเลือกตั้ง หีบบัตรเลือกตั้ง วิธีการนับคะแนน การประกาศผล",
        "การนับคะแนน การรายงานผลของการนับคะแนน วิธีการเก็บบัตรเลือกตั้ง",
        "และการเก็บรักษาเอกสารหลักฐานในการเลือกตั้ง",
        "ผู้แทนเกษตรกร (ฉบับที่ ๓)"
      ]
    ],
    []
  ],
  "metadata": {
    "date_backmatter": "2545-05-29",
    "date_modified": "2545-06-04",
    "date_original": "2545-06-04",
    "doctype": "ประกาศ",
    "editors": [
      {
        "name": "สถาพร",
        "role": "จัดทำ",
        "date": "2549-12-18"
      },
      {
        "name": "โชติกานต์",
        "role": "ปรับปรุง",
        "date": "2559-08-23"
      }
    ],
    "tag": "a196-2e-2545-a0002"
  }
}