{
  "pages": [
    [
      [
        "ประกาศกระทรวงยุติธรรม",
        "(พ.ศ. ๒๕๕๔)",
        "เรื่อง กำหนดวันเปิดทำการ และเขตอำนาจ",
        "สถานพินิจและคุ้มครองเด็กและเยาวชนจังหวัดบึงกาฬ"
      ]
    ],
    []
  ],
  "metadata": {
    "date_backmatter": "2554-05-04",
    "date_modified": "2554-06-10",
    "date_original": "2554-06-10",
    "doctype": "ประกาศ",
    "editors": [
      {
        "name": "ปริยานุช",
        "role": "ผู้จัดทำ",
        "date": "2554-06-20"
      },
      {
        "name": "ณัฐวดี",
        "role": "ตรวจ",
        "date": "2554-06-20"
      }
    ],
    "tag": "c803-2e-2554-a0002"
  }
}