{
  "pages": [
    [
      [
        "พระราชบัญญัติ",
        "ศาลเยาวชนและครอบครัวและวิธีพิจารณาคดีเยาวชนและครอบครัว",
        "พ.ศ. ๒๕๕๓",
        "",
        "",
        "ภูมิพลอดุลยเดช ป.ร.",
        "ให้ไว้ ณ วันที่ ๑๖ พฤศจิกายน พ.ศ. ๒๕๕๓",
        "เป็นปีที่ ๖๕ ในรัชกาลปัจจุบัน"
      ]
    ],
    []
  ],
  "metadata": {
    "date_header": "2553-11-16",
    "date_modified": "2559-12-26",
    "date_original": "2553-11-22",
    "doctype": "พระราชบัญญัติ",
    "editors": [
      {
        "name": "ปริยานุช,ปุณิกา",
        "role": "จัดทำ",
        "date": "2558-09-09"
      },
      {
        "name": "ปัญญา",
        "role": "ตรวจ",
        "date": "2558-09-09"
      },
      {
        "name": "นุสรา",
        "role": "เพิ่มเติม",
        "date": "2558-12-17"
      },
      {
        "name": "ชวัลพร",
        "role": "เพิ่มเติม",
        "date": "2559-02-01"
      },
      {
        "name": "ปัญญา",
        "role": "ตรวจ",
        "date": "2559-02-01"
      },
      {
        "name": "ชนิกา",
        "role": "เพิ่มเติม",
        "date": "2559-12-27"
      },
      {
        "name": "ปริญสินีย์",
        "role": "ตรวจ",
        "date": "2559-12-28"
      }
    ],
    "tag": "c803-20-9998-update",
    "title": "ศาลเยาวชนและครอบครัวและวิธีพิจารณาคดีเยาวชนและครอบครัว"
  }
}