{
  "pages": [
    [
      [
        "ข้อบังคับของประธานศาลฎีกา",
        "ว่าด้วยหลักเกณฑ์ วิธีการ และการรายงานผลการไกล่เกลี่ยในคดีครอบครัว",
        "พ.ศ. ๒๕๕๔"
      ]
    ],
    []
  ],
  "metadata": {
    "date_backmatter": "2554-09-27",
    "date_modified": "2554-11-25",
    "date_original": "2554-11-25",
    "editors": [
      {
        "name": "ปริยานุช",
        "role": "ผู้จัดทำ",
        "date": "2554-11-28"
      },
      {
        "name": "ปณตภร",
        "role": "ผู้ตรวจ",
        "date": "2554-11-28"
      }
    ],
    "tag": "c803-2i-2554-a0003"
  }
}