{
  "pages": [
    [
      [
        "ข้อบังคับของประธานศาลฎีกา",
        "ว่าด้วยหลักเกณฑ์ วิธีการ และเงื่อนไขในการกำหนดมาตรการแทนการพิพากษาคดี",
        "พ.ศ. ๒๕๕๖"
      ]
    ],
    []
  ],
  "metadata": {
    "date_backmatter": "2556-08-19",
    "date_modified": "2556-09-06",
    "date_original": "2556-09-06",
    "editors": [
      {
        "name": "ปริยานุช",
        "role": "ผู้จัดทำ",
        "date": "2556-09-10"
      },
      {
        "name": "เอกฤทธิ์",
        "role": "ผู้ตรวจ",
        "date": "2556-09-10"
      }
    ],
    "tag": "c803-2i-2556-a0003"
  }
}