{
  "pages": [
    [
      [
        "ประกาศกระทรวงเกษตรและสหกรณ์",
        "เรื่อง กำหนดเครื่องมือ เครื่องใช้ ยา และเวชภัณฑ์ที่จำเป็นประจำสถานพยาบาลสัตว์",
        "ผู้ประกอบวิชาชีพการสัตวแพทย์สำหรับสถานพยาบาลสัตว์ ชื่อสถานพยาบาลสัตว์",
        "ลักษณะป้ายชื่อสถานพยาบาลสัตว์ ป้ายชื่อผู้ประกอบวิชาชีพการสัตวแพทย์",
        "รายการอัตราค่ารักษาพยาบาลและค่าบริการ",
        "พ.ศ. ๒๕๕๘"
      ]
    ],
    []
  ],
  "metadata": {
    "date_backmatter": "2558-12-09",
    "date_modified": "2558-12-24",
    "date_original": "2558-12-24",
    "doctype": "ประกาศ",
    "editors": [
      {
        "name": "ปริยานุช",
        "role": "จัดทำ",
        "date": "2558-12-29"
      },
      {
        "name": "วริญา",
        "role": "ตรวจ",
        "date": "2559-01-07"
      }
    ],
    "tag": "ca44-2e-2558-a0004"
  }
}