{
  "pages": [
    [
      [
        "พระราชบัญญัติ",
        "สถานพยาบาลสัตว์ (ฉบับที่ ๒)",
        "พ.ศ. ๒๕๕๗",
        "",
        "",
        "ภูมิพลอดุลยเดช ป.ร.",
        "ให้ไว้ ณ วันที่ ๒๖ ธันวาคม พ.ศ. ๒๕๕๗",
        "เป็นปีที่ ๖๙ ในรัชกาลปัจจุบัน"
      ]
    ],
    []
  ],
  "metadata": {
    "date_header": "2557-12-26",
    "date_modified": "2557-12-26",
    "date_original": "2557-12-26",
    "doctype": "พระราชบัญญัติ",
    "editors": [
      {
        "name": "ปริยานุช",
        "role": "ผู้จัดทำ",
        "date": "2558-01-05"
      },
      {
        "name": "จุฑามาศ",
        "role": "ปรับปรุง",
        "date": "2559-12-06"
      }
    ],
    "tag": "ca44-20-2557-a0001",
    "title": "สถานพยาบาลสัตว์ (ฉบับที่ ๒)"
  }
}