{
  "pages": [
    [
      [
        "ประกาศกระทรวงเกษตรและสหกรณ์",
        "เรื่อง หลักเกณฑ์ วิธีการ และเงื่อนไขของสถานพยาบาลสัตว์ซึ่งไม่ต้องอยู่ในบังคับของกฎหมายว่าด้วยสถานพยาบาลสัตว์ ที่ต้องดำเนินการภายใต้กฎหมายว่าด้วยสถานพยาบาลสัตว์ (ฉบับที่ ๒)",
        "พ.ศ. ๒๕๖๒"
      ]
    ],
    []
  ],
  "metadata": {
    "date_backmatter": "2562-01-22",
    "date_modified": "2562-02-20",
    "date_original": "2562-02-20",
    "doctype": "ประกาศ",
    "editors": [
      {
        "name": "พิไลภรณ์",
        "role": "จัดทำ",
        "date": "2562-03-06"
      },
      {
        "name": "วิชพงษ์",
        "role": "ตรวจ",
        "date": "2562-03-25"
      }
    ],
    "tag": "ca44-2e-2562-a0002"
  }
}