{
  "pages": [
    [
      [
        "พระราชบัญญัติ",
        "บำเหน็จบำนาญข้าราชการกรุงเทพมหานคร",
        "พ.ศ. ๒๕๑๖",
        "",
        "",
        "ภูมิพลอดุลยเดช ป.ร.",
        "ให้ไว้ ณ วันที่ ๙ กรกฎาคม พ.ศ. ๒๕๑๖",
        "เป็นปีที่ ๒๘ ในรัชกาลปัจจุบัน"
      ]
    ],
    []
  ],
  "metadata": {
    "date_header": "2516-07-09",
    "date_modified": "2516-07-13",
    "date_original": "2516-07-13",
    "doctype": "พระราชบัญญัติ",
    "editors": [
      {
        "name": "วศิน",
        "role": "แก้ไข",
        "date": "2553-11-19"
      },
      {
        "name": "กฤษดายุทธ",
        "role": "ปรับปรุง",
        "date": "2556-11-13"
      },
      {
        "name": "ปณตภร",
        "role": "ตรวจ",
        "date": "2556-11-20"
      }
    ],
    "tag": "ba08-20-2516-001",
    "title": "บำเหน็จบำนาญข้าราชการกรุงเทพมหานคร"
  }
}