{
  "pages": [
    [
      [
        "กฎกระทรวง",
        "การหักเงินงบประมาณรายได้ประจำปี",
        "สมทบเข้าเป็นกองทุนบำเหน็จบำนาญข้าราชการกรุงเทพมหานคร",
        "พ.ศ. ๒๕๕๔"
      ]
    ],
    []
  ],
  "metadata": {
    "date_backmatter": "2554-08-30",
    "date_modified": "2554-09-21",
    "date_original": "2554-09-21",
    "doctype": "กฎกระทรวง",
    "editors": [
      {
        "name": "ปริยานุช",
        "role": "ผู้จัดทำ",
        "date": "2554-09-22"
      },
      {
        "name": "ณัฐวดี",
        "role": "ตรวจ",
        "date": "2554-09-22"
      }
    ],
    "tag": "ba08-2b-2554-a0002"
  }
}