{
  "pages": [
    [
      [
        "พระราชกฤษฎีกา",
        "ให้ใช้พระราชบัญญัติคันและคูน้ำ พ.ศ. ๒๕๐๕",
        "บังคับในท้องที่อำเภอนครไทย จังหวัดพิษณุโลก",
        "พ.ศ. ๒๕๕๖",
        "",
        "",
        "ภูมิพลอดุลยเดช ป.ร.",
        "ให้ไว้ ณ วันที่ ๑๖ กรกฎาคม พ.ศ. ๒๕๕๖",
        "เป็นปีที่ ๖๘ ในรัชกาลปัจจุบัน"
      ]
    ],
    []
  ],
  "metadata": {
    "date_header": "2556-07-16",
    "date_modified": "2556-07-26",
    "date_original": "2556-07-26",
    "doctype": "พระราชกฤษฎีกา",
    "editors": [
      {
        "name": "ปริยานุช",
        "role": "ผู้จัดทำ",
        "date": "2556-07-29"
      },
      {
        "name": "ปณตภร",
        "role": "ผู้ตรวจ",
        "date": "2556-08-02"
      }
    ],
    "tag": "a430-2a-2556-a0001",
    "title": "ให้ใช้พระราชบัญญัติคันและคูน้ำ พ.ศ. ๒๕๐๕บังคับในท้องที่อำเภอนครไทย จังหวัดพิษณุโลก"
  }
}