{
  "pages": [
    [
      [
        "พระราชกฤษฎีกา",
        "ให้ใช้พระราชบัญญัติคันและคูน้ำ พ.ศ. ๒๕๐๕",
        "บังคับในท้องที่อำเภอทุ่งเสลี่ยม จังหวัดสุโขทัย",
        "พ.ศ. ๒๕๕๐",
        "",
        "",
        "ภูมิพลอดุลยเดช ป.ร.",
        "ให้ไว้ ณ วันที่ ๒๕ ธันวาคม พ.ศ. ๒๕๕๐",
        "เป็นปีที่ ๖๒ ในรัชกาลปัจจุบัน"
      ]
    ],
    []
  ],
  "metadata": {
    "date_header": "2550-12-25",
    "date_modified": "2550-12-30",
    "date_original": "2550-12-30",
    "doctype": "พระราชกฤษฎีกา",
    "editors": [
      {
        "name": "ปริยานุช",
        "role": "ผู้จัดทำ",
        "date": "2551-01-16"
      }
    ],
    "tag": "a430-2a-2550-a0017",
    "title": "ให้ใช้พระราชบัญญัติคันและคูน้ำ พ.ศ. ๒๕๐๕บังคับในท้องที่อำเภอทุ่งเสลี่ยม จังหวัดสุโขทัย"
  }
}