{
  "pages": [
    [
      [
        "พระราชกฤษฎีกา",
        "ให้ใช้พระราชบัญญัติคันและคูน้ำ พ.ศ. ๒๕๐๕",
        "บังคับในท้องที่อำเภอป่าซาง จังหวัดลำพูน",
        "พ.ศ. ๒๕๕๕",
        "",
        "",
        "ภูมิพลอดุลยเดช ป.ร.",
        "ให้ไว้ ณ วันที่ ๒๓ กรกฎาคม พ.ศ. ๒๕๕๕",
        "เป็นปีที่ ๖๗ ในรัชกาลปัจจุบัน"
      ]
    ],
    []
  ],
  "metadata": {
    "date_header": "2555-07-23",
    "date_modified": "2555-07-29",
    "date_original": "2555-07-29",
    "doctype": "พระราชกฤษฎีกา",
    "editors": [
      {
        "name": "ปริยานุช",
        "role": "ผู้จัดทำ",
        "date": "2555-08-06"
      },
      {
        "name": "ชาญ",
        "role": "ผู้ตรวจ",
        "date": "2555-08-07"
      }
    ],
    "tag": "a430-2a-2555-a0009",
    "title": "ให้ใช้พระราชบัญญัติคันและคูน้ำ พ.ศ. ๒๕๐๕บังคับในท้องที่อำเภอป่าซาง จังหวัดลำพูน"
  }
}