{
  "pages": [
    [
      [
        "พระราชกฤษฎีกา",
        "ให้ใช้พระราชบัญญัติคันและคูน้ำ พ.ศ. ๒๕๐๕",
        "บังคับในท้องที่อำเภอพิมาย และอำเภอชุมพวง จังหวัดนครราชสีมา",
        "พ.ศ. ๒๕๕๐",
        "",
        "",
        "ภูมิพลอดุลยเดช ป.ร.",
        "ให้ไว้ ณ วันที่ ๓๑ กรกฎาคม พ.ศ. ๒๕๕๐",
        "เป็นปีที่ ๖๒ ในรัชกาลปัจจุบัน"
      ]
    ],
    []
  ],
  "metadata": {
    "date_header": "2550-07-31",
    "date_modified": "2550-08-15",
    "date_original": "2550-08-15",
    "doctype": "พระราชกฤษฎีกา",
    "editors": [
      {
        "name": "วัชศักดิ์",
        "role": "ผู้จัดทำ",
        "date": "2550-08-23"
      }
    ],
    "tag": "a430-2a-2550-a0004",
    "title": "ให้ใช้พระราชบัญญัติคันและคูน้ำ พ.ศ. ๒๕๐๕บังคับในท้องที่อำเภอพิมาย และอำเภอชุมพวง จังหวัดนครราชสีมา"
  }
}