{
  "pages": [
    [
      [
        "พระราชกฤษฎีกา",
        "ให้ใช้พระราชบัญญัติคันและคูน้ำ พ.ศ. ๒๕๐๕",
        "บังคับในท้องที่อำเภอเมืองเลย จังหวัดเลย",
        "พ.ศ. ๒๕๔๙",
        "",
        "",
        "ภูมิพลอดุลยเดช ป.ร.",
        "ให้ไว้ ณ วันที่ ๑๐ พฤษภาคม พ.ศ. ๒๕๔๙",
        "เป็นปีที่ ๖๑ ในรัชกาลปัจจุบัน"
      ]
    ],
    []
  ],
  "metadata": {
    "date_header": "2549-05-10",
    "date_modified": "2549-06-01",
    "date_original": "2549-06-01",
    "doctype": "พระราชกฤษฎีกา",
    "editors": [
      {
        "name": "นันทนา",
        "role": "ผู้จัดทำ",
        "date": "2549-06-06"
      }
    ],
    "tag": "a430-2a-2549-a0009",
    "title": "ให้ใช้พระราชบัญญัติคันและคูน้ำ พ.ศ. ๒๕๐๕บังคับในท้องที่อำเภอเมืองเลย จังหวัดเลย"
  }
}