{
  "pages": [
    [
      [
        "พระราชบัญญัติ",
        "การรับขนทางอากาศระหว่างประเทศ",
        "พ.ศ. ๒๕๕๘",
        "",
        "",
        "ภูมิพลอดุลยเดช ป.ร.",
        "ให้ไว้ ณ วันที่ ๗ กุมภาพันธ์ พ.ศ. ๒๕๕๘",
        "เป็นปีที่ ๗๐ ในรัชกาลปัจจุบัน"
      ]
    ],
    []
  ],
  "metadata": {
    "date_header": "2558-02-07",
    "date_modified": "2560-05-26",
    "date_original": "2558-02-13",
    "doctype": "พระราชบัญญัติ",
    "editors": [
      {
        "name": "ปริยานุช",
        "role": "ผู้จัดทำ",
        "date": "2558-02-16"
      },
      {
        "name": "นุสรา",
        "role": "ผู้ตรวจ",
        "date": "2558-02-16"
      },
      {
        "name": "ชวัลพร",
        "role": "เพิ่มเติม",
        "date": "2560-05-29"
      }
    ],
    "tag": "a1146-20-9999-update",
    "title": "การรับขนทางอากาศระหว่างประเทศ"
  }
}