{
  "pages": [
    [
      [
        "พระราชกฤษฎีกา",
        "กำหนดเขตพลังงาน",
        "พ.ศ. ๒๔๙๗",
        "",
        "",
        "ภูมิพลอดุลยเดช ป.ร.",
        "ให้ไว้ ณ วันที่ ๓๐ พฤษภาคม พ.ศ. ๒๔๙๗",
        "เป็นปีที่ ๙ ในรัชกาลปัจจุบัน"
      ]
    ],
    []
  ],
  "metadata": {
    "date_header": "2497-05-30",
    "date_modified": "2497-06-15",
    "date_original": "2497-06-15",
    "doctype": "พระราชกฤษฎีกา",
    "editors": [
      {
        "name": "กฤษดายุทธ",
        "role": "ผู้จัดทำ",
        "date": "2556-05-31"
      },
      {
        "name": "วิชพงษ์",
        "role": "ตรวจ",
        "date": "2556-06-03"
      },
      {
        "name": "พจณัฏฐ์",
        "role": "ปรับปรุง",
        "date": "2560-10-20"
      }
    ],
    "tag": "a175-2a-2497-a0002",
    "title": "กำหนดเขตพลังงาน"
  }
}