{
  "pages": [
    [
      [
        "พระราชบัญญัติ",
        "การพัฒนาและส่งเสริมพลังงาน",
        "พ.ศ. ๒๕๓๕",
        "",
        "",
        "ภูมิพลอดุลยเดช ป.ร.",
        "ให้ไว้ ณ วันที่ ๓ กุมภาพันธ์ พ.ศ. ๒๕๓๕",
        "เป็นปีที่ ๔๗ ในรัชกาลปัจจุบัน"
      ]
    ],
    []
  ],
  "metadata": {
    "date_header": "2535-02-03",
    "date_modified": "2545-10-08",
    "date_original": "2535-02-12",
    "doctype": "พระราชบัญญัติ",
    "editors": [
      {
        "name": "สัญชัย",
        "role": "ผู้จัดทำ",
        "date": "2551-10-29"
      },
      {
        "name": "พจณัฏฐ์",
        "role": "ปรับปรุง",
        "date": "2560-10-20"
      }
    ],
    "tag": "a175-20-9999-update",
    "title": "การพัฒนาและส่งเสริมพลังงาน"
  }
}