{
  "pages": [
    [
      [
        "ประกาศกระทรวงศึกษาธิการ",
        "เรื่อง การส่งเด็กเข้าเรียนในสถานศึกษา พ.ศ. ๒๕๔๖"
      ]
    ],
    []
  ],
  "metadata": {
    "date_backmatter": "2546-11-20",
    "date_modified": "2547-06-24",
    "date_original": "2547-06-24",
    "doctype": "ประกาศ",
    "editors": [
      {
        "name": "ศุภชัย",
        "role": "พิมพ์",
        "date": "2547-08-20"
      },
      {
        "name": "อมราลักษณ์/ศุภสรณ์",
        "role": "ตรวจ",
        "date": "2547-08-24"
      },
      {
        "name": "จุฑามาศ",
        "role": "ปรับปรุง",
        "date": "2559-10-05"
      }
    ],
    "tag": "a1113-2e-2547-a0005"
  }
}