{
  "pages": [
    [
      [
        "ข้อบังคับสัตวแพทยสภา",
        "ว่าด้วยการต่ออายุใบอนุญาตเป็นผู้ประกอบวิชาชีพการสัตวแพทย์ (ฉบับที่ ๒)",
        "พ.ศ. ๒๕๔๘"
      ]
    ],
    []
  ],
  "metadata": {
    "date_backmatter": "2548-06-21",
    "date_modified": "2548-08-26",
    "date_original": "2548-08-26",
    "editors": [
      {
        "name": "ฐิติพงษ์",
        "role": "ผู้จัดทำ",
        "date": "2548-09-07"
      },
      {
        "name": "ภัทรพล",
        "role": "ปรับปรุง",
        "date": "2560-12-08"
      }
    ],
    "tag": "c764-2i-2548-a0001"
  }
}