{
  "pages": [
    [
      [
        "ข้อบังคับสัตวแพทยสภา",
        "ว่าด้วยการเป็นสมาชิกสัตวแพทยสภา (ฉบับที่ ๒)",
        "พ.ศ. ๒๕๕๑"
      ]
    ],
    []
  ],
  "metadata": {
    "date_backmatter": "2551-07-10",
    "date_modified": "2551-10-06",
    "date_original": "2551-10-06",
    "editors": [
      {
        "name": "วัชศักดิ์",
        "role": "ผู้จัดทำ",
        "date": "2551-10-08"
      },
      {
        "name": "ภัทรพล",
        "role": "ปรับปรุง",
        "date": "2560-12-12"
      }
    ],
    "tag": "c764-2i-2551-a0001"
  }
}