{
  "pages": [
    [
      [
        "ข้อบังคับสัตวแพทยสภา",
        "ว่าด้วยการต่ออายุใบอนุญาตเป็นผู้ประกอบวิชาชีพการสัตวแพทย์",
        "พ.ศ. ๒๕๔๖"
      ]
    ],
    []
  ],
  "metadata": {
    "date_backmatter": "2546-01-09",
    "date_modified": "2555-08-23",
    "date_original": "2546-01-20",
    "editors": [
      {
        "name": "มณฑาทิพย์",
        "role": "พิมพ์",
        "date": "2546-04-25"
      },
      {
        "name": "สุมลรัตน์",
        "role": "อรรถชัย แก้ไข",
        "date": "2546-04-30"
      },
      {
        "name": "ภัทรพล",
        "role": "ปรับปรุง",
        "date": "2560-11-28"
      }
    ],
    "tag": "c764-2i-9999-update"
  }
}