{
  "pages": [
    [
      [
        "ระเบียบกระทรวงเกษตรและสหกรณ์",
        "ว่าด้วยบุคคลซึ่งกระทรวง ทบวง กรม เทศบาล องค์การบริหารส่วนจังหวัด",
        "องค์การบริหารส่วนตำบล กรุงเทพมหานคร เมืองพัทยา องค์กรปกครอง",
        "ส่วนท้องถิ่นรูปแบบพิเศษอื่นตามที่มีกฎหมายกำหนด หรือสภากาชาดไทย",
        "มอบหมายให้ประกอบวิชาชีพการสัตวแพทย์ในความควบคุมของ",
        "เจ้าหน้าที่ซึ่งเป็นผู้ประกอบวิชาชีพการสัตวแพทย์",
        "พ.ศ. ๒๕๔๖"
      ]
    ],
    []
  ],
  "metadata": {
    "date_backmatter": "2546-12-01",
    "date_modified": "2547-01-26",
    "date_original": "2547-01-26",
    "editors": [
      {
        "name": "สุภาพร",
        "role": "พิมพ์",
        "date": "2547-03-25"
      },
      {
        "name": "ศุภสรณ์/สุมลรัตน์",
        "role": "ตรวจ",
        "date": "2547-04-07"
      },
      {
        "name": "โชติกานต์",
        "role": "ปรับปรุง",
        "date": "2560-01-25"
      }
    ],
    "tag": "c764-2g-2547-a0001"
  }
}