{
  "pages": [
    [
      [
        "ข้อบังคับสัตวแพทยสภา",
        "ว่าด้วยกระบวนวิธีพิจารณารับรองหลักสูตรและสถาบันผลิตสัตวแพทย์ตามหลักสูตร",
        "สัตวแพทยศาสตรบัณฑิตของผู้สำเร็จการศึกษาสัตวแพทยศาสตร์จากสถาบันผลิตสัตวแพทย์ต่างประเทศ",
        "พ.ศ. ๒๕๕๗"
      ]
    ],
    []
  ],
  "metadata": {
    "date_backmatter": "2557-12-30",
    "date_modified": "2558-02-19",
    "date_original": "2558-02-19",
    "editors": [
      {
        "name": "ปริยานุช",
        "role": "ผู้จัดทำ",
        "date": "2558-02-24"
      },
      {
        "name": "ปริญสินีย์",
        "role": "ผู้ตรวจ",
        "date": "2558-02-26"
      },
      {
        "name": "ภัทรพล",
        "role": "ปรับปรุง",
        "date": "2560-12-12"
      }
    ],
    "tag": "c764-2i-2558-a0001"
  }
}