{
  "pages": [
    [
      [
        "ข้อบังคับสัตวแพทยสภา",
        "ว่าด้วยหลักเกณฑ์ วิธีการ และเงื่อนไข การขึ้นทะเบียนและการออกใบอนุญาต",
        "เป็นผู้ประกอบวิชาชีพการสัตวแพทย์",
        "พ.ศ. ๒๕๕๓"
      ]
    ],
    []
  ],
  "metadata": {
    "date_backmatter": "2553-09-29",
    "date_modified": "2557-10-06",
    "date_original": "2553-11-15",
    "editors": [
      {
        "name": "ปริยานุช",
        "role": "ผู้จัดทำ",
        "date": "2553-11-19"
      },
      {
        "name": "ณัฐวดี",
        "role": "ตรวจ",
        "date": "2553-11-19"
      },
      {
        "name": "ภัทรพล",
        "role": "ปรับปรุง",
        "date": "2560-12-12"
      }
    ],
    "tag": "c764-2i-9996-update"
  }
}