{
  "pages": [
    [
      [
        "ประกาศสัตวแพทยสภา",
        "ที่ ๖/๒๕๕๓",
        "เรื่อง การกำหนดค่าธรรมเนียมในการรับรองปริญญาในวิชาชีพการสัตวแพทย์ของสถาบันการศึกษา"
      ]
    ],
    []
  ],
  "metadata": {
    "date_backmatter": "2553-03-25",
    "date_modified": "2553-08-18",
    "date_original": "2553-08-18",
    "doctype": "ประกาศ",
    "editors": [
      {
        "name": "ปริยานุช",
        "role": "ผู้จัดทำ",
        "date": "2553-08-23"
      },
      {
        "name": "นันทนภัสร์",
        "role": "ตรวจ",
        "date": "2553-08-23"
      },
      {
        "name": "ชุติมา",
        "role": "ปรับปรุง"
      }
    ],
    "tag": "c764-2e-2553-a0001"
  }
}