{
  "pages": [
    [
      [
        "ประกาศธนาคารเพื่อการเกษตรและสหกรณ์การเกษตร",
        "เรื่อง การจำหน่ายพันธบัตรธนาคารเพื่อการเกษตรและสหกรณ์การเกษตร",
        "พ.ศ. ๒๕๓๗ ครั้งที่ ๑"
      ]
    ],
    []
  ],
  "metadata": {
    "date_backmatter": "2536-12-24",
    "date_modified": "2536-12-24",
    "date_original": "2536-12-24",
    "doctype": "ประกาศ",
    "editors": [
      {
        "name": "อัมภิญา",
        "role": "พิมพ์",
        "date": "2551-01-23"
      },
      {
        "name": "ปฐมพร",
        "role": "จัดทำ",
        "date": "2551-01-24"
      }
    ],
    "tag": "b802-2e-2536-a0008"
  }
}