{
  "pages": [
    [
      [
        "ประกาศธนาคารเพื่อการเกษตร",
        "และสหกรณ์การเกษตร",
        "เรื่อง การจำหน่ายพันธบัตรธนาคารเพื่อการเกษตรและสหกรณ์การเกษตร",
        "พ.ศ. ๒๕๓๗ ครั้งที่ ๗"
      ]
    ],
    []
  ],
  "metadata": {
    "date_backmatter": "2537-06-27",
    "date_modified": "2537-07-19",
    "date_original": "2537-07-19",
    "doctype": "ประกาศ",
    "editors": [
      {
        "name": "ดลธี",
        "role": "พิมพ์",
        "date": "2551-01-23"
      },
      {
        "name": "ปฐมพร",
        "role": "จัดทำ",
        "date": "2551-01-28"
      }
    ],
    "tag": "b802-2e-2537-a0003"
  }
}