{
  "pages": [
    [
      [
        "ข้อบังคับธนาคารเพื่อการเกษตรและสหกรณ์การเกษตร",
        "ฉบับที่ ๒",
        "ว่าด้วยการแบ่งส่วนงานและหน้าที่ของส่วนงาน",
        "(แก้ไขเพิ่มเติม ครั้งที่ ๒)"
      ]
    ],
    []
  ],
  "metadata": {
    "date_backmatter": "2545-01-30",
    "date_modified": "2546-02-10",
    "date_original": "2546-02-10",
    "editors": [
      {
        "name": "วัชศักดิ์",
        "role": "พิมพ์",
        "date": "2551-08-07"
      }
    ],
    "tag": "b802-2i-2546-a0002"
  }
}