{
  "pages": [
    [
      [
        "ประกาศธนาคารเพื่อการเกษตรและสหกรณ์การเกษตร",
        "เรื่อง การจำหน่ายพันธบัตรธนาคารเพื่อการเกษตรและสหกรณ์การเกษตร",
        "พ.ศ. ๒๕๕๒ ครั้งที่ ๖"
      ]
    ],
    []
  ],
  "metadata": {
    "date_backmatter": "2552-02-17",
    "date_modified": "2552-03-27",
    "date_original": "2552-03-27",
    "doctype": "ประกาศ",
    "editors": [
      {
        "name": "ปริยานุช",
        "role": "ผู้จัดทำ",
        "date": "2552-04-02"
      }
    ],
    "tag": "b802-2e-2552-a0005"
  }
}