{
  "pages": [
    [
      [
        "ประกาศกระทรวงการคลัง",
        "เรื่อง การอนุญาตให้ธนาคารเพื่อการเกษตรและสหกรณ์การเกษตร",
        "ประกอบกิจการเป็นนายหน้าประกันชีวิตและนายหน้าประกันวินาศภัย"
      ]
    ],
    []
  ],
  "metadata": {
    "date_backmatter": "2559-11-11",
    "date_modified": "2559-11-21",
    "date_original": "2559-11-21",
    "doctype": "ประกาศ",
    "editors": [
      {
        "name": "ปริยานุช",
        "role": "จัดทำ",
        "date": "2559-11-24"
      },
      {
        "name": "ชนิกา",
        "role": "ตรวจ",
        "date": "2559-11-30"
      }
    ],
    "tag": "b802-2e-2559-a0001"
  }
}