{
  "pages": [
    [
      [
        "ประกาศธนาคารเพื่อการเกษตรและสหกรณ์การเกษตร",
        "เรื่อง การจำหน่ายพันธบัตรธนาคารเพื่อการเกษตรและสหกรณ์การเกษตร",
        "พ.ศ. ๒๕๕๕ ครั้งที่ ๖/๒"
      ]
    ],
    []
  ],
  "metadata": {
    "date_backmatter": "2555-08-21",
    "date_modified": "2555-09-19",
    "date_original": "2555-09-19",
    "doctype": "ประกาศ",
    "editors": [
      {
        "name": "ปริยานุช",
        "role": "ผู้จัดทำ",
        "date": "2555-09-24"
      },
      {
        "name": "ปณตภร",
        "role": "ผู้ตรวจ",
        "date": "2555-10-02"
      }
    ],
    "tag": "b802-2e-2555-a0021"
  }
}