{
  "pages": [
    [
      [
        "พระราชบัญญัติ",
        "ธนาคารเพื่อการเกษตรและสหกรณ์การเกษตร (ฉบับที่ ๔)",
        "พ.ศ. ๒๕๓๕",
        "",
        "",
        "ภูมิพลอดุลยเดช ป.ร.",
        "ให้ไว้ ณ วันที่ ๓๑ มีนาคม พ.ศ. ๒๕๓๕",
        "เป็นปีที่ ๔๗ ในรัชกาลปัจจุบัน"
      ]
    ],
    []
  ],
  "metadata": {
    "date_header": "2535-03-31",
    "date_modified": "2535-04-08",
    "date_original": "2535-04-08",
    "doctype": "พระราชบัญญัติ",
    "editors": [
      {
        "name": "ดวงใจ",
        "role": "แก้ไข",
        "date": "2544-10-29"
      },
      {
        "name": "ปัญญา",
        "role": "ตรวจ",
        "date": "2552-03-23"
      }
    ],
    "tag": "b802-20-2535-004",
    "title": "ธนาคารเพื่อการเกษตรและสหกรณ์การเกษตร (ฉบับที่ ๔)"
  }
}