{
  "pages": [
    [
      [
        "พระราชบัญญัติ",
        "ธนาคารเพื่อการเกษตรและสหกรณ์การเกษตร",
        "พ.ศ. ๒๕๐๙",
        "",
        "",
        "ภูมิพลอดุลยเดช ป.ร.",
        "ให้ไว้ ณ วันที่ ๑๓ กรกฎาคม พ.ศ. ๒๕๐๙",
        "เป็นปีที่ ๒๑ ในรัชกาลปัจจุบัน"
      ]
    ],
    []
  ],
  "metadata": {
    "date_header": "2509-07-13",
    "date_modified": "2542-02-24",
    "date_original": "2509-07-20",
    "doctype": "พระราชบัญญัติ",
    "editors": [
      {
        "name": "ปัญญา",
        "role": "ผู้จัดทำ",
        "date": "2552-03-23"
      }
    ],
    "tag": "b802-20-2542-a002",
    "title": "ธนาคารเพื่อการเกษตรและสหกรณ์การเกษตร"
  }
}