{
  "pages": [
    [
      [
        "ประกาศธนาคารเพื่อการเกษตร",
        "และสหกรณ์การเกษตร",
        "เรื่อง การจำหน่ายพันธบัตรธนาคารเพื่อการเกษตรและสหกรณ์การเกษตร",
        "พ.ศ. ๒๕๔๐ ครั้งที่ ๕"
      ]
    ],
    []
  ],
  "metadata": {
    "date_backmatter": "2540-08-21",
    "date_modified": "2540-08-26",
    "date_original": "2540-08-26",
    "doctype": "ประกาศ",
    "editors": [
      {
        "name": "จารุวรรณ",
        "role": "แก้ไข",
        "date": "2545-07-23"
      },
      {
        "name": "สถาพร",
        "role": "ปรับปรุง",
        "date": "2549-12-26"
      }
    ],
    "tag": "b802-2e-2540-a003"
  }
}