{
  "pages": [
    [
      [
        "ประกาศมหาวิทยาลัยเทคโนโลยีพระจอมเกล้าพระนครเหนือ",
        "ว่าด้วยการจัดตั้งส่วนงานในมหาวิทยาลัยเทคโนโลยีพระจอมเกล้าพระนครเหนือ",
        "พ.ศ. ๒๕๕๑"
      ]
    ],
    []
  ],
  "metadata": {
    "date_backmatter": "2551-02-13",
    "date_modified": "2551-04-04",
    "date_original": "2551-04-04",
    "doctype": "ประกาศ",
    "editors": [
      {
        "name": "กนกพร",
        "role": "ผู้จัดทำ",
        "date": "2553-11-16"
      },
      {
        "name": "กวินทราดา",
        "role": "ผู้ตรวจ"
      }
    ],
    "tag": "c138-2e-2551-a0001"
  }
}