{
  "pages": [
    [
      [
        "ประกาศมหาวิทยาลัยเทคโนโลยีพระจอมเกล้าพระนครเหนือ",
        "เรื่อง การจัดตั้งส่วนงานในมหาวิทยาลัยเทคโนโลยีพระจอมเกล้าพระนครเหนือ",
        "(ฉบับที่ ๘)"
      ]
    ],
    []
  ],
  "metadata": {
    "date_backmatter": "2558-06-24",
    "date_modified": "2558-09-16",
    "date_original": "2558-09-16",
    "doctype": "ประกาศ",
    "editors": [
      {
        "name": "ปริยานุช",
        "role": "ผู้จัดทำ",
        "date": "2558-09-21"
      },
      {
        "name": "ปัญจพร",
        "role": "ผู้ตรวจ",
        "date": "2558-09-21"
      }
    ],
    "tag": "c138-2e-2558-a0002"
  }
}