{
  "pages": [
    [
      [
        "ประกาศมหาวิทยาลัยเทคโนโลยีพระจอมเกล้าพระนครเหนือ",
        "เรื่อง รับกาญจนาภิเษกวิทยาลัย ช่างทองหลวง สำนักงานคณะกรรมการการอาชีวศึกษา",
        "เข้าสมทบในมหาวิทยาลัยเทคโนโลยีพระจอมเกล้าพระนครเหนือ"
      ]
    ],
    []
  ],
  "metadata": {
    "date_backmatter": "2552-11-25",
    "date_modified": "2553-10-04",
    "date_original": "2553-10-04",
    "doctype": "ประกาศ",
    "editors": [
      {
        "name": "กนกพร",
        "role": "ผู้จัดทำ",
        "date": "2553-11-17"
      },
      {
        "name": "กวินทราดา",
        "role": "ผู้ตรวจ"
      }
    ],
    "tag": "c138-2e-2553-a0003"
  }
}