{
  "pages": [
    [
      [
        "ประกาศมหาวิทยาลัยเทคโนโลยีพระจอมเกล้าพระนครเหนือ",
        "เรื่อง การจัดตั้งส่วนงานในมหาวิทยาลัยเทคโนโลยีพระจอมเกล้าพระนครเหนือ",
        "(ฉบับที่ ๕)"
      ]
    ],
    []
  ],
  "metadata": {
    "date_backmatter": "2557-02-12",
    "date_modified": "2557-06-18",
    "date_original": "2557-06-18",
    "doctype": "ประกาศ",
    "editors": [
      {
        "name": "ปริยานุช",
        "role": "ผู้จัดทำ",
        "date": "2557-06-23"
      },
      {
        "name": "กฤษดายุทธ",
        "role": "ผู้ตรวจ",
        "date": "2557-06-23"
      }
    ],
    "tag": "c138-2e-2557-a0002"
  }
}