{
  "pages": [
    [
      [
        "ประกาศกระทรวงสาธารณสุข",
        "เลขที่ ๓๘๗ พ.ศ. ๒๕๖๐",
        "เรื่อง อาหารที่มีสารพิษตกค้าง"
      ]
    ],
    []
  ],
  "metadata": {
    "date_backmatter": "2560-08-18",
    "date_modified": "2561-10-22",
    "date_original": "2560-09-18",
    "doctype": "ประกาศ",
    "editors": [
      {
        "name": "พิมพ์มาดา",
        "role": "จัดทำ",
        "date": "2562-03-11"
      }
    ],
    "tag": "cd08-2e-9948-update"
  }
}