{
  "pages": [
    [
      [
        "ประกาศกระทรวงสาธารณสุข",
        "ฉบับที่ ๑๔๘ (พ.ศ. ๒๕๓๖)",
        "เรื่อง แต่งตั้งพนักงานเจ้าหน้าที่เพื่อปฏิบัติการ",
        "ตามพระราชบัญญัติอาหาร พ.ศ. ๒๕๒๒"
      ]
    ],
    []
  ],
  "metadata": {
    "date_backmatter": "2536-05-31",
    "date_gz_old": "2536-07-15",
    "doctype": "ประกาศ",
    "editors": [
      {
        "name": "ธิดาวรรณ",
        "role": "พิมพ์",
        "date": "2545-09-06"
      }
    ],
    "tag": "cd08-2e-2536-001"
  }
}