{
  "pages": [
    [
      [
        "ประกาศกระทรวงสาธารณสุข",
        "(ฉบับที่ ๒๒๘) พ.ศ.๒๕๔๔",
        "เรื่อง หมากฝรั่งและลูกอม"
      ]
    ],
    []
  ],
  "metadata": {
    "date_backmatter": "2544-07-23",
    "date_modified": "2544-07-26",
    "date_original": "2544-07-26",
    "doctype": "ประกาศ",
    "editors": [
      {
        "name": "ภคินี",
        "role": "แก้ไข",
        "date": "2545-05-08"
      }
    ],
    "tag": "cd08-2e-2544-a028"
  }
}