{
  "pages": [
    [
      [
        "ประกาศกระทรวงสาธารณสุข",
        "(ฉบับที่ ๓๔๙) พ.ศ. ๒๕๕๖",
        "เรื่อง วิธีการผลิต เครื่องมือเครื่องใช้ในการผลิตและการเก็บรักษา",
        "อาหารในภาชนะบรรจุที่ปิดสนิทชนิดที่มีความเป็นกรดต่ำ และชนิดที่ปรับกรด"
      ]
    ],
    []
  ],
  "metadata": {
    "date_backmatter": "2556-01-03",
    "date_modified": "2556-02-20",
    "date_original": "2556-02-20",
    "doctype": "ประกาศ",
    "editors": [
      {
        "name": "ปริยานุช",
        "role": "ผู้จัดทำ",
        "date": "2556-02-22"
      },
      {
        "name": "โชติกานต์",
        "role": "ผู้ตรวจ",
        "date": "2556-03-20"
      }
    ],
    "tag": "cd08-2e-2556-a0002"
  }
}