{
  "pages": [
    [
      [
        "ประกาศกรมการค้าภายใน",
        "เรื่อง กำหนดระยะเวลายื่นคำขออนุญาตใช้เครื่องหมายรับรองธงฟ้า - ราคาประหยัด",
        "และราคาจำหน่ายอาหารปรุงสำเร็จ"
      ]
    ],
    []
  ],
  "metadata": {
    "date_backmatter": "2548-12-02",
    "date_modified": "2549-01-06",
    "date_original": "2549-01-06",
    "doctype": "ประกาศ",
    "editors": [
      {
        "name": "พชร",
        "role": "ผู้จัดทำ",
        "date": "2549-01-12"
      }
    ],
    "tag": "cd08-2e-2549-a0002"
  }
}