{
  "pages": [
    [
      [
        "ประกาศกระทรวงสาธารณสุข",
        "(ฉบับที่ ๓๖๙) พ.ศ. ๒๕๕๘",
        "เรื่อง ขวดนม และภาชนะบรรจุนมสำหรับทารกและเด็กเล็ก"
      ]
    ],
    []
  ],
  "metadata": {
    "date_backmatter": "2558-01-08",
    "date_modified": "2558-02-03",
    "date_original": "2558-02-03",
    "doctype": "ประกาศ",
    "editors": [
      {
        "name": "ปริยานุช",
        "role": "ผู้จัดทำ",
        "date": "2558-02-05"
      },
      {
        "name": "กฤษดายุทธ",
        "role": "ผู้ตรวจ",
        "date": "2558-02-05"
      }
    ],
    "tag": "cd08-2e-2558-a0001"
  }
}