{
  "pages": [
    [
      [
        "ประกาศกระทรวงสาธารณสุข",
        "ฉบับที่ ๒๐ (พ.ศ. ๒๕๒๒)",
        "เรื่อง กำหนดน้ำบริโภคและเครื่องดื่มเป็นอาหารควบคุมเฉพาะ",
        "และกำหนดคุณภาพหรือมาตรฐาน เงื่อนไข วิธีการผลิตและฉลาก"
      ]
    ],
    []
  ],
  "metadata": {
    "date_backmatter": "2522-09-13",
    "date_modified": "2522-09-21",
    "date_original": "2522-09-21",
    "doctype": "ประกาศ",
    "editors": [
      {
        "name": "สุกัญญา",
        "role": "พิมพ์",
        "date": "2552-06-18"
      }
    ],
    "tag": "cd08-2e-2522-a0016"
  }
}