{
  "pages": [
    [
      [
        "ประกาศสำนักงานคณะกรรมการอาหารและยา",
        "เรื่อง การกำหนดคุณภาพหรือมาตรฐานของวัตถุเจือปนอาหารชนิดเดี่ยว (ฉบับที่ ๒)"
      ]
    ],
    []
  ],
  "metadata": {
    "date_backmatter": "2548-10-12",
    "date_modified": "2548-11-01",
    "date_original": "2548-11-01",
    "doctype": "ประกาศ",
    "editors": [
      {
        "name": "พชร",
        "role": "ผู้จัดทำ",
        "date": "2548-11-04"
      }
    ],
    "tag": "cd08-2e-2548-a0019"
  }
}