{
  "pages": [
    [
      [
        "ระเบียบสำนักงานคณะกรรมการอาหารและยา",
        "ว่าด้วยการขายวัตถุออกฤทธิ์ในประเภท ๒",
        "พ.ศ. ๒๕๔๕"
      ]
    ],
    []
  ],
  "metadata": {
    "date_backmatter": "2545-09-24",
    "date_modified": "2545-10-16",
    "date_original": "2545-10-16",
    "editors": [
      {
        "name": "สุกัญญา",
        "role": "พิมพ์",
        "date": "2552-07-29"
      }
    ],
    "tag": "cd08-2g-2545-a0001"
  }
}