{
  "pages": [
    [
      [
        "ประกาศกระทรวงสาธารณสุข",
        "เลขที่ ๓๘๘ พ.ศ. ๒๕๖๑",
        "เรื่อง กำหนดอาหารที่ห้ามผลิต นำเข้า หรือจำหน่าย"
      ]
    ],
    []
  ],
  "metadata": {
    "date_backmatter": "2561-06-13",
    "date_modified": "2561-07-13",
    "date_original": "2561-07-13",
    "doctype": "ประกาศ",
    "editors": [
      {
        "name": "พรวิภา",
        "role": "จัดทำ",
        "date": "2561-10-02"
      }
    ],
    "tag": "cd08-2e-2561-a0001"
  }
}