{
  "pages": [
    [
      [
        "ประกาศกระทรวงสาธารณสุข",
        "(ฉบับที่ ๑๘๔) พ.ศ. ๒๕๔๒",
        "เรื่อง น้ำมันปาล์ม (ฉบับที่ ๒)"
      ]
    ],
    []
  ],
  "metadata": {
    "date_backmatter": "2542-04-07",
    "date_modified": "2542-05-25",
    "date_original": "2542-05-25",
    "doctype": "ประกาศ",
    "editors": [
      {
        "name": "พรพิมล",
        "role": "พิมพ์",
        "date": "2545-05-30"
      }
    ],
    "tag": "cd08-2e-2542-a004"
  }
}