{
  "pages": [
    [
      [
        "ระเบียบสำนักงานคณะกรรมการอาหารและยา",
        "ว่าด้วยการจ่ายเงินสินบนในคดีจับกุมผู้กระทำผิด",
        "พ.ศ. ๒๕๓๙"
      ]
    ],
    []
  ],
  "metadata": {
    "date_backmatter": "2539-01-12",
    "date_modified": "2539-09-03",
    "date_original": "2539-09-03",
    "editors": [
      {
        "name": "สุกัญญา",
        "role": "พิมพ์",
        "date": "2552-07-29"
      }
    ],
    "tag": "cd08-2g-2539-a0002"
  }
}