{
  "pages": [
    [
      [
        "ประกาศกระทรวงสาธารณสุข",
        "(ฉบับที่ ๒๐๕) พ.ศ. ๒๕๔๓",
        "เรื่อง น้ำมันและไขมัน"
      ]
    ],
    []
  ],
  "metadata": {
    "date_backmatter": "2543-09-19",
    "date_modified": "2544-01-24",
    "date_original": "2544-01-24",
    "doctype": "ประกาศ",
    "editors": [
      {
        "name": "อาภรณ์",
        "role": "แก้ไข",
        "date": "2544-11-16"
      }
    ],
    "tag": "cd08-2e-2544-a006"
  }
}