{
  "pages": [
    [
      [
        "ประกาศกระทรวงสาธารณสุข",
        "เรื่อง การใช้จุลินทรีย์โพรไบโอติกในอาหาร"
      ]
    ],
    []
  ],
  "metadata": {
    "date_backmatter": "2554-06-27",
    "date_modified": "2555-12-18",
    "date_original": "2554-08-03",
    "doctype": "ประกาศ",
    "editors": [
      {
        "name": "ปริยานุช",
        "role": "ผู้จัดทำ",
        "date": "2554-08-29"
      },
      {
        "name": "ณัฐวดี",
        "role": "ตรวจ",
        "date": "2554-08-29"
      },
      {
        "name": "ณัฐพร",
        "role": "ผู้ปรับปรุง",
        "date": "2555-12-27"
      }
    ],
    "tag": "cd08-2e-9954-update"
  }
}