{
  "pages": [
    [
      [
        "ประกาศสำนักงานคณะกรรมการอาหารและยา"
      ]
    ],
    []
  ],
  "metadata": {
    "date_backmatter": "2551-10-13",
    "date_modified": "2551-10-17",
    "date_original": "2551-10-17",
    "editors": [
      {
        "name": "วัชศักดิ์",
        "role": "ผู้จัดทำ",
        "date": "2551-10-20"
      }
    ],
    "tag": "cd08-2e-2551-a0006"
  }
}