{
  "pages": [
    [
      [
        "ประกาศกระทรวงสาธารณสุข",
        "ฉบับที่ ๑๕๗ (พ.ศ. ๒๕๓๗)",
        "เรื่อง อาหารทารกและอาหารสูตรต่อเนื่องสำหรับทารกและเด็กเล็ก"
      ]
    ],
    []
  ],
  "metadata": {
    "date_backmatter": "2537-10-14",
    "date_modified": "2550-12-03",
    "date_original": "2537-11-16",
    "doctype": "ประกาศ",
    "editors": [
      {
        "name": "สุกัญญา",
        "role": "พิมพ์",
        "date": "2552-05-28"
      }
    ],
    "tag": "cd08-2e-9997-update"
  }
}