{
  "pages": [
    [
      [
        "คำสั่งสำนักงานคณะกรรมการอาหารและยา",
        "ที่ ๑๑๑/๒๕๓๗",
        "เรื่อง มอบอำนาจให้ผู้ว่าราชการจังหวัดสั่งให้งดผลิตหรืองดนำเข้าและประกาศผล",
        "การตรวจพิสูจน์อาหาร"
      ]
    ],
    []
  ],
  "metadata": {
    "date_backmatter": "2537-03-29",
    "date_modified": "2537-05-10",
    "date_original": "2537-05-10",
    "editors": [],
    "tag": "cd08-2f-2537-a0001"
  }
}