{
  "pages": [
    [
      [
        "ประกาศกระทรวงสาธารณสุข",
        "(ฉบับที่ ๓๗๗) พ.ศ. ๒๕๕๙",
        "เรื่อง กำหนดหลักเกณฑ์และเงื่อนไขการนำเข้าอาหารที่มีความเสี่ยงจากโรควัวบ้า"
      ]
    ],
    []
  ],
  "metadata": {
    "date_backmatter": "2559-07-11",
    "date_modified": "2559-07-15",
    "date_original": "2559-07-15",
    "doctype": "ประกาศ",
    "editors": [
      {
        "name": "ชวัลพร/ปริยานุช",
        "role": "จัดทำ",
        "date": "2559-07-22"
      }
    ],
    "tag": "cd08-2e-2559-a0006"
  }
}