{
  "pages": [
    [
      [
        "ประกาศกระทรวงสาธารณสุข",
        "(ฉบับที่ ๒๕๖) พ.ศ. ๒๕๔๕",
        "เรื่อง น้ำบริโภคในภาชนะบรรจุที่ปิดสนิท (ฉบับที่ ๔)"
      ]
    ],
    []
  ],
  "metadata": {
    "date_backmatter": "2545-05-30",
    "date_modified": "2545-06-18",
    "date_original": "2545-06-18",
    "doctype": "ประกาศ",
    "editors": [
      {
        "name": "สุกัญญา",
        "role": "พิมพ์",
        "date": "2552-07-29"
      }
    ],
    "tag": "cd08-2e-2545-a007"
  }
}