{
  "pages": [
    [
      [
        "บอกแก้"
      ]
    ],
    []
  ],
  "metadata": {
    "date_modified": "2493-06-27",
    "date_original": "2493-06-27",
    "editors": [],
    "tag": "a814-2a-2493-a008"
  }
}