{
  "pages": [
    [
      [
        "พระราชกฤษฎีกา",
        "แบ่งส่วนราชการและกำหนดหน้าที่ของส่วนราชการกองทัพบก",
        "กองบัญชาการทหารสูงสุด กระทรวงกลาโหม",
        "พ.ศ. ๒๕๔๔",
        "",
        "",
        "ภูมิพลอดุลยเดช ป.ร.",
        "ให้ไว้ ณ วันที่ ๒๘ เมษายน พ.ศ. ๒๕๔๔",
        "เป็นปีที่ ๕๖ ในรัชกาลปัจจุบัน"
      ]
    ],
    []
  ],
  "metadata": {
    "date_header": "2544-04-28",
    "date_modified": "2544-05-10",
    "date_original": "2544-05-10",
    "doctype": "พระราชกฤษฎีกา",
    "editors": [
      {
        "name": "อัมพิกา",
        "role": "แก้ไข",
        "date": "2544-10-03"
      },
      {
        "name": "ปฐมพร",
        "role": "ปรับปรุง",
        "date": "2550-01-25"
      }
    ],
    "tag": "a814-2a-2544-a0001",
    "title": "แบ่งส่วนราชการและกำหนดหน้าที่ของส่วนราชการกองทัพบกกองบัญชาการทหารสูงสุด กระทรวงกลาโหม"
  }
}