{
  "pages": [
    [
      [
        "พระราชกฤษฎีกา",
        "จัดวางระเบียบราชการกองทัพบก",
        "ในกระทรวงกลาโหม",
        "พ.ศ. ๒๔๙๑",
        "",
        "",
        "ในพระปรมาภิไธยสมเด็จพระเจ้าอยู่หัวภูมิพลอดุลยเดช",
        "คณะอภิรัฐมนตรี ในหน้าที่คณะผู้สำเร็จราชการแทนพระองค์",
        "รังสิต กรมขุนชัยนาทนเรนทร",
        "อลงกฏ",
        "มานวราชเสวี",
        "อดุลเดชจรัส",
        "ให้ไว้ ณ วันที่ ๓ กันยายน พ.ศ. ๒๔๙๑",
        "เป็นปีที่ ๓ ในรัชกาลปัจจุบัน"
      ]
    ],
    []
  ],
  "metadata": {
    "date_header": "2491-09-03",
    "date_modified": "2493-09-22",
    "date_original": "2491-09-14",
    "doctype": "พระราชกฤษฎีกา",
    "editors": [
      {
        "name": "พุทธชาด",
        "role": "แก้ไข",
        "date": "2545-11-21"
      },
      {
        "name": "ปฐมพร",
        "role": "ปรับปรุง",
        "date": "2550-01-30"
      },
      {
        "name": "ปฐมพร",
        "role": "อัปเดท",
        "date": "2550-10-22"
      }
    ],
    "tag": "a814-2a-9998-update",
    "title": "จัดวางระเบียบราชการกองทัพบกในกระทรวงกลาโหม"
  }
}