{
  "pages": [
    [
      [
        "พระราชกฤษฎีกา",
        "แบ่งส่วนราชการและกำหนดหน้าที่ของส่วนราชการ",
        "สำนักงานเลขานุการรัฐมนตรี และสำนักงานปลัดกระทรวง",
        "กระทรวงกลาโหม (ฉบับที่ ๓)",
        "พ.ศ. ๒๕๓๖",
        "",
        "",
        "ภูมิพลอดุลยเดช ป.ร.",
        "ให้ไว้ ณ วันที่ ๒๑ ธันวาคม พ.ศ. ๒๕๓๖",
        "เป็นปีที่ ๔๘ ในรัชกาลปัจจุบัน"
      ]
    ],
    []
  ],
  "metadata": {
    "date_header": "2536-12-21",
    "date_modified": "2536-12-27",
    "date_original": "2536-12-27",
    "doctype": "พระราชกฤษฎีกา",
    "editors": [
      {
        "name": "ปฐมพร",
        "role": "จัดทำ",
        "date": "2550-01-25"
      }
    ],
    "tag": "a814-2a-2536-003",
    "title": "แบ่งส่วนราชการและกำหนดหน้าที่ของส่วนราชการสำนักงานเลขานุการรัฐมนตรี และสำนักงานปลัดกระทรวงกระทรวงกลาโหม (ฉบับที่ ๓)"
  }
}