{
  "pages": [
    [
      [
        "พระราชกฤษฎีกา",
        "แบ่งส่วนราชการและกำหนดหน้าที่ของส่วนราชการกองทัพเรือ",
        "กองบัญชาการทหารสูงสุด กระทรวงกลาโหม",
        "พ.ศ. ๒๕๓๘",
        "",
        "",
        "ภูมิพลอดุลยเดช ป.ร.",
        "ให้ไว้ ณ วันที่ ๑๒ ตุลาคม พ.ศ. ๒๕๓๘",
        "เป็นปีที่ ๕๐ ในรัชกาลปัจจุบัน"
      ]
    ],
    []
  ],
  "metadata": {
    "date_header": "2538-10-12",
    "date_modified": "2538-10-25",
    "date_original": "2538-10-25",
    "doctype": "พระราชกฤษฎีกา",
    "editors": [
      {
        "name": "จารุวรรณ",
        "role": "แก้ไข",
        "date": "2545-08-15"
      },
      {
        "name": "ปฐมพร",
        "role": "ปรับปรุง",
        "date": "2550-01-25"
      }
    ],
    "tag": "a814-2a-2538-a0001",
    "title": "แบ่งส่วนราชการและกำหนดหน้าที่ของส่วนราชการกองทัพเรือกองบัญชาการทหารสูงสุด กระทรวงกลาโหม"
  }
}