{
  "pages": [
    [
      [
        "พระราชกฤษฎีกา",
        "แบ่งส่วนราชการและกำหนดหน้าที่ของส่วนราชการ",
        "กรมราชองครักษ์ กระทรวงกลาโหม",
        "พ.ศ. ๒๕๕๒",
        "",
        "",
        "ภูมิพลอดุลยเดช ป.ร.",
        "ให้ไว้ ณ วันที่ ๒๗ มีนาคม พ.ศ. ๒๕๕๒",
        "เป็นปีที่ ๖๔ ในรัชกาลปัจจุบัน"
      ]
    ],
    []
  ],
  "metadata": {
    "date_header": "2552-03-27",
    "date_modified": "2555-11-14",
    "date_original": "2552-03-30",
    "doctype": "พระราชกฤษฎีกา",
    "editors": [
      {
        "name": "ชาญ",
        "role": "ผู้จัดทำ",
        "date": "2555-11-28"
      }
    ],
    "tag": "a814-2a-9993-update",
    "title": "แบ่งส่วนราชการและกำหนดหน้าที่ของส่วนราชการกรมราชองครักษ์ กระทรวงกลาโหม"
  }
}