{
  "pages": [
    [
      [
        "กฎกระทรวง",
        "แบ่งส่วนราชการสำนักงานสภาความมั่นคงแห่งชาติ",
        "สำนักนายกรัฐมนตรี",
        "พ.ศ. ๒๕๕๔"
      ]
    ],
    []
  ],
  "metadata": {
    "date_backmatter": "2554-05-09",
    "date_modified": "2556-07-24",
    "date_original": "2554-05-20",
    "doctype": "กฎกระทรวง",
    "editors": [
      {
        "name": "ปณตภร",
        "role": "ผู้จัดทำ",
        "date": "2556-08-06"
      }
    ],
    "tag": "ca19-2b-9999-update"
  }
}