{
  "pages": [
    [
      [
        "ประกาศกระทรวงสาธารณสุข",
        "เรื่อง เพิ่มเติมชื่อโรคติดต่ออันตราย"
      ]
    ],
    []
  ],
  "metadata": {
    "date_backmatter": "2546-04-01",
    "date_modified": "2546-04-08",
    "date_original": "2546-04-08",
    "doctype": "ประกาศ",
    "editors": [
      {
        "name": "ประภาศรี",
        "role": "พิมพ์",
        "date": "2552-02-18"
      },
      {
        "name": "ศิรวัชร์",
        "role": "ปรับปรุง",
        "date": "2560-09-05"
      }
    ],
    "tag": "c329-2e-2546-a0003"
  }
}