{
  "pages": [
    [
      [
        "ประกาศกระทรวงสาธารณสุข",
        "เรื่อง เพิ่มเติมชื่อโรคติดต่อและอาการสำคัญ"
      ]
    ],
    []
  ],
  "metadata": {
    "date_backmatter": "2552-06-04",
    "date_modified": "2552-06-22",
    "date_original": "2552-06-22",
    "doctype": "ประกาศ",
    "editors": [
      {
        "name": "ปริยานุช",
        "role": "จัดทำ",
        "date": "2552-06-26"
      },
      {
        "name": "ศิรวัชร์",
        "role": "ปรับปรุง",
        "date": "2560-09-08"
      }
    ],
    "tag": "c329-2e-2552-a0001"
  }
}