{
  "pages": [
    [
      [
        "ประกาศกระทรวงสาธารณสุข",
        "เรื่อง เพิ่มเติมชื่อโรคติดต่ออันตราย"
      ]
    ],
    []
  ],
  "metadata": {
    "date_backmatter": "2557-08-13",
    "date_modified": "2557-08-15",
    "date_original": "2557-08-15",
    "doctype": "ประกาศ",
    "editors": [
      {
        "name": "ปริยานุช",
        "role": "ผู้จัดทำ",
        "date": "2557-09-11"
      },
      {
        "name": "จุฑามาศ",
        "role": "ผู้ตรวจ",
        "date": "2557-09-15"
      }
    ],
    "tag": "c329-2e-2557-a0003"
  }
}