{
  "pages": [
    [
      [
        "ประกาศกระทรวงการคลัง",
        "เรื่อง กิจการที่ต้องขออนุญาตตามข้อ ๕ แห่งประกาศของคณะปฏิวัติ ฉบับที่ ๕๘",
        "(เรื่อง สินเชื่อรายย่อยระดับจังหวัดภายใต้การกำกับ)",
        "(ฉบับที่ ๒)"
      ]
    ],
    []
  ],
  "metadata": {
    "date_backmatter": "2561-08-07",
    "date_modified": "2561-08-27",
    "date_original": "2561-08-27",
    "doctype": "ประกาศ",
    "editors": [
      {
        "name": "ปวันวิทย์",
        "role": "จัดทำ",
        "date": "2561-10-01"
      }
    ],
    "tag": "bbc706-2e-2561-a0004"
  }
}