{
  "pages": [
    [
      [
        "ประกาศกระทรวงคมนาคม",
        "เรื่อง หลักเกณฑ์และเงื่อนไขในการอนุญาตให้ประกอบกิจการค้าขายในการเดินอากาศ (ฉบับที่ ๓)",
        "พ.ศ. ๒๕๖๑"
      ]
    ],
    []
  ],
  "metadata": {
    "date_backmatter": "2561-06-19",
    "date_modified": "2561-07-13",
    "date_original": "2561-07-13",
    "doctype": "ประกาศ",
    "editors": [
      {
        "name": "พรวิภา",
        "role": "จัดทำ",
        "date": "2561-10-02"
      }
    ],
    "tag": "bbc706-2e-2561-a0003"
  }
}