{
  "pages": [
    [
      [
        "ประกาศกระทรวงคมนาคม",
        "เรื่อง กำหนดเงื่อนไขในการอนุญาตให้ประกอบกิจการท่าเรือซึ่งเป็นกิจการ",
        "ค้าขายอันเป็นสาธารณูปโภคอันกระทบกระเทือนถึงความปลอดภัยหรือ",
        "ผาสุกของประชาชน ตามข้อ ๓ (๙) แห่งประกาศของคณะปฏิวัติ ฉบับที่ ๕๘"
      ]
    ],
    []
  ],
  "metadata": {
    "date_backmatter": "2539-02-21",
    "date_gz_old": "2539-03-14",
    "doctype": "ประกาศ",
    "editors": [
      {
        "name": "ฐาปนี",
        "role": "แก้ไข",
        "date": "2545-08-08"
      }
    ],
    "tag": "bbc706-2e-2539-a0001"
  }
}