{
  "pages": [
    [
      [
        "ประกาศกระทรวงคมนาคม",
        "เรื่อง ยกเลิกประกาศกระทรวงคมนาคม",
        "เรื่อง หลักเกณฑ์สำหรับการให้บริการเส้นทางบินภายในประเทศ พ.ศ. ๒๕๕๙",
        "พ.ศ. ๒๕๖๐"
      ]
    ],
    []
  ],
  "metadata": {
    "date_backmatter": "2560-07-17",
    "date_modified": "2560-08-22",
    "date_original": "2560-08-22",
    "doctype": "ประกาศ",
    "editors": [
      {
        "name": "ชวัลพร/อัญชลี",
        "role": "จัดทำ",
        "date": "2560-08-24"
      },
      {
        "name": "นุสรา",
        "role": "ตรวจ",
        "date": "2561-01-26"
      }
    ],
    "tag": "bbc706-2e-2560-a0004"
  }
}