{
  "pages": [
    [
      [
        "พระราชบัญญัติ",
        "หลักเกณฑ์การแต่งตั้งและการดำรงตำแหน่งผู้พิพากษาอาวุโส",
        "พ.ศ. ๒๕๔๒",
        "",
        "",
        "ภูมิพลอดุลยเดช ป.ร.",
        "ให้ไว้ ณ วันที่ ๑๔ สิงหาคม พ.ศ. ๒๕๔๒",
        "เป็นปีที่ ๕๔ ในรัชกาลปัจจุบัน"
      ]
    ],
    []
  ],
  "metadata": {
    "date_header": "2542-08-14",
    "date_modified": "2560-08-13",
    "date_original": "2542-08-20",
    "doctype": "พระราชบัญญัติ",
    "editors": [
      {
        "name": "วชิระ",
        "role": "ปรับปรุง",
        "date": "2550-08-24"
      },
      {
        "name": "สุทธนา",
        "role": "ปรับปรุง",
        "date": "2556-12-11"
      },
      {
        "name": "วิชพงษ์",
        "role": "ตรวจ",
        "date": "2556-12-12"
      },
      {
        "name": "พิมพ์มาดา",
        "role": "เพิ่มเติม",
        "date": "2560-08-15"
      }
    ],
    "tag": "cb25-20-9999-update",
    "title": "หลักเกณฑ์การแต่งตั้งและการดำรงตำแหน่งผู้พิพากษาอาวุโส"
  }
}