{
  "pages": [
    [
      [
        "ประกาศสำนักงานหลักประกันสุขภาพแห่งชาติ",
        "เรื่อง มาตรฐานของสถานบริการที่จะให้บริการสาธารณสุขตามกฎหมาย",
        "ว่าด้วยหลักประกันสุขภาพแห่งชาติ กรณีที่มีเหตุสมควร กรณีอุบัติเหตุ",
        "หรือกรณีเจ็บป่วยฉุกเฉิน"
      ]
    ],
    []
  ],
  "metadata": {
    "date_backmatter": "2546-07-21",
    "date_modified": "2546-08-08",
    "date_original": "2546-08-08",
    "doctype": "ประกาศ",
    "editors": [
      {
        "name": "อารยา",
        "role": "พิมพ์",
        "date": "2551-10-30"
      },
      {
        "name": "ชุติมา",
        "role": "ปรับปรุง",
        "date": "2560-10-19"
      }
    ],
    "tag": "cb29-2e-2546-a0013"
  }
}