{
  "pages": [
    [
      [
        "ข้อบังคับสำนักงานหลักประกันสุขภาพแห่งชาติ",
        "ว่าด้วยการมอบอำนาจของเลขาธิการสำนักงาน",
        "หลักประกันสุขภาพแห่งชาติ",
        "พ.ศ. ๒๕๔๖"
      ]
    ],
    []
  ],
  "metadata": {
    "date_backmatter": "2546-01-21",
    "date_modified": "2546-04-04",
    "date_original": "2546-04-04",
    "editors": [
      {
        "name": "สุภาพร",
        "role": "พิมพ์",
        "date": "2546-06-18"
      },
      {
        "name": "ศุภสรณ์/อภิสิทธิ์",
        "role": "ผู้จัดทำ",
        "date": "2546-06-24"
      },
      {
        "name": "นันทพล",
        "role": "ปรับปรุง",
        "date": "2549-11-15"
      },
      {
        "name": "พจณัฏฐ์",
        "role": "ปรับปรุง",
        "date": "2560-10-30"
      }
    ],
    "tag": "cb29-2i-2546-a0001"
  }
}