{
  "pages": [
    [
      [
        "ประกาศสำนักงานหลักประกันสุขภาพแห่งชาติ",
        "เรื่อง แนวทางการให้บริการผ่าตัดเปลี่ยนหัวใจ การปลูกถ่ายตับในเด็ก",
        "และเกณฑ์มาตรฐานหน่วยบริการที่ให้บริการผ่าตัดเปลี่ยนหัวใจ และการปลูกถ่ายตับในเด็ก",
        "พ.ศ. ๒๕๕๔"
      ]
    ],
    []
  ],
  "metadata": {
    "date_backmatter": "2554-09-29",
    "date_modified": "2555-02-03",
    "date_original": "2555-02-03",
    "doctype": "ประกาศ",
    "editors": [
      {
        "name": "ปริยานุช",
        "role": "ผู้จัดทำ",
        "date": "2555-02-06"
      },
      {
        "name": "ปณตภร",
        "role": "ผู้ตรวจ",
        "date": "2555-02-13"
      },
      {
        "name": "ชุติมา",
        "role": "ปรับปรุง",
        "date": "2560-11-01"
      }
    ],
    "tag": "cb29-2e-2555-a0001"
  }
}