{
  "pages": [
    [
      [
        "ประกาศสำนักงานประกันสังคม",
        "เรื่อง หลักเกณฑ์ วิธีการและเงื่อนไขการเลือกรับประโยชน์ทดแทนหรือเลือกรับสิทธิบริการสาธารณสุข",
        "ของคนพิการซึ่งเป็นผู้ประกันตน"
      ]
    ],
    []
  ],
  "metadata": {
    "date_backmatter": "2560-11-22",
    "date_modified": "2560-12-06",
    "date_original": "2560-12-06",
    "doctype": "ประกาศ",
    "editors": [
      {
        "name": "ภวรรณตรี",
        "role": "จัดทำ",
        "date": "2560-12-25"
      },
      {
        "name": "ปุณิกา",
        "role": "ตรวจ",
        "date": "2560-12-30"
      }
    ],
    "tag": "cb29-2e-2560-a0009"
  }
}