{
  "pages": [
    [
      [
        "ประกาศสำนักงานหลักประกันสุขภาพแห่งชาติ",
        "เรื่อง รายงานเหตุผลที่ไม่อาจตราพระราชกฤษฎีกาได้"
      ]
    ],
    []
  ],
  "metadata": {
    "date_backmatter": "2546-11-28",
    "date_modified": "2546-12-08",
    "date_original": "2546-12-08",
    "doctype": "ประกาศ",
    "editors": [
      {
        "name": "พรพิมล",
        "role": "พิมพ์",
        "date": "2547-03-02"
      },
      {
        "name": "จีระ/ต่อศักดิ์",
        "role": "ตรวจ",
        "date": "2547-04-09"
      },
      {
        "name": "นันทพล",
        "role": "ปรับปรุง",
        "date": "2549-11-15"
      }
    ],
    "tag": "cb29-2e-2546-a0009"
  }
}