{
  "pages": [
    [
      [
        "ประกาศสำนักงานหลักประกันสุขภาพแห่งชาติ",
        "เรื่อง แนวทางการรับเงิน การจ่ายเงิน การเก็บรักษาเงิน และการจัดทำบัญชีเงินหรือทรัพย์สิน",
        "ในกองทุนฟื้นฟูสมรรถภาพที่จำเป็นต่อสุขภาพ ระดับจังหวัด",
        "พ.ศ. ๒๕๕๔"
      ]
    ],
    []
  ],
  "metadata": {
    "date_backmatter": "2554-07-11",
    "date_modified": "2556-01-07",
    "date_original": "2556-01-07",
    "doctype": "ประกาศ",
    "editors": [
      {
        "name": "ปณตภร",
        "role": "ผู้จัดทำ",
        "date": "2556-06-24"
      }
    ],
    "tag": "cb29-2e-9998-update"
  }
}