{
  "pages": [
    [
      [
        "ประกาศสำนักงานหลักประกันสุขภาพแห่งชาติ",
        "เรื่อง การขึ้นทะเบียนองค์กรเอกชนเพื่อใช้สิทธิคัดเลือกผู้แทนเป็นกรรมการ",
        "ในคณะกรรมการหลักประกันสุขภาพแห่งชาติ หรือคณะกรรมการควบคุมคุณภาพ",
        "และมาตรฐานบริการสาธารณสุข"
      ]
    ],
    []
  ],
  "metadata": {
    "date_backmatter": "2546-01-08",
    "date_modified": "2546-01-27",
    "date_original": "2546-01-27",
    "doctype": "ประกาศ",
    "editors": [
      {
        "name": "อารยา",
        "role": "พิมพ์",
        "date": "2551-10-30"
      },
      {
        "name": "ชุติมา",
        "role": "ปรับปรุง",
        "date": "2560-10-19"
      }
    ],
    "tag": "cb29-2e-2546-a0010"
  }
}