{
  "pages": [
    [
      [
        "ประกาศคณะกรรมการหลักประกันสุขภาพแห่งชาติ",
        "เรื่อง การกำหนดหลักเกณฑ์ วิธีการคัดเลือก และการแต่งตั้ง",
        "คณะอนุกรรมการหลักประกันสุขภาพระดับเขตพื้นที่",
        "พ.ศ. ๒๕๕๗"
      ]
    ],
    []
  ],
  "metadata": {
    "date_backmatter": "2557-10-31",
    "date_modified": "2557-11-25",
    "date_original": "2557-11-25",
    "doctype": "ประกาศ",
    "editors": [
      {
        "name": "ปริยานุช",
        "role": "ผู้จัดทำ",
        "date": "2557-11-28"
      },
      {
        "name": "ภีราพร",
        "role": "ผู้ตรวจ",
        "date": "2557-12-08"
      }
    ],
    "tag": "cb29-2e-2557-a0008"
  }
}