{
  "pages": [
    [
      [
        "ข้อบังคับคณะกรรมการหลักประกันสุขภาพแห่งชาติ",
        "ว่าด้วยหลักเกณฑ์ วิธีการและเงื่อนไขการขอลงทะเบียนเลือกหน่วยบริการ",
        "พ.ศ. ๒๕๕๕"
      ]
    ],
    []
  ],
  "metadata": {
    "date_backmatter": "2555-06-29",
    "date_modified": "2558-06-30",
    "date_original": "2555-08-23",
    "editors": [
      {
        "name": "ปริยานุช",
        "role": "ผู้จัดทำ",
        "date": "2555-08-29"
      },
      {
        "name": "ชาญ",
        "role": "ผู้ตรวจ",
        "date": "2555-09-05"
      },
      {
        "name": "วิศนี",
        "role": "เพิ่มเติม",
        "date": "2558-08-04"
      },
      {
        "name": "นุสรา",
        "role": "ผู้ตรวจ",
        "date": "2558-08-10"
      }
    ],
    "tag": "cb29-2i-9997-update"
  }
}