{
  "pages": [
    [
      [
        "ประกาศกระทรวงสาธารณสุข",
        "เรื่อง บุคคลที่ไม่ต้องจ่ายค่าบริการ (ฉบับที่ ๒)",
        "พ.ศ. ๒๕๖๑"
      ]
    ],
    []
  ],
  "metadata": {
    "date_backmatter": "2561-08-14",
    "date_modified": "2561-08-17",
    "date_original": "2561-08-17",
    "doctype": "ประกาศ",
    "editors": [
      {
        "name": "พัชรภรณ์",
        "role": "จัดทำ",
        "date": "2561-12-18"
      }
    ],
    "tag": "cb29-2e-2561-a0006"
  }
}