{
  "pages": [
    [
      [
        "ประกาศกระทรวงสาธารณสุข",
        "เรื่อง ค่าใช้จ่ายในการเดินทางไปปฏิบัติงานต่างประเทศของกรรมการและอนุกรรมการ",
        "พ.ศ. ๒๕๕๖"
      ]
    ],
    []
  ],
  "metadata": {
    "date_backmatter": "2556-10-30",
    "date_modified": "2556-12-26",
    "date_original": "2556-12-26",
    "doctype": "ประกาศ",
    "editors": [
      {
        "name": "ปริยานุช",
        "role": "ผู้จัดทำ",
        "date": "2557-01-07"
      },
      {
        "name": "โชติกานต์",
        "role": "ผู้ตรวจ",
        "date": "2557-01-07"
      },
      {
        "name": "ชุติมา",
        "role": "ปรับปรุง",
        "date": "2560-11-03"
      }
    ],
    "tag": "cb29-2e-2556-a0018"
  }
}