{
  "pages": [
    [
      [
        "ประกาศกระทรวงมหาดไทย",
        "ฉบับที่ ๓ (พ.ศ. ๒๕๑๐)",
        "เรื่อง หลักเกณฑ์และวิธีการจ่ายเงินค่าทดแทน",
        "ตลอดจนจำนวนเงินค่าทดแทน"
      ]
    ],
    []
  ],
  "metadata": {
    "date_backmatter": "2510-03-30",
    "date_gz_old": "2510-04-01",
    "doctype": "ประกาศ",
    "editors": [],
    "tag": "a704-2e-2510-a001"
  }
}