{
  "pages": [
    [
      [
        "ประกาศกระทรวงแรงงานและสวัสดิการสังคม",
        "เรื่อง หลักเกณฑ์การวินิจฉัยและการประเมินการสูญเสียสมรรถภาพ",
        "ของผู้ป่วยหรือบาดเจ็บด้วยโรคจากการทำงาน"
      ]
    ],
    []
  ],
  "metadata": {
    "date_backmatter": "2540-05-22",
    "date_modified": "2541-04-24",
    "date_original": "2540-05-30",
    "doctype": "ประกาศ",
    "editors": [],
    "tag": "a704-2e-9998-update"
  }
}