{
  "pages": [
    [
      [
        "ประกาศสำนักงานประกันสังคม",
        "เรื่อง กำหนดหลักเกณฑ์ อัตรา และวิธีการจ่ายค่าตอบแทนให้แก่แพทย์ผู้ประเมินการสูญเสีย",
        "สมรรถภาพของลูกจ้างตามพระราชบัญญัติเงินทดแทน พ.ศ. ๒๕๓๗",
        "พ.ศ. ๒๕๕๗"
      ]
    ],
    []
  ],
  "metadata": {
    "date_backmatter": "2557-10-27",
    "date_modified": "2557-12-11",
    "date_original": "2557-12-11",
    "doctype": "ประกาศ",
    "editors": [
      {
        "name": "ปริยานุช",
        "role": "ผู้จัดทำ",
        "date": "2557-12-16"
      },
      {
        "name": "ปริญสินีย์",
        "role": "ผู้ตรวจ",
        "date": "2557-12-16"
      }
    ],
    "tag": "a704-2e-2557-a0002"
  }
}