{
  "pages": [
    [
      [
        "ระเบียบคณะกรรมการกองทุนเงินทดแทน",
        "ว่าด้วยการรับเงิน การจ่ายเงิน และการเก็บรักษาเงินกองทุนเงินทดแทน (ฉบับที่ ๒)",
        "พ.ศ. ๒๕๕๓"
      ]
    ],
    []
  ],
  "metadata": {
    "date_backmatter": "2553-03-18",
    "date_modified": "2553-05-06",
    "date_original": "2553-05-06",
    "editors": [
      {
        "name": "ปริยานุช",
        "role": "ผู้จัดทำ",
        "date": "2553-06-01"
      },
      {
        "name": "นันท์นภัสร์",
        "role": "ตรวจ",
        "date": "2553-06-01"
      }
    ],
    "tag": "a704-2g-2553-a0001"
  }
}