{
  "pages": [
    [
      [
        "ประกาศกระทรวงแรงงาน",
        "เรื่อง ลักษณะการประสบอันตรายหรือเจ็บป่วยที่คณะกรรมการการแพทย์",
        "จะพิจารณาให้นายจ้างจ่ายค่ารักษาพยาบาลเพิ่มขึ้น"
      ]
    ],
    []
  ],
  "metadata": {
    "date_backmatter": "2560-12-20",
    "date_modified": "2561-01-17",
    "date_original": "2561-01-17",
    "doctype": "ประกาศ",
    "editors": [
      {
        "name": "พัชรภรณ์",
        "role": "จัดทำ",
        "date": "2561-03-02"
      }
    ],
    "tag": "a704-2e-2561-a0001"
  }
}