{
  "pages": [
    [
      [
        "พระราชบัญญัติ",
        "เงินทดแทน",
        "พ.ศ. ๒๕๓๗",
        "",
        "",
        "ภูมิพลอดุลยเดช ป.ร.",
        "ให้ไว้ ณ วันที่ ๑๕ มิถุนายน พ.ศ. ๒๕๓๗",
        "เป็นปีที่ ๔๙ ในรัชกาลปัจจุบัน"
      ]
    ],
    []
  ],
  "metadata": {
    "date_header": "2537-06-15",
    "date_modified": "2537-06-30",
    "date_original": "2537-06-30",
    "doctype": "พระราชบัญญัติ",
    "editors": [
      {
        "name": "ธนพันธ์",
        "role": "แก้ไข",
        "date": "2556-03-29"
      },
      {
        "name": "พลัฐวัษ",
        "role": "ตรวจ",
        "date": "2556-03-29"
      }
    ],
    "tag": "a704-20-2537-001",
    "title": "เงินทดแทน"
  }
}