{
  "pages": [
    [
      [
        "ระเบียบคณะกรรมการกองทุนเงินทดแทน",
        "ว่าด้วยการรับเงิน การจ่ายเงิน การเก็บรักษาเงิน",
        "และการจัดหาผลประโยชน์ของกองทุนเงินทดแทน",
        "(ฉบับที่ ๓) พ.ศ. ๒๕๔๔"
      ]
    ],
    []
  ],
  "metadata": {
    "date_backmatter": "2544-02-01",
    "date_gz_old": "2544-02-16",
    "editors": [
      {
        "name": "อัมพิกา",
        "role": "แก้ไข",
        "date": "2544-08-22"
      }
    ],
    "tag": "a704-2g-2544-a0001"
  }
}