{
  "pages": [
    [
      [
        "พระราชกฤษฎีกา",
        "ยกเลิกพระราชกฤษฎีกากำหนดให้ผลิตภัณฑ์อุตสาหกรรม",
        "เต้าเสียบและเต้ารับสำหรับใช้ในที่อยู่อาศัยและงานทั่วไปที่มีจุดประสงค์คล้ายกัน",
        "ต้องเป็นไปตามมาตรฐาน พ.ศ. ๒๕๕๐",
        "พ.ศ. ๒๕๕๑",
        "",
        "",
        "ภูมิพลอดุลยเดช ป.ร.",
        "ให้ไว้ ณ วันที่ ๘ กันยายน พ.ศ. ๒๕๕๑",
        "เป็นปีที่ ๖๓ ในรัชกาลปัจจุบัน"
      ]
    ],
    []
  ],
  "metadata": {
    "date_header": "2551-09-08",
    "date_modified": "2551-09-19",
    "date_original": "2551-09-19",
    "doctype": "พระราชกฤษฎีกา",
    "editors": [
      {
        "name": "วัชศักดิ์",
        "role": "ผู้จัดทำ",
        "date": "2551-09-22"
      }
    ],
    "tag": "c122-2a-2551-a0008",
    "title": "ยกเลิกพระราชกฤษฎีกากำหนดให้ผลิตภัณฑ์อุตสาหกรรมเต้าเสียบและเต้ารับสำหรับใช้ในที่อยู่อาศัยและงานทั่วไปที่มีจุดประสงค์คล้ายกันต้องเป็นไปตามมาตรฐาน พ.ศ. ๒๕๕๐"
  }
}