{
  "pages": [
    [
      [
        "พระราชกฤษฎีกา",
        "กำหนดให้ผลิตภัณฑ์อุตสาหกรรม",
        "ไฟแช็กก๊าซต้องเป็นไปตามมาตรฐาน",
        "พ.ศ. ๒๕๕๕",
        "",
        "",
        "ภูมิพลอดุลยเดช ป.ร.",
        "ให้ไว้ ณ วันที่ ๖ กันยายน พ.ศ. ๒๕๕๕",
        "เป็นปีที่ ๖๗ ในรัชกาลปัจจุบัน"
      ]
    ],
    []
  ],
  "metadata": {
    "date_backmatter": "2554-03-03",
    "date_header": "2555-09-06",
    "date_modified": "2555-09-14",
    "date_original": "2555-09-14",
    "doctype": "พระราชกฤษฎีกา",
    "editors": [
      {
        "name": "ปริยานุช",
        "role": "ผู้จัดทำ",
        "date": "2555-09-17"
      },
      {
        "name": "ชาญ",
        "role": "ผู้ตรวจ",
        "date": "2555-09-19"
      }
    ],
    "tag": "c122-2a-2555-a0003",
    "title": "กำหนดให้ผลิตภัณฑ์อุตสาหกรรมไฟแช็กก๊าซต้องเป็นไปตามมาตรฐาน"
  }
}