{
  "pages": [
    [
      [
        "พระราชกฤษฎีกา",
        "กำหนดให้ผลิตภัณฑ์อุตสาหกรรม",
        "ระบบกำลังไฟฟ้าต่อเนื่องต้องเป็นไปตามมาตรฐาน",
        "พ.ศ. ๒๕๕๖",
        "",
        "",
        "ภูมิพลอดุลยเดช ป.ร.",
        "ให้ไว้ ณ วันที่ ๗ ธันวาคม พ.ศ. ๒๕๕๖",
        "เป็นปีที่ ๖๘ ในรัชกาลปัจจุบัน"
      ]
    ],
    []
  ],
  "metadata": {
    "date_header": "2556-12-07",
    "date_modified": "2556-12-19",
    "date_original": "2556-12-19",
    "doctype": "พระราชกฤษฎีกา",
    "editors": [
      {
        "name": "ปริยานุช",
        "role": "ผู้จัดทำ",
        "date": "2556-12-20"
      },
      {
        "name": "ณัฐพร",
        "role": "ผู้ตรวจ",
        "date": "2556-12-20"
      }
    ],
    "tag": "c122-2a-2556-a0007",
    "title": "กำหนดให้ผลิตภัณฑ์อุตสาหกรรมระบบกำลังไฟฟ้าต่อเนื่องต้องเป็นไปตามมาตรฐาน"
  }
}