{
  "pages": [
    [
      [
        "พระราชบัญญัติ",
        "มาตรฐานผลิตภัณฑ์อุตสาหกรรม (ฉบับที่ ๒)",
        "พ.ศ. ๒๕๒๒",
        "",
        "",
        "ภูมิพลอดุลยเดช ป.ร.",
        "ให้ไว้ ณ วันที่ ๑๙ มีนาคม พ.ศ. ๒๕๒๒",
        "เป็นปีที่ ๓๔ ในรัชกาลปัจจุบัน"
      ]
    ],
    []
  ],
  "metadata": {
    "date_header": "2522-03-19",
    "date_modified": "2522-03-24",
    "date_original": "2522-03-24",
    "doctype": "พระราชบัญญัติ",
    "editors": [
      {
        "name": "สัญชัย",
        "role": "ผู้จัดทำ",
        "date": "2552-03-18"
      }
    ],
    "tag": "c122-20-2522-002",
    "title": "มาตรฐานผลิตภัณฑ์อุตสาหกรรม (ฉบับที่ ๒)"
  }
}