{
  "pages": [
    [
      [
        "พระราชกฤษฎีกา",
        "กำหนดให้ผลิตภัณฑ์อุตสาหกรรม",
        "สีย้อมสังเคราะห์ : สีไดเร็กต์ต้องเป็นไปตามมาตรฐาน",
        "พ.ศ. ๒๕๕๘",
        "",
        "",
        "ภูมิพลอดุลยเดช ป.ร.",
        "ให้ไว้ ณ วันที่ ๒๙ มิถุนายน พ.ศ. ๒๕๕๘",
        "เป็นปีที่ ๗๐ ในรัชกาลปัจจุบัน"
      ]
    ],
    []
  ],
  "metadata": {
    "date_backmatter": "2555-11-22",
    "date_header": "2558-06-29",
    "date_modified": "2558-07-03",
    "date_original": "2558-07-03",
    "doctype": "พระราชกฤษฎีกา",
    "editors": [
      {
        "name": "ปริยานุช",
        "role": "ผู้จัดทำ",
        "date": "2558-07-07"
      },
      {
        "name": "นุสรา",
        "role": "ผู้ตรวจ",
        "date": "2558-07-27"
      }
    ],
    "tag": "c122-2a-2558-a0002",
    "title": "กำหนดให้ผลิตภัณฑ์อุตสาหกรรมสีย้อมสังเคราะห์ : สีไดเร็กต์ต้องเป็นไปตามมาตรฐาน"
  }
}