{
  "pages": [
    [
      [
        "พระราชกฤษฎีกา",
        "กำหนดให้ผลิตภัณฑ์อุตสาหกรรมผงซักฟอก",
        "ต้องเป็นไปตามมาตรฐาน",
        "พ.ศ. ๒๕๕๑",
        "",
        "",
        "ภูมิพลอดุลยเดช ป.ร.",
        "ให้ไว้ ณ วันที่ ๕ มกราคม พ.ศ. ๒๕๕๑",
        "เป็นปีที่ ๖๓ ในรัชกาลปัจจุบัน"
      ]
    ],
    []
  ],
  "metadata": {
    "date_backmatter": "2549-12-28",
    "date_header": "2551-01-05",
    "date_modified": "2551-01-16",
    "date_original": "2551-01-16",
    "doctype": "พระราชกฤษฎีกา",
    "editors": [
      {
        "name": "วัชศักดิ์",
        "role": "ผู้จัดทำ",
        "date": "2551-01-28"
      }
    ],
    "tag": "c122-2a-2551-a0001",
    "title": "กำหนดให้ผลิตภัณฑ์อุตสาหกรรมผงซักฟอกต้องเป็นไปตามมาตรฐาน"
  }
}