{
  "pages": [
    [
      [
        "ระเบียบสำนักงานมาตรฐานผลิตภัณฑ์อุตสาหกรรม",
        "ว่าด้วยการเปรียบเทียบปรับ (ฉบับที่ ๒)",
        "พ.ศ. ๒๕๕๕"
      ]
    ],
    []
  ],
  "metadata": {
    "date_backmatter": "2555-02-28",
    "date_modified": "2555-04-05",
    "date_original": "2555-04-05",
    "editors": [
      {
        "name": "ปริยานุช",
        "role": "ผู้จัดทำ",
        "date": "2555-04-11"
      },
      {
        "name": "ปณตภร",
        "role": "ผู้ตรวจ",
        "date": "2555-04-19"
      }
    ],
    "tag": "c122-2g-2555-a0001"
  }
}