{
  "pages": [
    [
      [
        "พระราชบัญญัติ",
        "สำนักงานพัฒนาธุรกรรมทางอิเล็กทรอนิกส์",
        "พ.ศ. ๒๕๖๒",
        "",
        "",
        "สมเด็จพระเจ้าอยู่หัวมหาวชิราลงกรณ บดินทรเทพยวรางกูร",
        "ให้ไว้ ณ วันที่ ๑๒ เมษายน พ.ศ. ๒๕๖๒",
        "เป็นปีที่ ๔ ในรัชกาลปัจจุบัน"
      ]
    ],
    []
  ],
  "metadata": {
    "date_header": "2562-04-12",
    "date_modified": "2562-04-14",
    "date_original": "2562-04-14",
    "doctype": "พระราชบัญญัติ",
    "editors": [
      {
        "name": "พัชรภรณ์",
        "role": "จัดทำ",
        "date": "2562-04-18"
      },
      {
        "name": "นุสรา",
        "role": "ตรวจ",
        "date": "2562-04-18"
      }
    ],
    "tag": "ca97-20-2562-a0001",
    "title": "สำนักงานพัฒนาธุรกรรมทางอิเล็กทรอนิกส์"
  }
}