{
  "pages": [
    [
      [
        "พระราชบัญญัติ",
        "จัดวางการรถไฟแลทางหลวง",
        "พระพุทธศักราช ๒๔๖๔"
      ]
    ],
    []
  ],
  "metadata": {
    "date_backmatter": "2464-08-15",
    "date_modified": "2473-08-10",
    "date_original": "2464-08-27",
    "editors": [
      {
        "name": "ดวงใจ",
        "role": "แก้ไข",
        "date": "2544-11-12"
      },
      {
        "name": "[ตรวจถูกต้องแล้ว]",
        "role": "๑๙",
        "date": "2545-02-19"
      }
    ],
    "tag": "a816-20-2473-a0001u"
  }
}