{
  "pages": [
    [
      [
        "พระราชบัญญัติ",
        "จัดวางการรถไฟแลทางหลวง",
        "พระพุทธศักราช ๒๔๖๔"
      ]
    ],
    []
  ],
  "metadata": {
    "date_backmatter": "2464-08-15",
    "date_modified": "2475-08-22",
    "date_original": "2464-08-27",
    "editors": [
      {
        "name": "ไพรินทร์",
        "role": "แก้ไข",
        "date": "2545-02-19"
      },
      {
        "name": "[ตรวจถูกต้องแล้ว]",
        "role": "๒๗",
        "date": "2545-02-27"
      }
    ],
    "tag": "a816-20-2475-001u"
  }
}