{
  "pages": [
    [
      [
        "ข้อบังคับสภาการพยาบาล",
        "ว่าด้วยการเลือกตั้งกรรมการและการเลือกกรรมการเพื่อดำรงตำแหน่งต่างๆ",
        "ของสภาการพยาบาล (ฉบับที่ ๒) พ.ศ. ๒๕๔๐"
      ]
    ],
    []
  ],
  "metadata": {
    "date_backmatter": "2540-08-26",
    "date_gz_old": "2540-09-23",
    "editors": [
      {
        "name": "ฐาปนี",
        "role": "แก้ไข",
        "date": "2545-08-06"
      }
    ],
    "tag": "c730-2i-2540-a0001"
  }
}