{
  "pages": [
    [
      [
        "ประกาศสภาการพยาบาล",
        "เรื่อง เกณฑ์การรับรองสถาบันการศึกษาวิชาการพยาบาลและการผดุงครรภ์ใหม่",
        "ที่เปิดดำเนินการสอนในหลักสูตรพยาบาลศาสตร์ระดับพื้นฐาน"
      ]
    ],
    []
  ],
  "metadata": {
    "date_backmatter": "2550-11-13",
    "date_modified": "2551-01-21",
    "date_original": "2551-01-21",
    "doctype": "ประกาศ",
    "editors": [
      {
        "name": "ปริยานุช",
        "role": "ผู้จัดทำ",
        "date": "2551-02-06"
      }
    ],
    "tag": "c730-2e-2551-a0002"
  }
}