{
  "pages": [
    [
      [
        "ข้อบังคับสภาการพยาบาล",
        "ว่าด้วยการสืบสวนหรือสอบสวนในกรณีมีการกล่าวหา",
        "หรือกล่าวโทษว่ามีผู้ประพฤติผิดจริยธรรมแห่งวิชาชีพ",
        "การพยาบาลและการผดุงครรภ์",
        "พ.ศ. 2530"
      ]
    ],
    []
  ],
  "metadata": {
    "date_backmatter": "2530-06-20",
    "editors": [],
    "tag": "c730-2i-2530-003"
  }
}