{
  "pages": [
    [
      [
        "ประกาศสภาการพยาบาล",
        "เรื่อง มาตรฐานการบริการพยาบาลและการผดุงครรภ์ในระดับปฐมภูมิ"
      ]
    ],
    []
  ],
  "metadata": {
    "date_backmatter": "2548-06-03",
    "date_modified": "2548-08-04",
    "date_original": "2548-08-04",
    "doctype": "ประกาศ",
    "editors": [
      {
        "name": "ชัชสรัญ",
        "role": "ผู้จัดทำ",
        "date": "2548-08-18"
      }
    ],
    "tag": "c730-2e-2548-a0003"
  }
}