{
  "pages": [
    [
      [
        "ประกาศสภาการพยาบาล",
        "เรื่อง การรับรองหลักสูตรและสถาบันการศึกษาที่ทำการสอน",
        "และฝึกอบรมวิชาการพยาบาลและการผดุงครรภ์ (ฉบับที่ ๑๘)"
      ]
    ],
    []
  ],
  "metadata": {
    "date_backmatter": "2540-04-01",
    "date_gz_old": "2540-05-01",
    "doctype": "ประกาศ",
    "editors": [],
    "tag": "c730-2e-2540-018"
  }
}