{
  "pages": [
    [
      [
        "ประกาศสภาการพยาบาล",
        "เรื่อง การกำหนดกิจกรรมการศึกษาต่อเนื่องและ",
        "การกำหนดหน่วยคะแนนของผู้ประกอบวิชาชีพการพยาบาล ชั้นหนึ่ง",
        "ผู้ประกอบวิชาชีพการผดุงครรภ์ ชั้นหนึ่ง หรือผู้ประกอบวิชาชีพการพยาบาลและการผดุงครรภ์ ชั้นหนึ่ง",
        "ที่ผ่านการอบรมการให้ยาเคมีบำบัด",
        "พ.ศ. ๒๕๕๖"
      ]
    ],
    []
  ],
  "metadata": {
    "date_backmatter": "2556-08-14",
    "date_modified": "2556-09-23",
    "date_original": "2556-09-23",
    "doctype": "ประกาศ",
    "editors": [
      {
        "name": "ปริยานุช",
        "role": "ผู้จัดทำ",
        "date": "2556-09-26"
      },
      {
        "name": "อุษมล",
        "role": "ผู้ตรวจ",
        "date": "2556-10-02"
      }
    ],
    "tag": "c730-2e-2556-a0004"
  }
}