{
  "pages": [
    [
      [
        "ประกาศสภาการพยาบาล",
        "เรื่อง การรับรองหลักสูตรและสถาบันการศึกษาที่จะทำการสอน",
        "และฝึกอบรมวิชาการพยาบาลและการผดุงครรภ์"
      ]
    ],
    []
  ],
  "metadata": {
    "date_backmatter": "2555-06-20",
    "date_modified": "2555-07-31",
    "date_original": "2555-07-31",
    "doctype": "ประกาศ",
    "editors": [
      {
        "name": "ปริยานุช",
        "role": "ผู้จัดทำ",
        "date": "2555-08-07"
      },
      {
        "name": "ชาญ",
        "role": "ผู้ตรวจ",
        "date": "2555-08-14"
      }
    ],
    "tag": "c730-2e-2555-a0002"
  }
}