{
  "pages": [
    [
      [
        "ระเบียบกระทรวงสาธารณสุข",
        "ว่าด้วยบุคคลซึ่งช่วยเหลือดูแลผู้ป่วยในสถานพยาบาล ในความควบคุมของ",
        "ผู้ประกอบวิชาชีพการพยาบาล การผดุงครรภ์ หรือ",
        "การพยาบาลและการผดุงครรภ์ พ.ศ. ๒๕๔๔"
      ]
    ],
    []
  ],
  "metadata": {
    "date_backmatter": "2544-11-19",
    "date_gz_old": "2544-12-24",
    "editors": [
      {
        "name": "พรพิมล/พิมพ์",
        "role": "แก้ไข",
        "date": "2545-06-13"
      }
    ],
    "tag": "c730-2g-2544-a002"
  }
}