{
  "pages": [
    [
      [
        "ข้อบังคับสภาการพยาบาล",
        "ว่าด้วยการเลือกตั้งกรรมการและการเลือกกรรมการเพื่อดำรงตำแหน่งต่าง ๆ",
        "ของสภาการพยาบาล พ.ศ. ๒๕๓๕"
      ]
    ],
    []
  ],
  "metadata": {
    "date_backmatter": "2535-12-24",
    "date_gz_old": "2536-02-23",
    "editors": [
      {
        "name": "ธิดาวรรณ",
        "role": "แก้ไข",
        "date": "2545-09-06"
      }
    ],
    "tag": "c730-2i-2536-a002"
  }
}