{
  "pages": [
    [
      [
        "ประกาศสภาการพยาบาล",
        "เรื่อง การรับรองหลักสูตรและสถาบันการศึกษาที่ทำการสอนและฝึกอบรม",
        "วิชาการพยาบาลและการผดุงครรภ์ (ฉบับที่ ๒๘)"
      ]
    ],
    []
  ],
  "metadata": {
    "date_backmatter": "2542-05-06",
    "date_gz_old": "2542-06-03",
    "doctype": "ประกาศ",
    "editors": [
      {
        "name": "อัมพิกา",
        "role": "แก้ไข",
        "date": "2545-05-28"
      }
    ],
    "tag": "c730-2e-2542-a003"
  }
}