{
  "pages": [
    [
      [
        "คำสั่งกรมธนารักษ์",
        "ที่ ๖๘๓/๒๕๖๐",
        "เรื่อง หลักเกณฑ์การกำหนดอัตราค่าเช่า ค่าทดแทน ค่าธรรมเนียมเกี่ยวกับการจัดหาประโยชน์",
        "ในที่ราชพัสดุรวมทั้งการกำหนดความหมายและเวลาให้ผลผลิตเกี่ยวกับการเกษตร"
      ]
    ],
    []
  ],
  "metadata": {
    "date_backmatter": "2560-12-12",
    "date_modified": "2561-01-31",
    "date_original": "2561-01-31",
    "editors": [
      {
        "name": "ปวันวิทย์",
        "role": "จัดทำ",
        "date": "2561-02-14"
      }
    ],
    "tag": "b703-2f-2561-a0001"
  }
}