{
  "pages": [
    [
      [
        "พระราชกฤษฎีกา",
        "ถอนสภาพการเป็นสาธารณสมบัติของแผ่นดิน",
        "ที่ใช้เพื่อประโยชน์ของแผ่นดินโดยเฉพาะของที่ราชพัสดุ",
        "ในท้องที่ตำบลเขาย้อย อำเภอเขาย้อย จังหวัดเพชรบุรี",
        "พ.ศ. ๒๕๓๑",
        "",
        "",
        "ภูมิพลอดุลยเดช ป.ร.",
        "ให้ไว้ ณ วันที่ ๒๓ ธันวาคม พ.ศ. ๒๕๓๑",
        "เป็นปีที่ ๔๓ ในรัชกาลปัจจุบัน"
      ]
    ],
    []
  ],
  "metadata": {
    "date_header": "2531-12-23",
    "date_modified": "2531-12-28",
    "date_original": "2531-12-28",
    "doctype": "พระราชกฤษฎีกา",
    "editors": [
      {
        "name": "มณฑาทิพย์",
        "role": "พิมพ์",
        "date": "2546-09-03"
      },
      {
        "name": "ศุภสรณ์",
        "role": "นวพร แก้ไข",
        "date": "2546-09-05"
      }
    ],
    "tag": "b703-2a-2531-a006",
    "title": "ถอนสภาพการเป็นสาธารณสมบัติของแผ่นดินที่ใช้เพื่อประโยชน์ของแผ่นดินโดยเฉพาะของที่ราชพัสดุในท้องที่ตำบลเขาย้อย อำเภอเขาย้อย จังหวัดเพชรบุรี"
  }
}