{
  "pages": [
    [
      [
        "กฎกระทรวง",
        "ว่าด้วยหลักเกณฑ์และวิธีการปกครอง ดูแล บำรุงรักษา ใช้",
        "และจัดหาประโยชน์เกี่ยวกับที่ราชพัสดุ",
        "พ.ศ. ๒๕๔๕"
      ]
    ],
    []
  ],
  "metadata": {
    "date_backmatter": "2545-08-08",
    "date_modified": "2549-05-01",
    "date_original": "2545-08-15",
    "doctype": "กฎกระทรวง",
    "editors": [
      {
        "name": "ฐิติพร",
        "role": "จัดทำ",
        "date": "2557-02-10"
      },
      {
        "name": "วิชพงษ์",
        "role": "ตรวจ",
        "date": "2557-02-20"
      }
    ],
    "tag": "b703-2b-2549-a0004"
  }
}