{
  "pages": [
    [
      [
        "พระราชกฤษฎีกา",
        "ถอนสภาพการเป็นสาธารณสมบัติของแผ่นดิน",
        "ที่ใช้เพื่อประโยชน์ของแผ่นดินโดยเฉพาะของที่ราชพัสดุ",
        "ในท้องที่ตำบลหินตก อำเภอร่อนพิบูลย์",
        "จังหวัดนครศรีธรรมราช",
        "พ.ศ. ๒๕๕๙",
        "",
        "",
        "ภูมิพลอดุลยเดช ป.ร.",
        "ให้ไว้ ณ วันที่ ๒๖ เมษายน พ.ศ. ๒๕๕๙",
        "เป็นปีที่ ๗๑ ในรัชกาลปัจจุบัน"
      ]
    ],
    []
  ],
  "metadata": {
    "date_header": "2559-04-26",
    "date_modified": "2559-04-29",
    "date_original": "2559-04-29",
    "doctype": "พระราชกฤษฎีกา",
    "editors": [
      {
        "name": "ปริยานุช",
        "role": "จัดทำ",
        "date": "2559-05-03"
      },
      {
        "name": "กัญฑรัตน์",
        "role": "ตรวจ",
        "date": "2559-05-03"
      }
    ],
    "tag": "b703-2a-2559-a0001",
    "title": "ถอนสภาพการเป็นสาธารณสมบัติของแผ่นดินที่ใช้เพื่อประโยชน์ของแผ่นดินโดยเฉพาะของที่ราชพัสดุในท้องที่ตำบลหินตก อำเภอร่อนพิบูลย์จังหวัดนครศรีธรรมราช"
  }
}