{
  "pages": [
    [
      [
        "พระราชกฤษฎีกา",
        "กำหนดเกาะที่นกอีแอ่นทำรังอยู่ตามธรรมชาติเป็นเขตห้าม",
        "พุทธศักราช ๒๔๘๕",
        "",
        "",
        "ในพระปรมาภิไธยสมเด็จพระเจ้าอยู่หัวอานันทมหิดล",
        "คณะผู้สำเร็จราชการแทนพระองค์",
        "(ตามประกาศประธานสภาผู้แทนราษฎร",
        "ลงวันที่ ๔ สิงหาคม พุทธศักราช ๒๔๘๐",
        "และวันที่ ๑๖ ธันวาคม พุทธศักราช ๒๔๘๔)",
        "อาทิตย์ ทิพอาภา",
        "ปรีดี พนมยงค์",
        "ตราไว้ ณ วันที่ ๓๐ ตุลาคม พุทธศักราช ๒๔๘๕",
        "เป็นปีที่ ๙ ในรัชกาลปัจจุบัน"
      ]
    ],
    []
  ],
  "metadata": {
    "date_header": "2480-08-04",
    "date_modified": "2522-04-01",
    "date_original": "2485-11-10",
    "doctype": "พระราชกฤษฎีกา",
    "editors": [
      {
        "name": "ต่อศักดิ์",
        "role": "จัดทำ",
        "date": "2549-12-01"
      },
      {
        "name": "รัศม์วรรณวลัย",
        "role": "ตรวจ",
        "date": "2551-12-30"
      },
      {
        "name": "ณัฐดนัย",
        "role": "แก้ไข",
        "date": "2552-12-13"
      }
    ],
    "tag": "cd07-2a-9999-update",
    "title": "กำหนดเกาะที่นกอีแอ่นทำรังอยู่ตามธรรมชาติเป็นเขตห้าม"
  }
}