{
  "pages": [
    [
      [
        "กฎกระทรวงการคลัง",
        "ออกตามความในพระราชบัญญัติอากรรังนกอีกแอ่น",
        "พุทธศักราช ๒๔๘๒"
      ]
    ],
    []
  ],
  "metadata": {
    "date_backmatter": "2484-09-15",
    "date_modified": "2511-03-26",
    "date_original": "2484-09-19",
    "doctype": "กฎกระทรวง",
    "editors": [
      {
        "name": "ต่อศักดิ์",
        "role": "จัดทำ",
        "date": "2549-12-01"
      },
      {
        "name": "รัศม์วรรณวลัย",
        "role": "ตรวจ",
        "date": "2552-01-06"
      },
      {
        "name": "ณัฐดนัย",
        "role": "แก้ไข",
        "date": "2552-01-13"
      }
    ],
    "tag": "cd07-2b-9999-update"
  }
}