{
  "pages": [
    [
      [
        "พระราชกฤษฎีกา",
        "กำหนดเกาะที่นกอีแอ่นทำรังอยู่ตามธรรมชาติ",
        "เป็นเขตห้าม (ฉบับที่ ๓)",
        "พ.ศ. ๒๕๒๒",
        "",
        "",
        "ภูมิพลอดุลยเดช ป.ร.",
        "ให้ไว้ ณ วันที่ ๒๔ กุมภาพันธ์ พ.ศ. ๒๕๒๒",
        "เป็นปีที่ ๓๔ ในรัชกาลปัจจุบัน"
      ]
    ],
    []
  ],
  "metadata": {
    "date_header": "2522-02-24",
    "date_modified": "2522-04-01",
    "date_original": "2522-04-01",
    "doctype": "พระราชกฤษฎีกา",
    "editors": [
      {
        "name": "ต่อศักดิ์",
        "role": "จัดทำ",
        "date": "2549-12-01"
      },
      {
        "name": "รัศม์วรรณวลัย",
        "role": "ตรวจ",
        "date": "2551-12-30"
      },
      {
        "name": "ณัฐดนัย",
        "role": "แก้ไข",
        "date": "2552-01-13"
      }
    ],
    "tag": "cd07-2a-2522-003",
    "title": "กำหนดเกาะที่นกอีแอ่นทำรังอยู่ตามธรรมชาติเป็นเขตห้าม (ฉบับที่ ๓)"
  }
}