{
  "pages": [
    [
      [
        "ประมวลจริยธรรม",
        "ของสมาชิกสภาพัฒนาการเมือง"
      ]
    ],
    []
  ],
  "metadata": {
    "date_backmatter": "2551-11-28",
    "date_modified": null,
    "date_original": "2552-01-16",
    "editors": [
      {
        "name": "อาจารี",
        "role": "ผู้จัดทำ",
        "date": "2556-09-11"
      },
      {
        "name": "วิชพงษ์",
        "role": "ตรวจ",
        "date": "2556-09-13"
      }
    ],
    "tag": "ca75-2i-9999-update"
  }
}