{
  "pages": [
    [
      [
        "ประกาศกระทรวงพาณิชย์",
        "เรื่อง รายชื่อประเทศที่เป็นภาคีแห่งอนุสัญญาว่าด้วยการคุ้มครองลิขสิทธิ์",
        "หรืออนุสัญญาว่าด้วยการคุ้มครองสิทธิของนักแสดงซึ่งประเทศไทยเป็นภาคีอยู่ด้วย"
      ]
    ],
    []
  ],
  "metadata": {
    "date_backmatter": "2559-09-30",
    "date_modified": "2559-10-21",
    "date_original": "2559-10-21",
    "doctype": "ประกาศ",
    "editors": [
      {
        "name": "ชนิกา/ปริยานุช",
        "role": "จัดทำ",
        "date": "2559-10-26"
      },
      {
        "name": "นุสรา",
        "role": "ตรวจ",
        "date": "2560-01-06"
      }
    ],
    "tag": "c506-2e-2559-a0001"
  }
}