{
  "pages": [
    [
      [
        "ระเบียบสำนักงานอัยการสูงสุด",
        "ว่าด้วยค่าตอบแทนและค่าใช้จ่ายในการดำเนินการสรรหาบุคคล",
        "เพื่อบรรจุเป็นข้าราชการอัยการ",
        "พ.ศ. ๒๕๕๕"
      ]
    ],
    []
  ],
  "metadata": {
    "date_backmatter": "2555-04-24",
    "date_modified": "2555-04-27",
    "date_original": "2555-04-27",
    "editors": [
      {
        "name": "ปริยานุช",
        "role": "ผู้จัดทำ",
        "date": "2555-04-30"
      },
      {
        "name": "ปณตภร",
        "role": "ผู้ตรวจ",
        "date": "2555-04-30"
      }
    ],
    "tag": "cd23-2g-2555-a0003"
  }
}