{
  "pages": [
    [
      [
        "ประกาศคณะกรรมการอัยการ",
        "เรื่อง การแบ่งหน่วยงาน และการกำหนดอำนาจและหน้าที่ของหน่วยงานภายใน",
        "ของสำนักงานอัยการสูงสุด",
        "พ.ศ. ๒๕๕๔"
      ]
    ],
    []
  ],
  "metadata": {
    "date_backmatter": "2554-08-31",
    "date_modified": "2559-02-19",
    "date_original": "2554-09-02",
    "doctype": "ประกาศ",
    "editors": [
      {
        "name": "นุสรา",
        "role": "เพิ่มเติม",
        "date": "2558-05-20"
      },
      {
        "name": "ปุณิกา",
        "role": "เพิ่มเติม",
        "date": "2558-09-02"
      },
      {
        "name": "ปัญจพร",
        "role": "เพิ่มเติม",
        "date": "2558-10-12"
      },
      {
        "name": "ปริญสินีย์",
        "role": "เพิ่มเติม",
        "date": "2559-01-08"
      },
      {
        "name": "ปัญญา",
        "role": "ตรวจ",
        "date": "2559-01-08"
      },
      {
        "name": "กัญฑรัตน์",
        "role": "เพิ่มเติม",
        "date": "2559-03-16"
      },
      {
        "name": "วิชพงษ์",
        "role": "ตรวจ",
        "date": "2559-03-17"
      }
    ],
    "tag": "cd23-2e-2559-a0003"
  }
}