{
  "pages": [
    [
      [
        "ประกาศคณะกรรมการอัยการ",
        "เรื่อง การแบ่งหน่วยงาน และการกำหนดอำนาจและหน้าที่ของหน่วยงานภายใน",
        "ของสำนักงานอัยการสูงสุด (ฉบับที่ ๑๒)",
        "พ.ศ. ๒๕๕๗"
      ]
    ],
    []
  ],
  "metadata": {
    "date_backmatter": "2557-08-08",
    "date_modified": "2557-09-04",
    "date_original": "2557-09-04",
    "doctype": "ประกาศ",
    "editors": [
      {
        "name": "ปริยานุช",
        "role": "ผู้จัดทำ",
        "date": "2557-09-25"
      },
      {
        "name": "จุฑามาศ",
        "role": "ผู้ตรวจ",
        "date": "2557-10-14"
      }
    ],
    "tag": "cd23-2e-2557-a0002"
  }
}