{
  "pages": [
    [
      [
        "ประกาศคณะกรรมการอัยการ",
        "เรื่อง การแบ่งหน่วยงาน และการกำหนดอำนาจและหน้าที่ของหน่วยงานภายใน",
        "ของสำนักงานอัยการสูงสุด",
        "พ.ศ. ๒๕๕๔"
      ]
    ],
    []
  ],
  "metadata": {
    "date_backmatter": "2554-08-31",
    "date_modified": "2558-08-14",
    "date_original": "2554-09-02",
    "doctype": "ประกาศ",
    "editors": [
      {
        "name": "ปณตภร",
        "role": "ผู้จัดทำ",
        "date": "2556-10-22"
      },
      {
        "name": "จุฑามาศ",
        "role": "เพิ่มเติม",
        "date": "2557-10-17"
      },
      {
        "name": "กฤษดายุทธ",
        "role": "เพิ่มเติม",
        "date": "2557-11-14"
      },
      {
        "name": "นุสรา",
        "role": "เพิ่มเติม",
        "date": "2558-05-20"
      },
      {
        "name": "ปุณิกา",
        "role": "เพิ่มเติม",
        "date": "2558-09-02"
      }
    ],
    "tag": "cd23-2e-2558-a0003"
  }
}