{
  "pages": [
    [
      [
        "ประกาศกระทรวงการคลัง",
        "เรื่อง แต่งตั้งพนักงานเจ้าหน้าที่",
        "ตามพระราชบัญญัติการดูแลผลประโยชน์ของคู่สัญญา",
        "พ.ศ. ๒๕๕๑"
      ]
    ],
    []
  ],
  "metadata": {
    "date_backmatter": "2552-12-16",
    "date_modified": "2553-01-27",
    "date_original": "2553-01-27",
    "doctype": "ประกาศ",
    "editors": [
      {
        "name": "ปริญสินีย์",
        "role": "ผู้จัดทำ",
        "date": "2555-04-23"
      },
      {
        "name": "วิชพงษ์",
        "role": "ผู้ตรวจ",
        "date": "2555-04-25"
      }
    ],
    "tag": "a1126-2e-2553-a0001"
  }
}