{
  "pages": [
    [
      [
        "ระเบียบคณะกรรมการสงเคราะห์เกษตรกร",
        "ว่าด้วยหลักเกณฑ์ วิธีการ และเงื่อนไขในการจัดสรรเงินกองทุนสงเคราะห์เกษตรกร",
        "พ.ศ. ๒๕๕๔"
      ]
    ],
    []
  ],
  "metadata": {
    "date_backmatter": "2554-09-23",
    "date_modified": "2559-07-21",
    "date_original": "2554-10-17",
    "editors": [
      {
        "name": "วิศนี",
        "role": "ผู้จัดทำ",
        "date": "2558-06-12"
      },
      {
        "name": "วริญา",
        "role": "เพิ่มเติม",
        "date": "2559-07-26"
      }
    ],
    "tag": "a105-2g-9999-update"
  }
}