{
  "pages": [
    [
      [
        "พระราชกฤษฎีกา",
        "กำหนดบริเวณที่ดินป่าลาบู ป่าถ้ำทะลุ และป่าเบตง",
        "ในท้องที่ตำบลถ้ำทะลุ ตำบลเขื่อนบางลาง อำเภอบันนังสตา ตำบลแม่หวาด",
        "ตำบลบ้านแหร อำเภอธารโต และตำบลอัยเยอร์เวง",
        "ตำบลยะรม อำเภอเบตง จังหวัดยะลา",
        "ให้เป็นอุทยานแห่งชาติ",
        "พ.ศ. ๒๕๔๒",
        "",
        "",
        "ภูมิพลอดุลยเดช ป.ร.",
        "ให้ไว้ ณ วันที่ ๑๒ กุมภาพันธ์ พ.ศ. ๒๕๔๒",
        "เป็นปีที่ ๕๔ ในรัชกาลปัจจุบัน"
      ]
    ],
    []
  ],
  "metadata": {
    "date_header": "2542-02-12",
    "date_modified": "2542-02-24",
    "date_original": "2542-02-24",
    "doctype": "พระราชกฤษฎีกา",
    "editors": [
      {
        "name": "ศิรวัชร์",
        "role": "จัดทำ",
        "date": "2561-04-27"
      }
    ],
    "tag": "cd10-2a-2542-a006",
    "title": "กำหนดบริเวณที่ดินป่าลาบู ป่าถ้ำทะลุ และป่าเบตงในท้องที่ตำบลถ้ำทะลุ ตำบลเขื่อนบางลาง อำเภอบันนังสตา ตำบลแม่หวาดตำบลบ้านแหร อำเภอธารโต และตำบลอัยเยอร์เวงตำบลยะรม อำเภอเบตง จังหวัดยะลาให้เป็นอุทยานแห่งชาติ"
  }
}