{
  "pages": [
    [
      [
        "พระราชกฤษฎีกา",
        "กำหนดบริเวณที่ดินป่าวังด้วนและป่าห้วยยาง และเกาะใกล้เคียง",
        "ในท้องที่ตำบลห้วยทราย ตำบลคลองวาฬ อำเภอเมืองประจวบคีรีขันธ์ และตำบลห้วยยาง",
        "อำเภอทับสะแก จังหวัดประจวบคีรีขันธ์",
        "ให้เป็นอุทยานแห่งชาติ",
        "พ.ศ. ๒๕๔๘",
        "",
        "",
        "ภูมิพลอดุลยเดช ป.ร.",
        "ให้ไว้ ณ วันที่ ๑๓ สิงหาคม พ.ศ. ๒๕๔๘",
        "เป็นปีที่ ๖๐ ในรัชกาลปัจจุบัน"
      ]
    ],
    []
  ],
  "metadata": {
    "date_header": "2548-08-13",
    "date_modified": "2548-09-02",
    "date_original": "2548-09-02",
    "doctype": "พระราชกฤษฎีกา",
    "editors": [
      {
        "name": "ฐิติพงษ์",
        "role": "จัดทำ",
        "date": "2548-09-07"
      },
      {
        "name": "ศิรวัชร์",
        "role": "ปรับปรุง",
        "date": "2561-04-24"
      }
    ],
    "tag": "cd10-2a-2548-a0001",
    "title": "กำหนดบริเวณที่ดินป่าวังด้วนและป่าห้วยยาง และเกาะใกล้เคียงในท้องที่ตำบลห้วยทราย ตำบลคลองวาฬ อำเภอเมืองประจวบคีรีขันธ์ และตำบลห้วยยางอำเภอทับสะแก จังหวัดประจวบคีรีขันธ์ให้เป็นอุทยานแห่งชาติ"
  }
}