{
  "pages": [
    [
      [
        "ประกาศกรมอุทยานแห่งชาติ สัตว์ป่า และพันธุ์พืช",
        "เรื่อง ห้ามกระทำการใด ๆ อันเป็นการรบกวน เปลี่ยนแปลงพฤติกรรม",
        "หรือทำอันตรายกับสัตว์ต่าง ๆ ทุกชนิดในอุทยานแห่งชาติ"
      ]
    ],
    []
  ],
  "metadata": {
    "date_backmatter": "2558-08-11",
    "date_modified": "2558-10-01",
    "date_original": "2558-10-01",
    "doctype": "ประกาศ",
    "editors": [
      {
        "name": "ปริยานุช",
        "role": "ผู้จัดทำ",
        "date": "2558-10-06"
      },
      {
        "name": "ปริญสินีย์",
        "role": "ผู้ตรวจ",
        "date": "2558-10-16"
      }
    ],
    "tag": "cd10-2e-2558-a0005"
  }
}