{
  "pages": [
    [
      [
        "ประกาศกรมอุทยานแห่งชาติ สัตว์ป่า และพันธุ์พืช",
        "เรื่อง การกำหนดอัตราค่าบริการสำหรับบุคคลที่เข้าไปในเขตอุทยานแห่งชาติ จำนวน ๓๑ แห่ง"
      ]
    ],
    []
  ],
  "metadata": {
    "date_backmatter": "2557-08-26",
    "date_modified": "2557-09-30",
    "date_original": "2557-09-30",
    "doctype": "ประกาศ",
    "editors": [
      {
        "name": "ปริยานุช",
        "role": "ผู้จัดทำ",
        "date": "2557-10-03"
      },
      {
        "name": "ปริญสินีย์",
        "role": "ผู้ตรวจ",
        "date": "2557-10-03"
      }
    ],
    "tag": "cd10-2e-2557-a0005"
  }
}