{
  "pages": [
    [
      [
        "พระราชกฤษฎีกา",
        "กำหนดบริเวณที่ดินป่าแก่งดินสอ ป่าแก่งใหญ่ ป่าเขาสะโตน",
        "และป่าท่ากะบาก ในท้องที่ตำบลแก่งดินสอ อำเภอนาดี",
        "ตำบลบ้านแก้ง ตำบลท่าแยก ตำบลโคกปี่ฆ้อง อำเภอสระแก้ว",
        "และตำบลหนองน้ำใส ตำบลช่องกุ่ม อำเภอวัฒนานคร",
        "จังหวัดปราจีนบุรี ให้เป็นอุทยานแห่งชาติ",
        "พ.ศ. ๒๕๒๕",
        "",
        "",
        "ภูมิพลอดุลยเดช ป.ร.",
        "ให้ไว้ ณ วันที่ ๒ กุมภาพันธ์ พ.ศ. ๒๕๒๕",
        "เป็นปีที่ ๓๗ ในรัชกาลปัจจุบัน"
      ]
    ],
    []
  ],
  "metadata": {
    "date_header": "2525-02-02",
    "date_modified": "2525-02-22",
    "date_original": "2525-02-22",
    "doctype": "พระราชกฤษฎีกา",
    "editors": [
      {
        "name": "ศิรวัชร์",
        "role": "จัดทำ",
        "date": "2561-05-08"
      }
    ],
    "tag": "cd10-2a-2525-a006",
    "title": "กำหนดบริเวณที่ดินป่าแก่งดินสอ ป่าแก่งใหญ่ ป่าเขาสะโตนและป่าท่ากะบาก ในท้องที่ตำบลแก่งดินสอ อำเภอนาดีตำบลบ้านแก้ง ตำบลท่าแยก ตำบลโคกปี่ฆ้อง อำเภอสระแก้วและตำบลหนองน้ำใส ตำบลช่องกุ่ม อำเภอวัฒนานครจังหวัดปราจีนบุรี ให้เป็นอุทยานแห่งชาติ"
  }
}