{
  "pages": [
    [
      [
        "พระราชกฤษฎีกา",
        "เพิกถอนอุทยานแห่งชาติป่าเขาลำปี และหาดท้ายเหมือง บางส่วน",
        "ในท้องที่ตำบลท้ายเหมือง อำเภอท้ายเหมือง จังหวัดพังงา",
        "พ.ศ. ๒๕๕๓",
        "",
        "",
        "ภูมิพลอดุลยเดช ป.ร.",
        "ให้ไว้ ณ วันที่ ๒๘ เมษายน พ.ศ. ๒๕๕๓",
        "เป็นปีที่ ๖๕ ในรัชกาลปัจจุบัน"
      ]
    ],
    []
  ],
  "metadata": {
    "date_header": "2553-04-28",
    "date_modified": "2553-05-14",
    "date_original": "2553-05-14",
    "doctype": "พระราชกฤษฎีกา",
    "editors": [
      {
        "name": "ปริยานุช",
        "role": "จัดทำ",
        "date": "2553-05-25"
      },
      {
        "name": "นันท์นภัสร์",
        "role": "ตรวจ",
        "date": "2553-05-25"
      },
      {
        "name": "ศิรวัชร์",
        "role": "ปรับปรุง",
        "date": "2561-04-19"
      }
    ],
    "tag": "cd10-2a-2553-a0002",
    "title": "เพิกถอนอุทยานแห่งชาติป่าเขาลำปี และหาดท้ายเหมือง บางส่วนในท้องที่ตำบลท้ายเหมือง อำเภอท้ายเหมือง จังหวัดพังงา"
  }
}