{
  "pages": [
    [
      [
        "พระราชกฤษฎีกา",
        "เพิกถอนอุทยานแห่งชาติป่าเขาช้างเผือก ป่าเขาพระฤาษี",
        "ป่าเขาบ่อแร่ และป่าห้วยเขยง บางส่วน ในท้องที่ตำบลห้วยเขย่ง",
        "อำเภอทองผาภูมิ จังหวัดกาญจนบุรี",
        "พ.ศ. ๒๕๔๕",
        "",
        "",
        "ภูมิพลอดุลยเดช ป.ร.",
        "ให้ไว้ ณ วันที่ ๑ มิถุนายน ๒๕๔๕",
        "เป็นปีที่ ๕๗ ในรัชกาลปัจจุบัน"
      ]
    ],
    []
  ],
  "metadata": {
    "date_header": "2545-06-01",
    "date_modified": "2545-06-11",
    "date_original": "2545-06-11",
    "doctype": "พระราชกฤษฎีกา",
    "editors": [
      {
        "name": "ศิรวัชร์",
        "role": "จัดทำ",
        "date": "2561-04-24"
      }
    ],
    "tag": "cd10-2a-2545-a0001",
    "title": "เพิกถอนอุทยานแห่งชาติป่าเขาช้างเผือก ป่าเขาพระฤาษีป่าเขาบ่อแร่ และป่าห้วยเขยง บางส่วน ในท้องที่ตำบลห้วยเขย่งอำเภอทองผาภูมิ จังหวัดกาญจนบุรี"
  }
}