{
  "pages": [
    [
      [
        "พระราชกฤษฎีกา",
        "กำหนดบริเวณที่ดินป่าดงพันนาและป่าดงพระเจ้า ป่าภูวง ป่ากุดไห ป่านาใน และป่าโนนอุดม",
        "และป่าแก่งแคน ในท้องที่ตำบลส่องดาว ตำบลท่าศิลา ตำบลปทุมวาปี อำเภอส่องดาว ตำบลค้อเขียว",
        "ตำบลคำบ่อ ตำบลวาริชภูมิ อำเภอวาริชภูมิ ตำบลนิคมน้ำอูน อำเภอนิคมน้ำอูน ตำบลกุดไห",
        "ตำบลกุดบาก อำเภอกุดบาก และตำบลโคกภู อำเภอภูพาน จังหวัดสกลนคร ป่าบะยาว ป่าหัวนาคำ",
        "ป่านายูง ป่าหนองกุงทับม้า และป่าหนองหญ้าไชย ในท้องที่ตำบลผาสุก อำเภอวังสามหมอ",
        "จังหวัดอุดรธานี และป่าภูพาน และป่าแก้งกะอาม ในท้องที่ตำบลนาทัน ตำบลดินจี่",
        "ตำบลนาบอน อำเภอคำม่วง และตำบลแซงบาดาล ตำบลมหาไชย",
        "อำเภอสมเด็จ จังหวัดกาฬสินธุ์",
        "ให้เป็นอุทยานแห่งชาติ",
        "พ.ศ. ๒๕๕๒",
        "",
        "",
        "ภูมิพลอดุลยเดช ป.ร.",
        "ให้ไว้ ณ วันที่ ๒๖ พฤศจิกายน พ.ศ. ๒๕๕๒",
        "เป็นปีที่ ๖๔ ในรัชกาลปัจจุบัน"
      ]
    ],
    []
  ],
  "metadata": {
    "date_header": "2552-11-26",
    "date_modified": "2552-12-23",
    "date_original": "2552-12-23",
    "doctype": "พระราชกฤษฎีกา",
    "editors": [
      {
        "name": "ปริยานุช",
        "role": "จัดทำ",
        "date": "2553-01-04"
      },
      {
        "name": "นันท์นภัสร์",
        "role": "ตรวจ",
        "date": "2553-01-04"
      },
      {
        "name": "ศิรวัชร์",
        "role": "ปรับปรุง",
        "date": "2561-04-20"
      }
    ],
    "tag": "cd10-2a-2552-a0009",
    "title": "กำหนดบริเวณที่ดินป่าดงพันนาและป่าดงพระเจ้า ป่าภูวง ป่ากุดไห ป่านาใน และป่าโนนอุดมและป่าแก่งแคน ในท้องที่ตำบลส่องดาว ตำบลท่าศิลา ตำบลปทุมวาปี อำเภอส่องดาว ตำบลค้อเขียวตำบลคำบ่อ ตำบลวาริชภูมิ อำเภอวาริชภูมิ ตำบลนิคมน้ำอูน อำเภอนิคมน้ำอูน ตำบลกุดไหตำบลกุดบาก อำเภอกุดบาก และตำบลโคกภู อำเภอภูพาน จังหวัดสกลนคร ป่าบะยาว ป่าหัวนาคำป่านายูง ป่าหนองกุงทับม้า และป่าหนองหญ้าไชย ในท้องที่ตำบลผาสุก อำเภอวังสามหมอจังหวัดอุดรธานี และป่าภูพาน และป่าแก้งกะอาม ในท้องที่ตำบลนาทัน ตำบลดินจี่ตำบลนาบอน อำเภอคำม่วง และตำบลแซงบาดาล ตำบลมหาไชยอำเภอสมเด็จ จังหวัดกาฬสินธุ์ให้เป็นอุทยานแห่งชาติ"
  }
}