{
  "pages": [
    [
      [
        "ประกาศกรมอุทยานแห่งชาติ สัตว์ป่า และพันธุ์พืช",
        "เรื่อง ยกเว้นค่าบริการในอุทยานแห่งชาติ สำหรับผู้ประสบอุทกภัย (เพิ่มเติม)"
      ]
    ],
    []
  ],
  "metadata": {
    "date_backmatter": "2554-11-16",
    "date_modified": "2554-11-25",
    "date_original": "2554-11-25",
    "doctype": "ประกาศ",
    "editors": [
      {
        "name": "ปริยานุช",
        "role": "ผู้จัดทำ",
        "date": "2554-11-29"
      },
      {
        "name": "อุษมล",
        "role": "ผู้ตรวจ",
        "date": "2554-12-02"
      }
    ],
    "tag": "cd10-2e-2554-a0012"
  }
}