{
  "pages": [
    [
      [
        "ประกาศกรมอุทยานแห่งชาติ สัตว์ป่า และพันธุ์พืช",
        "เรื่อง การกำหนดอัตราค่าบริการสำหรับบุคคลที่เข้าไปในเขตอุทยานแห่งชาติเขาคิชฌกูฏ",
        "บริเวณหน่วยพิทักษ์อุทยานแห่งชาติ ที่ คก.๑ (พระบาทพลวง)"
      ]
    ],
    []
  ],
  "metadata": {
    "date_backmatter": "2560-01-24",
    "date_modified": "2560-02-02",
    "date_original": "2560-02-02",
    "doctype": "ประกาศ",
    "editors": [
      {
        "name": "ปริยานุช",
        "role": "จัดทำ",
        "date": "2560-02-06"
      },
      {
        "name": "ปุณิกา",
        "role": "ตรวจ",
        "date": "2560-02-06"
      }
    ],
    "tag": "cd10-2e-2560-a0003"
  }
}