{
  "pages": [
    [
      [
        "พระราชกฤษฎีกา",
        "กำหนดบริเวณที่ดินป่าวังใหญ่ ป่าแม่น้ำน้อย และป่าห้วยเขยง",
        "ในท้องที่ตำบลลิ่นถิ่น อำเภอทองผาภูมิ และตำบลไทรโยค",
        "ตำบลวังกระแจะ ตำบลบ้องตี้ ตำบลลุ่มสุ่ม อำเภอไทรโยค",
        "จังหวัดกาญจนบุรี ให้เป็นอุทยานแห่งชาติ",
        "พ.ศ. ๒๕๒๓",
        "",
        "",
        "ภูมิพลอดุลยเดช ป.ร.",
        "ให้ไว้ ณ วันที่ ๑๑ ตุลาคม พ.ศ. ๒๕๒๓",
        "เป็นปีที่ ๓๕ ในรัชกาลปัจจุบัน"
      ]
    ],
    []
  ],
  "metadata": {
    "date_header": "2523-10-11",
    "date_modified": "2523-10-27",
    "date_original": "2523-10-27",
    "doctype": "พระราชกฤษฎีกา",
    "editors": [
      {
        "name": "ศิรวัชร์",
        "role": "จัดทำ",
        "date": "2561-05-11"
      }
    ],
    "tag": "cd10-2a-2523-a002",
    "title": "กำหนดบริเวณที่ดินป่าวังใหญ่ ป่าแม่น้ำน้อย และป่าห้วยเขยงในท้องที่ตำบลลิ่นถิ่น อำเภอทองผาภูมิ และตำบลไทรโยคตำบลวังกระแจะ ตำบลบ้องตี้ ตำบลลุ่มสุ่ม อำเภอไทรโยคจังหวัดกาญจนบุรี ให้เป็นอุทยานแห่งชาติ"
  }
}