{
  "pages": [
    [
      [
        "พระราชกฤษฎีกา",
        "กำหนดบริเวณที่ดินป่าคลองลาน ในท้องที่ตำบลโป่งน้ำร้อน",
        "ตำบลคลองลาน และตำบลคลองลานพัฒนา กิ่งอำเภอคลองลาน",
        "อำเภอเมืองกำแพงเพชร จังหวัดกำแพงเพชร",
        "ให้เป็นอุทยานแห่งชาติ",
        "พ.ศ. ๒๕๒๕",
        "",
        "",
        "ภูมิพลอดุลยเดช ป.ร.",
        "ให้ไว้ ณ วันที่ ๑๘ ธันวาคม พ.ศ. ๒๕๒๕",
        "เป็นปีที่ ๓๗ ในรัชกาลปัจจุบัน"
      ]
    ],
    []
  ],
  "metadata": {
    "date_header": "2525-12-18",
    "date_modified": "2525-12-25",
    "date_original": "2525-12-25",
    "doctype": "พระราชกฤษฎีกา",
    "editors": [
      {
        "name": "ศิรวัชร์",
        "role": "จัดทำ",
        "date": "2561-05-08"
      }
    ],
    "tag": "cd10-2a-2525-a004",
    "title": "กำหนดบริเวณที่ดินป่าคลองลาน ในท้องที่ตำบลโป่งน้ำร้อนตำบลคลองลาน และตำบลคลองลานพัฒนา กิ่งอำเภอคลองลานอำเภอเมืองกำแพงเพชร จังหวัดกำแพงเพชรให้เป็นอุทยานแห่งชาติ"
  }
}