{
  "pages": [
    [
      [
        "ประกาศกรมอุทยานแห่งชาติ สัตว์ป่า และพันธุ์พืช",
        "เรื่อง ลดอัตราค่าตอบแทนให้พักอาศัยในที่พักของอุทยานแห่งชาติ"
      ]
    ],
    []
  ],
  "metadata": {
    "date_backmatter": "2552-12-25",
    "date_modified": "2553-02-01",
    "date_original": "2553-02-01",
    "doctype": "ประกาศ",
    "editors": [
      {
        "name": "ปริยานุช",
        "role": "จัดทำ",
        "date": "2553-02-11"
      },
      {
        "name": "นันท์นภัสร์",
        "role": "ตรวจ",
        "date": "2553-02-11"
      },
      {
        "name": "ศิรวัชร์",
        "role": "ปรับปรุง",
        "date": "2561-05-18"
      }
    ],
    "tag": "cd10-2e-2553-a0003"
  }
}