{
  "pages": [
    [
      [
        "พระราชกฤษฎีกา",
        "เพิกถอนอุทยานแห่งชาติป่าแม่จางฝั่งซ้าย",
        "ป่าแม่จางใต้ฝั่งซ้าย ป่าแม่ทาน ป่าแม่เลิม และป่าแม่ปะ",
        "ป่าแม่ปงและป่าแม่ลอง ป่าแม่เกิ๋ง และป่าแม่สรอย บางส่วน",
        "ในท้องที่ตำบลแม่ปะ อำเภอเถิน จังหวัดลำปาง",
        "พ.ศ. ๒๕๕๔",
        "",
        "",
        "ภูมิพลอดุลยเดช ป.ร.",
        "ให้ไว้ ณ วันที่ ๓ พฤษภาคม พ.ศ. ๒๕๕๔",
        "เป็นปีที่ ๖๖ ในรัชกาลปัจจุบัน"
      ]
    ],
    []
  ],
  "metadata": {
    "date_header": "2554-05-03",
    "date_modified": "2554-05-12",
    "date_original": "2554-05-12",
    "doctype": "พระราชกฤษฎีกา",
    "editors": [
      {
        "name": "ปริยานุช",
        "role": "ผู้จัดทำ",
        "date": "2554-05-18"
      },
      {
        "name": "ณัฐวดี",
        "role": "ตรวจ",
        "date": "2554-05-18"
      }
    ],
    "tag": "cd10-2a-2554-a0001",
    "title": "เพิกถอนอุทยานแห่งชาติป่าแม่จางฝั่งซ้ายป่าแม่จางใต้ฝั่งซ้าย ป่าแม่ทาน ป่าแม่เลิม และป่าแม่ปะป่าแม่ปงและป่าแม่ลอง ป่าแม่เกิ๋ง และป่าแม่สรอย บางส่วนในท้องที่ตำบลแม่ปะ อำเภอเถิน จังหวัดลำปาง"
  }
}