{
  "pages": [
    [
      [
        "พระราชกฤษฎีกา",
        "กำหนดป่าดงเลิง ในท้องที่ตำบลโมถ่าย และตำบล",
        "ป่าหมาก อำเภอไชยา จังหวัดสุราษฎร์ธานี",
        "ให้เป็นป่าคุ้มครอง พุทธศักราช ๒๔๘๕",
        "",
        "",
        "ในพระปรมาภิไธยสมเด็จพระเจ้าอยู่หัวอานันทมหิดล",
        "คณะผู้สำเร็จราชการแทนพระองค์",
        "(ตามประกาศประธานสภาผู้แทนราษฎร",
        "ลงวันที่ ๔ สิงหาคม พุทธศักราช ๒๔๘๐",
        "และวันที่ ๑๖ ธันวาคม พุทธศักราช ๒๔๘๔)",
        "อาทิตย์ ทิพอาภา",
        "ปรีดี พนมยงค์",
        "ตราไว้ ณ วันที่ ๑๐ กรกฎาคม พุทธศักราช ๒๔๘๕",
        "เป็นปีที่ ๙ ในรัชกาลปัจจุบัน"
      ]
    ],
    []
  ],
  "metadata": {
    "date_header": "2480-08-04",
    "date_modified": "2485-07-21",
    "date_original": "2485-07-21",
    "doctype": "พระราชกฤษฎีกา",
    "editors": [
      {
        "name": "ศิรวัชร์",
        "role": "จัดทำ",
        "date": "2561-05-16"
      }
    ],
    "tag": "cd10-2a-2485-a002",
    "title": "กำหนดป่าดงเลิง ในท้องที่ตำบลโมถ่าย และตำบลป่าหมาก อำเภอไชยา จังหวัดสุราษฎร์ธานีให้เป็นป่าคุ้มครอง"
  }
}