{
  "pages": [
    [
      [
        "พระราชกฤษฎีกา",
        "เพิกถอนอุทยานแห่งชาติป่าเขาสลอบ บางส่วน",
        "ในท้องที่ตำบลท่ากระดาน อำเภอศรีสวัสดิ์",
        "จังหวัดกาญจนบุรี",
        "พ.ศ. ๒๕๓๘",
        "",
        "",
        "ภูมิพลอดุลยเดช ป.ร.",
        "ให้ไว้ ณ วันที่ ๑๗ กรกฎาคม พ.ศ. ๒๕๓๘",
        "เป็นปีที่ ๕๐ ในรัชกาลปัจจุบัน"
      ]
    ],
    []
  ],
  "metadata": {
    "date_header": "2538-07-17",
    "date_modified": "2538-08-14",
    "date_original": "2538-08-14",
    "doctype": "พระราชกฤษฎีกา",
    "editors": [
      {
        "name": "ศิรวัชร์",
        "role": "จัดทำ",
        "date": "2561-04-30"
      }
    ],
    "tag": "cd10-2a-2538-a0001",
    "title": "เพิกถอนอุทยานแห่งชาติป่าเขาสลอบ บางส่วนในท้องที่ตำบลท่ากระดาน อำเภอศรีสวัสดิ์จังหวัดกาญจนบุรี"
  }
}