{
  "pages": [
    [
      [
        "พระราชกฤษฎีกา",
        "กำหนดบริเวณที่ดินป่าลานสาง ในท้องที่ตำบลแม่ท้อ",
        "อำเภอเมืองตาก จังหวัดตาก",
        "ให้เป็นอุทยานแห่งชาติ",
        "พ.ศ. ๒๕๒๒",
        "",
        "",
        "ภูมิพลอดุลยเดช ป.ร.",
        "ให้ไว้ ณ วันที่ ๘ พฤษภาคม พ.ศ. ๒๕๒๒",
        "เป็นปีที่ ๓๔ ในรัชกาลปัจจุบัน"
      ]
    ],
    []
  ],
  "metadata": {
    "date_header": "2522-05-08",
    "date_modified": "2522-05-14",
    "date_original": "2522-05-14",
    "doctype": "พระราชกฤษฎีกา",
    "editors": [
      {
        "name": "ศิรวัชร์",
        "role": "จัดทำ",
        "date": "2561-05-11"
      }
    ],
    "tag": "cd10-2a-2522-a0001",
    "title": "กำหนดบริเวณที่ดินป่าลานสาง ในท้องที่ตำบลแม่ท้ออำเภอเมืองตาก จังหวัดตากให้เป็นอุทยานแห่งชาติ"
  }
}