{
  "pages": [
    [
      [
        "ประกาศกรมอุทยานแห่งชาติ สัตว์ป่า และพันธุ์พืช",
        "เรื่อง ปิดอุทยานแห่งชาติเขาพระวิหาร เป็นการชั่วคราว"
      ]
    ],
    []
  ],
  "metadata": {
    "date_backmatter": "2551-07-25",
    "date_modified": "2552-02-11",
    "date_original": "2552-02-11",
    "doctype": "ประกาศ",
    "editors": [
      {
        "name": "ปริยานุช",
        "role": "จัดทำ",
        "date": "2552-02-17"
      },
      {
        "name": "ศิรวัชร์",
        "role": "ปรับปรุง",
        "date": "2561-05-22"
      }
    ],
    "tag": "cd10-2e-2552-a0005"
  }
}