{
  "pages": [
    [
      [
        "พระราชกฤษฎีกา",
        "กำหนดบริเวณที่ดินป่าดอยภูคา ป่าผาแดง",
        "ป่าแม่น้ำน่านฝั่งตะวันออกตอนใต้ ป่าน้ำว้า และป่าแม่จริม",
        "ในท้องที่ตำบลห้วยโก๋น ตำบลขุนน่าน อำเภอเฉลิมพระเกียรติ ตำบลปอน ตำบลงอบ",
        "ตำบลและ ตำบลทุ่งช้าง อำเภอทุ่งช้าง ตำบลพญาแก้ว อำเภอเชียงกลาง ตำบลภูคา",
        "ตำบลศิลาเพชร ตำบลอวน อำเภอปัว ตำบลบ่อเกลือเหนือ ตำบลดงพญา ตำบล",
        "บ่อเกลือใต้ ตำบลภูฟ้า อำเภอบ่อเกลือ ตำบลยม อำเภอท่าวังผา ตำบลพงษ์",
        "อำเภอสันติสุข และตำบลแม่จริม ตำบลหนองแดง",
        "ตำบลน้ำพาง อำเภอแม่จริม จังหวัดน่าน",
        "ให้เป็นอุทยานแห่งชาติ",
        "พ.ศ. ๒๕๔๒",
        "",
        "",
        "ภูมิพลอดุลยเดช ป.ร.",
        "ให้ไว้ ณ วันที่ ๘ มิถุนายน พ.ศ. ๒๕๔๒",
        "เป็นปีที่ ๕๔ ในรัชกาลปัจจุบัน"
      ]
    ],
    []
  ],
  "metadata": {
    "date_header": "2542-06-08",
    "date_modified": "2542-06-17",
    "date_original": "2542-06-17",
    "doctype": "พระราชกฤษฎีกา",
    "editors": [
      {
        "name": "ศิรวัชร์",
        "role": "ปรับปรุง",
        "date": "2561-04-27"
      }
    ],
    "tag": "cd10-2a-2542-a003",
    "title": "กำหนดบริเวณที่ดินป่าดอยภูคา ป่าผาแดงป่าแม่น้ำน่านฝั่งตะวันออกตอนใต้ ป่าน้ำว้า และป่าแม่จริมในท้องที่ตำบลห้วยโก๋น ตำบลขุนน่าน อำเภอเฉลิมพระเกียรติ ตำบลปอน ตำบลงอบตำบลและ ตำบลทุ่งช้าง อำเภอทุ่งช้าง ตำบลพญาแก้ว อำเภอเชียงกลาง ตำบลภูคาตำบลศิลาเพชร ตำบลอวน อำเภอปัว ตำบลบ่อเกลือเหนือ ตำบลดงพญา ตำบลบ่อเกลือใต้ ตำบลภูฟ้า อำเภอบ่อเกลือ ตำบลยม อำเภอท่าวังผา ตำบลพงษ์อำเภอสันติสุข และตำบลแม่จริม ตำบลหนองแดงตำบลน้ำพาง อำเภอแม่จริม จังหวัดน่านให้เป็นอุทยานแห่งชาติ"
  }
}