{
  "pages": [
    [
      [
        "ประกาศกรมอุทยานแห่งชาติ สัตว์ป่า และพันธุ์พืช",
        "เรื่อง ประชาสัมพันธ์เขตบริการ สำหรับกิจกรรมการดำน้ำลึกในเขตอุทยานแห่งชาติ"
      ]
    ],
    []
  ],
  "metadata": {
    "date_backmatter": "2556-02-01",
    "date_modified": "2556-03-01",
    "date_original": "2556-03-01",
    "doctype": "ประกาศ",
    "editors": [
      {
        "name": "ปริยานุช",
        "role": "ผู้จัดทำ",
        "date": "2556-03-05"
      },
      {
        "name": "อุษมล",
        "role": "ผู้ตรวจ",
        "date": "2556-03-07"
      }
    ],
    "tag": "cd10-2e-2556-a0002"
  }
}