{
  "pages": [
    [
      [
        "พระราชกฤษฎีกา",
        "กำหนดบริเวณที่ดินป่าไชยคราม ป่าวัดประดู่ แปลงที่สอง",
        "และป่าคลองน้ำเฒ่า ในท้องที่ตำบลช้างซ้าย อำเภอกาญจนดิษฐ์",
        "ตำบลทุ่งเตา ตำบลลำพูน ตำบลพรุพี อำเภอบ้านนาสาร",
        "และตำบลบ้านส้อง อำเภอเวียงสระ จังหวัดสุราษฎร์ธานี",
        "ให้เป็นอุทยานแห่งชาติ",
        "พ.ศ. ๒๕๓๔",
        "",
        "",
        "ภูมิพลอดุลยเดช ป.ร.",
        "ให้ไว้ ณ วันที่ ๒๙ ธันวาคม พ.ศ. ๒๕๓๔",
        "เป็นปีที่ ๔๖ ในรัชกาลปัจจุบัน"
      ]
    ],
    []
  ],
  "metadata": {
    "date_header": "2534-12-29",
    "date_modified": "2534-12-31",
    "date_original": "2534-12-31",
    "doctype": "พระราชกฤษฎีกา",
    "editors": [
      {
        "name": "ศิรวัชร์",
        "role": "จัดทำ",
        "date": "2561-05-02"
      }
    ],
    "tag": "cd10-2a-2534-a004",
    "title": "กำหนดบริเวณที่ดินป่าไชยคราม ป่าวัดประดู่ แปลงที่สองและป่าคลองน้ำเฒ่า ในท้องที่ตำบลช้างซ้าย อำเภอกาญจนดิษฐ์ตำบลทุ่งเตา ตำบลลำพูน ตำบลพรุพี อำเภอบ้านนาสารและตำบลบ้านส้อง อำเภอเวียงสระ จังหวัดสุราษฎร์ธานีให้เป็นอุทยานแห่งชาติ"
  }
}