{
  "pages": [
    [
      [
        "พระราชกฤษฎีกา",
        "กำหนดบริเวณที่ดินป่าเขาสมิง (ป่าคลองใหญ่และป่าเขาไฟไหม้)",
        "ในท้องที่ตำบลหนองบอน ตำบลช้างทูน ตำบลบ่อพลอย ตำบลนนทรีย์",
        "และตำบลด่านชุมพล อำเภอบ่อไร่ จังหวัดตราด",
        "ให้เป็นอุทยานแห่งชาติ",
        "พ.ศ. ๒๕๕๒",
        "",
        "",
        "ภูมิพลอดุลยเดช ป.ร.",
        "ให้ไว้ ณ วันที่ ๒๔ พฤศจิกายน พ.ศ. ๒๕๕๒",
        "เป็นปีที่ ๖๔ ในรัชกาลปัจจุบัน"
      ]
    ],
    []
  ],
  "metadata": {
    "date_header": "2552-11-24",
    "date_modified": "2552-12-25",
    "date_original": "2552-12-25",
    "doctype": "พระราชกฤษฎีกา",
    "editors": [
      {
        "name": "ปริยานุช",
        "role": "จัดทำ",
        "date": "2553-01-04"
      },
      {
        "name": "นันท์นภัสร์",
        "role": "ตรวจ",
        "date": "2553-01-04"
      },
      {
        "name": "ศิรวัชร์",
        "role": "ปรับปรุง",
        "date": "2561-04-19"
      }
    ],
    "tag": "cd10-2a-2552-a0012",
    "title": "กำหนดบริเวณที่ดินป่าเขาสมิง (ป่าคลองใหญ่และป่าเขาไฟไหม้)ในท้องที่ตำบลหนองบอน ตำบลช้างทูน ตำบลบ่อพลอย ตำบลนนทรีย์และตำบลด่านชุมพล อำเภอบ่อไร่ จังหวัดตราดให้เป็นอุทยานแห่งชาติ"
  }
}