{
  "pages": [
    [
      [
        "พระราชกฤษฎีกา",
        "กำหนดบริเวณที่ดินป่าแม่ลาวฝั่งขวา ป่าแม่ส้าน และป่าแม่ใจ",
        "ในท้องที่ตำบลแม่สรวย ตำบลแม่พริก ตำบลศรีถ้อย ตำบลท่าก๊อ",
        "อำเภอแม่สรวย ตำบลธารทอง ตำบลทรายขาว ตำบลสันกลาง",
        "ตำบลป่าหุ่ง ตำบลม่วงคำ ตำบลแม่เย็น อำเภอพาน ตำบลสันสลี",
        "ตำบลเวียง ตำบลบ้านโป่ง ตำบลป่างิ้ว ตำบลหัวฝาย อำเภอเวียงป่าเป้า",
        "จังหวัดเชียงราย และตำบลป่าแฝก ตำบลเจริญราษฎร์ ตำบลศรีถ้อย",
        "ตำบลแม่สุก อำเภอแม่ใจ จังหวัดพะเยา ป่าขุนวัง แปลงที่สอง",
        "ป่าขุนวัง แปลงที่สาม ป่าขุนวัง แปลงที่หนึ่ง ป่าแม่โป่ง",
        "และป่าแม่งาวฝั่งซ้าย ในท้องที่ตำบลทุ่งฮั้ว ตำบลวังเหนือ ตำบลวังใต้",
        "ตำบลร่องเคาะ อำเภอวังเหนือ และตำบลบ้านร้อง อำเภองาว",
        "จังหวัดลำปาง และป่าแม่ต้ำ ป่าแม่นาเรือ ในท้องที่ตำบลบ้านใหม่",
        "ตำบลท่าจำปี ตำบลบ้านต๊ำ ตำบลบ้านต๋อม ตำบลบ้านสาง",
        "ตำบลบ้านตุ่น ตำบลแม่นาเรือ อำเภอเมืองพะเยา จังหวัดพะเยา",
        "ให้เป็นอุทยานแห่งชาติ",
        "พ.ศ. ๒๕๓๓",
        "",
        "",
        "ภูมิพลอดุลยเดช ป.ร.",
        "ให้ไว้ ณ วันที่ ๓๑ มีนาคม พ.ศ. ๒๕๓๓",
        "เป็นปีที่ ๔๕ ในรัชกาลปัจจุบัน"
      ]
    ],
    []
  ],
  "metadata": {
    "date_header": "2533-03-31",
    "date_modified": "2533-04-16",
    "date_original": "2533-04-16",
    "doctype": "พระราชกฤษฎีกา",
    "editors": [
      {
        "name": "ศิรวัชร์",
        "role": "จัดทำ",
        "date": "2561-05-02"
      }
    ],
    "tag": "cd10-2a-2533-a0001",
    "title": "กำหนดบริเวณที่ดินป่าแม่ลาวฝั่งขวา ป่าแม่ส้าน และป่าแม่ใจในท้องที่ตำบลแม่สรวย ตำบลแม่พริก ตำบลศรีถ้อย ตำบลท่าก๊ออำเภอแม่สรวย ตำบลธารทอง ตำบลทรายขาว ตำบลสันกลางตำบลป่าหุ่ง ตำบลม่วงคำ ตำบลแม่เย็น อำเภอพาน ตำบลสันสลีตำบลเวียง ตำบลบ้านโป่ง ตำบลป่างิ้ว ตำบลหัวฝาย อำเภอเวียงป่าเป้าจังหวัดเชียงราย และตำบลป่าแฝก ตำบลเจริญราษฎร์ ตำบลศรีถ้อยตำบลแม่สุก อำเภอแม่ใจ จังหวัดพะเยา ป่าขุนวัง แปลงที่สองป่าขุนวัง แปลงที่สาม ป่าขุนวัง แปลงที่หนึ่ง ป่าแม่โป่งและป่าแม่งาวฝั่งซ้าย ในท้องที่ตำบลทุ่งฮั้ว ตำบลวังเหนือ ตำบลวังใต้ตำบลร่องเคาะ อำเภอวังเหนือ และตำบลบ้านร้อง อำเภองาวจังหวัดลำปาง และป่าแม่ต้ำ ป่าแม่นาเรือ ในท้องที่ตำบลบ้านใหม่ตำบลท่าจำปี ตำบลบ้านต๊ำ ตำบลบ้านต๋อม ตำบลบ้านสางตำบลบ้านตุ่น ตำบลแม่นาเรือ อำเภอเมืองพะเยา จังหวัดพะเยาให้เป็นอุทยานแห่งชาติ"
  }
}