{
  "pages": [
    [
      [
        "พระราชกฤษฎีกา",
        "กำหนดบริเวณที่ดินป่ากรุงชิง ป่าคลองเผียน และป่าเขานัน",
        "ในท้องที่ตำบลเขาน้อย ตำบลฉลอง ตำบลเทพราช ตำบลเปลี่ยน อำเภอสิชล ตำบลกรุงชิง",
        "ตำบลนบพิตำ อำเภอนบพิตำ และตำบลตลิ่งชัน อำเภอท่าศาลา จังหวัดนครศรีธรรมราช",
        "ให้เป็นอุทยานแห่งชาติ",
        "พ.ศ. ๒๕๕๒",
        "",
        "",
        "ภูมิพลอดุลยเดช ป.ร.",
        "ให้ไว้ ณ วันที่ ๑๒ พฤศจิกายน พ.ศ. ๒๕๕๒",
        "เป็นปีที่ ๖๔ ในรัชกาลปัจจุบัน"
      ]
    ],
    []
  ],
  "metadata": {
    "date_header": "2552-11-12",
    "date_modified": "2552-12-23",
    "date_original": "2552-12-23",
    "doctype": "พระราชกฤษฎีกา",
    "editors": [
      {
        "name": "ปริยานุช",
        "role": "จัดทำ",
        "date": "2553-01-04"
      },
      {
        "name": "นันท์นภัสร์",
        "role": "ตรวจ",
        "date": "2553-01-04"
      },
      {
        "name": "ศิรวัชร์",
        "role": "ปรับปรุง",
        "date": "2561-04-20"
      }
    ],
    "tag": "cd10-2a-2552-a0004",
    "title": "กำหนดบริเวณที่ดินป่ากรุงชิง ป่าคลองเผียน และป่าเขานันในท้องที่ตำบลเขาน้อย ตำบลฉลอง ตำบลเทพราช ตำบลเปลี่ยน อำเภอสิชล ตำบลกรุงชิงตำบลนบพิตำ อำเภอนบพิตำ และตำบลตลิ่งชัน อำเภอท่าศาลา จังหวัดนครศรีธรรมราชให้เป็นอุทยานแห่งชาติ"
  }
}