{
  "pages": [
    [
      [
        "ข้อบังคับสภาเทคนิคการแพทย์",
        "ว่าด้วยการรับรองปริญญาในวิชาชีพเทคนิคการแพทย์",
        "ของสถาบันต่าง ๆ เพื่อประโยชน์ในการสมัครเป็นสมาชิก",
        "พ.ศ. ๒๕๕๓"
      ]
    ],
    []
  ],
  "metadata": {
    "date_backmatter": "2553-10-21",
    "date_modified": "2553-11-19",
    "date_original": "2553-11-19",
    "editors": [
      {
        "name": "ปริยานุช",
        "role": "ผู้จัดทำ",
        "date": "2553-11-24"
      },
      {
        "name": "ณัฐวดี",
        "role": "ตรวจ",
        "date": "2553-11-24"
      },
      {
        "name": "ชุติมา",
        "role": "ปรับปรุง",
        "date": "2560-12-15"
      }
    ],
    "tag": "c765-2i-2553-a0004"
  }
}