{
  "pages": [
    [
      [
        "ข้อบังคับสภาเทคนิคการแพทย์",
        "ว่าด้วยโรคซึ่งต้องห้ามมิให้เป็นสมาชิก",
        "พ.ศ. ๒๕๔๙"
      ]
    ],
    []
  ],
  "metadata": {
    "date_backmatter": "2549-04-24",
    "date_modified": "2549-06-01",
    "date_original": "2549-06-01",
    "editors": [
      {
        "name": "นันทนา",
        "role": "ผู้จัดทำ",
        "date": "2549-06-07"
      },
      {
        "name": "ชุติมา",
        "role": "ปรับปรุง",
        "date": "2560-12-15"
      }
    ],
    "tag": "c765-2i-2549-a0004"
  }
}