{
  "pages": [
    [
      [
        "ข้อกำหนดมหาวิทยาลัยมหามกุฎราชวิทยาลัย",
        "ว่าด้วยการจัดตั้งส่วนงาน (ฉบับที่ ๓)",
        "พ.ศ. ๒๕๕๐"
      ]
    ],
    []
  ],
  "metadata": {
    "date_backmatter": "2550-04-30",
    "date_modified": "2550-08-14",
    "date_original": "2550-08-14",
    "editors": [
      {
        "name": "วิภา",
        "role": "ผู้จัดทำ",
        "date": "2553-12-02"
      }
    ],
    "tag": "c121-2h-2550-a0001"
  }
}