{
  "pages": [
    [
      [
        "ประกาศมหาวิทยาลัยมหาจุฬาลงกรณราชวิทยาลัย",
        "เรื่อง การรับ Kandy Buddhist Institute for Advanced Studies (KBI) ประเทศศรีลังกา",
        "เข้าเป็นสถาบันสมทบ"
      ]
    ],
    []
  ],
  "metadata": {
    "date_backmatter": "2550-08-13",
    "date_modified": "2550-09-20",
    "date_original": "2550-09-20",
    "doctype": "ประกาศ",
    "editors": [
      {
        "name": "วิภา",
        "role": "ผู้จัดทำ",
        "date": "2553-11-03"
      }
    ],
    "tag": "c121-2e-2550-a0001"
  }
}