{
  "pages": [
    [
      [
        "ประกาศมหาวิทยาลัยมหาจุฬาลงกรณราชวิทยาลัย",
        "เรื่อง ปริญญาในสาขาวิชาและอักษรย่อสำหรับสาขาวิชา (ฉบับที่ ๔)",
        "พ.ศ. ๒๕๖๑"
      ]
    ],
    []
  ],
  "metadata": {
    "date_backmatter": "2561-04-17",
    "date_modified": "2561-08-30",
    "date_original": "2561-08-30",
    "doctype": "ประกาศ",
    "editors": [
      {
        "name": "ปวันวิทย์",
        "role": "จัดทำ",
        "date": "2561-10-01"
      }
    ],
    "tag": "c121-2e-2561-a0002"
  }
}