{
  "pages": [
    [
      [
        "ข้อกำหนดมหาวิทยาลัยมหาจุฬาลงกรณราชวิทยาลัย",
        "เรื่อง การจัดตั้งวิทยาเขตนครสวรรค์",
        "พุทธศักราช ๒๕๕๙"
      ]
    ],
    []
  ],
  "metadata": {
    "date_backmatter": "2559-03-08",
    "date_modified": "2559-05-13",
    "date_original": "2559-05-13",
    "editors": [
      {
        "name": "วริญา/ปริยานุช",
        "role": "จัดทำ",
        "date": "2559-06-21"
      }
    ],
    "tag": "c121-2h-2559-a0004"
  }
}