{
  "pages": [
    [
      [
        "ประกาศมหาวิทยาลัยมหาจุฬาลงกรณราชวิทยาลัย",
        "เรื่อง ปริญญาในสาขาวิชาและอักษรย่อสำหรับสาขาวิชา (ฉบับที่ ๓)",
        "พ.ศ. ๒๕๕๘"
      ]
    ],
    []
  ],
  "metadata": {
    "date_backmatter": "2558-09-07",
    "date_modified": "2558-11-09",
    "date_original": "2558-11-09",
    "doctype": "ประกาศ",
    "editors": [
      {
        "name": "ปริยานุช",
        "role": "จัดทำ",
        "date": "2558-11-27"
      },
      {
        "name": "ปุณิกา",
        "role": "ตรวจ",
        "date": "2558-11-27"
      }
    ],
    "tag": "c121-2e-2558-a0002"
  }
}