{
  "pages": [
    [
      [
        "ระเบียบกรมวิชาการเกษตร",
        "ว่าด้วยหลักเกณฑ์ วิธีการ และเงื่อนไขการจดแจ้งข้อมูลความลับ",
        "ทางการค้าของเคมีภัณฑ์ทางการเกษตร",
        "พ.ศ. ๒๕๔๗"
      ]
    ],
    []
  ],
  "metadata": {
    "date_backmatter": "2547-09-22",
    "date_modified": "2547-12-31",
    "date_original": "2547-12-31",
    "editors": [
      {
        "name": "พิมลกร",
        "role": "ปรับปรุง",
        "date": "2556-09-10"
      },
      {
        "name": "วิชพงษ์",
        "role": "ตรวจ",
        "date": "2556-09-12"
      }
    ],
    "tag": "a490-2g-2547-a0002"
  }
}