{
  "pages": [
    [
      [
        "ข้อบังคับสถาบันการพลศึกษา",
        "ว่าด้วยตรา เครื่องหมาย และสัญลักษณ์ของสถาบันการพลศึกษา",
        "พ.ศ. ๒๕๔๘"
      ]
    ],
    []
  ],
  "metadata": {
    "date_backmatter": "2548-03-11",
    "date_modified": "2548-03-15",
    "date_original": "2548-03-15",
    "editors": [
      {
        "name": "ปัทมา",
        "role": "จัดทำ",
        "date": "2553-11-01"
      },
      {
        "name": "พัสสน",
        "role": "ตรวจ",
        "date": "2553-11-10"
      }
    ],
    "tag": "ca68-2i-2548-a0001"
  }
}