{
  "pages": [
    [
      [
        "ประกาศธนาคารแห่งประเทศไทย",
        "ที่ สนส. ๑๓/๒๕๕๙",
        "เรื่อง นโยบายและมาตรการการรักษาความมั่นคงปลอดภัยทางระบบสารสนเทศ",
        "ในการประกอบธุรกิจบริการการชำระเงินทางอิเล็กทรอนิกส์ของสถาบันการเงินเฉพาะกิจ"
      ]
    ],
    []
  ],
  "metadata": {
    "date_backmatter": "2559-08-00",
    "date_modified": "2559-08-25",
    "date_original": "2559-08-25",
    "doctype": "ประกาศ",
    "editors": [
      {
        "name": "วริญา/ปริยานุช",
        "role": "จัดทำ",
        "date": "2559-08-29"
      },
      {
        "name": "นุสรา",
        "role": "ตรวจ",
        "date": "2559-11-25"
      }
    ],
    "tag": "c763-2e-2559-a0010"
  }
}