{
  "pages": [
    [
      [
        "พระราชบัญญัติ",
        "ภาพยนตร์และวีดิทัศน์",
        "พ.ศ. ๒๕๕๑",
        "",
        "",
        "ภูมิพลอดุลยเดช ป.ร.",
        "ให้ไว้ ณ วันที่ ๒๗ กุมภาพันธ์ พ.ศ. ๒๕๕๑",
        "เป็นปีที่ ๖๓ ในรัชกาลปัจจุบัน"
      ]
    ],
    []
  ],
  "metadata": {
    "date_header": "2551-02-27",
    "date_modified": "2551-03-04",
    "date_original": "2551-03-04",
    "doctype": "พระราชบัญญัติ",
    "editors": [
      {
        "name": "ภิรมย์พร",
        "role": "แก้ไข",
        "date": "2556-06-24"
      },
      {
        "name": "วศิน",
        "role": "ตรวจ",
        "date": "2556-06-24"
      }
    ],
    "tag": "c008-20-2551-a0001",
    "title": "ภาพยนตร์และวีดิทัศน์"
  }
}