{
  "pages": [
    [
      [
        "ระเบียบคณะกรรมการภาพยนตร์และวีดิทัศน์แห่งชาติ",
        "เรื่อง หลักเกณฑ์และเงื่อนไขในการเปรียบเทียบความผิด",
        "พ.ศ. ๒๕๕๒"
      ]
    ],
    []
  ],
  "metadata": {
    "date_backmatter": "2552-04-28",
    "date_modified": "2552-05-22",
    "date_original": "2552-05-22",
    "editors": [
      {
        "name": "ปริญสินีย์",
        "role": "ผู้จัดทำ",
        "date": "2555-04-25"
      },
      {
        "name": "วิชพงษ์",
        "role": "ผู้ตรวจ",
        "date": "2555-04-30"
      }
    ],
    "tag": "c008-2g-2552-a0001"
  }
}