{
  "pages": [
    [
      [
        "กฎกระทรวง",
        "กำหนดลักษณะของประเภทภาพยนตร์",
        "พ.ศ. ๒๕๕๒"
      ]
    ],
    []
  ],
  "metadata": {
    "date_backmatter": "2552-08-04",
    "date_modified": "2552-08-10",
    "date_original": "2552-08-10",
    "doctype": "กฎกระทรวง",
    "editors": [
      {
        "name": "ปริญสินีย์",
        "role": "ผู้จัดทำ",
        "date": "2555-04-25"
      },
      {
        "name": "วิชพงษ์",
        "role": "ผู้ตรวจ",
        "date": "2555-04-30"
      }
    ],
    "tag": "c008-2b-2552-a0004"
  }
}