{
  "pages": [
    [
      [
        "ประกาศนายทะเบียนกลาง",
        "เรื่อง กำหนดแบบคำขออนุญาตและใบอนุญาต การแจ้งและการขอต่ออายุใบอนุญาต",
        "กรณีประกอบกิจการให้เช่า แลกเปลี่ยน หรือจำหน่ายภาพยนตร์และวีดิทัศน์",
        "พ.ศ. ๒๕๖๐"
      ]
    ],
    []
  ],
  "metadata": {
    "date_backmatter": "2560-06-23",
    "date_modified": "2561-05-11",
    "date_original": "2561-05-11",
    "doctype": "ประกาศ",
    "editors": [
      {
        "name": "พิมพ์มาดา",
        "role": "จัดทำ",
        "date": "2561-06-20"
      }
    ],
    "tag": "c008-2e-2561-a0002"
  }
}