{
  "pages": [
    [
      [
        "ประกาศคณะกรรมการภาพยนตร์และวีดิทัศน์แห่งชาติ",
        "เรื่อง กำหนดเวลาฉายภาพยนตร์ตามมาตรา ๒๖ (๕) และ (๖)",
        "แห่งพระราชบัญญัติภาพยนตร์และวีดิทัศน์ พ.ศ. ๒๕๕๑ ทางโทรทัศน์",
        "พ.ศ. ๒๕๕๒"
      ]
    ],
    []
  ],
  "metadata": {
    "date_backmatter": "2552-08-26",
    "date_modified": "2552-09-30",
    "date_original": "2552-09-30",
    "doctype": "ประกาศ",
    "editors": [
      {
        "name": "ปริญสินีย์",
        "role": "ผู้จัดทำ",
        "date": "2555-04-25"
      },
      {
        "name": "วิชพงษ์",
        "role": "ผู้ตรวจ",
        "date": "2555-04-30"
      }
    ],
    "tag": "c008-2e-2552-a0008"
  }
}