{
  "pages": [
    [
      [
        "ประกาศนายทะเบียนกลาง",
        "เรื่อง กำหนดเวลาการปิดภาคการศึกษา ประจำปีการศึกษา ๒๕๕๓",
        "ตามกฎกระทรวงว่าด้วยการอนุญาตและการประกอบกิจการร้านวีดิทัศน์",
        "พ.ศ. ๒๕๕๒"
      ]
    ],
    []
  ],
  "metadata": {
    "date_backmatter": "2553-07-09",
    "date_modified": "2553-07-21",
    "date_original": "2553-07-21",
    "doctype": "ประกาศ",
    "editors": [
      {
        "name": "ปริญสินีย์",
        "role": "ผู้จัดทำ",
        "date": "2555-04-25"
      },
      {
        "name": "วิชพงษ์",
        "role": "ผู้ตรวจ",
        "date": "2555-04-30"
      }
    ],
    "tag": "c008-2e-2553-a0001"
  }
}