{
  "pages": [
    [
      [
        "ประกาศกรมทะเบียนการค้า",
        "ฉบับที่ ๕ (พ.ศ. ๒๕๒๐)",
        "เรื่อง กำหนดหลักเกณฑ์และวิธีการในการขอประทับตราบัญชี"
      ]
    ],
    []
  ],
  "metadata": {
    "date_backmatter": "2520-07-15",
    "date_modified": "2520-07-15",
    "date_original": "2520-07-15",
    "doctype": "ประกาศ",
    "editors": [
      {
        "name": "พรพิมล/พิมพ์",
        "role": "แก้ไข",
        "date": "2545-10-28"
      },
      {
        "name": "จุฑามาศ",
        "role": "ปรับปรุง",
        "date": "2559-06-21"
      }
    ],
    "tag": "a1104-2e-2520-a0001"
  }
}