{
  "pages": [
    [
      [
        "พระราชบัญญัติ",
        "การบัญชี",
        "พ.ศ. ๒๕๔๓",
        "",
        "",
        "ภูมิพลอดุลยเดช ป.ร.",
        "ให้ไว้ ณ วันที่ ๔ พฤษภาคม พ.ศ. ๒๕๔๓",
        "เป็นปีที่ ๕๕ ในรัชกาลปัจจุบัน"
      ]
    ],
    []
  ],
  "metadata": {
    "date_backmatter": "2515-11-24",
    "date_header": "2543-05-04",
    "date_modified": "2560-02-11",
    "date_original": "2543-05-12",
    "doctype": "พระราชบัญญัติ",
    "editors": [
      {
        "name": "คุณากร",
        "role": "ผู้จัดทำ",
        "date": "2556-01-03"
      },
      {
        "name": "ชาญ",
        "role": "ตรวจ",
        "date": "2556-01-03"
      },
      {
        "name": "ปริญสินีย์",
        "role": "เพิ่มเติม",
        "date": "2560-02-14"
      }
    ],
    "tag": "a1104-20-9999-update",
    "title": "การบัญชี"
  }
}