{
  "pages": [
    [
      [
        "กฎกระทรวง",
        "(พ.ศ. ๒๕๓๕)",
        "ออกตามความในพระราชบัญญัติองค์กรร่วมไทย - มาเลเซีย พ.ศ. ๒๕๓๓"
      ]
    ],
    []
  ],
  "metadata": {
    "date_backmatter": "2559-07-01",
    "date_modified": "2559-09-07",
    "date_original": "2535-02-07",
    "doctype": "กฎกระทรวง",
    "editors": [
      {
        "name": "นภาพร",
        "role": "ผู้จัดทำ",
        "date": "2556-05-29"
      },
      {
        "name": "วิชพงษ์",
        "role": "ตรวจ",
        "date": "2556-06-03"
      },
      {
        "name": "วิศนี",
        "role": "เพิ่มเติม",
        "date": "2559-10-05"
      }
    ],
    "tag": "cd06-2b-9995-update"
  }
}