{
  "pages": [
    [
      [
        "กฎกระทรวง",
        "ฉบับที่ ๔ (พ.ศ. ๒๕๔๐)",
        "ออกตามความในพระราชบัญญัติองค์กรร่วมไทย - มาเลเซีย",
        "พ.ศ. ๒๕๓๓"
      ]
    ],
    []
  ],
  "metadata": {
    "date_backmatter": "2540-07-28",
    "date_modified": "2540-08-07",
    "date_original": "2540-08-07",
    "doctype": "กฎกระทรวง",
    "editors": [
      {
        "name": "นภาพร",
        "role": "ผู้จัดทำ",
        "date": "2556-05-30"
      },
      {
        "name": "วิชพงษ์",
        "role": "ตรวจ",
        "date": "2556-06-03"
      }
    ],
    "tag": "cd06-2b-2540-004"
  }
}