{
  "pages": [
    [
      [
        "พระราชบัญญัติ",
        "ระงับการนับเวลาราชการทวีคูณในระหว่างเวลาประกาศ",
        "ใช้กฎอัยการศึกตามคำสั่งของคณะปฏิรูปการปกครองแผ่นดิน",
        "ฉบับที่ ๑ ลงวันที่ ๖ ตุลาคม พ.ศ. ๒๕๑๙",
        "พ.ศ. ๒๕๑๙",
        "",
        "",
        "ภูมิพลอดุลยเดช ป.ร.",
        "ให้ไว้ ณ วันที่ ๒๔ ธันวาคม พ.ศ. ๒๕๑๙",
        "เป็นปีที่ ๓๑ ในรัชกาลปัจจุบัน"
      ]
    ],
    []
  ],
  "metadata": {
    "date_backmatter": "2519-10-06",
    "date_header": "2519-10-06",
    "date_modified": "2519-12-24",
    "date_original": "2519-12-24",
    "doctype": "พระราชบัญญัติ",
    "editors": [
      {
        "name": "ฐิติพงษ์",
        "role": "ตรวจ",
        "date": "2552-05-22"
      },
      {
        "name": "ปริญสินีย์",
        "role": "ปรับปรุง",
        "date": "2556-11-11"
      },
      {
        "name": "ชาญ",
        "role": "ตรวจ",
        "date": "2556-11-11"
      }
    ],
    "tag": "c304-20-2519-001",
    "title": "ระงับการนับเวลาราชการทวีคูณในระหว่างเวลาประกาศใช้กฎอัยการศึกตามคำสั่งของคณะปฏิรูปการปกครองแผ่นดินฉบับที่ ๑ ลงวันที่ ๖ ตุลาคม พ.ศ. ๒๕๑๙"
  }
}