{
  "pages": [
    [
      [
        "พระราชบัญญัติ",
        "เหรียญจักรมาลาและเหรียญจักรพรรดิมาลา (ฉบับที่ ๔)",
        "พ.ศ. ๒๕๕๒",
        "",
        "",
        "ภูมิพลอดุลยเดช ป.ร.",
        "ให้ไว้ ณ วันที่ ๑๙ สิงหาคม พ.ศ. ๒๕๕๒",
        "เป็นปีที่ ๖๔ ในรัชกาลปัจจุบัน"
      ]
    ],
    []
  ],
  "metadata": {
    "date_header": "2552-08-19",
    "date_modified": "2552-08-31",
    "date_original": "2552-08-31",
    "doctype": "พระราชบัญญัติ",
    "editors": [
      {
        "name": "ปริยานุช",
        "role": "ผู้จัดทำ",
        "date": "2552-09-02"
      },
      {
        "name": "สุทธนา",
        "role": "ปรับปรุง",
        "date": "2556-12-02"
      },
      {
        "name": "วิชพงษ์",
        "role": "ตรวจ",
        "date": "2556-12-04"
      }
    ],
    "tag": "cb33-20-2552-a0001",
    "title": "เหรียญจักรมาลาและเหรียญจักรพรรดิมาลา (ฉบับที่ ๔)"
  }
}