{
  "pages": [
    [
      [
        "กฎกระทรวง",
        "ฉบับที่ ๖ (พ.ศ. ๒๕๓๑)",
        "ออกตามความในพระราชบัญญัติส่งเสริมการพาณิชยนาวี",
        "พ.ศ. ๒๕๒๑"
      ]
    ],
    []
  ],
  "metadata": {
    "date_backmatter": "2531-10-14",
    "date_modified": "2531-10-25",
    "date_original": "2531-10-25",
    "doctype": "กฎกระทรวง",
    "editors": [
      {
        "name": "ดลธี",
        "role": "ผู้จัดทำ",
        "date": "2552-04-28"
      },
      {
        "name": "พัชรินทร์",
        "role": "ตรวจ",
        "date": "2552-04-28"
      },
      {
        "name": "กองกฎหมายไทย",
        "role": "",
        "date": "2558-07-02"
      }
    ],
    "tag": "ca37-2b-2531-a001"
  }
}