{
  "pages": [
    [
      [
        "ประกาศกระทรวงคมนาคม",
        "เรื่อง การปฏิบัติเกี่ยวกับการสั่งหรือนำเข้ามาจากต่างประเทศ",
        "ซึ่งของที่กำหนดให้บรรทุกโดยเรือไทย ฉบับที่ ๒"
      ]
    ],
    []
  ],
  "metadata": {
    "date_backmatter": "2527-06-07",
    "date_modified": "2527-07-26",
    "date_original": "2527-07-26",
    "doctype": "ประกาศ",
    "editors": [
      {
        "name": "ดลธี",
        "role": "พิมพ์",
        "date": "2552-04-29"
      },
      {
        "name": "พัชรินทร์",
        "role": "ตรวจ",
        "date": "2552-04-29"
      }
    ],
    "tag": "ca37-2e-2527-0002"
  }
}