{
  "pages": [
    [
      [
        "ประกาศกระทรวงคมนาคม",
        "เรื่อง หลักเกณฑ์ในการขออนุญาตเช่าและใช้เรืออื่นที่มิใช่เรือไทย",
        "ในการประกอบการขนส่งทางทะเล"
      ]
    ],
    []
  ],
  "metadata": {
    "date_backmatter": "2524-10-08",
    "date_modified": "2524-10-14",
    "date_original": "2524-10-14",
    "doctype": "ประกาศ",
    "editors": [
      {
        "name": "ดลธี",
        "role": "ผู้จัดทำ",
        "date": "2552-04-29"
      },
      {
        "name": "พัชรินทร์",
        "role": "ตรวจ",
        "date": "2552-04-29"
      }
    ],
    "tag": "ca37-2e-2524-01"
  }
}