{
  "pages": [
    [
      [
        "ประกาศมหาวิทยาลัยทักษิณ",
        "เรื่อง การจัดตั้งส่วนงานของมหาวิทยาลัยทักษิณ",
        "พ.ศ. ๒๕๕๒"
      ]
    ],
    []
  ],
  "metadata": {
    "date_backmatter": "2552-11-16",
    "date_modified": "2553-02-10",
    "date_original": "2553-02-10",
    "doctype": "ประกาศ",
    "editors": [
      {
        "name": "มณฑิตา",
        "role": "ผู้จัดทำ",
        "date": "2553-12-07"
      },
      {
        "name": "วิภา",
        "role": "ตรวจ",
        "date": "2554-05-25"
      }
    ],
    "tag": "c118-2e-2553-a0001"
  }
}