{
  "pages": [
    [
      [
        "ข้อบังคับของรัฐสภา",
        "ว่าด้วยเครื่องแบบสมาชิกรัฐสภา",
        "พ.ศ. ๒๕๒๖"
      ]
    ],
    []
  ],
  "metadata": {
    "date_backmatter": "2526-09-27",
    "date_modified": "2553-03-10",
    "date_original": "2526-10-12",
    "editors": [
      {
        "name": "วิภา",
        "role": "ปรับปรุง",
        "date": "2557-03-10"
      },
      {
        "name": "วิชพงษ์",
        "role": "ตรวจ",
        "date": "2557-03-12"
      }
    ],
    "tag": "a444-2i-9999-update"
  }
}