{
  "pages": [
    [
      [
        "กฎกระทรวง",
        "(พ.ศ. ๒๕๑๔)",
        "ออกตามความในพระราชบัญญัติวิธีปฏิบัติเกี่ยวกับการกักกันตามประมวลกฎหมายอาญา",
        "พ.ศ. ๒๕๑๐"
      ]
    ],
    []
  ],
  "metadata": {
    "date_backmatter": "2514-11-24",
    "date_modified": "2514-12-14",
    "date_original": "2514-12-14",
    "doctype": "กฎกระทรวง",
    "editors": [
      {
        "name": "นฤตยา",
        "role": "ผู้จัดทำ",
        "date": "2553-10-22"
      },
      {
        "name": "เอกฤทธิ์",
        "role": "ตรวจ",
        "date": "2553-11-02"
      }
    ],
    "tag": "c740-2b-2514-001"
  }
}