{
  "pages": [
    [
      [
        "ประกาศกระทรวงยุติธรรม",
        "เรื่อง เครื่องแบบผู้พิพากษาสมทบ"
      ]
    ],
    []
  ],
  "metadata": {
    "date_backmatter": "2523-07-01",
    "date_modified": "2523-07-29",
    "date_original": "2523-07-29",
    "doctype": "ประกาศ",
    "editors": [
      {
        "name": "วันทิตา",
        "role": "ปรับปรุง",
        "date": "2557-03-08"
      },
      {
        "name": "วิชพงษ์",
        "role": "ตรวจ",
        "date": "2557-03-12"
      }
    ],
    "tag": "a454-2e-2523-001"
  }
}