{
  "pages": [
    [
      [
        "ข้อบังคับคณะกรรมการการแพทย์ฉุกเฉิน",
        "ว่าด้วยการให้เข็มเชิดชูเกียรติ",
        "พ.ศ. ๒๕๕๓"
      ]
    ],
    []
  ],
  "metadata": {
    "date_backmatter": "2553-10-12",
    "date_modified": "2553-11-19",
    "date_original": "2553-11-19",
    "editors": [
      {
        "name": "ปริยานุช",
        "role": "จัดทำ",
        "date": "2553-11-24"
      },
      {
        "name": "ณัฐวดี",
        "role": "ตรวจ",
        "date": "2553-11-24"
      },
      {
        "name": "โชติกานต์",
        "role": "ปรับปรุง",
        "date": "2559-12-22"
      }
    ],
    "tag": "a1131-2i-2553-a0001"
  }
}