{
  "pages": [
    [
      [
        "ประกาศกระทรวงสาธารณสุข",
        "เรื่อง อัตราเบี้ยประชุมและค่าใช้จ่ายในการเดินทางของประธานกรรมการ",
        "กรรมการ ประธานอนุกรรมการ และอนุกรรมการ ในคณะกรรมการการแพทย์ฉุกเฉิน"
      ]
    ],
    []
  ],
  "metadata": {
    "date_backmatter": "2552-02-13",
    "date_modified": "2552-04-24",
    "date_original": "2552-04-24",
    "doctype": "ประกาศ",
    "editors": [
      {
        "name": "ปริยานุช",
        "role": "จัดทำ",
        "date": "2552-05-04"
      },
      {
        "name": "โชติกานต์",
        "role": "ปรับปรุง",
        "date": "2559-12-22"
      }
    ],
    "tag": "a1131-2e-2552-a0001"
  }
}