{
  "pages": [
    [
      [
        "ประกาศคณะกรรมการการแพทย์ฉุกเฉิน",
        "เรื่อง การให้ประกาศนียบัตรและการปฏิบัติการฉุกเฉินของผู้ปฏิบัติการ",
        "พ.ศ. ๒๕๕๔"
      ]
    ],
    []
  ],
  "metadata": {
    "date_backmatter": "2554-09-15",
    "date_modified": "2554-11-04",
    "date_original": "2554-11-04",
    "doctype": "ประกาศ",
    "editors": [
      {
        "name": "ปริยานุช",
        "role": "ผู้จัดทำ",
        "date": "2554-11-09"
      },
      {
        "name": "ชาญ",
        "role": "ผู้ตรวจ",
        "date": "2554-11-16"
      }
    ],
    "tag": "a1131-2e-2554-a0004"
  }
}