{
  "pages": [
    [
      [
        "ระเบียบกรมควบคุมโรค",
        "ว่าด้วย หลักเกณฑ์ วิธีการ และเงื่อนไขการจ่ายเงินสินบนรางวัล",
        "และค่าใช้จ่ายในการดำเนินงานตามพระราชบัญญัติควบคุมเครื่องดื่มแอลกอฮอล์ พ.ศ. ๒๕๕๑",
        "(ฉบับที่ ๒)",
        "พ.ศ. ๒๕๕๖"
      ]
    ],
    []
  ],
  "metadata": {
    "date_backmatter": "2556-06-20",
    "date_modified": "2556-07-25",
    "date_original": "2556-07-25",
    "editors": [
      {
        "name": "ปริยานุช",
        "role": "ผู้จัดทำ",
        "date": "2556-07-30"
      },
      {
        "name": "โชติกานต์",
        "role": "ผู้ตรวจ",
        "date": "2556-08-13"
      }
    ],
    "tag": "a4108-2g-2556-a0001"
  }
}