{
  "pages": [
    [
      [
        "ประกาศการไฟฟ้าส่วนภูมิภาค",
        "เรื่อง การรับซื้อไฟฟ้าจากผู้ผลิตไฟฟ้าพลังงานหมุนเวียนขนาดเล็กมาก"
      ]
    ],
    []
  ],
  "metadata": {
    "date_backmatter": "2548-09-09",
    "date_modified": "2548-11-24",
    "date_original": "2548-11-24",
    "doctype": "ประกาศ",
    "editors": [
      {
        "name": "นันทนา",
        "role": "ผู้จัดทำ",
        "date": "2548-11-28"
      },
      {
        "name": "นันทพล",
        "role": "ปรับปรุง",
        "date": "2549-11-16"
      }
    ],
    "tag": "a132-2e-2548-a0002"
  }
}