{
  "pages": [
    [
      [
        "ประกาศการไฟฟ้าส่วนภูมิภาค",
        "เรื่อง การออกพันธบัตรการไฟฟ้าส่วนภูมิภาค",
        "พ.ศ. ๒๕๕๒ ครั้งที่ ๓"
      ]
    ],
    []
  ],
  "metadata": {
    "date_backmatter": "2552-04-01",
    "date_modified": "2552-04-29",
    "date_original": "2552-04-29",
    "doctype": "ประกาศ",
    "editors": [
      {
        "name": "ปริยานุช",
        "role": "ผู้จัดทำ",
        "date": "2552-05-06"
      },
      {
        "name": "ปิติวรรณ",
        "role": "ปรับปรุง",
        "date": "2561-08-17"
      }
    ],
    "tag": "a132-2e-2552-a0003"
  }
}