{
  "pages": [
    [
      [
        "ประกาศการไฟฟ้าส่วนภูมิภาค",
        "เรื่อง การออกพันธบัตรการไฟฟ้าส่วนภูมิภาค",
        "พ.ศ. ๒๕๕๔ ครั้งที่ ๑"
      ]
    ],
    []
  ],
  "metadata": {
    "date_backmatter": "2553-12-20",
    "date_modified": "2554-01-19",
    "date_original": "2554-01-19",
    "doctype": "ประกาศ",
    "editors": [
      {
        "name": "ปริยานุช",
        "role": "ผู้จัดทำ",
        "date": "2554-01-27"
      },
      {
        "name": "ณัฐวดี",
        "role": "ตรวจ",
        "date": "2554-01-27"
      }
    ],
    "tag": "a132-2e-2554-a0001"
  }
}