{
  "pages": [
    [
      [
        "ข้อบังคับการไฟฟ้าส่วนภูมิภาค",
        "ว่าด้วยการซื้อ",
        "พ.ศ. ๒๕๔๓"
      ]
    ],
    []
  ],
  "metadata": {
    "date_backmatter": "2543-10-06",
    "date_modified": "2548-12-01",
    "date_original": "2548-12-01",
    "editors": [
      {
        "name": "นันทนา",
        "role": "ผู้จัดทำ",
        "date": "2548-12-08"
      },
      {
        "name": "นันทพล",
        "role": "ปรับปรุง",
        "date": "2549-11-16"
      },
      {
        "name": "พัชรินทร์",
        "role": "ปรับปรุง",
        "date": "2551-10-21"
      }
    ],
    "tag": "a132-2i-2548-a0006"
  }
}