{
  "pages": [
    [
      [
        "ประกาศการไฟฟ้าส่วนภูมิภาค",
        "เรื่อง การออกพันธบัตรการไฟฟ้าส่วนภูมิภาค",
        "พ.ศ. ๒๕๕๕ ครั้งที่ ๔"
      ]
    ],
    []
  ],
  "metadata": {
    "date_backmatter": "2555-06-06",
    "date_modified": "2555-06-22",
    "date_original": "2555-06-22",
    "doctype": "ประกาศ",
    "editors": [
      {
        "name": "ปริยานุช",
        "role": "ผู้จัดทำ",
        "date": "2555-06-27"
      },
      {
        "name": "ชาญ",
        "role": "ผู้ตรวจ",
        "date": "2555-07-02"
      }
    ],
    "tag": "a132-2e-2555-a0003"
  }
}