{
  "pages": [
    [
      [
        "ประกาศการไฟฟ้าส่วนภูมิภาค",
        "เรื่อง การออกพันธบัตรการไฟฟ้าส่วนภูมิภาค พ.ศ. ๒๕๕๗",
        "ครั้งที่ ๓"
      ]
    ],
    []
  ],
  "metadata": {
    "date_backmatter": "2557-09-26",
    "date_modified": "2557-10-15",
    "date_original": "2557-10-15",
    "doctype": "ประกาศ",
    "editors": [
      {
        "name": "ปริยานุช",
        "role": "ผู้จัดทำ",
        "date": "2557-10-16"
      },
      {
        "name": "วันทิตา",
        "role": "ผู้ตรวจ",
        "date": "2557-11-08"
      }
    ],
    "tag": "a132-2e-2557-a0003"
  }
}