{
  "pages": [
    [
      [
        "ประกาศการไฟฟ้าส่วนภูมิภาค",
        "เรื่อง การออกพันธบัตรการไฟฟ้าส่วนภูมิภาค พ.ศ. ๒๕๕๖",
        "ครั้งที่ ๙"
      ]
    ],
    []
  ],
  "metadata": {
    "date_backmatter": "2556-08-06",
    "date_modified": "2556-08-27",
    "date_original": "2556-08-27",
    "doctype": "ประกาศ",
    "editors": [
      {
        "name": "ปริยานุช",
        "role": "ผู้จัดทำ",
        "date": "2556-08-29"
      },
      {
        "name": "อุษมล",
        "role": "ผู้ตรวจ",
        "date": "2556-09-05"
      }
    ],
    "tag": "a132-2e-2556-a0009"
  }
}