{
  "pages": [
    [
      [
        "กฎกระทรวง",
        "กำหนดสาขา คุณสมบัติ หลักเกณฑ์และวิธีการคัดเลือก",
        "และประโยชน์ตอบแทนของศิลปินแห่งชาติ (ฉบับที่ ๒)",
        "พ.ศ. ๒๕๕๙"
      ]
    ],
    []
  ],
  "metadata": {
    "date_backmatter": "2559-06-16",
    "date_modified": "2559-06-24",
    "date_original": "2559-06-24",
    "doctype": "กฎกระทรวง",
    "editors": [
      {
        "name": "ปริยานุช",
        "role": "จัดทำ",
        "date": "2559-06-28"
      },
      {
        "name": "ปุณิกา",
        "role": "ตรวจ",
        "date": "2559-06-28"
      }
    ],
    "tag": "c701-2b-2559-a0001"
  }
}