{
  "pages": [
    [
      [
        "พระราชบัญญัติ",
        "วัฒนธรรมแห่งชาติ",
        "พ.ศ. ๒๕๕๓",
        "",
        "",
        "ภูมิพลอดุลยเดช ป.ร.",
        "ให้ไว้ ณ วันที่ ๔ พฤศจิกายน พ.ศ. ๒๕๕๓",
        "เป็นปีที่ ๖๕ ในรัชกาลปัจจุบัน"
      ]
    ],
    []
  ],
  "metadata": {
    "date_header": "2553-11-04",
    "date_modified": "2553-11-12",
    "date_original": "2553-11-12",
    "doctype": "พระราชบัญญัติ",
    "editors": [
      {
        "name": "ปริยานุช",
        "role": "ผู้จัดทำ",
        "date": "2553-11-15"
      },
      {
        "name": "ณัฐวดี",
        "role": "ตรวจ",
        "date": "2553-11-15"
      }
    ],
    "tag": "c701-20-2553-a0001",
    "title": "วัฒนธรรมแห่งชาติ"
  }
}