{
  "pages": [
    [
      [
        "พระราชกฤษฎีกา",
        "กำหนดวัฒนธรรมแห่งชาติ (ฉบับที่ ๓)",
        "พุทธศักราช ๒๔๘๗",
        "",
        "",
        "ในพระปรมาภิไธยสมเด็จพระเจ้าอยู่หัวอานันทมหิดล",
        "คณะผู้สำเร็จราชการแทนพระองค์",
        "(ตามประกาศประธานสภาผู้แทนราษฎร",
        "ลงวันที่ ๔ สิงหาคม พุทธศักราช ๒๔๘๐",
        "และวันที่ ๑๖ ธันวาคม พุทธศักราช ๒๔๘๔)",
        "อาทิตย์ทิพอาภา",
        "ปรีดี พนมยงค์",
        "ตราไว้ ณ วันที่ ๖ มกราคม พุทธศักราช ๒๔๘๗",
        "เป็นปีที่ ๑๑ ในรัชกาลปัจจุบัน"
      ]
    ],
    []
  ],
  "metadata": {
    "date_header": "2480-08-04",
    "date_modified": "2487-01-18",
    "date_original": "2487-01-18",
    "doctype": "พระราชกฤษฎีกา",
    "editors": [
      {
        "name": "สุกัญญา",
        "role": "ผู้จัดทำ",
        "date": "2549-04-10"
      }
    ],
    "tag": "c701-2a-2487-003",
    "title": "กำหนดวัฒนธรรมแห่งชาติ (ฉบับที่ ๓)"
  }
}