{
  "pages": [
    [
      [
        "พระราชกฤษฎีกา",
        "ยกเลิกพระราชกฤษฎีกากำหนดวัฒนธรรม",
        "ทางศิลปกรรมเกี่ยวกับการแสดงละคร พุทธศักราช ๒๔๘๕",
        "พ.ศ. ๒๔๘๙",
        "-------------",
        "",
        "ในพระปรมาภิไธยสมเด็จพระเจ้าอยู่หัวภูมิพลอดุลยเดช"
      ]
    ],
    []
  ],
  "metadata": {
    "date_backmatter": "2489-11-27",
    "date_gz_old": "2489-12-17",
    "editors": [],
    "tag": "c701-2a-2489-a0001"
  }
}