{
  "pages": [
    [
      [
        "ประกาศสำนักนายกรัฐมนตรี",
        "ว่าด้วยรัฐนิยมฉบับที่ 8",
        "เรื่องเพลงสรรเสริญพระบารมี"
      ]
    ],
    []
  ],
  "metadata": {
    "date_backmatter": "2483-04-26",
    "doctype": "ประกาศ",
    "editors": [],
    "tag": "c701-2e-2483-001"
  }
}