{
  "pages": [
    [
      [
        "ประกาศสำนักนายกรัฐมนตรี",
        "เรื่องการปฏิบัติของผัวเมีย"
      ]
    ],
    []
  ],
  "metadata": {
    "date_backmatter": "2486-03-10",
    "doctype": "ประกาศ",
    "editors": [],
    "tag": "c701-2e-2486-001"
  }
}