{
  "pages": [
    [
      [
        "ประกาศมหาวิทยาลัยพะเยา",
        "เรื่อง ปริญญาในสาขาวิชา อักษรย่อสำหรับสาขาวิชา",
        "ครุยวิทยฐานะ เข็มวิทยฐานะและครุยประจำตำแหน่ง",
        "พ.ศ. ๒๕๕๔"
      ]
    ],
    []
  ],
  "metadata": {
    "date_backmatter": "2554-03-12",
    "date_modified": "2555-05-16",
    "date_original": "2554-06-01",
    "doctype": "ประกาศ",
    "editors": [
      {
        "name": "ปณตภร",
        "role": "ผู้จัดทำ",
        "date": "2555-06-28"
      }
    ],
    "tag": "c142-2e-9999-update"
  }
}