{
  "pages": [
    [
      [
        "ประกาศมหาวิทยาลัยพะเยา",
        "เรื่อง จัดตั้งส่วนงานวิชาการของมหาวิทยาลัยพะเยา"
      ]
    ],
    []
  ],
  "metadata": {
    "date_backmatter": "2557-10-24",
    "date_modified": "2558-05-25",
    "date_original": "2558-05-25",
    "doctype": "ประกาศ",
    "editors": [
      {
        "name": "ปริยานุช",
        "role": "ผู้จัดทำ",
        "date": "2558-06-02"
      },
      {
        "name": "ปริญสินีย์",
        "role": "ผู้ตรวจ",
        "date": "2558-06-02"
      }
    ],
    "tag": "c142-2e-2558-a0001"
  }
}