{
  "pages": [
    [
      [
        "ข้อบังคับมหาวิทยาลัยพะเยา",
        "ว่าด้วยเครื่องแบบ เครื่องหมายและเครื่องแต่งกายของนิสิต",
        "พ.ศ. ๒๕๕๔"
      ]
    ],
    []
  ],
  "metadata": {
    "date_backmatter": "2554-03-12",
    "date_modified": "2554-06-01",
    "date_original": "2554-06-01",
    "editors": [
      {
        "name": "ปริยานุช",
        "role": "ผู้จัดทำ",
        "date": "2554-06-13"
      },
      {
        "name": "ณัฐวดี",
        "role": "ตรวจ",
        "date": "2554-06-13"
      },
      {
        "name": "ปณตภร",
        "role": "ปรับปรุง",
        "date": "2555-06-28"
      }
    ],
    "tag": "c142-2i-2554-a0002"
  }
}