{
  "pages": [
    [
      [
        "พระราชกฤษฎีกา",
        "แบ่งส่วนราชการมหาวิทยาลัยสงขลานครินทร์",
        "ทบวงมหาวิทยาลัย",
        "พ.ศ. ๒๕๒๖",
        "",
        "",
        "ภูมิพลอดุลยเดช ป.ร.",
        "ให้ไว้ ณ วันที่ ๓ พฤษภาคม พ.ศ. ๒๕๒๖",
        "เป็นปีที่ ๓๘ ในรัชกาลปัจจุบัน"
      ]
    ],
    []
  ],
  "metadata": {
    "date_header": "2526-05-03",
    "date_modified": "2526-11-10",
    "date_original": "2526-05-07",
    "doctype": "พระราชกฤษฎีกา",
    "editors": [
      {
        "name": "คุณากร",
        "role": "ผู้จัดทำ",
        "date": "2554-05-04"
      },
      {
        "name": "วิชชุตา",
        "role": "ผู้ตรวจ",
        "date": "2554-06-14"
      }
    ],
    "tag": "c109-2a-9998-update",
    "title": "แบ่งส่วนราชการมหาวิทยาลัยสงขลานครินทร์ทบวงมหาวิทยาลัย"
  }
}