{
  "pages": [
    [
      [
        "ประกาศมหาวิทยาลัยสงขลานครินทร์",
        "เรื่อง ครุยวิทยฐานะ และเข็มวิทยฐานะของมหาวิทยาลัยสงขลานครินทร์",
        "พ.ศ. ๒๕๕๙"
      ]
    ],
    []
  ],
  "metadata": {
    "date_backmatter": "2559-09-16",
    "date_modified": "2561-08-28",
    "date_original": "2559-09-22",
    "doctype": "ประกาศ",
    "editors": [
      {
        "name": "ชวัลพร/ปริยานุช",
        "role": "จัดทำ",
        "date": "2559-09-26"
      },
      {
        "name": "นุสรา",
        "role": "ตรวจ",
        "date": "2559-12-01"
      },
      {
        "name": "ปวันวิทย์",
        "role": "เพิ่มเติม",
        "date": "2562-01-07"
      }
    ],
    "tag": "c109-2e-9998-update"
  }
}