{
  "pages": [
    [
      [
        "ประกาศทบวงมหาวิทยาลัยของรัฐ",
        "เรื่อง การแบ่งส่วนราชการในคณะแพทยศาสตร์",
        "มหาวิทยาลัยสงขลานครินทร์"
      ]
    ],
    []
  ],
  "metadata": {
    "date_backmatter": "2518-05-13",
    "date_gz_old": "2518-05-27",
    "doctype": "ประกาศ",
    "editors": [
      {
        "name": "ธิดาวรรณ",
        "role": "พิมพ์",
        "date": "2545-11-01"
      }
    ],
    "tag": "c109-2e-2518-a0002"
  }
}