{
  "pages": [
    [
      [
        "พระราชกฤษฎีกา",
        "ว่าด้วยปริญญาในสาขาวิชา อักษรย่อสำหรับสาขาวิชา ครุยวิทยฐานะ",
        "และเข็มวิทยฐานะของมหาวิทยาลัยสงขลานครินทร์ (ฉบับที่ ๕)",
        "พ.ศ. ๒๕๓๖",
        "",
        "",
        "ภูมิพลอดุลยเดช ป.ร.",
        "ให้ไว้ ณ วันที่ ๔ กุมภาพันธ์ พ.ศ. ๒๕๓๖",
        "เป็นปีที่ ๔๘ ในรัชกาลปัจจุบัน"
      ]
    ],
    []
  ],
  "metadata": {
    "date_header": "2536-02-04",
    "date_modified": "2536-02-16",
    "date_original": "2536-02-16",
    "doctype": "พระราชกฤษฎีกา",
    "editors": [
      {
        "name": "คุณากร",
        "role": "ผู้จัดทำ",
        "date": "2554-05-19"
      },
      {
        "name": "วิชชุตา",
        "role": "ผู้ตรวจ",
        "date": "2554-06-14"
      }
    ],
    "tag": "c109-2a-2536-017",
    "title": "ว่าด้วยปริญญาในสาขาวิชา อักษรย่อสำหรับสาขาวิชา ครุยวิทยฐานะและเข็มวิทยฐานะของมหาวิทยาลัยสงขลานครินทร์ (ฉบับที่ ๕)"
  }
}