{
  "pages": [
    [
      [
        "ข้อบังคับสภาเภสัชกรรม",
        "ว่าด้วยการเลือก และการเลือกตั้งกรรมการ",
        "พ.ศ. ๒๕๓๗"
      ]
    ],
    []
  ],
  "metadata": {
    "date_backmatter": "2537-09-29",
    "date_modified": "2561-03-15",
    "date_original": "2537-10-05",
    "editors": [
      {
        "name": "ปวันวิทย์/อัญชลี",
        "role": "จัดทำ",
        "date": "2561-05-25"
      }
    ],
    "tag": "c743-2i-9996-update"
  }
}