{
  "pages": [
    [
      [
        "ข้อบังคับสภาเภสัชกรรม",
        "ว่าด้วยการเลือก และการเลือกตั้งกรรมการ (ฉบับที่ ๓)",
        "พ.ศ. ๒๕๖๑"
      ]
    ],
    []
  ],
  "metadata": {
    "date_backmatter": "2561-02-07",
    "date_modified": "2561-03-15",
    "date_original": "2561-03-15",
    "editors": [
      {
        "name": "ปวันวิทย์/อัญชลี",
        "role": "จัดทำ",
        "date": "2561-05-25"
      }
    ],
    "tag": "c743-2i-2561-a0001"
  }
}