{
  "pages": [
    [
      [
        "ข้อบังคับสภาเภสัชกรรม",
        "ว่าด้วยการจัดการศึกษาต่อเนื่องแก่ผู้ประกอบวิชาชีพเภสัชกรรม",
        "พ.ศ. ๒๕๕๙"
      ]
    ],
    []
  ],
  "metadata": {
    "date_backmatter": "2559-12-00",
    "date_modified": "2560-01-12",
    "date_original": "2560-01-12",
    "editors": [
      {
        "name": "วริญา/ปริยานุช",
        "role": "จัดทำ",
        "date": "2560-01-16"
      },
      {
        "name": "นุสรา",
        "role": "ตรวจ",
        "date": "2560-02-28"
      }
    ],
    "tag": "c743-2i-2560-a0001"
  }
}