{
  "pages": [
    [
      [
        "ข้อบังคับสภาเภสัชกรรม",
        "ว่าด้วยการรับรองคุณภาพการประกอบวิชาชีพเภสัชกรรมในร้านยา",
        "พ.ศ. ๒๕๕๘"
      ]
    ],
    []
  ],
  "metadata": {
    "date_backmatter": "2558-10-12",
    "date_modified": "2558-11-24",
    "date_original": "2558-11-24",
    "editors": [
      {
        "name": "ปริยานุช",
        "role": "จัดทำ",
        "date": "2558-11-26"
      },
      {
        "name": "วริญา",
        "role": "ตรวจ",
        "date": "2558-11-27"
      }
    ],
    "tag": "c743-2i-2558-a0005"
  }
}