{
  "pages": [
    [
      [
        "กฎกระทรวง",
        "กำหนดหลักเกณฑ์ วิธีการ และเงื่อนไขการร้องขอรับค่าเสียหายเบื้องต้น",
        "จากกองทุนและการจ่ายค่าเสียหายเบื้องต้นจากกองทุน",
        "พ.ศ. ๒๕๔๕"
      ]
    ],
    []
  ],
  "metadata": {
    "date_backmatter": "2545-04-11",
    "date_modified": "2545-04-19",
    "date_original": "2545-04-19",
    "doctype": "กฎกระทรวง",
    "editors": [
      {
        "name": "พรพิมล",
        "role": "แก้ไข",
        "date": "2545-08-05"
      },
      {
        "name": "นันทพล",
        "role": "ปรับปรุง",
        "date": "2549-12-08"
      }
    ],
    "tag": "a425-2b-2545-a0001"
  }
}