{
  "pages": [
    [
      [
        "ประกาศกรมการประกันภัย",
        "เรื่อง มอบหมายให้เป็นนายทะเบียนเปรียบเทียบความผิด",
        "ตามพระราชบัญญัติคุ้มครองผู้ประสบภัยจากรถ พ.ศ. ๒๕๓๕",
        "ที่มีโทษปรับสถานเดียว (ฉบับที่ ๒)"
      ]
    ],
    []
  ],
  "metadata": {
    "date_backmatter": "2541-08-07",
    "date_modified": "2541-08-14",
    "date_original": "2541-08-14",
    "doctype": "ประกาศ",
    "editors": [
      {
        "name": "ประภาศรี ทองนที",
        "role": "พิมพ์",
        "date": "2551-01-10"
      },
      {
        "name": "ปฐมพร",
        "role": "จัดทำ",
        "date": "2551-01-16"
      }
    ],
    "tag": "a425-2e-2541-a0002"
  }
}