{
  "pages": [
    [
      [
        "ระเบียบคณะกรรมการกำกับและส่งเสริมการประกอบธุรกิจประกันภัย",
        "ว่าด้วยการเบิกจ่าย การเก็บรักษา การจัดการกองทุน และค่าใช้จ่าย",
        "ในการดำเนินงานของกองทุนทดแทนผู้ประสบภัย",
        "พ.ศ. ๒๕๕๒"
      ]
    ],
    []
  ],
  "metadata": {
    "date_backmatter": "2552-02-18",
    "date_modified": "2552-04-24",
    "date_original": "2552-04-24",
    "editors": [
      {
        "name": "ปริยานุช",
        "role": "ผู้จัดทำ",
        "date": "2552-05-04"
      }
    ],
    "tag": "a425-2g-2552-a0001"
  }
}