{
  "pages": [
    [
      [
        "ระเบียบกระทรวงพาณิชย์",
        "ว่าด้วยการเบิกจ่าย การเก็บรักษา การจัดการกองทุน",
        "และค่าใช้จ่ายในการดำเนินงานของกองทุนทดแทนผู้ประสบภัยจากรถ",
        "พ.ศ. ๒๕๔๓"
      ]
    ],
    []
  ],
  "metadata": {
    "date_backmatter": "2543-12-18",
    "date_modified": "2543-12-26",
    "date_original": "2543-12-26",
    "editors": [
      {
        "name": "นันทพล",
        "role": "ปรับปรุง",
        "date": "2549-12-12"
      }
    ],
    "tag": "a425-2g-2543-a0001"
  }
}