{
  "pages": [
    [
      [
        "พระราชกฤษฎีกา",
        "กำหนดเขตที่ดินในบริเวณที่ที่จะเวนคืน",
        "เพื่อสร้างทางหลวงพิเศษหมายเลข ๖ สายบางปะอิน - นครราชสีมา",
        "พ.ศ. ๒๕๕๖",
        "",
        "",
        "ภูมิพลอดุลยเดช ป.ร.",
        "ให้ไว้ ณ วันที่ ๑๙ เมษายน พ.ศ. ๒๕๕๖",
        "เป็นปีที่ ๖๘ ในรัชกาลปัจจุบัน"
      ]
    ],
    []
  ],
  "metadata": {
    "date_header": "2556-04-19",
    "date_modified": "2556-04-26",
    "date_original": "2556-04-26",
    "doctype": "พระราชกฤษฎีกา",
    "editors": [
      {
        "name": "ปริยานุช",
        "role": "ผู้จัดทำ",
        "date": "2556-04-29"
      },
      {
        "name": "ชาญ",
        "role": "ผู้ตรวจ",
        "date": "2556-05-03"
      }
    ],
    "tag": "b706-2a-2556-a0002",
    "title": "กำหนดเขตที่ดินในบริเวณที่ที่จะเวนคืนเพื่อสร้างทางหลวงพิเศษหมายเลข ๖ สายบางปะอิน - นครราชสีมา"
  }
}