{
  "pages": [
    [
      [
        "ประกาศผู้อำนวยการทางหลวงท้องถิ่น",
        "เรื่อง ห้ามใช้ยานพาหนะที่มีน้ำหนัก น้ำหนักบรรทุก หรือน้ำหนักลงเพลาเกินกว่าที่ได้กำหนด",
        "หรือโดยที่ยานพาหนะนั้นอาจทำให้ทางหลวงเสียหายเดินบนทางหลวงท้องถิ่น",
        "ในเขตความรับผิดชอบขององค์การบริหารส่วนตำบลละหาร"
      ]
    ],
    []
  ],
  "metadata": {
    "date_backmatter": "2559-09-21",
    "date_modified": "2560-02-09",
    "date_original": "2560-02-09",
    "doctype": "ประกาศ",
    "editors": [
      {
        "name": "ชวัลพร/ปริยานุช",
        "role": "จัดทำ",
        "date": "2560-02-14"
      },
      {
        "name": "นุสรา",
        "role": "ตรวจ",
        "date": "2560-03-23"
      }
    ],
    "tag": "b706-2e-2560-a0111"
  }
}