{
  "pages": [
    [
      [
        "ประกาศสำนักนายกรัฐมนตรี",
        "เรื่อง กำหนดให้การเวนคืนอสังหาริมทรัพย์",
        "เพื่อสร้างทางหลวงแผ่นดินหมายเลข ๑๒๙๖",
        "สายแยกทางหลวงแผ่นดินหมายเลข ๑๑ (ท่างาม) - บรรจบทางหลวงแผ่นดิน",
        "หมายเลข ๑๑๔๓ (โป่งแค) ตอนบ้านท่าขอนเบน - บรรจบทางหลวงแผ่นดิน",
        "หมายเลข ๑๑๔๓ (โป่งแค) เป็นกรณีที่มีความจำเป็นโดยเร่งด่วน"
      ]
    ],
    []
  ],
  "metadata": {
    "date_backmatter": "2542-10-23",
    "date_gz_old": "2542-10-27",
    "doctype": "ประกาศ",
    "editors": [
      {
        "name": "อัมพิกา",
        "role": "แก้ไข",
        "date": "2545-05-28"
      }
    ],
    "tag": "b706-2e-2542-a021"
  }
}