{
  "pages": [
    [
      [
        "ประกาศผู้อำนวยการทางหลวงท้องถิ่น เทศบาลตำบลเนินพระ",
        "เรื่อง ห้ามใช้ยานพาหนะที่มีน้ำหนัก น้ำหนักบรรทุก หรือน้ำหนักลงเพลาเกินกว่าที่ได้กำหนด",
        "หรือโดยที่ยานพาหนะนั้นอาจทำให้ทางหลวงเสียหาย เดินบนทางหลวงท้องถิ่น",
        "ในเขตความรับผิดชอบของเทศบาลตำบลเนินพระ"
      ]
    ],
    []
  ],
  "metadata": {
    "date_backmatter": "2552-05-12",
    "date_modified": "2552-06-09",
    "date_original": "2552-06-09",
    "doctype": "ประกาศ",
    "editors": [
      {
        "name": "ปริยานุช",
        "role": "ผู้จัดทำ",
        "date": "2552-06-16"
      }
    ],
    "tag": "b706-2e-2552-a0010"
  }
}