{
  "pages": [
    [
      [
        "ประกาศสำนักนายกรัฐมนตรี",
        "เรื่อง กำหนดให้การเวนคืนอสังหาริมทรัพย์ เพื่อสร้างและขยายทางหลวงแผ่นดินหมายเลข ๒๑๒",
        "สายหนองคาย - ต่อเขตเทศบาลนครอุบลราชธานีควบคุม ตอนทางเลี่ยงเมืองมุกดาหารด้านใต้",
        "เป็นกรณีที่มีความจำเป็นโดยเร่งด่วน"
      ]
    ],
    []
  ],
  "metadata": {
    "date_backmatter": "2554-12-02",
    "date_modified": "2554-12-13",
    "date_original": "2554-12-13",
    "doctype": "ประกาศ",
    "editors": [
      {
        "name": "ปริยานุช",
        "role": "ผู้จัดทำ",
        "date": "2554-12-15"
      },
      {
        "name": "ชาญ",
        "role": "ผู้ตรวจ",
        "date": "2554-12-15"
      }
    ],
    "tag": "b706-2e-2554-a0327"
  }
}