{
  "pages": [
    [
      [
        "ประกาศผู้อำนวยการทางหลวงท้องถิ่นเทศบาลตำบลโนนไทย",
        "เรื่อง ห้ามใช้ยานพาหนะที่มีน้ำหนัก น้ำหนักบรรทุก หรือน้ำหนักลงเพลาเกินกว่าที่ได้กำหนด",
        "หรือโดยที่ยานพาหนะนั้นอาจทำให้ทางหลวงเสียหายเดินบนทางหลวงท้องถิ่น",
        "ในเขตความรับผิดชอบของเทศบาลตำบลโนนไทย"
      ]
    ],
    []
  ],
  "metadata": {
    "date_backmatter": "2554-04-29",
    "date_modified": "2554-11-28",
    "date_original": "2554-11-28",
    "doctype": "ประกาศ",
    "editors": [
      {
        "name": "ปริยานุช",
        "role": "ผู้จัดทำ",
        "date": "2554-12-06"
      },
      {
        "name": "ปณตภร",
        "role": "ผู้ตรวจ",
        "date": "2554-12-12"
      }
    ],
    "tag": "b706-2e-2554-a0290"
  }
}