{
  "pages": [
    [
      [
        "ประกาศผู้อำนวยการทางหลวงท้องถิ่น",
        "เรื่อง ห้ามใช้ยานพาหนะที่มีน้ำหนัก น้ำหนักบรรทุก หรือน้ำหนักลงเพลาเกินกว่าที่ได้กำหนด",
        "หรือโดยที่ยานพาหนะนั้นอาจทำให้ทางหลวงเสียหายเดินบนทางหลวงท้องถิ่น",
        "ในเขตความรับผิดชอบขององค์การบริหารส่วนตำบลพรหมสวัสดิ์"
      ]
    ],
    []
  ],
  "metadata": {
    "date_backmatter": "2559-06-24",
    "date_modified": "2559-09-28",
    "date_original": "2559-09-28",
    "doctype": "ประกาศ",
    "editors": [
      {
        "name": "ปริยานุช",
        "role": "จัดทำ",
        "date": "2559-09-30"
      },
      {
        "name": "วริญา",
        "role": "ตรวจ",
        "date": "2559-10-04"
      }
    ],
    "tag": "b706-2e-2559-a0148"
  }
}