{
  "pages": [
    [
      [
        "ประกาศผู้อำนวยการทางหลวงท้องถิ่น",
        "เรื่อง ห้ามใช้ยานพาหนะที่มีน้ำหนัก น้ำหนักบรรทุก หรือน้ำหนักลงเพลาเกินกว่าที่ได้กำหนด",
        "หรือโดยที่ยานพาหนะนั้นอาจทำให้ทางหลวงเสียหายเดินบนทางหลวงท้องถิ่น",
        "ในเขตความรับผิดชอบขององค์การบริหารส่วนตำบลโนนคูณ"
      ]
    ],
    []
  ],
  "metadata": {
    "date_backmatter": "2559-10-03",
    "date_modified": "2560-02-14",
    "date_original": "2560-02-14",
    "doctype": "ประกาศ",
    "editors": [
      {
        "name": "ปริยานุช",
        "role": "จัดทำ",
        "date": "2560-02-17"
      },
      {
        "name": "วริญา",
        "role": "ตรวจ",
        "date": "2560-03-17"
      }
    ],
    "tag": "b706-2e-2560-a0124"
  }
}