{
  "pages": [
    [
      [
        "ประกาศผู้อำนวยการทางหลวงท้องถิ่นองค์การบริหารส่วนตำบลโคกกรวด",
        "เรื่อง ห้ามใช้ยานพาหนะที่มีน้ำหนัก น้ำหนักบรรทุก หรือน้ำหนักลงเพลาเกินกว่าที่ได้กำหนด",
        "หรือโดยที่ยานพาหนะนั้นอาจทำให้ทางหลวงเสียหาย เดินบนทางหลวงท้องถิ่น",
        "ในเขตความรับผิดชอบขององค์การบริหารส่วนตำบลโคกกรวด"
      ]
    ],
    []
  ],
  "metadata": {
    "date_backmatter": "2554-04-21",
    "date_modified": "2554-08-19",
    "date_original": "2554-08-19",
    "doctype": "ประกาศ",
    "editors": [
      {
        "name": "ปริยานุช",
        "role": "ผู้จัดทำ",
        "date": "2554-09-08"
      },
      {
        "name": "ณัฐวดี",
        "role": "ตรวจ",
        "date": "2554-09-08"
      }
    ],
    "tag": "b706-2e-2554-a0133"
  }
}