{
  "pages": [
    [
      [
        "ประกาศผู้อำนวยการทางหลวงท้องถิ่น",
        "เรื่อง ห้ามใช้ยานพาหนะที่มีน้ำหนัก น้ำหนักบรรทุก หรือน้ำหนักลงเพลา",
        "เกินกว่าที่ได้กำหนด หรือโดยที่ยานพาหนะนั้นอาจทำให้ทางหลวงเสียหาย",
        "เดินบนทางหลวงท้องถิ่นในเขตความรับผิดชอบขององค์การบริหารส่วนตำบลลำใหม่"
      ]
    ],
    []
  ],
  "metadata": {
    "date_backmatter": "2559-06-27",
    "date_modified": "2559-08-04",
    "date_original": "2559-08-04",
    "doctype": "ประกาศ",
    "editors": [
      {
        "name": "ปริยานุช",
        "role": "จัดทำ",
        "date": "2559-08-17"
      },
      {
        "name": "วิศนี",
        "role": "ตรวจ",
        "date": "2559-08-29"
      }
    ],
    "tag": "b706-2e-2559-a0115"
  }
}