{
  "pages": [
    [
      [
        "ประกาศผู้อำนวยการทางหลวงท้องถิ่นเทศบาลตำบลเมืองเก่า",
        "เรื่อง ห้ามใช้ยานพาหนะที่มีน้ำหนัก น้ำหนักบรรทุก",
        "หรือน้ำหนักลงเพลาเกินกว่าที่ได้กำหนด หรือโดยที่ยานพาหนะนั้นอาจทำให้ทางหลวงเสียหาย",
        "เดินบนทางหลวงท้องถิ่น ในเขตความรับผิดชอบของเทศบาลตำบลเมืองเก่า"
      ]
    ],
    []
  ],
  "metadata": {
    "date_backmatter": "2556-06-25",
    "date_modified": "2556-08-26",
    "date_original": "2556-08-26",
    "doctype": "ประกาศ",
    "editors": [
      {
        "name": "ปริยานุช",
        "role": "ผู้จัดทำ",
        "date": "2556-08-28"
      },
      {
        "name": "อุษมล",
        "role": "ผู้ตรวจ",
        "date": "2556-09-03"
      }
    ],
    "tag": "b706-2e-2556-a0026"
  }
}