{
  "pages": [
    [
      [
        "ประกาศผู้อำนวยการทางหลวงท้องถิ่น",
        "เรื่อง ห้ามใช้ยานพาหนะที่มีน้ำหนัก น้ำหนักบรรทุก หรือน้ำหนักลงเพลาเกินกว่าที่ได้กำหนด",
        "หรือโดยที่ยานพาหนะนั้นอาจทำให้ทางหลวงเสียหายเดินบนทางหลวงท้องถิ่น",
        "ในเขตความรับผิดชอบของเทศบาลเมืองบางคูวัด"
      ]
    ],
    []
  ],
  "metadata": {
    "date_backmatter": "2559-05-25",
    "date_modified": "2559-12-07",
    "date_original": "2559-12-07",
    "doctype": "ประกาศ",
    "editors": [
      {
        "name": "ปริยานุช",
        "role": "จัดทำ",
        "date": "2559-12-09"
      },
      {
        "name": "วริญา",
        "role": "ตรวจ",
        "date": "2559-12-09"
      }
    ],
    "tag": "b706-2e-2559-a0211"
  }
}