{
  "pages": [
    [
      [
        "ประกาศกระทรวงคมนาคม",
        "เรื่อง เปลี่ยนประเภทและกำหนดให้ทางหลวงพิเศษหมายเลข ๓๓๘",
        "สายบางกอกน้อย - นครชัยศรี เป็นทางหลวงแผ่นดิน"
      ]
    ],
    []
  ],
  "metadata": {
    "date_backmatter": "2556-09-19",
    "date_modified": "2556-10-31",
    "date_original": "2556-10-31",
    "doctype": "ประกาศ",
    "editors": [
      {
        "name": "ปริยานุช",
        "role": "ผู้จัดทำ",
        "date": "2556-11-04"
      },
      {
        "name": "อุษมล",
        "role": "ผู้ตรวจ",
        "date": "2556-11-06"
      }
    ],
    "tag": "b706-2e-2556-a0031"
  }
}