{
  "pages": [
    [
      [
        "ประกาศผู้อำนวยการทางหลวงท้องถิ่นองค์การบริหารส่วนตำบลท่าข้าม",
        "เรื่อง ห้ามใช้ยานพาหนะที่มีน้ำหนัก น้ำหนักบรรทุก หรือน้ำหนักลงเพลาเกินกว่าที่ได้กำหนด",
        "หรือโดยที่ยานพาหนะนั้นอาจทำให้ทางหลวงเสียหายเดินบนทางหลวงท้องถิ่น",
        "ในเขตความรับผิดชอบขององค์การบริหารส่วนตำบลท่าข้าม"
      ]
    ],
    []
  ],
  "metadata": {
    "date_backmatter": "2554-04-11",
    "date_modified": "2555-06-25",
    "date_original": "2555-06-25",
    "doctype": "ประกาศ",
    "editors": [
      {
        "name": "ปริยานุช",
        "role": "ผู้จัดทำ",
        "date": "2555-06-27"
      },
      {
        "name": "ปณตภร",
        "role": "ผู้ตรวจ",
        "date": "2555-07-09"
      }
    ],
    "tag": "b706-2e-2555-a0114"
  }
}