{
  "pages": [
    [
      [
        "ประกาศสำนักนายกรัฐมนตรี",
        "เรื่อง กำหนดให้การเวนคืนอสังหาริมทรัพย์",
        "ในท้องที่ตำบลทรายมูล ตำบลบางปลากด ตำบลโพธิ์แทน อำเภอองครักษ์",
        "และตำบลบ้านพริก อำเภอบ้านนา จังหวัดนครนายก",
        "เป็นกรณีที่มีความจำเป็นโดยเร่งด่วน"
      ]
    ],
    []
  ],
  "metadata": {
    "date_backmatter": "2560-03-10",
    "date_modified": "2560-03-15",
    "date_original": "2560-03-15",
    "doctype": "ประกาศ",
    "editors": [
      {
        "name": "ปริยานุช",
        "role": "จัดทำ",
        "date": "2560-03-20"
      },
      {
        "name": "ชวัลพร",
        "role": "ตรวจ",
        "date": "2560-04-20"
      }
    ],
    "tag": "b706-2e-2560-a0166"
  }
}