{
  "pages": [
    [
      [
        "ประกาศผู้อำนวยการทางหลวงท้องถิ่น",
        "เรื่อง ห้ามใช้ยานพาหนะที่มีน้ำหนัก น้ำหนักบรรทุก หรือน้ำหนักลงเพลาเกินกว่าที่ได้กำหนด",
        "หรือโดยที่ยานพาหนะนั้นอาจทำให้ทางหลวงเสียหายเดินบนทางหลวงท้องถิ่น",
        "ในเขตความรับผิดชอบของเทศบาลตำบลทองแสนขัน"
      ]
    ],
    []
  ],
  "metadata": {
    "date_backmatter": "2559-08-31",
    "date_modified": "2559-12-28",
    "date_original": "2559-12-28",
    "doctype": "ประกาศ",
    "editors": [
      {
        "name": "ชนิกา/ปริยานุช",
        "role": "จัดทำ",
        "date": "2560-01-04"
      }
    ],
    "tag": "b706-2e-2559-a0263"
  }
}