{
  "pages": [
    [
      [
        "ประกาศผู้อำนวยการทางหลวงท้องถิ่น",
        "เรื่อง ห้ามใช้ยานพาหนะที่มีน้ำหนัก น้ำหนักบรรทุก หรือน้ำหนักลงเพลาเกินกว่าที่ได้กำหนด",
        "หรือโดยที่ยานพาหนะนั้นอาจทำให้ทางหลวงเสียหายเดินบนทางหลวงท้องถิ่น",
        "ในเขตความรับผิดชอบขององค์การบริหารส่วนตำบลคลองนครเนื่องเขต"
      ]
    ],
    []
  ],
  "metadata": {
    "date_backmatter": "2559-12-20",
    "date_modified": "2560-04-19",
    "date_original": "2560-04-19",
    "doctype": "ประกาศ",
    "editors": [
      {
        "name": "ชวัลพร/ภวรรณตรี",
        "role": "จัดทำ",
        "date": "2560-04-25"
      }
    ],
    "tag": "b706-2e-2560-a0212"
  }
}