{
  "pages": [
    [
      [
        "ประกาศกรมทางหลวงชนบท",
        "เรื่อง กำหนดหลักเกณฑ์และวิธีการคัดเลือกผู้มีคุณสมบัติเบื้องต้นในการจ้าง",
        "สาขางานบำรุงทาง",
        "ประเภทงานบูรณะทางแบบ Pavement In - Place Recycling"
      ]
    ],
    []
  ],
  "metadata": {
    "date_backmatter": "2553-04-08",
    "date_modified": "2553-09-08",
    "date_original": "2553-09-08",
    "doctype": "ประกาศ",
    "editors": [
      {
        "name": "ปริยานุช",
        "role": "ผู้จัดทำ",
        "date": "2553-09-14"
      },
      {
        "name": "นันท์นภัสร์",
        "role": "ตรวจ",
        "date": "2553-09-14"
      }
    ],
    "tag": "b706-2e-2553-a0014"
  }
}