{
  "pages": [
    [
      [
        "ประกาศผู้อำนวยการทางหลวงท้องถิ่น",
        "เรื่อง ห้ามใช้ยานพาหนะที่มีน้ำหนัก น้ำหนักบรรทุก หรือน้ำหนักลงเพลาเกินกว่าที่ได้กำหนด",
        "หรือโดยที่ยานพาหนะนั้นอาจทำให้ทางหลวงเสียหายเดินบนทางหลวงท้องถิ่น",
        "ในเขตความรับผิดชอบของเทศบาลตำบลป่าเซ่า"
      ]
    ],
    []
  ],
  "metadata": {
    "date_backmatter": "2559-09-28",
    "date_modified": "2560-02-20",
    "date_original": "2560-02-20",
    "doctype": "ประกาศ",
    "editors": [
      {
        "name": "พิมพ์มาดา/ปริยานุช",
        "role": "จัดทำ",
        "date": "2560-02-23"
      }
    ],
    "tag": "b706-2e-2560-a0140"
  }
}