{
  "pages": [
    [
      [
        "ประกาศผู้อำนวยการทางหลวงท้องถิ่น",
        "เรื่อง ห้ามใช้ยานพาหนะที่มีน้ำหนัก น้ำหนักบรรทุก หรือน้ำหนักลงเพลาเกินกว่าที่ได้กำหนด",
        "หรือโดยที่ยานพาหนะนั้นอาจทำให้ทางหลวงเสียหายเดินบนทางหลวงท้องถิ่น",
        "ในเขตความรับผิดชอบขององค์การบริหารส่วนตำบลสันสลี"
      ]
    ],
    []
  ],
  "metadata": {
    "date_backmatter": "2559-08-26",
    "date_modified": "2559-12-21",
    "date_original": "2559-12-21",
    "doctype": "ประกาศ",
    "editors": [
      {
        "name": "ปริยานุช",
        "role": "จัดทำ",
        "date": "2559-12-26"
      },
      {
        "name": "ชวัลพร",
        "role": "ตรวจ",
        "date": "2560-01-25"
      }
    ],
    "tag": "b706-2e-2559-a0241"
  }
}