{
  "pages": [
    [
      [
        "ประกาศกรมทางหลวงชนบท",
        "เรื่อง มาตรฐานและลักษณะของทางหลวง รวมทั้งกำหนดเขตทางหลวง",
        "ที่จอดรถ ระยะแนวต้นไม้ และเสาพาดสายเกี่ยวกับทางหลวงท้องถิ่น",
        "พ.ศ. ๒๕๕๐"
      ]
    ],
    []
  ],
  "metadata": {
    "date_backmatter": "2550-09-28",
    "date_modified": "2550-10-18",
    "date_original": "2550-10-18",
    "doctype": "ประกาศ",
    "editors": [
      {
        "name": "วัชศักดิ์",
        "role": "ผู้จัดทำ",
        "date": "2550-10-29"
      }
    ],
    "tag": "b706-2e-2550-a0006"
  }
}