{
  "pages": [
    [
      [
        "พระราชกฤษฎีกา",
        "กำหนดเขตที่ดินในบริเวณที่ที่จะเวนคืน",
        "เพื่อขยายทางหลวงแผ่นดินหมายเลข ๓๒ สายบางปะอิน - พยุหะคีรี",
        "ตอนบ้านเตาอิฐ - บ้านบางประทุน",
        "พ.ศ. ๒๕๕๕",
        "",
        "",
        "ภูมิพลอดุลยเดช ป.ร.",
        "ให้ไว้ ณ วันที่ ๒๑ กันยายน พ.ศ. ๒๕๕๕",
        "เป็นปีที่ ๖๗ ในรัชกาลปัจจุบัน"
      ]
    ],
    []
  ],
  "metadata": {
    "date_header": "2555-09-21",
    "date_modified": "2555-10-01",
    "date_original": "2555-10-01",
    "doctype": "พระราชกฤษฎีกา",
    "editors": [
      {
        "name": "ปริยานุช",
        "role": "ผู้จัดทำ",
        "date": "2555-10-02"
      },
      {
        "name": "ชาญ",
        "role": "ผู้ตรวจ",
        "date": "2555-10-11"
      }
    ],
    "tag": "b706-2a-2555-a0019",
    "title": "กำหนดเขตที่ดินในบริเวณที่ที่จะเวนคืนเพื่อขยายทางหลวงแผ่นดินหมายเลข ๓๒ สายบางปะอิน - พยุหะคีรีตอนบ้านเตาอิฐ - บ้านบางประทุน"
  }
}