{
  "pages": [
    [
      [
        "ประกาศสำนักนายกรัฐมนตรี",
        "เรื่อง กำหนดให้การเวนคืนอสังหาริมทรัพย์ เพื่อขยายทางหลวงพิเศษหมายเลข ๗",
        "สายกรุงเทพมหานคร - บ้านฉาง รวมทางแยกไปบรรจบทางหลวงแผ่นดินหมายเลข ๓๔ (บางวัว)",
        "และทางแยกเข้าท่าเรือแหลมฉบัง ที่บ้านสวนมะพร้าว บ้านวังตะโก บ้านนาพร้าว บ้านหนองขาม",
        "บ้านนาวัง บ้านหนองน้ำเต้าลอย บ้านโป่งล่าง และบ้านหนองสมอ",
        "เป็นกรณีที่มีความจำเป็นโดยเร่งด่วน"
      ]
    ],
    []
  ],
  "metadata": {
    "date_backmatter": "2559-02-24",
    "date_modified": "2559-03-01",
    "date_original": "2559-03-01",
    "doctype": "ประกาศ",
    "editors": [
      {
        "name": "ปริยานุช",
        "role": "จัดทำ",
        "date": "2559-03-08"
      },
      {
        "name": "วริญา",
        "role": "ตรวจ",
        "date": "2559-03-08"
      }
    ],
    "tag": "b706-2e-2559-a0011"
  }
}