{
  "pages": [
    [
      [
        "ประกาศผู้อำนวยการทางหลวงท้องถิ่น",
        "เรื่อง ห้ามใช้ยานพาหนะที่มีน้ำหนัก น้ำหนักบรรทุก หรือน้ำหนักลงเพลาเกินกว่าที่ได้กำหนด",
        "หรือโดยที่ยานพาหนะนั้นอาจทำให้ทางหลวงเสียหายเดินบนทางหลวงท้องถิ่น",
        "ในเขตความรับผิดชอบของเทศบาลตำบลจักราช"
      ]
    ],
    []
  ],
  "metadata": {
    "date_backmatter": "2559-08-22",
    "date_modified": "2560-01-31",
    "date_original": "2560-01-31",
    "doctype": "ประกาศ",
    "editors": [
      {
        "name": "ปริยานุช",
        "role": "จัดทำ",
        "date": "2560-02-06"
      },
      {
        "name": "ปุณิกา",
        "role": "ตรวจ",
        "date": "2560-02-06"
      }
    ],
    "tag": "b706-2e-2560-a0023"
  }
}