{
  "pages": [
    [
      [
        "ประกาศผู้อำนวยการทางหลวงท้องถิ่นองค์การบริหารส่วนตำบลลำภู",
        "เรื่อง ห้ามใช้ยานพาหนะที่มีน้ำหนัก น้ำหนักบรรทุกหรือน้ำหนักลงเพลาเกินกว่าที่ได้กำหนด",
        "หรือโดยที่ยานพาหนะนั้นอาจทำให้ทางหลวงเสียหายเดินบนทางหลวงท้องถิ่น",
        "ในเขตความรับผิดชอบขององค์การบริหารส่วนตำบลลำภู"
      ]
    ],
    []
  ],
  "metadata": {
    "date_backmatter": "2554-08-25",
    "date_modified": "2554-10-21",
    "date_original": "2554-10-21",
    "doctype": "ประกาศ",
    "editors": [
      {
        "name": "ปริยานุช",
        "role": "ผู้จัดทำ",
        "date": "2554-10-26"
      },
      {
        "name": "ปณตภร",
        "role": "ผู้ตรวจ",
        "date": "2554-11-11"
      }
    ],
    "tag": "b706-2e-2554-a0281"
  }
}