{
  "pages": [
    [
      [
        "พระราชกฤษฎีกา",
        "กำหนดเขตที่ดินในบริเวณที่ที่จะเวนคืน",
        "ในท้องที่ตำบลหนองตำลึง อำเภอพานทอง และตำบลดอนหัวฬ่อ",
        "อำเภอเมืองชลบุรี จังหวัดชลบุรี",
        "พ.ศ. ๒๕๕๖",
        "",
        "",
        "ภูมิพลอดุลยเดช ป.ร.",
        "ให้ไว้ ณ วันที่ ๙ มกราคม พ.ศ. ๒๕๕๖",
        "เป็นปีที่ ๖๘ ในรัชกาลปัจจุบัน"
      ]
    ],
    []
  ],
  "metadata": {
    "date_header": "2556-01-09",
    "date_modified": "2556-02-22",
    "date_original": "2556-02-22",
    "doctype": "พระราชกฤษฎีกา",
    "editors": [
      {
        "name": "ปริยานุช",
        "role": "ผู้จัดทำ",
        "date": "2556-02-27"
      },
      {
        "name": "เอกฤทธิ์",
        "role": "ผู้ตรวจ",
        "date": "2556-02-27"
      }
    ],
    "tag": "b706-2a-2556-a0001",
    "title": "กำหนดเขตที่ดินในบริเวณที่ที่จะเวนคืนในท้องที่ตำบลหนองตำลึง อำเภอพานทอง และตำบลดอนหัวฬ่ออำเภอเมืองชลบุรี จังหวัดชลบุรี"
  }
}