{
  "pages": [
    [
      [
        "ประกาศผู้อำนวยการทางหลวงท้องถิ่น องค์การบริหารส่วนตำบลชัยพฤกษ์",
        "เรื่อง ห้ามใช้ยานพาหนะที่มีน้ำหนัก น้ำหนักบรรทุก หรือน้ำหนักลงเพลาเกินกว่าที่ได้กำหนด",
        "หรือโดยที่ยานพาหนะนั้นอาจทำให้ทางหลวงเสียหาย เดินบนทางหลวงท้องถิ่น",
        "ในเขตความรับผิดชอบของ องค์การบริหารส่วนตำบลชัยพฤกษ์"
      ]
    ],
    []
  ],
  "metadata": {
    "date_backmatter": "2557-05-29",
    "date_modified": "2557-12-30",
    "date_original": "2557-12-30",
    "doctype": "ประกาศ",
    "editors": [
      {
        "name": "ปริยานุช",
        "role": "ผู้จัดทำ",
        "date": "2558-01-08"
      },
      {
        "name": "วิศนี",
        "role": "ผู้ตรวจ",
        "date": "2558-01-13"
      },
      {
        "name": "จุฑามาศ",
        "role": "ปรับปรุง",
        "date": "2559-01-13"
      }
    ],
    "tag": "b706-2e-2557-a0019"
  }
}