{
  "pages": [
    [
      [
        "ประกาศผู้อำนวยการทางหลวงท้องถิ่นองค์การบริหารส่วนตำบลเขาเพิ่ม",
        "เรื่อง ห้ามใช้ยานพาหนะที่มีน้ำหนัก น้ำหนักบรรทุก หรือน้ำหนักลงเพลาเกินกว่าที่ได้กำหนด",
        "หรือโดยที่ยานพาหนะนั้นอาจทำให้ทางหลวงเสียหายเดินบนทางหลวงท้องถิ่น",
        "ในเขตความรับผิดชอบขององค์การบริหารส่วนตำบลเขาเพิ่ม"
      ]
    ],
    []
  ],
  "metadata": {
    "date_backmatter": "2554-08-05",
    "date_modified": "2555-04-05",
    "date_original": "2555-04-05",
    "doctype": "ประกาศ",
    "editors": [
      {
        "name": "ปริยานุช",
        "role": "ผู้จัดทำ",
        "date": "2555-04-11"
      },
      {
        "name": "ปณตภร",
        "role": "ผู้ตรวจ",
        "date": "2555-04-20"
      }
    ],
    "tag": "b706-2e-2555-a0086"
  }
}