{
  "pages": [
    [
      [
        "ประกาศผู้อำนวยการทางหลวงท้องถิ่น",
        "เรื่อง ห้ามใช้ยานพาหนะที่มีน้ำหนัก น้ำหนักบรรทุก หรือน้ำหนักลงเพลาเกินกว่าที่ได้กำหนด",
        "หรือโดยที่ยานพาหนะนั้นอาจทำให้ทางหลวงเสียหายเดินบนทางหลวงท้องถิ่น",
        "ในเขตความรับผิดชอบขององค์การบริหารส่วนตำบลสวนแตง"
      ]
    ],
    []
  ],
  "metadata": {
    "date_backmatter": "2559-07-14",
    "date_modified": "2559-10-10",
    "date_original": "2559-10-10",
    "doctype": "ประกาศ",
    "editors": [
      {
        "name": "วิศนี/ปริยานุช",
        "role": "จัดทำ",
        "date": "2559-10-12"
      },
      {
        "name": "นุสรา",
        "role": "ตรวจ",
        "date": "2559-12-13"
      }
    ],
    "tag": "b706-2e-2559-a0158"
  }
}