{
  "pages": [
    [
      [
        "ประกาศสำนักนายกรัฐมนตรี",
        "เรื่อง กำหนดให้การเวนคืนอสังหาริมทรัพย์ ในท้องที่ตำบลนากระตาม",
        "อำเภอท่าแซะ และตำบลหาดพันไกร ตำบลบางลึก อำเภอเมืองชุมพร จังหวัดชุมพร",
        "เป็นกรณีที่มีความจำเป็นโดยเร่งด่วน"
      ]
    ],
    []
  ],
  "metadata": {
    "date_backmatter": "2556-12-27",
    "date_modified": "2557-01-10",
    "date_original": "2557-01-10",
    "doctype": "ประกาศ",
    "editors": [
      {
        "name": "ปริยานุช",
        "role": "ผู้จัดทำ",
        "date": "2557-01-15"
      },
      {
        "name": "อุษมล",
        "role": "ผู้ตรวจ",
        "date": "2557-02-13"
      }
    ],
    "tag": "b706-2e-2557-a0002"
  }
}