{
  "pages": [
    [
      [
        "ประกาศผู้อำนวยการทางหลวงท้องถิ่นองค์การบริหารส่วนตำบลวังจันทร์",
        "เรื่อง ห้ามใช้ยานพาหนะที่มีน้ำหนัก น้ำหนักบรรทุก",
        "หรือน้ำหนักลงเพลาเกินกว่าที่ได้กำหนด หรือโดยที่ยานพาหนะนั้นอาจทำให้ทางหลวงเสียหาย",
        "เดินบนทางหลวงท้องถิ่น ในเขตความรับผิดชอบขององค์การบริหารส่วนตำบลวังจันทร์"
      ]
    ],
    []
  ],
  "metadata": {
    "date_backmatter": "2556-01-21",
    "date_modified": "2556-02-22",
    "date_original": "2556-02-22",
    "doctype": "ประกาศ",
    "editors": [
      {
        "name": "ปริยานุช",
        "role": "ผู้จัดทำ",
        "date": "2556-02-28"
      },
      {
        "name": "โชติกานต์",
        "role": "ผู้ตรวจ",
        "date": "2556-03-20"
      }
    ],
    "tag": "b706-2e-2556-a0008"
  }
}