{
  "pages": [
    [
      [
        "ประกาศผู้อำนวยการทางหลวงท้องถิ่นเทศบาลตำบลบางแพ",
        "เรื่อง ห้ามใช้ยานพาหนะที่มีน้ำหนัก น้ำหนักบรรทุกหรือน้ำหนักลงเพลาเกินกว่าที่ได้กำหนด",
        "หรือโดยที่ยานพาหนะนั้นอาจทำให้ทางหลวงเสียหายเดินบนทางหลวงท้องถิ่น",
        "ในเขตความรับผิดชอบของเทศบาลตำบลบางแพ"
      ]
    ],
    []
  ],
  "metadata": {
    "date_backmatter": "2556-07-01",
    "date_modified": "2556-08-07",
    "date_original": "2556-08-07",
    "doctype": "ประกาศ",
    "editors": [
      {
        "name": "ปริยานุช",
        "role": "ผู้จัดทำ",
        "date": "2556-08-09"
      },
      {
        "name": "โชติกานต์",
        "role": "ผู้ตรวจ",
        "date": "2556-08-09"
      }
    ],
    "tag": "b706-2e-2556-a0023"
  }
}