{
  "pages": [
    [
      [
        "ประกาศผู้อำนวยการทางหลวงชนบท",
        "เรื่อง ห้ามใช้ยานพาหนะที่มีน้ำหนัก น้ำหนักบรรทุก หรือน้ำหนักลงเพลา",
        "เกินกว่าที่ได้กำหนด หรือโดยที่ยานพาหนะนั้นอาจทำให้ทางหลวงเสียหาย เดินบนทางหลวงชนบท",
        "ในเขตความรับผิดชอบของกรมทางหลวงชนบท"
      ]
    ],
    []
  ],
  "metadata": {
    "date_backmatter": "2548-12-28",
    "date_modified": "2556-02-14",
    "date_original": "2548-12-29",
    "doctype": "ประกาศ",
    "editors": [
      {
        "name": "อุษมล",
        "role": "ผู้จัดทำ",
        "date": "2556-05-22"
      },
      {
        "name": "ณัฐพร",
        "role": "ผู้ตรวจ",
        "date": "2556-05-23"
      }
    ],
    "tag": "b706-2e-2556-a0039"
  }
}