{
  "pages": [
    [
      [
        "ประกาศสำนักนายกรัฐมนตรี",
        "เรื่อง กำหนดให้การเวนคืนอสังหาริมทรัพย์เพื่อขยายทางหลวงแผ่นดิน",
        "หมายเลข ๑๐๒๖ สายแยกทางหลวงแผ่นดินหมายเลข ๑๐๑",
        "(เวียงสา) - นาหมื่น ตอนอำเภอเวียงสา - อำเภอนาน้อย",
        "เป็นกรณีที่มีความจำเป็นโดยเร่งด่วน"
      ]
    ],
    []
  ],
  "metadata": {
    "date_backmatter": "2542-11-11",
    "date_gz_old": "2542-11-18",
    "doctype": "ประกาศ",
    "editors": [
      {
        "name": "อัมพิกา",
        "role": "แก้ไข",
        "date": "2545-05-28"
      }
    ],
    "tag": "b706-2e-2542-a010"
  }
}