{
  "pages": [
    [
      [
        "ประกาศผู้อำนวยการทางหลวงท้องถิ่นองค์การบริหารส่วนตำบลกะเฉด",
        "เรื่อง ห้ามใช้ยานพาหนะที่มีน้ำหนัก น้ำหนักบรรทุก หรือน้ำหนักลงเพลาเกินกว่าที่ได้กำหนด",
        "หรือโดยที่ยานพาหนะนั้นอาจทำให้ทางหลวงเสียหายเดินบนทางหลวงท้องถิ่น",
        "ในเขตความรับผิดชอบขององค์การบริหารส่วนตำบลกะเฉด"
      ]
    ],
    []
  ],
  "metadata": {
    "date_backmatter": "2558-06-17",
    "date_modified": "2558-08-27",
    "date_original": "2558-08-27",
    "doctype": "ประกาศ",
    "editors": [
      {
        "name": "ปริยานุช",
        "role": "จัดทำ",
        "date": "2558-08-31"
      },
      {
        "name": "นุสรา",
        "role": "ตรวจ",
        "date": "2558-11-23"
      }
    ],
    "tag": "b706-2e-2558-a0023"
  }
}