{
  "pages": [
    [
      [
        "ประกาศผู้อำนวยการทางหลวงพิเศษ",
        "เรื่อง ห้ามใช้ยานพาหนะโดยที่ยานพาหนะนั้นมีน้ำหนัก",
        "น้ำหนักบรรทุก หรือน้ำหนักลงเพลาเกินกว่าที่ได้กำหนด",
        "หรือโดยที่ยานพาหนะนั้นอาจทำให้ทางหลวงเสียหาย",
        "เดินบนทางหลวงพิเศษ"
      ]
    ],
    []
  ],
  "metadata": {
    "date_backmatter": "2546-01-28",
    "date_gz_old": "2546-01-31",
    "doctype": "ประกาศ",
    "editors": [
      {
        "name": "พชร สุขสุเมฆ/อรดา เชาวน์วโรดม",
        "role": "จัดทำ",
        "date": "2546-04-28"
      }
    ],
    "tag": "b706-2e-2546-a0003"
  }
}