{
  "pages": [
    [
      [
        "พระราชกฤษฎีกา",
        "กำหนดเขตที่ดินในบริเวณที่ที่จะเวนคืน",
        "เพื่อสร้างและขยายทางหลวงแผ่นดินหมายเลข ๔๑๓๗",
        "สายแยกทางหลวงแผ่นดินหมายเลข ๔๐๖ (ทุ่งตำเสา) - บรรจบ",
        "ทางหลวงแผ่นดินหมายเลข ๔๑๖ (แประ) ตอนบ้านซอย ๔ - บ้านสวนเทศ",
        "พ.ศ. ๒๕๕๔",
        "",
        "",
        "ภูมิพลอดุลยเดช ป.ร.",
        "ให้ไว้ ณ วันที่ ๒๕ มีนาคม พ.ศ. ๒๕๕๔",
        "เป็นปีที่ ๖๖ ในรัชกาลปัจจุบัน"
      ]
    ],
    []
  ],
  "metadata": {
    "date_header": "2554-03-25",
    "date_modified": "2554-04-05",
    "date_original": "2554-04-05",
    "doctype": "พระราชกฤษฎีกา",
    "editors": [
      {
        "name": "ปริยานุช",
        "role": "ผู้จัดทำ",
        "date": "2554-04-07"
      },
      {
        "name": "ณัฐวดี",
        "role": "ตรวจ",
        "date": "2554-04-07"
      }
    ],
    "tag": "b706-2a-2554-a0002",
    "title": "กำหนดเขตที่ดินในบริเวณที่ที่จะเวนคืนเพื่อสร้างและขยายทางหลวงแผ่นดินหมายเลข ๔๑๓๗สายแยกทางหลวงแผ่นดินหมายเลข ๔๐๖ (ทุ่งตำเสา) - บรรจบทางหลวงแผ่นดินหมายเลข ๔๑๖ (แประ) ตอนบ้านซอย ๔ - บ้านสวนเทศ"
  }
}