{
  "pages": [
    [
      [
        "ประกาศสำนักนายกรัฐมนตรี",
        "เรื่อง กำหนดให้การเวนคืนอสังหาริมทรัพย์",
        "ในท้องที่ตำบลบึง อำเภอศรีราชา จังหวัดชลบุรี",
        "เป็นกรณีที่มีความจำเป็นโดยเร่งด่วน"
      ]
    ],
    []
  ],
  "metadata": {
    "date_backmatter": "2561-03-07",
    "date_modified": "2561-03-12",
    "date_original": "2561-03-12",
    "doctype": "ประกาศ",
    "editors": [
      {
        "name": "ปวันวิทย์",
        "role": "จัดทำ",
        "date": "2561-04-20"
      }
    ],
    "tag": "b706-2e-2561-a0010"
  }
}