{
  "pages": [
    [
      [
        "ประกาศผู้อำนวยการทางหลวงท้องถิ่น",
        "เรื่อง ห้ามใช้ยานพาหนะที่มีน้ำหนัก น้ำหนักบรรทุก",
        "หรือน้ำหนักลงเพลาเกินกว่าที่ได้กำหนด หรือโดยที่ยานพาหนะนั้นอาจทำให้ทางหลวงเสียหาย",
        "เดินบนทางหลวงท้องถิ่น ในเขตความรับผิดชอบขององค์การบริหารส่วนตำบลเขาทอง"
      ]
    ],
    []
  ],
  "metadata": {
    "date_backmatter": "2559-05-31",
    "date_modified": "2559-07-21",
    "date_original": "2559-07-21",
    "doctype": "ประกาศ",
    "editors": [
      {
        "name": "วริญา/ปริยานุช",
        "role": "จัดทำ",
        "date": "2559-07-26"
      }
    ],
    "tag": "b706-2e-2559-a0040"
  }
}