{
  "pages": [
    [
      [
        "ประกาศผู้อำนวยการทางหลวงท้องถิ่นเทศบาลตำบลไร่เก่า",
        "เรื่อง ห้ามใช้ยานพาหนะที่มีน้ำหนัก น้ำหนักบรรทุก หรือน้ำหนักลงเพลาเกินกว่าที่ได้กำหนด",
        "หรือโดยที่ยานพาหนะนั้นอาจทำให้ทางหลวงเสียหาย เดินบนทางหลวงท้องถิ่น",
        "ในเขตความรับผิดชอบของเทศบาลตำบลไร่เก่า"
      ]
    ],
    []
  ],
  "metadata": {
    "date_backmatter": "2554-10-02",
    "date_modified": "2554-12-27",
    "date_original": "2554-12-27",
    "doctype": "ประกาศ",
    "editors": [
      {
        "name": "ปริยานุช",
        "role": "ผู้จัดทำ",
        "date": "2555-01-12"
      },
      {
        "name": "ณัฐพร",
        "role": "ผู้ตรวจ",
        "date": "2555-01-12"
      }
    ],
    "tag": "b706-2e-2554-a0366"
  }
}