{
  "pages": [
    [
      [
        "ประกาศสำนักนายกรัฐมนตรี",
        "เรื่อง กำหนดให้การเวนคืนอสังหาริมทรัพย์เพื่อขยายทางหลวง",
        "แผ่นดินหมายเลข ๑๐๑ สายกำแพงเพชร  ต่อเขตเทศบาลเมืองน่านควบคุม",
        "ที่บ้านเหล่า และที่บ้านร่องฟอง เป็นกรณีที่มีความจำเป็นโดยเร่งด่วน"
      ]
    ],
    []
  ],
  "metadata": {
    "date_backmatter": "2546-07-16",
    "date_modified": "2546-07-23",
    "date_original": "2546-07-23",
    "doctype": "ประกาศ",
    "editors": [
      {
        "name": "ญาณี",
        "role": "พิมพ์",
        "date": "2546-10-16"
      },
      {
        "name": "ญาณี",
        "role": "แก้ไข",
        "date": "2546-10-30"
      },
      {
        "name": "ต่อศักดิ์/พัลลภ",
        "role": "ตรวจ",
        "date": "2546-10-31"
      }
    ],
    "tag": "b706-2e-2546-a0009"
  }
}