{
  "pages": [
    [
      [
        "พระราชกฤษฎีกา",
        "กำหนดเขตที่ดินในบริเวณที่ที่จะเวนคืน",
        "ในท้องที่ตำบลบ้านกล้วย ตำบลในเมือง และตำบลท่าชัย",
        "อำเภอเมืองชัยนาท จังหวัดชัยนาท",
        "พ.ศ. ๒๕๕๕",
        "",
        "",
        "ภูมิพลอดุลยเดช ป.ร.",
        "ให้ไว้ ณ วันที่ ๓๑ สิงหาคม พ.ศ. ๒๕๕๕",
        "เป็นปีที่ ๖๗ ในรัชกาลปัจจุบัน"
      ]
    ],
    []
  ],
  "metadata": {
    "date_header": "2555-08-31",
    "date_modified": "2555-09-12",
    "date_original": "2555-09-12",
    "doctype": "พระราชกฤษฎีกา",
    "editors": [
      {
        "name": "ปริยานุช",
        "role": "ผู้จัดทำ",
        "date": "2555-09-13"
      },
      {
        "name": "ชาญ",
        "role": "ผู้ตรวจ",
        "date": "2555-09-14"
      }
    ],
    "tag": "b706-2a-2555-a0016",
    "title": "กำหนดเขตที่ดินในบริเวณที่ที่จะเวนคืนในท้องที่ตำบลบ้านกล้วย ตำบลในเมือง และตำบลท่าชัยอำเภอเมืองชัยนาท จังหวัดชัยนาท"
  }
}