{
  "pages": [
    [
      [
        "ประกาศผู้อำนวยการทางหลวงท้องถิ่น",
        "เรื่อง ห้ามใช้ยานพาหนะที่มีน้ำหนัก น้ำหนักบรรทุก หรือน้ำหนักลงเพลาเกินกว่าที่ได้กำหนด",
        "หรือโดยที่ยานพาหนะนั้นอาจทำให้ทางหลวงเสียหายเดินบนทางหลวงท้องถิ่น",
        "ในเขตความรับผิดชอบขององค์การบริหารส่วนตำบลชุมแสง"
      ]
    ],
    []
  ],
  "metadata": {
    "date_backmatter": "2561-04-02",
    "date_modified": "2561-05-17",
    "date_original": "2561-05-17",
    "doctype": "ประกาศ",
    "editors": [
      {
        "name": "ปุณิกา",
        "role": "จัดทำ",
        "date": "2561-09-07"
      }
    ],
    "tag": "b706-2e-2561-a0020"
  }
}