{
  "pages": [
    [
      [
        "พระราชกฤษฎีกา",
        "กำหนดเขตที่ดินในบริเวณที่ที่จะเวนคืน",
        "เพื่อสร้างทางหลวงแผ่นดินหมายเลข ๒๙๐ สายถนนวงแหวนรอบเมืองนครราชสีมา",
        "ตอนบ้านห้วยตะคร้อ - บ้านบึงขามทะเลสอ",
        "พ.ศ. ๒๕๕๙",
        "",
        "",
        "ภูมิพลอดุลยเดช ป.ร.",
        "ให้ไว้ ณ วันที่ ๑๓ มิถุนายน พ.ศ. ๒๕๕๙",
        "เป็นปีที่ ๗๑ ในรัชกาลปัจจุบัน"
      ]
    ],
    []
  ],
  "metadata": {
    "date_header": "2559-06-13",
    "date_modified": "2559-06-21",
    "date_original": "2559-06-21",
    "doctype": "พระราชกฤษฎีกา",
    "editors": [
      {
        "name": "ปริยานุช",
        "role": "จัดทำ",
        "date": "2559-06-22"
      },
      {
        "name": "ปุณิกา",
        "role": "ตรวจ",
        "date": "2559-06-22"
      }
    ],
    "tag": "b706-2a-2559-a0006",
    "title": "กำหนดเขตที่ดินในบริเวณที่ที่จะเวนคืนเพื่อสร้างทางหลวงแผ่นดินหมายเลข ๒๙๐ สายถนนวงแหวนรอบเมืองนครราชสีมาตอนบ้านห้วยตะคร้อ - บ้านบึงขามทะเลสอ"
  }
}