{
  "pages": [
    [
      [
        "พระราชกฤษฎีกา",
        "กำหนดเขตที่ดินในบริเวณที่ที่จะเวนคืน",
        "เพื่อขยายทางหลวงแผ่นดินหมายเลข ๓๐๙๗",
        "สายแยกทางหลวงแผ่นดินหมายเลข ๔ (พระประโทน) - บรรจบทางหลวงพิเศษ",
        "หมายเลข ๓๕ (บ้านปอ) ที่บ้านศรีพิพัฒน์ บ้านหนองบัว บ้านหลักสาม",
        "บ้านทุ่งอินทรีย์ และบ้านท้ายวัดใหญ่",
        "พ.ศ. ๒๕๕๖",
        "",
        "",
        "ภูมิพลอดุลยเดช ป.ร.",
        "ให้ไว้ ณ วันที่ ๑๘ พฤศจิกายน พ.ศ. ๒๕๕๖",
        "เป็นปีที่ ๖๘ ในรัชกาลปัจจุบัน"
      ]
    ],
    []
  ],
  "metadata": {
    "date_header": "2556-11-18",
    "date_modified": "2556-11-22",
    "date_original": "2556-11-22",
    "doctype": "พระราชกฤษฎีกา",
    "editors": [
      {
        "name": "ปริยานุช",
        "role": "ผู้จัดทำ",
        "date": "2556-11-26"
      },
      {
        "name": "ณัฐพร",
        "role": "ผู้ตรวจ",
        "date": "2556-11-26"
      }
    ],
    "tag": "b706-2a-2556-a0015",
    "title": "กำหนดเขตที่ดินในบริเวณที่ที่จะเวนคืนเพื่อขยายทางหลวงแผ่นดินหมายเลข ๓๐๙๗สายแยกทางหลวงแผ่นดินหมายเลข ๔ (พระประโทน) - บรรจบทางหลวงพิเศษหมายเลข ๓๕ (บ้านปอ) ที่บ้านศรีพิพัฒน์ บ้านหนองบัว บ้านหลักสามบ้านทุ่งอินทรีย์ และบ้านท้ายวัดใหญ่"
  }
}