{
  "pages": [
    [
      [
        "ประกาศผู้อำนวยการทางหลวงท้องถิ่นองค์การบริหารส่วนตำบลนาวังหิน",
        "เรื่อง ห้ามใช้ยานพาหนะที่มีน้ำหนัก น้ำหนักบรรทุก",
        "หรือน้ำหนักลงเพลาเกินกว่าที่ได้กำหนด หรือโดยที่ยานพาหนะนั้นอาจทำให้ทางหลวงเสียหาย",
        "เดินบนทางหลวงท้องถิ่น ในเขตความรับผิดชอบขององค์การบริหารส่วนตำบลนาวังหิน"
      ]
    ],
    []
  ],
  "metadata": {
    "date_backmatter": "2557-02-24",
    "date_modified": "2557-05-14",
    "date_original": "2557-05-14",
    "doctype": "ประกาศ",
    "editors": [
      {
        "name": "ปริยานุช",
        "role": "ผู้จัดทำ",
        "date": "2557-05-26"
      },
      {
        "name": "จุฑามาศ",
        "role": "ผู้ตรวจ",
        "date": "2557-06-03"
      }
    ],
    "tag": "b706-2e-2557-a0007"
  }
}