{
  "pages": [
    [
      [
        "ประกาศผู้อำนวยการทางหลวงท้องถิ่นองค์การบริหารส่วนตำบลวังม่วง",
        "เรื่อง ห้ามใช้ยานพาหนะบนทางหลวงโดยที่ยานพาหนะนั้นมีน้ำหนัก น้ำหนักบรรทุก",
        "หรือน้ำหนักลงเพลาเกินกว่าที่กำหนดหรือโดยที่ยานพาหนะนั้นอาจทำให้ทางหลวง",
        "ในเขตองค์การบริหารส่วนตำบลวังม่วงเสียหาย"
      ]
    ],
    []
  ],
  "metadata": {
    "date_backmatter": "2552-08-10",
    "date_modified": "2552-09-25",
    "date_original": "2552-09-25",
    "doctype": "ประกาศ",
    "editors": [
      {
        "name": "ปริยานุช",
        "role": "ผู้จัดทำ",
        "date": "2552-10-08"
      },
      {
        "name": "นันท์นภัสร์",
        "role": "ตรวจ",
        "date": "2552-10-12"
      }
    ],
    "tag": "b706-2e-2552-a0035"
  }
}