{
  "pages": [
    [
      [
        "ประกาศผู้อำนวยการทางหลวงท้องถิ่นองค์การบริหารส่วนตำบลโคกแย้",
        "เรื่อง ห้ามใช้ยานพาหนะที่มีน้ำหนัก น้ำหนักบรรทุก หรือน้ำหนักลงเพลาเกินกว่าที่ได้กำหนด",
        "หรือโดยที่ยานพาหนะนั้นอาจทำให้ทางหลวงเสียหายเดินบนทางหลวงท้องถิ่น",
        "ในเขตความรับผิดชอบขององค์การบริหารส่วนตำบลโคกแย้"
      ]
    ],
    []
  ],
  "metadata": {
    "date_backmatter": "2557-05-20",
    "date_modified": "2557-06-13",
    "date_original": "2557-06-13",
    "doctype": "ประกาศ",
    "editors": [
      {
        "name": "ปริยานุช",
        "role": "ผู้จัดทำ",
        "date": "2557-06-18"
      },
      {
        "name": "ปริญสินีย์",
        "role": "ผู้ตรวจ",
        "date": "2557-06-18"
      }
    ],
    "tag": "b706-2e-2557-a0010"
  }
}