{
  "pages": [
    [
      [
        "ประกาศสำนักนายกรัฐมนตรี",
        "เรื่อง กำหนดให้การเวนคืนอสังหาริมทรัพย์",
        "เพื่อสร้างทางหลวงท้องถิ่น สายเชื่อมระหว่างซอยอิสรภาพ ๒๑ กับซอยอิสรภาพ ๑๕",
        "เป็นกรณีที่มีความจำเป็นโดยเร่งด่วน"
      ]
    ],
    []
  ],
  "metadata": {
    "date_backmatter": "2550-11-28",
    "date_modified": "2550-12-21",
    "date_original": "2550-12-21",
    "doctype": "ประกาศ",
    "editors": [
      {
        "name": "วัชศักดิ์",
        "role": "ผู้จัดทำ",
        "date": "2551-01-15"
      }
    ],
    "tag": "b706-2e-2550-a0009"
  }
}