{
  "pages": [
    [
      [
        "ประกาศผู้อำนวยการทางหลวงท้องถิ่น",
        "เรื่อง ห้ามใช้ยานพาหนะที่มีน้ำหนัก น้ำหนักบรรทุก หรือน้ำหนักลงเพลาเกินกว่าที่ได้กำหนด",
        "หรือโดยที่ยานพาหนะนั้นอาจทำให้ทางหลวงเสียหายเดินบนทางหลวงท้องถิ่น",
        "ในเขตความรับผิดชอบขององค์การบริหารส่วนตำบลแดงใหญ่"
      ]
    ],
    []
  ],
  "metadata": {
    "date_backmatter": "2559-11-23",
    "date_modified": "2560-04-03",
    "date_original": "2560-04-03",
    "doctype": "ประกาศ",
    "editors": [
      {
        "name": "พรวิภา/ภวรรณตรี",
        "role": "จัดทำ",
        "date": "2560-04-07"
      },
      {
        "name": "นุสรา",
        "role": "ตรวจ",
        "date": "2560-05-22"
      }
    ],
    "tag": "b706-2e-2560-a0181"
  }
}