{
  "pages": [
    [
      [
        "ประกาศผู้อำนวยการทางหลวงท้องถิ่น องค์การบริหารส่วนตำบลสองสลึง",
        "เรื่อง ห้ามใช้ยานพาหนะที่มีน้ำหนัก น้ำหนักบรรทุก หรือน้ำหนักลงเพลาเกินกว่าที่ได้กำหนด",
        "หรือโดยที่ยานพาหนะนั้นอาจทำให้ทางหลวงเสียหาย เดินบนทางหลวงท้องถิ่น",
        "ในเขตความรับผิดชอบขององค์การบริหารส่วนตำบลสองสลึง"
      ]
    ],
    []
  ],
  "metadata": {
    "date_backmatter": "2552-03-09",
    "date_modified": "2552-07-17",
    "date_original": "2552-07-17",
    "doctype": "ประกาศ",
    "editors": [
      {
        "name": "ปริยานุช",
        "role": "ผู้จัดทำ",
        "date": "2552-07-31"
      }
    ],
    "tag": "b706-2e-2552-a0020"
  }
}