{
  "pages": [
    [
      [
        "ประกาศผู้อำนวยการทางหลวงท้องถิ่นองค์การบริหารส่วนตำบลบางกระทุ่ม",
        "เรื่อง ห้ามใช้ยานพาหนะที่มีน้ำหนัก น้ำหนักบรรทุก",
        "หรือน้ำหนักลงเพลาเกินกว่าที่ได้กำหนด หรือโดยที่ยานพาหนะนั้นอาจทำให้ทางหลวงเสียหาย",
        "เดินบนทางหลวงท้องถิ่น ในเขตความรับผิดชอบขององค์การบริหารส่วนตำบลบางกระทุ่ม"
      ]
    ],
    []
  ],
  "metadata": {
    "date_backmatter": "2554-03-04",
    "date_modified": "2554-08-22",
    "date_original": "2554-08-22",
    "doctype": "ประกาศ",
    "editors": [
      {
        "name": "ปริยานุช",
        "role": "ผู้จัดทำ",
        "date": "2554-09-14"
      },
      {
        "name": "ปณตภร",
        "role": "ผู้ตรวจ",
        "date": "2554-10-10"
      }
    ],
    "tag": "b706-2e-2554-a0148"
  }
}