{
  "pages": [
    [
      [
        "พระราชกฤษฎีกา",
        "กำหนดเขตที่ดินในบริเวณที่ที่จะเวนคืน",
        "ในท้องที่ตำบลศาลายา อำเภอพุทธมณฑล จังหวัดนครปฐม",
        "พ.ศ. ๒๕๕๘",
        "",
        "",
        "ภูมิพลอดุลยเดช ป.ร.",
        "ให้ไว้ ณ วันที่ ๒๑ เมษายน พ.ศ. ๒๕๕๘",
        "เป็นปีที่ ๗๐ ในรัชกาลปัจจุบัน"
      ]
    ],
    []
  ],
  "metadata": {
    "date_header": "2558-04-21",
    "date_modified": "2558-04-30",
    "date_original": "2558-04-30",
    "doctype": "พระราชกฤษฎีกา",
    "editors": [
      {
        "name": "ปริยานุช",
        "role": "ผู้จัดทำ",
        "date": "2558-05-12"
      },
      {
        "name": "นุสรา",
        "role": "ผู้ตรวจ",
        "date": "2558-05-12"
      }
    ],
    "tag": "b706-2a-2558-a0003",
    "title": "กำหนดเขตที่ดินในบริเวณที่ที่จะเวนคืนในท้องที่ตำบลศาลายา อำเภอพุทธมณฑล จังหวัดนครปฐม"
  }
}