{
  "pages": [
    [
      [
        "กฎกระทรวง",
        "กำหนดทุนขั้นต่ำและระยะเวลาในการนำหรือส่งทุนขั้นต่ำเข้ามาในประเทศไทย",
        "พ.ศ. ๒๕๔๕"
      ]
    ],
    []
  ],
  "metadata": {
    "date_backmatter": "2545-10-20",
    "date_modified": "2552-08-31",
    "date_original": "2545-10-30",
    "doctype": "กฎกระทรวง",
    "editors": [
      {
        "name": "พิมลกร",
        "role": "ผู้จัดทำ",
        "date": "2556-09-12"
      },
      {
        "name": "วิชพงษ์",
        "role": "ผู้ตรวจ",
        "date": "2556-09-30"
      }
    ],
    "tag": "a1102-2b-9999-update"
  }
}