{
  "pages": [
    [
      [
        "พระราชบัญญัติ",
        "การประกอบธุรกิจของคนต่างด้าว",
        "พ.ศ. ๒๕๔๒",
        "",
        "",
        "ภูมิพลอดุลยเดช ป.ร.",
        "ให้ไว้ ณ วันที่ ๒๔ พฤศจิกายน พ.ศ. ๒๕๔๒",
        "เป็นปีที่ ๕๔ ในรัชกาลปัจจุบัน"
      ]
    ],
    []
  ],
  "metadata": {
    "date_backmatter": "2515-11-24",
    "date_header": "2542-11-24",
    "date_modified": "2542-12-04",
    "date_original": "2542-12-04",
    "doctype": "พระราชบัญญัติ",
    "editors": [
      {
        "name": "สุนันทา/นวพร",
        "role": "จัดทำ",
        "date": "2546-05-21"
      },
      {
        "name": "วศิน",
        "role": "แก้ไข",
        "date": "2552-04-23"
      },
      {
        "name": "โชติกานต์",
        "role": "ปรับปรุง",
        "date": "2559-08-29"
      }
    ],
    "tag": "a1102-20-2542-a0001",
    "title": "การประกอบธุรกิจของคนต่างด้าว"
  }
}