{
  "pages": [
    [
      [
        "กฎกระทรวง",
        "กำหนดค่าธรรมเนียมการประกอบธุรกิจของคนต่างด้าว",
        "พ.ศ. ๒๕๔๔"
      ]
    ],
    []
  ],
  "metadata": {
    "date_backmatter": "2544-11-08",
    "date_modified": "2556-11-23",
    "date_original": "2556-11-23",
    "doctype": "กฎกระทรวง",
    "editors": [
      {
        "name": "ภคินี/พิมพ์",
        "role": "แก้ไข",
        "date": "2545-05-07"
      },
      {
        "name": "พิมลกร",
        "role": "ปรับปรุง",
        "date": "2556-09-13"
      },
      {
        "name": "วิชพงษ์",
        "role": "ตรวจ",
        "date": "2556-09-30"
      }
    ],
    "tag": "a1102-2b-2544-a003"
  }
}