{
  "pages": [
    [
      [
        "กฎกระทรวง",
        "กำหนดทุนขั้นต่ำและระยะเวลาในการนำหรือส่งทุนขั้นต่ำเข้ามาในประเทศไทย",
        "พ.ศ. ๒๕๔๕"
      ]
    ],
    []
  ],
  "metadata": {
    "date_backmatter": "2545-10-20",
    "date_modified": "2545-10-30",
    "date_original": "2545-10-30",
    "doctype": "กฎกระทรวง",
    "editors": [
      {
        "name": "พรพิมล/พิมพ์",
        "role": "แก้ไข",
        "date": "2545-12-12"
      },
      {
        "name": "พิมลกร",
        "role": "ปรับปรุง",
        "date": "2556-09-12"
      },
      {
        "name": "วิชพงษ์",
        "role": "ตรวจ",
        "date": "2556-09-30"
      }
    ],
    "tag": "a1102-2b-2545-a0001"
  }
}