{
  "pages": [
    [
      [
        "ระเบียบสำนักนายกรัฐมนตรี",
        "ว่าด้วยการจัดตั้งศูนย์บริการวีซ่าและใบอนุญาตทำงาน (ฉบับที่ ๓)",
        "พ.ศ. ๒๕๔๔"
      ]
    ],
    []
  ],
  "metadata": {
    "date_backmatter": "2544-01-24",
    "date_modified": "2544-02-07",
    "date_original": "2544-02-07",
    "editors": [
      {
        "name": "พิมลกร",
        "role": "พิมพ์",
        "date": "2556-09-16"
      },
      {
        "name": "วิชพงษ์",
        "role": "ตรวจ",
        "date": "2556-09-19"
      }
    ],
    "tag": "a1102-2g-2544-a0002"
  }
}