{
  "pages": [
    [
      [
        "กฎกระทรวง",
        "กำหนดหลักเกณฑ์และวิธีการในการแจ้งเพื่อขอหนังสือรับรอง",
        "การประกอบธุรกิจของคนต่างด้าว",
        "พ.ศ. ๒๕๔๖"
      ]
    ],
    []
  ],
  "metadata": {
    "date_backmatter": "2515-11-24",
    "date_modified": "2546-05-16",
    "date_original": "2546-05-16",
    "doctype": "กฎกระทรวง",
    "editors": [
      {
        "name": "ศุภชัย",
        "role": "แก้ไข",
        "date": "2546-08-27"
      },
      {
        "name": "พิมลกร",
        "role": "ปรับปรุง",
        "date": "2556-09-12"
      },
      {
        "name": "วิชพงษ์",
        "role": "ตรวจ",
        "date": "2556-09-30"
      }
    ],
    "tag": "a1102-2b-2546-a0003"
  }
}