{
  "pages": [
    [
      [
        "พระราชกฤษฎีกา",
        "กำหนดเจ้าหน้าที่ของรัฐและผู้มีอำนาจออกบัตรประจำตัวเจ้าหน้าที่ของรัฐ",
        "ตามพระราชบัญญัติบัตรประจำตัวเจ้าหน้าที่ของรัฐ",
        "พ.ศ. ๒๕๔๒ (ฉบับที่ ๗)",
        "พ.ศ. ๒๕๔๕",
        "",
        "",
        "ภูมิพลอดุลยเดช ป.ร.",
        "ให้ไว้ ณ วันที่ ๓๐ กันยายน พ.ศ. ๒๕๔๕",
        "เป็นปีที่ ๕๗ ในรัชกาลปัจจุบัน"
      ]
    ],
    []
  ],
  "metadata": {
    "date_header": "2545-09-30",
    "date_modified": "2549-06-14",
    "date_original": "2545-09-30",
    "doctype": "พระราชกฤษฎีกา",
    "editors": [
      {
        "name": "ปณตภร",
        "role": "ผู้จัดทำ",
        "date": "2555-10-16"
      }
    ],
    "tag": "ba17-2a-2549-a0002",
    "title": "กำหนดเจ้าหน้าที่ของรัฐและผู้มีอำนาจออกบัตรประจำตัวเจ้าหน้าที่ของรัฐตามพระราชบัญญัติบัตรประจำตัวเจ้าหน้าที่ของรัฐพ.ศ. ๒๕๔๒ (ฉบับที่ ๗)"
  }
}