{
  "pages": [
    [
      [
        "พระราชกฤษฎีกา",
        "กำหนดเจ้าหน้าที่ของรัฐและผู้มีอำนาจออกบัตรประจำตัว",
        "เจ้าหน้าที่ของรัฐตามพระราชบัญญัติบัตรประจำตัว",
        "เจ้าหน้าที่ของรัฐ พ.ศ. ๒๕๔๒ (ฉบับที่ ๑๐)",
        "พ.ศ. ๒๕๔๙",
        "",
        "",
        "ภูมิพลอดุลยเดช ป.ร.",
        "ให้ไว้ ณ วันที่ ๒๔ พฤษภาคม พ.ศ. ๒๕๔๙",
        "เป็นปีที่ ๖๑ ในรัชกาลปัจจุบัน"
      ]
    ],
    []
  ],
  "metadata": {
    "date_header": "2549-05-24",
    "date_modified": "2549-06-14",
    "date_original": "2549-06-14",
    "doctype": "พระราชกฤษฎีกา",
    "editors": [
      {
        "name": "ปณต",
        "role": "ปรับปรุง",
        "date": "2553-11-08"
      },
      {
        "name": "ปณตภร",
        "role": "ปรับปรุง",
        "date": "2555-10-15"
      }
    ],
    "tag": "ba17-2a-2549-a0001",
    "title": "กำหนดเจ้าหน้าที่ของรัฐและผู้มีอำนาจออกบัตรประจำตัวเจ้าหน้าที่ของรัฐตามพระราชบัญญัติบัตรประจำตัวเจ้าหน้าที่ของรัฐ พ.ศ. ๒๕๔๒ (ฉบับที่ ๑๐)"
  }
}