{
  "pages": [
    [
      [
        "ระเบียบกระทรวงการคลัง",
        "ว่าด้วยเงินทำขวัญข้าราชการและลูกจ้าง",
        "พ.ศ. ๒๕๔๖"
      ]
    ],
    []
  ],
  "metadata": {
    "date_backmatter": "2547-01-23",
    "date_modified": "2547-01-30",
    "date_original": "2547-01-30",
    "editors": [
      {
        "name": "ญาณี",
        "role": "พิมพ์",
        "date": "2547-05-18"
      },
      {
        "name": "ศุภสรณ์/ทรงยศ",
        "role": "ตรวจ",
        "date": "2547-05-26"
      },
      {
        "name": "ปริญสินีย์",
        "role": "ปรับปรุง",
        "date": "2557-03-03"
      }
    ],
    "tag": "ca01-2g-2547-a0001"
  }
}