{
  "pages": [
    [
      [
        "ประกาศคณะกรรมการกลางว่าด้วยราคาสินค้าและบริการ",
        "ฉบับที่ ๔๐ พ.ศ. ๒๕๖๐",
        "เรื่อง การแสดงและแจ้งค่าตอบแทน ต้นทุน ค่าใช้จ่าย หลักเกณฑ์ วิธีการ",
        "และเงื่อนไขเกี่ยวกับการให้สิทธิในการเผยแพร่งานลิขสิทธิ์เพลงเพื่อการค้า"
      ]
    ],
    []
  ],
  "metadata": {
    "date_backmatter": "2560-01-24",
    "date_modified": "2560-03-17",
    "date_original": "2560-03-17",
    "doctype": "ประกาศ",
    "editors": [
      {
        "name": "ปริยานุช",
        "role": "จัดทำ",
        "date": "2560-03-20"
      },
      {
        "name": "ชวัลพร",
        "role": "ตรวจ",
        "date": "2560-04-10"
      }
    ],
    "tag": "c753-2e-2560-a0049"
  }
}