{
  "pages": [
    [
      [
        "ประกาศสำนักงานคณะกรรมการกลางว่าด้วยราคาสินค้าและบริการ",
        "เรื่อง การกำหนดช่วงระยะเวลากำกับดูแล",
        "และติดตามความเคลื่อนไหวราคาสินค้าและบริการเป็นกรณีพิเศษ",
        "(ฉบับที่ ๔๓)"
      ]
    ],
    []
  ],
  "metadata": {
    "date_backmatter": "2557-10-29",
    "date_modified": "2557-11-19",
    "date_original": "2557-11-19",
    "doctype": "ประกาศ",
    "editors": [
      {
        "name": "ปริยานุช",
        "role": "ผู้จัดทำ",
        "date": "2557-11-20"
      },
      {
        "name": "กฤษดายุทธ",
        "role": "ผู้ตรวจ",
        "date": "2557-11-20"
      }
    ],
    "tag": "c753-2e-2557-a0064"
  }
}