{
  "pages": [
    [
      [
        "ประกาศคณะกรรมการกลางว่าด้วยราคาสินค้าและบริการ",
        "เรื่อง การแจ้งปริมาณ สถานที่เก็บ และจัดทำบัญชีคุมสินค้าข้าวโพดเลี้ยงสัตว์ ปี ๒๕๕๘",
        "(ฉบับที่ ๒)"
      ]
    ],
    []
  ],
  "metadata": {
    "date_backmatter": "2558-10-22",
    "date_modified": "2558-11-02",
    "date_original": "2558-11-02",
    "doctype": "ประกาศ",
    "editors": [
      {
        "name": "ปริยานุช/กัญฑรัตน์",
        "role": "จัดทำ",
        "date": "2558-11-11"
      },
      {
        "name": "",
        "role": "ตรวจ",
        "date": "2558-11-11"
      }
    ],
    "tag": "c753-2e-2558-a0076"
  }
}