{
  "pages": [
    [
      [
        "ประกาศคณะกรรมการกลางว่าด้วยราคาสินค้าและบริการ",
        "เรื่อง การควบคุมการขนย้ายและจัดทำบัญชีคุมข้าวสารในสต็อกของรัฐ",
        "ซึ่งคณะกรรมการนโยบายและบริหารจัดการข้าวมีมติเห็นชอบให้ระบายสู่อุตสาหกรรม",
        "ปี ๒๕๕๘"
      ]
    ],
    []
  ],
  "metadata": {
    "date_backmatter": "2558-11-13",
    "date_modified": "2558-12-16",
    "date_original": "2558-12-16",
    "doctype": "ประกาศ",
    "editors": [
      {
        "name": "ปริยานุช ,กัญฑรัตน์",
        "role": "จัดทำ",
        "date": "2558-12-22"
      },
      {
        "name": "นุสรา",
        "role": "ตรวจ",
        "date": "2558-12-22"
      }
    ],
    "tag": "c753-2e-2558-a0088"
  }
}