{
  "pages": [
    [
      [
        "ประกาศสำนักงานคณะกรรมการส่วนจังหวัดว่าด้วยราคาสินค้าและบริการ",
        "จังหวัดร้อยเอ็ด",
        "เรื่อง การกำหนดช่วงระยะเวลากำกับดูแลและติดตาม",
        "ความเคลื่อนไหวราคาสินค้าและบริการเป็นกรณีพิเศษ",
        "(ฉบับที่ ๓๔)"
      ]
    ],
    []
  ],
  "metadata": {
    "date_backmatter": "2557-02-28",
    "date_modified": "2557-03-14",
    "date_original": "2557-03-14",
    "doctype": "ประกาศ",
    "editors": [
      {
        "name": "ปริยานุช",
        "role": "ผู้จัดทำ",
        "date": "2557-03-25"
      },
      {
        "name": "อุษมล",
        "role": "ผู้ตรวจ",
        "date": "2557-04-09"
      }
    ],
    "tag": "c753-2e-2557-a0051"
  }
}