{
  "pages": [
    [
      [
        "ประกาศสำนักงานคณะกรรมการส่วนจังหวัดว่าด้วยราคาสินค้าและบริการ",
        "จังหวัดสมุทรสงคราม",
        "เรื่อง การกำหนดช่วงระยะเวลาและกำกับดูแลและติดตาม",
        "ความเคลื่อนไหวราคาสินค้าและบริการเป็นกรณีพิเศษ",
        "(ฉบับที่ ๓๓)"
      ]
    ],
    []
  ],
  "metadata": {
    "date_backmatter": "2557-08-07",
    "date_modified": "2557-09-05",
    "date_original": "2557-09-05",
    "doctype": "ประกาศ",
    "editors": [
      {
        "name": "ปริยานุช",
        "role": "ผู้จัดทำ",
        "date": "2557-09-25"
      },
      {
        "name": "จุฑามาศ",
        "role": "ผู้ตรวจ",
        "date": "2557-10-14"
      }
    ],
    "tag": "c753-2e-2557-a0062"
  }
}