{
  "pages": [
    [
      [
        "ประกาศสำนักงานคณะกรรมการกลางว่าด้วยราคาสินค้าและบริการ",
        "เรื่อง แบบแจ้งตามประกาศคณะกรรมการกลางว่าด้วยราคาสินค้าและบริการ ปี ๒๕๕๘",
        "(ฉบับที่ ๔)"
      ]
    ],
    []
  ],
  "metadata": {
    "date_backmatter": "2558-09-21",
    "date_modified": "2558-12-28",
    "date_original": "2558-12-28",
    "doctype": "ประกาศ",
    "editors": [
      {
        "name": "ปุณิกา/ปริยานุช",
        "role": "จัดทำ",
        "date": "2559-01-07"
      }
    ],
    "tag": "c753-2e-2558-a0096"
  }
}