{
  "pages": [
    [
      [
        "ประกาศคณะกรรมการกลางว่าด้วยราคาสินค้าและบริการ",
        "เรื่อง การควบคุมการขนย้ายข้าวเปลือก ข้าวสาร ปี ๒๕๕๘"
      ]
    ],
    []
  ],
  "metadata": {
    "date_backmatter": "2558-01-26",
    "date_modified": "2558-12-16",
    "date_original": "2558-03-18",
    "doctype": "ประกาศ",
    "editors": [
      {
        "name": "ปริยานุช",
        "role": "ผู้จัดทำ",
        "date": "2558-03-19"
      },
      {
        "name": "วันทิตา",
        "role": "ผู้ตรวจ",
        "date": "2558-03-20"
      },
      {
        "name": "ชุติมา",
        "role": "ปรัปปรุง",
        "date": "2560-11-20"
      }
    ],
    "tag": "c753-2e-9987-update"
  }
}