{
  "pages": [
    [
      [
        "ประกาศสำนักงานคณะกรรมการกลางว่าด้วยราคาสินค้าและบริการ",
        "เรื่อง การกำหนดช่วงระยะเวลากำกับดูแล",
        "และติดตามความเคลื่อนไหวราคาสินค้าและบริการเป็นกรณีพิเศษ",
        "(ฉบับที่ ๔๒)"
      ]
    ],
    []
  ],
  "metadata": {
    "date_backmatter": "2557-07-28",
    "date_modified": "2557-09-04",
    "date_original": "2557-09-04",
    "doctype": "ประกาศ",
    "editors": [
      {
        "name": "ปริยานุช",
        "role": "ผู้จัดทำ",
        "date": "2557-09-25"
      },
      {
        "name": "จุฑามาศ",
        "role": "ผู้ตรวจ",
        "date": "2557-10-14"
      }
    ],
    "tag": "c753-2e-2557-a0061"
  }
}