{
  "pages": [
    [
      [
        "ระเบียบสำนักงานคณะกรรมการกลางว่าด้วยราคาสินค้าและบริการ",
        "ว่าด้วยการรับรองการขนย้ายข้าวเปลือก ข้าวสาร จากท้องที่อื่นในราชอาณาจักร",
        "โดยใช้ท้องที่อำเภอควบคุมเป็นทางผ่านไปยังสถานที่ปลายทาง",
        "พ.ศ. ๒๕๖๑"
      ]
    ],
    []
  ],
  "metadata": {
    "date_backmatter": "2561-01-24",
    "date_modified": "2561-03-12",
    "date_original": "2561-03-12",
    "editors": [
      {
        "name": "ปวันวิทย์",
        "role": "จัดทำ",
        "date": "2561-04-27"
      }
    ],
    "tag": "c753-2g-2561-a0001"
  }
}