{
  "pages": [
    [
      [
        "ประกาศคณะกรรมการกลางว่าด้วยราคาสินค้าและบริการ",
        "ฉบับที่ ๔๗ พ.ศ. ๒๕๖๐",
        "เรื่อง การแจ้งราคา ปริมาณ สถานที่เก็บ และจัดทำบัญชีคุมสินค้าข้าวโพดเลี้ยงสัตว์"
      ]
    ],
    []
  ],
  "metadata": {
    "date_backmatter": "2560-08-28",
    "date_modified": "2560-09-06",
    "date_original": "2560-09-06",
    "doctype": "ประกาศ",
    "editors": [
      {
        "name": "พรวิภา/อัญชลี",
        "role": "จัดทำ",
        "date": "2560-09-08"
      },
      {
        "name": "ปริญสินีย์",
        "role": "ตรวจ",
        "date": "2560-10-30"
      }
    ],
    "tag": "c753-2e-2560-a0068"
  }
}