{
  "pages": [
    [
      [
        "ประกาศสำนักงานคณะกรรมการกลางว่าด้วยราคาสินค้าและบริการ",
        "เรื่อง หลักเกณฑ์และวิธีการในการขออนุญาต การอนุญาต แบบหนังสืออนุญาต",
        "และวิธีการขนย้ายข้าวโพดเลี้ยงสัตว์ ปี ๒๕๕๗"
      ]
    ],
    []
  ],
  "metadata": {
    "date_backmatter": "2557-01-28",
    "date_modified": "2557-02-12",
    "date_original": "2557-02-12",
    "doctype": "ประกาศ",
    "editors": [
      {
        "name": "ปริยานุช",
        "role": "ผู้จัดทำ",
        "date": "2557-02-18"
      },
      {
        "name": "จุฑามาศ",
        "role": "ผู้ตรวจ",
        "date": "2557-03-13"
      }
    ],
    "tag": "c753-2e-2557-a0045"
  }
}