{
  "pages": [
    [
      [
        "ประกาศสำนักงานคณะกรรมการส่วนจังหวัดว่าด้วยราคาสินค้าและบริการ",
        "จังหวัดพะเยา",
        "เรื่อง การกำหนดช่วงระยะเวลาและกำกับดูแลและติดตาม",
        "ความเคลื่อนไหวราคาสินค้าและบริการเป็นกรณีพิเศษ",
        "(ฉบับที่ ๑๙)"
      ]
    ],
    []
  ],
  "metadata": {
    "date_backmatter": "2557-02-07",
    "date_modified": "2557-02-28",
    "date_original": "2557-02-28",
    "doctype": "ประกาศ",
    "editors": [
      {
        "name": "ปริยานุช",
        "role": "ผู้จัดทำ",
        "date": "2557-03-05"
      },
      {
        "name": "อังศุมาลี",
        "role": "ผู้ตรวจ",
        "date": "2557-03-11"
      }
    ],
    "tag": "c753-2e-2557-a0047"
  }
}