{
  "pages": [
    [
      [
        "ประกาศสำนักงานคณะกรรมการกลางว่าด้วยราคาสินค้าและบริการ",
        "ฉบับที่ ๓ พ.ศ. ๒๕๖๑",
        "เรื่อง หลักเกณฑ์และวิธีการในการขออนุญาต การอนุญาต แบบหนังสืออนุญาต",
        "และวิธีการขนย้ายกระเทียมที่นำเข้าจากต่างประเทศ"
      ]
    ],
    []
  ],
  "metadata": {
    "date_backmatter": "2561-01-24",
    "date_modified": "2561-03-12",
    "date_original": "2561-03-12",
    "doctype": "ประกาศ",
    "editors": [
      {
        "name": "ปวันวิทย์",
        "role": "จัดทำ",
        "date": "2561-04-20"
      }
    ],
    "tag": "c753-2e-2561-a0003"
  }
}