{
  "pages": [
    [
      [
        "ระเบียบสำนักงานคณะกรรมการกลางว่าด้วยราคาสินค้าและบริการ",
        "ว่าด้วยหลักเกณฑ์ แบบ และวิธีปฏิบัติในการจ่ายเงินและการขอรับเงินสินบนเงินรางวัล",
        "พ.ศ. ๒๕๕๙"
      ]
    ],
    []
  ],
  "metadata": {
    "date_backmatter": "2559-05-13",
    "date_modified": "2559-05-13",
    "date_original": "2559-05-13",
    "editors": [
      {
        "name": "วริญา/ปริยานุช",
        "role": "จัดทำ",
        "date": "2559-06-21"
      },
      {
        "name": "ภัทรพล",
        "role": "ปรับปรุง",
        "date": "2560-11-14"
      }
    ],
    "tag": "c753-2g-2559-a0008"
  }
}