{
  "pages": [
    [
      [
        "ประกาศสำนักงานคณะกรรมการส่วนจังหวัดว่าด้วยราคาสินค้าและบริการ",
        "จังหวัดเชียงใหม่",
        "เรื่อง การกำหนดช่วงระยะเวลากำกับดูแลและติดตามความเคลื่อนไหว",
        "ราคาสินค้าและบริการเป็นกรณีพิเศษ",
        "(ฉบับที่ ๓๕)"
      ]
    ],
    []
  ],
  "metadata": {
    "date_backmatter": "2557-11-19",
    "date_modified": "2557-12-11",
    "date_original": "2557-12-11",
    "doctype": "ประกาศ",
    "editors": [
      {
        "name": "ปริยานุช",
        "role": "ผู้จัดทำ",
        "date": "2557-12-16"
      },
      {
        "name": "ปริญสินีย์",
        "role": "ผู้ตรวจ",
        "date": "2557-12-16"
      }
    ],
    "tag": "c753-2e-2557-a0071"
  }
}