{
  "pages": [
    [
      [
        "ประกาศสำนักงานคณะกรรมการกลาง",
        "ว่าด้วยราคาสินค้าและบริการ",
        "เรื่อง แบบแจ้งตามประกาศคณะกรรมการกลางว่าด้วยราคาสินค้าและบริการ",
        "(ฉบับที่ ๔) พ.ศ. ๒๕๔๘"
      ]
    ],
    []
  ],
  "metadata": {
    "date_backmatter": "2548-11-24",
    "date_modified": "2548-12-21",
    "date_original": null,
    "doctype": "ประกาศ",
    "editors": [
      {
        "name": "มณฑิตา",
        "role": "ผู้จัดทำ",
        "date": "2554-07-20"
      }
    ],
    "tag": "c753-2e-2548-a0039"
  }
}