{
  "pages": [
    [
      [
        "ประกาศสำนักงานคณะกรรมการส่วนจังหวัดว่าด้วยราคาสินค้าและบริการ",
        "จังหวัดอุทัยธานี",
        "เรื่อง การกำหนดช่วงระยะเวลากำกับดูแล",
        "และติดตามความเคลื่อนไหวราคาสินค้า และบริการเป็นกรณีพิเศษ (ฉบับที่ ๓๓)"
      ]
    ],
    []
  ],
  "metadata": {
    "date_backmatter": "2559-02-15",
    "date_modified": "2559-04-21",
    "date_original": "2559-04-21",
    "doctype": "ประกาศ",
    "editors": [
      {
        "name": "วิศนี/ปริยานุช",
        "role": "จัดทำ",
        "date": "2559-05-02"
      }
    ],
    "tag": "c753-2e-2559-a0073"
  }
}