{
  "pages": [
    [
      [
        "ระเบียบสำนักงานคณะกรรมการส่วนจังหวัดว่าด้วยราคาสินค้าและบริการ",
        "จังหวัดตาก",
        "ว่าด้วยขั้นตอน วิธีการและอัตราการเปรียบเทียบคดี",
        "พ.ศ. ๒๕๕๙"
      ]
    ],
    []
  ],
  "metadata": {
    "date_backmatter": "2559-09-20",
    "date_modified": "2559-10-17",
    "date_original": "2559-10-17",
    "editors": [
      {
        "name": "ชนิกา/ปริยานุช",
        "role": "จัดทำ",
        "date": "2559-10-18"
      },
      {
        "name": "นุสรา",
        "role": "ตรวจ",
        "date": "2560-01-04"
      },
      {
        "name": "ภัทรพล",
        "role": "ปรับปรุง",
        "date": "2560-11-14"
      }
    ],
    "tag": "c753-2g-2559-a0011"
  }
}