{
  "pages": [
    [
      [
        "ประกาศคณะกรรมการกลางว่าด้วยราคาสินค้าและบริการ",
        "ฉบับที่ ๒๙ พ.ศ. ๒๕๖๑",
        "เรื่อง การแจ้งต้นทุน ราคา รายละเอียดเกี่ยวกับน้ำยาปรับผ้านุ่ม"
      ]
    ],
    []
  ],
  "metadata": {
    "date_backmatter": "2561-01-23",
    "date_modified": "2561-03-12",
    "date_original": "2561-03-12",
    "doctype": "ประกาศ",
    "editors": [
      {
        "name": "ปวันวิทย์",
        "role": "จัดทำ",
        "date": "2561-04-26"
      }
    ],
    "tag": "c753-2e-2561-a0036"
  }
}