{
  "pages": [
    [
      [
        "ประกาศคณะกรรมการกลางว่าด้วยราคาสินค้าและบริการ",
        "ฉบับที่ ๓๓ พ.ศ. ๒๕๕๙",
        "เรื่อง การแจ้งราคาและรายละเอียดเกี่ยวกับรถจักรยานยนต์ รถยนต์นั่ง และรถยนต์บรรทุก"
      ]
    ],
    []
  ],
  "metadata": {
    "date_backmatter": "2559-01-25",
    "date_modified": "2559-02-18",
    "date_original": "2559-02-18",
    "doctype": "ประกาศ",
    "editors": [
      {
        "name": "ปริยานุช",
        "role": "จัดทำ",
        "date": "2559-02-23"
      },
      {
        "name": "กัญฑรัตน์",
        "role": "ตรวจ",
        "date": "2559-02-29"
      }
    ],
    "tag": "c753-2e-2559-a0059"
  }
}