{
  "pages": [
    [
      [
        "ประกาศสำนักงานคณะกรรมการส่วนจังหวัดว่าด้วยราคาสินค้าและบริการ",
        "จังหวัดสมุทรสงคราม",
        "เรื่อง การกำหนดช่วงระยะเวลาและกำกับดูแล",
        "และติดตามความเคลื่อนไหวราคาสินค้าและบริการเป็นกรณีพิเศษ",
        "(ฉบับที่ ๓๕)"
      ]
    ],
    []
  ],
  "metadata": {
    "date_backmatter": "2558-02-02",
    "date_modified": "2558-03-10",
    "date_original": "2558-03-10",
    "doctype": "ประกาศ",
    "editors": [
      {
        "name": "ปริยานุช",
        "role": "ผู้จัดทำ",
        "date": "2558-03-13"
      },
      {
        "name": "นุสรา",
        "role": "ผู้ตรวจ",
        "date": "2558-03-23"
      }
    ],
    "tag": "c753-2e-2558-a0007"
  }
}