{
  "pages": [
    [
      [
        "ประกาศคณะกรรมการกลางว่าด้วยราคาสินค้าและบริการ",
        "ฉบับที่ ๔๘ พ.ศ. ๒๕๖๑",
        "เรื่อง การกำหนดหลักเกณฑ์ เงื่อนไขการรับซื้อ และการแสดงราคารับซื้อ",
        "หัวมันสำปะหลังสดตามเปอร์เซ็นต์เชื้อแป้ง"
      ]
    ],
    []
  ],
  "metadata": {
    "date_backmatter": "2561-01-23",
    "date_modified": "2561-03-12",
    "date_original": "2561-03-12",
    "doctype": "ประกาศ",
    "editors": [
      {
        "name": "ปวันวิทย์",
        "role": "ผู้จัดทำ",
        "date": "2561-04-27"
      }
    ],
    "tag": "c753-2e-2561-a0055"
  }
}