{
  "pages": [
    [
      [
        "ประกาศคณะกรรมการกลางว่าด้วยราคาสินค้าและบริการ",
        "ฉบับที่ ๓๙ พ.ศ. ๒๕๖๐",
        "เรื่อง การแจ้งราคาและรายละเอียดเกี่ยวกับอาหารในภาชนะบรรจุที่ปิดสนิท"
      ]
    ],
    []
  ],
  "metadata": {
    "date_backmatter": "2560-01-24",
    "date_modified": "2560-03-17",
    "date_original": "2560-03-17",
    "doctype": "ประกาศ",
    "editors": [
      {
        "name": "ปริยานุช",
        "role": "จัดทำ",
        "date": "2560-03-20"
      },
      {
        "name": "ชวัลพร",
        "role": "ตรวจ",
        "date": "2560-04-10"
      }
    ],
    "tag": "c753-2e-2560-a0048"
  }
}