{
  "pages": [
    [
      [
        "ระเบียบคณะกรรมการกลาง",
        "ว่าด้วยราคาสินค้าและบริการ",
        "ว่าด้วยการกำหนดหลักเกณฑ์ วิธีการในการพิจารณาการตั้งราคา",
        "และการเปลี่ยนแปลงรายการหรือราคาที่แจ้งไว้",
        "พ.ศ. ๒๕๔๕"
      ]
    ],
    []
  ],
  "metadata": {
    "date_backmatter": "2545-08-16",
    "date_modified": "2545-08-23",
    "date_original": "2545-08-23",
    "editors": [
      {
        "name": "มณฑิตา",
        "role": "ผู้จัดทำ",
        "date": "2554-06-10"
      },
      {
        "name": "ภัทรพล",
        "role": "ปรับปรุง",
        "date": "2560-11-09"
      }
    ],
    "tag": "c753-2g-2545-a0001"
  }
}