{
  "pages": [
    [
      [
        "ประกาศสำนักงานคณะกรรมการส่วนจังหวัดว่าด้วยราคาสินค้าและบริการ",
        "จังหวัดนครสวรรค์",
        "เรื่อง การกำหนดช่วงระยะเวลากำกับดูแล",
        "และติดตามความเคลื่อนไหวราคาสินค้าและบริการเป็นกรณีพิเศษ"
      ]
    ],
    []
  ],
  "metadata": {
    "date_backmatter": "2558-02-11",
    "date_modified": "2558-03-19",
    "date_original": "2558-03-19",
    "doctype": "ประกาศ",
    "editors": [
      {
        "name": "ปริยานุช",
        "role": "ผู้จัดทำ",
        "date": "2558-03-24"
      },
      {
        "name": "วันทิตา",
        "role": "ผู้ตรวจ",
        "date": "2558-04-24"
      }
    ],
    "tag": "c753-2e-2558-a0052"
  }
}