{
  "pages": [
    [
      [
        "ประกาศสำนักงานคณะกรรมการกลางว่าด้วยราคาสินค้าและบริการ",
        "เรื่อง แบบแจ้งตามประกาศคณะกรรมการกลาง",
        "ว่าด้วยราคาสินค้าและบริการ (ฉบับที่ ๒)",
        "พ.ศ. ๒๕๕๐"
      ]
    ],
    []
  ],
  "metadata": {
    "date_backmatter": "2550-03-30",
    "date_modified": "2550-04-27",
    "date_original": "2550-04-27",
    "doctype": "ประกาศ",
    "editors": [
      {
        "name": "มณฑิตา",
        "role": "ผู้จัดทำ",
        "date": "2554-07-12"
      },
      {
        "name": "ชุติมา",
        "role": "ปรับปรุง",
        "date": "2560-11-20"
      }
    ],
    "tag": "c753-2e-2550-a0040"
  }
}