{
  "pages": [
    [
      [
        "ประกาศการรถไฟแห่งประเทศไทย",
        "เรื่อง การออกพันธบัตรการรถไฟแห่งประเทศไทย พ.ศ. ๒๕๕๑",
        "ครั้งที่ ๒๒"
      ]
    ],
    []
  ],
  "metadata": {
    "date_backmatter": "2551-09-12",
    "date_modified": "2551-09-17",
    "date_original": "2551-09-17",
    "doctype": "ประกาศ",
    "editors": [
      {
        "name": "ปริยานุช",
        "role": "ผู้จัดทำ",
        "date": "2551-09-23"
      },
      {
        "name": "จุฑามาศ",
        "role": "ปรับปรุง",
        "date": "2557-09-08"
      }
    ],
    "tag": "a133-2e-2551-a0034"
  }
}