{
  "pages": [
    [
      [
        "ประกาศการรถไฟแห่งประเทศไทย",
        "เรื่อง การออกพันธบัตรการรถไฟแห่งประเทศไทย พ.ศ. ๒๕๕๓ ครั้งที่ ๑๒"
      ]
    ],
    []
  ],
  "metadata": {
    "date_backmatter": "2553-09-21",
    "date_modified": "2553-10-19",
    "date_original": "2553-10-19",
    "doctype": "ประกาศ",
    "editors": [
      {
        "name": "ปริยานุช",
        "role": "ผู้จัดทำ",
        "date": "2553-10-28"
      },
      {
        "name": "ณัฐวดี",
        "role": "ตรวจ",
        "date": "2553-10-28"
      },
      {
        "name": "จุฑามาศ",
        "role": "ปรับปรุง",
        "date": "2557-09-09"
      }
    ],
    "tag": "a133-2e-2553-a0008"
  }
}