{
  "pages": [
    [
      [
        "ประกาศการรถไฟแห่งประเทศไทย",
        "เรื่อง การออกพันธบัตรของการรถไฟแห่งประเทศไทย พ.ศ. ๒๕๓๖",
        "ครั้งที่ ๒"
      ]
    ],
    []
  ],
  "metadata": {
    "date_backmatter": "2536-10-12",
    "date_modified": "2536-10-13",
    "date_original": "2536-10-13",
    "doctype": "ประกาศ",
    "editors": [
      {
        "name": "ณัฐดนัย",
        "role": "พิมพ์",
        "date": "2550-11-23"
      },
      {
        "name": "สุนันทา",
        "role": "ตรวจ",
        "date": "2550-12-27"
      },
      {
        "name": "จุฑามาศ",
        "role": "ปรับปรุง",
        "date": "2557-09-03"
      }
    ],
    "tag": "a133-2e-2536-a0001"
  }
}