{
  "pages": [
    [
      [
        "พระราชบัญญัติ",
        "การรถไฟแห่งประเทศไทย (ฉบับที่ ๓)",
        "พ.ศ. ๒๕๐๙",
        "",
        "",
        "ในพระปรมาภิไธย",
        "พระบาทสมเด็จพระปรมินทรมหาภูมิพลอดุลยเดช",
        "สังวาลย์",
        "ผู้สำเร็จราชการแทนพระองค์",
        "ให้ไว้ ณ วันที่ ๑๙ กรกฎาคม พ.ศ. ๒๕๐๙",
        "เป็นปีที่ ๒๑ ในรัชกาลปัจจุบัน"
      ]
    ],
    []
  ],
  "metadata": {
    "date_header": "2509-07-19",
    "date_modified": "2509-08-01",
    "date_original": "2509-08-01",
    "doctype": "พระราชบัญญัติ",
    "editors": [
      {
        "name": "ดวงใจ",
        "role": "แก้ไข",
        "date": "2544-08-30"
      },
      {
        "name": "พัชรินทร์",
        "role": "แก้ไข",
        "date": "2548-01-17"
      },
      {
        "name": "วศิน",
        "role": "แก้ไข",
        "date": "2552-05-04"
      }
    ],
    "tag": "a133-20-2509-003",
    "title": "การรถไฟแห่งประเทศไทย (ฉบับที่ ๓)"
  }
}