{
  "pages": [
    [
      [
        "พระราชกฤษฎีกา",
        "กำหนดเขตที่ดินในบริเวณที่ที่จะเวนคืน",
        "ในท้องที่ตำบลท่าไข่ และตำบลหน้าเมือง",
        "อำเภอเมืองฉะเชิงเทรา จังหวัดฉะเชิงเทรา",
        "พ.ศ. ๒๕๖๑",
        "",
        "",
        "สมเด็จพระเจ้าอยู่หัวมหาวชิราลงกรณ บดินทรเทพยวรางกูร",
        "ให้ไว้ ณ วันที่ ๑๐ พฤษภาคม พ.ศ. ๒๕๖๑",
        "เป็นปีที่ ๓ ในรัชกาลปัจจุบัน"
      ]
    ],
    []
  ],
  "metadata": {
    "date_header": "2561-05-10",
    "date_modified": "2561-05-13",
    "date_original": "2561-05-13",
    "doctype": "พระราชกฤษฎีกา",
    "editors": [
      {
        "name": "ปุณิกา",
        "role": "จัดทำ",
        "date": "2561-08-31"
      }
    ],
    "tag": "a133-2a-2561-a0003",
    "title": "กำหนดเขตที่ดินในบริเวณที่ที่จะเวนคืนในท้องที่ตำบลท่าไข่ และตำบลหน้าเมืองอำเภอเมืองฉะเชิงเทรา จังหวัดฉะเชิงเทรา"
  }
}