{
  "pages": [
    [
      [
        "ประกาศการรถไฟแห่งประเทศไทย",
        "เรื่อง การออกพันธบัตรการรถไฟแห่งประเทศไทย พ.ศ. ๒๕๕๖",
        "ครั้งที่ ๒๐"
      ]
    ],
    []
  ],
  "metadata": {
    "date_backmatter": "2556-09-26",
    "date_modified": "2556-11-04",
    "date_original": "2556-11-04",
    "doctype": "ประกาศ",
    "editors": [
      {
        "name": "ปริยานุช",
        "role": "ผู้จัดทำ",
        "date": "2556-11-11"
      },
      {
        "name": "อังศุมาลี",
        "role": "ผู้ตรวจ",
        "date": "2556-11-11"
      },
      {
        "name": "จุฑามาศ",
        "role": "ปรับปรุง",
        "date": "2557-09-11"
      }
    ],
    "tag": "a133-2e-2556-a0019"
  }
}