{
  "pages": [
    [
      [
        "ข้อบังคับคณะกรรมการรถไฟแห่งประเทศไทย",
        "ฉบับที่ ๑๕๘",
        "ว่าด้วยระเบียบปฏิบัติงานของการรถไฟแห่งประเทศไทย"
      ]
    ],
    []
  ],
  "metadata": {
    "date_backmatter": "2519-08-27",
    "date_modified": "2522-10-19",
    "date_original": "2522-10-19",
    "editors": [
      {
        "name": "สุนันทา",
        "role": "แก้ไข",
        "date": "2549-09-19"
      },
      {
        "name": "จุฑามาศ",
        "role": "ปรับปรุง",
        "date": "2558-04-07"
      }
    ],
    "tag": "a133-2i-2522-189"
  }
}