{
  "pages": [
    [
      [
        "ประกาศการรถไฟแห่งประเทศไทย",
        "เรื่อง การออกพันธบัตรการรถไฟแห่งประเทศไทย พ.ศ. ๒๕๕๓ ครั้งที่ ๒"
      ]
    ],
    []
  ],
  "metadata": {
    "date_backmatter": "2552-10-06",
    "date_modified": "2552-12-02",
    "date_original": "2552-12-02",
    "doctype": "ประกาศ",
    "editors": [
      {
        "name": "ปริยานุช",
        "role": "ผู้จัดทำ",
        "date": "2552-12-16"
      },
      {
        "name": "นันท์นภัสร์",
        "role": "ตรวจ",
        "date": "2552-12-16"
      },
      {
        "name": "จุฑามาศ",
        "role": "ปรับปรุง",
        "date": "2557-09-08"
      }
    ],
    "tag": "a133-2e-2552-a0010"
  }
}