{
  "pages": [
    [
      [
        "ประกาศการรถไฟแห่งประเทศไทย",
        "เรื่อง การออกพันธบัตรการรถไฟแห่งประเทศไทย พ.ศ. ๒๕๕๕ ครั้งที่ ๓"
      ]
    ],
    []
  ],
  "metadata": {
    "date_backmatter": "2555-06-27",
    "date_modified": "2555-08-17",
    "date_original": "2555-08-17",
    "doctype": "ประกาศ",
    "editors": [
      {
        "name": "ปริยานุช",
        "role": "ผู้จัดทำ",
        "date": "2555-08-21"
      },
      {
        "name": "ณัฐพร",
        "role": "ผู้ตรวจ",
        "date": "2555-08-21"
      },
      {
        "name": "จุฑามาศ",
        "role": "ปรับปรุง",
        "date": "2557-09-09"
      }
    ],
    "tag": "a133-2e-2555-a0003"
  }
}