{
  "pages": [
    [
      [
        "ประกาศการรถไฟแห่งประเทศไทย",
        "เรื่อง การออกพันธบัตรการรถไฟแห่งประเทศไทย",
        "พ.ศ. ๒๕๕๑ ครั้งที่ ๒"
      ]
    ],
    []
  ],
  "metadata": {
    "date_backmatter": "2551-02-28",
    "date_modified": "2551-03-27",
    "date_original": "2551-03-27",
    "doctype": "ประกาศ",
    "editors": [
      {
        "name": "วัชศักดิ์",
        "role": "ผู้จัดทำ",
        "date": "2551-04-01"
      },
      {
        "name": "จุฑามาศ",
        "role": "ปรับปรุง",
        "date": "2557-09-05"
      }
    ],
    "tag": "a133-2e-2551-a0014"
  }
}