{
  "pages": [
    [
      [
        "ประกาศการรถไฟแห่งประเทศไทย",
        "เรื่อง การออกพันธบัตรการรถไฟแห่งประเทศไทย พ.ศ. ๒๕๕๖",
        "ครั้งที่ ๒"
      ]
    ],
    []
  ],
  "metadata": {
    "date_backmatter": "2556-04-22",
    "date_modified": "2556-05-21",
    "date_original": "2556-05-21",
    "doctype": "ประกาศ",
    "editors": [
      {
        "name": "ปริยานุช",
        "role": "ผู้จัดทำ",
        "date": "2556-05-23"
      },
      {
        "name": "อุษมล",
        "role": "ผู้ตรวจ",
        "date": "2556-05-27"
      },
      {
        "name": "จุฑามาศ",
        "role": "ปรับปรุง",
        "date": "2557-09-09"
      }
    ],
    "tag": "a133-2e-2556-a0003"
  }
}