{
  "pages": [
    [
      [
        "ประกาศการรถไฟแห่งประเทศไทย",
        "เรื่อง การออกพันธบัตรของการรถไฟแห่งประเทศไทย",
        "พ.ศ. ๒๕๒๘ ครั้งที่ ๑"
      ]
    ],
    []
  ],
  "metadata": {
    "date_backmatter": "2527-10-05",
    "date_modified": "2527-11-07",
    "date_original": "2527-11-07",
    "doctype": "ประกาศ",
    "editors": [
      {
        "name": "ณัฐดนัย",
        "role": "พิมพ์",
        "date": "2550-11-23"
      },
      {
        "name": "สุนันทา",
        "role": "ตรวจ",
        "date": "2550-12-27"
      },
      {
        "name": "ณัฐดนัย",
        "role": "แก้ไข",
        "date": "2551-01-07"
      },
      {
        "name": "จุฑามาศ",
        "role": "ปรับปรุง",
        "date": "2557-09-03"
      }
    ],
    "tag": "a133-2e-2527-a0001"
  }
}