{
  "pages": [
    [
      [
        "ข้อบังคับการรถไฟแห่งประเทศไทย",
        "ฉบับที่ ๒.๑",
        "การแบ่งส่วนงานและอำนาจความรับผิดชอบของผู้บริหาร",
        "(แก้ไขเพิ่มเติมครั้งที่ ๖)"
      ]
    ],
    []
  ],
  "metadata": {
    "date_backmatter": "2531-04-25",
    "date_modified": "2531-05-26",
    "date_original": "2531-05-26",
    "editors": [
      {
        "name": "อารยา",
        "role": "แก้ไข",
        "date": "2551-07-16"
      },
      {
        "name": "จุฑามาศ",
        "role": "ปรับปรุง",
        "date": "2557-09-18"
      }
    ],
    "tag": "a133-2i-2531-021"
  }
}