{
  "pages": [
    [
      [
        "ประกาศการรถไฟแห่งประเทศไทย",
        "เรื่อง การออกพันธบัตรการรถไฟแห่งประเทศไทย พ.ศ. ๒๕๕๓ ครั้งที่ ๕"
      ]
    ],
    []
  ],
  "metadata": {
    "date_backmatter": "2553-01-19",
    "date_modified": "2553-02-19",
    "date_original": "2553-02-19",
    "doctype": "ประกาศ",
    "editors": [
      {
        "name": "ปริยานุช",
        "role": "ผู้จัดทำ",
        "date": "2553-03-04"
      },
      {
        "name": "นันท์นภัสร์",
        "role": "ตรวจ",
        "date": "2553-03-04"
      },
      {
        "name": "จุฑามาศ",
        "role": "ปรับปรุง",
        "date": "2557-09-08"
      }
    ],
    "tag": "a133-2e-2553-a0001"
  }
}