{
  "pages": [
    [
      [
        "ระเบียบการรถไฟแห่งประเทศไทย",
        "ฉบับที่ ๑.๑๑",
        "ว่าด้วยลูกจ้างรายเดือนของการรถไฟแห่งประเทศไทย"
      ]
    ],
    []
  ],
  "metadata": {
    "date_backmatter": "2545-01-07",
    "date_modified": "2545-06-21",
    "date_original": "2545-06-21",
    "editors": [
      {
        "name": "ฐาปนี",
        "role": "แก้ไข",
        "date": "2545-12-04"
      },
      {
        "name": "อารยา",
        "role": "แก้ไข",
        "date": "2551-07-15"
      },
      {
        "name": "จุฑามาศ",
        "role": "ปรับปรุง",
        "date": "2557-09-15"
      }
    ],
    "tag": "a133-2g-2545-a004"
  }
}