{
  "pages": [
    [
      [
        "ประกาศการรถไฟแห่งประเทศไทย",
        "เรื่อง การออกพันธบัตรการรถไฟแห่งประเทศไทย พ.ศ. ๒๕๕๗",
        "ครั้งที่ ๔"
      ]
    ],
    []
  ],
  "metadata": {
    "date_backmatter": "2557-07-17",
    "date_modified": "2557-08-14",
    "date_original": "2557-08-14",
    "doctype": "ประกาศ",
    "editors": [
      {
        "name": "ปริยานุช",
        "role": "ผู้จัดทำ",
        "date": "2557-09-11"
      },
      {
        "name": "จุฑามาศ",
        "role": "ผู้ตรวจ",
        "date": "2557-09-15"
      }
    ],
    "tag": "a133-2e-2557-a0004"
  }
}