{
  "pages": [
    [
      [
        "พระราชกฤษฎีกา",
        "กำหนดเขตที่ดินในบริเวณที่ที่จะเวนคืน",
        "เพื่อดำเนินโครงการก่อสร้างทางคู่ในเส้นทางรถไฟสายใต้",
        "ช่วงนครปฐม  หัวหิน",
        "พ.ศ. ๒๕๕๙",
        "",
        "",
        "ภูมิพลอดุลยเดช ป.ร.",
        "ให้ไว้ ณ วันที่ ๒ พฤษภาคม พ.ศ. ๒๕๕๙",
        "เป็นปีที่ ๗๑ ในรัชกาลปัจจุบัน"
      ]
    ],
    []
  ],
  "metadata": {
    "date_header": "2559-05-02",
    "date_modified": "2559-05-12",
    "date_original": "2559-05-12",
    "doctype": "พระราชกฤษฎีกา",
    "editors": [
      {
        "name": "วริญา/ปริยานุช",
        "role": "จัดทำ",
        "date": "2559-05-16"
      },
      {
        "name": "วิชพงษ์",
        "role": "ตรวจ",
        "date": "2559-05-23"
      }
    ],
    "tag": "a133-2a-2559-a0002",
    "title": "กำหนดเขตที่ดินในบริเวณที่ที่จะเวนคืนเพื่อดำเนินโครงการก่อสร้างทางคู่ในเส้นทางรถไฟสายใต้ช่วงนครปฐม  หัวหิน"
  }
}