{
  "pages": [
    [
      [
        "ระเบียบคณะกรรมการธุรกิจนำเที่ยวและมัคคุเทศก์",
        "ว่าด้วยหลักเกณฑ์และวิธีการแจ้งคำสั่งของนายทะเบียนและการแจ้งเวียนรายชื่อผู้นำเที่ยว",
        "พ.ศ. ๒๕๖๐"
      ]
    ],
    []
  ],
  "metadata": {
    "date_backmatter": "2560-09-19",
    "date_modified": "2560-11-06",
    "date_original": "2560-11-06",
    "editors": [
      {
        "name": "ภวรรณตรี",
        "role": "จัดทำ",
        "date": "2560-11-15"
      },
      {
        "name": "พัชรภรณ์",
        "role": "ตรวจ",
        "date": "2560-11-15"
      }
    ],
    "tag": "b808-2g-2560-a0002"
  }
}