{
  "pages": [
    [
      [
        "ประกาศคณะกรรมการธุรกิจนำเที่ยวและมัคคุเทศก์",
        "เรื่อง หลักสูตรการฝึกอบรมวิชามัคคุเทศก์",
        "พ.ศ. ๒๕๕๖"
      ]
    ],
    []
  ],
  "metadata": {
    "date_backmatter": "2556-10-11",
    "date_modified": "2556-11-14",
    "date_original": "2556-11-14",
    "doctype": "ประกาศ",
    "editors": [
      {
        "name": "ปริยานุช",
        "role": "ผู้จัดทำ",
        "date": "2556-11-18"
      },
      {
        "name": "โชติกานต์",
        "role": "ผู้ตรวจ",
        "date": "2556-11-21"
      }
    ],
    "tag": "b808-2e-2556-a0004"
  }
}