{
  "pages": [
    [
      [
        "พระราชบัญญัติ",
        "ธุรกิจนำเที่ยวและมัคคุเทศก์",
        "พ.ศ. ๒๕๕๑",
        "",
        "",
        "ภูมิพลอดุลยเดช ป.ร.",
        "ให้ไว้ ณ วันที่ ๓๐ มกราคม พ.ศ. ๒๕๕๑",
        "เป็นปีที่ ๖๓ ในรัชกาลปัจจุบัน"
      ]
    ],
    []
  ],
  "metadata": {
    "date_header": "2551-01-30",
    "date_modified": "2551-02-06",
    "date_original": "2551-02-06",
    "doctype": "พระราชบัญญัติ",
    "editors": [
      {
        "name": "คุณากร",
        "role": "ผู้จัดทำ",
        "date": "2556-01-04"
      },
      {
        "name": "ชาญ",
        "role": "ตรวจ",
        "date": "2556-01-04"
      }
    ],
    "tag": "b808-20-2551-a0001",
    "title": "ธุรกิจนำเที่ยวและมัคคุเทศก์"
  }
}