{
  "pages": [
    [
      [
        "ประกาศสำนักนายกรัฐมนตรี",
        "เรื่อง การอนุมัติพระราชกำหนดกองทุนส่งเสริมการประกันภัยพิบัติ พ.ศ. ๒๕๕๕",
        "และพระราชกำหนดการให้ความช่วยเหลือทางการเงินแก่ผู้ที่ได้รับ",
        "ความเสียหายจากอุทกภัย พ.ศ. ๒๕๕๕"
      ]
    ],
    []
  ],
  "metadata": {
    "date_backmatter": "2555-02-17",
    "date_modified": "2555-02-22",
    "date_original": "2555-02-22",
    "doctype": "ประกาศ",
    "editors": [
      {
        "name": "ปริยานุช",
        "role": "ผู้จัดทำ",
        "date": "2555-02-23"
      },
      {
        "name": "ปณตภร",
        "role": "ผู้ตรวจ",
        "date": "2555-02-23"
      }
    ],
    "tag": "a1136-2e-2555-a0001"
  }
}