{
  "pages": [
    [
      [
        "พระราชบัญญัติ",
        "รายได้เทศบาล",
        "พ.ศ. ๒๔๙๗",
        "",
        "",
        "ภูมิพลอดุลยเดช ป.ร.",
        "ให้ไว้ ณ วันที่ ๒๔ กุมภาพันธ์ พ.ศ. ๒๔๙๗",
        "เป็นปีที่ ๙ ในรัชกาลปัจจุบัน"
      ]
    ],
    []
  ],
  "metadata": {
    "date_header": "2497-02-24",
    "date_modified": "2497-03-09",
    "date_original": "2497-03-09",
    "doctype": "พระราชบัญญัติ",
    "editors": [
      {
        "name": "สัญชัย",
        "role": "ผู้จัดทำ",
        "date": "2552-04-24"
      },
      {
        "name": "กฤษดายุทธ",
        "role": "ปรับปรุง",
        "date": "2556-11-21"
      },
      {
        "name": "ปณตภร",
        "role": "ตรวจ",
        "date": "2556-11-27"
      }
    ],
    "tag": "c322-20-2497-001",
    "title": "รายได้เทศบาล"
  }
}