{
  "pages": [
    [
      [
        "ข้อบัญญัติองค์การบริหารส่วนตำบลคลองฉนวน",
        "เรื่อง การเก็บค่าตอบแทนในการอนุญาตให้ใช้ที่ดินของรัฐ",
        "พ.ศ. ๒๕๕๓"
      ]
    ],
    []
  ],
  "metadata": {
    "date_backmatter": "2553-01-25",
    "date_modified": "2553-03-26",
    "date_original": "2553-03-26",
    "editors": [
      {
        "name": "ปริยานุช",
        "role": "พิมพ์",
        "date": "2553-04-09"
      },
      {
        "name": "นันท์นภัสร์",
        "role": "ตรวจ",
        "date": "2553-04-09"
      }
    ],
    "tag": "bb02-2j-2553-a0004"
  }
}