{
  "pages": [
    [
      [
        "ข้อบัญญัติองค์การบริหารส่วนตำบลท่าสองคอน",
        "เรื่อง กำหนดอัตราค่าตอบแทนการอนุญาตตามมาตรา ๙ แห่งประมวลกฎหมายที่ดิน",
        "พ.ศ. ๒๕๕๗"
      ]
    ],
    []
  ],
  "metadata": {
    "date_backmatter": "2557-03-14",
    "date_modified": "2557-05-22",
    "date_original": "2557-05-22",
    "editors": [
      {
        "name": "ปริยานุช",
        "role": "ผู้จัดทำ",
        "date": "2557-05-26"
      },
      {
        "name": "ปริญสินีย์",
        "role": "ผู้ตรวจ",
        "date": "2557-06-02"
      }
    ],
    "tag": "bb02-2j-2557-a0003"
  }
}