{
  "pages": [
    [
      [
        "ข้อบัญญัติองค์การบริหารส่วนตำบลหาดทรายรี",
        "เรื่อง การกำหนดเรียกเก็บค่าตอบแทนจากผู้รับอนุญาต",
        "ตามมาตรา ๙ แห่งประมวลกฎหมายที่ดิน",
        "พ.ศ. ๒๕๕๑"
      ]
    ],
    []
  ],
  "metadata": {
    "date_backmatter": "2551-08-27",
    "date_modified": "2551-12-11",
    "date_original": "2551-12-11",
    "editors": [
      {
        "name": "ปริยานุช",
        "role": "ผู้จัดทำ",
        "date": "2551-12-16"
      }
    ],
    "tag": "bb02-2j-2551-a0004"
  }
}