{
  "pages": [
    [
      [
        "ข้อบัญญัติองค์การบริหารส่วนตำบลหงษ์เจริญ",
        "เรื่อง การเรียกเก็บค่าตอบแทนรายปีตามประมวลกฎหมายที่ดิน",
        "พ.ศ. ๒๕๕๒"
      ]
    ],
    []
  ],
  "metadata": {
    "date_backmatter": "2552-03-30",
    "date_modified": "2552-08-20",
    "date_original": "2552-08-20",
    "editors": [
      {
        "name": "ปริยานุช",
        "role": "ผู้จัดทำ",
        "date": "2552-08-28"
      }
    ],
    "tag": "bb02-2j-2552-a0012"
  }
}