{
  "pages": [
    [
      [
        "ข้อบัญญัติองค์การบริหารส่วนตำบลแก",
        "เรื่อง กำหนดค่าตอบแทนการขออนุญาตใช้ประโยชน์ในที่ดินของรัฐ",
        "พ.ศ. ๒๕๕๘"
      ]
    ],
    []
  ],
  "metadata": {
    "date_backmatter": "2559-01-28",
    "date_modified": "2559-07-14",
    "date_original": "2559-07-14",
    "editors": [
      {
        "name": "ชวัลพร/ปริยานุช",
        "role": "จัดทำ",
        "date": "2559-07-25"
      }
    ],
    "tag": "bb02-2j-2559-a0028"
  }
}