{
  "pages": [
    [
      [
        "ประกาศกระทรวงมหาดไทย",
        "เรื่อง การจัดขึ้นทะเบียนที่ดินของรัฐ เพื่อให้ทบวงการเมืองใช้ประโยชน์ในราชการ",
        "ในท้องที่ตำบลเขานิเวศน์ อำเภอเมืองระนอง จังหวัดระนอง"
      ]
    ],
    []
  ],
  "metadata": {
    "date_backmatter": "2559-09-06",
    "date_modified": "2559-10-18",
    "date_original": "2559-10-18",
    "doctype": "ประกาศ",
    "editors": [
      {
        "name": "ชนิกา/ปริยานุช",
        "role": "จัดทำ",
        "date": "2559-10-20"
      },
      {
        "name": "นุสรา",
        "role": "ตรวจ",
        "date": "2560-01-05"
      }
    ],
    "tag": "bb02-2e-2559-a0006"
  }
}