{
  "pages": [
    [
      [
        "ประกาศกระทรวงมหาดไทย",
        "เรื่อง การเรียกเก็บค่าธรรมเนียมจดทะเบียนสิทธิและนิติกรรม",
        "ตามประมวลกฎหมายที่ดิน กรณีอสังหาริมทรัพย์ที่เป็นอาคารที่อยู่อาศัย",
        "ตามหลักเกณฑ์ที่คณะรัฐมนตรีกำหนด (ฉบับที่ ๓)"
      ]
    ],
    []
  ],
  "metadata": {
    "date_backmatter": "2553-05-31",
    "date_modified": "2553-06-07",
    "date_original": "2553-06-07",
    "doctype": "ประกาศ",
    "editors": [
      {
        "name": "ปริยานุช",
        "role": "ผู้จัดทำ",
        "date": "2553-06-15"
      },
      {
        "name": "นันท์นภัสร์",
        "role": "ตรวจ",
        "date": "2553-06-15"
      }
    ],
    "tag": "bb02-2e-2553-a0021"
  }
}