{
  "pages": [
    [
      [
        "พระราชกฤษฎีกา",
        "ถอนสภาพที่ดินอันเป็นสาธารณสมบัติของแผ่นดินสำหรับพลเมืองใช้ร่วมกัน",
        "ในท้องที่ตำบลหนองสูงใต้ อำเภอหนองสูง จังหวัดมุกดาหาร",
        "พ.ศ. ๒๕๔๒",
        "------------------",
        "ภูมิพลอดุลยเดช ป.ร.",
        "ให้ไว้ ณ วันที่ ๑๐ ตุลาคม พ.ศ. ๒๕๔๒",
        "เป็นปีที่ ๕๔ ในรัชกาลปัจจุบัน"
      ]
    ],
    []
  ],
  "metadata": {
    "date_gz_old": "2542-10-22",
    "date_header": "2542-10-10",
    "doctype": "พระราชกฤษฎีกา",
    "editors": [
      {
        "name": "๒๘/๑๒",
        "role": "๔๔"
      }
    ],
    "tag": "bb02-2a-2542-a012",
    "title": "ถอนสภาพที่ดินอันเป็นสาธารณสมบัติของแผ่นดินสำหรับพลเมืองใช้ร่วมกันในท้องที่ตำบลหนองสูงใต้ อำเภอหนองสูง จังหวัดมุกดาหารพ.ศ. ๒๕๔๒------------------ภูมิพลอดุลยเดช ป.ร.ให้ไว้ ณ วันที่ ๑๐ ตุลาคม"
  }
}