{
  "pages": [
    [
      [
        "ประกาศกระทรวงมหาดไทย",
        "เรื่อง กำหนดจังหวัดที่จะทำการสำรวจรังวัดทำแผนที่เพื่อออกโฉนดที่ดิน",
        "และสอบเขตที่ดินทั้งตำบล ปีงบประมาณ พ.ศ. ๒๕๕๒ (ฉบับที่ ๓)"
      ]
    ],
    []
  ],
  "metadata": {
    "date_backmatter": "2551-11-10",
    "date_modified": "2551-12-17",
    "date_original": "2551-12-17",
    "doctype": "ประกาศ",
    "editors": [
      {
        "name": "ปริยานุช",
        "role": "ผู้จัดทำ",
        "date": "2551-12-23"
      }
    ],
    "tag": "bb02-2e-2551-a0024"
  }
}