{
  "pages": [
    [
      [
        "กฎกระทรวง",
        "ฉบับที่ ๘ (พ.ศ. ๒๔๙๗)",
        "ออกตามความในพระราชบัญญัติให้ใช้ประมวลกฎหมายที่ดิน",
        "พ.ศ. ๒๔๙๗"
      ]
    ],
    []
  ],
  "metadata": {
    "date_backmatter": "2497-12-09",
    "date_gz_old": "2497-12-11",
    "doctype": "กฎกระทรวง",
    "editors": [],
    "tag": "bb02-2b-2497-008"
  }
}