{
  "pages": [
    [
      [
        "พระราชกฤษฎีกา",
        "ถอนสภาพที่ดินอันเป็นสาธารณสมบัติของแผ่นดินสำหรับพลเมืองใช้ร่วมกัน",
        "ในท้องที่ตำบลคลองขุด อำเภอท่าใหม่ จังหวัดจันทบุรี",
        "พ.ศ. ๒๕๔๘",
        "",
        "",
        "ภูมิพลอดุลยเดช ป.ร.",
        "ให้ไว้ ณ วันที่ ๒๒ ธันวาคม พ.ศ. ๒๕๔๘",
        "เป็นปีที่ ๖๐ ในรัชกาลปัจจุบัน"
      ]
    ],
    []
  ],
  "metadata": {
    "date_backmatter": "2522-07-24",
    "date_header": "2548-12-22",
    "date_modified": "2548-12-30",
    "date_original": "2548-12-30",
    "doctype": "พระราชกฤษฎีกา",
    "editors": [
      {
        "name": "ฐิติพงษ์",
        "role": "ผู้จัดทำ",
        "date": "2549-05-08"
      }
    ],
    "tag": "bb02-2a-2548-a0014",
    "title": "ถอนสภาพที่ดินอันเป็นสาธารณสมบัติของแผ่นดินสำหรับพลเมืองใช้ร่วมกันในท้องที่ตำบลคลองขุด อำเภอท่าใหม่ จังหวัดจันทบุรี"
  }
}