{
  "pages": [
    [
      [
        "ข้อบัญญัติองค์การบริหารส่วนตำบลแม่พริก",
        "เรื่อง การเรียกเก็บค่าตอบแทนรายปีตามประมวลกฎหมายที่ดิน (ฉบับที่ ๓)",
        "พ.ศ. ๒๕๕๖"
      ]
    ],
    []
  ],
  "metadata": {
    "date_backmatter": "2556-07-15",
    "date_modified": "2556-10-24",
    "date_original": "2556-10-24",
    "editors": [
      {
        "name": "ปริยานุช",
        "role": "ผู้จัดทำ",
        "date": "2556-10-31"
      },
      {
        "name": "จุฑามาศ",
        "role": "ผู้ตรวจ",
        "date": "2556-10-31"
      }
    ],
    "tag": "bb02-2j-2556-a0003"
  }
}