{
  "pages": [
    [
      [
        "ข้อบัญญัติองค์การบริหารส่วนตำบลท่าโรงช้าง",
        "เรื่อง กำหนดอัตราค่าตอบแทนการได้รับอนุญาตเข้าใช้ประโยชน์ในที่ดินของรัฐ",
        "ตามมาตรา ๙ แห่งประมวลกฎหมายที่ดิน",
        "พ.ศ. ๒๕๕๕"
      ]
    ],
    []
  ],
  "metadata": {
    "date_backmatter": "2555-09-11",
    "date_modified": "2555-11-08",
    "date_original": "2555-11-08",
    "editors": [
      {
        "name": "ปริยานุช",
        "role": "ผู้จัดทำ",
        "date": "2555-11-12"
      },
      {
        "name": "ณัฐพร",
        "role": "ผู้ตรวจ",
        "date": "2555-11-12"
      }
    ],
    "tag": "bb02-2j-2555-a0008"
  }
}