{
  "pages": [
    [
      [
        "พระราชกฤษฎีกา",
        "ถอนสภาพที่ดินอันเป็นสาธารณสมบัติของแผ่นดินสำหรับพลเมืองใช้ร่วมกัน",
        "ในท้องที่ตำบลนาอาน อำเภอเมืองเลย จังหวัดเลย",
        "พ.ศ. ๒๕๕๕",
        "",
        "",
        "ภูมิพลอดุลยเดช ป.ร.",
        "ให้ไว้ ณ วันที่ ๒๕ พฤษภาคม พ.ศ. ๒๕๕๕",
        "เป็นปีที่ ๖๗ ในรัชกาลปัจจุบัน"
      ]
    ],
    []
  ],
  "metadata": {
    "date_backmatter": "2540-01-29",
    "date_header": "2555-05-25",
    "date_modified": "2555-06-13",
    "date_original": "2555-06-13",
    "doctype": "พระราชกฤษฎีกา",
    "editors": [
      {
        "name": "ปริยานุช",
        "role": "ผู้จัดทำ",
        "date": "2555-06-22"
      },
      {
        "name": "ณัฐพร",
        "role": "ผู้ตรวจ",
        "date": "2555-06-22"
      }
    ],
    "tag": "bb02-2a-2555-a0018",
    "title": "ถอนสภาพที่ดินอันเป็นสาธารณสมบัติของแผ่นดินสำหรับพลเมืองใช้ร่วมกันในท้องที่ตำบลนาอาน อำเภอเมืองเลย จังหวัดเลย"
  }
}