{
  "pages": [
    [
      [
        "ข้อบัญญัติองค์การบริหารส่วนตำบลโป่งแพร่",
        "เรื่อง เรียกเก็บค่าตอบแทนรายปีตามประมวลกฎหมายที่ดิน",
        "พ.ศ. ๒๕๕๑"
      ]
    ],
    []
  ],
  "metadata": {
    "date_backmatter": "2551-07-03",
    "date_modified": "2552-02-24",
    "date_original": "2552-02-24",
    "editors": [
      {
        "name": "ปริยานุช",
        "role": "ผู้จัดทำ",
        "date": "2552-03-04"
      }
    ],
    "tag": "bb02-2j-2552-a0004"
  }
}