{
  "pages": [
    [
      [
        "พระราชกฤษฎีกา",
        "ถอนสภาพที่ดินอันเป็นสาธารณสมบัติของแผ่นดินสำหรับพลเมืองใช้ร่วมกัน",
        "ในท้องที่ตำบลบึง อำเภอศรีราชา จังหวัดชลบุรี",
        "พ.ศ. ๒๕๔๓",
        "",
        "",
        "ภูมิพลอดุลยเดช ป.ร.",
        "ให้ไว้ ณ วันที่ ๒๖ กรกฎาคม พ.ศ. ๒๕๔๓",
        "เป็นปีที่ ๕๕ ในรัชกาลปัจจุบัน"
      ]
    ],
    []
  ],
  "metadata": {
    "date_backmatter": "2521-06-22",
    "date_header": "2543-07-26",
    "date_modified": "2543-08-07",
    "date_original": "2543-08-07",
    "doctype": "พระราชกฤษฎีกา",
    "editors": [
      {
        "name": "สุกัญญา",
        "role": "พิมพ์",
        "date": "2549-07-05"
      },
      {
        "name": "สุนันทา/ฐิติพงษ์",
        "role": "ตรวจ",
        "date": "2549-07-13"
      },
      {
        "name": null,
        "role": null,
        "date": "2549-07-13"
      }
    ],
    "tag": "bb02-2a-2543-a015",
    "title": "ถอนสภาพที่ดินอันเป็นสาธารณสมบัติของแผ่นดินสำหรับพลเมืองใช้ร่วมกันในท้องที่ตำบลบึง อำเภอศรีราชา จังหวัดชลบุรี"
  }
}