{
  "pages": [
    [
      [
        "ข้อบัญญัติองค์การบริหารส่วนตำบลกุดบง",
        "เรื่อง กำหนดค่าตอบแทนการขออนุญาตใช้ประโยชน์ในที่ดินของรัฐ",
        "พ.ศ. ๒๕๕๑"
      ]
    ],
    []
  ],
  "metadata": {
    "date_backmatter": "2551-07-29",
    "date_modified": "2552-03-26",
    "date_original": "2552-03-26",
    "editors": [
      {
        "name": "ปริยานุช",
        "role": "ผู้จัดทำ",
        "date": "2552-04-03"
      }
    ],
    "tag": "bb02-2j-2552-a0005"
  }
}