{
  "pages": [
    [
      [
        "ประกาศกรมที่ดิน",
        "เรื่อง การออกหนังสือแสดงสิทธิในที่ดินกรณีมีผู้คัดค้าน",
        "-----------",
        "",
        "ในการออกหนังสือแสดงสิทธิในที่ดิน หากปรากฏว่ามีผู้โต้แย้งคัดค้าน เมื่อพนักงาน",
        "เจ้าหน้าที่ได้ทำคำสั่งเปรียบเทียบแล้วให้แจ้งเป็นหนังสือให้คู่กรณีทราบและระบุในหนังสือแจ้งด้วยว่า",
        "ให้ฝ่ายที่ไม่พอใจไปฟ้องศาลภายในกำหนดหกสิบวันนับแต่วันรับทราบคำสั่งและนำหลักฐานการยื่น",
        "ฟ้องพร้อมสำเนาคำฟ้องเกี่ยวกับสิทธิในที่ดินในกรณีที่มีการโต้แย้งคัดค้านไปแสดงต่อพนักงาน",
        "เจ้าหน้าที่ภายในกำหนด หากมิได้นำหลักฐานดังกล่าวไปแสดงภายในกำหนด พนักงานเจ้าหน้าที่จะได้",
        "ดำเนินการตามที่ได้มีคำสั่งเปรียบเทียบไว้ แต่ถ้าได้นำหลักฐานการยื่นฟ้องพร้อมสำเนาคำฟ้อง",
        "เกี่ยวกับสิทธิในที่ดินในกรณีที่มีการโต้แย้งคัดค้านไปแสดงต่อพนักงานเจ้าหน้าที่ภายในกำหนด",
        "พนักงานเจ้าหน้าที่จะรอเรื่องการออกหนังสือแสดงสิทธิในที่ดินนั้นไว้จนกว่าศาลจะมีคำพิพากษาหรือ",
        "คำสั่งถึงที่สุดต่อไป",
        "จึงประกาศให้ทราบทั่วกัน",
        "",
        "ประกาศ ณ วันที่ ๒๑ พฤษภาคม พ.ศ. ๒๕๔๔",
        "ประวิทย์ สีห์โสภณ"
      ]
    ],
    []
  ],
  "metadata": {
    "date_gz_old": "2544-06-07",
    "date_header": "2544-05-21",
    "doctype": "ประกาศ",
    "editors": [
      {
        "name": null,
        "role": null,
        "date": "2544-07-19"
      },
      {
        "name": null,
        "role": null,
        "date": "2544-09-17"
      }
    ],
    "tag": "bb02-2e-2544-a002"
  }
}