{
  "pages": [
    [
      [
        "ประกาศกระทรวงมหาดไทย",
        "เรื่อง เปลี่ยนแปลงเขตพื้นที่ความรับผิดชอบของสำนำงานที่ดิน",
        "กรุงเทพมหานครและสำนักงานที่ดินสาขา"
      ]
    ],
    []
  ],
  "metadata": {
    "date_backmatter": "2542-09-20",
    "date_gz_old": "2542-09-27",
    "doctype": "ประกาศ",
    "editors": [
      {
        "name": "ปรียนันท์",
        "role": "พิมพ์"
      },
      {
        "name": "๒๘/๑๒",
        "role": "๔๔"
      }
    ],
    "tag": "bb02-2e-2542-a005"
  }
}