{
  "pages": [
    [
      [
        "ข้อบัญญัติองค์การบริหารส่วนตำบลบักได",
        "เรื่อง กำหนดค่าตอบแทนการขออนุญาตใช้ประโยชน์ในที่ดินของรัฐ",
        "พ.ศ. ๒๕๕๘"
      ]
    ],
    []
  ],
  "metadata": {
    "date_backmatter": "2558-10-29",
    "date_modified": "2559-03-16",
    "date_original": "2559-03-16",
    "editors": [
      {
        "name": "ปริยานุช",
        "role": "จัดทำ",
        "date": "2559-03-23"
      },
      {
        "name": "วิศนี",
        "role": "ตรวจ",
        "date": "2559-03-30"
      }
    ],
    "tag": "bb02-2j-2559-a0025"
  }
}