{
  "pages": [
    [
      [
        "พระราชบัญญัติ",
        "ให้ใช้ประมวลกฎหมายที่ดิน",
        "พ.ศ. ๒๔๙๗",
        "",
        "",
        "ภูมิพลอดุลยเดช ป.ร.",
        "ให้ไว้ ณ วันที่ ๓๐ พฤศจิกายน พ.ศ. ๒๔๙๗",
        "เป็นปีที่ ๙ ในรัชกาลปัจจุบัน",
        "",
        "พระบาทสมเด็จพระปรมินทรมหาภูมิพลอดุลยเดช มีพระบรมราชโองการโปรดเกล้าฯ ให้ประกาศว่า",
        "",
        "โดยที่เป็นการสมควรที่จะประกาศใช้ประมวลกฎหมายที่ดิน",
        "",
        "จึงทรงพระกรุณาโปรดเกล้าฯ ให้ตราพระราชบัญญัติขึ้นไว้โดยคำแนะนำและยินยอมของสภาผู้แทนราษฎร ดังต่อไปนี้",
        "",
        "มาตรา ๑ พระราชบัญญัตินี้เรียกว่า “พระราชบัญญัติให้ใช้ประมวลกฎหมายที่ดิน พ.ศ. ๒๔๙๗”",
        "",
        "มาตรา ๒ พระราชบัญญัตินี้ให้ใช้บังคับตั้งแต่วันถัดจากวันประกาศในราชกิจจานุเบกษาเป็นต้นไป",
        "",
        "มาตรา ๓ ประมวลกฎหมายที่ดินตามที่ตราไว้ต่อท้ายพระราชบัญญัตินี้ให้ใช้บังคับเป็นกฎหมายตั้งแต่วันที่ ๑ ธันวาคม พ.ศ. ๒๔๙๗ เป็นต้นไป",
        "",
        "มาตรา ๔ ตั้งแต่วันที่ประมวลกฎหมายที่ดินใช้บังคับ ให้ยกเลิก",
        "(๑) พระราชบัญญัติออกตราจองชั่วคราว ซึ่งประกาศเปลี่ยนนามพระราชบัญญัติเมื่อรัตนโกสินทรศก ๑๒๔ เป็นพระราชบัญญัติออกโฉนดตราจอง",
        "(๒) พระราชบัญญัติการออกโฉนดที่ดิน รัตนโกสินทรศก ๑๒๗",
        "(๓) พระราชบัญญัติออกโฉนดที่ดิน ฉบับที่ ๒",
        "(๔) พระราชบัญญัติออกโฉนดที่ดิน ฉบับที่ ๓",
        "(๕) พระราชบัญญัติแก้ไขความในมาตรา ๒๕ แห่งพระราชบัญญัติการออกโฉนดที่ดิน ร.ศ. ๑๒๗",
        "(๖) พระราชบัญญัติว่าด้วยการหวงห้ามที่ดินรกร้างว่างเปล่าอันเป็นสาธารณสมบัติของแผ่นดิน พุทธศักราช ๒๔๗๘",
        "(๗) พระราชบัญญัติออกโฉนดที่ดิน (ฉบับที่ ๕) พุทธศักราช ๒๔๗๙",
        "(๘) พระราชบัญญัติออกโฉนดที่ดิน (ฉบับที่ ๖) พุทธศักราช ๒๔๗๙",
        "(๙) พระราชบัญญัติควบคุมการได้มาซึ่งที่ดินโดยห้างหุ้นส่วนและบริษัทจำกัด เพื่อค้ากำไร พุทธศักราช ๒๔๘๕",
        "(๑๐) พระราชบัญญัติออกโฉนดที่ดิน (ฉบับที่ ๗) พุทธศักราช ๒๔๘๖",
        "(๑๑) พระราชบัญญัติว่าด้วยพนักงานเจ้าหน้าที่จดทะเบียนสิทธิและนิติกรรมเกี่ยวกับอสังหาริมทรัพย์ตามประมวลกฎหมายแพ่งและพาณิชย์ พุทธศักราช ๒๔๘๖",
        "(๑๒) พระราชบัญญัติว่าด้วยพนักงานเจ้าหน้าที่จดทะเบียนสิทธิและนิติกรรมเกี่ยวกับอสังหาริมทรัพย์ตามประมวลกฎหมายแพ่งและพาณิชย์ (ฉบับที่ ๒) พ.ศ.๒๔๙๒",
        "(๑๓) พระราชบัญญัติที่ดินในส่วนที่เกี่ยวกับคนต่างด้าว พุทธศักราช ๒๔๘๖",
        "(๑๔) พระราชบัญญัติที่ดินในส่วนที่เกี่ยวกับคนต่างด้าว (ฉบับที่ ๒) พ.ศ. ๒๔๙๓ และ",
        "(๑๕) บรรดาบทกฎหมาย กฎ และข้อบังคับอื่น ๆ ในส่วนที่มีบัญญัติไว้แล้วในประมวลกฎหมายที่ดิน หรือซึ่งแย้งหรือขัดต่อบทแห่งประมวลกฎหมายที่ดิน",
        "",
        "มาตรา ๕ ให้ผู้ที่ได้ครอบครองและทำประโยชน์ในที่ดินอยู่ก่อนวันที่ประมวลกฎหมายที่ดินใช้บังคับ โดยไม่มีหนังสือสำคัญแสดงกรรมสิทธิ์ที่ดิน แจ้งการครอบครองที่ดินต่อนายอำเภอท้องที่ภายในหนึ่งร้อยแปดสิบวันนับแต่วันที่พระราชบัญญัตินี้ใช้บังคับ ตามหลักเกณฑ์และวิธีการที่รัฐมนตรีกำหนดโดยประกาศในราชกิจจานุเบกษา",
        "วรรคสอง (ยกเลิก)",
        "การแจ้งการครอบครองตามความในมาตรานี้ ไม่ก่อให้เกิดสิทธิขึ้นใหม่แก่ผู้แจ้งแต่ประการใด",
        "",
        "มาตรา ๖ บุคคลที่ครอบครองและทำประโยชน์ในที่ดินอยู่โดยชอบด้วยกฎหมายก่อนวันที่พระราชบัญญัติออกโฉนดที่ดิน (ฉบับที่ ๖) พุทธศักราช ๒๔๗๙ ใช้บังคับ และผู้รับโอนที่ดินดังกล่าว ให้มีสิทธิขอรับโฉนดที่ดินตามบทแห่งประมวลกฎหมายที่ดิน สำหรับบุคคลที่ครอบครองที่ดินตั้งแต่วันที่พระราชบัญญัติออกโฉนดที่ดิน (ฉบับที่ ๖) พุทธศักราช ๒๔๗๙ ใช้บังคับเป็นต้นมา และก่อนวันที่ประมวลกฎหมายที่ดินใช้บังคับ ถ้าไม่ดำเนินการให้ชอบด้วยกฎหมายที่ใช้บังคับอยู่ในขณะนั้นการออกโฉนดที่ดินให้เป็นไปตามหลักเกณฑ์และวิธีการที่กำหนดโดยกฎกระทรวงและให้พระราชบัญญัติออกโฉนดที่ดิน (ฉบับที่ ๖) พุทธศักราช ๒๔๗๙ คงใช้บังคับต่อไป",
        "มาตรา ๗ ที่ดินที่ได้รับอนุญาตให้จับจองไว้แล้วตามพระราชบัญญัติออกโฉนดที่ดิน (ฉบับที่ ๖) พุทธศักราช ๒๔๗๙ และยังมิได้รับคำรับรองว่า ได้ทำประโยชน์แล้วก่อนวันที่พระราชบัญญัตินี้ใช้บังคับ ให้ถือว่าผู้ได้รับอนุญาตยังมีสิทธิที่จะมาขอคำรับรองจากนายอำเภอได้จนกว่าจะครบกำหนดหนึ่งร้อยแปดสิบวัน นับจากวันสิ้นสุดเวลาแห่งการจับจองตามพระราชบัญญัติดังกล่าว",
        "ในกรณีระยะเวลาแห่งการจับจองดังกล่าวในวรรคแรกสิ้นสุดลง ก่อนวันที่ประมวลกฎหมายที่ดินใช้บังคับ หากปรากฏว่าการทำประโยชน์จากที่ดินที่ได้รับอนุญาตให้จับจองอยู่ในสภาพที่จะพึงขอคำรับรองว่า ได้ทำประโยชน์ดังกล่าวแล้วได้ ให้ยื่นคำขอต่อนายอำเภอเพื่อขอคำรับรองเสียภายในกำหนดหนึ่งร้อยแปดสิบวันนับแต่วันที่ประมวลกฎหมายที่ดินใช้บังคับ เมื่อพ้นกำหนดเวลาดังกล่าว ให้ถือว่าที่ดินนั้นปลอดจากการจับจองเว้นแต่นายอำเภอได้มีคำสั่งผ่อนผันให้เป็นการเฉพาะราย",
        "",
        "มาตรา ๘ การพิจารณาว่าที่ดินได้ทำประโยชน์แล้วหรือไม่ ให้เป็นไปตามหลักเกณฑ์ที่กำหนดในกฎกระทรวง",
        "ที่ดินที่ได้รับอนุญาตให้จับจอง แต่ยังไม่ได้รับคำรับรองจากนายอำเภอว่าได้ทำประโยชน์แล้ว ผู้ได้รับอนุญาตจะโอนไปไม่ได้เว้นแต่จะตกทอดโดยทางมรดก",
        "",
        "มาตรา ๙ ที่ดินที่ได้รับคำรับรองจากนายอำเภอว่า ได้ทำประโยชน์แล้วให้โอนกันได้",
        "",
        "มาตรา ๑๐ ที่ดินซึ่งได้หวงห้ามไว้เพื่อประโยชน์ตามพระราชบัญญัติว่าด้วยการหวงห้ามที่ดินรกร้างว่างเปล่าอันเป็นสาธารณสมบัติของแผ่นดิน พุทธศักราช ๒๔๗๘ หรือตามกฎหมายอื่นอยู่ก่อนวันที่ประมวลกฎหมายที่ดินใช้บังคับ ให้คงเป็นที่หวงห้ามต่อไป",
        "",
        "มาตรา ๑๑ ในเขตท้องที่ซึ่งได้ออกโฉนดตราจองและตราจองที่ตราว่า “ได้ทำประโยชน์แล้ว” ก่อนวันที่ประมวลกฎหมายที่ดินใช้บังคับ ให้คงใช้บทกฎหมายว่าด้วยการนั้นเฉพาะในส่วนที่บัญญัติถึงวิธีการรังวัดและการออกหนังสือสำคัญดังกล่าวข้างต้นต่อไปจนกว่าจะได้ออกโฉนดที่ดินตามประมวลกฎหมายที่ดินแล้ว",
        "",
        "มาตรา ๑๒ บุคคลใดจะได้มาซึ่งที่ดินโดยมีสัญญาจะซื้อจะขาย หรือสัญญาเช่าซื้อซึ่งได้กระทำไว้ก่อนวันที่พระราชบัญญัตินี้ใช้บังคับ ถ้าได้จดแจ้งสัญญานั้นต่อพนักงานเจ้าหน้าที่ตามมาตรา ๗๑ แห่งประมวลกฎหมายที่ดินตามหลักเกณฑ์และวิธีการที่รัฐมนตรีกำหนด ภายในหนึ่งร้อยยี่สิบวันนับแต่วันที่พระราชบัญญัตินี้ใช้บังคับ เมื่อได้มีการซื้อขายไปตามสัญญาเช่นว่านั้น ให้ถือเสมือนว่าผู้ซื้อหรือผู้เช่าซื้อมีสิทธิในที่ดินอยู่ก่อนวันที่ประมวลกฎหมายที่ดินใช้บังคับ",
        "",
        "มาตรา ๑๓ บุคคลใดได้ขายฝากที่ดินไว้ก่อนวันที่พระราชบัญญัตินี้ใช้บังคับ ถ้าได้ทำการไถ่ถอนที่ดินนั้น เมื่อประมวลกฎหมายที่ดินได้ใช้บังคับแล้วให้ถือเสมือนว่าผู้นั้นเป็น ผู้มีสิทธิในที่ดินอยู่ก่อนวันที่ประมวลกฎหมายที่ดินใช้บังคับ",
        "",
        "มาตรา ๑๔ บุคคลใดได้ดำเนินการขอจับจองที่ดินไว้ต่อพนักงานเจ้าหน้าที่ก่อนวันที่พระราชบัญญัตินี้ใช้บังคับ แต่ยังไม่ได้รับอนุญาต ให้นายอำเภอมีอำนาจดำเนินการตามนัยแห่งพระราชบัญญัติออกโฉนดที่ดิน (ฉบับที่ ๖) พุทธศักราช ๒๔๗๙ ต่อไปจนถึงที่สุดได้",
        "",
        "มาตรา ๑๕ ให้รัฐมนตรีว่าการกระทรวงมหาดไทยรักษาการตามพระราชบัญญัตินี้ และตามประมวลกฎหมายที่ดิน และให้มีอำนาจแต่งตั้งเจ้าพนักงานที่ดินและพนักงานเจ้าหน้าที่กับออกกฎกระทรวงเพื่อปฏิบัติการให้เป็นไปตามพระราชบัญญัตินี้และประมวลกฎหมายที่ดิน",
        "กฎกระทรวงนั้น เมื่อได้ประกาศในราชกิจจานุเบกษาแล้ว ให้ใช้บังคับได้",
        "",
        "",
        "ผู้รับสนองพระบรมราชโองการ",
        "จอมพล ป. พิบูลสงคราม",
        "นายกรัฐมนตรี"
      ]
    ],
    []
  ],
  "metadata": {
    "date_header": "2497-11-30",
    "date_modified": "2550-09-27",
    "date_original": "2497-11-30",
    "doctype": "พระราชบัญญัติ",
    "editors": [
      {
        "name": "ปรียนันท์",
        "role": "แก้ไข",
        "date": "2545-03-05"
      },
      {
        "name": "วศิน",
        "role": "แก้ไข",
        "date": "2552-09-02"
      },
      {
        "name": "สุเมธ",
        "role": "ปรับปรุง",
        "date": "2558-11-16"
      }
    ],
    "tag": "bb02-20-2550-a0002",
    "title": "ให้ใช้ประมวลกฎหมายที่ดิน"
  }
}