{
  "pages": [
    [
      [
        "ประกาศกรมที่ดิน",
        "เรื่อง ตั้งสำนักงานที่ดินส่วนแยก (ฉบับที่ ๒๒)"
      ]
    ],
    []
  ],
  "metadata": {
    "date_backmatter": "2555-01-12",
    "date_modified": "2555-02-07",
    "date_original": "2555-02-07",
    "doctype": "ประกาศ",
    "editors": [
      {
        "name": "ปริยานุช",
        "role": "ผู้จัดทำ",
        "date": "2555-02-13"
      },
      {
        "name": "ณัฐพร",
        "role": "ผู้ตรวจ",
        "date": "2555-02-13"
      }
    ],
    "tag": "bb02-2e-2555-a0006"
  }
}