{
  "pages": [
    [
      [
        "ข้อบัญญัติองค์การบริหารส่วนตำบลดอยฮาง",
        "เรื่อง การเรียกเก็บค่าตอบแทนรายปี",
        "ตามประมวลกฎหมายที่ดิน",
        "(ฉบับที่ ๒)",
        "พ.ศ. ๒๕๕๒"
      ]
    ],
    []
  ],
  "metadata": {
    "date_backmatter": "2552-05-19",
    "date_modified": "2552-12-03",
    "date_original": "2552-12-03",
    "editors": [
      {
        "name": "ปริยานุช",
        "role": "ผู้จัดทำ",
        "date": "2552-12-15"
      },
      {
        "name": "นันท์นภัสร์",
        "role": "ตรวจ",
        "date": "2552-12-15"
      }
    ],
    "tag": "bb02-2j-2552-a0020"
  }
}