{
  "pages": [
    [
      [
        "ประกาศกระทรวงมหาดไทย",
        "เรื่อง ตั้งสำนักงานที่ดินสาขาในกรุงเทพมหานคร"
      ]
    ],
    []
  ],
  "metadata": {
    "date_backmatter": "2551-11-24",
    "date_modified": "2551-12-01",
    "date_original": "2551-12-01",
    "doctype": "ประกาศ",
    "editors": [
      {
        "name": "ปริยานุช",
        "role": "ผู้จัดทำ",
        "date": "2551-12-08"
      }
    ],
    "tag": "bb02-2e-2551-a0011"
  }
}