{
  "pages": [
    [
      [
        "ระเบียบกรมที่ดิน",
        "ว่าด้วยการจดทะเบียนสิทธิเกี่ยวกับอสังหาริมทรัพย์",
        "ซึ่งได้มาโดยทางมรดก",
        "พ.ศ. ๒๕๔๘"
      ]
    ],
    []
  ],
  "metadata": {
    "date_backmatter": "2548-08-09",
    "date_modified": "2549-07-06",
    "date_original": "2548-12-08",
    "editors": [
      {
        "name": "โชติกานต์",
        "role": "ผู้จัดทำ",
        "date": "2557-05-23"
      }
    ],
    "tag": "bb02-2g-2549-a0003"
  }
}