{
  "pages": [
    [
      [
        "ประกาศกระทรวงมหาดไทย",
        "เรื่อง เปลี่ยนแปลงเขตพื้นที่ความรับผิดชอบของ",
        "สำนักงานที่ดินจังหวัดบุรีรัมย์ สาขานางรอง"
      ]
    ],
    []
  ],
  "metadata": {
    "date_backmatter": "2556-05-31",
    "date_modified": "2556-06-21",
    "date_original": "2556-06-21",
    "doctype": "ประกาศ",
    "editors": [
      {
        "name": "ปริยานุช",
        "role": "ผู้จัดทำ",
        "date": "2556-06-25"
      },
      {
        "name": "อุษมล",
        "role": "ผู้ตรวจ",
        "date": "2556-07-02"
      }
    ],
    "tag": "bb02-2e-2556-a0014"
  }
}