{
  "pages": [
    [
      [
        "ข้อบัญญัติองค์การบริหารส่วนตำบลแม่ข้าวต้ม",
        "เรื่อง การเรียกเก็บค่าตอบแทนรายปีตามประมวลกฎหมายที่ดิน",
        "พ.ศ. ๒๕๕๑"
      ]
    ],
    []
  ],
  "metadata": {
    "date_backmatter": "2551-07-31",
    "date_modified": "2553-01-06",
    "date_original": "2553-01-06",
    "editors": [
      {
        "name": "ปริยานุช",
        "role": "ผู้จัดทำ",
        "date": "2553-01-12"
      },
      {
        "name": "นันท์นภัสร์",
        "role": "ตรวจ",
        "date": "2553-01-12"
      }
    ],
    "tag": "bb02-2j-2553-a0001"
  }
}