{
  "pages": [
    [
      [
        "ประกาศกรมที่ดิน",
        "เรื่อง การได้มาซึ่งที่ดินเพื่อใช้เป็นที่อยู่อาศัยของคนต่างด้าว"
      ]
    ],
    []
  ],
  "metadata": {
    "date_backmatter": "2545-02-04",
    "date_gz_old": "2545-02-20",
    "doctype": "ประกาศ",
    "editors": [
      {
        "name": "พรพิมล/พิมพ์",
        "role": "แก้ไข",
        "date": "2545-08-13"
      }
    ],
    "tag": "bb02-2e-2545-a002"
  }
}