{
  "pages": [
    [
      [
        "ประกาศกระทรวงมหาดไทย",
        "เรื่อง การจัดขึ้นทะเบียนที่ดินของรัฐ เพื่อให้ทบวงการเมืองใช้ประโยชน์ในราชการ",
        "ในท้องที่ตำบลห้วยไคร้ อำเภอแม่สาย จังหวัดเชียงราย"
      ]
    ],
    []
  ],
  "metadata": {
    "date_backmatter": "2560-08-30",
    "date_modified": "2560-10-27",
    "date_original": "2560-10-27",
    "doctype": "ประกาศ",
    "editors": [
      {
        "name": "พิมพ์มาดา/ภวรรณตรี",
        "role": "จัดทำ",
        "date": "2560-11-06"
      },
      {
        "name": "วิชพงษ์",
        "role": "ตรวจ",
        "date": "2560-11-20"
      }
    ],
    "tag": "bb02-2e-2560-a0010"
  }
}