{
  "pages": [
    [
      [
        "ประกาศกระทรวงมหาดไทย",
        "เรื่อง การจัดขึ้นทะเบียนที่ดินของรัฐ เพื่อให้ทบวงการเมืองใช้ประโยชน์ในราชการ",
        "ในท้องที่ตำบลหนองกลับ อำเภอสวรรคโลก จังหวัดสุโขทัย"
      ]
    ],
    []
  ],
  "metadata": {
    "date_backmatter": "2555-05-11",
    "date_modified": "2555-07-20",
    "date_original": "2555-07-20",
    "doctype": "ประกาศ",
    "editors": [
      {
        "name": "ปริยานุช",
        "role": "ผู้จัดทำ",
        "date": "2555-07-25"
      },
      {
        "name": "ปณตภร",
        "role": "ผู้ตรวจ",
        "date": "2555-07-27"
      }
    ],
    "tag": "bb02-2e-2555-a0013"
  }
}