{
  "pages": [
    [
      [
        "พระราชกฤษฎีกา",
        "ถอนสภาพที่ดินอันเป็นสาธารณสมบัติของแผ่นดิน",
        "สำหรับพลเมืองใช้ร่วมกัน ในท้องที่ตำบลควนสุบรรณ",
        "อำเภอบ้านนาสาร จังหวัดสุราษฎร์ธานี",
        "พ.ศ. ๒๕๖๑",
        "",
        "",
        "สมเด็จพระเจ้าอยู่หัวมหาวชิราลงกรณ บดินทรเทพยวรางกูร",
        "ให้ไว้ ณ วันที่ ๘ พฤศจิกายน พ.ศ. ๒๕๖๑",
        "เป็นปีที่ ๓ ในรัชกาลปัจจุบัน"
      ]
    ],
    []
  ],
  "metadata": {
    "date_backmatter": "2533-02-07",
    "date_header": "2561-11-08",
    "date_modified": "2561-11-11",
    "date_original": "2561-11-11",
    "doctype": "พระราชกฤษฎีกา",
    "editors": [
      {
        "name": "พรวิภา/ธนบดี",
        "role": "จัดทำ",
        "date": "2561-11-12"
      },
      {
        "name": "นุสรา",
        "role": "ตรวจ",
        "date": "2561-11-21"
      }
    ],
    "tag": "bb02-2a-2561-a0002",
    "title": "ถอนสภาพที่ดินอันเป็นสาธารณสมบัติของแผ่นดินสำหรับพลเมืองใช้ร่วมกัน ในท้องที่ตำบลควนสุบรรณอำเภอบ้านนาสาร จังหวัดสุราษฎร์ธานี"
  }
}