{
  "pages": [
    [
      [
        "ประกาศกระทรวงมหาดไทย",
        "เรื่อง การจัดขึ้นทะเบียนที่ดินของรัฐ เพื่อให้ทบวงการเมืองใช้ประโยชน์ในราชการ",
        "ในท้องที่ตำบลท่าอ่าง อำเภอโชคชัย จังหวัดนครราชสีมา"
      ]
    ],
    []
  ],
  "metadata": {
    "date_backmatter": "2556-05-31",
    "date_modified": "2556-07-25",
    "date_original": "2556-07-25",
    "doctype": "ประกาศ",
    "editors": [
      {
        "name": "ปริยานุช",
        "role": "ผู้จัดทำ",
        "date": "2556-07-30"
      },
      {
        "name": "โชติกานต์",
        "role": "ผู้ตรวจ",
        "date": "2556-08-13"
      }
    ],
    "tag": "bb02-2e-2556-a0015"
  }
}