{
  "pages": [
    [
      [
        "กฎกระทรวง",
        "ฉบับที่ ๔๕ (พ.ศ. ๒๕๓๗)",
        "ออกตามความในพระราชบัญญัติให้ใช้ประมวลกฎหมายที่ดิน",
        "พ.ศ. ๒๔๙๗"
      ]
    ],
    []
  ],
  "metadata": {
    "date_backmatter": "2537-11-30",
    "date_gz_old": "2537-12-15",
    "doctype": "กฎกระทรวง",
    "editors": [
      {
        "name": "พรพิมล",
        "role": "แก้ไข",
        "date": "2545-06-07"
      }
    ],
    "tag": "bb02-2b-2537-045"
  }
}