{
  "pages": [
    [
      [
        "ระเบียบของคณะกรรมการจัดที่ดินแห่งชาติ",
        "ฉบับที่ ๑๒ (พ.ศ. ๒๕๓๒)",
        "ว่าด้วยเงื่อนไขการออกโฉนดที่ดินหรือหนังสือรับรองการทำประโยชน์"
      ]
    ],
    []
  ],
  "metadata": {
    "date_backmatter": "2532-10-04",
    "date_gz_old": "2532-10-12",
    "editors": [
      {
        "name": "พรพิมล",
        "role": "แก้ไข",
        "date": "2545-07-02"
      }
    ],
    "tag": "bb02-2b-2532-a0001"
  }
}