{
  "pages": [
    [
      [
        "พระราชกฤษฎีกา",
        "ถอนสภาพที่ดินอันเป็นสาธารณสมบัติ",
        "ของแผ่นดินสำหรับพลเมืองใช้ร่วมกัน ในท้องที่ตำบลโพธาราม",
        "อำเภอโพธาราม จังหวัดราชบุรี",
        "พ.ศ. ๒๕๔๙",
        "",
        "",
        "ภูมิพลอดุลยเดช ป.ร.",
        "ให้ไว้ ณ วันที่ ๒๒ มิถุนายน พ.ศ. ๒๕๔๙",
        "เป็นปีที่ ๖๑ ในรัชกาลปัจจุบัน"
      ]
    ],
    []
  ],
  "metadata": {
    "date_header": "2549-06-22",
    "date_modified": "2549-07-13",
    "date_original": "2549-07-13",
    "doctype": "พระราชกฤษฎีกา",
    "editors": [
      {
        "name": "นันทนา",
        "role": "ผู้จัดทำ",
        "date": "2549-07-19"
      }
    ],
    "tag": "bb02-2a-2549-a0004",
    "title": "ถอนสภาพที่ดินอันเป็นสาธารณสมบัติของแผ่นดินสำหรับพลเมืองใช้ร่วมกัน ในท้องที่ตำบลโพธารามอำเภอโพธาราม จังหวัดราชบุรี"
  }
}