{
  "pages": [
    [
      [
        "ข้อบัญญัติองค์การบริหารส่วนตำบลห้วยซ้อ",
        "เรื่อง การกำหนดหลักเกณฑ์ และค่าตอบแทน",
        "ในการอนุญาตให้เข้าทำประโยชน์ในที่ดินของรัฐ",
        "พ.ศ. ๒๕๕๑"
      ]
    ],
    []
  ],
  "metadata": {
    "date_backmatter": "2551-09-12",
    "date_modified": "2552-10-01",
    "date_original": "2552-10-01",
    "editors": [
      {
        "name": "ปริยานุช",
        "role": "ผู้จัดทำ",
        "date": "2552-10-08"
      },
      {
        "name": "นันท์นภัสร์",
        "role": "ตรวจ",
        "date": "2552-10-18"
      }
    ],
    "tag": "bb02-2j-2552-a0013"
  }
}