{
  "pages": [
    [
      [
        "ประกาศกระทรวงมหาดไทย",
        "เรื่อง หลักเกณฑ์การลดหย่อนค่าธรรมเนียมจดทะเบียนสิทธิและนิติกรรมเป็นพิเศษ",
        "ตามประมวลกฎหมายที่ดิน สำหรับกรณีการโอนอสังหาริมทรัพย์",
        "ในการปฏิรูปที่ดินเพื่อเกษตรกรรม"
      ]
    ],
    []
  ],
  "metadata": {
    "date_backmatter": "2553-01-26",
    "date_modified": "2553-02-05",
    "date_original": "2553-02-05",
    "doctype": "ประกาศ",
    "editors": [
      {
        "name": "ปริยานุช",
        "role": "ผู้จัดทำ",
        "date": "2553-02-17"
      },
      {
        "name": "นันท์นภัสร์",
        "role": "ตรวจ",
        "date": "2553-02-17"
      }
    ],
    "tag": "bb02-2e-2553-a0011"
  }
}