{
  "pages": [
    [
      [
        "ประกาศกรมที่ดิน",
        "เรื่อง ตั้งสำนักงานที่ดินส่วนแยก (ฉบับที่ ๖)"
      ]
    ],
    []
  ],
  "metadata": {
    "date_backmatter": "2544-02-23",
    "date_gz_old": "2544-05-21",
    "doctype": "ประกาศ",
    "editors": [
      {
        "name": "พรพิมล",
        "role": "พิมพ์",
        "date": "2544-07-12"
      }
    ],
    "tag": "bb02-2e-2544-a0001"
  }
}