{
  "pages": [
    [
      [
        "ประกาศกระทรวงมหาดไทย",
        "เรื่อง ยกเลิกอำนาจหน้าที่ของนายอำเภอเกี่ยวกับการปฏิบัติการ",
        "ตามประมวลกฎหมายที่ดิน",
        "(ฉบับที่ ๕๑)"
      ]
    ],
    []
  ],
  "metadata": {
    "date_backmatter": "2556-02-19",
    "date_modified": "2556-03-22",
    "date_original": "2556-03-22",
    "doctype": "ประกาศ",
    "editors": [
      {
        "name": "ปริยานุช",
        "role": "ผู้จัดทำ",
        "date": "2556-04-24"
      },
      {
        "name": "เอกฤทธิ์",
        "role": "ผู้ตรวจ",
        "date": "2556-04-24"
      }
    ],
    "tag": "bb02-2e-2556-a0011"
  }
}