{
  "pages": [
    [
      [
        "ประกาศกระทรวงมหาดไทย",
        "เรื่อง การจัดขึ้นทะเบียนที่ดินของรัฐเพื่อให้ทบวงการเมืองใช้ประโยชน์ในราชการ",
        "ในท้องที่ตำบลเขารูปช้าง อำเภอเมืองสงขลา จังหวัดสงขลา"
      ]
    ],
    []
  ],
  "metadata": {
    "date_backmatter": "2556-01-14",
    "date_modified": "2556-03-14",
    "date_original": "2556-03-14",
    "doctype": "ประกาศ",
    "editors": [
      {
        "name": "ปริยานุช",
        "role": "ผู้จัดทำ",
        "date": "2556-03-18"
      },
      {
        "name": "อุษมล",
        "role": "ผู้ตรวจ",
        "date": "2556-03-26"
      }
    ],
    "tag": "bb02-2e-2556-a0002"
  }
}