{
  "pages": [
    [
      [
        "ประกาศกระทรวงมหาดไทย",
        "เรื่อง เปลี่ยนแปลงเขตพื้นที่ความรับผิดชอบของสำนักงานที่ดินกรุงเทพมหานคร",
        "และสำนักงานที่ดินกรุงเทพมหานคร สาขาจตุจักร"
      ]
    ],
    []
  ],
  "metadata": {
    "date_backmatter": "2560-05-17",
    "date_modified": "2560-05-24",
    "date_original": "2560-05-24",
    "doctype": "ประกาศ",
    "editors": [
      {
        "name": "ภวรรณตรี",
        "role": "จัดทำ",
        "date": "2560-05-25"
      },
      {
        "name": "ชวัลพร",
        "role": "ตรวจ",
        "date": "2560-05-25"
      }
    ],
    "tag": "bb02-2e-2560-a0002"
  }
}