{
  "pages": [
    [
      [
        "ประกาศกรมที่ดิน",
        "เรื่อง กำหนดพื้นที่ทำการรังวัดโดยวิธีแผนที่ชั้นหนึ่ง"
      ]
    ],
    []
  ],
  "metadata": {
    "date_backmatter": "2560-07-31",
    "date_modified": "2560-10-06",
    "date_original": "2560-10-06",
    "doctype": "ประกาศ",
    "editors": [
      {
        "name": "พัชรภรณ์/อัญชลี",
        "role": "จัดทำ",
        "date": "2560-10-10"
      }
    ],
    "tag": "bb02-2e-2560-a0015"
  }
}