{
  "pages": [
    [
      [
        "ประกาศกระทรวงมหาดไทย",
        "เรื่อง ตั้งสำนักงานที่ดินสาขาในจังหวัดนราธิวาส"
      ]
    ],
    []
  ],
  "metadata": {
    "date_backmatter": "2554-04-07",
    "date_modified": "2554-05-06",
    "date_original": "2554-05-06",
    "doctype": "ประกาศ",
    "editors": [
      {
        "name": "ปริยานุช",
        "role": "ผู้จัดทำ",
        "date": "2554-05-24"
      },
      {
        "name": "ณัฐวดี",
        "role": "ตรวจ",
        "date": "2554-05-24"
      }
    ],
    "tag": "bb02-2e-2554-a0007"
  }
}