{
  "pages": [
    [
      [
        "ประกาศกระทรวงมหาดไทย",
        "เรื่อง การถอนการหวงห้ามในบริเวณเขาฉลาก บางส่วน",
        "ออกจากการเป็นเขตหวงห้าม"
      ]
    ],
    []
  ],
  "metadata": {
    "date_backmatter": "2548-11-02",
    "date_modified": "2549-03-09",
    "date_original": "2549-03-09",
    "doctype": "ประกาศ",
    "editors": [
      {
        "name": "ชัชสรัญ",
        "role": "ผู้จัดทำ",
        "date": "2549-03-16"
      }
    ],
    "tag": "bb02-2e-2549-a0001"
  }
}