{
  "pages": [
    [
      [
        "- ประกาศกระทรวงมหาดไทย เรื่อง การจัดขึ้นทะเบียนที่ดินของรัฐ เพื่อให้ทบวง",
        "การเมืองใช้ประโยชน์ในราชการ ในท้องที่ตำบลศาลาด่าน อำเภอเกาะลันตา จังหวัดกระบี่",
        "[รก.๒๕๔๕/พ๔๒ง/๑๒/๑๐ พฤษภาคม ๒๕๔๕]"
      ]
    ],
    []
  ],
  "metadata": {
    "date_header": "2545-05-10",
    "editors": [],
    "tag": "bb02-2e-2545-a0001"
  }
}