{
  "pages": [
    [
      [
        "ข้อบัญญัติองค์การบริหารส่วนตำบลชุมแสง",
        "เรื่อง การกำหนดค่าตอบแทนการขออนุญาตใช้ประโยชน์ในที่ดินของรัฐ พ.ศ. ๒๕๕๗"
      ]
    ],
    []
  ],
  "metadata": {
    "date_backmatter": "2558-01-19",
    "date_modified": "2558-07-13",
    "date_original": "2558-07-13",
    "editors": [
      {
        "name": "ปริยานุช",
        "role": "ผู้จัดทำ",
        "date": "2558-07-22"
      },
      {
        "name": "ปัญจพร",
        "role": "ผู้ตรวจ",
        "date": "2558-07-22"
      }
    ],
    "tag": "bb02-2j-2558-a0004"
  }
}