{
  "pages": [
    [
      [
        "ประกาศกระทรวงมหาดไทย",
        "เรื่อง การจัดขึ้นทะเบียนที่ดินของรัฐ เพื่อให้ทบวงการเมืองใช้ประโยชน์ในราชการ",
        "ในท้องที่ตำบลนาทุ่ง อำเภอสวรรคโลก จังหวัดสุโขทัย"
      ]
    ],
    []
  ],
  "metadata": {
    "date_backmatter": "2559-07-28",
    "date_modified": "2559-09-09",
    "date_original": "2559-09-09",
    "doctype": "ประกาศ",
    "editors": [
      {
        "name": "วิศนี/ปริยานุช",
        "role": "จัดทำ",
        "date": "2559-09-14"
      }
    ],
    "tag": "bb02-2e-2559-a0004"
  }
}