{
  "pages": [
    [
      [
        "ข้อบัญญัติองค์การบริหารส่วนตำบลคำโตนด",
        "เรื่อง การกำหนดอัตราค่าตอบแทนในการขออนุญาต",
        "ตามมาตรา ๙ แห่งประมวลกฎหมายที่ดิน"
      ]
    ],
    []
  ],
  "metadata": {
    "date_backmatter": "2552-09-30",
    "date_modified": "2557-06-05",
    "date_original": "2557-06-05",
    "editors": [
      {
        "name": "ปริยานุช",
        "role": "ผู้จัดทำ",
        "date": "2557-06-11"
      },
      {
        "name": "นุสรา",
        "role": "ผู้ตรวจ",
        "date": "2557-08-13"
      }
    ],
    "tag": "bb02-2j-2557-a0005"
  }
}