{
  "pages": [
    [
      [
        "ประกาศกระทรวงมหาดไทย",
        "เรื่อง การเรียกเก็บค่าธรรมเนียมจดทะเบียนสิทธิและนิติกรรม",
        "ตามประมวลกฎหมายที่ดิน กรณีอสังหาริมทรัพย์ที่เป็นอาคารที่อยู่อาศัย",
        "ตามหลักเกณฑ์ที่คณะรัฐมนตรีกำหนด"
      ]
    ],
    []
  ],
  "metadata": {
    "date_backmatter": "2558-10-28",
    "date_modified": "2558-10-28",
    "date_original": "2558-10-28",
    "doctype": "ประกาศ",
    "editors": [
      {
        "name": "ปริยานุช",
        "role": "จัดทำ",
        "date": "2558-11-02"
      },
      {
        "name": "ปริญสินีย์",
        "role": "ตรวจ",
        "date": "2558-11-23"
      }
    ],
    "tag": "bb02-2e-2558-a0008"
  }
}