{
  "pages": [
    [
      [
        "ประกาศกระทรวงมหาดไทย",
        "เรื่อง ยกเลิกอำนาจหน้าที่ของนายอำเภอเกี่ยวกับ",
        "การปฏิบัติการตามประมวลกฎหมายที่ดิน (ฉบับที่ ๒๗)"
      ]
    ],
    []
  ],
  "metadata": {
    "date_backmatter": "2544-07-23",
    "date_gz_old": "2544-07-30",
    "doctype": "ประกาศ",
    "editors": [
      {
        "name": "ภคินี",
        "role": "แก้ไข",
        "date": "2545-04-23"
      }
    ],
    "tag": "bb02-2e-2544-a006"
  }
}