{
  "pages": [
    [
      [
        "กฎกระทรวง",
        "ฉบับที่ ๓๓ (พ.ศ. ๒๕๒๖)",
        "ออกตามความในพระราชบัญญัติให้ใช้ประมวลกฎหมายที่ดิน",
        "พ.ศ. ๒๔๙๗"
      ]
    ],
    []
  ],
  "metadata": {
    "date_backmatter": "2526-01-11",
    "date_gz_old": "2526-02-01",
    "doctype": "กฎกระทรวง",
    "editors": [],
    "tag": "bb02-2b-2526-033"
  }
}