{
  "pages": [
    [
      [
        "ประกาศกระทรวงมหาดไทย",
        "เรื่อง การลดค่าธรรมเนียมจดทะเบียนสิทธิและนิติกรรม",
        "กรณีปรับปรุงโครงสร้างหนี้ตามหลักเกณฑ์ที่คณะรัฐมนตรีกำหนด"
      ]
    ],
    []
  ],
  "metadata": {
    "date_backmatter": "2543-11-24",
    "date_gz_old": "2543-11-29",
    "doctype": "ประกาศ",
    "editors": [
      {
        "name": "อัมพิกา",
        "role": "แก้ไข",
        "date": "2545-05-03"
      }
    ],
    "tag": "bb02-2e-2543-a006"
  }
}