{
  "pages": [
    [
      [
        "พระราชกฤษฎีกา",
        "ถอนสภาพที่ดินอันเป็นสาธารณสมบัติของแผ่นดินสำหรับพลเมืองใช้ร่วมกัน",
        "ในท้องที่ตำบลธัญญา อำเภอกมลาไสย จังหวัดกาฬสินธุ์",
        "พ.ศ. ๒๕๕๕",
        "",
        "",
        "ภูมิพลอดุลยเดช ป.ร.",
        "ให้ไว้ ณ วันที่ ๒ กุมภาพันธ์ พ.ศ. ๒๕๕๕",
        "เป็นปีที่ ๖๗ ในรัชกาลปัจจุบัน"
      ]
    ],
    []
  ],
  "metadata": {
    "date_backmatter": "2535-12-11",
    "date_header": "2555-02-02",
    "date_modified": "2555-02-10",
    "date_original": "2555-02-10",
    "doctype": "พระราชกฤษฎีกา",
    "editors": [
      {
        "name": "ปริยานุช",
        "role": "ผู้จัดทำ",
        "date": "2555-02-16"
      },
      {
        "name": "ณัฐพร",
        "role": "ผู้ตรวจ",
        "date": "2555-02-16"
      }
    ],
    "tag": "bb02-2a-2555-a0002",
    "title": "ถอนสภาพที่ดินอันเป็นสาธารณสมบัติของแผ่นดินสำหรับพลเมืองใช้ร่วมกันในท้องที่ตำบลธัญญา อำเภอกมลาไสย จังหวัดกาฬสินธุ์"
  }
}