{
  "pages": [
    [
      [
        "กฎกระทรวง",
        "ฉบับที่ ๔๐ (พ.ศ. ๒๕๓๔)",
        "ออกตามความในพระราชบัญญัติให้ใช้ประมวลกฎหมายที่ดิน",
        "พ.ศ. ๒๔๙๗"
      ]
    ],
    []
  ],
  "metadata": {
    "date_backmatter": "2534-06-19",
    "date_gz_old": "2534-06-25",
    "doctype": "กฎกระทรวง",
    "editors": [
      {
        "name": "ชไมพร",
        "role": "พิมพ์",
        "date": "2544-09-28"
      }
    ],
    "tag": "bb02-2b-2534-040"
  }
}