{
  "pages": [
    [
      [
        "เทศบัญญัติเทศบาลตำบลพลา",
        "เรื่อง กำหนดวิธีการและอัตราค่าตอบแทนการอนุญาต",
        "ตามมาตรา ๙ แห่งประมวลกฎหมายที่ดิน",
        "พ.ศ. ๒๕๕๓"
      ]
    ],
    []
  ],
  "metadata": {
    "date_backmatter": "2553-09-08",
    "date_modified": "2553-11-11",
    "date_original": "2553-11-11",
    "editors": [
      {
        "name": "ปริยานุช",
        "role": "ผู้จัดทำ",
        "date": "2553-11-17"
      },
      {
        "name": "ณัฐวดี",
        "role": "ตรวจ",
        "date": "2553-11-17"
      }
    ],
    "tag": "bb02-2k-2553-a0001"
  }
}