{
  "pages": [
    [
      [
        "ประกาศกระทรวงมหาดไทย",
        "เรื่อง การลดหย่อนค่าธรรมเนียมจดทะเบียนสิทธิและนิติกรรม",
        "กรณีสถาบันการเงินรับโอนสินทรัพย์กลับคืนจากบริษัทบริหารสินทรัพย์"
      ]
    ],
    []
  ],
  "metadata": {
    "date_backmatter": "2543-03-20",
    "date_gz_old": "2543-03-24",
    "doctype": "ประกาศ",
    "editors": [
      {
        "name": "อัมพิกา",
        "role": "แก้ไข",
        "date": "2545-05-03"
      }
    ],
    "tag": "bb02-2e-2543-a005"
  }
}