{
  "pages": [
    [
      [
        "ประกาศกระทรวงมหาดไทย",
        "เรื่อง หลักเกณฑ์การลดหย่อนค่าธรรมเนียมจดทะเบียนสิทธิและนิติกรรม",
        "เป็นพิเศษตามประมวลกฎหมายที่ดิน สำหรับกรณีการปรับปรุง",
        "โครงสร้างหนี้ ตามหลักเกณฑ์ที่คณะรัฐมนตรีกำหนด"
      ]
    ],
    []
  ],
  "metadata": {
    "date_backmatter": "2555-09-20",
    "date_modified": "2555-09-27",
    "date_original": "2555-09-27",
    "doctype": "ประกาศ",
    "editors": [
      {
        "name": "ปริยานุช",
        "role": "ผู้จัดทำ",
        "date": "2555-10-02"
      },
      {
        "name": "ณัฐพร",
        "role": "ผู้ตรวจ",
        "date": "2555-10-02"
      }
    ],
    "tag": "bb02-2e-2555-a0016"
  }
}