{
  "pages": [
    [
      [
        "ประกาศกระทรวงมหาดไทย",
        "เรื่อง ตั้งสำนักงานที่ดินสาขาในจังหวัดกาญจนบุรี"
      ]
    ],
    []
  ],
  "metadata": {
    "date_backmatter": "2552-12-16",
    "date_modified": "2553-01-14",
    "date_original": "2553-01-14",
    "doctype": "ประกาศ",
    "editors": [
      {
        "name": "ปริยานุช",
        "role": "ผู้จัดทำ",
        "date": "2553-01-21"
      },
      {
        "name": "นันท์นภัสร์",
        "role": "ตรวจ",
        "date": "2553-01-21"
      }
    ],
    "tag": "bb02-2e-2553-a0001"
  }
}