{
  "pages": [
    [
      [
        "ระเบียบกรมที่ดิน",
        "ว่าด้วยการจดทะเบียนสิทธิเกี่ยวกับอสังหาริมทรัพย์ซึ่งได้มาโดยทางมรดก",
        "(ฉบับที่ ๔)",
        "พ.ศ. ๒๕๕๗"
      ]
    ],
    []
  ],
  "metadata": {
    "date_backmatter": "2557-02-24",
    "date_modified": "2557-03-25",
    "date_original": "2557-03-25",
    "editors": [
      {
        "name": "ปริยานุช",
        "role": "ผู้จัดทำ",
        "date": "2557-03-31"
      },
      {
        "name": "โชติกานต์",
        "role": "ผู้ตรวจ",
        "date": "2557-04-17"
      }
    ],
    "tag": "bb02-2g-2557-a0001"
  }
}