{
  "pages": [
    [
      [
        "พระราชกฤษฎีกา",
        "ถอนสภาพที่ดินอันเป็นสาธารณสมบัติของแผ่นดินสำหรับพลเมืองใช้ร่วมกัน",
        "ในท้องที่ตำบลบากเรือ อำเภอมหาชนะชัย จังหวัดยโสธร",
        "พ.ศ. ๒๕๔๒",
        "---------------------",
        "ภูมิพลอดุลยเดช ป.ร.",
        "ให้ไว้ ณ วันที่ ๒๓ มีนาคม พ.ศ. ๒๕๔๒",
        "เป็นปีที่ ๕๔ ในรัชกาลปัจจุบัน"
      ]
    ],
    []
  ],
  "metadata": {
    "date_gz_old": "2542-03-31",
    "date_header": "2542-03-23",
    "doctype": "พระราชกฤษฎีกา",
    "editors": [
      {
        "name": "อัมพิกา",
        "role": "แก้ไข",
        "date": "2545-05-31"
      }
    ],
    "tag": "bb02-2a-2542-a006",
    "title": "ถอนสภาพที่ดินอันเป็นสาธารณสมบัติของแผ่นดินสำหรับพลเมืองใช้ร่วมกันในท้องที่ตำบลบากเรือ อำเภอมหาชนะชัย จังหวัดยโสธรพ.ศ. ๒๕๔๒---------------------ภูมิพลอดุลยเดช ป.ร.ให้ไว้ ณ วันที่ ๒๓ มีนาคม"
  }
}