{
  "pages": [
    [
      [
        "ประกาศกระทรวงมหาดไทย",
        "เรื่อง การลดค่าธรรมเนียมจดทะเบียนสิทธิและนิติกรรม",
        "กรณีสนับสนุนการซื้อขายอสังหาริมทรัพย์",
        "ตามหลักเกณฑ์ที่คณะรัฐมนตรีกำหนด"
      ]
    ],
    []
  ],
  "metadata": {
    "date_backmatter": "2542-08-17",
    "date_gz_old": "2542-08-18",
    "doctype": "ประกาศ",
    "editors": [
      {
        "name": "๒๒/๕",
        "role": "๔๕"
      }
    ],
    "tag": "bb02-2e-2542-a003"
  }
}