{
  "pages": [
    [
      [
        "ระเบียบของคณะกรรมการจัดที่ดินแห่งชาติ",
        "ฉบับที่ ๘ (พ.ศ.๒๕๒๙)",
        "ว่าด้วยการควบคุมการจัดที่ดินของทบวงการเมือง"
      ]
    ],
    []
  ],
  "metadata": {
    "date_backmatter": "2529-01-14",
    "date_gz_old": "2529-01-23",
    "editors": [
      {
        "name": "ชไมพร",
        "role": "พิมพ์",
        "date": "2544-09-28"
      }
    ],
    "tag": "bb02-2g-2529-008"
  }
}