{
  "pages": [
    [
      [
        "ประกาศกระทรวงมหาดไทย",
        "เรื่อง การจัดขึ้นทะเบียนที่ดินของรัฐ เพื่อให้ทบวงการเมืองใช้ประโยชน์ในราชการ",
        "ในท้องที่ตำบลช่องเม็ก อำเภอสิรินธร จังหวัดอุบลราชธานี"
      ]
    ],
    []
  ],
  "metadata": {
    "date_backmatter": "2552-08-19",
    "date_modified": "2552-10-30",
    "date_original": "2552-10-30",
    "doctype": "ประกาศ",
    "editors": [
      {
        "name": "ปริยานุช",
        "role": "ผู้จัดทำ",
        "date": "2552-11-03"
      },
      {
        "name": "นันท์นภัสร์",
        "role": "ตรวจ",
        "date": "2552-11-03"
      }
    ],
    "tag": "bb02-2e-2552-a0013"
  }
}