{
  "pages": [
    [
      [
        "ระเบียบกระทรวงเกษตรและสหกรณ์",
        "ว่าด้วยหลักเกณฑ์และวิธีการสรรหากรรมการผู้ทรงคุณวุฒิ",
        "ในคณะกรรมการส่งเสริมและพัฒนาระบบเกษตรพันธสัญญา",
        "พ.ศ. ๒๕๖๑"
      ]
    ],
    []
  ],
  "metadata": {
    "date_backmatter": "2561-02-19",
    "date_modified": "2561-02-28",
    "date_original": "2561-02-28",
    "editors": [
      {
        "name": "พัชรภรณ์",
        "role": "จัดทำ",
        "date": "2561-05-04"
      }
    ],
    "tag": "ca93-2g-2561-a0001"
  }
}