{
  "pages": [
    [
      [
        "ระเบียบคณะกรรมการพัฒนาการสหกรณ์แห่งชาติ",
        "ว่าด้วยการรับเงิน การจ่ายเงิน การเก็บรักษาเงิน และการจัดหาผลประโยชน์",
        "ของเงินกองทุนพัฒนาสหกรณ์ (กพส.)",
        "พ.ศ. ๒๕๔๒"
      ]
    ],
    []
  ],
  "metadata": {
    "date_backmatter": "2542-07-20",
    "date_modified": "2544-11-21",
    "date_original": "2544-11-21",
    "editors": [],
    "tag": "ca57-2g-2544-a004"
  }
}