{
  "pages": [
    [
      [
        "ระเบียบนายทะเบียนสหกรณ์",
        "ว่าด้วยการตรวจสอบกิจการของสหกรณ์",
        "พ.ศ. ๒๕๕๙"
      ]
    ],
    []
  ],
  "metadata": {
    "date_backmatter": "2559-11-08",
    "date_modified": "2559-12-13",
    "date_original": "2559-12-13",
    "editors": [
      {
        "name": "ปุณิกา/ปริยานุช",
        "role": "จัดทำ",
        "date": "2559-12-15"
      },
      {
        "name": "นุสรา",
        "role": "ตรวจ",
        "date": "2560-01-30"
      }
    ],
    "tag": "ca57-2g-2559-a0004"
  }
}