{
  "pages": [
    [
      [
        "ระเบียบนายทะเบียนสหกรณ์",
        "ว่าด้วยการกำหนดอำนาจหน้าที่ให้เกษตรและสหกรณ์จังหวัด",
        "ในฐานะนายทะเบียนกลุ่มเกษตรกรประจำจังหวัด",
        "พ.ศ. ๒๕๕๙"
      ]
    ],
    []
  ],
  "metadata": {
    "date_backmatter": "2559-10-12",
    "date_modified": "2559-11-14",
    "date_original": "2559-11-14",
    "editors": [
      {
        "name": "ปริยานุช",
        "role": "จัดทำ",
        "date": "2559-11-21"
      },
      {
        "name": "วิศนี",
        "role": "ตรวจ",
        "date": "2559-11-21"
      }
    ],
    "tag": "ca57-2g-2559-a0001"
  }
}