{
  "pages": [
    [
      [
        "กฎกระทรวง",
        "ฉบับที่ ๒ (พ.ศ. ๒๕๓๔)",
        "ออกตามความในพระราชกำหนดป้องกันการใช้สารระเหย",
        "พ.ศ. ๒๕๓๓"
      ]
    ],
    []
  ],
  "metadata": {
    "date_backmatter": "2534-05-14",
    "date_gz_old": "2534-06-01",
    "doctype": "กฎกระทรวง",
    "editors": [],
    "tag": "bb32-2b-2534-002"
  }
}