{
  "pages": [
    [
      [
        "กฎกระทรวง",
        "(พ.ศ. 2534)",
        "ออกตามความในพระราชกำหนดป้องกันการใช้สารระเหย",
        "พ.ศ. 2533"
      ]
    ],
    []
  ],
  "metadata": {
    "date_backmatter": "2534-05-14",
    "doctype": "กฎกระทรวง",
    "editors": [],
    "tag": "bb32-2b-2534-002u"
  }
}