{
  "pages": [
    [
      [
        "ประกาศกระทรวงสาธารณสุข",
        "กระทรวงอุตสาหกรรม",
        "ฉบับที่ ๑๙ (พ.ศ. ๒๕๔๑)",
        "เรื่อง แต่งตั้งพนักงานเจ้าหน้าที่เพื่อปฏิบัติการตามพระราชกำหนด",
        "ป้องกันการใช้สารระเหย พ.ศ.๒๕๓๓",
        "------------------------",
        "",
        "ดามประกาศกระทรวงสาธารณสุข กระทรวงอุตสาหกรรม (ฉบับที่ ๑๗) พ.ศ.๒๕๔๑ ลงวันที่ ๑๖ กรกฎาคม ๒๕๕๑ ได้แต่งตั้งพนักงานเจ้าหน้าที่เพื่อปฏิบัติการตามพระราชกำหนดป้องกันการใช้สารระเหย พ.ศ.๒๕๓๓ ไปแล้วนั้นบัดนี้ ได้พิจารณาเห็นสมควรแต่งตั้งพนักงานเจ้าหน้าที่เพื่อปฏิบัติการตามกฎหมาย ดังกล่าวเพิ่มเติม"
      ]
    ],
    []
  ],
  "metadata": {
    "date_backmatter": "2541-10-22",
    "date_header": "2551-07-16",
    "doctype": "ประกาศ",
    "editors": [],
    "tag": "bb32-2e-2541-a0003"
  }
}