{
  "pages": [
    [
      [
        "พระราชบัญญัติ",
        "แก้ไขเพิ่มเติมพระราชกำหนดป้องกันการใช้สารระเหย พ.ศ. ๒๕๓๓ (ฉบับที่ ๒)",
        "พ.ศ. ๒๕๔๓",
        "",
        "",
        "ภูมิพลอดุลยเดช ป.ร.",
        "ให้ไว้ ณ วันที่ ๑๕ พฤศจิกายน พ.ศ. ๒๕๔๓",
        "เป็นปีที่ ๕๕ ในรัชกาลปัจจุบัน"
      ]
    ],
    []
  ],
  "metadata": {
    "date_header": "2543-11-15",
    "date_modified": "2543-11-29",
    "date_original": "2543-11-29",
    "doctype": "พระราชบัญญัติ",
    "editors": [
      {
        "name": "พรพิมล",
        "role": "แก้ไข",
        "date": "2545-01-00"
      },
      {
        "name": "ปัญญา จั่นสกุล",
        "role": "แก้ไข",
        "date": "2552-06-08"
      },
      {
        "name": "สุกัญญา",
        "role": "ผู้จัดทำ",
        "date": "2554-03-16"
      },
      {
        "name": "ภัทรวีร์ฝปรับปรุง",
        "role": "๑",
        "date": "2560-06-01"
      }
    ],
    "tag": "bb32-20-2543-a0001",
    "title": "แก้ไขเพิ่มเติมพระราชกำหนดป้องกันการใช้สารระเหย พ.ศ. ๒๕๓๓ (ฉบับที่ ๒)"
  }
}