{
  "pages": [
    [
      [
        "ประกาศสำนักนายกรัฐมนตรี",
        "เรื่อง การอนุมัติพระราชกำหนดป้องกันการใช้สารระเหย",
        "พ.ศ. 2533"
      ]
    ],
    []
  ],
  "metadata": {
    "date_backmatter": "2533-05-25",
    "doctype": "ประกาศ",
    "editors": [],
    "tag": "bb32-2e-2533-001"
  }
}