{
  "pages": [
    [
      [
        "พระราชกำหนด",
        "ป้องกันการใช้สารระเหย",
        "พ.ศ. ๒๕๓๓",
        "",
        "",
        "ภูมิพลอดุลยเดช ป.ร.",
        "ให้ไว้ ณ วันที่ ๑๗ มกราคม พ.ศ. ๒๕๓๓",
        "เป็นปีที่ ๔๕ ในรัชกาลปัจจุบัน"
      ]
    ],
    []
  ],
  "metadata": {
    "date_header": "2533-01-17",
    "date_modified": "2550-07-06",
    "date_original": "2533-01-19",
    "doctype": "พระราชกำหนด",
    "editors": [
      {
        "name": "ปัทมา",
        "role": "แก้ไข",
        "date": "2553-03-29"
      },
      {
        "name": "วศิน",
        "role": "ตรวจ",
        "date": "2553-03-29"
      },
      {
        "name": "ภัทรวีร์",
        "role": "ปรับปรุง",
        "date": "2560-06-01"
      }
    ],
    "tag": "bb32-20-9998-update",
    "title": "ป้องกันการใช้สารระเหย"
  }
}