{
  "pages": [
    [
      [
        "ประกาศกระทรวงสาธารณสุข",
        "กระทรวงอุตสาหกรรม",
        "ฉบับที่ ๗ (พ.ศ. ๒๕๓๔)",
        "เรื่อง กำหนดสถานตรวจพิสูจน์สารเคมีหรือผลิตภัณฑ์สารระเหยของกลาง"
      ]
    ],
    []
  ],
  "metadata": {
    "date_backmatter": "2534-01-14",
    "doctype": "ประกาศ",
    "editors": [],
    "tag": "bb32-2e-2534-a0003"
  }
}