{
  "pages": [
    [
      [
        "พระราชกำหนด",
        "ป้องกันการใช้สารระเหย",
        "พ.ศ. ๒๕๓๓",
        "",
        "",
        "ภูมิพลอดุลยเดช ป.ร.",
        "ให้ไว้ ณ วันที่ ๑๗ มกราคม พ.ศ. ๒๕๓๓",
        "เป็นปีที่ ๔๕ ในรัชกาลปัจจุบัน"
      ]
    ],
    []
  ],
  "metadata": {
    "date_header": "2533-01-17",
    "date_modified": "2543-11-29",
    "date_original": "2533-01-19",
    "doctype": "พระราชกำหนด",
    "editors": [
      {
        "name": "พรพิมล",
        "role": "แก้ไข",
        "date": "2545-01-15"
      },
      {
        "name": "ปัญญา จั่นสกุล",
        "role": "แก้ไข",
        "date": "2552-06-08"
      },
      {
        "name": "ภัทรวีร์",
        "role": "ปรับปรุง",
        "date": "2560-06-01"
      }
    ],
    "tag": "bb32-20-2543-a002",
    "title": "ป้องกันการใช้สารระเหย"
  }
}