{
  "pages": [
    [
      [
        "ประกาศกระทรวงสาธารณสุข",
        "กระทรวงอุตสาหกรรม",
        "(ฉบับที่ ๒๓) พ.ศ. ๒๕๔๗",
        "เรื่อง แต่งตั้งกรรมการผู้ทรงคุณวุฒิในคณะกรรมการป้องกันใช้สารระเหย",
        "ตามความในพระราชกำหนดป้องกันการใช้สารระเหย พ.ศ. ๒๕๓๓"
      ]
    ],
    []
  ],
  "metadata": {
    "date_backmatter": "2547-05-10",
    "doctype": "ประกาศ",
    "editors": [],
    "tag": "bb32-2e-2547-a0002"
  }
}