{
  "pages": [
    [
      [
        "ประกาศทบวงมหาวิทยาลัย",
        "เรื่อง การแบ่งส่วนราชการในมหาวิทยาลัยมหิดล (ฉบับที่ ๒)",
        "พ.ศ. ๒๕๔๔"
      ]
    ],
    []
  ],
  "metadata": {
    "date_backmatter": "2544-12-03",
    "date_modified": "2545-01-08",
    "date_original": "2545-01-08",
    "doctype": "ประกาศ",
    "editors": [
      {
        "name": "พรพิมล",
        "role": "แก้ไข",
        "date": "2545-06-03"
      },
      {
        "name": "วิภา",
        "role": "ผู้จัดทำ",
        "date": "2554-03-15"
      }
    ],
    "tag": "c105-2e-2544-a0001"
  }
}