{
  "pages": [
    [
      [
        "ข้อบังคับมหาวิทยาลัยมหิดล",
        "ว่าด้วยปริญญาในสาขาวิชา อักษรย่อสำหรับสาขาวิชา ครุยวิทยฐานะ และเข็มวิทยฐานะ",
        "(ฉบับที่ ๒)",
        "พ.ศ. ๒๕๕๖"
      ]
    ],
    []
  ],
  "metadata": {
    "date_backmatter": "2556-01-27",
    "date_modified": "2556-03-25",
    "date_original": "2556-03-25",
    "editors": [
      {
        "name": "ปริยานุช",
        "role": "ผู้จัดทำ",
        "date": "2556-03-28"
      },
      {
        "name": "อุษมล",
        "role": "ผู้ตรวจ",
        "date": "2556-04-10"
      }
    ],
    "tag": "c105-2i-2556-a0001"
  }
}