{
  "pages": [
    [
      [
        "ข้อบังคับมหาวิทยาลัยมหิดล",
        "ว่าด้วยครุยประจำตำแหน่ง",
        "พ.ศ. ๒๕๕๓"
      ]
    ],
    []
  ],
  "metadata": {
    "date_backmatter": "2553-09-29",
    "date_modified": "2554-03-08",
    "date_original": "2554-03-08",
    "editors": [
      {
        "name": "ปริยานุช",
        "role": "ผู้จัดทำ",
        "date": "2554-03-15"
      },
      {
        "name": "ณัฐวดี",
        "role": "ตรวจ",
        "date": "2554-03-15"
      }
    ],
    "tag": "c105-2i-2554-a0001"
  }
}