{
  "pages": [
    [
      [
        "ประกาศทบวงมหาวิทยาลัย",
        "เรื่อง การแบ่งส่วนราชการในมหาวิทยาลัยมหิดล",
        "พ.ศ. ๒๕๔๐"
      ]
    ],
    []
  ],
  "metadata": {
    "date_backmatter": "2540-10-30",
    "date_modified": "2540-11-20",
    "date_original": "2540-11-20",
    "doctype": "ประกาศ",
    "editors": [
      {
        "name": "วิภา",
        "role": "ผู้จัดทำ",
        "date": "2554-03-15"
      }
    ],
    "tag": "c105-2e-2540-001"
  }
}