{
  "pages": [
    [
      [
        "พระราชกฤษฎีกา",
        "ว่าด้วยปริญญาในสาขาวิชา อักษรย่อสำหรับสาขาวิชา",
        "ครุยวิทยฐานะและเข็มวิทยฐานะของมหาวิทยาลัยสุโขทัยธรรมาธิราช (ฉบับที่ ๒)",
        "พ.ศ. ๒๕๒๗",
        "",
        "",
        "ภูมิพลอดุลยเดช ป.ร.",
        "ให้ไว้ ณ วันที่ ๑๒ กุมภาพันธ์ พ.ศ. ๒๕๒๗",
        "เป็นปีที่ ๓๙ ในรัชกาลปัจจุบัน"
      ]
    ],
    []
  ],
  "metadata": {
    "date_header": "2527-02-12",
    "date_modified": "2527-02-24",
    "date_original": "2527-02-24",
    "doctype": "พระราชกฤษฎีกา",
    "editors": [
      {
        "name": "คุณากร",
        "role": "ผู้จัดทำ",
        "date": "2553-11-10"
      },
      {
        "name": "วรัญญา",
        "role": "ผู้ตรวจ",
        "date": "2554-02-02"
      }
    ],
    "tag": "c110-2a-2527-002",
    "title": "ว่าด้วยปริญญาในสาขาวิชา อักษรย่อสำหรับสาขาวิชาครุยวิทยฐานะและเข็มวิทยฐานะของมหาวิทยาลัยสุโขทัยธรรมาธิราช (ฉบับที่ ๒)"
  }
}