{
  "pages": [
    [
      [
        "พระราชกฤษฎีกา",
        "ว่าด้วยปริญญาในสาขาวิชา อักษรย่อสำหรับสาขาวิชา",
        "ครุยวิทยฐานะและเข็มวิทยฐานะของมหาวิทยาลัยสุโขทัยธรรมาธิราช",
        "พ.ศ. ๒๕๒๔",
        "",
        "",
        "ภูมิพลอดุลยเดช ป.ร.",
        "ให้ไว้ ณ วันที่ ๒๑ ตุลาคม พ.ศ. ๒๕๒๔",
        "เป็นปีที่ ๓๖ ในรัชกาลปัจจุบัน"
      ]
    ],
    []
  ],
  "metadata": {
    "date_header": "2524-10-21",
    "date_modified": "2538-12-29",
    "date_original": "2524-10-29",
    "doctype": "พระราชกฤษฎีกา",
    "editors": [
      {
        "name": "คุณากร",
        "role": "ผู้จัดทำ",
        "date": "2553-11-11"
      },
      {
        "name": "วรัญญา",
        "role": "ผู้ตรวจ",
        "date": "2554-02-02"
      }
    ],
    "tag": "c110-2a-2538-004u",
    "title": "ว่าด้วยปริญญาในสาขาวิชา อักษรย่อสำหรับสาขาวิชาครุยวิทยฐานะและเข็มวิทยฐานะของมหาวิทยาลัยสุโขทัยธรรมาธิราช"
  }
}