{
  "pages": [
    [
      [
        "ประกาศสำนักทะเบียนกลาง กรมการปกครอง",
        "เรื่อง จำนวนราษฎรทั่วราชอาณาจักร แยกเป็นกรุงเทพมหานครและจังหวัดต่าง ๆ",
        "ตามหลักฐานการทะเบียนราษฎร ณ วันที่ ๓๑ ธันวาคม ๒๕๕๑"
      ]
    ],
    []
  ],
  "metadata": {
    "date_backmatter": "2552-01-28",
    "date_header": "2551-12-31",
    "date_modified": "2552-01-30",
    "date_original": "2552-01-30",
    "doctype": "ประกาศ",
    "editors": [
      {
        "name": "วัชศักดิ์",
        "role": "ผู้จัดทำ",
        "date": "2552-02-03"
      },
      {
        "name": "ปริญสินีย์",
        "role": "ปรับปรุง",
        "date": "2557-05-27"
      }
    ],
    "tag": "a119-2e-2552-a0001"
  }
}