{
  "pages": [
    [
      [
        "ระเบียบสำนักทะเบียนกลาง",
        "ว่าด้วยการจัดทำทะเบียนราษฎร",
        "พ.ศ. ๒๕๓๕"
      ]
    ],
    []
  ],
  "metadata": {
    "date_backmatter": "2535-03-22",
    "date_modified": "2551-11-26",
    "date_original": "2551-11-26",
    "editors": [
      {
        "name": "ปริญสินีย์",
        "role": "ผู้จัดทำ",
        "date": "2557-05-29"
      }
    ],
    "tag": "a119-2g-9996-update"
  }
}