{
  "pages": [
    [
      [
        "ประกาศสำนักทะเบียนกลาง",
        "เรื่อง จำนวนราษฎรทั่วราชอาณาจักร ตามหลักฐานการทะเบียนราษฎร",
        "ณ วันที่ ๓๑ ธันวาคม ๒๕๕๙"
      ]
    ],
    []
  ],
  "metadata": {
    "date_backmatter": "2560-02-28",
    "date_header": "2559-12-31",
    "date_modified": "2560-03-30",
    "date_original": "2560-03-30",
    "doctype": "ประกาศ",
    "editors": [
      {
        "name": "ภวรรณตรี",
        "role": "จัดทำ",
        "date": "2560-03-31"
      },
      {
        "name": "ปุณิกา",
        "role": "ตรวจ",
        "date": "2560-03-31"
      }
    ],
    "tag": "a119-2e-2560-a0001"
  }
}