{
  "pages": [
    [
      [
        "ประกาศกระทรวงมหาดไทย",
        "เรื่อง การจัดทำทะเบียนบ้าน และการจัดทำทะเบียนประวัติสำหรับบุคคลซึ่งไม่มีสัญชาติไทย",
        "ตามมาตรา ๓๘ แห่งพระราชบัญญัติการทะเบียนราษฎร พ.ศ. ๒๕๓๔ ซึ่งแก้ไขเพิ่มเติมโดย",
        "พระราชบัญญัติการทะเบียนราษฎร (ฉบับที่ ๒)",
        "พ.ศ. ๒๕๕๑"
      ]
    ],
    []
  ],
  "metadata": {
    "date_backmatter": "2551-09-18",
    "date_modified": "2551-11-11",
    "date_original": "2551-11-11",
    "doctype": "ประกาศ",
    "editors": [
      {
        "name": "วัชศักดิ์",
        "role": "ผู้จัดทำ",
        "date": "2551-11-12"
      },
      {
        "name": "ปริญสินีย์",
        "role": "ปรับปรุง",
        "date": "2557-05-27"
      }
    ],
    "tag": "a119-2e-2551-a0003"
  }
}