{
  "pages": [
    [
      [
        "ประกาศสำนักทะเบียนกลาง กรมการปกครอง",
        "เรื่อง จำนวนราษฎรทั่วราชอาณาจักร แยกเป็นกรุงเทพมหานคร",
        "และจังหวัดต่าง ๆ ตามหลักฐานการทะเบียนราษฎร",
        "ณ วันที่ ๓๑ ธันวาคม ๒๕๔๕"
      ]
    ],
    []
  ],
  "metadata": {
    "date_backmatter": "2546-03-14",
    "date_header": "2545-12-31",
    "date_modified": "2546-03-17",
    "date_original": "2546-03-17",
    "doctype": "ประกาศ",
    "editors": [
      {
        "name": "มณฑาทิพย์",
        "role": "พิมพ์",
        "date": "2546-05-14"
      },
      {
        "name": "สุมลรัตน์",
        "role": "อรรถชัย แก้ไข",
        "date": "2546-05-14"
      },
      {
        "name": "ปริญสินีย์",
        "role": "ปรับปรุง",
        "date": "2557-05-26"
      }
    ],
    "tag": "a119-2e-2546-a0001"
  }
}