{
  "pages": [
    [
      [
        "กฎกระทรวง",
        "กำหนดการปฏิบัติงานการทะเบียนราษฎรด้วยระบบคอมพิวเตอร์",
        "พ.ศ. ๒๕๔๗"
      ]
    ],
    []
  ],
  "metadata": {
    "date_backmatter": "2547-11-18",
    "date_modified": "2547-12-30",
    "date_original": "2547-12-30",
    "doctype": "กฎกระทรวง",
    "editors": [
      {
        "name": "ปริญสินีย์",
        "role": "ผู้จัดทำ",
        "date": "2557-05-16"
      },
      {
        "name": "นนทพล",
        "role": "ปรับปรุง",
        "date": "2558-01-15"
      }
    ],
    "tag": "a119-2b-2547-a0002"
  }
}