{
  "pages": [
    [
      [
        "พระราชบัญญัติ",
        "การทะเบียนราษฎร",
        "พ.ศ. ๒๕๓๔",
        "",
        "",
        "ภูมิพลอดุลยเดช ป.ร.",
        "ให้ไว้ ณ วันที่ ๑๔ พฤศจิกายน พ.ศ. ๒๕๓๔",
        "เป็นปีที่ ๔๖ ในรัชกาลปัจจุบัน"
      ]
    ],
    []
  ],
  "metadata": {
    "date_header": "2534-11-14",
    "date_modified": "2560-02-11",
    "date_original": "2534-11-22",
    "doctype": "พระราชบัญญัติ",
    "editors": [
      {
        "name": "วศิน",
        "role": "แก้ไข",
        "date": "2556-11-20"
      },
      {
        "name": "วริญา",
        "role": "เพิ่มเติม",
        "date": "2560-02-16"
      },
      {
        "name": "วิชพงษ์",
        "role": "ตรวจ",
        "date": "2560-02-20"
      }
    ],
    "tag": "a119-20-9999-update",
    "title": "การทะเบียนราษฎร"
  }
}