{
  "pages": [
    [
      [
        "กฎกระทรวง",
        "กำหนดหลักเกณฑ์และวิธีการแจ้งการเกิดหรือการตายต่อนายทะเบียนแห่งท้องที่อื่น",
        "พ.ศ. ๒๕๕๑"
      ]
    ],
    []
  ],
  "metadata": {
    "date_backmatter": "2551-08-23",
    "date_modified": "2551-08-23",
    "date_original": "2551-08-23",
    "doctype": "กฎกระทรวง",
    "editors": [
      {
        "name": "ปริยานุช",
        "role": "ผู้จัดทำ",
        "date": "2551-08-25"
      },
      {
        "name": "นนทพล",
        "role": "ปรับปรุง",
        "date": "2558-01-15"
      }
    ],
    "tag": "a119-2b-2551-a0005"
  }
}