{
  "pages": [
    [
      [
        "ข้อบัญญัติองค์การบริหารส่วนตำบลท่าขึ้น",
        "เรื่อง การรักษาความสะอาดและความเป็นระเบียบเรียบร้อย",
        "พ.ศ. ๒๕๕๕"
      ]
    ],
    []
  ],
  "metadata": {
    "date_backmatter": "2555-11-29",
    "date_modified": "2556-01-31",
    "date_original": "2556-01-31",
    "editors": [
      {
        "name": "ปริยานุช",
        "role": "ผู้จัดทำ",
        "date": "2556-02-05"
      },
      {
        "name": "อุษมล",
        "role": "ผู้ตรวจ",
        "date": "2556-02-05"
      }
    ],
    "tag": "c316-2j-2556-a0001"
  }
}