{
  "pages": [
    [
      [
        "ระเบียบเทศบาลตำบลแม่สาย",
        "ว่าด้วยการปฏิบัติงานของพนักงานเจ้าหน้าที่",
        "ตามกฎหมายว่าด้วยการรักษาความสะอาดและความเป็นระเบียบเรียบร้อยของบ้านเมือง",
        "พ.ศ. ๒๕๕๑"
      ]
    ],
    []
  ],
  "metadata": {
    "date_backmatter": "2551-05-27",
    "date_modified": "2551-06-24",
    "date_original": "2551-06-24",
    "editors": [
      {
        "name": "ปริยานุช",
        "role": "จัดทำ",
        "date": "2551-07-02"
      },
      {
        "name": "ศิรวัชร์",
        "role": "ปรับปรุง",
        "date": "2560-08-17"
      }
    ],
    "tag": "c316-2g-2551-a0001"
  }
}