{
  "pages": [
    [
      [
        "ประกาศกระทรวงมหาดไทย",
        "เรื่อง ให้ใช้พระราชบัญญัติรักษาความสะอาดและความเป็นระเบียบเรียบร้อยของบ้านเมือง พ.ศ. ๒๕๓๕",
        "ในเขตองค์การบริหารส่วนตำบลบางบัวทอง อำเภอบางบัวทอง จังหวัดนนทบุรี"
      ]
    ],
    []
  ],
  "metadata": {
    "date_backmatter": "2559-06-14",
    "date_modified": "2559-07-13",
    "date_original": "2559-07-13",
    "doctype": "ประกาศ",
    "editors": [
      {
        "name": "ชวัลพร/ปริยานุช",
        "role": "จัดทำ",
        "date": "2559-07-22"
      }
    ],
    "tag": "c316-2e-2559-a0003"
  }
}