{
  "pages": [
    [
      [
        "คำสั่งกรุงเทพมหานคร",
        "ที่ ๔๕๒๕/๒๕๕๐",
        "เรื่อง มอบอำนาจการกำหนดสถานที่สำหรับปิดประกาศโฆษณาหาเสียงเลือกตั้งสมาชิกสภา",
        "กรุงเทพมหานคร เขตดอนเมือง เขตเลือกตั้งที่ ๑ แทนตำแหน่งที่ว่าง ให้ผู้อำนวยการเขต",
        "ปฏิบัติราชการแทน"
      ]
    ],
    []
  ],
  "metadata": {
    "date_backmatter": "2550-11-23",
    "date_modified": "2551-01-30",
    "date_original": "2551-01-30",
    "editors": [
      {
        "name": "วัชศักดิ์",
        "role": "จัดทำ",
        "date": "2551-02-05"
      },
      {
        "name": "ศิรวัชร์",
        "role": "ปรับปรุง",
        "date": "2560-08-17"
      }
    ],
    "tag": "c316-2f-2551-a0001"
  }
}