{
  "pages": [
    [
      [
        "ระเบียบเทศบาลตำบลหนองสอ",
        "ว่าด้วยการปฏิบัติงานของพนักงานเจ้าหน้าที่",
        "ตามกฎหมายว่าด้วยการรักษาความสะอาดและความเป็นระเบียบเรียบร้อยของบ้านเมือง",
        "พ.ศ. ๒๕๕๒"
      ]
    ],
    []
  ],
  "metadata": {
    "date_backmatter": "2552-02-04",
    "date_modified": "2552-05-01",
    "date_original": "2552-05-01",
    "editors": [
      {
        "name": "ปริยานุช",
        "role": "จัดทำ",
        "date": "2552-05-06"
      },
      {
        "name": "ศิรวัชร์",
        "role": "ปรับปรุง",
        "date": "2560-08-18"
      }
    ],
    "tag": "c316-2g-2552-a0002"
  }
}