{
  "pages": [
    [
      [
        "พระราชบัญญัติ",
        "ราชวิทยาลัยจุฬาภรณ์",
        "พ.ศ. ๒๕๕๙",
        "",
        "",
        "ภูมิพลอดุลยเดช ป.ร.",
        "ให้ไว้ ณ วันที่ ๑๘ มกราคม พ.ศ. ๒๕๕๙",
        "เป็นปีที่ ๗๑ ในรัชกาลปัจจุบัน"
      ]
    ],
    []
  ],
  "metadata": {
    "date_header": "2559-01-18",
    "date_modified": "2560-12-27",
    "date_original": "2559-01-19",
    "doctype": "พระราชบัญญัติ",
    "editors": [
      {
        "name": "ปวันวิทย์",
        "role": "จัดทำ",
        "date": "2561-01-04"
      },
      {
        "name": "ปริญสินีย์",
        "role": "ตรวจ",
        "date": "2561-01-10"
      }
    ],
    "tag": "c356-20-9999-update",
    "title": "ราชวิทยาลัยจุฬาภรณ์"
  }
}