{
  "pages": [
    [
      [
        "ประกาศราชวิทยาลัยจุฬาภรณ์",
        "เรื่อง การจัดตั้งส่วนงาน",
        "พ.ศ. ๒๕๕๙"
      ]
    ],
    []
  ],
  "metadata": {
    "date_backmatter": "2559-08-15",
    "date_modified": "2559-08-24",
    "date_original": "2559-08-24",
    "doctype": "ประกาศ",
    "editors": [
      {
        "name": "วริญา/ปริยานุช",
        "role": "จัดทำ",
        "date": "2559-08-26"
      },
      {
        "name": "นุสรา",
        "role": "ตรวจ",
        "date": "2559-11-24"
      }
    ],
    "tag": "c356-2e-2559-a0001"
  }
}