{
  "pages": [
    [
      [
        "ข้อบังคับราชวิทยาลัยจุฬาภรณ์",
        "ว่าด้วยเครื่องแต่งกายนักศึกษา",
        "พ.ศ. ๒๕๖๐"
      ]
    ],
    []
  ],
  "metadata": {
    "date_backmatter": "2560-03-31",
    "date_modified": "2560-07-03",
    "date_original": "2560-07-03",
    "editors": [
      {
        "name": "ภวรรณตรี",
        "role": "จัดทำ",
        "date": "2560-07-11"
      },
      {
        "name": "พรวิภา",
        "role": "ตรวจ",
        "date": "2560-08-01"
      }
    ],
    "tag": "c356-2i-2560-a0002"
  }
}