{
  "pages": [
    [
      [
        "ระเบียบเทศบาลตำบลแม่ยม",
        "ว่าด้วยการรักษาความเป็นระเบียบเรียบร้อยและความปลอดภัย",
        "ในการให้ประชาชนเข้าตรวจดูข้อมูลข่าวสาร",
        "พ.ศ. ๒๕๖๑"
      ]
    ],
    []
  ],
  "metadata": {
    "date_backmatter": "2561-01-19",
    "date_modified": "2561-04-20",
    "date_original": "2561-04-20",
    "editors": [
      {
        "name": "พรวิภา",
        "role": "จัดทำ",
        "date": "2561-04-20"
      }
    ],
    "tag": "a203-2g-2561-a0039"
  }
}