{
  "pages": [
    [
      [
        "ระเบียบเทศบาลตำบลบ้านด่าน",
        "ว่าด้วยการรักษาความเป็นระเบียบเรียบร้อย",
        "และความปลอดภัยในการให้ประชาชนเข้าตรวจดูข้อมูลข่าวสาร พ.ศ. ๒๕๕๗"
      ]
    ],
    []
  ],
  "metadata": {
    "date_backmatter": "2557-12-04",
    "date_modified": "2558-02-05",
    "date_original": "2558-02-05",
    "editors": [
      {
        "name": "ปริยานุช",
        "role": "ผู้จัดทำ",
        "date": "2558-02-11"
      },
      {
        "name": "กฤษดายุทธ",
        "role": "ผู้ตรวจ",
        "date": "2558-02-11"
      }
    ],
    "tag": "a203-2g-2558-a0006"
  }
}