{
  "pages": [
    [
      [
        "ประกาศกรมส่งเสริมคุณภาพสิ่งแวดล้อม",
        "เรื่อง ข้อมูลข่าวสารส่วนบุคคลที่อยู่ในการครอบครองของกรมส่งเสริมคุณภาพสิ่งแวดล้อม"
      ]
    ],
    []
  ],
  "metadata": {
    "date_backmatter": "2549-12-14",
    "date_modified": "2550-01-26",
    "date_original": "2550-01-26",
    "doctype": "ประกาศ",
    "editors": [
      {
        "name": "วัชศักดิ์",
        "role": "ผู้จัดทำ",
        "date": "2550-01-30"
      }
    ],
    "tag": "a203-2e-2550-a0004"
  }
}