{
  "pages": [
    [
      [
        "ประกาศองค์การบริหารส่วนตำบลสุขฤทัย",
        "เรื่อง การดำเนินการตามพระราชบัญญัติข้อมูลข่าวสารของราชการ",
        "พ.ศ. ๒๕๔๐",
        "เกี่ยวกับข้อมูลข่าวสารส่วนบุคคลขององค์การบริหารส่วนตำบลสุขฤทัย"
      ]
    ],
    []
  ],
  "metadata": {
    "date_backmatter": "2555-06-15",
    "date_modified": "2555-08-09",
    "date_original": "2555-08-09",
    "doctype": "ประกาศ",
    "editors": [
      {
        "name": "ปริยานุช",
        "role": "ผู้จัดทำ",
        "date": "2555-08-16"
      },
      {
        "name": "ปณตภร",
        "role": "ผู้ตรวจ",
        "date": "2555-08-20"
      }
    ],
    "tag": "a203-2e-2555-a0023"
  }
}