{
  "pages": [
    [
      [
        "ระเบียบเทศบาลตำบลประตูป่า",
        "ว่าด้วยการรักษาความเป็นระเบียบเรียบร้อยและความปลอดภัย",
        "ในการให้ประชาชนเข้าตรวจดูข้อมูลข่าวสาร",
        "พ.ศ. ๒๕๕๓"
      ]
    ],
    []
  ],
  "metadata": {
    "date_backmatter": "2553-08-18",
    "date_modified": "2553-09-28",
    "date_original": "2553-09-28",
    "editors": [
      {
        "name": "ปริยานุช",
        "role": "ผู้จัดทำ",
        "date": "2553-10-07"
      },
      {
        "name": "ณัฐวดี",
        "role": "ตรวจ",
        "date": "2553-10-07"
      }
    ],
    "tag": "a203-2g-2553-a0041"
  }
}