{
  "pages": [
    [
      [
        "ระเบียบองค์การบริหารส่วนตำบลพังตรุ",
        "ว่าด้วยข้อมูลข่าวสารของราชการ พ.ศ. ๒๕๕๗"
      ]
    ],
    []
  ],
  "metadata": {
    "date_backmatter": "2557-08-13",
    "date_modified": "2557-10-09",
    "date_original": "2557-10-09",
    "editors": [
      {
        "name": "ปริยานุช",
        "role": "ผู้จัดทำ",
        "date": "2557-10-15"
      },
      {
        "name": "กฤษดายุทธ",
        "role": "ผู้ตรวจ",
        "date": "2557-10-15"
      }
    ],
    "tag": "a203-2g-2557-a0009"
  }
}