{
  "pages": [
    [
      [
        "ประกาศเทศบาลตำบลโคกเหล็ก",
        "เรื่อง การดำเนินการตามพระราชบัญญัติข้อมูลข่าวสารของราชการ พ.ศ. ๒๕๔๐",
        "เกี่ยวกับข้อมูลข่าวสารส่วนบุคคลของเทศบาลตำบลโคกเหล็ก"
      ]
    ],
    []
  ],
  "metadata": {
    "date_backmatter": "2553-12-29",
    "date_modified": "2554-03-23",
    "date_original": "2554-03-23",
    "doctype": "ประกาศ",
    "editors": [
      {
        "name": "ปริยานุช",
        "role": "ผู้จัดทำ",
        "date": "2554-04-04"
      },
      {
        "name": "ณัฐวดี",
        "role": "ตรวจ",
        "date": "2554-04-04"
      }
    ],
    "tag": "a203-2e-2554-a0009"
  }
}