{
  "pages": [
    [
      [
        "ระเบียบเทศบาลนครเชียงใหม่",
        "ว่าด้วยการรักษาความเป็นระเบียบเรียบร้อยและความปลอดภัย",
        "ในการให้ประชาชนเข้าตรวจดูข้อมูลข่าวสาร พ.ศ. ๒๕๕๕"
      ]
    ],
    []
  ],
  "metadata": {
    "date_backmatter": "2555-07-17",
    "date_modified": "2555-10-02",
    "date_original": "2555-10-02",
    "editors": [
      {
        "name": "ปริยานุช",
        "role": "ผู้จัดทำ",
        "date": "2555-10-08"
      },
      {
        "name": "ชาญ",
        "role": "ผู้ตรวจ",
        "date": "2555-10-15"
      }
    ],
    "tag": "a203-2g-2555-a0022"
  }
}