{
  "pages": [
    [
      [
        "ประกาศสำนักงาน ปปง.",
        "เรื่อง โครงสร้าง การจัดองค์กร อำนาจหน้าที่ วิธีการดำเนินงาน",
        "และสถานที่ติดต่อเพื่อขอรับข้อมูลข่าวสารของสำนักงาน ปปง."
      ]
    ],
    []
  ],
  "metadata": {
    "date_backmatter": "2554-11-25",
    "date_modified": "2554-12-08",
    "date_original": "2554-12-08",
    "doctype": "ประกาศ",
    "editors": [
      {
        "name": "ปริยานุช",
        "role": "ผู้จัดทำ",
        "date": "2554-12-14"
      },
      {
        "name": "ณัฐพร",
        "role": "ผู้ตรวจ",
        "date": "2554-12-14"
      }
    ],
    "tag": "a203-2e-2554-a0030"
  }
}