{
  "pages": [
    [
      [
        "ประกาศสำนักงานปลัดกระทรวงอุตสาหกรรม",
        "เรื่อง โครงสร้าง การจัดองค์กร อำนาจหน้าที่ และสถานที่ติดต่อ",
        "เพื่อขอรับข้อมูลข่าวสารของสำนักงานปลัดกระทรวงอุตสาหกรรม"
      ]
    ],
    []
  ],
  "metadata": {
    "date_backmatter": "2551-05-29",
    "date_modified": "2551-12-12",
    "date_original": "2551-12-12",
    "doctype": "ประกาศ",
    "editors": [
      {
        "name": "วัชศักดิ์",
        "role": "ผู้จัดทำ",
        "date": "2551-12-15"
      }
    ],
    "tag": "a203-2e-2551-a0041"
  }
}