{
  "pages": [
    [
      [
        "ประกาศกรมพินิจและคุ้มครองเด็กและเยาวชน",
        "เรื่อง การดำเนินการตามพระราชบัญญัติข้อมูลข่าวสารของราชการ พ.ศ. ๒๕๔๐",
        "เกี่ยวกับข้อมูลข่าวสารส่วนบุคคลของกรมพินิจและคุ้มครองเด็กและเยาวชน"
      ]
    ],
    []
  ],
  "metadata": {
    "date_backmatter": "2554-05-09",
    "date_modified": "2554-06-22",
    "date_original": "2554-06-22",
    "doctype": "ประกาศ",
    "editors": [
      {
        "name": "ปริยานุช",
        "role": "ผู้จัดทำ",
        "date": "2554-06-29"
      },
      {
        "name": "ณัฐวดี",
        "role": "ตรวจ",
        "date": "2554-06-29"
      }
    ],
    "tag": "a203-2e-2554-a0017"
  }
}