{
  "pages": [
    [
      [
        "ประกาศสำนักงานสลากกินแบ่งรัฐบาล",
        "เรื่อง โครงสร้างการแบ่งส่วนงาน อำนาจหน้าที่ความรับผิดชอบ",
        "และสถานที่ติดต่อเพื่อขอรับข้อมูลข่าวสารของสำนักงานสลากกินแบ่งรัฐบาล"
      ]
    ],
    []
  ],
  "metadata": {
    "date_backmatter": "2552-11-19",
    "date_modified": "2553-01-26",
    "date_original": "2553-01-26",
    "doctype": "ประกาศ",
    "editors": [
      {
        "name": "ปริยานุช",
        "role": "ผู้จัดทำ",
        "date": "2553-02-03"
      },
      {
        "name": "นันท์นภัสร์",
        "role": "ตรวจ",
        "date": "2553-02-03"
      }
    ],
    "tag": "a203-2e-2553-a0010"
  }
}