{
  "pages": [
    [
      [
        "ระเบียบเทศบาลตำบลภูเขียว",
        "ว่าด้วยการรักษาความเป็นระเบียบเรียบร้อยและความปลอดภัย",
        "ในการให้ประชาชนเข้าตรวจดูข้อมูลข่าวสาร พ.ศ. ๒๕๕๘"
      ]
    ],
    []
  ],
  "metadata": {
    "date_backmatter": "2558-11-11",
    "date_modified": "2559-01-14",
    "date_original": "2559-01-14",
    "editors": [
      {
        "name": "กัญฑรัตน์/ปริยานุช",
        "role": "จัดทำ",
        "date": "2559-01-18"
      },
      {
        "name": "นุสรา",
        "role": "ตรวจ",
        "date": "2559-04-29"
      }
    ],
    "tag": "a203-2g-2559-a0004"
  }
}