{
  "pages": [
    [
      [
        "ระเบียบองค์การบริหารส่วนตำบลนาเคียน",
        "ว่าด้วยข้อมูลข่าวสารของราชการ พ.ศ. ๒๕๕๖"
      ]
    ],
    []
  ],
  "metadata": {
    "date_backmatter": "2556-07-09",
    "date_modified": "2556-09-05",
    "date_original": "2556-09-05",
    "editors": [
      {
        "name": "ปริยานุช",
        "role": "ผู้จัดทำ",
        "date": "2556-09-11"
      },
      {
        "name": "โชติกานต์",
        "role": "ผู้ตรวจ",
        "date": "2556-09-19"
      }
    ],
    "tag": "a203-2g-2556-a0022"
  }
}