{
  "pages": [
    [
      [
        "ระเบียบเทศบาลตำบลโนนสูง",
        "ว่าด้วยข้อมูลข่าวสารของราชการ",
        "พ.ศ. ๒๕๕๘"
      ]
    ],
    []
  ],
  "metadata": {
    "date_backmatter": "2558-06-16",
    "date_modified": "2558-08-13",
    "date_original": "2558-08-13",
    "editors": [
      {
        "name": "ปริยานุช",
        "role": "ผู้จัดทำ",
        "date": "2558-08-19"
      },
      {
        "name": "ปุณิกา",
        "role": "ผู้ตรวจ",
        "date": "2558-08-28"
      }
    ],
    "tag": "a203-2g-2558-a0039"
  }
}