{
  "pages": [
    [
      [
        "ระเบียบสำนักงานปรมาณูเพื่อสันติ",
        "ว่าด้วยข้อมูลข่าวสารของราชการ",
        "พ.ศ. ๒๕๕๐"
      ]
    ],
    []
  ],
  "metadata": {
    "date_backmatter": "2550-07-19",
    "date_modified": "2550-09-06",
    "date_original": "2550-09-06",
    "editors": [
      {
        "name": "ปริยานุช",
        "role": "ผู้จัดทำ",
        "date": "2550-09-20"
      }
    ],
    "tag": "a203-2g-2550-a0049"
  }
}