{
  "pages": [
    [
      [
        "ระเบียบกรมสรรพากร",
        "ว่าด้วยการบริหารข้อมูลข่าวสารของราชการ",
        "พ.ศ. ๒๕๕๓"
      ]
    ],
    []
  ],
  "metadata": {
    "date_backmatter": "2553-03-24",
    "date_modified": "2553-06-11",
    "date_original": "2553-06-11",
    "editors": [
      {
        "name": "ปริยานุช",
        "role": "ผู้จัดทำ",
        "date": "2553-06-16"
      },
      {
        "name": "นันท์นภัสร์",
        "role": "ตรวจ",
        "date": "2553-06-16"
      }
    ],
    "tag": "a203-2g-2553-a0028"
  }
}