{
  "pages": [
    [
      [
        "ระเบียบองค์การบริหารส่วนตำบลนาป่า",
        "ว่าด้วยการรักษาความเป็นระเบียบเรียบร้อยและความปลอดภัย",
        "ในการให้ประชาชนเข้าตรวจดูข้อมูลข่าวสาร",
        "พ.ศ. ๒๕๕๐"
      ]
    ],
    []
  ],
  "metadata": {
    "date_backmatter": "2550-05-30",
    "date_modified": "2552-03-11",
    "date_original": "2552-03-11",
    "editors": [
      {
        "name": "ปริยานุช",
        "role": "ผู้จัดทำ",
        "date": "2552-03-17"
      }
    ],
    "tag": "a203-2g-2552-a0015"
  }
}