{
  "pages": [
    [
      [
        "ประกาศการนิคมอุตสาหกรรมแห่งประเทศไทย",
        "เรื่อง การดำเนินการตามพระราชบัญญัติข้อมูลข่าวสาร",
        "ของราชการ พ.ศ. ๒๕๔๐ เกี่ยวกับข้อมูลข่าวสารส่วนบุคคล",
        "ของการนิคมอุตสาหกรรมแห่งประเทศไทย"
      ]
    ],
    []
  ],
  "metadata": {
    "date_backmatter": "2546-02-05",
    "date_gz_old": "2546-02-21",
    "doctype": "ประกาศ",
    "editors": [
      {
        "name": "เกษร",
        "role": "พิมพ์",
        "date": "2546-05-22"
      },
      {
        "name": "ทรงยศ",
        "role": "สราวุฒิ จัดทำ",
        "date": "2546-05-22"
      }
    ],
    "tag": "a203-2e-2546-a0001"
  }
}