{
  "pages": [
    [
      [
        "ระเบียบกรมพัฒนาที่ดิน",
        "ว่าด้วยข้อมูลข่าวสารของราชการ",
        "พ.ศ. ๒๕๔๙"
      ]
    ],
    []
  ],
  "metadata": {
    "date_backmatter": "2549-08-16",
    "date_modified": "2549-12-28",
    "date_original": "2549-12-28",
    "editors": [
      {
        "name": "วัชศักดิ์",
        "role": "ผู้จัดทำ",
        "date": "2550-01-10"
      }
    ],
    "tag": "a203-2g-2549-a0020"
  }
}