{
  "pages": [
    [
      [
        "ระเบียบองค์การบริหารส่วนจังหวัดอุทัยธานี",
        "ว่าด้วยการรักษาความเป็นระเบียบเรียบร้อยและความปลอดภัย",
        "ในการให้ประชาชนเข้าตรวจดูข้อมูลข่าวสาร",
        "พ.ศ. ๒๕๕๖"
      ]
    ],
    []
  ],
  "metadata": {
    "date_backmatter": "2556-06-28",
    "date_modified": "2556-08-07",
    "date_original": "2556-08-07",
    "editors": [
      {
        "name": "ปริยานุช",
        "role": "ผู้จัดทำ",
        "date": "2556-08-09"
      },
      {
        "name": "โชติกานต์",
        "role": "ผู้ตรวจ",
        "date": "2556-08-09"
      }
    ],
    "tag": "a203-2g-2556-a0019"
  }
}