{
  "pages": [
    [
      [
        "ระเบียบองค์การบริหารส่วนตำบลบางตะบูน",
        "ว่าด้วยการรักษาความเป็นระเบียบเรียบร้อยและความปลอดภัย",
        "ในการให้ประชาชนเข้าตรวจดูข้อมูลข่าวสาร",
        "พ.ศ. ๒๕๕๐"
      ]
    ],
    []
  ],
  "metadata": {
    "date_backmatter": "2550-06-18",
    "date_modified": "2550-10-12",
    "date_original": "2550-10-12",
    "editors": [
      {
        "name": "วัชศักดิ์",
        "role": "ผู้จัดทำ",
        "date": "2550-10-30"
      }
    ],
    "tag": "a203-2g-2550-a0057"
  }
}