{
  "pages": [
    [
      [
        "ประกาศองค์การบริหารส่วนตำบลกะเฉด",
        "เรื่อง การดำเนินการเกี่ยวกับข้อมูลข่าวสารส่วนบุคคล"
      ]
    ],
    []
  ],
  "metadata": {
    "date_backmatter": "2558-08-06",
    "date_modified": "2558-10-08",
    "date_original": "2558-10-08",
    "doctype": "ประกาศ",
    "editors": [
      {
        "name": "ปริยานุช",
        "role": "ผู้จัดทำ",
        "date": "2558-10-14"
      },
      {
        "name": "วิศนี",
        "role": "ผู้ตรวจ",
        "date": "2558-10-19"
      }
    ],
    "tag": "a203-2e-2558-a0025"
  }
}