{
  "pages": [
    [
      [
        "ประกาศกระทรวงการต่างประเทศ",
        "เรื่อง การจัดระบบข้อมูลข่าวสารส่วนบุคคลตามมาตรา ๒๓ (๓)",
        "แห่งพระราชบัญญัติข้อมูลข่าวสารของราชการ",
        "พ.ศ. ๒๕๔๐"
      ]
    ],
    []
  ],
  "metadata": {
    "date_backmatter": "2544-11-26",
    "date_modified": "2545-02-08",
    "date_original": "2545-02-08",
    "doctype": "ประกาศ",
    "editors": [
      {
        "name": "ดลธี",
        "role": "พิมพ์",
        "date": "2551-04-09"
      }
    ],
    "tag": "a203-2e-2545-a015"
  }
}