{
  "pages": [
    [
      [
        "ประกาศกระทรวงการต่างประเทศ",
        "เรื่อง สถานที่ติดต่อเพื่อขอรับข้อมูลข่าวสาร",
        "ของกระทรวงการต่างประเทศ"
      ]
    ],
    []
  ],
  "metadata": {
    "date_backmatter": "2551-07-26",
    "date_modified": "2552-01-29",
    "date_original": "2552-01-29",
    "doctype": "ประกาศ",
    "editors": [
      {
        "name": "ปริยานุช",
        "role": "ผู้จัดทำ",
        "date": "2552-02-03"
      }
    ],
    "tag": "a203-2e-2552-a0007"
  }
}