{
  "pages": [
    [
      [
        "ระเบียบองค์การบริหารส่วนตำบลสวนจิก",
        "ว่าด้วยข้อมูลข่าวสารของราชการ",
        "พ.ศ. ๒๕๔๔"
      ]
    ],
    []
  ],
  "metadata": {
    "date_backmatter": "2544-10-09",
    "date_modified": "2545-03-07",
    "date_original": "2545-03-07",
    "editors": [
      {
        "name": "ณัฐดนัย",
        "role": "พิมพ์",
        "date": "2551-04-21"
      }
    ],
    "tag": "a203-2g-2545-a004"
  }
}