{
  "pages": [
    [
      [
        "ประกาศองค์การส่งเสริมกิจการโคนม",
        "แห่งประเทศไทย",
        "เรื่อง สรุปอำนาจหน้าที่ โครงสร้างการจัดองค์กรในการดำเนินงาน",
        "และสถานที่ติดต่อเพื่อขอรับข้อมูลข่าวสารขององค์การ",
        "ส่งเสริมกิจการโคนมแห่งประเทศไทย"
      ]
    ],
    []
  ],
  "metadata": {
    "date_backmatter": "2545-06-27",
    "date_gz_old": "2545-09-03",
    "doctype": "ประกาศ",
    "editors": [],
    "tag": "a203-2e-2545-a025"
  }
}