{
  "pages": [
    [
      [
        "ประกาศองค์การบริหารส่วนตำบลโพกรวม",
        "เรื่อง การดำเนินการตามพระราชบัญญัติข้อมูลข่าวสารของราชการ พ.ศ. ๒๕๔๐",
        "เกี่ยวกับข้อมูลข่าวสารส่วนบุคคล"
      ]
    ],
    []
  ],
  "metadata": {
    "date_backmatter": "2559-08-31",
    "date_modified": "2559-10-20",
    "date_original": "2559-10-20",
    "doctype": "ประกาศ",
    "editors": [
      {
        "name": "ชนิกา/ปริยานุช",
        "role": "จัดทำ",
        "date": "2559-10-25"
      },
      {
        "name": "นุสรา",
        "role": "ตรวจ",
        "date": "2560-01-06"
      }
    ],
    "tag": "a203-2e-2559-a0017"
  }
}