{
  "pages": [
    [
      [
        "ระเบียบกรมประชาสัมพันธ์",
        "ว่าด้วยข้อมูลข่าวสารของราชการ",
        "พ.ศ. ๒๕๔๔"
      ]
    ],
    []
  ],
  "metadata": {
    "date_backmatter": "2544-09-13",
    "date_gz_old": "2544-10-22",
    "editors": [
      {
        "name": "ชไมพร",
        "role": "พิมพ์",
        "date": "2545-05-03"
      }
    ],
    "tag": "a203-2g-2544-a003"
  }
}