{
  "pages": [
    [
      [
        "ประกาศกรมเจรจาการค้าระหว่างประเทศ",
        "เรื่อง โครงสร้างอำนาจหน้าที่ การจัดองค์กรในการดำเนินงาน และสถานที่ติดต่อ",
        "เพื่อขอรับข้อมูลข่าวสารของกรมเจรจาการค้าระหว่างประเทศ"
      ]
    ],
    []
  ],
  "metadata": {
    "date_backmatter": "2551-01-09",
    "date_modified": "2551-02-11",
    "date_original": "2551-02-11",
    "doctype": "ประกาศ",
    "editors": [
      {
        "name": "ปริยานุช",
        "role": "ผู้จัดทำ",
        "date": "2551-02-20"
      }
    ],
    "tag": "a203-2e-2551-a0008"
  }
}