{
  "pages": [
    [
      [
        "ระเบียบสำนักงานปลัดกระทรวงอุตสาหกรรม",
        "ว่าด้วย การจัดให้มีข้อมูลข่าวสารของราชการไว้ให้ประชาชนเข้าตรวจดู",
        "พ.ศ. ๒๕๕๑"
      ]
    ],
    []
  ],
  "metadata": {
    "date_backmatter": "2551-05-29",
    "date_modified": "2551-12-12",
    "date_original": "2551-12-12",
    "editors": [
      {
        "name": "วัชศักดิ์",
        "role": "ผู้จัดทำ",
        "date": "2551-12-15"
      }
    ],
    "tag": "a203-2g-2551-a0039"
  }
}