{
  "pages": [
    [
      [
        "ระเบียบองค์การบริหารส่วนตำบลเหล่าน้อย",
        "ว่าด้วยการรักษาความเป็นระเบียบเรียบร้อยและความปลอดภัย",
        "ในการให้ประชาชนเข้าตรวจดูข้อมูลข่าวสาร",
        "พ.ศ. ๒๕๕๙"
      ]
    ],
    []
  ],
  "metadata": {
    "date_backmatter": "2559-11-21",
    "date_modified": "2560-03-09",
    "date_original": "2560-03-09",
    "editors": [
      {
        "name": "ปริยานุช",
        "role": "จัดทำ",
        "date": "2560-03-13"
      },
      {
        "name": "พิมพ์มาดา",
        "role": "ตรวจ",
        "date": "2560-04-12"
      }
    ],
    "tag": "a203-2g-2560-a0005"
  }
}