{
  "pages": [
    [
      [
        "ประกาศกรมอนามัย",
        "เรื่อง การดำเนินการตามพระราชบัญญัติข้อมูลข่าวสารของราชการ พ.ศ. ๒๕๔๐",
        "เกี่ยวกับข้อมูลข่าวสารส่วนบุคคลของกรมอนามัย"
      ]
    ],
    []
  ],
  "metadata": {
    "date_backmatter": "2560-09-01",
    "date_modified": "2560-10-05",
    "date_original": "2560-10-05",
    "doctype": "ประกาศ",
    "editors": [
      {
        "name": "พัชรภรณ์/อัญชลี",
        "role": "จัดทำ",
        "date": "2560-10-10"
      },
      {
        "name": "ปริญสินีย์",
        "role": "ตรวจ",
        "date": "2560-11-27"
      }
    ],
    "tag": "a203-2e-2560-a0036"
  }
}