{
  "pages": [
    [
      [
        "ระเบียบองค์การบริหารส่วนจังหวัดสตูล",
        "ว่าด้วยการรักษาความเป็นระเบียบเรียบร้อย",
        "และความปลอดภัยในการให้ประชาชนเข้าตรวจดูข้อมูลข่าวสาร",
        "พ.ศ. ๒๕๕๔"
      ]
    ],
    []
  ],
  "metadata": {
    "date_backmatter": "2554-07-05",
    "date_modified": "2554-09-15",
    "date_original": "2554-09-15",
    "editors": [
      {
        "name": "ปริยานุช",
        "role": "ผู้จัดทำ",
        "date": "2554-09-26"
      },
      {
        "name": "ปณตภร",
        "role": "ผู้ตรวจ",
        "date": "2554-10-12"
      }
    ],
    "tag": "a203-2g-2554-a0027"
  }
}