{
  "pages": [
    [
      [
        "ระเบียบสำนักงานปลัดสำนักนายกรัฐมนตรี",
        "ว่าด้วยการจัดให้มีข้อมูลข่าวสารไว้ให้ประชาชนเข้าตรวจดู",
        "(ฉบับที่ ๓) พ.ศ. ๒๕๖๐"
      ]
    ],
    []
  ],
  "metadata": {
    "date_backmatter": "2560-07-03",
    "date_modified": "2560-08-24",
    "date_original": "2560-08-24",
    "editors": [
      {
        "name": "ชวัลพร/อัญชลี",
        "role": "จัดทำ",
        "date": "2560-08-29"
      },
      {
        "name": "นุสรา",
        "role": "ตรวจ",
        "date": "2561-01-29"
      }
    ],
    "tag": "a203-2g-2560-a0017"
  }
}