{
  "pages": [
    [
      [
        "ประกาศองค์การบริหารส่วนตำบลท่าพญา",
        "เรื่อง การดำเนินการตามพระราชบัญญัติข้อมูลข่าวสารของราชการ พ.ศ. ๒๕๔๐",
        "เกี่ยวกับข้อมูลข่าวสารส่วนบุคคล"
      ]
    ],
    []
  ],
  "metadata": {
    "date_backmatter": "2554-01-20",
    "date_modified": "2554-04-21",
    "date_original": "2554-04-21",
    "doctype": "ประกาศ",
    "editors": [
      {
        "name": "ปริยานุช",
        "role": "ผู้จัดทำ",
        "date": "2554-05-11"
      },
      {
        "name": "ณัฐวดี",
        "role": "ตรวจ",
        "date": "2554-05-11"
      }
    ],
    "tag": "a203-2e-2554-a0015"
  }
}