{
  "pages": [
    [
      [
        "ประกาศเทศบาลตำบลท่าข้าม",
        "เรื่อง การดำเนินการเกี่ยวกับข้อมูลข่าวสารส่วนบุคคลตามมาตรา ๒๓ (๓)",
        "แห่งพระราชบัญญัติข้อมูลข่าวสารของราชการ พ.ศ. ๒๕๔๐"
      ]
    ],
    []
  ],
  "metadata": {
    "date_backmatter": "2553-10-18",
    "date_modified": "2554-01-10",
    "date_original": "2554-01-10",
    "doctype": "ประกาศ",
    "editors": [
      {
        "name": "ปริยานุช",
        "role": "ผู้จัดทำ",
        "date": "2554-01-21"
      },
      {
        "name": "ณัฐวดี",
        "role": "ตรวจ",
        "date": "2554-01-21"
      }
    ],
    "tag": "a203-2e-2554-a0003"
  }
}