{
  "pages": [
    [
      [
        "ระเบียบสำนักงานปลัดกระทรวงพาณิชย์",
        "ว่าด้วยข้อมูลข่าวสารของราชการ",
        "(ฉบับที่ ๗)",
        "พ.ศ. ๒๕๕๘"
      ]
    ],
    []
  ],
  "metadata": {
    "date_backmatter": "2558-06-25",
    "date_modified": "2558-07-03",
    "date_original": "2558-07-03",
    "editors": [
      {
        "name": "ปริยานุช",
        "role": "ผู้จัดทำ",
        "date": "2558-07-07"
      },
      {
        "name": "นุสรา",
        "role": "ผู้ตรวจ",
        "date": "2558-07-27"
      }
    ],
    "tag": "a203-2g-2558-a0031"
  }
}