{
  "pages": [
    [
      [
        "ข้อกำหนด บริษัท ปตท. จำกัด (มหาชน)",
        "ว่าด้วย การปฏิบัติงานในการเปิดเผยข้อมูลข่าวสาร",
        "พ.ศ. ๒๕๔๔"
      ]
    ],
    []
  ],
  "metadata": {
    "date_backmatter": "2544-12-14",
    "date_gz_old": "2545-01-23",
    "editors": [
      {
        "name": "พรพิมล",
        "role": "พิมพ์",
        "date": "2545-06-24"
      }
    ],
    "tag": "a203-2h-2545-a0001"
  }
}