{
  "pages": [
    [
      [
        "ระเบียบองค์การบริหารส่วนตำบลงิ้ว",
        "ว่าด้วยข้อมูลข่าวสารของราชการ",
        "พ.ศ. ๒๕๕๐"
      ]
    ],
    []
  ],
  "metadata": {
    "date_backmatter": "2550-07-05",
    "date_modified": "2550-09-24",
    "date_original": "2550-09-24",
    "editors": [
      {
        "name": "ปริยานุช",
        "role": "ผู้จัดทำ",
        "date": "2550-10-09"
      }
    ],
    "tag": "a203-2g-2550-a0053"
  }
}