{
  "pages": [
    [
      [
        "ประกาศสำนักเลขาธิการคณะรัฐมนตรี",
        "เรื่อง การดำเนินการตามพระราชบัญญัติข้อมูลข่าวสารของราชการ",
        "พ.ศ. ๒๕๔๐ เกี่ยวกับข้อมูลข่าวสารส่วนบุคคล",
        "ของสำนักเลขาธิการคณะรัฐมนตรี"
      ]
    ],
    []
  ],
  "metadata": {
    "date_backmatter": "2545-04-22",
    "date_gz_old": "2545-05-03",
    "doctype": "ประกาศ",
    "editors": [
      {
        "name": "พรพิมล",
        "role": "แก้ไข",
        "date": "2545-07-16"
      }
    ],
    "tag": "a203-2e-2545-a005"
  }
}