{
  "pages": [
    [
      [
        "ระเบียบเทศบาลตำบลจอมทอง",
        "ว่าด้วยข้อมูลข่าวสารของราชการ พ.ศ. ๒๕๕๐"
      ]
    ],
    []
  ],
  "metadata": {
    "date_backmatter": "2550-08-30",
    "date_modified": "2551-07-09",
    "date_original": "2551-07-09",
    "editors": [
      {
        "name": "ปริยานุช",
        "role": "ผู้จัดทำ",
        "date": "2551-07-15"
      }
    ],
    "tag": "a203-2g-2551-a0032"
  }
}