{
  "pages": [
    [
      [
        "ประกาศองค์การบริหารส่วนตำบลปากน้ำปราณ",
        "เรื่อง การดำเนินการตามพระราชบัญญัติข้อมูลข่าวสารของราชการ พ.ศ. ๒๕๔๐",
        "เกี่ยวกับข้อมูลข่าวสารส่วนบุคคลขององค์การบริหารส่วนตำบลปากน้ำปราณ"
      ]
    ],
    []
  ],
  "metadata": {
    "date_backmatter": "2549-11-24",
    "date_modified": "2550-02-19",
    "date_original": "2550-02-19",
    "doctype": "ประกาศ",
    "editors": [
      {
        "name": "โสรศ",
        "role": "ผู้จัดทำ",
        "date": "2550-03-01"
      }
    ],
    "tag": "a203-2e-2550-a0010"
  }
}