{
  "pages": [
    [
      [
        "ประกาศองค์การบริหารส่วนจังหวัดปราจีนบุรี",
        "เรื่อง การจัดระบบข้อมูลข่าวสารส่วนบุคคลขององค์การบริหารส่วนจังหวัดปราจีนบุรี"
      ]
    ],
    []
  ],
  "metadata": {
    "date_backmatter": "2559-11-28",
    "date_modified": "2560-04-20",
    "date_original": "2560-04-20",
    "doctype": "ประกาศ",
    "editors": [
      {
        "name": "ชวัลพร/ภวรรณตรี",
        "role": "จัดทำ",
        "date": "2560-04-25"
      }
    ],
    "tag": "a203-2e-2560-a0012"
  }
}