{
  "pages": [
    [
      [
        "ประกาศกรมพัฒนาที่ดิน",
        "เรื่อง โครงสร้างและการจัดหน่วยงาน อำนาจหน้าที่ วิธีการดำเนินงาน",
        "และสถานที่ติดต่อเพื่อขอรับข้อมูลข่าวสารของกรมพัฒนาที่ดิน"
      ]
    ],
    []
  ],
  "metadata": {
    "date_backmatter": "2546-04-24",
    "date_modified": "2546-06-04",
    "date_original": "2546-06-04",
    "doctype": "ประกาศ",
    "editors": [
      {
        "name": "หทัยชนก",
        "role": "พิมพ์",
        "date": "2546-09-10"
      },
      {
        "name": "สุภาพร",
        "role": "แก้ไข",
        "date": "2546-10-28"
      },
      {
        "name": "นวพร/ศุภสรณ์",
        "role": "ตรวจ",
        "date": "2546-10-31"
      }
    ],
    "tag": "a203-2e-2546-a0009"
  }
}