{
  "pages": [
    [
      [
        "ระเบียบเทศบาลตำบลบึงโขงหลง",
        "ว่าด้วยการรักษาความเป็นระเบียบเรียบร้อยและความปลอดภัย",
        "ในการให้ประชาชนเข้าตรวจดูข้อมูลข่าวสาร",
        "พ.ศ. ๒๕๖๐"
      ]
    ],
    []
  ],
  "metadata": {
    "date_backmatter": "2560-08-01",
    "date_modified": "2560-11-27",
    "date_original": "2560-11-27",
    "editors": [
      {
        "name": "พิมพ์มาดา/อัญชลี",
        "role": "จัดทำ",
        "date": "2560-12-06"
      }
    ],
    "tag": "a203-2g-2560-a0029"
  }
}