{
  "pages": [
    [
      [
        "ประกาศองค์การบริหารส่วนตำบลโนนกุง",
        "เรื่อง การเรียกค่าธรรมเนียมการขอสำเนา หรือ",
        "ขอสำเนาที่มีคำรับรองถูกต้องของข้อมูลข่าวสารของราชการ"
      ]
    ],
    []
  ],
  "metadata": {
    "date_backmatter": "2553-04-20",
    "date_modified": "2553-06-08",
    "date_original": "2553-06-08",
    "doctype": "ประกาศ",
    "editors": [
      {
        "name": "ปริยานุช",
        "role": "ผู้จัดทำ",
        "date": "2553-06-16"
      },
      {
        "name": "นันท์นภัสร์",
        "role": "ตรวจ",
        "date": "2553-06-16"
      }
    ],
    "tag": "a203-2e-2553-a0015"
  }
}