{
  "pages": [
    [
      [
        "ระเบียบเทศบาลตำบลไม้ยา",
        "ว่าด้วยข้อมูลข่าวสารของราชการ",
        "พ.ศ. ๒๕๕๗"
      ]
    ],
    []
  ],
  "metadata": {
    "date_backmatter": "2557-10-01",
    "date_modified": "2557-10-30",
    "date_original": "2557-10-30",
    "editors": [
      {
        "name": "ปริยานุช",
        "role": "ผู้จัดทำ",
        "date": "2557-11-05"
      },
      {
        "name": "กฤษดายุทธ",
        "role": "ผู้ตรวจ",
        "date": "2557-11-06"
      }
    ],
    "tag": "a203-2g-2557-a0014"
  }
}