{
  "pages": [
    [
      [
        "ระเบียบเทศบาลเมืองมหาสารคาม",
        "ว่าด้วยข้อมูลข่าวสารของราชการ",
        "พ.ศ. ๒๕๕๐"
      ]
    ],
    []
  ],
  "metadata": {
    "date_backmatter": "2550-09-24",
    "editors": [],
    "tag": "a203-2g-2550-a0054"
  }
}