{
  "pages": [
    [
      [
        "ประกาศสำนักงานมาตรฐานผลิตภัณฑ์อุตสาหกรรม",
        "เรื่อง การจัดระบบข้อมูลข่าวสารส่วนบุคคล ตามมาตรา ๒๓ (๓)",
        "แห่งพระราชบัญญัติข้อมูลข่าวสารของราชการ พ.ศ. ๒๕๔๐"
      ]
    ],
    []
  ],
  "metadata": {
    "date_backmatter": "2545-01-04",
    "date_gz_old": "2545-05-21",
    "doctype": "ประกาศ",
    "editors": [
      {
        "name": "พรพิมล",
        "role": "แก้ไข",
        "date": "2545-08-14"
      }
    ],
    "tag": "a203-2e-2545-a006"
  }
}