{
  "pages": [
    [
      [
        "ประกาศองค์การบริหารส่วนตำบลเมืองเก่า",
        "เรื่อง การดำเนินการตามพระราชบัญญัติข้อมูลข่าวสารของราชการ พ.ศ. ๒๕๔๐",
        "เกี่ยวกับข้อมูลข่าวสารส่วนบุคคลขององค์การบริหารส่วนตำบลเมืองเก่า"
      ]
    ],
    []
  ],
  "metadata": {
    "date_backmatter": "2558-09-18",
    "date_modified": "2558-10-29",
    "date_original": "2558-10-29",
    "doctype": "ประกาศ",
    "editors": [
      {
        "name": "ปริยานุช",
        "role": "จัดทำ",
        "date": "2558-11-03"
      },
      {
        "name": "ปริญสินีย์",
        "role": "ตรวจ",
        "date": "2558-11-30"
      }
    ],
    "tag": "a203-2e-2558-a0028"
  }
}