{
  "pages": [
    [
      [
        "ระเบียบเทศบาลตำบลบรรพตพิสัย",
        "ว่าด้วยข้อมูลข่าวสารของราชการ",
        "พ.ศ. ๒๕๕๗"
      ]
    ],
    []
  ],
  "metadata": {
    "date_backmatter": "2557-05-26",
    "date_modified": "2558-11-12",
    "date_original": "2558-11-12",
    "editors": [
      {
        "name": "ปริยานุช",
        "role": "จัดทำ",
        "date": "2558-11-16"
      },
      {
        "name": "ปุณิกา",
        "role": "ตรวจ",
        "date": "2558-12-14"
      }
    ],
    "tag": "a203-2g-2558-a0049"
  }
}