{
  "pages": [
    [
      [
        "ประกาศบริษัท ท่าอากาศยานไทย จำกัด (มหาชน)",
        "เรื่อง การดำเนินการตามพระราชบัญญัติข้อมูลข่าวสารของราชการ พ.ศ. ๒๕๔๐",
        "เกี่ยวกับข้อมูลข่าวสารส่วนบุคคลของบริษัท ท่าอากาศยานไทย จำกัด (มหาชน)"
      ]
    ],
    []
  ],
  "metadata": {
    "date_backmatter": "2560-09-20",
    "date_modified": "2560-11-16",
    "date_original": "2560-11-16",
    "doctype": "ประกาศ",
    "editors": [
      {
        "name": "พรวิภา/อัญชลี",
        "role": "จัดทำ",
        "date": "2560-11-21"
      },
      {
        "name": "นุสรา",
        "role": "ตรวจ",
        "date": "2561-09-03"
      }
    ],
    "tag": "a203-2e-2560-a0047"
  }
}