{
  "pages": [
    [
      [
        "ระเบียบกรมสรรพสามิต",
        "ว่าด้วยการจัดให้มีข้อมูลข่าวสารของราชการไว้ให้ประชาชนเข้าตรวจดู",
        "พ.ศ. ๒๕๕๑"
      ]
    ],
    []
  ],
  "metadata": {
    "date_backmatter": "2551-05-13",
    "date_modified": "2551-07-03",
    "date_original": "2551-07-03",
    "editors": [
      {
        "name": "ปริยานุช",
        "role": "ผู้จัดทำ",
        "date": "2551-07-07"
      }
    ],
    "tag": "a203-2g-2551-a0030"
  }
}