{
  "pages": [
    [
      [
        "ระเบียบเทศบาลตำบลแม่สาย",
        "ว่าด้วยข้อมูลข่าวสารของราชการ",
        "พ.ศ. ๒๕๕๑"
      ]
    ],
    []
  ],
  "metadata": {
    "date_backmatter": "2551-01-28",
    "date_modified": "2551-05-14",
    "date_original": "2551-05-14",
    "editors": [
      {
        "name": "วัชศักดิ์",
        "role": "ผู้จัดทำ",
        "date": "2551-05-16"
      }
    ],
    "tag": "a203-2g-2551-a0021"
  }
}