{
  "pages": [
    [
      [
        "ประกาศการทางพิเศษแห่งประเทศไทย",
        "เรื่อง การเรียกเก็บค่าธรรมเนียมการขอสำเนา หรือขอสำเนาที่มีคำรับรองถูกต้อง",
        "ของข้อมูลข่าวสารของการทางพิเศษแห่งประเทศไทย"
      ]
    ],
    []
  ],
  "metadata": {
    "date_backmatter": "2553-12-21",
    "date_modified": "2554-02-25",
    "date_original": "2554-02-25",
    "doctype": "ประกาศ",
    "editors": [
      {
        "name": "ปริยานุช",
        "role": "ผู้จัดทำ",
        "date": "2554-03-08"
      },
      {
        "name": "ณัฐวดี",
        "role": "ตรวจ",
        "date": "2554-03-08"
      }
    ],
    "tag": "a203-2e-2554-a0008"
  }
}