{
  "pages": [
    [
      [
        "ประกาศองค์การบริหารส่วนตำบลพรหมณี",
        "เรื่อง การดำเนินการตามพระราชบัญญัติข้อมูลข่าวสารของทางราชการ พ.ศ. ๒๕๔๐",
        "เกี่ยวกับข้อมูลข่าวสารส่วนบุคคลขององค์การบริหารส่วนตำบลพรหมณี",
        "พ.ศ. ๒๕๕๐"
      ]
    ],
    []
  ],
  "metadata": {
    "date_backmatter": "2550-02-16",
    "date_modified": "2550-05-25",
    "date_original": "2550-05-25",
    "doctype": "ประกาศ",
    "editors": [
      {
        "name": "โสรศ",
        "role": "ผู้จัดทำ",
        "date": "2550-06-08"
      }
    ],
    "tag": "a203-2e-2550-a0034"
  }
}