{
  "pages": [
    [
      [
        "ประกาศเทศบาลตำบลไม้เรียง",
        "เรื่อง การดำเนินการเกี่ยวกับข้อมูลข่าวสารส่วนบุคคลตามมาตรา ๒๓ (๓)",
        "แห่งพระราชบัญญัติข้อมูลข่าวสารของราชการ พ.ศ. ๒๕๔๐"
      ]
    ],
    []
  ],
  "metadata": {
    "date_backmatter": "2550-05-01",
    "date_modified": "2552-02-17",
    "date_original": "2552-02-17",
    "doctype": "ประกาศ",
    "editors": [
      {
        "name": "ปริยานุช",
        "role": "ผู้จัดทำ",
        "date": "2552-02-24"
      }
    ],
    "tag": "a203-2e-2552-a0009"
  }
}