{
  "pages": [
    [
      [
        "ระเบียบเทศบาลตำบลบ้านเพชร",
        "ว่าด้วยข้อมูลข่าวสารของราชการ",
        "พ.ศ. ๒๕๕๒"
      ]
    ],
    []
  ],
  "metadata": {
    "date_backmatter": "2552-06-12",
    "date_modified": "2553-01-06",
    "date_original": "2553-01-06",
    "editors": [
      {
        "name": "ปริยานุช",
        "role": "ผู้จัดทำ",
        "date": "2553-01-12"
      },
      {
        "name": "นันท์นภัสร์",
        "role": "ตรวจ",
        "date": "2553-01-12"
      }
    ],
    "tag": "a203-2g-2553-a0001"
  }
}