{
  "pages": [
    [
      [
        "ประกาศองค์การบริหารส่วนตำบลหนองงูเหลือม",
        "เรื่อง การดำเนินการตามพระราชบัญญัติข้อมูลข่าวสารของราชการ พ.ศ. ๒๕๔๐",
        "เกี่ยวกับข้อมูลข่าวสารส่วนบุคคลขององค์การบริหารส่วนตำบลหนองงูเหลือม"
      ]
    ],
    []
  ],
  "metadata": {
    "date_backmatter": "2554-09-28",
    "date_modified": "2554-11-07",
    "date_original": "2554-11-07",
    "doctype": "ประกาศ",
    "editors": [
      {
        "name": "ปริยานุช",
        "role": "ผู้จัดทำ",
        "date": "2554-11-16"
      },
      {
        "name": "ปณตภร",
        "role": "ผู้ตรวจ",
        "date": "2554-11-22"
      }
    ],
    "tag": "a203-2e-2554-a0024"
  }
}