{
  "pages": [
    [
      [
        "ระเบียบเทศบาลตำบลหนองหลวง",
        "ว่าด้วยการรักษาความเป็นระเบียบเรียบร้อยและความปลอดภัยในการ",
        "ให้ประชาชนเข้าตรวจดูข้อมูลข่าวสาร พ.ศ. ๒๕๕๓"
      ]
    ],
    []
  ],
  "metadata": {
    "date_backmatter": "2553-03-02",
    "date_modified": "2553-06-25",
    "date_original": "2553-06-25",
    "editors": [
      {
        "name": "ปริยานุช",
        "role": "ผู้จัดทำ",
        "date": "2553-06-30"
      },
      {
        "name": "นันท์นภัสร์",
        "role": "ตรวจ",
        "date": "2553-06-30"
      }
    ],
    "tag": "a203-2g-2553-a0029"
  }
}