{
  "pages": [
    [
      [
        "ประกาศองค์การบริหารส่วนตำบลละหาร",
        "เรื่อง การดำเนินการตามพระราชบัญญัติข้อมูลข่าวสารของราชการ พ.ศ. ๒๕๔๐",
        "เกี่ยวกับข้อมูลข่าวสารส่วนบุคคล"
      ]
    ],
    []
  ],
  "metadata": {
    "date_backmatter": "2555-08-15",
    "date_modified": "2555-09-13",
    "date_original": "2555-09-13",
    "doctype": "ประกาศ",
    "editors": [
      {
        "name": "ปริยานุช",
        "role": "ผู้จัดทำ",
        "date": "2555-09-17"
      },
      {
        "name": "ชาญ",
        "role": "ผู้ตรวจ",
        "date": "2555-09-25"
      }
    ],
    "tag": "a203-2e-2555-a0024"
  }
}