{
  "pages": [
    [
      [
        "ระเบียบกรมชลประทาน",
        "ว่าด้วยข้อมูลข่าวสารของราชการ",
        "พ.ศ. ๒๕๖๐"
      ]
    ],
    []
  ],
  "metadata": {
    "date_backmatter": "2560-08-30",
    "date_modified": "2560-11-02",
    "date_original": "2560-11-02",
    "editors": [
      {
        "name": "ปุณิกา/อัญชลี",
        "role": "จัดทำ",
        "date": "2560-11-06"
      }
    ],
    "tag": "a203-2g-2560-a0023"
  }
}