{
  "pages": [
    [
      [
        "ระเบียบกองทุนสนับสนุนการสร้างเสริมสุขภาพ",
        "ว่าด้วยการบริหารข้อมูลข่าวสารของกองทุน",
        "พ.ศ. ๒๕๖๐"
      ]
    ],
    []
  ],
  "metadata": {
    "date_backmatter": "2560-03-28",
    "date_modified": "2560-05-18",
    "date_original": "2560-05-18",
    "editors": [
      {
        "name": "พิมพ์มาดา/ภวรรณตรี",
        "role": "จัดทำ",
        "date": "2560-05-24"
      }
    ],
    "tag": "a203-2g-2560-a0013"
  }
}