{
  "pages": [
    [
      [
        "ประกาศกรมการศาสนา",
        "เรื่อง การจัดระบบข้อมูลข่าวสารส่วนบุคคล",
        "ตามพระราชบัญญัติข้อมูลข่าวสารของราชการ",
        "พ.ศ. ๒๕๕๐"
      ]
    ],
    []
  ],
  "metadata": {
    "date_backmatter": "2550-03-28",
    "date_modified": "2550-05-16",
    "date_original": "2550-05-16",
    "doctype": "ประกาศ",
    "editors": [
      {
        "name": "วัชศักดิ์",
        "role": "ผู้จัดทำ",
        "date": "2550-05-22"
      }
    ],
    "tag": "a203-2e-2550-a0028"
  }
}