{
  "pages": [
    [
      [
        "ระเบียบเทศบาลตำบลวังสามหมอ",
        "ว่าด้วยข้อมูลข่าวสารของราชการ พ.ศ. ๒๕๕๙"
      ]
    ],
    []
  ],
  "metadata": {
    "date_backmatter": "2559-07-08",
    "date_modified": "2559-10-20",
    "date_original": "2559-10-20",
    "editors": [
      {
        "name": "ชนิกา/ปริยานุช",
        "role": "จัดทำ",
        "date": "2559-10-25"
      },
      {
        "name": "นุสรา",
        "role": "ตรวจ",
        "date": "2560-01-06"
      }
    ],
    "tag": "a203-2g-2559-a0062"
  }
}