{
  "pages": [
    [
      [
        "ระเบียบเทศบาลตำบลตันหยง",
        "ว่าด้วยข้อมูลข่าวสารของราชการ",
        "พ.ศ. ๒๕๕๓"
      ]
    ],
    []
  ],
  "metadata": {
    "date_backmatter": "2553-06-02",
    "date_modified": "2553-08-27",
    "date_original": "2553-08-27",
    "editors": [
      {
        "name": "ปริยานุช",
        "role": "ผู้จัดทำ",
        "date": "2553-09-07"
      },
      {
        "name": "ณัฐวดี",
        "role": "ตรวจ",
        "date": "2553-09-07"
      }
    ],
    "tag": "a203-2g-2553-a0036"
  }
}