{
  "pages": [
    [
      [
        "ระเบียบสำนักเลขาธิการนายกรัฐมนตรี",
        "ว่าด้วยข้อมูลข่าวสารของราชการ",
        "(ฉบับที่ ๔)",
        "พ.ศ. ๒๕๔๘"
      ]
    ],
    []
  ],
  "metadata": {
    "date_backmatter": "2548-08-30",
    "date_modified": "2548-09-22",
    "date_original": "2548-09-22",
    "editors": [
      {
        "name": "ชัชสรัญ",
        "role": "ผู้จัดทำ",
        "date": "2548-10-10"
      }
    ],
    "tag": "a203-2g-2548-a0002"
  }
}