{
  "pages": [
    [
      [
        "ระเบียบองค์การบริหารส่วนตำบลปงน้อย",
        "ว่าด้วยข้อมูลข่าวสารของราชการ",
        "พ.ศ. ๒๕๖๐"
      ]
    ],
    []
  ],
  "metadata": {
    "date_backmatter": "2560-05-09",
    "date_modified": "2560-09-29",
    "date_original": "2560-09-29",
    "editors": [
      {
        "name": "ภวรรณตรี",
        "role": "จัดทำ",
        "date": "2560-10-16"
      },
      {
        "name": "ปุณิกา",
        "role": "ตรวจ",
        "date": "2560-10-16"
      }
    ],
    "tag": "a203-2g-2560-a0020"
  }
}