{
  "pages": [
    [
      [
        "ระเบียบองค์การบริหารส่วนตำบลสากอ",
        "ว่าด้วยข้อมูลข่าวสารของราชการ พ.ศ. ๒๕๕๘"
      ]
    ],
    []
  ],
  "metadata": {
    "date_backmatter": "2558-03-30",
    "date_modified": "2558-05-28",
    "date_original": "2558-05-28",
    "editors": [
      {
        "name": "ปริยานุช",
        "role": "ผู้จัดทำ",
        "date": "2558-06-03"
      },
      {
        "name": "ปริญสินีย์",
        "role": "ผู้ตรวจ",
        "date": "2558-06-03"
      }
    ],
    "tag": "a203-2g-2558-a0027"
  }
}