{
  "pages": [
    [
      [
        "ระเบียบองค์การบริหารส่วนตำบลไทยชนะศึก",
        "ว่าด้วยข้อมูลข่าวสาร และการรักษาความเป็นระเบียบเรียบร้อย ความปลอดภัย",
        "ในการให้ประชาชนเข้าตรวจดูข้อมูลข่าวสาร",
        "พ.ศ. ๒๕๕๑"
      ]
    ],
    []
  ],
  "metadata": {
    "date_backmatter": "2551-11-26",
    "date_modified": "2552-01-22",
    "date_original": "2552-01-22",
    "editors": [
      {
        "name": "ปริยานุช",
        "role": "ผู้จัดทำ",
        "date": "2552-01-26"
      }
    ],
    "tag": "a203-2g-2552-a0002"
  }
}