{
  "pages": [
    [
      [
        "ระเบียบจังหวัดกำแพงเพชร",
        "ว่าด้วยข้อมูลข่าวสารของราชการ",
        "พ.ศ. ๒๕๕๐"
      ]
    ],
    []
  ],
  "metadata": {
    "date_backmatter": "2550-06-14",
    "date_modified": "2550-07-19",
    "date_original": "2550-07-19",
    "editors": [
      {
        "name": "วัชศักดิ์",
        "role": "ผู้จัดทำ",
        "date": "2550-08-06"
      }
    ],
    "tag": "a203-2g-2550-a0034"
  }
}