{
  "pages": [
    [
      [
        "ประกาศกรมพัฒนาสังคมและสวัสดิการ",
        "เรื่อง การดำเนินการให้เป็นไปตามมาตรา ๗",
        "แห่งพระราชบัญญัติข้อมูลข่าวสารของทางราชการ",
        "พ.ศ. ๒๕๔๐"
      ]
    ],
    []
  ],
  "metadata": {
    "date_backmatter": "2547-12-08",
    "date_modified": "2547-12-30",
    "date_original": "2547-12-30",
    "doctype": "ประกาศ",
    "editors": [
      {
        "name": "ศุภชัย",
        "role": "พิมพ์",
        "date": "2548-06-13"
      },
      {
        "name": "พุทธพัท/สุนันทา",
        "role": "ตรวจ",
        "date": "2548-06-29"
      }
    ],
    "tag": "a203-2e-2547-a0034"
  }
}