{
  "pages": [
    [
      [
        "ระเบียบสำนักเลขาธิการนายกรัฐมนตรี",
        "ว่าด้วยข้อมูลข่าวสารของราชการ",
        "(ฉบับที่ ๕)",
        "พ.ศ. ๒๕๕๑"
      ]
    ],
    []
  ],
  "metadata": {
    "date_backmatter": "2551-03-10",
    "date_modified": "2551-04-01",
    "date_original": "2551-04-01",
    "editors": [
      {
        "name": "ปริยานุช",
        "role": "ผู้จัดทำ",
        "date": "2551-04-03"
      }
    ],
    "tag": "a203-2g-2551-a0016"
  }
}