{
  "pages": [
    [
      [
        "ระเบียบกรมการประกันภัย",
        "ว่าด้วยข้อมูลข่าวสารของราชการ",
        "พ.ศ. ๒๕๔๕"
      ]
    ],
    []
  ],
  "metadata": {
    "date_backmatter": "2545-03-12",
    "date_gz_old": "2545-07-22",
    "editors": [
      {
        "name": "พุทธชาด",
        "role": "แก้ไข",
        "date": "2545-11-28"
      }
    ],
    "tag": "a203-2g-2545-a009"
  }
}