{
  "pages": [
    [
      [
        "ระเบียบองค์การบริหารส่วนตำบลคลองห้า",
        "ว่าด้วยข้อมูลข่าวสารของราชการ พ.ศ. ๒๕๕๗"
      ]
    ],
    []
  ],
  "metadata": {
    "date_backmatter": "2557-03-27",
    "date_modified": "2558-01-22",
    "date_original": "2558-01-22",
    "editors": [
      {
        "name": "ปริยานุช",
        "role": "ผู้จัดทำ",
        "date": "2558-01-28"
      },
      {
        "name": "ปริญสินีย์",
        "role": "ผู้ตรวจ",
        "date": "2558-01-28"
      }
    ],
    "tag": "a203-2g-2558-a0001"
  }
}