{
  "pages": [
    [
      [
        "ประกาศเทศบาลตำบลท้าวอู่ทอง",
        "เรื่อง การดำเนินการตามพระราชบัญญัติข้อมูลข่าวสารของราชการ พ.ศ. ๒๕๔๐",
        "เกี่ยวกับข้อมูลข่าวสารส่วนบุคคลของเทศบาลตำบลท้าวอู่ทอง อำเภออู่ทอง",
        "จังหวัดสุพรรณบุรี"
      ]
    ],
    []
  ],
  "metadata": {
    "date_backmatter": "2555-01-09",
    "date_modified": "2555-02-23",
    "date_original": "2555-02-23",
    "doctype": "ประกาศ",
    "editors": [
      {
        "name": "ปริยานุช",
        "role": "ผู้จัดทำ",
        "date": "2555-02-28"
      },
      {
        "name": "ปณตภร",
        "role": "ผู้ตรวจ",
        "date": "2555-03-07"
      }
    ],
    "tag": "a203-2e-2555-a0007"
  }
}