{
  "pages": [
    [
      [
        "ประกาศเทศบาลตำบลดอนยายหอม",
        "เรื่อง การดำเนินการตามพระราชบัญญัติข้อมูลข่าวสารของราชการ พ.ศ. ๒๕๔๐",
        "เกี่ยวกับการจัดระบบข้อมูลข่าวสารส่วนบุคคลของเทศบาลตำบลดอนยายหอม"
      ]
    ],
    []
  ],
  "metadata": {
    "date_backmatter": "2560-03-15",
    "date_modified": "2560-05-04",
    "date_original": "2560-05-04",
    "doctype": "ประกาศ",
    "editors": [
      {
        "name": "ปุณิกา/ภวรรณตรี",
        "role": "จัดทำ",
        "date": "2560-05-08"
      },
      {
        "name": "นุสรา",
        "role": "ตรวจ",
        "date": "2560-07-20"
      }
    ],
    "tag": "a203-2e-2560-a0015"
  }
}