{
  "pages": [
    [
      [
        "ระเบียบองค์การบริหารส่วนตำบลหนองแก้ว",
        "ว่าด้วยการรักษาความเป็นระเบียบเรียบร้อยและความปลอดภัย",
        "ในการให้ประชาชนเข้าตรวจดูข้อมูลข่าวสาร",
        "พ.ศ. ๒๕๕๕"
      ]
    ],
    []
  ],
  "metadata": {
    "date_backmatter": "2555-03-23",
    "date_modified": "2555-05-04",
    "date_original": "2555-05-04",
    "editors": [
      {
        "name": "ปริยานุช",
        "role": "ผู้จัดทำ",
        "date": "2555-05-10"
      },
      {
        "name": "ณัฐพร",
        "role": "ผู้ตรวจ",
        "date": "2555-05-10"
      }
    ],
    "tag": "a203-2g-2555-a0016"
  }
}