{
  "pages": [
    [
      [
        "ประกาศสำนักงานคณะกรรมการวิจัยแห่งชาติ",
        "เรื่อง การจัดระบบข้อมูลข่าวสารส่วนบุคคลของสำนักงานคณะกรรมการวิจัยแห่งชาติ",
        "ตามพระราชบัญญัติข้อมูลข่าวสารของราชการ พ.ศ. ๒๕๔๐"
      ]
    ],
    []
  ],
  "metadata": {
    "date_backmatter": "2550-10-08",
    "date_modified": "2551-07-23",
    "date_original": "2551-07-23",
    "doctype": "ประกาศ",
    "editors": [
      {
        "name": "ปริยานุช",
        "role": "ผู้จัดทำ",
        "date": "2551-07-29"
      }
    ],
    "tag": "a203-2e-2551-a0030"
  }
}