{
  "pages": [
    [
      [
        "ประกาศมหาวิทยาลัยศิลปากร",
        "เรื่อง โครงสร้างและการจัดองค์กรในการดำเนินงาน สรุปอำนาจหน้าที่ที่สำคัญและวิธีการดำเนินงาน",
        "และสถานที่ติดต่อเพื่อขอรับข้อมูลข่าวสารหรือคำแนะนำในการติดต่อกับมหาวิทยาลัยศิลปากร"
      ]
    ],
    []
  ],
  "metadata": {
    "date_backmatter": "2555-02-07",
    "date_modified": "2555-03-23",
    "date_original": "2555-03-23",
    "doctype": "ประกาศ",
    "editors": [
      {
        "name": "ปริยานุช",
        "role": "ผู้จัดทำ",
        "date": "2555-03-27"
      },
      {
        "name": "ณัฐพร",
        "role": "ผู้ตรวจ",
        "date": "2555-03-27"
      }
    ],
    "tag": "a203-2e-2555-a0011"
  }
}