{
  "pages": [
    [
      [
        "ประกาศองค์การสุรา กรมสรรพสามิต",
        "เรื่อง โครงสร้างและการจัดองค์กร อำนาจหน้าที่ วิธีการดำเนินการ",
        "และสถานที่ติดต่อเพื่อขอรับข้อมูลข่าวสารองค์การสุราฯ พ.ศ. ๒๕๕๘"
      ]
    ],
    []
  ],
  "metadata": {
    "date_backmatter": "2558-06-10",
    "date_modified": "2558-08-06",
    "date_original": "2558-08-06",
    "doctype": "ประกาศ",
    "editors": [
      {
        "name": "ปริยานุช",
        "role": "ผู้จัดทำ",
        "date": "2558-08-10"
      },
      {
        "name": "นุสรา",
        "role": "ผู้ตรวจ",
        "date": "2558-11-02"
      }
    ],
    "tag": "a203-2e-2558-a0021"
  }
}