{
  "pages": [
    [
      [
        "ประกาศกรมการข้าว",
        "เรื่อง โครงสร้าง การจัดองค์กรในการดำเนินงาน สรุปอำนาจหน้าที่ที่สำคัญ",
        "วิธีการดำเนินงาน และสถานที่ติดต่อเพื่อขอรับข้อมูลข่าวสารของกรมการข้าว"
      ]
    ],
    []
  ],
  "metadata": {
    "date_backmatter": "2558-05-08",
    "date_modified": "2558-06-25",
    "date_original": "2558-06-25",
    "doctype": "ประกาศ",
    "editors": [
      {
        "name": "ปริยานุช",
        "role": "ผู้จัดทำ",
        "date": "2558-06-29"
      },
      {
        "name": "ปริญสินีย์",
        "role": "ผู้ตรวจ",
        "date": "2558-06-29"
      }
    ],
    "tag": "a203-2e-2558-a0019"
  }
}