{
  "pages": [
    [
      [
        "ระเบียบองค์การบริหารส่วนตำบลคำโตนด",
        "ว่าด้วยข้อมูลข่าวสารของราชการ",
        "พ.ศ. ๒๕๕๐"
      ]
    ],
    []
  ],
  "metadata": {
    "date_backmatter": "2550-02-14",
    "date_modified": "2550-05-28",
    "date_original": "2550-05-28",
    "editors": [
      {
        "name": "โสรศ",
        "role": "ผู้จัดทำ",
        "date": "2550-06-06"
      }
    ],
    "tag": "a203-2g-2550-a0022"
  }
}