{
  "pages": [
    [
      [
        "ระเบียบเทศบาลตำบลวังยาง",
        "ว่าด้วยข้อมูลข่าวสารของราชการ",
        "พ.ศ. ๒๕๖๐"
      ]
    ],
    []
  ],
  "metadata": {
    "date_backmatter": "2560-02-27",
    "date_modified": "2560-04-20",
    "date_original": "2560-04-20",
    "editors": [
      {
        "name": "ชวัลพร/ภวรรณตรี",
        "role": "จัดทำ",
        "date": "2560-04-25"
      }
    ],
    "tag": "a203-2g-2560-a0010"
  }
}