{
  "pages": [
    [
      [
        "ประกาศจังหวัดอ่างทอง",
        "เรื่อง โครงสร้างและการจัดองค์กรในการดำเนินงาน สรุปอำนาจหน้าที่ที่สำคัญ และวิธีการดำเนินงาน",
        "สถานที่ติดต่อเพื่อขอรับข้อมูลข่าวสาร ขององค์กรปกครองส่วนท้องถิ่น",
        "พ.ศ. ๒๕๕๕"
      ]
    ],
    []
  ],
  "metadata": {
    "date_backmatter": "2555-01-24",
    "date_modified": "2555-02-09",
    "date_original": "2555-02-09",
    "doctype": "ประกาศ",
    "editors": [
      {
        "name": "ปริยานุช",
        "role": "ผู้จัดทำ",
        "date": "2555-02-13"
      },
      {
        "name": "ณัฐพร",
        "role": "ผู้ตรวจ",
        "date": "2555-02-13"
      }
    ],
    "tag": "a203-2e-2555-a0005"
  }
}