{
  "pages": [
    [
      [
        "ระเบียบเทศบาลตำบลห้วยนาง",
        "ว่าด้วยข้อมูลข่าวสารของราชการ พ.ศ. ๒๕๕๘"
      ]
    ],
    []
  ],
  "metadata": {
    "date_backmatter": "2558-03-23",
    "date_modified": "2558-04-23",
    "date_original": "2558-04-23",
    "editors": [
      {
        "name": "ปริยานุช",
        "role": "ผู้จัดทำ",
        "date": "2558-04-27"
      },
      {
        "name": "ปริญสินีย์",
        "role": "ผู้ตรวจ",
        "date": "2558-04-27"
      }
    ],
    "tag": "a203-2g-2558-a0020"
  }
}