{
  "pages": [
    [
      [
        "ระเบียบเทศบาลตำบลประโคนชัย",
        "ว่าด้วย การจัดให้มีข้อมูลข่าวสารของราชการไว้ให้ประชาชนเข้าตรวจดู พ.ศ. ๒๕๔๙"
      ]
    ],
    []
  ],
  "metadata": {
    "date_backmatter": "2549-12-06",
    "date_modified": "2550-03-16",
    "date_original": "2550-03-16",
    "editors": [
      {
        "name": "โสรศ",
        "role": "ผู้จัดทำ",
        "date": "2550-03-28"
      },
      {
        "name": "นฤดล",
        "role": "ปรับปรุง",
        "date": "2551-11-18"
      }
    ],
    "tag": "a203-2g-2550-a0009"
  }
}