{
  "pages": [
    [
      [
        "พระราชบัญญัติ",
        "เครื่องแบบข้าราชการฝ่ายรัฐสภา",
        "พ.ศ. ๒๕๑๘",
        "",
        "",
        "ภูมิพลอดุลยเดช ป.ร.",
        "ให้ไว้ ณ วันที่ ๒๐ มกราคม พ.ศ. ๒๕๑๘",
        "เป็นปีที่ ๓๐ ในรัชกาลปัจจุบัน"
      ]
    ],
    []
  ],
  "metadata": {
    "date_header": "2518-01-20",
    "date_modified": "2518-02-06",
    "date_original": "2518-02-06",
    "doctype": "พระราชบัญญัติ",
    "editors": [
      {
        "name": null,
        "role": null,
        "date": "2554-02-00"
      }
    ],
    "tag": "a437-20-2518-001",
    "title": "เครื่องแบบข้าราชการฝ่ายรัฐสภา"
  }
}