{
  "pages": [
    [
      [
        "ประกาศจังหวัดนครราชสีมา",
        "เรื่อง ตั้งและกำหนดเขตหมู่บ้าน"
      ]
    ],
    []
  ],
  "metadata": {
    "date_backmatter": "2549-11-06",
    "date_modified": "2550-09-07",
    "date_original": "2550-09-07",
    "doctype": "ประกาศ",
    "editors": [
      {
        "name": "วัชศักดิ์",
        "role": "ผู้จัดทำ",
        "date": "2550-09-20"
      }
    ],
    "tag": "c503-2e-2550-a0199"
  }
}