{
  "pages": [
    [
      [
        "ประกาศจังหวัดเชียงราย",
        "เรื่อง เปลี่ยนแปลงชื่อหมู่บ้าน ในท้องที่อำเภอเทิง",
        "",
        "",
        "ตาม ประกาศจังหวัดเชียงราย เรื่อง ตั้งและกำหนดเขตหมู่บ้าน ลงวันที่ ๒๗ เมษายน ๒๕๔๓ ซึ่งประกาศให้แยกหมู่บ้านแม่ลอยหลวง หมู่ที่ ๓ ตำบลศรีดอนไชย อำเภอเทิง จังหวัดเชียงราย จัดตั้งหมู่บ้านใหม่อีกหนึ่งหมู่บ้าน ชื่อ หมู่บ้านป่าแฮะ โดยตั้งเป็นหมู่ที่ ๗ ตำบลศรีดอนไชย อำเภอเทิง จังหวัดเชียงราย นั้น"
      ]
    ],
    []
  ],
  "metadata": {
    "date_backmatter": "2549-06-06",
    "date_header": "2543-04-27",
    "date_modified": "2549-07-20",
    "date_original": "2549-07-20",
    "doctype": "ประกาศ",
    "editors": [
      {
        "name": "นันทนา",
        "role": "ผู้จัดทำ",
        "date": "2549-07-25"
      }
    ],
    "tag": "c503-2e-2549-a0100"
  }
}