{
  "pages": [
    [
      [
        "ประกาศจังหวัดนครพนม",
        "เรื่อง ตั้งและกำหนดเขตหมู่บ้าน"
      ]
    ],
    []
  ],
  "metadata": {
    "date_backmatter": "2559-04-11",
    "date_modified": "2559-06-09",
    "date_original": "2559-06-09",
    "doctype": "ประกาศ",
    "editors": [
      {
        "name": "ปริยานุช",
        "role": "จัดทำ",
        "date": "2559-06-13"
      },
      {
        "name": "ชวัลพร",
        "role": "ตรวจ",
        "date": "2559-06-23"
      }
    ],
    "tag": "c503-2e-2559-a0026"
  }
}