{
  "pages": [
    [
      [
        "ประกาศจังหวัดอุตรดิตถ์",
        "เรื่อง ตั้งและกำหนดเขตหมู่บ้าน"
      ]
    ],
    []
  ],
  "metadata": {
    "date_backmatter": "2549-11-21",
    "date_modified": "2550-01-31",
    "date_original": "2550-01-31",
    "doctype": "ประกาศ",
    "editors": [
      {
        "name": "วัชศักดิ์",
        "role": "ผู้จัดทำ",
        "date": "2550-02-07"
      }
    ],
    "tag": "c503-2e-2550-a0067"
  }
}