{
  "pages": [
    [
      [
        "ประกาศจังหวัดอุดรธานี",
        "เรื่อง ตั้งและกำหนดเขตหมู่บ้าน"
      ]
    ],
    []
  ],
  "metadata": {
    "date_backmatter": "2548-11-07",
    "date_modified": "2549-03-23",
    "date_original": "2549-03-23",
    "doctype": "ประกาศ",
    "editors": [
      {
        "name": "นันทนา",
        "role": "ผู้จัดทำ",
        "date": "2549-03-31"
      }
    ],
    "tag": "c503-2e-2549-a0047"
  }
}