{
  "pages": [
    [
      [
        "ประกาศจังหวัดเชียงใหม่",
        "เรื่อง ตั้งและกำหนดเขตหมู่บ้าน"
      ]
    ],
    []
  ],
  "metadata": {
    "date_backmatter": "2557-01-14",
    "date_modified": "2557-02-27",
    "date_original": "2557-02-27",
    "doctype": "ประกาศ",
    "editors": [
      {
        "name": "ปริยานุช",
        "role": "ผู้จัดทำ",
        "date": "2557-03-03"
      },
      {
        "name": "อังศุมาลี",
        "role": "ผู้ตรวจ",
        "date": "2557-03-11"
      }
    ],
    "tag": "c503-2e-2557-a0001"
  }
}