{
  "pages": [
    [
      [
        "ประกาศจังหวัดเชียงใหม่",
        "เรื่อง ตั้งและกำหนดหมู่บ้าน"
      ]
    ],
    []
  ],
  "metadata": {
    "date_backmatter": "2548-12-29",
    "date_modified": "2549-04-04",
    "date_original": "2549-04-04",
    "doctype": "ประกาศ",
    "editors": [
      {
        "name": "นันทนา",
        "role": "ผู้จัดทำ",
        "date": "2549-04-11"
      }
    ],
    "tag": "c503-2e-2549-a0057"
  }
}