{
  "pages": [
    [
      [
        "พระราชบัญญัติ",
        "ลักษณะปกครองท้องที่",
        "พระพุทธศักราช ๒๔๕๗"
      ]
    ],
    []
  ],
  "metadata": {
    "date_backmatter": "2457-07-04",
    "date_modified": "2482-04-01",
    "date_original": "2457-07-17",
    "editors": [
      {
        "name": "กองกฎหมายไทย",
        "role": "จัดทำ",
        "date": "2559-03-16"
      }
    ],
    "tag": "c503-20-2482-a0001"
  }
}