{
  "pages": [
    [
      [
        "พระราชบัญญัติ",
        "ลักษณะปกครองท้องที่",
        "พระพุทธศักราช ๒๔๕๗"
      ]
    ],
    []
  ],
  "metadata": {
    "date_backmatter": "2457-07-04",
    "date_modified": "2457-07-17",
    "date_original": "2457-07-17",
    "editors": [
      {
        "name": "สุกัญญา",
        "role": "ผู้จัดทำ",
        "date": "2553-12-07"
      }
    ],
    "tag": "c503-20-2457-001"
  }
}