{
  "pages": [
    [
      [
        "ประกาศจังหวัดปัตตานี",
        "เรื่อง ตั้งและกำหนดเขตหมู่บ้าน"
      ]
    ],
    []
  ],
  "metadata": {
    "date_backmatter": "2548-10-11",
    "date_modified": "2549-04-05",
    "date_original": "2549-04-05",
    "doctype": "ประกาศ",
    "editors": [
      {
        "name": "นันทนา",
        "role": "ผู้จัดทำ",
        "date": "2549-04-11"
      }
    ],
    "tag": "c503-2e-2549-a0067"
  }
}