{
  "pages": [
    [
      [
        "ประกาศกระทรวงมหาดไทย",
        "เรื่อง การปรับปรุงเขตตำบลในท้องที่อำเภอชนบท จังหวัดขอนแก่น",
        "พ.ศ. ๒๕๕๕"
      ]
    ],
    []
  ],
  "metadata": {
    "date_backmatter": "2555-08-08",
    "date_modified": "2555-09-01",
    "date_original": "2555-09-01",
    "doctype": "ประกาศ",
    "editors": [
      {
        "name": "ปริยานุช",
        "role": "ผู้จัดทำ",
        "date": "2555-09-04"
      },
      {
        "name": "ปณตภร",
        "role": "ผู้ตรวจ",
        "date": "2555-09-13"
      }
    ],
    "tag": "c503-2e-2555-a0004"
  }
}