{
  "pages": [
    [
      [
        "ประกาศกระทรวงมหาดไทย",
        "เรื่อง การกำหนดเขตตำบลในท้องที่อำเภอกระทุ่มแบน",
        "จังหวัดสมุทรสาคร"
      ]
    ],
    []
  ],
  "metadata": {
    "date_backmatter": "2554-09-16",
    "date_modified": "2554-11-10",
    "date_original": "2554-11-10",
    "doctype": "ประกาศ",
    "editors": [
      {
        "name": "ปริยานุช",
        "role": "ผู้จัดทำ",
        "date": "2554-11-15"
      },
      {
        "name": "ปณตภร",
        "role": "ผู้ตรวจ",
        "date": "2554-11-25"
      }
    ],
    "tag": "c503-2e-2554-a0011"
  }
}