{
  "pages": [
    [
      [
        "ประกาศจังหวัดลำปาง",
        "เรื่อง ตั้งและกำหนดเขตหมู่บ้าน หมู่ที่ ๙ ตำบลวังทรายคำ อำเภอวังเหนือ"
      ]
    ],
    []
  ],
  "metadata": {
    "date_backmatter": "2549-12-29",
    "date_modified": "2550-04-20",
    "date_original": "2550-04-20",
    "doctype": "ประกาศ",
    "editors": [
      {
        "name": "โสรศ",
        "role": "ผู้จัดทำ",
        "date": "2550-05-08"
      }
    ],
    "tag": "c503-2e-2550-a0159"
  }
}