{
  "pages": [
    [
      [
        "ประกาศกระทรวงมหาดไทย",
        "เรื่อง การกำหนดเขตตำบลในท้องที่อำเภอบางกล่ำ",
        "จังหวัดสงขลา"
      ]
    ],
    []
  ],
  "metadata": {
    "date_backmatter": "2544-06-19",
    "date_gz_old": "2544-08-30",
    "doctype": "ประกาศ",
    "editors": [
      {
        "name": "ภคินี",
        "role": "แก้ไข",
        "date": "2545-05-08"
      }
    ],
    "tag": "c503-2e-2544-a003"
  }
}