{
  "pages": [
    [
      [
        "ประกาศจังหวัดหนองบัวลำภู",
        "เรื่อง ตั้งและกำหนดเขตหมู่บ้าน"
      ]
    ],
    []
  ],
  "metadata": {
    "date_backmatter": "2550-01-04",
    "date_modified": "2550-05-21",
    "date_original": "2550-05-21",
    "doctype": "ประกาศ",
    "editors": [
      {
        "name": "โสรศ",
        "role": "ผู้จัดทำ",
        "date": "2550-05-24"
      }
    ],
    "tag": "c503-2e-2550-a0177"
  }
}