{
  "pages": [
    [
      [
        "พระราชบัญญัติ",
        "ลักษณะปกครองท้องที่",
        "พระพุทธศักราช ๒๔๕๗"
      ]
    ],
    []
  ],
  "metadata": {
    "date_backmatter": "2457-07-04",
    "date_modified": "2532-07-19",
    "date_original": "2457-07-17",
    "editors": [
      {
        "name": "สัญชัย",
        "role": "ผู้จัดทำ",
        "date": "2551-12-22"
      },
      {
        "name": "ดำรง",
        "role": "ปรับปรุง",
        "date": "2554-09-00"
      },
      {
        "name": "กองกฎหมายไทย",
        "role": "ปรับปรุง",
        "date": "2559-03-16"
      }
    ],
    "tag": "c503-20-2532-008u"
  }
}