{
  "pages": [
    [
      [
        "ประกาศกระทรวงมหาดไทย",
        "เรื่อง การกำหนดเขตตำบล ในท้องที่อำเภอปากพลี จังหวัดนครนายก",
        "(ฉบับที่ ๒)",
        "พ.ศ. ๒๕๔๙"
      ]
    ],
    []
  ],
  "metadata": {
    "date_backmatter": "2549-04-26",
    "date_modified": "2549-06-01",
    "date_original": "2549-06-01",
    "doctype": "ประกาศ",
    "editors": [
      {
        "name": "นันทนา",
        "role": "ผู้จัดทำ",
        "date": "2549-06-07"
      }
    ],
    "tag": "c503-2e-2549-a0097"
  }
}