{
  "pages": [
    [
      [
        "ประกาศจังหวัดนครราชสีมา",
        "เรื่อง ตั้งและกำหนดเขตหมู่บ้าน"
      ]
    ],
    []
  ],
  "metadata": {
    "date_backmatter": "2559-01-18",
    "date_modified": "2559-03-03",
    "date_original": "2559-03-03",
    "doctype": "ประกาศ",
    "editors": [
      {
        "name": "ปริยานุช",
        "role": "จัดทำ",
        "date": "2559-03-08"
      },
      {
        "name": "วริญา",
        "role": "ตรวจ",
        "date": "2559-03-08"
      }
    ],
    "tag": "c503-2e-2559-a0003"
  }
}