{
  "pages": [
    [
      [
        "ระเบียบกระทรวงมหาดไทย",
        "ว่าด้วยการช่วยเหลือเจ้าพนักงานของหน่วยกำลังคุ้มครอง",
        "และรักษาความสงบเรียบร้อยภายในหมู่บ้าน",
        "พ.ศ. ๒๕๕๑"
      ]
    ],
    []
  ],
  "metadata": {
    "date_backmatter": "2551-08-22",
    "date_modified": "2551-09-03",
    "date_original": "2551-09-03",
    "editors": [
      {
        "name": "วัชศักดิ์",
        "role": "ผู้จัดทำ",
        "date": "2551-09-04"
      }
    ],
    "tag": "c503-2g-2551-a0004"
  }
}