{
  "pages": [
    [
      [
        "ประกาศจังหวัดนครพนม",
        "เรื่อง ตั้งและกำหนดเขตหมู่บ้าน บ้านนาราชควาย หมู่ที่ ๑๐",
        "ตำบลนาราชควาย อำเภอเมือง จังหวัดนครพนม"
      ]
    ],
    []
  ],
  "metadata": {
    "date_backmatter": "2549-11-22",
    "date_modified": "2550-01-24",
    "date_original": "2550-01-24",
    "doctype": "ประกาศ",
    "editors": [
      {
        "name": "วัชศักดิ์",
        "role": "ผู้จัดทำ",
        "date": "2550-02-01"
      }
    ],
    "tag": "c503-2e-2550-a0007"
  }
}