{
  "pages": [
    [
      [
        "ระเบียบกระทรวงมหาดไทย",
        "ว่าด้วยหลักเกณฑ์และวิธีการประเมินผลการปฏิบัติหน้าที่ของผู้ใหญ่บ้าน",
        "พ.ศ. ๒๕๕๙"
      ]
    ],
    []
  ],
  "metadata": {
    "date_backmatter": "2559-05-23",
    "date_modified": "2559-06-23",
    "date_original": "2559-06-23",
    "editors": [
      {
        "name": "ปริยานุช",
        "role": "จัดทำ",
        "date": "2559-06-27"
      },
      {
        "name": "ปุณิกา",
        "role": "ตรวจ",
        "date": "2559-06-27"
      }
    ],
    "tag": "c503-2g-2559-a0001"
  }
}