{
  "pages": [
    [
      [
        "ประกาศจังหวัดสกลนคร",
        "เรื่อง ตั้งและกำหนดเขตหมู่บ้าน"
      ]
    ],
    []
  ],
  "metadata": {
    "date_backmatter": "2549-12-28",
    "date_modified": "2550-04-11",
    "date_original": "2550-04-11",
    "doctype": "ประกาศ",
    "editors": [
      {
        "name": "วัชศักดิ์",
        "role": "ผู้จัดทำ",
        "date": "2550-04-23"
      }
    ],
    "tag": "c503-2e-2550-a0115"
  }
}