{
  "pages": [
    [
      [
        "พระราชกฤษฎีกา",
        "ว่าด้วยแพรแถบเหรียญชัยสมรภูมิ",
        "พ.ศ. ๒๕๑๐",
        "",
        "",
        "ภูมิพลอดุลยเดช ป.ร.",
        "ให้ไว้ ณ วันที่ ๒๙ ธันวาคม พ.ศ. ๒๕๑๐",
        "เป็นปีที่ ๒๒ ในรัชกาลปัจจุบัน"
      ]
    ],
    []
  ],
  "metadata": {
    "date_header": "2510-12-29",
    "date_modified": "2510-12-31",
    "date_original": "2510-12-31",
    "doctype": "พระราชกฤษฎีกา",
    "editors": [
      {
        "name": "วสุ สรรกำเนิด",
        "role": "ผู้ปรับปรุง",
        "date": "2552-10-22"
      },
      {
        "name": "กวินทราดา",
        "role": "ผู้ตรวจ",
        "date": "2554-01-27"
      }
    ],
    "tag": "cb21-2a-2510-a0001",
    "title": "ว่าด้วยแพรแถบเหรียญชัยสมรภูมิ"
  }
}