{
  "pages": [
    [
      [
        "พระราชบัญญัติ",
        "แก้ไขเพิ่มเติมพระราชกำหนดเหรียญชัยสมรภูมิ",
        "พุทธศักราช ๒๔๘๔ (ฉบับที่ ๒)",
        "พุทธศักราช ๒๔๘๕",
        "",
        "",
        "ในพระปรมาภิไธยสมเด็จพระเจ้าอยู่หัวอานันทมหิดล",
        "คณะผู้สำเร็จราชการแทนพระองค์",
        "(ตามประกาศประธานสภาผู้แทนราษฎร",
        "ลงวันที่ ๔ สิงหาคม พุทธศักราช ๒๔๘๐",
        "และวันที่ ๑๖ ธันวาคม พุทธศักราช ๒๔๘๔)",
        "อาทิตย์ทิพอาภา",
        "ปรีดี พนมยงค์",
        "ตราไว้ ณ วันที่ ๑๓ ตุลาคม พุทธศักราช ๒๔๘๕",
        "เป็นปีที่ ๙ ในรัชกาลปัจจุบัน"
      ]
    ],
    []
  ],
  "metadata": {
    "date_header": "2480-08-04",
    "date_modified": "2485-10-20",
    "date_original": "2485-10-20",
    "doctype": "พระราชบัญญัติ",
    "editors": [
      {
        "name": "วสุ",
        "role": "ปรับปรุง",
        "date": "2552-04-28"
      },
      {
        "name": "ฐิติพร",
        "role": "ปรับปรุง",
        "date": "2556-11-18"
      },
      {
        "name": "ปณตภร",
        "role": "ตรวจ",
        "date": "2556-12-25"
      }
    ],
    "tag": "cb21-20-2485-a0002",
    "title": "แก้ไขเพิ่มเติมพระราชกำหนดเหรียญชัยสมรภูมิพุทธศักราช ๒๔๘๔ (ฉบับที่ ๒)"
  }
}