{
  "pages": [
    [
      [
        "พระราชกฤษฎีกา",
        "ว่าด้วยแพรแถบเหรียญชัยสมรภูมิ",
        "พ.ศ. ๒๕๐๒",
        "",
        "",
        "ภูมิพลอดุลยเดช ป.ร.",
        "ให้ไว้ ณ วันที่ ๓๐ กรกฎาคม พ.ศ. ๒๕๐๒",
        "เป็นปีที่ ๑๔ ในรัชกาลปัจจุบัน"
      ]
    ],
    []
  ],
  "metadata": {
    "date_header": "2502-07-30",
    "date_modified": "2502-08-04",
    "date_original": "2502-08-04",
    "doctype": "พระราชกฤษฎีกา",
    "editors": [
      {
        "name": "วสุ สรรกำเนิด",
        "role": "ผู้ปรับปรุง",
        "date": "2552-10-29"
      },
      {
        "name": "กวินทราดา",
        "role": "ผู้ตรวจ",
        "date": "2554-01-27"
      }
    ],
    "tag": "cb21-2a-2502-a0001",
    "title": "ว่าด้วยแพรแถบเหรียญชัยสมรภูมิ"
  }
}