{
  "pages": [
    [
      [
        "พระราชกฤษฎีกา",
        "จัดตั้งนิคมสร้างตนเอง ในท้องที่อำเภอบ้านกรวด",
        "จังหวัดบุรีรัมย์",
        "พ.ศ. ๒๕๑๒",
        "",
        "",
        "ภูมิพลอดุลยเดช ป.ร.",
        "ให้ไว้ ณ วันที่ ๒๔ กันยายน พ.ศ. ๒๕๑๒",
        "เป็นปีที่ ๒๔ ในรัชกาลปัจจุบัน"
      ]
    ],
    []
  ],
  "metadata": {
    "date_header": "2512-09-24",
    "date_modified": "2512-10-07",
    "date_original": "2512-10-07",
    "doctype": "พระราชกฤษฎีกา",
    "editors": [
      {
        "name": "ศิรวัชร์",
        "role": "จัดทำ",
        "date": "2560-05-11"
      }
    ],
    "tag": "a808-2a-2512-a012",
    "title": "จัดตั้งนิคมสร้างตนเอง ในท้องที่อำเภอบ้านกรวดจังหวัดบุรีรัมย์"
  }
}