{
  "pages": [
    [
      [
        "พระราชกฤษฎีกา",
        "จัดตั้งนิคมสหกรณ์ ในท้องที่อำเภอแม่แตง",
        "จังหวัดเชียงใหม่",
        "พ.ศ. ๒๕๑๓",
        "",
        "",
        "ภูมิพลอดุลยเดช ป.ร.",
        "ให้ไว้ ณ วันที่ ๑๙ ธันวาคม พ.ศ. ๒๕๑๓",
        "เป็นปีที่ ๒๕ ในรัชกาลปัจจุบัน"
      ]
    ],
    []
  ],
  "metadata": {
    "date_header": "2513-12-19",
    "date_modified": "2513-12-28",
    "date_original": "2513-12-28",
    "doctype": "พระราชกฤษฎีกา",
    "editors": [
      {
        "name": "ศิรวัชร์",
        "role": "จัดทำ",
        "date": "2560-05-15"
      }
    ],
    "tag": "a808-2a-2513-a006",
    "title": "จัดตั้งนิคมสหกรณ์ ในท้องที่อำเภอแม่แตงจังหวัดเชียงใหม่"
  }
}