{
  "pages": [
    [
      [
        "พระราชกฤษฎีกา",
        "จัดตั้งนิคมสร้างตนเอง ในจังหวัดลพบุรี",
        "และจังหวัดสระบุรี (ฉบับที่ ๒)",
        "พ.ศ. ๒๕๑๘",
        "",
        "",
        "ภูมิพลอดุลยเดช ป.ร.",
        "ให้ไว้ ณ วันที่ ๒๓ ตุลาคม พ.ศ. ๒๕๑๘",
        "เป็นปีที่ ๓๐ ในรัชกาลปัจจุบัน"
      ]
    ],
    []
  ],
  "metadata": {
    "date_header": "2518-10-23",
    "date_modified": "2518-10-31",
    "date_original": "2518-10-31",
    "doctype": "พระราชกฤษฎีกา",
    "editors": [
      {
        "name": "ศิรวัชร์",
        "role": "จัดทำ",
        "date": "2560-05-17"
      }
    ],
    "tag": "a808-2a-2518-a007",
    "title": "จัดตั้งนิคมสร้างตนเอง ในจังหวัดลพบุรีและจังหวัดสระบุรี (ฉบับที่ ๒)"
  }
}