{
  "pages": [
    [
      [
        "พระราชกฤษฎีกา",
        "จัดตั้งนิคมสหกรณ์ ในท้องที่อำเภอคลองท่อม",
        "จังหวัดกระบี่",
        "พ.ศ. ๒๕๑๙",
        "",
        "",
        "ภูมิพลอดุลยเดช ป.ร.",
        "ให้ไว้ ณ วันที่ ๒๐ กรกฎาคม พ.ศ. ๒๕๑๙",
        "เป็นปีที่ ๓๑ ในรัชกาลปัจจุบัน"
      ]
    ],
    []
  ],
  "metadata": {
    "date_header": "2519-07-20",
    "date_modified": "2519-08-03",
    "date_original": "2519-08-03",
    "doctype": "พระราชกฤษฎีกา",
    "editors": [
      {
        "name": "ศิรวัชร์",
        "role": "จัดทำ",
        "date": "2560-05-17"
      }
    ],
    "tag": "a808-2a-2519-a004",
    "title": "จัดตั้งนิคมสหกรณ์ ในท้องที่อำเภอคลองท่อมจังหวัดกระบี่"
  }
}