{
  "pages": [
    [
      [
        "ประกาศของคณะปฏิวัติ",
        "ฉบับที่ ๘๒"
      ]
    ],
    []
  ],
  "metadata": {
    "date_backmatter": "2515-02-16",
    "date_modified": "2515-02-18",
    "date_original": "2515-02-18",
    "doctype": "ประกาศ",
    "editors": [
      {
        "name": "ศิรวัชร์",
        "role": "จัดทำ",
        "date": "2560-05-26"
      }
    ],
    "tag": "a808-2e-2515-a0001"
  }
}