{
  "pages": [
    [
      [
        "ประกาศคณะกรรมการจัดรูปที่ดินเพื่อพัฒนาพื้นที่ส่วนจังหวัดลพบุรี",
        "เรื่อง การให้ความเห็นชอบโครงการจัดรูปที่ดินเพื่อพัฒนาพื้นที่จังหวัดลพบุรี",
        "บริเวณหมู่ที่ ๙ ตำบลโคกสำโรง อำเภอโคกสำโรง จังหวัดลพบุรี"
      ]
    ],
    []
  ],
  "metadata": {
    "date_backmatter": "2560-03-09",
    "date_modified": "2560-04-10",
    "date_original": "2560-04-10",
    "doctype": "ประกาศ",
    "editors": [
      {
        "name": "ภวรรณตรี",
        "role": "จัดทำ",
        "date": "2560-04-18"
      },
      {
        "name": "พิมพ์มาดา",
        "role": "ตรวจ",
        "date": "2560-05-08"
      }
    ],
    "tag": "a829-2e-2560-a0003"
  }
}