{
  "pages": [
    [
      [
        "กฎกระทรวง",
        "กำหนดหลักเกณฑ์และวิธีการออกหนังสือสำคัญ",
        "และการจดทะเบียนต่าง ๆ ที่เกี่ยวข้องตามโครงการจัดรูปที่ดินเพื่อพัฒนาพื้นที่",
        "พ.ศ. ๒๕๕๒"
      ]
    ],
    []
  ],
  "metadata": {
    "date_backmatter": "2552-03-18",
    "date_modified": "2552-03-27",
    "date_original": "2552-03-27",
    "doctype": "กฎกระทรวง",
    "editors": [
      {
        "name": "ปริยานุช",
        "role": "ผู้จัดทำ",
        "date": "2552-03-30"
      },
      {
        "name": "ฐิติพร",
        "role": "ปรับปรุง",
        "date": "2556-04-18"
      },
      {
        "name": "วิชพงษ์",
        "role": "ตรวจ",
        "date": "2556-04-19"
      }
    ],
    "tag": "a829-2b-2552-a0002"
  }
}