{
  "pages": [
    [
      [
        "ประกาศคณะกรรมการจัดรูปที่ดินเพื่อพัฒนาพื้นที่ส่วนจังหวัดกาญจนบุรี",
        "เรื่อง การให้ความเห็นชอบโครงการจัดรูปที่ดินเพื่อพัฒนาพื้นที่ตำบลปากแพรก",
        "อำเภอเมืองกาญจนบุรี จังหวัดกาญจนบุรี"
      ]
    ],
    []
  ],
  "metadata": {
    "date_backmatter": "2556-11-19",
    "date_modified": "2556-12-17",
    "date_original": "2556-12-17",
    "doctype": "ประกาศ",
    "editors": [
      {
        "name": "ปริยานุช",
        "role": "ผู้จัดทำ",
        "date": "2556-12-19"
      },
      {
        "name": "อังศุมาลี",
        "role": "ผู้ตรวจ",
        "date": "2556-12-19"
      }
    ],
    "tag": "a829-2e-2556-a0003"
  }
}