{
  "pages": [
    [
      [
        "ประกาศคณะกรรมการจัดรูปที่ดินเพื่อพัฒนาพื้นที่ส่วนจังหวัด",
        "จังหวัดสมุทรสาคร",
        "เรื่อง การให้ความเห็นชอบโครงการจัดรูปที่ดินเพื่อพัฒนาพื้นที่",
        "บริเวณสองฟากถนนโครงการสาย ง๑๓ ผังเมืองรวมเมืองสมุทรสาคร"
      ]
    ],
    []
  ],
  "metadata": {
    "date_backmatter": "2559-04-12",
    "date_modified": "2559-05-10",
    "date_original": "2559-05-10",
    "doctype": "ประกาศ",
    "editors": [
      {
        "name": "ปริยานุช",
        "role": "จัดทำ",
        "date": "2559-05-12"
      },
      {
        "name": "วริญา",
        "role": "ตรวจ",
        "date": "2559-05-19"
      }
    ],
    "tag": "a829-2e-2559-a0009"
  }
}