{
  "pages": [
    [
      [
        "ระเบียบกรมสอบสวนคดีพิเศษ",
        "ว่าด้วยการคุ้มครองพยานในคดีอาญา",
        "พ.ศ. ๒๕๕๔"
      ]
    ],
    []
  ],
  "metadata": {
    "date_backmatter": "2554-02-03",
    "date_modified": "2554-03-17",
    "date_original": "2554-03-17",
    "editors": [
      {
        "name": "ปริยานุช",
        "role": "ผู้จัดทำ",
        "date": "2554-03-29"
      },
      {
        "name": "ณัฐวดี",
        "role": "ตรวจ",
        "date": "2554-03-29"
      }
    ],
    "tag": "a492-2g-2554-a0001"
  }
}