{
  "pages": [
    [
      [
        "ระเบียบกระทรวงยุติธรรม",
        "ว่าด้วยค่าตอบแทนและค่าใช้จ่ายแก่พยาน สามี ภริยา ผู้บุพการี",
        "ผู้สืบสันดานของพยานหรือบุคคลอื่นที่มีความสัมพันธ์",
        "ใกล้ชิดกับพยานในคดีอาญา",
        "พ.ศ. ๒๕๔๗"
      ]
    ],
    []
  ],
  "metadata": {
    "date_backmatter": "2547-09-29",
    "date_modified": "2560-06-28",
    "date_original": "2547-10-27",
    "editors": [
      {
        "name": "ศุภกรณ",
        "role": "จัดทำ",
        "date": "2553-12-03"
      },
      {
        "name": "ปุณิกา",
        "role": "เพิ่มเติม",
        "date": "2560-08-18"
      },
      {
        "name": "นุสรา",
        "role": "ตรวจ",
        "date": "2560-09-28"
      }
    ],
    "tag": "a492-2g-9998-update"
  }
}