{
  "pages": [
    [
      [
        "กฎกระทรวง",
        "ว่าด้วยหลักเกณฑ์การแจ้งให้หัวหน้าสถานีตำรวจแห่งท้องที่ทราบ",
        "ในกรณีที่จะแต่งเครื่องแบบตำรวจ หรือแต่งกายโดยใช้เครื่องแต่งกาย",
        "คล้ายเครื่องแบบตำรวจเพื่อการแสดง",
        "พ.ศ. ๒๕๕๓"
      ]
    ],
    []
  ],
  "metadata": {
    "date_backmatter": "2553-03-04",
    "date_modified": "2553-04-26",
    "date_original": "2553-04-26",
    "doctype": "กฎกระทรวง",
    "editors": [
      {
        "name": "ภูวนนท์",
        "role": "ผู้จัดทำ",
        "date": "2553-08-17"
      },
      {
        "name": "พัสสน",
        "role": "ผู้ตรวจ",
        "date": "2554-02-21"
      }
    ],
    "tag": "b503-2b-2553-a0001"
  }
}