{
  "pages": [
    [
      [
        "ประกาศสำนักงานตำรวจแห่งชาติ",
        "เรื่อง การกำหนดหน่วยงานและเขตอำนาจการรับผิดชอบหรือ",
        "เขตพื้นที่การปกครองของส่วนราชการ"
      ]
    ],
    []
  ],
  "metadata": {
    "date_backmatter": "2548-06-30",
    "date_modified": "2551-09-29",
    "date_original": "2548-06-30",
    "doctype": "ประกาศ",
    "editors": [
      {
        "name": "ภูวนนท์",
        "role": "ผู้จัดทำ",
        "date": "2553-09-02"
      },
      {
        "name": "พัสสน",
        "role": "ผู้ตรวจ",
        "date": "2554-02-23"
      }
    ],
    "tag": "b503-2e-2551-a0001u"
  }
}