{
  "pages": [
    [
      [
        "ประกาศสำนักงานตำรวจแห่งชาติ",
        "เรื่อง กำหนดหน่วยงานและเขตอำนาจการรับผิดชอบหรือเขตพื้นที่การปกครองของส่วนราชการ",
        "(ฉบับที่ ๒) พ.ศ. ๒๕๕๓"
      ]
    ],
    []
  ],
  "metadata": {
    "date_backmatter": "2553-02-01",
    "date_modified": "2553-03-10",
    "date_original": "2553-03-10",
    "doctype": "ประกาศ",
    "editors": [
      {
        "name": "ภูวนนท์",
        "role": "ผู้จัดทำ",
        "date": "2553-09-03"
      },
      {
        "name": "พัสสน",
        "role": "ผู้ตรวจ",
        "date": "2554-02-24"
      }
    ],
    "tag": "b503-2e-2553-a0001"
  }
}