{
  "pages": [
    [
      [
        "กฎ ก.ตร.",
        "ว่าด้วยการแก้ไขเพิ่มเติมหลักเกณฑ์และวิธีการเลือก",
        "กรรมการข้าราชการตำรวจผู้ทรงคุณวุฒิ",
        "พ.ศ. ๒๕๔๗"
      ]
    ],
    []
  ],
  "metadata": {
    "date_backmatter": "2547-07-01",
    "date_modified": "2547-07-05",
    "date_original": "2547-07-05",
    "editors": [
      {
        "name": "ภูวนนท์",
        "role": "ผู้จัดทำ",
        "date": "2553-09-01"
      },
      {
        "name": "พัสสน",
        "role": "ผู้ตรวจ",
        "date": "2554-02-25"
      }
    ],
    "tag": "b503-2c-2547-a0008"
  }
}