{
  "pages": [
    [
      [
        "กฎกระทรวง",
        "แบ่งส่วนราชการเป็นกองบังคับการหรือส่วนราชการอย่างอื่นในสำนักงานตำรวจแห่งชาติ",
        "พ.ศ. ๒๕๕๒"
      ]
    ],
    []
  ],
  "metadata": {
    "date_backmatter": "2552-09-07",
    "date_modified": "2552-09-07",
    "date_original": "2552-09-07",
    "doctype": "กฎกระทรวง",
    "editors": [
      {
        "name": "ภูวนนท์",
        "role": "ผู้จัดทำ",
        "date": "2553-08-17"
      },
      {
        "name": "พัสสน",
        "role": "ผู้ตรวจ",
        "date": "2554-02-21"
      }
    ],
    "tag": "b503-2b-2552-a0002"
  }
}