{
  "pages": [
    [
      [
        "คำสั่งสำนักงานตำรวจแห่งชาติ",
        "ที่ ๑๐๖๑/๒๕๕๙",
        "เรื่อง มอบอำนาจในการอนุญาตให้คนต่างด้าวซึ่งได้รับการยกเว้นการตรวจลงตรา",
        "เข้ามาอยู่ในราชอาณาจักรเป็นการชั่วคราว"
      ]
    ],
    []
  ],
  "metadata": {
    "date_backmatter": "2559-12-26",
    "date_modified": "2560-03-30",
    "date_original": "2560-03-30",
    "editors": [
      {
        "name": "ปุณิกา/ภวรรณตรี",
        "role": "จัดทำ",
        "date": "2560-03-31"
      }
    ],
    "tag": "b503-2f-2560-a0001"
  }
}