{
  "pages": [
    [
      [
        "พระราชกฤษฎีกา",
        "การได้รับเงินประจำตำแหน่งของข้าราชการตำรวจ",
        "พ.ศ. ๒๕๕๘",
        "",
        "",
        "ภูมิพลอดุลยเดช ป.ร.",
        "ให้ไว้ ณ วันที่ ๑๔ กันยายน พ.ศ. ๒๕๕๘",
        "เป็นปีที่ ๗๐ ในรัชกาลปัจจุบัน"
      ]
    ],
    []
  ],
  "metadata": {
    "date_header": "2558-09-14",
    "date_modified": "2558-09-30",
    "date_original": "2558-09-30",
    "doctype": "พระราชกฤษฎีกา",
    "editors": [
      {
        "name": "ปริยานุช",
        "role": "ผู้จัดทำ",
        "date": "2558-10-01"
      },
      {
        "name": "ปริญสินีย์-วิชพงษ์",
        "role": "ผู้ตรวจ",
        "date": "2558-10-12"
      }
    ],
    "tag": "b503-2a-2558-a0003",
    "title": "การได้รับเงินประจำตำแหน่งของข้าราชการตำรวจ"
  }
}