{
  "pages": [
    [
      [
        "ประกาศสำนักงานตำรวจแห่งชาติ",
        "เรื่อง การจัดเก็บค่าธรรมเนียมการขอสำเนาข้อมูลข่าวสารของราชการ",
        "ในการตรวจสอบประวัติอาชญากรรม"
      ]
    ],
    []
  ],
  "metadata": {
    "date_backmatter": "2554-09-05",
    "date_modified": "2555-10-01",
    "date_original": "2555-10-01",
    "doctype": "ประกาศ",
    "editors": [
      {
        "name": "ปริยานุช",
        "role": "ผู้จัดทำ",
        "date": "2555-10-03"
      },
      {
        "name": "ชาญ",
        "role": "ผู้ตรวจ",
        "date": "2555-10-15"
      }
    ],
    "tag": "b503-2e-2555-a0003"
  }
}