{
  "pages": [
    [
      [
        "กฎ ก.ตร.",
        "ว่าด้วยการกำหนดชื่อตำแหน่งข้าราชการตำรวจที่เรียกชื่ออย่างอื่นและการเทียบตำแหน่ง",
        "ข้าราชการตำรวจที่เรียกชื่ออย่างอื่นกับตำแหน่งข้าราชการตำรวจ (ฉบับที่ ๙)",
        "พ.ศ. ๒๕๖๐"
      ]
    ],
    []
  ],
  "metadata": {
    "date_backmatter": "2559-02-05",
    "date_modified": "2560-07-07",
    "date_original": "2560-07-07",
    "editors": [
      {
        "name": "ภวรรณตรี",
        "role": "จัดทำ",
        "date": "2560-07-11"
      },
      {
        "name": "พรวิภา",
        "role": "ตรวจ",
        "date": "2560-08-01"
      }
    ],
    "tag": "b503-2c-2560-a0002"
  }
}