{
  "pages": [
    [
      [
        "ประกาศสำนักงานตำรวจแห่งชาติ",
        "เรื่อง การกำหนดหน่วยงานและเขตอำนาจการรับผิดชอบ",
        "หรือเขตพื้นที่การปกครองของส่วนราชการ (ฉบับที่ ๑๑)",
        "พ.ศ. ๒๕๕๖"
      ]
    ],
    []
  ],
  "metadata": {
    "date_backmatter": "2556-06-07",
    "date_modified": "2556-07-11",
    "date_original": "2556-07-11",
    "doctype": "ประกาศ",
    "editors": [
      {
        "name": "ปริยานุช",
        "role": "ผู้จัดทำ",
        "date": "2556-07-17"
      },
      {
        "name": "โชติกานต์",
        "role": "ผู้ตรวจ",
        "date": "2556-08-03"
      }
    ],
    "tag": "b503-2e-2556-a0002"
  }
}