{
  "pages": [
    [
      [
        "กฎกระทรวง",
        "แบ่งส่วนราชการเป็นกองบังคับการหรือส่วนราชการอย่างอื่น",
        "ในสำนักงานตำรวจแห่งชาติ (ฉบับที่ ๖)",
        "พ.ศ. ๒๕๕๘"
      ]
    ],
    []
  ],
  "metadata": {
    "date_backmatter": "2558-04-03",
    "date_modified": "2558-04-09",
    "date_original": "2558-04-09",
    "doctype": "กฎกระทรวง",
    "editors": [
      {
        "name": "ปริยานุช",
        "role": "ผู้จัดทำ",
        "date": "2558-04-16"
      },
      {
        "name": "นุสรา",
        "role": "ผู้ตรวจ",
        "date": "2558-04-16"
      }
    ],
    "tag": "b503-2b-2558-a0002"
  }
}