{
  "pages": [
    [
      [
        "กฎกระทรวง",
        "แบ่งส่วนราชการเป็นกองบังคับการหรือส่วนราชการอย่างอื่น",
        "ในสำนักงานตำรวจแห่งชาติ (ฉบับที่ ๘)",
        "พ.ศ. ๒๕๖๐"
      ]
    ],
    []
  ],
  "metadata": {
    "date_backmatter": "2560-07-21",
    "date_modified": "2560-09-01",
    "date_original": "2560-09-01",
    "doctype": "กฎกระทรวง",
    "editors": [
      {
        "name": "ปุณิกา/ภวรรณตรี",
        "role": "จัดทำ",
        "date": "2560-09-06"
      }
    ],
    "tag": "b503-2b-2560-a0002"
  }
}