{
  "pages": [
    [
      [
        "กฎ ก.ตร.",
        "ว่าด้วยการสั่งพักราชการและการสั่งให้ออกจากราชการไว้ก่อน",
        "พ.ศ. ๒๕๔๗"
      ]
    ],
    []
  ],
  "metadata": {
    "date_backmatter": "2547-10-28",
    "date_modified": "2547-12-14",
    "date_original": "2547-12-14",
    "editors": [
      {
        "name": "ภูวนนท์",
        "role": "ผู้จัดทำ",
        "date": "2553-09-01"
      },
      {
        "name": "พัสสน",
        "role": "ผู้ตรวจ",
        "date": "2554-02-28"
      }
    ],
    "tag": "b503-2c-2547-a0022"
  }
}