{
  "pages": [
    [
      [
        "ประกาศสำนักงานตำรวจแห่งชาติ",
        "เรื่อง การกำหนดหน่วยงานและเขตอำนาจการรับผิดชอบหรือเขตพื้นที่การปกครองของส่วนราชการ",
        "(ฉบับที่ ๖) พ.ศ. ๒๕๕๕"
      ]
    ],
    []
  ],
  "metadata": {
    "date_backmatter": "2555-02-08",
    "date_modified": "2555-03-26",
    "date_original": "2555-03-26",
    "doctype": "ประกาศ",
    "editors": [
      {
        "name": "ปริยานุช",
        "role": "ผู้จัดทำ",
        "date": "2555-04-02"
      },
      {
        "name": "ชาญ",
        "role": "ผู้ตรวจ",
        "date": "2555-04-10"
      }
    ],
    "tag": "b503-2e-2555-a0001"
  }
}