{
  "pages": [
    [
      [
        "กฎ ก.ตร.",
        "ว่าด้วยการได้รับเงินเดือนสูงกว่าขั้นต่ำของข้าราชการตำรวจชั้นพลตำรวจ",
        "ชั้นประทวน และชั้นสัญญาบัตร",
        "พ.ศ. ๒๕๔๗"
      ]
    ],
    []
  ],
  "metadata": {
    "date_backmatter": "2547-06-14",
    "date_modified": "2559-07-28",
    "date_original": "2547-06-21",
    "editors": [
      {
        "name": "นุสรา",
        "role": "ปรับปรุง",
        "date": "2559-08-18"
      }
    ],
    "tag": "b503-2c-9992-update"
  }
}