{
  "pages": [
    [
      [
        "กฎ ก.ตร.",
        "ว่าด้วยประมวลจริยธรรมและจรรยาบรรณของตำรวจ (ฉบับที่ ๒)",
        "พ.ศ. ๒๕๕๓"
      ]
    ],
    []
  ],
  "metadata": {
    "date_backmatter": "2553-12-14",
    "date_modified": "2554-03-11",
    "date_original": "2554-03-11",
    "editors": [
      {
        "name": "ปริยานุช",
        "role": "ผู้จัดทำ",
        "date": "2554-03-15"
      },
      {
        "name": "ณัฐวดี",
        "role": "ตรวจ",
        "date": "2554-03-15"
      }
    ],
    "tag": "b503-2c-2554-a0001"
  }
}