{
  "pages": [
    [
      [
        "คำสั่งกระทรวงยุติธรรม",
        "ที่ ๖๑๔/๒๕๕๔",
        "เรื่อง กำหนดอาณาเขตสถานกักขังจังหวัดอุบลราชธานี"
      ]
    ],
    []
  ],
  "metadata": {
    "date_backmatter": "2554-12-09",
    "date_modified": "2555-01-11",
    "date_original": "2555-01-11",
    "editors": [
      {
        "name": "ปริยานุช",
        "role": "ผู้จัดทำ",
        "date": "2555-01-18"
      },
      {
        "name": "ปณตภร",
        "role": "ผู้ตรวจ",
        "date": "2555-01-25"
      }
    ],
    "tag": "c739-2f-2555-a0001"
  }
}