{
  "pages": [
    [
      [
        "คำสั่งกระทรวงยุติธรรม",
        "ที่ ๒๙๖/๒๕๕๐",
        "เรื่อง กำหนดสถานกักขังจังหวัดสงขลา"
      ]
    ],
    []
  ],
  "metadata": {
    "date_backmatter": "2550-08-02",
    "date_modified": "2550-09-11",
    "date_original": "2550-09-11",
    "editors": [
      {
        "name": "พรรณิศา",
        "role": "ผู้จัดทำ",
        "date": "2554-01-28"
      }
    ],
    "tag": "c739-2f-2550-a0009"
  }
}