{
  "pages": [
    [
      [
        "คำสั่งกระทรวงยุติธรรม",
        "ที่ ๒๖๗/๒๕๔๙",
        "เรื่อง กำหนดสถานกักขังจังหวัดสุราษฎร์ธานี"
      ]
    ],
    []
  ],
  "metadata": {
    "date_backmatter": "2549-02-27",
    "date_modified": "2549-03-13",
    "date_original": "2549-03-13",
    "editors": [
      {
        "name": "พรรณิศา",
        "role": "ผู้จัดทำ",
        "date": "2554-01-24"
      }
    ],
    "tag": "c739-2f-2549-a0100"
  }
}