{
  "pages": [
    [
      [
        "คำสั่งกระทรวงยุติธรรม",
        "ที่ ๓๓๖/๒๕๕๒",
        "เรื่อง กำหนดอาณาเขตเรือนจำจังหวัดชุมพร"
      ]
    ],
    []
  ],
  "metadata": {
    "date_backmatter": "2552-12-08",
    "date_modified": "2553-02-01",
    "date_original": "2553-02-01",
    "editors": [
      {
        "name": "พรรณิศา",
        "role": "ผู้จัดทำ",
        "date": "2554-01-31"
      }
    ],
    "tag": "c739-2f-2553-a0005"
  }
}