{
  "pages": [
    [
      [
        "คำสั่งกระทรวงยุติธรรม",
        "ที่ ๗๗/๒๕๔๙",
        "เรื่อง กำหนดสถานกักขังจังหวัดตรัง"
      ]
    ],
    []
  ],
  "metadata": {
    "date_backmatter": "2549-01-20",
    "date_modified": "2549-01-30",
    "date_original": "2549-01-30",
    "editors": [
      {
        "name": "พรรณิศา",
        "role": "ผู้จัดทำ",
        "date": "2554-01-18"
      }
    ],
    "tag": "c739-2f-2549-a0030"
  }
}