{
  "pages": [
    [
      [
        "คำสั่งกระทรวงยุติธรรม",
        "ที่ ๑๑๗/๒๕๔๙",
        "เรื่อง กำหนดสถานกักขังจังหวัดยโสธร"
      ]
    ],
    []
  ],
  "metadata": {
    "date_backmatter": "2549-01-25",
    "date_modified": "2549-02-01",
    "date_original": "2549-02-01",
    "editors": [
      {
        "name": "พรรณิศา",
        "role": "ผู้จัดทำ",
        "date": "2554-01-20"
      }
    ],
    "tag": "c739-2f-2549-a0044"
  }
}