{
  "pages": [
    [
      [
        "คำสั่งกระทรวงยุติธรรม",
        "ที่ ๒๓/๒๕๔๙",
        "เรื่อง กำหนดสถานกักขังอำเภอปากพนัง"
      ]
    ],
    []
  ],
  "metadata": {
    "date_backmatter": "2549-01-05",
    "date_modified": "2549-01-06",
    "date_original": "2549-01-06",
    "editors": [
      {
        "name": "พรรณิศา",
        "role": "ผู้จัดทำ",
        "date": "2553-11-16"
      }
    ],
    "tag": "c739-2f-2549-a0015"
  }
}