{
  "pages": [
    [
      [
        "คำสั่งกระทรวงยุติธรรม",
        "ที่ ๒๔๒/๒๕๔๙",
        "เรื่อง กำหนดสถานกักขังอำเภอกันทรลักษ์"
      ]
    ],
    []
  ],
  "metadata": {
    "date_backmatter": "2549-02-15",
    "date_modified": "2549-02-24",
    "date_original": "2549-02-24",
    "editors": [
      {
        "name": "พรรณิศา",
        "role": "ผู้จัดทำ",
        "date": "2554-01-24"
      }
    ],
    "tag": "c739-2f-2549-a0096"
  }
}