{
  "pages": [
    [
      [
        "ประกาศคณะกรรมการพิจารณาชดเชยค่าภาษีอากร",
        "สินค้าส่งออกที่ผลิตในราชอาณาจักร",
        "ที่ ๑/๒๕๒๙",
        "เรื่อง กำหนดชนิดสินค้าที่ไม่ได้รับเงินชดเชย"
      ]
    ],
    []
  ],
  "metadata": {
    "date_backmatter": "2529-03-05",
    "date_modified": "2529-03-13",
    "date_original": "2529-03-13",
    "doctype": "ประกาศ",
    "editors": [
      {
        "name": "สุกัญญา",
        "role": "พิมพ์",
        "date": "2552-03-26"
      },
      {
        "name": "ก้องเกียรติ",
        "role": "ผู้จัดทำ",
        "date": "2552-03-30"
      }
    ],
    "tag": "aa03-2e-2529-a0001"
  }
}