{
  "pages": [
    [
      [
        "ประกาศกระทรวงการคลัง",
        "ที่ อ. ๖๔/๒๕๑๘",
        "เรื่อง อัตราเงินชดเชยค่าภาษีอากรของทำด้วยโปลีเอทิลีน"
      ]
    ],
    []
  ],
  "metadata": {
    "date_backmatter": "2518-01-23",
    "date_modified": "2518-02-06",
    "date_original": "2518-02-06",
    "doctype": "ประกาศ",
    "editors": [
      {
        "name": "สุกัญญา",
        "role": "พิมพ์",
        "date": "2552-03-26"
      },
      {
        "name": "ก้องเกียรติ",
        "role": "ผู้จัดทำ",
        "date": "2552-03-30"
      }
    ],
    "tag": "aa03-2e-2518-a0002"
  }
}