{
  "pages": [
    [
      [
        "พระราชกฤษฎีกา",
        "จัดตั้งส่วนราชการในมหาวิทยาลัยขอนแก่น",
        "ทบวงมหาวิทยาลัย",
        "พ.ศ. ๒๕๓๗",
        "",
        "",
        "ภูมิพลอดุลยเดช ป.ร.",
        "ให้ไว้ ณ วันที่ ๑๘ มีนาคม พ.ศ. ๒๕๓๗",
        "เป็นปีที่ ๔๙ ในรัชกาลปัจจุบัน"
      ]
    ],
    []
  ],
  "metadata": {
    "date_header": "2537-03-18",
    "date_modified": "2537-09-26",
    "date_original": "2537-04-01",
    "doctype": "พระราชกฤษฎีกา",
    "editors": [
      {
        "name": "วิชชุตา",
        "role": "ผู้จัดทำ",
        "date": "2554-05-10"
      },
      {
        "name": "นฤตยา",
        "role": "ผู้ตรวจ",
        "date": "2554-05-30"
      }
    ],
    "tag": "c128-2a-9997-update",
    "title": "จัดตั้งส่วนราชการในมหาวิทยาลัยขอนแก่นทบวงมหาวิทยาลัย"
  }
}