{
  "pages": [
    [
      [
        "ข้อบังคับมหาวิทยาลัยขอนแก่น",
        "ว่าด้วยเครื่องแบบฝึกงานนักศึกษาคณะพยาบาลศาสตร์",
        "พ.ศ. ๒๕๑๔"
      ]
    ],
    []
  ],
  "metadata": {
    "date_backmatter": "2515-07-27",
    "date_modified": "2515-08-29",
    "date_original": "2515-08-29",
    "editors": [
      {
        "name": "วิชชุตา",
        "role": "ผู้จัดทำ",
        "date": "2554-05-06"
      },
      {
        "name": "นฤตยา",
        "role": "ผู้ตรวจ",
        "date": "2554-05-26"
      }
    ],
    "tag": "c128-2i-2515-a0001"
  }
}