{
  "pages": [
    [
      [
        "ประกาศสำนักนายกรัฐมนตรี",
        "เรื่อง การแบ่งส่วนราชการในมหาวิทยาลัยขอนแก่น"
      ]
    ],
    []
  ],
  "metadata": {
    "date_backmatter": "2514-07-21",
    "date_modified": "2514-08-17",
    "date_original": "2514-08-17",
    "doctype": "ประกาศ",
    "editors": [
      {
        "name": "วิชชุตา",
        "role": "ผู้จัดทำ",
        "date": "2554-05-03"
      },
      {
        "name": "นฤตยา",
        "role": "ผู้ตรวจ",
        "date": "2554-05-26"
      }
    ],
    "tag": "c128-2e-2549-a0001"
  }
}