{
  "pages": [
    [
      [
        "พระราชกฤษฎีกา",
        "จัดตั้งคณะเทคโนโลยี มหาวิทยาลัยขอนแก่น",
        "พ.ศ. ๒๕๒๗",
        "",
        "",
        "ภูมิพลอดุลยเดช ป.ร.",
        "ให้ไว้ ณ วันที่ ๒๗ สิงหาคม พ.ศ. ๒๕๒๗",
        "เป็นปีที่ ๓๙ ในรัชกาลปัจจุบัน"
      ]
    ],
    []
  ],
  "metadata": {
    "date_header": "2527-08-27",
    "date_modified": "2527-09-05",
    "date_original": "2527-09-05",
    "doctype": "พระราชกฤษฎีกา",
    "editors": [
      {
        "name": "วิชชุตา",
        "role": "ผู้จัดทำ",
        "date": "2554-05-02"
      },
      {
        "name": "นฤตยา",
        "role": "ผู้ตรวจ",
        "date": "2554-05-26"
      }
    ],
    "tag": "c128-2a-2527-a0001",
    "title": "จัดตั้งคณะเทคโนโลยี มหาวิทยาลัยขอนแก่น"
  }
}