{
  "pages": [
    [
      [
        "ประกาศมหาวิทยาลัยขอนแก่น",
        "(ฉบับที่ ๑๗๖๔/๒๕๕๘)",
        "เรื่อง การจัดตั้งส่วนงานของมหาวิทยาลัยขอนแก่น",
        "พ.ศ. ๒๕๕๘"
      ]
    ],
    []
  ],
  "metadata": {
    "date_backmatter": "2558-07-25",
    "date_modified": "2558-08-13",
    "date_original": "2558-08-13",
    "doctype": "ประกาศ",
    "editors": [
      {
        "name": "ปริยานุช",
        "role": "ผู้จัดทำ",
        "date": "2558-08-19"
      },
      {
        "name": "ปุณิกา",
        "role": "ผู้ตรวจ",
        "date": "2558-09-03"
      }
    ],
    "tag": "c128-2e-2558-a0001"
  }
}