{
  "pages": [
    [
      [
        "แถลงการณ์",
        "เรื่อง หน้าที่ของคนไทยในเวลารบ"
      ]
    ],
    []
  ],
  "metadata": {
    "date_modified": "2484-09-11",
    "date_original": "2484-09-11",
    "editors": [],
    "tag": "a143-20-2484-a0002"
  }
}