{
  "pages": [
    [
      [
        "ประกาศกระทรวงการคลัง",
        "เรื่อง การกำหนดให้ของได้รับยกเว้นจากบทบังคับตามความในมาตรา ๑๐",
        "แห่งพระราชกำหนดพิกัดอัตราศุลกากร พ.ศ. ๒๕๓๐",
        "(ฉบับที่ ๒)"
      ]
    ],
    []
  ],
  "metadata": {
    "date_backmatter": "2546-01-15",
    "date_gz_old": "2546-01-20",
    "doctype": "ประกาศ",
    "editors": [
      {
        "name": "มณฑาทิพย์",
        "role": "พิมพ์",
        "date": "2546-04-25"
      },
      {
        "name": "สุมลรัตน์",
        "role": "อรรถชัย แก้ไข",
        "date": "2546-04-30"
      }
    ],
    "tag": "be07-2e-2546-a0002"
  }
}