{
  "pages": [
    [
      [
        "ประกาศกระทรวงการคลัง",
        "เรื่อง การยกเว้นอากร ลดและเพิ่มอัตราอากรศุลกากร (อคล. ๑๒)",
        "(ฉบับที่ ๖)"
      ]
    ],
    []
  ],
  "metadata": {
    "date_backmatter": "2546-04-03",
    "date_modified": "2546-04-08",
    "date_original": "2546-04-08",
    "doctype": "ประกาศ",
    "editors": [
      {
        "name": "จารุวรรณ",
        "role": "พิมพ์",
        "date": "2546-06-13"
      },
      {
        "name": "หทัยชนก",
        "role": "แก้ไข",
        "date": "2546-06-18"
      },
      {
        "name": "ศุภสรณ์",
        "role": "อภิสิทธิ์",
        "date": "2546-06-13"
      },
      {
        "name": "ผู้จัดทำ",
        "role": "๑๓",
        "date": "2546-06-13"
      }
    ],
    "tag": "be07-2e-2546-a0007"
  }
}