{
  "pages": [
    [
      [
        "ประกาศกระทรวงการคลัง",
        "เรื่อง การยกเว้นอากรศุลกากรในเขตพื้นที่ประสบอุทกภัย"
      ]
    ],
    []
  ],
  "metadata": {
    "date_backmatter": "2555-01-05",
    "date_modified": "2558-03-13",
    "date_original": "2555-01-06",
    "doctype": "ประกาศ",
    "editors": [
      {
        "name": "วริญา",
        "role": "ผู้จัดทำ",
        "date": "2558-03-26"
      },
      {
        "name": "นุสรา",
        "role": "ผู้ตรวจ",
        "date": "2558-06-14"
      }
    ],
    "tag": "be07-2e-9993-update"
  }
}