{
  "pages": [
    [
      [
        "ประกาศกระทรวงการคลัง",
        "เรื่อง ยกเลิกประกาศกระทรวงการคลัง",
        "เรื่อง การยกเว้นอากรและลดอัตราอากรศุลกากร",
        "สำหรับเขตการค้าเสรีอาเซียน"
      ]
    ],
    []
  ],
  "metadata": {
    "date_backmatter": "2556-09-16",
    "date_modified": "2556-09-23",
    "date_original": "2556-09-23",
    "doctype": "ประกาศ",
    "editors": [
      {
        "name": "ปริยานุช",
        "role": "ผู้จัดทำ",
        "date": "2556-09-26"
      },
      {
        "name": "อุษมล",
        "role": "ผู้ตรวจ",
        "date": "2556-10-02"
      }
    ],
    "tag": "be07-2e-2556-a0006"
  }
}