{
  "pages": [
    [
      [
        "ประกาศกระทรวงการคลัง",
        "เรื่อง การยกเว้นอากรและลดอัตราอากรศุลกากร",
        "สำหรับเขตการค้าเสรีอาเซียน - ออสเตรเลีย - นิวซีแลนด์"
      ]
    ],
    []
  ],
  "metadata": {
    "date_backmatter": "2560-11-10",
    "date_modified": "2560-11-10",
    "date_original": "2560-11-10",
    "doctype": "ประกาศ",
    "editors": [
      {
        "name": "ภวรรณตรี",
        "role": "จัดทำ",
        "date": "2560-11-21"
      },
      {
        "name": "พัชรภรณ์",
        "role": "ตรวจ",
        "date": "2560-11-21"
      }
    ],
    "tag": "be07-2e-2560-a0024"
  }
}