{
  "pages": [
    [
      [
        "ประกาศกระทรวงการคลัง",
        "เรื่อง การกำหนดให้ของได้รับยกเว้นจากบทบังคับตามความในมาตรา ๑๐",
        "แห่งพระราชกำหนดพิกัดอัตราศุลกากร พ.ศ. ๒๕๓๐"
      ]
    ],
    []
  ],
  "metadata": {
    "date_backmatter": "2544-12-28",
    "date_gz_old": "2544-12-31",
    "doctype": "ประกาศ",
    "editors": [
      {
        "name": "พรพิมล/พิมพ์",
        "role": "แก้ไข",
        "date": "2545-06-04"
      }
    ],
    "tag": "be07-2e-2544-a005"
  }
}