{
  "pages": [
    [
      [
        "ประกาศสำนักนายกรัฐมนตรี",
        "เรื่อง การอนุมัติพระราชกำหนดพิกัดอัตราศุลกากร (ฉบับที่ 2)",
        "พ.ศ. 2541"
      ]
    ],
    []
  ],
  "metadata": {
    "date_backmatter": "2541-05-27",
    "doctype": "ประกาศ",
    "editors": [],
    "tag": "be07-2e-2541-002"
  }
}