{
  "pages": [
    [
      [
        "ประกาศกรมศุลกากร",
        "เรื่อง กำหนดราคาศุลกากรสำหรับสินค้าไม้เป็นเกณฑ์ประเมินเงินอากรขาออก"
      ]
    ],
    []
  ],
  "metadata": {
    "date_backmatter": "2558-10-20",
    "date_modified": "2558-10-27",
    "date_original": "2558-10-27",
    "doctype": "ประกาศ",
    "editors": [
      {
        "name": "ปริยานุช",
        "role": "จัดทำ",
        "date": "2558-11-02"
      },
      {
        "name": "ปริญสินีย์",
        "role": "ตรวจ",
        "date": "2558-11-23"
      }
    ],
    "tag": "be07-2e-2558-a0007"
  }
}