{
  "pages": [
    [
      [
        "ประกาศกรมศุลกากร",
        "เรื่อง กำหนดราคาศุลกากรสำหรับสินค้าไม้เป็นเกณฑ์ประเมินเงินอากรขาออก"
      ]
    ],
    []
  ],
  "metadata": {
    "date_backmatter": "2561-04-11",
    "date_modified": "2561-04-27",
    "date_original": "2561-04-27",
    "doctype": "ประกาศ",
    "editors": [
      {
        "name": "ปวันวิทย์",
        "role": "จัดทำ",
        "date": "2561-06-04"
      }
    ],
    "tag": "be07-2e-2561-a0002"
  }
}