{
  "pages": [
    [
      [
        "ประกาศกระทรวงการคลัง",
        "เรื่อง การยกเว้นอากรและการลดอัตราอากรศุลกากร",
        "สำหรับประเทศสมาชิกใหม่อาเซียน (สห.๑)",
        "(ฉบับที่ ๔)"
      ]
    ],
    []
  ],
  "metadata": {
    "date_backmatter": "2546-01-22",
    "date_gz_old": "2546-01-27",
    "doctype": "ประกาศ",
    "editors": [
      {
        "name": "พชร สุขสุเมฆ/อรดา เชาวน์วโรดม",
        "role": "จัดทำ",
        "date": "2546-04-21"
      }
    ],
    "tag": "be07-2e-2546-a0005"
  }
}