{
  "pages": [
    [
      [
        "พระราชกำหนด",
        "พิกัดอัตราศุลกากร",
        "พ.ศ. ๒๕๓๐",
        "",
        "",
        "ภูมิพลอดุลยเดช ป.ร.",
        "ให้ไว้ ณ วันที่ ๒๓ ธันวาคม พ.ศ. ๒๕๓๐",
        "เป็นปีที่ ๔๒ ในรัชกาลปัจจุบัน"
      ]
    ],
    []
  ],
  "metadata": {
    "date_header": "2530-12-23",
    "date_modified": "2555-01-06",
    "date_original": "2530-12-31",
    "doctype": "พระราชกำหนด",
    "editors": [
      {
        "name": "ชาญ",
        "role": "ปรับปรุง",
        "date": "2555-01-11"
      },
      {
        "name": "ศรตม์, อังศุมาลี",
        "role": "แก้ไข",
        "date": "2556-05-15"
      }
    ],
    "tag": "be07-20-2555-a0002",
    "title": "พิกัดอัตราศุลกากร"
  }
}