{
  "pages": [
    [
      [
        "ประกาศคณะรักษาความสงบแห่งชาติ",
        "ฉบับที่ ๑๐๑/๒๕๕๗",
        "เรื่อง แก้ไขเพิ่มเติมประกาศคณะรักษาความสงบแห่งชาติ ฉบับที่ ๗๑/๒๕๕๗"
      ]
    ],
    []
  ],
  "metadata": {
    "date_backmatter": "2557-07-21",
    "date_modified": "2557-07-30",
    "date_original": "2557-07-30",
    "doctype": "ประกาศ",
    "editors": [
      {
        "name": "ปริยานุช",
        "role": "ผู้จัดทำ",
        "date": "2557-08-04"
      }
    ],
    "tag": "a4caaa01-20-2557-a0102"
  }
}