{
  "pages": [
    [
      [
        "ประกาศคณะกรรมการการเลือกตั้ง",
        "เรื่อง กำหนดวัน เวลา ยื่นคำขอลงทะเบียน",
        "ใช้สิทธิลงคะแนนออกเสียงประชามตินอกเขตจังหวัด",
        "พ.ศ. ๒๕๕๙",
        "",
        "",
        "ตามรัฐธรรมนูญแห่งราชอาณาจักรไทย (ฉบับชั่วคราว) พุทธศักราช ๒๕๕๗ ซึ่งแก้ไขเพิ่มเติมโดยรัฐธรรมนูญแห่งราชอาณาจักรไทย (ฉบับชั่วคราว) พุทธศักราช ๒๕๕๗ แก้ไขเพิ่มเติม (ฉบับที่ ๒) พุทธศักราช ๒๕๕๙ มาตรา ๓๙/๑ กำหนดให้คณะกรรมการการเลือกตั้งมีหน้าที่ในการดำเนินการจัดให้มีการออกเสียงประชามติ และพระราชบัญญัติว่าด้วยการออกเสียงประชามติร่างรัฐธรรมนูญ พ.ศ. ๒๕๕๙ มาตรา ๔๒ กำหนดให้ผู้มีสิทธิออกเสียงซึ่งอยู่นอกเขตออกเสียงที่ตนมีชื่ออยู่ในทะเบียนบ้าน หรือมีชื่ออยู่ในทะเบียนบ้านในเขตออกเสียงเป็นเวลาน้อยกว่าเก้าสิบวันนับถึงวันออกเสียง ที่ประสงค์จะขอใช้สิทธิลงคะแนนออกเสียงในจังหวัดที่ตนอยู่ ให้ยื่นคำขอลงทะเบียนก่อนวันออกเสียงอย่างน้อยสามสิบวันและให้หมดสิทธิลงคะแนนในหน่วยออกเสียงที่ตนมีชื่ออยู่ในบัญชีผู้มีสิทธิออกเสียงของหน่วยออกเสียงนั้นประกอบข้อ ๑๐๙ ของระเบียบคณะกรรมการการเลือกตั้งว่าด้วยหลักเกณฑ์และวิธีการออกเสียงประชามติ พ.ศ. ๒๕๕๙ กำหนดวิธีการยื่นคำขอลงทะเบียนไว้ ๓ ลักษณะ ได้แก่ (๑) ยื่นคำขอด้วยตนเองหรือมอบอำนาจให้บุคคลอื่นยื่นคำขอแทน ณ สำนักทะเบียนอำเภอหรือสำนักทะเบียนท้องถิ่น (๒) ยื่นคำขอต่อนายทะเบียนอำเภอหรือนายทะเบียนท้องถิ่นทางไปรษณีย์ลงทะเบียน โดยให้ถือวันประทับตราไปรษณีย์เป็นสำคัญ (๓) การยื่นคำขอทางอินเทอร์เน็ต"
      ]
    ],
    []
  ],
  "metadata": {
    "date_backmatter": "2559-04-27",
    "date_modified": "2559-04-28",
    "date_original": "2559-04-28",
    "doctype": "ประกาศ",
    "editors": [
      {
        "name": "ปริยานุช",
        "role": "จัดทำ",
        "date": "2559-05-02"
      },
      {
        "name": "กัญฑรัตน์",
        "role": "ตรวจ",
        "date": "2559-05-02"
      }
    ],
    "tag": "a4caaa01-2e-2559-a0001"
  }
}