{
  "pages": [
    [
      [
        "ประกาศคณะกรรมการการเลือกตั้ง",
        "เรื่อง หลักเกณฑ์และวิธีการออกเสียงประชามติ ณ ที่ออกเสียง",
        "สำหรับคนพิการหรือทุพพลภาพ หรือผู้สูงอายุ",
        "พ.ศ. ๒๕๕๙"
      ]
    ],
    []
  ],
  "metadata": {
    "date_backmatter": "2559-04-27",
    "date_modified": "2559-04-28",
    "date_original": "2559-04-28",
    "doctype": "ประกาศ",
    "editors": [
      {
        "name": "ปริยานุช",
        "role": "จัดทำ",
        "date": "2559-05-02"
      },
      {
        "name": "กัญฑรัตน์",
        "role": "ตรวจ",
        "date": "2559-05-02"
      }
    ],
    "tag": "a4caaa01-2e-2559-a0004"
  }
}