{
  "pages": [
    [
      [
        "ประกาศคณะรักษาความสงบแห่งชาติ",
        "ฉบับที่ ๖๙/๒๕๕๗",
        "เรื่อง การยื่นคำของบประมาณจังหวัดและงบประมาณกลุ่มจังหวัด",
        "ประจำปีงบประมาณ พ.ศ. ๒๕๕๘"
      ]
    ],
    []
  ],
  "metadata": {
    "date_backmatter": "2557-06-19",
    "date_modified": "2557-06-27",
    "date_original": "2557-06-27",
    "doctype": "ประกาศ",
    "editors": [
      {
        "name": "ปริยานุช",
        "role": "ผู้จัดทำ",
        "date": "2557-06-30"
      },
      {
        "name": "วันทิตา",
        "role": "ผู้ตรวจ",
        "date": "2557-07-02"
      }
    ],
    "tag": "a4caaa01-20-2557-a0070"
  }
}