{
  "pages": [
    [
      [
        "ประกาศคณะรักษาความสงบแห่งชาติ",
        "ฉบับที่ ๓๒/๒๕๕๗",
        "เรื่อง ระงับการออกอากาศของสถานีวิทยุชุมชนที่ไม่ได้รับอนุญาตให้จัดตั้งขึ้นตามกฎหมาย",
        "และสถานีวิทยุกระจายเสียงที่ได้รับอนุญาตทดลองประกอบกิจการ"
      ]
    ],
    []
  ],
  "metadata": {
    "date_backmatter": "2557-05-24",
    "date_modified": "2557-05-29",
    "date_original": "2557-05-29",
    "doctype": "ประกาศ",
    "editors": [
      {
        "name": "ปริยานุช",
        "role": "ผู้จัดทำ",
        "date": "2557-05-30"
      },
      {
        "name": "พจนา",
        "role": "ผู้ตรวจ",
        "date": "2557-07-01"
      }
    ],
    "tag": "a4caaa01-20-2557-a0032"
  }
}