{
  "pages": [
    [
      [
        "ประกาศคณะรักษาความสงบแห่งชาติ",
        "ฉบับที่ ๗๗/๒๕๕๗",
        "เรื่อง การจัดตั้งศูนย์บริการจดทะเบียนแรงงานต่างด้าวแบบเบ็ดเสร็จ (One Stop Service) เพิ่มเติม",
        "และมาตรการจัดระเบียบแรงงานต่างด้าวที่ทำงานเรือประมงในจังหวัดที่มีพื้นที่ติดทะเล"
      ]
    ],
    []
  ],
  "metadata": {
    "date_backmatter": "2557-07-03",
    "date_modified": "2557-07-15",
    "date_original": "2557-07-15",
    "doctype": "ประกาศ",
    "editors": [
      {
        "name": "ปริยานุช",
        "role": "ผู้จัดทำ",
        "date": "2557-07-18"
      },
      {
        "name": "วันทิตา",
        "role": "ผู้ตรวจ",
        "date": "2557-08-03"
      }
    ],
    "tag": "a4caaa01-20-2557-a0078"
  }
}