{
  "pages": [
    [
      [
        "ระเบียบคณะกรรมการสภาวิศวกร",
        "ว่าด้วยวิธีพิจารณาและวินิจฉัยจรรยาบรรณแห่งวิชาชีพวิศวกรรม (ฉบับที่ ๓)",
        "พ.ศ. ๒๕๕๔"
      ]
    ],
    []
  ],
  "metadata": {
    "date_backmatter": "2554-09-30",
    "date_modified": "2554-10-19",
    "date_original": "2554-10-19",
    "editors": [
      {
        "name": "ปริยานุช",
        "role": "ผู้จัดทำ",
        "date": "2554-11-02"
      },
      {
        "name": "ชาญ",
        "role": "ผู้ตรวจ",
        "date": "2554-11-11"
      }
    ],
    "tag": "c758-2g-2554-a0005"
  }
}