{
  "pages": [
    [
      [
        "กฎกระทรวง",
        "กำหนดสาขาวิชาชีพวิศวกรรมและวิชาชีพวิศวกรรมควบคุม (ฉบับที่ ๒)",
        "พ.ศ. ๒๕๖๐"
      ]
    ],
    []
  ],
  "metadata": {
    "date_backmatter": "2560-05-29",
    "date_modified": "2560-06-09",
    "date_original": "2560-06-09",
    "doctype": "กฎกระทรวง",
    "editors": [
      {
        "name": "พรวิภา/อัญชลี",
        "role": "จัดทำ",
        "date": "2560-06-12"
      },
      {
        "name": "ปริญสินีย์",
        "role": "ตรวจ",
        "date": "2560-07-31"
      }
    ],
    "tag": "c758-2b-2560-a0002"
  }
}