{
  "pages": [
    [
      [
        "ระเบียบคณะกรรมการสภาวิศวกร",
        "ว่าด้วยการขึ้นทะเบียนเป็นวิศวกรเอเปค (APEC Engineer)",
        "พ.ศ. ๒๕๕๒"
      ]
    ],
    []
  ],
  "metadata": {
    "date_backmatter": "2552-04-08",
    "date_modified": "2552-05-19",
    "date_original": "2552-05-19",
    "editors": [
      {
        "name": "ปริยานุช",
        "role": "ผู้จัดทำ",
        "date": "2552-05-28"
      }
    ],
    "tag": "c758-2g-2552-a0001"
  }
}