{
  "pages": [
    [
      [
        "ข้อบังคับสภาวิศวกร",
        "ว่าด้วยการออกใบอนุญาตเป็นผู้ประกอบวิชาชีพวิศวกรรมควบคุม",
        "ประเภทนิติบุคคล พ.ศ. ๒๕๔๓"
      ]
    ],
    []
  ],
  "metadata": {
    "date_backmatter": "2543-12-22",
    "date_gz_old": "2543-12-31",
    "editors": [
      {
        "name": "พรพิมล",
        "role": "พิมพ์ฺ",
        "date": "2544-07-31"
      }
    ],
    "tag": "c758-2i-2543-a011"
  }
}