{
  "pages": [
    [
      [
        "ข้อบังคับสภาวิศวกร",
        "ว่าด้วยหลักเกณฑ์และคุณสมบัติของผู้ประกอบวิชาชีพวิศวกรรมควบคุมแต่ละระดับ",
        "สาขาวิศวกรรมเหมืองแร่ (ฉบับที่ ๒)",
        "พ.ศ. ๒๕๕๘"
      ]
    ],
    []
  ],
  "metadata": {
    "date_backmatter": "2558-02-05",
    "date_modified": "2558-03-02",
    "date_original": "2558-03-02",
    "editors": [
      {
        "name": "ปริยานุช",
        "role": "ผู้จัดทำ",
        "date": "2558-03-05"
      },
      {
        "name": "กฤษดายุทธ",
        "role": "ผู้ตรวจ",
        "date": "2558-03-05"
      }
    ],
    "tag": "c758-2i-2558-a0001"
  }
}