{
  "pages": [
    [
      [
        "ข้อบังคับสภาวิศวกร",
        "ว่าด้วยแบบและอายุใบอนุญาตประกอบวิชาชีพวิศวกรรมควบคุม",
        "พ.ศ. ๒๕๕๓"
      ]
    ],
    []
  ],
  "metadata": {
    "date_backmatter": "2553-06-30",
    "date_modified": "2553-08-10",
    "date_original": "2553-08-10",
    "editors": [
      {
        "name": "ปริยานุช",
        "role": "ผู้จัดทำ",
        "date": "2553-08-23"
      },
      {
        "name": "ณัฐวดี",
        "role": "ตรวจ",
        "date": "2553-08-23"
      }
    ],
    "tag": "c758-2i-2553-a0001"
  }
}