{
  "pages": [
    [
      [
        "กฎกระทรวง",
        "กำหนดสาขาวิชาชีพวิศวกรรมและวิชาชีพวิศวกรรมควบคุม",
        "พ.ศ. ๒๕๕๐"
      ]
    ],
    []
  ],
  "metadata": {
    "date_backmatter": "2550-11-18",
    "date_modified": "2560-06-09",
    "date_original": "2550-11-30",
    "doctype": "กฎกระทรวง",
    "editors": [
      {
        "name": "พรวิภา",
        "role": "จัดทำ",
        "date": "2560-07-19"
      },
      {
        "name": "ปริญสินีย์",
        "role": "ตรวจ",
        "date": "2560-08-02"
      }
    ],
    "tag": "c758-2b-9999-update"
  }
}