{
  "pages": [
    [
      [
        "กฎกระทรวง",
        "ฉบับที่ ๖ (พ.ศ. ๒๕๒๖)",
        "ออกตามความในพระราชบัญญัติควบคุมคุณภาพอาหารสัตว์",
        "พ.ศ. ๒๕๒๕"
      ]
    ],
    []
  ],
  "metadata": {
    "date_backmatter": "2526-09-20",
    "date_gz_old": "2526-09-23",
    "doctype": "กฎกระทรวง",
    "editors": [],
    "tag": "a421-2b-2526-006"
  }
}