{
  "pages": [
    [
      [
        "ประกาศกระทรวงเกษตรและสหกรณ์",
        "เรื่อง กำหนดชื่อ ประเภท ชนิดหรือลักษณะของวัตถุ",
        "ที่เติมในอาหารสัตว์ ที่ให้ใช้เป็นส่วนผสมในการผลิตอาหารสัตว์เพื่อขาย",
        "ตลอดจนอัตราส่วนหรือปริมาณที่ให้ใช้",
        "หรือห้ามมิให้ใช้วัตถุนั้นเกินกำหนด",
        "พ.ศ. ๒๕๓๙"
      ]
    ],
    []
  ],
  "metadata": {
    "date_backmatter": "2539-04-26",
    "date_modified": "2539-05-08",
    "date_original": "2539-05-08",
    "doctype": "ประกาศ",
    "editors": [
      {
        "name": "สุนันทา",
        "role": "ผู้จัดทำ",
        "date": "2549-12-13"
      }
    ],
    "tag": "a421-2e-2539-a0002"
  }
}