{
  "pages": [
    [
      [
        "กฎกระทรวง",
        "กำหนดค่าธรรมเนียมตามกฎหมายว่าด้วยการควบคุมคุณภาพอาหารสัตว์",
        "พ.ศ. ๒๕๖๐"
      ]
    ],
    []
  ],
  "metadata": {
    "date_backmatter": "2560-06-30",
    "date_modified": "2560-07-27",
    "date_original": "2560-07-27",
    "doctype": "กฎกระทรวง",
    "editors": [
      {
        "name": "ปุณิกา/อัญชลี",
        "role": "จัดทำ",
        "date": "2560-07-28"
      },
      {
        "name": "นุสรา",
        "role": "ตรวจ",
        "date": "2560-09-02"
      }
    ],
    "tag": "a421-2b-2560-a0001"
  }
}