{
  "pages": [
    [
      [
        "กฎกระทรวง",
        "ฉบับที่ ๑๖ (พ.ศ. ๒๕๓๗)",
        "ออกตามความในพระราชบัญญัติควบคุมคุณภาพอาหารสัตว์",
        "พ.ศ. ๒๕๒๕"
      ]
    ],
    []
  ],
  "metadata": {
    "date_backmatter": "2537-10-07",
    "date_modified": "2537-12-21",
    "date_original": "2537-12-21",
    "doctype": "กฎกระทรวง",
    "editors": [
      {
        "name": "สุนันทา",
        "role": "แก้ไข",
        "date": "2549-12-08"
      }
    ],
    "tag": "a421-2b-2537-016"
  }
}