{
  "pages": [
    [
      [
        "ระเบียบกรมปศุสัตว์",
        "ว่าด้วยการทำลายอาหารสัตว์ควบคุมเฉพาะ",
        "กรณีเลิกกิจการ ผู้รับใบอนุญาตไม่ต่ออายุใบอนุญาต หรือผู้อนุญาตไม่อนุญาตให้ต่ออายุใบอนุญาต",
        "พ.ศ. ๒๕๕๙"
      ]
    ],
    []
  ],
  "metadata": {
    "date_backmatter": "2559-06-27",
    "date_modified": "2559-07-21",
    "date_original": "2559-07-21",
    "editors": [
      {
        "name": "ปริยานุช",
        "role": "จัดทำ",
        "date": "2559-07-26"
      },
      {
        "name": "วริญา",
        "role": "ตรวจ",
        "date": "2559-07-26"
      }
    ],
    "tag": "a421-2g-2559-a0002"
  }
}