{
  "pages": [
    [
      [
        "ประกาศกระทรวงเกษตรและสหกรณ์",
        "เรื่อง กำหนดชื่อ ประเภท ชนิดหรือลักษณะของอาหารสัตว์",
        "คุณภาพหรือมาตรฐานของอาหารสัตว์ ตามชื่อประเภท ชนิดหรืออายุ",
        "ของสัตว์ คุณภาพหรือมาตรฐานของภาชนะบรรจุ",
        "และการใช้ภาชนะบรรจุ (ฉบับที่ ๒)"
      ]
    ],
    []
  ],
  "metadata": {
    "date_backmatter": "2530-10-02",
    "date_gz_old": "2530-10-22",
    "doctype": "ประกาศ",
    "editors": [],
    "tag": "a421-2e-2530-005"
  }
}