{
  "pages": [
    [
      [
        "ประกาศกระทรวงเกษตรและสหกรณ์",
        "เรื่อง กำหนดคุณภาพหรือมาตรฐานของภาชนะบรรจุ วัตถุที่ห้ามใช้เป็นภาชนะบรรจุ",
        "และการใช้ภาชนะบรรจุอาหารสัตว์เพื่อขาย",
        "พ.ศ. ๒๕๕๙"
      ]
    ],
    []
  ],
  "metadata": {
    "date_backmatter": "2559-07-08",
    "date_modified": "2559-07-28",
    "date_original": "2559-07-28",
    "doctype": "ประกาศ",
    "editors": [
      {
        "name": "ปุณิกา/ปริยานุช",
        "role": "จัดทำ",
        "date": "2559-08-01"
      },
      {
        "name": "นุสรา",
        "role": "ตรวจ",
        "date": "2559-11-08"
      }
    ],
    "tag": "a421-2e-2559-a0014"
  }
}