{
  "pages": [
    [
      [
        "ประกาศกระทรวงเกษตรและสหกรณ์",
        "เรื่อง กำหนดคุณภาพหรือมาตรฐานของอาหารสัตว์ควบคุมเฉพาะ ประเภทวัตถุดิบ (ฉบับที่ ๒)",
        "พ.ศ. ๒๕๕๙"
      ]
    ],
    []
  ],
  "metadata": {
    "date_backmatter": "2559-07-29",
    "date_modified": "2559-08-23",
    "date_original": "2559-08-23",
    "doctype": "ประกาศ",
    "editors": [
      {
        "name": "วริญา/ปริยานุช",
        "role": "จัดทำ",
        "date": "2559-08-24"
      },
      {
        "name": "นุสรา",
        "role": "ตรวจ",
        "date": "2559-11-10"
      }
    ],
    "tag": "a421-2e-2559-a0018"
  }
}