{
  "pages": [
    [
      [
        "ประกาศกระทรวงเกษตรและสหกรณ์",
        "เรื่อง กำหนดอาหารสัตว์ที่มิใช่อาหารสัตว์ควบคุมเฉพาะ",
        "พ.ศ. ๒๕๕๙"
      ]
    ],
    []
  ],
  "metadata": {
    "date_backmatter": "2559-09-29",
    "date_modified": "2559-10-20",
    "date_original": "2559-10-20",
    "doctype": "ประกาศ",
    "editors": [
      {
        "name": "ชนิกา/ปริยานุช",
        "role": "จัดทำ",
        "date": "2559-10-25"
      },
      {
        "name": "นุสรา",
        "role": "ตรวจ",
        "date": "2560-01-05"
      }
    ],
    "tag": "a421-2e-2559-a0020"
  }
}