{
  "pages": [
    [
      [
        "ประกาศกระทรวงพลังงาน",
        "เรื่อง การจัดให้มีถัง และลักษณะและการติดตั้งถังเก็บน้ำมันเชื้อเพลิง",
        "รวมทั้งอุปกรณ์ที่เกี่ยวข้อง ในการพิจารณาออกใบอนุญาตเป็นผู้ค้าน้ำมันตามมาตรา ๗",
        "พ.ศ. ๒๕๕๘"
      ]
    ],
    []
  ],
  "metadata": {
    "date_backmatter": "2558-11-30",
    "date_modified": "2558-12-09",
    "date_original": "2558-12-09",
    "doctype": "ประกาศ",
    "editors": [
      {
        "name": "ปริยานุช",
        "role": "จัดทำ",
        "date": "2558-12-14"
      },
      {
        "name": "วิศนี",
        "role": "ตรวจ",
        "date": "2559-01-12"
      }
    ],
    "tag": "a1108-2e-2558-a0012"
  }
}