{
  "pages": [
    [
      [
        "ประกาศกรมธุรกิจพลังงาน",
        "เรื่อง กำหนดลักษณะและคุณภาพของน้ำมันดีเซล",
        "พ.ศ. ๒๕๕๖"
      ]
    ],
    []
  ],
  "metadata": {
    "date_backmatter": "2556-11-08",
    "date_modified": "2560-04-28",
    "date_original": "2556-11-14",
    "doctype": "ประกาศ",
    "editors": [
      {
        "name": "ปณตภร",
        "role": "ผู้จัดทำ",
        "date": "2557-06-11"
      },
      {
        "name": "ปริญสินีย์",
        "role": "ปรับปรุง",
        "date": "2558-02-11"
      },
      {
        "name": "ปุณิกา",
        "role": "ปรับปรุง",
        "date": "2558-04-21"
      },
      {
        "name": "นุสรา",
        "role": "ผู้ตรวจ",
        "date": "2558-06-18"
      },
      {
        "name": "วริญา",
        "role": "เพิ่มเติม",
        "date": "2558-08-03"
      },
      {
        "name": "ชวัลพร",
        "role": "เพิ่มเติม",
        "date": "2559-08-08"
      },
      {
        "name": "ปัญญา",
        "role": "ตรวจ",
        "date": "2559-08-22"
      },
      {
        "name": "ชวัลพร",
        "role": "เพิ่มเติม",
        "date": "2559-09-14"
      },
      {
        "name": "ปุณิกา",
        "role": "เพิ่มเติม",
        "date": "2559-12-07"
      },
      {
        "name": "วริญา",
        "role": "เพิ่มเติม",
        "date": "2559-05-18"
      }
    ],
    "tag": "a1108-2e-9999-update"
  }
}