{
  "pages": [
    [
      [
        "พระราชบัญญัติ",
        "การค้าน้ำมันเชื้อเพลิง",
        "พ.ศ. ๒๕๔๓",
        "",
        "",
        "ภูมิพลอดุลยเดช ป.ร.",
        "ให้ไว้ ณ วันที่ ๑๕ พฤศจิกายน พ.ศ. ๒๕๔๓",
        "เป็นปีที่ ๕๕ ในรัชกาลปัจจุบัน"
      ]
    ],
    []
  ],
  "metadata": {
    "date_header": "2543-11-15",
    "date_modified": "2543-11-29",
    "date_original": "2543-11-29",
    "doctype": "พระราชบัญญัติ",
    "editors": [
      {
        "name": "ชไมพร",
        "role": "แก้ไข",
        "date": "2544-09-19"
      },
      {
        "name": "สุนันทา/นวพร",
        "role": "จัดทำ",
        "date": "2546-05-16"
      },
      {
        "name": "วศิน",
        "role": "แก้ไข",
        "date": "2552-03-17"
      }
    ],
    "tag": "a1108-20-2543-a0001",
    "title": "การค้าน้ำมันเชื้อเพลิง"
  }
}