{
  "pages": [
    [
      [
        "ประกาศกระทรวงพาณิชย์",
        "เรื่อง กำหนดชนิดและปริมาณการขนส่งน้ำมันเชื้อเพลิง",
        "ที่ผู้ขนส่งต้องแจ้งเป็นผู้ขนส่งน้ำมันเชื้อเพลิง",
        "ตามมาตรา ๑๒ พ.ศ. ๒๕๔๔"
      ]
    ],
    []
  ],
  "metadata": {
    "date_backmatter": "2544-03-30",
    "date_modified": "2544-04-04",
    "date_original": "2544-04-04",
    "doctype": "ประกาศ",
    "editors": [],
    "tag": "a1108-2e-2544-a002"
  }
}