{
  "pages": [
    [
      [
        "ประกาศกรมธุรกิจพลังงาน",
        "เรื่อง กำหนดลักษณะและคุณภาพของน้ำมันเบนซินพื้นฐาน",
        "พ.ศ. ๒๕๕๓"
      ]
    ],
    []
  ],
  "metadata": {
    "date_backmatter": "2553-02-25",
    "date_modified": "2553-04-07",
    "date_original": "2553-04-07",
    "doctype": "ประกาศ",
    "editors": [
      {
        "name": "ปริยานุช",
        "role": "พิมพ์",
        "date": "2553-05-03"
      },
      {
        "name": "นันท์นภัสร์",
        "role": "ตรวจ",
        "date": "2553-05-03"
      }
    ],
    "tag": "a1108-2e-2553-a0004"
  }
}