{
  "pages": [
    [
      [
        "ประกาศกรมธุรกิจพลังงาน",
        "เรื่อง กำหนดหลักเกณฑ์ วิธีการ และเงื่อนไขในการขอความเห็นชอบการเติมสารเติมแต่ง",
        "ในน้ำมันเชื้อเพลิงและลักษณะและคุณภาพของน้ำมันเชื้อเพลิง",
        "เฉพาะส่วนที่ไม่เป็นไปตามที่กรมธุรกิจพลังงานกำหนด",
        "พ.ศ. ๒๕๕๓"
      ]
    ],
    []
  ],
  "metadata": {
    "date_backmatter": "2553-02-04",
    "date_modified": "2553-01-27",
    "date_original": "2553-01-27",
    "doctype": "ประกาศ",
    "editors": [],
    "tag": "a1108-2e-2553-a0003"
  }
}