{
  "pages": [
    [
      [
        "ประกาศกรมธุรกิจพลังงาน",
        "เรื่อง หลักเกณฑ์ วิธีการ และเงื่อนไขในการยื่นขอความเห็นชอบสถานที่ที่ใช้เก็บสำรองน้ำมันเชื้อเพลิง",
        "และเงื่อนไขที่ผู้ได้รับความเห็นชอบต้องปฏิบัติ",
        "พ.ศ. ๒๕๕๘"
      ]
    ],
    []
  ],
  "metadata": {
    "date_backmatter": "2558-10-28",
    "date_modified": "2562-02-21",
    "date_original": "2558-10-29",
    "doctype": "ประกาศ",
    "editors": [
      {
        "name": "ปริยานุช",
        "role": "จัดทำ",
        "date": "2558-11-03"
      },
      {
        "name": "ปริญสินีย์",
        "role": "ตรวจ",
        "date": "2558-11-30"
      },
      {
        "name": "พิไลภรณ์",
        "role": "ปรับปรุง",
        "date": "2562-03-15"
      },
      {
        "name": "วิชพงษ์",
        "role": "ตรวจ",
        "date": "2562-03-26"
      }
    ],
    "tag": "a1108-2e-9997-update"
  }
}