{
  "pages": [
    [
      [
        "ประกาศกระทรวงการคลัง",
        "เรื่อง รายงานฐานะการเงินประจำสัปดาห์ของธนาคารแห่งประเทศไทย",
        "ทุนสำรองเงินตรา และกิจการธนบัตร"
      ]
    ],
    []
  ],
  "metadata": {
    "date_backmatter": "2555-12-20",
    "date_modified": "2556-02-28",
    "date_original": "2556-02-28",
    "doctype": "ประกาศ",
    "editors": [
      {
        "name": "ปริยานุช",
        "role": "ผู้จัดทำ",
        "date": "2556-03-01"
      },
      {
        "name": "อุษมล",
        "role": "ผู้ตรวจ",
        "date": "2556-03-04"
      }
    ],
    "tag": "b803-2e-2556-a0012"
  }
}