{
  "pages": [
    [
      [
        "ประกาศธนาคารแห่งประเทศไทย",
        "ที่ ฝบช. ๘/๒๕๕๖",
        "เรื่อง รายงานฐานะเงินสำรองระหว่างประเทศของทางการ",
        "ประจำเดือนสิงหาคม",
        "พ.ศ. ๒๕๕๖"
      ]
    ],
    []
  ],
  "metadata": {
    "date_modified": "2556-11-14",
    "date_original": "2556-11-14",
    "doctype": "ประกาศ",
    "editors": [
      {
        "name": "ปริยานุช",
        "role": "ผู้จัดทำ",
        "date": "2556-11-19"
      },
      {
        "name": "โชติกานต์",
        "role": "ผู้ตรวจ",
        "date": "2556-11-21"
      }
    ],
    "tag": "b803-2e-2556-a0056"
  }
}