{
  "pages": [
    [
      [
        "ประกาศสำนักนายกรัฐมนตรี",
        "เรื่อง การอนุมัติพระราชกำหนดแก้ไขเพิ่มเติม",
        "พระราชบัญญัติธนาคารแห่งประเทศไทย",
        "พุทธศักราช 2485 (ฉบับที่ 2)",
        "พ.ศ. 2540"
      ]
    ],
    []
  ],
  "metadata": {
    "date_backmatter": "2540-11-10",
    "doctype": "ประกาศ",
    "editors": [],
    "tag": "b803-2e-2540-002"
  }
}