{
  "pages": [
    [
      [
        "ประกาศสำนักนายกรัฐมนตรี",
        "เรื่อง การอนุมัติพระราชกำหนดแก้ไขเพิ่มเติมพระราชกำหนด",
        "แก้ไขเพิ่มเติมพระราชบัญญัติธนาคารแห่งประเทศไทย",
        "พุทธศักราช 2485 (ฉบับที่ 2) พ.ศ. 2540",
        "พ.ศ. 2541"
      ]
    ],
    []
  ],
  "metadata": {
    "date_backmatter": "2541-05-27",
    "doctype": "ประกาศ",
    "editors": [],
    "tag": "b803-2e-2541-002"
  }
}