{
  "pages": [
    [
      [
        "ประกาศกระทรวงการคลัง",
        "เรื่อง รายงานฐานะการเงินประจำสัปดาห์ของธนาคารแห่งประเทศไทย",
        "ทุนสำรองเงินตรา และกิจการธนบัตร"
      ]
    ],
    []
  ],
  "metadata": {
    "date_backmatter": "2558-12-03",
    "date_modified": "2559-02-04",
    "date_original": "2559-02-04",
    "doctype": "ประกาศ",
    "editors": [
      {
        "name": "ปริยานุช",
        "role": "จัดทำ",
        "date": "2559-03-18"
      },
      {
        "name": "ปุณิกา",
        "role": "ตรวจ",
        "date": "2559-03-18"
      }
    ],
    "tag": "b803-2e-2559-a0012"
  }
}