{
  "pages": [
    [
      [
        "พระราชบัญญัติ",
        "ธนาคารแห่งประเทศไทย",
        "พุทธศักราช ๒๔๘๕",
        "",
        "",
        "ในพระปรมาภิไธยสมเด็จพระเจ้าอยู่หัวอานันทมหิดล",
        "คณะผู้สำเร็จราชการแทนพระองค์",
        "ตามประกาศประธานสภาผู้แทนราษฎร",
        "(ลงวันที่ ๔ สิงหาคม พุทธศักราช ๒๔๘๐",
        "และวันที่ ๑๖ ธันวาคม พุทธศักราช ๒๔๘๔)",
        "อาทิตย์ทิพอาภา",
        "ปรีดี พนมยงค์",
        "ตราไว้ ณ วันที่ ๒๘ เมษายน พุทธศักราช ๒๔๘๕",
        "เป็นปีที่ ๙ ในรัชกาลปัจจุบัน"
      ]
    ],
    []
  ],
  "metadata": {
    "date_header": "2480-08-04",
    "date_modified": "2485-05-05",
    "date_original": "2485-05-05",
    "doctype": "พระราชบัญญัติ",
    "editors": [
      {
        "name": "ดวงใจ",
        "role": "แก้ไข",
        "date": "2544-11-13"
      },
      {
        "name": "ปัญญา",
        "role": "ตรวจ",
        "date": "2552-03-23"
      }
    ],
    "tag": "b803-20-2485-001",
    "title": "ธนาคารแห่งประเทศไทย"
  }
}