{
  "pages": [
    [
      [
        "ประกาศธนาคารแห่งประเทศไทย",
        "ที่ ฝบช. ๖/๒๕๕๖",
        "เรื่อง รายงานฐานะเงินสำรองระหว่างประเทศของทางการ",
        "ประจำเดือนมิถุนายน",
        "พ.ศ. ๒๕๕๖"
      ]
    ],
    []
  ],
  "metadata": {
    "date_modified": "2556-09-12",
    "date_original": "2556-09-12",
    "doctype": "ประกาศ",
    "editors": [
      {
        "name": "ปริยานุช",
        "role": "ผู้จัดทำ",
        "date": "2556-09-16"
      },
      {
        "name": "อุษมล",
        "role": "ผู้ตรวจ",
        "date": "2556-09-16"
      }
    ],
    "tag": "b803-2e-2556-a0045"
  }
}