{
  "pages": [
    [
      [
        "ประกาศธนาคารแห่งประเทศไทย",
        "ที่ ฝบช. ๑๑/๒๕๕๕",
        "เรื่อง รายงานฐานะเงินสำรองระหว่างประเทศของทางการ",
        "ประจำเดือนพฤศจิกายน พ.ศ. ๒๕๕๕"
      ]
    ],
    []
  ],
  "metadata": {
    "date_header": "2555-11-00",
    "date_modified": "2556-02-14",
    "date_original": "2556-02-14",
    "doctype": "ประกาศ",
    "editors": [
      {
        "name": "ปริยานุช",
        "role": "ผู้จัดทำ",
        "date": "2556-02-15"
      },
      {
        "name": "อุษมล",
        "role": "ผู้ตรวจ",
        "date": "2556-02-22"
      }
    ],
    "tag": "b803-2e-2556-a0009"
  }
}