{
  "pages": [
    [
      [
        "ประกาศธนาคารแห่งประเทศไทย",
        "ที่ ฝบช. ๒/๒๕๕๕",
        "เรื่อง รายงานฐานะเงินสำรองระหว่างประเทศของทางการ",
        "ประจำเดือนกุมภาพันธ์",
        "พ.ศ. ๒๕๕๕"
      ]
    ],
    []
  ],
  "metadata": {
    "date_modified": "2555-05-17",
    "date_original": "2555-05-17",
    "doctype": "ประกาศ",
    "editors": [
      {
        "name": "ปริยานุช",
        "role": "ผู้จัดทำ",
        "date": "2555-05-21"
      },
      {
        "name": "ปณตภร",
        "role": "ผู้ตรวจ",
        "date": "2555-05-22"
      }
    ],
    "tag": "b803-2e-2555-a0017"
  }
}