{
  "pages": [
    [
      [
        "ประกาศกระทรวงการคลัง",
        "เรื่อง รายงานฐานะการเงินประจำสัปดาห์ของธนาคารแห่งประเทศไทย",
        "ทุนสำรองเงินตรา และกิจการธนบัตร"
      ]
    ],
    []
  ],
  "metadata": {
    "date_backmatter": "2554-11-03",
    "date_modified": "2555-01-12",
    "date_original": "2555-01-12",
    "doctype": "ประกาศ",
    "editors": [
      {
        "name": "ปริยานุช",
        "role": "ผู้จัดทำ",
        "date": "2555-01-17"
      },
      {
        "name": "ปณตภร",
        "role": "ผู้ตรวจ",
        "date": "2555-01-20"
      }
    ],
    "tag": "b803-2e-2555-a0003"
  }
}