{
  "pages": [
    [
      [
        "ประกาศธนาคารแห่งประเทศไทย",
        "ที่ ฝบป. ๒/๒๕๕๑",
        "เรื่อง รายงานฐานะเงินสำรองระหว่างประเทศของทางการ",
        "ประจำเดือนกุมภาพันธ์",
        "พ.ศ. ๒๕๕๑"
      ]
    ],
    []
  ],
  "metadata": {
    "date_modified": "2551-06-12",
    "date_original": "2551-06-12",
    "doctype": "ประกาศ",
    "editors": [
      {
        "name": "ปริยานุช",
        "role": "ผู้จัดทำ",
        "date": "2551-06-18"
      }
    ],
    "tag": "b803-2e-2551-a0002"
  }
}