{
  "pages": [
    [
      [
        "ประกาศกระทรวงการคลัง",
        "เรื่อง งบดุลและบัญชีกำไรขาดทุนของธนาคารแห่งประเทศไทย",
        "ประจำปี ๒๕๓๙"
      ]
    ],
    []
  ],
  "metadata": {
    "date_backmatter": "2540-05-01",
    "date_modified": "2540-05-20",
    "date_original": "2540-05-20",
    "doctype": "ประกาศ",
    "editors": [
      {
        "name": "นันติญา",
        "role": "พิมพ์",
        "date": "2550-08-30"
      },
      {
        "name": "สุนันทา",
        "role": "ตรวจ",
        "date": "2550-08-31"
      }
    ],
    "tag": "b803-2e-2540-a0001"
  }
}