{
  "pages": [
    [
      [
        "ประกาศกระทรวงการคลัง",
        "เรื่อง รายงานฐานะการเงินประจำสัปดาห์ของธนาคารแห่งประเทศไทย",
        "ทุนสำรองเงินตรา และกิจการธนบัตร"
      ]
    ],
    []
  ],
  "metadata": {
    "date_backmatter": "2554-12-08",
    "date_modified": "2555-02-09",
    "date_original": "2555-02-09",
    "doctype": "ประกาศ",
    "editors": [
      {
        "name": "ปริยานุช",
        "role": "ผู้จัดทำ",
        "date": "2555-02-13"
      },
      {
        "name": "ณัฐพร",
        "role": "ผู้ตรวจ",
        "date": "2555-02-13"
      }
    ],
    "tag": "b803-2e-2555-a0009"
  }
}