{
  "pages": [
    [
      [
        "ประกาศธนาคารแห่งประเทศไทย",
        "ที่ ฝบช. ๕/๒๕๕๗",
        "เรื่อง แก้ไขเพิ่มเติมรายงานฐานะเงินสำรองระหว่างประเทศของทางการ",
        "ประจำเดือนตุลาคม พ.ศ. ๒๕๕๖"
      ]
    ],
    []
  ],
  "metadata": {
    "date_header": "2556-10-00",
    "date_modified": "2557-09-04",
    "date_original": "2557-09-04",
    "doctype": "ประกาศ",
    "editors": [
      {
        "name": "ปริยานุช",
        "role": "ผู้จัดทำ",
        "date": "2557-09-26"
      },
      {
        "name": "จุฑามาศ",
        "role": "ผู้ตรวจ",
        "date": "2557-10-14"
      }
    ],
    "tag": "b803-2e-2557-a0021"
  }
}