{
  "pages": [
    [
      [
        "ประกาศกระทรวงการคลัง",
        "เรื่อง รายงานฐานะการเงินประจำสัปดาห์ของธนาคารแห่งประเทศไทย",
        "ทุนสำรองเงินตรา และกิจการธนบัตร"
      ]
    ],
    []
  ],
  "metadata": {
    "date_backmatter": "2559-03-03",
    "date_modified": "2559-04-28",
    "date_original": "2559-04-28",
    "doctype": "ประกาศ",
    "editors": [
      {
        "name": "ปริยานุช",
        "role": "จัดทำ",
        "date": "2559-07-04"
      },
      {
        "name": "กัญฑรัตน์",
        "role": "ตรวจ",
        "date": "2559-07-04"
      }
    ],
    "tag": "b803-2e-2559-a0021"
  }
}