{
  "pages": [
    [
      [
        "ประกาศกระทรวงการคลัง",
        "เรื่อง รายงานฐานะการเงินประจำสัปดาห์ของธนาคารแห่งประเทศไทย",
        "ทุนสำรองเงินตรา และกิจการธนบัตร"
      ]
    ],
    []
  ],
  "metadata": {
    "date_backmatter": "2552-04-23",
    "date_modified": "2552-07-16",
    "date_original": "2552-07-16",
    "doctype": "ประกาศ",
    "editors": [
      {
        "name": "ปริยานุช",
        "role": "ผู้จัดทำ",
        "date": "2552-07-29"
      }
    ],
    "tag": "b803-2e-2552-a0020"
  }
}