{
  "pages": [
    [
      [
        "ประกาศคณะกรรมการกำหนดหลักเกณฑ์ในการกำหนดราคาเริ่มต้น",
        "และราคาที่สมควรขายในการขายทอดตลาด",
        "เรื่อง หลักเกณฑ์การวางหลักประกันการเข้าเสนอราคา"
      ]
    ],
    []
  ],
  "metadata": {
    "date_backmatter": "2559-03-14",
    "date_modified": "2559-03-17",
    "date_original": "2559-03-17",
    "doctype": "ประกาศ",
    "editors": [
      {
        "name": "ปริยานุช",
        "role": "จัดทำ",
        "date": "2559-03-25"
      },
      {
        "name": "วิศนี",
        "role": "ตรวจ",
        "date": "2559-03-31"
      }
    ],
    "tag": "bb04-2e-2559-a0005"
  }
}