{
  "pages": [
    [
      [
        "ระเบียบกระทรวงยุติธรรม",
        "ว่าด้วยการบังคับคดีของเจ้าพนักงานบังคับคดี (ฉบับที่ ๑๐)",
        "พ.ศ. ๒๕๔๔"
      ]
    ],
    []
  ],
  "metadata": {
    "date_backmatter": "2544-07-19",
    "date_modified": "2544-07-30",
    "date_original": "2544-07-30",
    "editors": [
      {
        "name": "คุณากร",
        "role": "ผู้จัดทำ",
        "date": "2553-11-08"
      },
      {
        "name": "พัสสน",
        "role": "ผู้ตรวจ",
        "date": "2554-01-07"
      }
    ],
    "tag": "bb04-2g-2544-a0003"
  }
}