{
  "pages": [
    [
      [
        "พระราชบัญญัติ",
        "แก้ไขเพิ่มเติมประมวลกฎหมายวิธีพิจารณาความแพ่ง (ฉบับที่ ๒๗)",
        "พ.ศ. ๒๕๕๘",
        "",
        "",
        "ภูมิพลอดุลยเดช ป.ร.",
        "ให้ไว้ ณ วันที่ ๑ กันยายน พ.ศ. ๒๕๕๘",
        "เป็นปีที่ ๗๐ ในรัชกาลปัจจุบัน",
        "",
        "พระบาทสมเด็จพระปรมินทรมหาภูมิพลอดุลยเดช มีพระบรมราชโองการโปรดเกล้าฯ ให้ประกาศว่า",
        "",
        "โดยที่เป็นการสมควรแก้ไขเพิ่มเติมประมวลกฎหมายวิธีพิจารณาความแพ่ง",
        "",
        "จึงทรงพระกรุณาโปรดเกล้าฯ ให้ตราพระราชบัญญัติขึ้นไว้โดยคำแนะนำและยินยอมของสภานิติบัญญัติแห่งชาติ ดังต่อไปนี้",
        "",
        "มาตรา ๑ พระราชบัญญัตินี้เรียกว่า “พระราชบัญญัติแก้ไขเพิ่มเติมประมวลกฎหมายวิธีพิจารณาความแพ่ง (ฉบับที่ ๒๗) พ.ศ. ๒๕๕๘”",
        "",
        "มาตรา ๒ พระราชบัญญัตินี้ให้ใช้บังคับเมื่อพ้นกำหนดหกสิบวันนับแต่วันประกาศในราชกิจจานุเบกษาเป็นต้นไป",
        "",
        "มาตรา ๓ ให้ยกเลิกมาตรา ๒๒๓ ทวิ แห่งประมวลกฎหมายวิธีพิจารณาความแพ่ง ซึ่งแก้ไขเพิ่มเติมโดยพระราชบัญญัติแก้ไขเพิ่มเติมประมวลกฎหมายวิธีพิจารณาความแพ่ง (ฉบับที่ ๑๒) พ.ศ. ๒๕๓๔",
        "",
        "มาตรา ๔ ให้เพิ่มความต่อไปนี้เป็นมาตรา ๒๔๔/๑ แห่งประมวลกฎหมายวิธีพิจารณาความแพ่ง",
        "“มาตรา ๒๔๔/๑ ภายใต้บังคับมาตรา ๒๔๗ คำพิพากษาหรือคำสั่งของศาลอุทธรณ์ให้เป็นที่สุด”",
        "",
        "มาตรา ๕ ให้ยกเลิกความในมาตรา ๒๔๗ แห่งประมวลกฎหมายวิธีพิจารณาความแพ่ง ซึ่งแก้ไขเพิ่มเติมโดยพระราชบัญญัติแก้ไขเพิ่มเติมประมวลกฎหมายวิธีพิจารณาความแพ่ง (ฉบับที่ ๕) พ.ศ. ๒๔๙๙ และให้ใช้ความต่อไปนี้แทน",
        "“มาตรา ๒๔๗ การฎีกาคำพิพากษาหรือคำสั่งของศาลอุทธรณ์ ให้กระทำได้เมื่อได้รับอนุญาตจากศาลฎีกา",
        "การขออนุญาตฎีกา ให้ยื่นคำร้องพร้อมกับคำฟ้องฎีกาต่อศาลชั้นต้นที่มีคำพิพากษาหรือคำสั่งในคดีนั้นภายในกำหนดหนึ่งเดือนนับแต่วันที่ได้อ่านคำพิพากษาหรือคำสั่งของศาลอุทธรณ์ แล้วให้ศาลชั้นต้นรีบส่งคำร้องพร้อมคำฟ้องฎีกาดังกล่าวไปยังศาลฎีกา และให้ศาลฎีกาพิจารณาวินิจฉัยคำร้องให้เสร็จสิ้นโดยเร็ว”",
        "",
        "มาตรา ๖ ให้ยกเลิกความในมาตรา ๒๔๘ และมาตรา ๒๔๙ แห่งประมวลกฎหมายวิธีพิจารณาความแพ่ง ซึ่งแก้ไขเพิ่มเติมโดยพระราชบัญญัติแก้ไขเพิ่มเติมประมวลกฎหมายวิธีพิจารณาความแพ่ง (ฉบับที่ ๑๒) พ.ศ. ๒๕๓๔ และให้ใช้ความต่อไปนี้แทน",
        "“มาตรา ๒๔๘ คำร้องตามมาตรา ๒๔๗ ให้พิจารณาและวินิจฉัยโดยองค์คณะผู้พิพากษาที่ประธานศาลฎีกาแต่งตั้ง ซึ่งประกอบด้วยรองประธานศาลฎีกาและผู้พิพากษาในศาลฎีกาซึ่งดำรงตำแหน่งไม่ต่ำกว่าผู้พิพากษาศาลฎีกาอีกอย่างน้อยสามคน",
        "การวินิจฉัยให้เป็นไปตามเสียงข้างมาก ถ้าคะแนนเสียงเท่ากันให้บังคับตามความเห็นของฝ่ายที่เห็นควรอนุญาตให้ฎีกา",
        "มาตรา ๒๔๙ ให้ศาลฎีกาพิจารณาอนุญาตให้ฎีกาตามมาตรา ๒๔๗ ได้ เมื่อเห็นว่าปัญหาตามฎีกานั้นเป็นปัญหาสำคัญที่ศาลฎีกาควรวินิจฉัย",
        "ปัญหาสำคัญตามวรรคหนึ่ง ให้รวมถึงกรณีดังต่อไปนี้",
        "(๑) ปัญหาที่เกี่ยวพันกับประโยชน์สาธารณะ หรือความสงบเรียบร้อยของประชาชน",
        "(๒) เมื่อคำพิพากษาหรือคำสั่งของศาลอุทธรณ์ได้วินิจฉัยข้อกฎหมายที่สำคัญขัดกันหรือขัดกับแนวบรรทัดฐานของคำพิพากษาหรือคำสั่งของศาลฎีกา",
        "(๓) คำพิพากษาหรือคำสั่งของศาลอุทธรณ์ได้วินิจฉัยข้อกฎหมายที่สำคัญซึ่งยังไม่มีแนวคำพิพากษาหรือคำสั่งของศาลฎีกามาก่อน",
        "(๔) เมื่อคำพิพากษาหรือคำสั่งของศาลอุทธรณ์ขัดกับคำพิพากษาหรือคำสั่งอันถึงที่สุดของศาลอื่น",
        "(๕) เพื่อเป็นการพัฒนาการตีความกฎหมาย",
        "(๖) ปัญหาสำคัญอื่นตามข้อกำหนดของประธานศาลฎีกา",
        "ข้อกำหนดของประธานศาลฎีกาตามวรรคสอง (๖) เมื่อได้รับความเห็นชอบจากที่ประชุมใหญ่ศาลฎีกาและประกาศในราชกิจจานุเบกษาแล้วให้ใช้บังคับได้",
        "ในกรณีที่ศาลฎีกามีคำสั่งไม่อนุญาตให้ฎีกา ให้คำพิพากษาหรือคำสั่งของศาลอุทธรณ์เป็นที่สุดตั้งแต่วันที่ได้อ่านคำพิพากษาหรือคำสั่งนั้น”",
        "",
        "มาตรา ๗ ให้เพิ่มความต่อไปนี้เป็นมาตรา ๒๕๐ แห่งประมวลกฎหมายวิธีพิจารณาความแพ่ง ซึ่งถูกยกเลิกโดยพระราชบัญญัติแก้ไขเพิ่มเติมประมวลกฎหมายวิธีพิจารณาความแพ่ง (ฉบับที่ ๕) พ.ศ. ๒๔๙๙",
        "“มาตรา ๒๕๐ หลักเกณฑ์และวิธีการในการยื่นคำร้อง การพิจารณาวินิจฉัยและระยะเวลาในการพิจารณาคำร้องตามมาตรา ๒๔๗ การตรวจรับฎีกา การแก้ฎีกา การพิจารณา และการพิพากษาคดี รวมทั้งการสั่งคืนค่าฤชาธรรมเนียม ให้เป็นไปตามข้อกำหนดของประธานศาลฎีกา",
        "ข้อกำหนดของประธานศาลฎีกาตามวรรคหนึ่ง เมื่อได้รับความเห็นชอบจากที่ประชุมใหญ่ศาลฎีกาและประกาศในราชกิจจานุเบกษาแล้วให้ใช้บังคับได้”",
        "",
        "มาตรา ๘ ให้ยกเลิกความในมาตรา ๒๕๑ และมาตรา ๒๕๒ แห่งประมวลกฎหมายวิธีพิจารณาความแพ่ง และให้ใช้ความต่อไปนี้แทน",
        "“มาตรา ๒๕๑ ในคดีที่ได้รับอนุญาตให้ฎีกาที่มีแต่เฉพาะปัญหาข้อกฎหมาย หากศาลฎีกาเห็นว่าคำพิพากษาหรือคำสั่งของศาลอุทธรณ์ไม่ถูกต้องไม่ว่าทั้งหมดหรือบางส่วน ศาลฎีกาจะมีคำวินิจฉัยในปัญหาข้อกฎหมายนั้นและยกคำพิพากษาหรือคำสั่งของศาลอุทธรณ์หรือศาลชั้นต้น แล้วมีคำสั่งให้ศาลอุทธรณ์หรือศาลชั้นต้น แล้วแต่กรณี ทำคำพิพากษาหรือคำสั่งใหม่ภายใต้กรอบคำวินิจฉัยของศาลฎีกาก็ได้",
        "มาตรา ๒๕๒ ในกรณีที่ไม่มีข้อกำหนดของประธานศาลฎีกาตามมาตรา ๒๕๐ กำหนดไว้เป็นอย่างอื่น ให้นำบทบัญญัติในลักษณะ ๑ ว่าด้วยอุทธรณ์มาใช้บังคับโดยอนุโลม”",
        "",
        "มาตรา ๙ บรรดาคดีที่ได้ยื่นฟ้องไว้ก่อนวันที่พระราชบัญญัตินี้ใช้บังคับ ให้บังคับตามกฎหมายซึ่งใช้อยู่ก่อนวันที่พระราชบัญญัตินี้ใช้บังคับจนกว่าคดีนั้นจะถึงที่สุด",
        "",
        "มาตรา ๑๐ ให้ประธานศาลฎีการักษาการตามพระราชบัญญัตินี้",
        "",
        "",
        "ผู้รับสนองพระบรมราชโองการ",
        "พลเอก ประยุทธ์ จันทร์โอชา",
        "นายกรัฐมนตรี",
        "",
        "หมายเหตุ :- เหตุผลในการประกาศใช้พระราชบัญญัติฉบับนี้ คือ โดยที่บทบัญญัติของประมวลกฎหมายวิธีพิจารณาความแพ่งในส่วนการฎีกาไม่สามารถกลั่นกรองคดีที่ไม่เป็นสาระอันควรแก่การวินิจฉัยของศาลฎีกาได้อย่างมีประสิทธิภาพเพียงพอ ทำให้การพิจารณาพิพากษาคดีของศาลฎีกาเกิดความล่าช้า ส่งผลกระทบต่อความเชื่อมั่นและความศรัทธาที่มีต่อระบบศาลยุติธรรม ดังนั้น เพื่อให้การพิจารณาพิพากษาคดีของศาลฎีกาเป็นไปอย่างมีประสิทธิภาพให้ความเป็นธรรมแก่บุคคลที่เกี่ยวข้องทุกฝ่ายได้อย่างแท้จริงและรวดเร็วขึ้น สมควรกำหนดให้ศาลฎีกามีอำนาจพิจารณาว่าคดีที่ได้ยื่นฎีกาใดสมควรอนุญาตให้ขึ้นสู่การพิจารณาของศาลฎีกา จึงจำเป็นต้องตราพระราชบัญญัตินี้",
        "",
        "",
        "",
        "",
        "",
        "",
        "",
        "ปริยานุช,ปุณิกา/ผู้จัดทำ",
        "ปัญญา/ผู้ตรวจ",
        "๙ กันยายน ๒๕๕๘"
      ]
    ],
    []
  ],
  "metadata": {
    "date_header": "2558-09-01",
    "date_modified": "2558-09-08",
    "date_original": "2558-09-08",
    "doctype": "พระราชบัญญัติ",
    "editors": [],
    "tag": "bb04-20-2558-a0002",
    "title": "แก้ไขเพิ่มเติมประมวลกฎหมายวิธีพิจารณาความแพ่ง (ฉบับที่ ๒๗)"
  }
}