{
  "pages": [
    [
      [
        "พระราชบัญญัติ",
        "แก้ไขเพิ่มเติมประมวลกฎหมายวิธีพิจารณาความแพ่ง (ฉบับที่ ๙)",
        "พ.ศ. ๒๕๒๗",
        "",
        "",
        "ภูมิพลอดุลยเดช ป.ร.",
        "ให้ไว้ ณ วันที่ ๖ กรกฎาคม พ.ศ. ๒๕๒๗",
        "เป็นปีที่ ๓๙ ในรัชกาลปัจจุบัน",
        "",
        "พระบาทสมเด็จพระปรมินทรมหาภูมิพลอดุลยเดช มีพระบรมราชโองการโปรดเกล้า ฯ ให้ประกาศว่า",
        "",
        "โดยที่เป็นการสมควรแก้ไขเพิ่มเติมประมวลกฎหมายวิธีพิจารณาความแพ่ง",
        "",
        "จึงทรงพระกรุณาโปรดเกล้า ฯ ให้ตราพระราชบัญญัติขึ้นไว้โดยคำแนะนำและยินยอมของรัฐสภา ดังต่อไปนี้",
        "",
        "มาตรา ๑ พระราชบัญญัตินี้เรียกว่า “พระราชบัญญัติแก้ไขเพิ่มเติมประมวลกฎหมายวิธีพิจารณาความแพ่ง (ฉบับที่ ๙) พ.ศ. ๒๕๒๗”",
        "",
        "มาตรา ๒ พระราชบัญญัตินี้ให้ใช้บังคับตั้งแต่วันถัดจากวันประกาศในราชกิจจานุเบกษาเป็นต้นไป",
        "",
        "มาตรา ๓ ให้ยกเลิกความในวรรคสองของมาตรา ๑๘ แห่งประมวลกฎหมายวิธีพิจารณาความแพ่ง และให้ใช้ความต่อไปนี้แทน",
        "“ถ้าศาลเห็นว่าคำคู่ความที่ได้ยื่นไว้ดังกล่าวแล้วนั้น อ่านไม่ออกหรืออ่านไม่เข้าใจ หรือเขียนฟุ่มเฟือยเกินไป หรือไม่มีรายการ ไม่มีลายมือชื่อ ไม่แนบเอกสารต่าง ๆ ตามที่กฎหมายต้องการ หรือมิได้ชำระหรือวางค่าธรรมเนียมศาลโดยถูกต้องครบถ้วน ศาลจะมีคำสั่งให้คืนคำคู่ความนั้นไปให้ทำมาใหม่ หรือแก้ไขเพิ่มเติม หรือชำระหรือวางค่าธรรมเนียมศาลให้ถูกต้องครบถ้วน ภายในระยะเวลาและกำหนดเงื่อนไขใด ๆ ตลอดจนเรื่องค่าฤชาธรรมเนียมตามที่ศาลเห็นสมควรก็ได้ ถ้ามิได้ปฏิบัติตามข้อกำหนดของศาลในระยะเวลาหรือเงื่อนไขที่กำหนดไว้ก็ให้มีคำสั่งไม่รับคำคู่ความนั้น”",
        "",
        "มาตรา ๔ ให้ยกเลิกความในวรรคสองของมาตรา ๑๔๙ แห่งประมวลกฎหมายวิธีพิจารณาความแพ่ง ซึ่งแก้ไขเพิ่มเติมโดยพระราชบัญญัติแก้ไขเพิ่มเติมประมวลกฎหมายวิธีพิจารณาความแพ่ง (ฉบับที่ ๒) พ.ศ. ๒๔๘๗ และให้ใช้ความต่อไปนี้แทน",
        "“ค่าธรรมเนียมศาลนั้น ให้ชำระหรือนำมาวางศาลเป็นเงินสดหรือเช็คซึ่งธนาคารรับรอง โดยเจ้าพนักงานศาลออกใบรับให้”",
        "",
        "",
        "ผู้รับสนองพระบรมราชโองการ",
        "พลเอก ป. ติณสูลานนท์",
        "นายกรัฐมนตรี",
        "",
        "",
        "หมายเหตุ :- เหตุผลในการประกาศใช้พระราชบัญญัติฉบับนี้ คือ โดยที่บทบัญญัติแห่งประมวลกฎหมายวิธีพิจารณาความแพ่งที่ใช้บังคับอยู่ในปัจจุบัน กำหนดให้ชำระหรือวางค่าธรรมเนียมศาลโดยวิธีปิดแสตมป์ตามจำนวนที่ต้องปิดลงไว้ในคำคู่ความคำร้อง ใบรับหรือเอกสารที่เกี่ยวข้อง ซึ่งเป็นเหตุให้เกิดความล่าช้าและไม่สะดวกในการเรียกเก็บและการชำระหรือวางค่าธรรมเนียมศาล และการตรวจสอบคำคู่ความของศาล ทั้งยังเป็นการสิ้นเปลืองงบประมาณและเป็นภาระในการจัดพิมพ์ และการเก็บรักษาแสตมป์ฤชากรอีกด้วย สมควรแก้ไขเพิ่มเติมให้มีการชำระหรือวางค่าธรรมเนียมศาลเป็นเงินสดโดยเจ้าพนักงานศาลออกใบรับให้ และสมควรแก้ไขเพิ่มเติมบทบัญญัติเกี่ยวกับการตรวจคำคู่ความของศาลให้สอดคล้องกับการชำระหรือวางค่าธรรมเนียมศาลดังกล่าวด้วย จึงจำเป็นต้องตราพระราชบัญญัตินี้",
        "",
        "",
        "",
        "ภคินี/แก้ไข",
        "๑๓/๓/๒๕๔๕",
        "A+B",
        "",
        "วชิระ/ปรับปรุง",
        "๕ เมษายน ๒๕๕๓"
      ]
    ],
    []
  ],
  "metadata": {
    "date_header": "2527-07-06",
    "date_modified": "2527-10-02",
    "date_original": "2527-10-02",
    "doctype": "พระราชบัญญัติ",
    "editors": [],
    "tag": "bb04-20-2527-009",
    "title": "แก้ไขเพิ่มเติมประมวลกฎหมายวิธีพิจารณาความแพ่ง (ฉบับที่ ๙)"
  }
}