{
  "pages": [
    [
      [
        "ประกาศอธิบดีกรมบังคับคดี",
        "เรื่อง วิธีการเสนอราคา"
      ]
    ],
    []
  ],
  "metadata": {
    "date_backmatter": "2559-04-07",
    "date_modified": "2559-04-19",
    "date_original": "2559-04-19",
    "doctype": "ประกาศ",
    "editors": [
      {
        "name": "วิศนี/ปริยานุช",
        "role": "จัดทำ",
        "date": "2559-05-18"
      }
    ],
    "tag": "bb04-2e-2559-a0010"
  }
}