{
  "pages": [
    [
      [
        "พระราชบัญญัติ",
        "แก้ไขเพิ่มเติมประมวลกฎหมายวิธีพิจารณาความแพ่ง (ฉบับที่ ๒๑)",
        "พ.ศ. ๒๕๔๗",
        "",
        "",
        "ภูมิพลอดุลยเดช ป.ร.",
        "ให้ไว้ ณ วันที่ ๑๖ ธันวาคม พ.ศ. ๒๕๔๗",
        "เป็นปีที่ ๕๙ ในรัชกาลปัจจุบัน",
        "",
        "พระบาทสมเด็จพระปรมินทรมหาภูมิพลอดุลยเดช มีพระบรมราชโองการโปรดเกล้าฯ ให้ประกาศว่า",
        "",
        "โดยที่เป็นการสมควรแก้ไขเพิ่มเติมประมวลกฎหมายวิธีพิจารณาความแพ่ง",
        "",
        "พระราชบัญญัตินี้มีบทบัญญัติบางประการเกี่ยวกับการจำกัดสิทธิและเสรีภาพของบุคคล ซึ่งมาตรา ๒๙ ประกอบกับมาตรา ๔๘ ของรัฐธรรมนูญแห่งราชอาณาจักรไทย บัญญัติให้กระทำได้โดยอาศัยอำนาจตามบทบัญญัติแห่งกฎหมาย",
        "",
        "จึงทรงพระกรุณาโปรดเกล้าฯ ให้ตราพระราชบัญญัติขึ้นไว้โดยคำแนะนำและยินยอมของรัฐสภา ดังต่อไปนี้",
        "",
        "มาตรา ๑ พระราชบัญญัตินี้เรียกว่า “พระราชบัญญัติแก้ไขเพิ่มเติมประมวลกฎหมายวิธีพิจารณาความแพ่ง (ฉบับที่ ๒๑) พ.ศ. ๒๕๔๗”",
        "",
        "มาตรา ๒ พระราชบัญญัตินี้ให้ใช้บังคับตั้งแต่วันถัดจากวันประกาศในราชกิจจานุเบกษาเป็นต้นไป",
        "",
        "มาตรา ๓ ให้ยกเลิกความใน (๓) ของมาตรา ๒๙๒ แห่งประมวลกฎหมายวิธีพิจารณาความแพ่งและให้ใช้ความต่อไปนี้แทน",
        "“(๓) ถ้าเจ้าหนี้ตามคำพิพากษาได้แจ้งเป็นหนังสือไปยังเจ้าพนักงานบังคับคดีว่าตนตกลงงดการบังคับคดีไว้ชั่วระยะเวลาที่กำหนดไว้หรือภายในเงื่อนไขอย่างใดอย่างหนึ่งโดยได้รับความยินยอมเป็นหนังสือจากลูกหนี้ตามคำพิพากษาและบุคคลภายนอกผู้มีส่วนได้เสียในการบังคับคดี”",
        "",
        "มาตรา ๔ ให้ยกเลิกความในมาตรา ๓๐๙ ทวิ แห่งประมวลกฎหมายวิธีพิจารณาความแพ่งซึ่งแก้ไขเพิ่มเติมโดยพระราชบัญญัติแก้ไขเพิ่มเติมประมวลกฎหมายวิธีพิจารณาความแพ่ง (ฉบับที่ ๑๘) พ.ศ. ๒๕๔๒ และให้ใช้ความต่อไปนี้แทน",
        "“มาตรา ๓๐๙ ทวิ ในการขายทอดตลาดทรัพย์สินของลูกหนี้ตามคำพิพากษานั้น ก่อนที่เจ้าพนักงานบังคับคดีจะเคาะไม้ขายให้แก่ผู้เสนอราคาสูงสุดที่เจ้าพนักงานบังคับคดีเห็นว่าเป็นราคาที่สมควรขายได้ เจ้าหนี้ตามคำพิพากษา ลูกหนี้ตามคำพิพากษา หรือบุคคลผู้มีสวนได้เสียในการบังคับคดีอาจคัดค้านว่าราคาดังกล่าวมีจำนวนต่ำเกินสมควร ในกรณีเช่นว่านี้ ให้เจ้าพนักงานบังคับคดีเลื่อนการขายทอดตลาดทรัพย์สินไป เพื่อให้เจ้าหนี้ตามคำพิพากษา ลูกหนี้ตามคำพิพากษา หรือบุคคลผู้มีส่วนได้เสียในการบังคับคดี ไม่ว่าจะเป็นบุคคลที่คัดค้านหรือไม่ก็ตาม หาผู้ซื้อที่จะเสนอซื้อในราคาที่บุคคลดังกล่าวต้องการมาเสนอซื้อในการขายทอดตลาดทรัพย์สินครั้งต่อไป โดยให้ผู้เสนอราคาสูงสุดต้องผูกพันกับการเสนอราคาดังกล่าวเป็นระยะเวลาสามสิบวันนับแต่วันที่เสนอราคานั้น และในการขายทอดตลาดทรัพย์สินครั้งต่อไป หากมีผู้เสนอราคาสูงสุดในจำนวนไม่สูงกว่าจำนวนที่ผู้เสนอราคาสูงสุดได้เสนอในการขายทอดตลาดทรัพย์สินครั้งก่อน หรือไม่มีผู้ใดเสนอราคาเลย ให้เจ้าพนักงานบังคับคดีเคาะไม้ขายให้แก่ผู้เสนอราคาสูงสุดในการขายทอดตลาดทรัพย์สินครั้งก่อน แต่หากมีผู้เสนอราคาสูงสุดในการขายทอดตลาดทรัพย์สินครั้งต่อไปในจำนวนสูงกว่าจำนวนที่ผู้เสนอราคาสูงสุดได้เสนอในการขายทอดตลาดทรัพย์สินครั้งก่อน ให้เจ้าพนักงานบังคับคดีเคาะไม้ขายให้แก่ผู้เสนอราคาสูงสุดในการขายทอดตลาดทรัพย์สินนั้น",
        "ในกรณีที่เจ้าหนี้ตามคำพิพากษา ลูกหนี้ตามคำพิพากษา หรือบุคคลผู้มีส่วนได้เสียในการบังคับคดีเห็นว่าราคาที่ได้จากการขายทอดตลาดทรัพย์สินมีจำนวนต่ำเกินสมควร และการขายทอดตลาดทรัพย์สินในราคาต่ำเกินสมควรนั้นเกิดจากการคบคิดกันฉ้อฉลในระหว่างผู้ที่เกี่ยวข้องในการเข้าสู้ราคา หรือความไม่สุจริตหรือความประมาทเลินเล่ออย่างร้ายแรงของเจ้าพนักงานบังคับคดีในการปฏิบัติหน้าที่ บุคคลดังกล่าวอาจยื่นคำร้องต่อศาลเพื่อขอให้มีคำสั่งเพิกถอนการขายทอดตลาดทรัพย์สินตามบทบัญญัติแห่งลักษณะนี้ได้ และเมื่อศาลไต่สวนแล้วเห็นว่าคำร้องรับฟังได้ ให้ศาลมีคำสั่งอนุญาตตามคำร้องหรือแก้ไขหรือมีคำสั่งกำหนดวิธีการอย่างใดตามที่ศาลเห็นสมควรให้เสร็จภายในกำหนดเก้าสิบวันนับแต่วันได้รับคำร้องนั้น",
        "ให้นำบทบัญญัติในวรรคสาม วรรคสี่ วรรคห้า และวรรคหก ของมาตรา ๒๙๖ มาใช้บังคับแก่การยื่นคำร้องตามวรรคสองโดยอนุโลม",
        "คำสั่งศาลตามวรรคสองให้เป็นที่สุด”",
        "",
        "",
        "ผู้รับสนองพระบรมราชโองการ",
        "พันตำรวจโท ทักษิณ ชินวัตร",
        "นายกรัฐมนตรี",
        "",
        "",
        "หมายเหตุ: - เหตุผลในการประกาศใช้พระราชบัญญัติฉบับนี้ คือ โดยที่บทบัญญัติของประมวลกฎหมายวิธีพิจารณาความแพ่งในส่วนที่เกี่ยวกับการงดการบังคับคดีของเจ้าหนี้ตามคำพิพากษาและการขายทอดตลาดทรัพย์สินของลูกหนี้ตามคำพิพากษาของเจ้าพนักงานบังคับคดีที่ใช้บังคับอยู่ในปัจจุบันบางส่วนยังไม่ชัดเจนเพียงพอ ดังนั้น เพื่อให้การบังคับคดีเป็นไปด้วยความเป็นธรรมโดยคุ้มครองสิทธิของบุคคลภายนอกผู้มีส่วนได้เสียในการบังคับคดีและให้การขายทอดตลาดทรัพย์สินของลูกหนี้ตามคำพิพากษาสามารถดำเนินไปได้อย่างมีประสิทธิภาพ รวดเร็ว และเป็นธรรมแก่ผู้ซื้อทรัพย์จากการขายทอดตลาดและเป็นไปตามเจตนารมณ์ของประมวลกฎหมายแพ่งและพาณิชย์ที่ว่าด้วยการขายทอดตลาด สมควรแก้ไขเพิ่มเติมบทบัญญัติดังกล่าวให้เหมาะสมและมีความชัดเจนยิ่งขึ้นจึงจำเป็นต้องตราพระราชบัญญัตินี้",
        "",
        "",
        "",
        "",
        "",
        "",
        "ญาณี/พิมพ์",
        "๑๑ มกราคม ๒๕๔๘",
        "พัชรินทร์/อมราลักษณ์/ตรวจ",
        "๑๒ มกราคม ๒๕๔๘",
        "A+B",
        "",
        "วชิระ/ปรับปรุง",
        "๗ เมษายน ๒๕๕๓"
      ]
    ],
    []
  ],
  "metadata": {
    "date_header": "2547-12-16",
    "date_modified": "2548-01-08",
    "date_original": "2548-01-08",
    "doctype": "พระราชบัญญัติ",
    "editors": [],
    "tag": "bb04-20-2548-a0001",
    "title": "แก้ไขเพิ่มเติมประมวลกฎหมายวิธีพิจารณาความแพ่ง (ฉบับที่ ๒๑)"
  }
}