{
  "pages": [
    [
      [
        "คำสั่งกรมบังคับคดี",
        "ที่ ๔๕๗/๒๕๔๘",
        "เรื่อง การกำหนดราคาทรัพย์ของคณะกรรมการกำหนดราคาทรัพย์"
      ]
    ],
    []
  ],
  "metadata": {
    "date_backmatter": "2548-09-08",
    "date_modified": "2550-09-26",
    "date_original": "2550-09-26",
    "editors": [
      {
        "name": "คุณากร",
        "role": "ผู้จัดทำ",
        "date": "2553-11-01"
      },
      {
        "name": "พัสสน",
        "role": "ผู้ตรวจ",
        "date": "2554-01-06"
      }
    ],
    "tag": "bb04-2f-2550-a0015"
  }
}