{
  "pages": [
    [
      [
        "ข้อกำหนดของประธานศาลฎีกา",
        "ว่าด้วยการยื่น ส่ง และรับคำคู่ความและเอกสารทางระบบรับส่งอิเล็กทรอนิกส์",
        "พ.ศ. ๒๕๖๐"
      ]
    ],
    []
  ],
  "metadata": {
    "date_backmatter": "2560-04-26",
    "date_modified": "2560-05-03",
    "date_original": "2560-05-03",
    "editors": [
      {
        "name": "ปุณิกา/ภวรรณตรี",
        "role": "จัดทำ",
        "date": "2560-05-08"
      },
      {
        "name": "นุสรา",
        "role": "ตรวจ",
        "date": "2560-06-21"
      }
    ],
    "tag": "bb04-2h-2560-a0001"
  }
}