{
  "pages": [
    [
      [
        "พระราชบัญญัติ",
        "ให้ใช้ประมวลกฎหมายวิธีพิจารณาความแพ่ง (ฉบับที่ ๒)",
        "พ.ศ. ๒๕๔๓",
        "",
        "",
        "ภูมิพลอดุลยเดช ป.ร.",
        "ให้ไว้ ณ วันที่ ๓๑ ตุลาคม พ.ศ. ๒๕๔๓",
        "เป็นปีที่ ๕๕ ในรัชกาลปัจจุบัน",
        "",
        "พระบาทสมเด็จพระปรมินทรมหาภูมิพลอดุลยเดช มีพระบรมราชโองการโปรดเกล้า ฯ ให้ประกาศว่า",
        "",
        "โดยที่เป็นการสมควรแก้ไขเพิ่มเติมพระราชบัญญัติให้ใช้ประมวลกฎหมายวิธีพิจารณาความแพ่ง พุทธศักราช ๒๔๗๗",
        "",
        "พระราชบัญญัตินี้มีบทบัญญัติบางประการเกี่ยวกับการจำกัดสิทธิและเสรีภาพของบุคคล ซึ่งมาตรา ๒๙ ประกอบกับมาตรา ๓๑ และมาตรา ๔๘ ของรัฐธรรมนูญแห่งราชอาณาจักรไทย บัญญัติให้กระทำได้โดยอาศัยอำนาจตามบทบัญญัติแห่งกฎหมาย",
        "",
        "จึงทรงพระกรุณาโปรดเกล้า ฯ ให้ตราพระราชบัญญัติขึ้นไว้โดยคำแนะนำและยินยอมของรัฐสภา ดังต่อไปนี้",
        "",
        "มาตรา ๑ พระราชบัญญัตินี้เรียกว่า “พระราชบัญญัติให้ใช้ประมวลกฎหมายวิธีพิจารณาความแพ่ง (ฉบับที่ ๒) พ.ศ. ๒๕๔๓”",
        "",
        "มาตรา ๒ พระราชบัญญัตินี้ให้ใช้บังคับตั้งแต่วันถัดจากวันประกาศในราชกิจจานุเบกษาเป็นต้นไป",
        "",
        "มาตรา ๓ ให้ยกเลิกความในมาตรา ๕ แห่งพระราชบัญญัติให้ใช้ประมวลกฎหมายวิธีพิจารณาความแพ่ง พุทธศักราช ๒๔๗๗ และให้ใช้ความต่อไปนี้แทน",
        "“มาตรา ๕ ให้รัฐมนตรีว่าการกระทรวงยุติธรรมมีอำนาจออกกฎกระทรวง ตามประมวลกฎหมายวิธีพิจารณาความแพ่งในเรื่องต่อไปนี้",
        "(๑) จัดวางระเบียบทางธุรการในเรื่องเจ้าพนักงานบังคับคดี รวมทั้งการกำหนดค่าธรรมเนียมนอกจากที่ระบุไว้ในตาราง ๕ ท้ายประมวลกฎหมายนี้ ตลอดจนการชดใช้ค่าใช้จ่ายให้บุคคลเหล่านั้น",
        "(๒) จัดวางระเบียบทางธุรการในเรื่องการยึดและอายัด และการจำหน่ายทรัพย์สินเป็นตัวเงินโดยวิธีขายทอดตลาดหรือโดยวิธีอื่น และในเรื่องวิธีการบังคับคดีทางอื่น ๆ ที่เจ้าพนักงานบังคับคดีจะพึงปฏิบัติ",
        "กฎกระทรวงนั้น เมื่อได้ประกาศในราชกิจจานุเบกษาแล้ว ให้ใช้บังคับได้”",
        "",
        "มาตรา ๔ ให้เพิ่มความต่อไปนี้เป็นมาตรา ๖ แห่งพระราชบัญญัติให้ใช้ประมวลกฎหมายวิธีพิจารณาความแพ่ง พุทธศักราช ๒๔๗๗",
        "“มาตรา ๖ ให้ประธานศาลฎีกาโดยความเห็นชอบของคณะกรรมการบริหารศาลยุติธรรมมีอำนาจออกข้อบังคับตามประมวลกฎหมายวิธีพิจารณาความแพ่งในเรื่องต่อไปนี้",
        "(๑) การแต่งตั้ง การระบุตัว และการสาบานของล่าม ผู้แปล และผู้เชี่ยวชาญ การกำหนดจำนวนค่าป่วยการ และการชดใช้ค่าใช้จ่ายให้บุคคลเหล่านั้น",
        "(๒) จัดวางระเบียบทางธุรการในเรื่องเจ้าพนักงานศาล รวมทั้งการกำหนดค่าธรรมเนียมนอกจากที่ระบุไว้ในตาราง ๕ ท้ายประมวลกฎหมายนี้ ตลอดจนการชดใช้ค่าใช้จ่ายให้บุคคลเหล่านั้น",
        "(๓) จัดวางระเบียบทางธุรการในเรื่องการเก็บรักษาและการทำลายสารบบความ สารบบคำพิพากษา สมุดคำพิพากษา และสารบบอื่นๆ ของศาล ตลอดจนสำนวนความทั้งหลาย",
        "(๔) จัดวางระเบียบทางธุรการในเรื่องการยื่นเอกสารต่อพนักงานเจ้าหน้าที่ของศาล เพื่อยื่นต่อศาลหรือเพื่อส่งให้แก่คู่ความหรือบุคคลผู้ใดผู้หนึ่ง และในเรื่องการขอร้องด้วยวาจาเพื่อให้ศาลพิจารณาและชี้ขาดตัดสินคดีมโนสาเร่",
        "(๕) จัดวางระเบียบทางธุรการในเรื่องที่คู่ความฝ่ายหนึ่งจะส่งต้นฉบับเอกสารไปยังอีกฝ่ายหนึ่ง",
        "ข้อบังคับนั้น เมื่อได้ประกาศในราชกิจจานุเบกษาแล้ว ให้ใช้บังคับได้”",
        "",
        "มาตรา ๕ บรรดากฎกระทรวงซึ่งออกตามความในพระราชบัญญัติให้ใช้ประมวลกฎหมายวิธีพิจารณาความแพ่ง พุทธศักราช ๒๔๗๗ ที่ใช้บังคับอยู่ในวันที่พระราชบัญญัตินี้ใช้บังคับ ให้ยังคงใช้บังคับได้ต่อไปโดยอนุโลมเพียงเท่าที่ไม่ขัดหรือแย้งกับพระราชบัญญัติให้ใช้ประมวลกฎหมายวิธีพิจารณาความแพ่ง พุทธศักราช ๒๔๗๗ ซึ่งแก้ไขเพิ่มเติมโดยพระราชบัญญัตินี้จนกว่าจะมีกฎกระทรวงหรือข้อบังคับที่ตราขึ้นใหม่ใช้บังคับแทน",
        "",
        "มาตรา ๖ ให้ประธานศาลฎีกาและรัฐมนตรีว่าการกระทรวงยุติธรรมรักษาการตามพระราชบัญญัตินี้",
        "",
        "",
        "ผู้รับสนองพระบรมราชโองการ",
        "ชวน หลีกภัย",
        "นายกรัฐมนตรี",
        "",
        "",
        "หมายเหตุ :- เหตุผลในการประกาศใช้พระราชบัญญัติฉบับนี้ คือ โดยที่มาตรา ๒๗๕ ของรัฐธรรมนูญแห่งราชอาณาจักรไทย ประกอบกับกฎหมายว่าด้วยระเบียบบริหารราชการศาลยุติธรรมกำหนดให้สำนักงานศาลยุติธรรมเป็นหน่วยงานธุรการอิสระของศาลยุติธรรม แต่มิได้กำหนดให้กรมบังคับคดีเป็นหน่วยงานธุรการของศาลยุติธรรม กรมบังคับคดีจึงยังอยู่ในความรับผิดชอบของกระทรวงยุติธรรม ดังนั้น สมควรแก้ไขเพิ่มเติมพระราชบัญญัติให้ใช้ประมวลกฎหมายวิธีพิจารณาความแพ่ง พุทธศักราช ๒๔๗๗ ในส่วนที่เกี่ยวกับอำนาจหน้าที่ของประธานศาลฎีกาและรัฐมนตรีว่าการกระทรวงยุติธรรมเพื่อให้สอดคล้องกับสภาพการณ์ดังกล่าว จึงจำเป็นต้องตราพระราชบัญญัตินี้",
        "",
        "",
        "",
        "ภคินี/แก้ไข",
        "๑๓/๓/๒๕๔๕",
        "A+B",
        "",
        "วชิระ/ปรับปรุง",
        "๗ เมษายน ๒๕๕๓"
      ]
    ],
    []
  ],
  "metadata": {
    "date_header": "2543-10-31",
    "date_modified": "2543-11-13",
    "date_original": "2543-11-13",
    "doctype": "พระราชบัญญัติ",
    "editors": [],
    "tag": "bb04-20-2543-a002",
    "title": "ให้ใช้ประมวลกฎหมายวิธีพิจารณาความแพ่ง (ฉบับที่ ๒)"
  }
}