{
  "pages": [
    [
      [
        "พระราชบัญญัติ",
        "ให้ใช้ประมวลกฎหมายวิธีพิจารณาความแพ่ง",
        "พุทธศักราช ๒๔๗๗",
        "",
        "",
        "ในพระปรมาภิไธยสมเด็จพระเจ้าอยู่หัวอานันทมหิดล",
        "คณะผู้สำเร็จราชการแทนพระองค์",
        "(ตามประกาศประธานสภาผู้แทนราษฎร",
        "ลงวันที่ ๗ มีนาคม พุทธศักราช ๒๔๗๗)",
        "อนุวัฒน์จาตุรนต์",
        "อาทิตย์ทิพอาภา",
        "เจ้าพระยายมราช",
        "ตราไว้ ณ วันที่ ๑๕ มิถุนายน พุทธศักราช ๒๔๗๘",
        "เป็นปีที่ ๒ ในรัชกาลปัจจุบัน",
        "",
        "โดยที่สภาผู้แทนราษฎรลงมติว่า สมควรที่จะยกเลิกบรรดากฎหมายวิธีพิจารณาความแพ่งต่าง ๆ ที่ใช้อยู่ ณ บัดนี้ และให้ใช้ประมวลกฎหมายวิธีพิจารณาความแพ่งแทน",
        "",
        "จึงมีพระบรมราชโองการให้ตราพระราชบัญญัติขึ้นไว้โดยคำแนะนำและยินยอมของสภาผู้แทนราษฎร ดังต่อไปนี้",
        "",
        "มาตรา ๑ พระราชบัญญัตินี้ให้เรียกว่า “พระราชบัญญัติให้ใช้ประมวลกฎหมายวิธีพิจารณาความแพ่ง พุทธศักราช ๒๔๗๗”",
        "",
        "มาตรา ๒ ให้ใช้พระราชบัญญัตินี้ตั้งแต่วันประกาศในราชกิจจานุเบกษาเป็นต้นไป",
        "",
        "มาตรา ๓ ให้ใช้ประมวลกฎหมายวิธีพิจารณาความแพ่งตามที่ได้ตราไว้ต่อท้ายพระราชบัญญัตินี้ ตั้งแต่วันที่ ๑ ตุลาคม พุทธศักราช ๒๔๗๘ เป็นต้นไป",
        "บทบัญญัติในประมวลกฎหมายนี้ให้ใช้ในศาลทั่วไปตลอดราชอาณาจักร ยกเว้นแต่ในศาลพิเศษที่มีข้อบังคับสำหรับศาลนั้น และถ้ามีกฎหมายให้ใช้ธรรมเนียมประเพณีหรือกฎหมายทางศาสนาในศาลใด ให้ศาลนั้นยกธรรมเนียมประเพณีหรือกฎหมายนั้น ๆ มาใช้แทนบทบัญญัติแห่งประมวลกฎหมายนี้ เว้นแต่คู่ความจะได้ตกลงกันให้ใช้ประมวลกฎหมายนี้",
        "บทบัญญัติในประมวลกฎหมายนี้ ให้ใช้บังคับแก่คดีความทั้งปวงซึ่งค้างชำระอยู่ในศาลเมื่อวันใช้ประมวลกฎหมายนี้ หรือที่ได้ยื่นต่อศาลภายหลังวันนั้น ไม่ว่ามูลคดีจะได้เกิดขึ้นก่อนหรือหลังวันใช้นั้น",
        "",
        "มาตรา ๔ ตั้งแต่วันใช้ประมวลกฎหมายวิธีพิจารณาความแพ่งนี้สืบไป ให้ยกเลิกบรรดากฎหมาย กฎ และข้อบังคับอื่น ๆ ในส่วนที่มีบัญญัติไว้แล้วในประมวลกฎหมายนี้หรือซึ่งแย้งกับบทแห่งประมวลกฎหมายนี้",
        "",
        "มาตรา ๕ ให้รัฐมนตรีว่าการกระทรวงยุติธรรมมีอำนาจออกกฎกระทรวงตามประมวลกฎหมายนี้ในเรื่องต่อไปนี้",
        "(ก) การตั้งแต่ง การระบุตัว และการสาบานของล่าม ผู้แปล และผู้เชี่ยวชาญ การกำหนดจำนวนค่าป่วยการ และการชดใช้ค่าใช้จ่ายให้บุคคลเหล่านั้น",
        "(ข) จัดวางระเบียบทางธุรการในเรื่องเจ้าพนักงานศาล (เช่น จ่าศาล เจ้าพนักงานบังคับคดี และนักการส่งบัตรหมาย) รวมทั้งการกำหนดค่าธรรมเนียม (นอกจากที่ระบุไว้ในตาราง ๕ ท้ายประมวลกฎหมายนี้) ตลอดทั้งการชดใช้ค่าใช้จ่ายให้บุคคลเหล่านั้น",
        "(ค) จัดวางระเบียบทางธุรการในเรื่องการเก็บรักษาและการทำลายสารบบความ สารบบคำพิพากษา สมุดคำพิพากษา และสารบบอื่น ๆ ของศาล ตลอดทั้งสำนวนความทั้งหลาย",
        "(ง) จัดวางระเบียบทางธุรการในเรื่องการยื่นเอกสารต่อพนักงานเจ้าหน้าที่ของศาล เพื่อยื่นต่อศาลหรือเพื่อส่งให้แก่คู่ความหรือบุคคลผู้ใดผู้หนึ่ง และในเรื่องการขอร้องด้วยวาจาเพื่อให้ศาลพิจารณาและชี้ขาดตัดสินคดีมโนสาเร่",
        "(จ) จัดวางระเบียบทางธุรการในเรื่องที่คู่ความฝ่ายหนึ่งจะส่งต้นฉบับเอกสารไปยังอีกฝ่ายหนึ่ง",
        "(ฉ) จัดวางระเบียบทางธุรการในเรื่องการยึดและอายัดและการจำหน่ายทรัพย์สินเป็นตัวเงินโดยวิธีการขายทอดตลาดหรือโดยวิธีอื่น และในเรื่องวิธีการบังคับคดีทางอื่น ๆ ที่เจ้าพนักงานบังคับคดีจะพึงปฏิบัติ",
        "กฎกระทรวงนั้น เมื่อได้ประกาศในราชกิจจานุเบกษาแล้ว ให้ใช้บังคับได้",
        "",
        "",
        "ผู้รับสนองพระบรมราชโองการ",
        "นายพันเอก พระยาพหลพลพยุหเสนา",
        "นายกรัฐมนตรี",
        "",
        "สารบาญ",
        "ประมวลกฎหมายวิธีพิจารณาความแพ่ง",
        "",
        "",
        "มาตรา",
        "",
        "ภาค ๑ บททั่วไป",
        "",
        "ลักษณะ ๑ บทวิเคราะห์ศัพท์ ๑",
        "",
        "ลักษณะ ๒ ศาล",
        "หมวด ๑ เขตอำนาจศาล ๒-๑๐",
        "หมวด ๒ การคัดค้านผู้พิพากษา ๑๑-๑๔",
        "หมวด ๓ อำนาจและหน้าที่ของศาล ๑๕-๓๔",
        "หมวด ๔ การนั่งพิจารณา ๓๕-๔๕",
        "หมวด ๕ รายงานและสำนวนความ ๔๖-๕๔",
        "",
        "ลักษณะ ๓ คู่ความ ๕๕-๖๖",
        "",
        "ลักษณะ ๔ การยื่นและส่งคำคู่ความและเอกสาร ๖๗-๘๓",
        "",
        "ลักษณะ ๕ พยานหลักฐาน",
        "หมวด ๑ หลักทั่วไป ๘๔-๑๐๕",
        "หมวด ๒ การมาศาลของพยานและการซักถามพยาน ๑๐๖-๑๒๑",
        "หมวด ๓ การนำพยานเอกสารมาสืบ ๑๒๒-๑๒๗",
        "หมวด ๔ การตรวจและการแต่งตั้งผู้เชี่ยวชาญโดยศาล ๑๒๘-๑๓๐",
        "",
        "ลักษณะ ๖ คำพิพากษาและคำสั่ง",
        "หมวด ๑ หลักทั่วไปว่าด้วยการชี้ขาดตัดสินคดี ๑๓๑-๑๓๙",
        "หมวด ๒ ข้อความและผลแห่งคำพิพากษาและคำสั่ง ๑๔๐-๑๔๘",
        "หมวด ๓ ค่าฤชาธรรมเนียม",
        "ส่วนที่ ๑ การกำหนดการชำระค่าฤชาธรรมเนียม",
        "และการดำเนินคดีอนาถา ๑๔๙-๑๖๐",
        "ส่วนที่ ๒ ความรับผิดในค่าฤชาธรรมเนียม ๑๖๑-๑๖๙",
        "",
        "ภาค ๒ วิธีพิจารณาในศาลชั้นต้น",
        "",
        "ลักษณะ ๑ วิธีพิจารณาสามัญในศาลชั้นต้น ๑๗๐-๑๘๘",
        "",
        "ลักษณะ ๒ วิธีพิจารณาสามัญในศาลชั้นต้น",
        "หมวด ๑ วิธีพิจารณาคดีมโนสาเร่ ๑๘๙-๑๙๖",
        "หมวด ๒ วิธีพิจารณาโดยขาดนัด ๑๙๗-๒๐๙",
        "หมวด ๓ อนุญาโตตุลาการ ๒๑๐-๒๒๒",
        "",
        "ภาค ๓ อุทธรณ์และฎีกา",
        "",
        "ลักษณะ ๑ อุทธรณ์ ๒๒๓-๒๔๖",
        "ลักษณะ ๒ ฎีกา ๒๔๗-๒๕๒",
        "",
        "",
        "ภาค ๔ วิธีการชั่วคราวก่อนพิพากษาและการบังคับตามคำพิพากษาหรือคำสั่ง",
        "",
        "ลักษณะ ๑ วิธีการชั่วคราวก่อนพิพากษา",
        "หมวด ๑ หลักทั่วไป ๒๕๓-๒๖๕",
        "หมวด ๒ คำขอในเหตุฉุกเฉิน ๒๖๖-๒๗๐",
        "",
        "ลักษณะ ๒ การบังคับตามคำพิพากษาและคำสั่ง",
        "หมวด ๑ หลักทั่วไป ๒๗๑-๓๐๒",
        "หมวด ๒ วิธียึดทรัพย์ อายัด และการจ่ายเงิน ๓๐๓-๓๒๒"
      ]
    ],
    []
  ],
  "metadata": {
    "date_header": "2477-03-07",
    "date_modified": "2535-03-04",
    "date_original": "2478-06-20",
    "doctype": "พระราชบัญญัติ",
    "editors": [],
    "tag": "bb04-20-2535-013u",
    "title": "ให้ใช้ประมวลกฎหมายวิธีพิจารณาความแพ่ง"
  }
}