{
  "pages": [
    [
      [
        "ข้อบังคับประธานศาลฎีกา",
        "ว่าด้วยการจ่ายค่าป่วยการ ค่าพาหนะเดินทาง และค่าเช่าที่พักแก่พยานที่ศาลเรียกมาเอง",
        "พ.ศ. ๒๕๖๐"
      ]
    ],
    []
  ],
  "metadata": {
    "date_backmatter": "2560-11-08",
    "date_modified": "2560-11-30",
    "date_original": "2560-11-30",
    "editors": [
      {
        "name": "พิมพ์มาดา/อัญชลี",
        "role": "จัดทำ",
        "date": "2560-12-04"
      },
      {
        "name": "ปริญสินีย์",
        "role": "ตรวจ",
        "date": "2561-02-19"
      }
    ],
    "tag": "bb04-2i-2560-a0003"
  }
}