{
  "pages": [
    [
      [
        "ประกาศอธิบดีกรมบังคับคดี",
        "เรื่อง การกำหนดภาคและจังหวัดที่อยู่ในแต่ละภาค"
      ]
    ],
    []
  ],
  "metadata": {
    "date_backmatter": "2554-11-25",
    "date_modified": "2554-12-16",
    "date_original": "2554-12-16",
    "doctype": "ประกาศ",
    "editors": [
      {
        "name": "ปริยานุช",
        "role": "ผู้จัดทำ",
        "date": "2554-12-20"
      },
      {
        "name": "ชาญ",
        "role": "ผู้ตรวจ",
        "date": "2554-12-20"
      }
    ],
    "tag": "bb04-2e-2554-a0010"
  }
}