{
  "pages": [
    [
      [
        "พระราชบัญญัติ",
        "แก้ไขเพิ่มเติมประมวลกฎหมายวิธีพิจารณาความแพ่ง (ฉบับที่ ๑๑)",
        "พ.ศ. ๒๕๓๐",
        "",
        "",
        "ภูมิพลอดุลยเดช ป.ร.",
        "ให้ไว้ ณ วันที่ ๓๐ กรกฎาคม พ.ศ. ๒๕๓๐",
        "เป็นปีที่ ๔๒ ในรัชกาลปัจจุบัน",
        "",
        "พระบาทสมเด็จพระปรมินทรมหาภูมิพลอดุลยเดช มีพระบรมราชโองการโปรดเกล้า ฯ ให้ประกาศว่า",
        "",
        "โดยที่เป็นการสมควรแก้ไขเพิ่มเติมประมวลกฎหมายวิธีพิจารณาความแพ่ง",
        "",
        "จึงทรงพระกรุณาโปรดเกล้า ฯ ให้ตราพระราชบัญญัติขึ้นไว้ โดยคำแนะนำและยินยอมของรัฐสภา ดังต่อไปนี้",
        "",
        "มาตรา ๑ พระราชบัญญัตินี้เรียกว่า “พระราชบัญญัติแก้ไขเพิ่มเติมประมวลกฎหมายวิธีพิจารณาความแพ่ง (ฉบับที่ ๑๑) พ.ศ. ๒๕๓๐”",
        "",
        "มาตรา ๒ พระราชบัญญัตินี้ให้ใช้บังคับตั้งแต่วันถัดจากวันประกาศในราชกิจจานุเบกษาเป็นต้นไป",
        "",
        "มาตรา ๓ ให้ยกเลิกความในมาตรา ๒๒๑ แห่งประมวลกฎหมายวิธีพิจารณาความแพ่งและให้ใช้ความต่อไปนี้แทน",
        "“มาตรา ๒๒๑ การเสนอข้อพิพาทให้อนุญาโตตุลาการชี้ขาดนอกศาล ให้เป็นไปตามกฎหมายว่าด้วยอนุญาโตตุลาการ”",
        "",
        "",
        "ผู้รับสนองพระบรมราชโองการ",
        "พลเอก ป. ติณสูลานนท์",
        "นายกรัฐมนตรี",
        "",
        "",
        "หมายเหตุ :- เหตุผลในการประกาศใช้พระราชบัญญัติฉบับนี้ คือ เนื่องจากได้มีการประกาศใช้กฎหมายว่าด้วยอนุญาโตตุลาการ ซึ่งเป็นกฎหมายที่บัญญัติถึงหลักเกณฑ์เกี่ยวกับการเสนอข้อพิพาท การพิจารณา การทำคำชี้ขาด และการบังคับตามคำชี้ขาดของอนุญาโตตุลาการนอกศาลไว้โดยเฉพาะแล้ว สมควรยกเลิกบทบัญญัติว่าด้วยอนุญาโตตุลาการนอกศาลในประมวลกฎหมายวิธีพิจารณาความแพ่ง (มาตรา ๒๒๑) จึงจำเป็นต้องตราพระราชบัญญัตินี้",
        "",
        "",
        "",
        "",
        "ภคินี/แก้ไข",
        "๖/๓/๒๕๔๕",
        "A+B",
        "",
        "วชิระ/ปรับปรุง",
        "๗ เมษายน ๒๕๕๓"
      ]
    ],
    []
  ],
  "metadata": {
    "date_header": "2530-07-30",
    "date_modified": "2530-08-12",
    "date_original": "2530-08-12",
    "doctype": "พระราชบัญญัติ",
    "editors": [],
    "tag": "bb04-20-2530-011",
    "title": "แก้ไขเพิ่มเติมประมวลกฎหมายวิธีพิจารณาความแพ่ง (ฉบับที่ ๑๑)"
  }
}