{
  "pages": [
    [
      [
        "พระราชบัญญัติ",
        "แก้ไขเพิ่มเติมประมวลกฎหมายวิธีพิจารณาความแพ่ง (ฉบับที่ ๑๒)",
        "พ.ศ. ๒๕๓๔",
        "",
        "",
        "ภูมิพลอดุลยเดช ป.ร.",
        "ให้ไว้ ณ วันที่ ๒๐ สิงหาคม พ.ศ. ๒๕๓๔",
        "เป็นปีที่ ๔๖ ในรัชกาลปัจจุบัน",
        "",
        "พระบาทสมเด็จพระปรมินทรมหาภูมิพลอดุลยเดช มีพระบรมราชโองการโปรดเกล้า ฯ ให้ประกาศว่า",
        "",
        "โดยที่เป็นการสมควรแก้ไขเพิ่มเติมประมวลกฎหมายวิธีพิจารณาความแพ่ง",
        "",
        "จึงทรงพระกรุณาโปรดเกล้า ฯ ให้ตราพระราชบัญญัติขึ้นไว้โดยคำแนะนำและยินยอมของสภานิติบัญญัติแห่งชาติ ดังต่อไปนี้",
        "",
        "มาตรา ๑ พระราชบัญญัตินี้เรียกว่า “พระราชบัญญัติแก้ไขเพิ่มเติมประมวลกฎหมายวิธีพิจารณาความแพ่ง (ฉบับที่ ๑๒) พ.ศ. ๒๕๓๔”",
        "",
        "มาตรา ๒ พระราชบัญญัตินี้ให้ใช้บังคับตั้งแต่วันถัดจากวันประกาศในราชกิจจานุเบกษาเป็นต้นไป เว้นแต่มาตรา ๘ มาตรา ๑๐ มาตรา ๑๑ มาตรา ๑๒ มาตรา ๑๓ มาตรา ๑๔ มาตรา ๑๕ มาตรา ๑๖ มาตรา ๑๘ และมาตรา ๑๙ ให้ใช้บังคับเมื่อพ้นกำหนดหกสิบวันนับแต่วันประกาศในราชกิจจานุเบกษาเป็นต้นไป",
        "",
        "มาตรา ๓ ให้ยกเลิกความในมาตรา ๓ และมาตรา ๔ แห่งประมวลกฎหมายวิธีพิจารณาความแพ่ง และให้ใช้ความต่อไปนี้แทน",
        "“มาตรา ๓ เพื่อประโยชน์ในการเสนอคำฟ้อง",
        "(๑) ในกรณีที่มูลคดีเกิดขึ้นในเรือไทยหรืออากาศยานไทยที่อยู่นอกราชอาณาจักร ให้ศาลแพ่งเป็นศาลที่มีเขตอำนาจ",
        "(๒) ในกรณีที่จำเลยไม่มีภูมิลำเนาอยู่ในราชอาณาจักร",
        "(ก) ถ้าจำเลยเคยมีภูมิลำเนาอยู่ ณ ที่ใดในราชอาณาจักรภายในกำหนดสองปีก่อนวันที่มีการเสนอคำฟ้อง ให้ถือว่าที่นั้นเป็นภูมิลำเนาของจำเลย",
        "(ข) ถ้าจำเลยประกอบหรือเคยประกอบกิจการทั้งหมดหรือแต่บางส่วนในราชอาณาจักรไม่ว่าโดยตนเองหรือตัวแทน หรือโดยมีบุคคลหนึ่งบุคคลใดเป็นผู้ติดต่อในการประกอบกิจการนั้นในราชอาณาจักร ให้ถือว่าสถานที่ที่ใช้หรือเคยใช้ประกอบกิจการหรือติดต่อดังกล่าว หรือสถานที่อันเป็นถิ่นที่อยู่ของตัวแทนหรือของผู้ติดต่อในวันที่มีการเสนอคำฟ้องหรือภายในกำหนดสองปีก่อนนั้น เป็นภูมิลำเนาของจำเลย",
        "มาตรา ๔ เว้นแต่จะมีบทบัญญัติเป็นอย่างอื่น",
        "(๑) คำฟ้องให้เสนอต่อศาลที่จำเลยมีภูมิลำเนาอยู่ในเขตศาล หรือต่อศาลที่มูลคดีเกิดขึ้นในเขตศาลไม่ว่าจำเลยจะมีภูมิลำเนาอยู่ในราชอาณาจักรหรือไม่",
        "(๒) คำร้องขอ ให้เสนอต่อศาลที่มูลคดีเกิดขึ้นในเขตศาล หรือต่อศาลที่ผู้ร้องมีภูมิลำเนาอยู่ในเขตศาล”",
        "",
        "มาตรา ๔ ให้เพิ่มความต่อไปนี้เป็นมาตรา ๔ ทวิ มาตรา ๔ ตรี มาตรา ๔ จัตวา มาตรา ๔ เบญจ และมาตรา ๔ ฉ แห่งประมวลกฎหมายวิธีพิจารณาความแพ่ง",
        "“มาตรา ๔ ทวิ คำฟ้องเกี่ยวด้วยอสังหาริมทรัพย์ หรือสิทธิหรือประโยชน์อันเกี่ยวด้วยอสังหาริมทรัพย์ ให้เสนอต่อศาลที่อสังหาริมทรัพย์นั้นตั้งอยู่ในเขตศาล ไม่ว่าจำเลยจะมีภูมิลำเนาอยู่ในราชอาณาจักรหรือไม่ หรือต่อศาลที่จำเลยมีภูมิลำเนาอยู่ในเขตศาล",
        "มาตรา ๔ ตรี คำฟ้องอื่นนอกจากที่บัญญัติไว้ในมาตรา ๔ ทวิ ซึ่งจำเลยมิได้มีภูมิลำเนาอยู่ในราชอาณาจักรและมูลคดีมิได้เกิดขึ้นในราชอาณาจักร ถ้าโจทก์เป็นผู้มีสัญชาติไทยหรือมีภูมิลำเนาอยู่ในราชอาณาจักร ให้เสนอต่อศาลแพ่งหรือต่อศาลที่โจทก์มีภูมิลำเนาอยู่ในเขตศาล",
        "คำฟ้องตามวรรคหนึ่ง ถ้าจำเลยมีทรัพย์สินที่อาจถูกบังคับคดีได้อยู่ในราชอาณาจักร ไม่ว่าจะเป็นการชั่วคราวหรือถาวร โจทก์จะเสนอคำฟ้องต่อศาลที่ทรัพย์สินนั้นอยู่ในเขตศาลก็ได้",
        "มาตรา ๔ จัตวา คำร้องขอแต่งตั้งผู้จัดการมรดก ให้เสนอต่อศาลที่เจ้ามรดกมีภูมิลำเนาอยู่ในเขตศาลในขณะถึงแก่ความตาย",
        "ในกรณีที่เจ้ามรดกไม่มีภูมิลำเนาอยู่ในราชอาณาจักร ให้เสนอต่อศาลที่ทรัพย์มรดกอยู่ในเขตศาล",
        "มาตรา ๔ เบญจ คำร้องขอเพิกถอนมติของที่ประชุมหรือที่ประชุมใหญ่ของนิติบุคคล คำร้องขอเลิกนิติบุคคล คำร้องขอตั้งหรือถอนผู้ชำระบัญชีของนิติบุคคล หรือคำร้องขออื่นใดเกี่ยวกับนิติบุคคล ให้เสนอต่อศาลที่นิติบุคคลนั้นมีสำนักงานแห่งใหญ่อยู่ในเขตศาล",
        "มาตรา ๔ ฉ คำร้องขอเกี่ยวกับทรัพย์สินที่อยู่ในราชอาณาจักรก็ดี คำร้องขอที่หากศาลมีคำสั่งตามคำร้องขอนั้นจะเป็นผลให้ต้องจัดการหรือเลิกจัดการทรัพย์สินที่อยู่ในราชอาณาจักรก็ดีซึ่งมูลคดีมิได้เกิดขึ้นในราชอาณาจักรและผู้ร้องไม่มีภูมิลำเนาอยู่ในราชอาณาจักร ให้เสนอต่อศาลที่ทรัพย์สินดังกล่าวอยู่ในเขตศาล”",
        "",
        "มาตรา ๕ ให้ยกเลิกความในมาตรา ๕ มาตรา ๖ และมาตรา ๗ แห่งประมวลกฎหมายวิธีพิจารณาความแพ่ง และให้ใช้ความต่อไปนี้แทน",
        "“มาตรา ๕ คำฟ้องหรือคำร้องขอซึ่งอาจเสนอต่อศาลได้สองศาลหรือกว่านั้น ไม่ว่าจะเป็นเพราะภูมิลำเนาของบุคคลก็ดี เพราะที่ตั้งของทรัพย์สินก็ดี เพราะสถานที่ที่เกิดมูลคดีก็ดี หรือเพราะมีข้อหาหลายข้อก็ดี ถ้ามูลความแห่งคดีเกี่ยวข้องกัน โจทก์หรือผู้ร้องจะเสนอคำฟ้องหรือคำร้องขอต่อศาลใดศาลหนึ่งเช่นว่านั้นก็ได้",
        "มาตรา ๖ ก่อนยื่นคำให้การ จำเลยชอบที่จะยื่นคำร้องต่อศาลที่โจทก์ได้ยื่นคำฟ้องไว้ขอให้โอนคดีไปยังศาลอื่นที่มีเขตอำนาจได้ คำร้องนั้นจำเลยต้องแสดงเหตุที่ยกขึ้นอ้างอิงว่าการพิจารณาคดีต่อไปในศาลนั้นจะไม่สะดวก หรือจำเลยอาจไม่ได้รับความยุติธรรม เมื่อศาลเห็นสมควร ศาลจะมีคำสั่งอนุญาตตามคำร้องนั้นก็ได้",
        "ห้ามมิให้ศาลออกคำสั่งอนุญาตตามวรรคหนึ่ง เว้นแต่ศาลที่จะรับโอนคดีไปนั้นได้ยินยอมเสียก่อน ถ้าศาลที่จะรับโอนคดีไม่ยินยอม ก็ให้ศาลที่จะโอนคดีนั้นส่งเรื่องให้อธิบดีผู้พิพากษาศาลอุทธรณ์ชี้ขาด คำสั่งของอธิบดีผู้พิพากษาศาลอุทธรณ์ให้เป็นที่สุด",
        "มาตรา ๗ บทบัญญัติในมาตรา ๔ มาตรา ๔ ทวิ มาตรา ๔ ตรี มาตรา ๔ จัตวา มาตรา ๔ เบญจ มาตรา ๔ ฉ มาตรา ๕ และมาตรา ๖ ต้องอยู่ภายใต้บังคับแห่งบทบัญญัติดังต่อไปนี้",
        "(๑) คำฟ้องหรือคำร้องขอที่เสนอภายหลังเกี่ยวเนื่องกับคดีที่ค้างพิจารณาอยู่ในศาลใด ให้เสนอต่อศาลนั้น",
        "(๒) คำฟ้องหรือคำร้องขอที่เสนอเกี่ยวเนื่องกับการบังคับคดีตามคำพิพากษา หรือคำสั่งของศาลซึ่งคำฟ้องหรือคำร้องขอนั้นจำต้องมีคำวินิจฉัยของศาลก่อนที่การบังคับคดีจะได้ดำเนินไปได้โดยครบถ้วนและถูกต้องนั้น ให้เสนอต่อศาลที่มีอำนาจในการบังคับคดี ตามมาตรา ๓๐๒",
        "(๓) คำร้องตามมาตรา ๑๐๑ ถ้าได้เสนอคำฟ้องหรือคำร้องขอต่อศาลใดแล้วให้เสนอต่อศาลนั้น ในกรณีที่ยังไม่ได้เสนอคำฟ้องหรือคำร้องขอต่อศาลใด ถ้าพยานหลักฐานซึ่งจะเรียกมาสืบหรือบุคคลหรือทรัพย์หรือสถานที่ที่จะต้องตรวจอยู่ในเขตศาลใด ให้เสนอต่อศาลนั้น",
        "(๔) คำร้องที่เสนอให้ศาลถอนคืนหรือเปลี่ยนแปลงคำสั่งหรือการอนุญาตที่ศาลได้ให้ไว้ก็ดี คำร้องที่เสนอให้ศาลถอดถอนบุคคลใดจากฐานะที่ศาลได้แต่งตั้งไว้ก็ดีคำร้องที่เสนอให้ศาลมีคำสั่งใดที่เกี่ยวกับการถอนคืนหรือเปลี่ยนแปลงคำสั่งหรือการอนุญาตหรือที่เกี่ยวกับการแต่งตั้งเช่นว่านั้นก็ดี คำร้องขอหรือคำร้องอื่นใดที่เสนอเกี่ยวเนื่องกับคดีที่ศาลได้มีคำพิพากษาหรือคำสั่งไปแล้วก็ดี ให้เสนอต่อศาลในคดีที่ได้มีคำสั่งการอนุญาตการแต่งตั้ง หรือคำพิพากษานั้น”",
        "",
        "มาตรา ๖ ให้เพิ่มความต่อไปนี้เป็นมาตรา ๘๓ ทวิ มาตรา ๘๓ ตรี มาตรา ๘๓ จัตวา มาตรา ๘๓ เบญจ มาตรา ๘๓ ฉ มาตรา ๘๓ สัตต และมาตรา ๘๓ อัฎฐ แห่งประมวลกฎหมายวิธีพิจารณาความแพ่ง",
        "“มาตรา ๘๓ ทวิ ในกรณีที่จำเลยไม่มีภูมิลำเนาอยู่ในราชอาณาจักรให้ส่งหมายเรียกและคำฟ้องตั้งต้นคดีแก่จำเลย ณ ภูมิลำเนาหรือสำนักทำการงานของจำเลยนอกราชอาณาจักร เว้นแต่ในกรณีที่จำเลยประกอบกิจการในราชอาณาจักรด้วยตนเองหรือโดยตัวแทน หรือในกรณีที่มีการตกลงเป็นหนังสือว่าคำคู่ความและเอกสารที่จะต้องส่งให้แก่จำเลยนั้น ให้ส่งแก่ตัวแทนซึ่งมีถิ่นที่อยู่ในราชอาณาจักรที่จำเลยได้แต่งตั้งไว้เพื่อการนี้ให้ส่งหมายเรียกและคำฟ้องตั้งต้นคดีแก่จำเลยหรือตัวแทนในการประกอบกิจการหรือตัวแทนในการรับคำคู่ความและเอกสาร ณ สถานที่ที่จำเลยหรือตัวแทนใช้ประกอบกิจการหรือสถานที่อันเป็นถิ่นที่อยู่ของตัวแทนในการประกอบกิจการหรือของตัวแทนในการรับคำคู่ความและเอกสาร ซึ่งตั้งอยู่ในราชอาณาจักร แล้วแต่กรณี",
        "ในกรณีที่มีการเรียกบุคคลภายนอกซึ่งไม่มีภูมิลำเนาอยู่ในราชอาณาจักรเข้ามาเป็นคู่ความตามมาตรา ๕๗ (๓) ให้นำความในวรรคหนึ่งมาใช้บังคับโดยอนุโลม",
        "มาตรา ๘๓ ตรี การส่งคำร้องขอฟ้องคดีอย่างคนอนาถา คำคู่ความ คำร้อง คำแถลง หรือเอกสารอื่นใดนอกจากที่บัญญัติไว้ในมาตรา ๘๓ ทวิ ถ้าผู้รับไม่มีภูมิลำเนาอยู่ในราชอาณาจักร แต่ประกอบกิจการในราชอาณาจักรด้วยตนเองหรือโดยตัวแทน หรือมีตัวแทนในการรับคำคู่ความและเอกสารหรือทนายความในการดำเนินคดีอยู่ในราชอาณาจักร ให้ส่งแก่ผู้รับหรือตัวแทนเช่นว่านั้น หรือทนายความ ณ สถานที่ที่ผู้รับหรือตัวแทนใช้ประกอบกิจการหรือสถานที่อันเป็นถิ่นที่อยู่ของตัวแทน หรือภูมิลำเนาหรือสำนักทำการงานของทนายความซึ่งตั้งอยู่ในราชอาณาจักร แล้วแต่กรณี แต่ถ้าผู้รับมิได้ประกอบกิจการในราชอาณาจักรด้วยตนเอง หรือไม่มีตัวแทนดังกล่าวหรือทนายความอยู่ในราชอาณาจักร ให้ส่งโดยวิธีปิดประกาศไว้ที่ศาล",
        "มาตรา ๘๓ จัตวา ในกรณีที่จะต้องส่งหมายเรียกและคำฟ้องตั้งต้นคดีตาม มาตรา ๘๓ ทวิ แก่จำเลย ณ ภูมิลำเนาหรือสำนักทำการงานของจำเลยนอกราชอาณาจักร ให้โจทก์ยื่นคำร้องต่อศาลภายในกำหนดเจ็ดวันนับแต่วันยื่นคำฟ้อง เพื่อให้ศาลจัดส่งหมายเรียกและคำฟ้องตั้งต้นคดีแก่จำเลย ในกรณีเช่นว่านี้ ถ้าไม่มีข้อตกลงระหว่างประเทศที่ประเทศไทยเป็นภาคีกำหนดไว้เป็นอย่างอื่น ให้โจทก์ทำคำแปลหมายเรียก คำฟ้องตั้งต้นคดีและเอกสารอื่นใดที่จะส่งไปยังประเทศที่จำเลยมีภูมิลำเนาหรือสำนักทำการงานอยู่ เป็นภาษาราชการของประเทศนั้นหรือเป็นภาษาอังกฤษ พร้อมทั้งคำรับรองคำแปลว่าถูกต้องยื่นต่อศาลพร้อมกับคำร้องดังกล่าว และวางเงินค่าใช้จ่ายไว้ต่อศาลตามจำนวนและภายในระยะเวลาที่ศาลกำหนด",
        "ในกรณีที่ศาลเห็นสมควร ศาลจะมีคำสั่งให้โจทก์จัดทำเอกสารอื่นเพิ่มเติมยื่นต่อศาลภายในระยะเวลาที่ศาลกำหนดก็ได้",
        "ในกรณีที่โจทก์เพิกเฉยไม่ดำเนินการตามวรรคหนึ่งหรือวรรคสอง ให้ถือว่าโจทก์ทิ้งฟ้องตามมาตรา ๑๗๔",
        "ในกรณีที่มีการเรียกบุคคลภายนอกซึ่งไม่มีภูมิลำเนาอยู่ในราชอาณาจักรเข้ามาเป็นคู่ความตามมาตรา ๕๗ (๓) ให้นำความในวรรคหนึ่ง วรรคสอง และวรรคสาม มาใช้บังคับโดยอนุโลม",
        "มาตรา ๘๓ เบญจ การส่งหมายเรียกและคำฟ้องตั้งต้นคดีตามมาตรา ๘๓ ทวิแก่จำเลยหรือบุคคลภายนอก ณ ภูมิลำเนาหรือสำนักทำการงานของบุคคลดังกล่าวนอกราชอาณาจักร ให้มีผลใช้ได้ต่อเมื่อพ้นกำหนดเวลาหกสิบวันนับแต่วันที่ได้มีการส่งและในกรณีส่งโดยวิธีอื่นแทนการส่งให้แก่จำเลยหรือบุคคลภายนอก ให้มีผลใช้ได้ต่อเมื่อพ้นกำหนดเวลาเจ็ดสิบห้าวันนับแต่วันที่ได้มีการส่งโดยวิธีอื่น",
        "มาตรา ๘๓ ฉ การส่งหมายเรียกและคำฟ้องตั้งต้นคดีตามมาตรา ๘๓ ทวิ แก่จำเลยหรือตัวแทนซึ่งประกอบกิจการในราชอาณาจักรหรือตัวแทนในการรับคำคู่ความและเอกสาร ให้มีผลใช้ได้ต่อเมื่อพ้นกำหนดเวลาสามสิบวันนับแต่วันที่ได้มีการส่งโดยชอบด้วยกฎหมาย",
        "การส่งคำคู่ความหรือเอกสารอื่นตามมาตรา ๘๓ ตรี แก่ผู้รับหรือตัวแทนหรือทนายความ ให้มีผลใช้ได้ต่อเมื่อพ้นกำหนดเวลาสิบห้าวันนับแต่วันที่ได้มีการส่งโดยชอบด้วยกฎหมาย",
        "การปิดประกาศตามมาตรา ๘๓ ตรี ให้มีผลใช้ได้ต่อเมื่อพ้นกำหนดเวลาสามสิบวันนับแต่วันปิดประกาศ และมิให้นำบทบัญญัติมาตรา ๗๙ มาใช้บังคับ",
        "มาตรา ๘๓ สัตต เมื่อโจทก์ได้ปฏิบัติตามมาตรา ๘๓ จัตวา แล้ว ถ้าไม่มีข้อตกลงระหว่างประเทศที่ประเทศไทยเป็นภาคีกำหนดไว้เป็นอย่างอื่น ให้ศาลดำเนินการส่งให้แก่จำเลยหรือบุคคลภายนอกโดยผ่านกระทรวงยุติธรรมและกระทรวงการต่างประเทศ",
        "มาตรา ๘๓ อัฎฐ ในกรณีที่จะต้องส่งหมายเรียกและคำฟ้องตั้งต้นคดีตามมาตรา ๘๓ ทวิ แก่จำเลยหรือบุคคลภายนอก ณ ภูมิลำเนาหรือสำนักทำการงานของบุคคลดังกล่าวนอกราชอาณาจักร ถ้าโจทก์ยื่นคำขอฝ่ายเดียวโดยทำเป็นคำร้องและสามารถแสดงให้เป็นที่พอใจแก่ศาลได้ว่าการส่งตามมาตรา ๘๓ สัตต ไม่อาจกระทำได้ เพราะเหตุที่ภูมิลำเนาและสำนักทำการงานของบุคคลดังกล่าวไม่ปรากฏหรือเพราะเหตุอื่นใด หรือเมื่อศาลได้ดำเนินการตามมาตรา ๘๓ สัตต เป็นเวลาหนึ่งร้อยแปดสิบวันแล้ว แต่ยังมิได้รับแจ้งผลการส่ง ถ้าศาลเห็นสมควร ก็ให้ศาลอนุญาตให้ส่งโดยวิธีปิดประกาศไว้ที่ศาลแทน ในกรณีเช่นว่านี้ ศาลจะสั่งให้ส่งโดยวิธีประกาศโฆษณาในหนังสือพิมพ์หรือโดยวิธีอื่นใดด้วยก็ได้",
        "การส่งโดยวิธีการตามวรรคหนึ่ง ให้มีผลใช้ได้ต่อเมื่อพ้นกำหนดเวลาหกสิบวันนับแต่วันที่ปิดประกาศไว้ที่ศาล และมิให้นำบทบัญญัติมาตรา ๗๙ มาใช้บังคับ”",
        "",
        "มาตรา ๗ ให้เพิ่มความต่อไปนี้เป็นวรรคสามของมาตรา ๑๐๑ แห่งประมวลกฎหมายวิธีพิจารณาความแพ่ง",
        "“ในกรณีที่คู่ความอีกฝ่ายหนึ่งหรือบุคคลภายนอกที่เกี่ยวข้องไม่มีภูมิลำเนาอยู่ในราชอาณาจักรและยังมิได้เข้ามาในคดีนั้น เมื่อศาลได้รับคำขอตามวรรคหนึ่ง ให้ศาลสั่งคำขอนั้นอย่างคำขออันอาจทำได้แต่ฝ่ายเดียว ถ้าศาลสั่งอนุญาตตามคำขอแล้วให้สืบพยานไปฝ่ายเดียว”",
        "",
        "มาตรา ๘ ให้เพิ่มความต่อไปนี้เป็น (๖) ของมาตรา ๑๔๒ แห่งประมวลกฎหมายวิธีพิจารณาความแพ่ง",
        "“(๖) ในคดีที่โจทก์ฟ้องขอให้ชำระเงินพร้อมด้วยดอกเบี้ยซึ่งมิได้มีข้อตกลงกำหนดอัตราดอกเบี้ยกันไว้ เมื่อศาลเห็นสมควรโดยคำนึงถึงเหตุสมควรและความสุจริตในการสู้ความหรือการดำเนินคดี ศาลจะพิพากษาให้จำเลยชำระดอกเบี้ยในอัตราที่สูงขึ้นกว่าที่โจทก์มีสิทธิได้รับตามกฎหมายแต่ไม่เกินร้อยละสิบห้าต่อปีนับตั้งแต่วันฟ้องหรือวันอื่นหลังจากนั้นก็ได้”",
        "",
        "มาตรา ๙ ให้ยกเลิกความในวรรคสองและวรรคสามของมาตรา ๑๕๖ แห่งประมวลกฎหมายวิธีพิจารณาความแพ่ง ซึ่งแก้ไขเพิ่มเติมโดยพระราชบัญญัติแก้ไขเพิ่มเติมประมวลกฎหมายวิธีพิจารณาความแพ่ง (ฉบับที่ ๕) พ.ศ. ๒๔๙๙ และให้ใช้ความต่อไปนี้แทน",
        "“เมื่อพนักงานเจ้าหน้าที่ได้จดถ้อยคำสาบานของผู้ขอฟ้องหรือต่อสู้คดีอย่างคนอนาถาแล้ว ให้ศาลจัดส่งสำเนาถ้อยคำเช่นว่านั้นไปให้คู่ความอีกฝ่ายหนึ่ง พร้อมด้วยสำเนาคำขอฟ้องหรือต่อสู้คดีอย่างคนอนาถา และถ้าโจทก์เป็นผู้ยื่นคำขอเช่นว่านั้นให้ส่งสำเนาคำฟ้องไปด้วย แต่ถ้าเป็นกรณีขอฟ้องคดีอย่างคนอนาถาซึ่งจำเลยไม่มีภูมิลำเนาอยู่ในราชอาณาจักร ให้ดำเนินการตามมาตรา ๘๓ ตรี",
        "เมื่อศาลได้ฟังคู่ความทุกฝ่ายและทำการไต่สวนตามที่เห็นสมควรแล้ว ให้ศาลมีคำสั่งอนุญาตหรือยกคำขอนั้นเสีย เว้นแต่ในกรณีขอฟ้องคดีอย่างคนอนาถา ซึ่งจำเลยไม่มีภูมิลำเนาอยู่ในราชอาณาจักร ให้ศาลพิจารณาคำขอนั้นอย่างคำขอ อันอาจทำได้แต่ฝ่ายเดียว ถ้าศาลอนุญาตตามคำขอ คำสั่งอนุญาตนั้นให้เป็นที่สุด”",
        "",
        "มาตรา ๑๐ ให้ยกเลิกความในมาตรา ๑๘๙ แห่งประมวลกฎหมายวิธีพิจารณาความแพ่ง ซึ่งแก้ไขเพิ่มเติมโดยพระราชบัญญัติแก้ไขเพิ่มเติมประมวลกฎหมายวิธีพิจารณาความแพ่ง (ฉบับที่ ๕) พ.ศ. ๒๔๙๙ และให้ใช้ความต่อไปนี้แทน",
        "“มาตรา ๑๘๙ คดีมโนสาเร่ คือ",
        "(๑) คดีที่มีคำขอให้ปลดเปลื้องทุกข์อันอาจคำนวณเป็นราคาเงินได้ไม่เกินสี่หมื่นบาทหรือไม่เกินจำนวนที่กำหนดในพระราชกฤษฎีกา",
        "(๒) คดีฟ้องขับไล่บุคคลใด ๆ ออกจากอสังหาริมทรัพย์อันมีค่าเช่าหรืออาจให้เช่าได้ในขณะยื่นคำฟ้องไม่เกินเดือนละสี่พันบาทหรือไม่เกินจำนวนที่กำหนดในพระราชกฤษฎีกา”",
        "",
        "มาตรา ๑๑ ให้ยกเลิกความใน (๓) ของมาตรา ๑๙๐ แห่งประมวลกฎหมายวิธีพิจารณาความแพ่ง และให้ใช้ความต่อไปนี้แทน",
        "“(๓) คดีอันเกี่ยวด้วยทรัพย์สินที่มีข้อหาหลายข้อ อันมีจำนวนทุนทรัพย์หรือราคาไม่เกินสี่หมื่นบาท หรือไม่เกินจำนวนที่กำหนดในพระราชกฤษฎีกา ให้รวมจำนวนทุนทรัพย์หรือราคาเหล่านั้นเข้าด้วยกัน แต่ถ้าข้อหาเหล่านั้นจะต้องเรียกร้องเอาแก่จำเลยหลายคน ถึงแม้ว่าถ้ารวมความรับผิดของจำเลยหลายคนนั้นเข้าด้วยกันแล้วจะไม่เป็นคดีมโนสาเร่ก็ตาม ให้ถือเอาจำนวนที่เรียกร้องเอาจากจำเลยคนหนึ่ง ๆ นั้น เป็นประมาณแก่การที่จะถือว่าคดีนั้นเป็นคดีมโนสาเร่หรือไม่”",
        "",
        "มาตรา ๑๒ ให้ยกเลิกความในมาตรา ๑๙๖ แห่งประมวลกฎหมายวิธีพิจารณาความแพ่ง และให้ใช้ความต่อไปนี้แทน",
        "“มาตรา ๑๙๖ ในคดีสามัญซึ่งโจทก์ฟ้องเพียงขอให้ชำระเงินจำนวนแน่นอนตามตั๋วเงินซึ่งการรับรองหรือการชำระเงินตามตั๋วเงินนั้นได้ถูกปฏิเสธ หรือตามสัญญาเป็นหนังสือซึ่งปรากฏในเบื้องต้นว่าเป็นสัญญาอันแท้จริง มีความสมบูรณ์และบังคับได้ตามกฎหมาย โจทก์จะยื่นคำขอโดยทำเป็นคำร้องต่อศาลพร้อมกับคำฟ้องขอให้ศาลพิจารณาคดีนั้นโดยรวบรัดก็ได้",
        "ถ้าศาลเห็นว่าคดีนั้นปรากฏในเบื้องต้นว่าเป็นคดีไม่มีข้อยุ่งยาก ไม่ว่าโจทก์จะได้ยื่นคำขอตามวรรคหนึ่งหรือไม่ ก็ให้ศาลมีคำสั่งพิจารณาคดีนั้นตามข้อบังคับที่บัญญัติไว้ในหมวดนี้ว่าด้วยคดีมโนสาเร่ ภายในบังคับต่อไปนี้",
        "(๑) ให้ศาลออกหมายเรียกไปยังจำเลย แสดงจำนวนเงินที่เรียกร้องและเหตุแห่งการเรียกร้องและให้จำเลยมาศาลและให้การในวันใดวันหนึ่งตามที่ศาลเห็นสมควรกำหนดไม่เกินห้าวันนับแต่วันส่งหมายนั้นโดยมิให้เป็นการเสียหายแก่การต่อสู้คดี",
        "(๒) ถ้าจำเลยมาศาล ให้ศาลจดคำแถลงของจำเลยลงไว้ในรายงานพิสดารและถ้าศาลได้พิจารณาคำแถลงและคำให้การของจำเลยแล้ว เห็นว่าจำเลยไม่มีเหตุต่อสู้คดีนั้นก็ให้ศาลพิพากษาคดีนั้นโดยเร็วเท่าที่พึงกระทำได้ แต่ถ้าปรากฏต่อศาลว่าจำเลยอาจมีข้อต่อสู้อันสมควร ก็ให้ศาลดำเนินการพิจารณาไปโดยไม่ชักช้า และฟังคำพยานทั้งสองฝ่ายก่อนพิพากษา",
        "(๓) ถ้าจำเลยได้รับหมายเรียกของศาลแล้วไม่มาศาลตามกำหนดนัดให้ศาลมีคำสั่งโดยไม่ชักช้าว่าจำเลยขาดนัดพิจารณา แล้วให้ศาลพิจารณาคดีไปฝ่ายเดียว และพิพากษาโดยเร็วเท่าที่พึงกระทำได้",
        "คดีอันอยู่ภายใต้บังคับแห่งบทบัญญัติมาตรานี้ ห้ามมิให้ศาลอนุญาตตามคำขอของจำเลยเพื่อเลื่อนเวลายื่นคำให้การ หรือเพื่อเลื่อนคดี เว้นแต่จำเลยจะแสดงให้เป็นที่พอใจแก่ศาลว่าคำขอของตนมีเหตุผลดี และสันนิษฐานได้ในเบื้องต้นว่าจำเลยมีข้อต่อสู้คดีอันสมควร หรือเมื่อศาลเห็นว่าโดยพฤติการณ์นอกเหนือไม่อาจบังคับได้เป็นการพ้นวิสัยที่จำเลยจะมาศาลหรือยื่นคำให้การก่อนหรือในวันที่กำหนดไว้ได้",
        "ถ้าในระหว่างการพิจารณาปรากฏว่าคดีไม่ตกอยู่ภายใต้บังคับแห่งมาตรานี้ศาลอาจมีคำสั่งเพิกถอนคำสั่งเดิม แล้วดำเนินการพิจารณาต่อไปตามข้อบังคับแห่งคดีสามัญได้”",
        "",
        "มาตรา ๑๓ ให้เพิ่มความต่อไปนี้เป็นมาตรา ๒๒๓ ทวิ แห่งประมวลกฎหมายวิธีพิจารณาความแพ่ง",
        "“มาตรา ๒๒๓ ทวิ ในกรณีที่มีการอุทธรณ์เฉพาะปัญหาข้อกฎหมาย ผู้อุทธรณ์อาจขออนุญาตยื่นอุทธรณ์โดยตรงต่อศาลฎีกา โดยทำเป็นคำร้องมาพร้อมคำฟ้องอุทธรณ์ เมื่อศาลชั้นต้นซึ่งมีคำพิพากษาหรือคำสั่งได้สั่งรับอุทธรณ์และส่งสำเนาคำฟ้องอุทธรณ์และคำร้องแก่จำเลยอุทธรณ์แล้ว หากไม่มีคู่ความอื่นยื่นอุทธรณ์ต่อศาลอุทธรณ์ตามมาตรา ๒๒๓ และจำเลยอุทธรณ์มิได้คัดค้านคำร้องดังกล่าวต่อศาลภายในกำหนดเวลายื่นคำแก้อุทธรณ์ และศาลชั้นต้นเห็นว่าเป็นการอุทธรณ์เฉพาะปัญหาข้อกฎหมาย ให้สั่งอนุญาตให้ผู้อุทธรณ์ยื่นอุทธรณ์โดยตรงต่อศาลฎีกาได้ มิฉะนั้นให้สั่งยกคำร้อง ในกรณีที่ศาลชั้นต้นสั่งยกคำร้อง ให้ถือว่าอุทธรณ์เช่นว่านั้นได้ยื่นต่อศาลอุทธรณ์ตามมาตรา ๒๒๓ คำสั่งของศาลชั้นต้นที่อนุญาตหรือยกคำร้องในกรณีนี้ให้เป็นที่สุด เว้นแต่ในกรณีที่ศาลชั้นต้นสั่งยกคำร้องเพราะเห็นว่าเป็นการอุทธรณ์ในปัญหาข้อเท็จจริง ผู้อุทธรณ์อาจอุทธรณ์คำสั่งศาลชั้นต้นไปยังศาลฎีกาภายในกำหนดสิบห้าวันนับแต่วันที่ศาลชั้นต้นได้มีคำสั่ง",
        "ถ้าศาลฎีกาเห็นว่าอุทธรณ์ตามวิธีการในวรรคหนึ่งเป็นอุทธรณ์ในปัญหาข้อเท็จจริง ให้ศาลฎีกาส่งสำนวนไปให้ศาลอุทธรณ์วินิจฉัยชี้ขาดต่อไป”",
        "",
        "มาตรา ๑๔ ให้ยกเลิกความในมาตรา ๒๒๔ แห่งประมวลกฎหมายวิธีพิจารณาความแพ่ง ซึ่งแก้ไขเพิ่มเติมโดยพระราชบัญญัติแก้ไขเพิ่มเติมประมวลกฎหมายวิธีพิจารณาความแพ่ง (ฉบับที่ ๖) พ.ศ. ๒๕๑๘ และให้ใช้ความต่อไปนี้แทน",
        "“มาตรา ๒๒๔ ในคดีที่ราคาทรัพย์สินหรือจำนวนทุนทรัพย์ที่พิพาทกันในชั้นอุทธรณ์ไม่เกินห้าหมื่นบาทหรือไม่เกินจำนวนที่กำหนดในพระราชกฤษฎีกา ห้ามมิให้คู่ความอุทธรณ์ในข้อเท็จจริง เว้นแต่ผู้พิพากษาที่นั่งพิจารณาคดีนั้นในศาลชั้นต้นได้ทำความเห็นแย้งไว้หรือได้รับรองว่ามีเหตุอันควรอุทธรณ์ได้ หรือถ้าไม่มีความเห็นแย้งหรือคำรับรองเช่นว่านี้ต้องได้รับอนุญาตให้อุทธรณ์เป็นหนังสือจากอธิบดีผู้พิพากษาศาลชั้นต้นหรืออธิบดีผู้พิพากษาภาคผู้มีอำนาจ แล้วแต่กรณี",
        "บทบัญญัติในวรรคหนึ่งมิให้ใช้บังคับในคดีเกี่ยวด้วยสิทธิแห่งสภาพบุคคลหรือสิทธิในครอบครัวและคดีฟ้องขอให้ปลดเปลื้องทุกข์อันไม่อาจคำนวณเป็นราคาเงินได้ เว้นแต่ในคดีฟ้องขับไล่บุคคลใด ๆ ออกจากอสังหาริมทรัพย์อันมีค่าเช่าหรืออาจให้เช่าได้ในขณะยื่นคำฟ้องไม่เกินเดือนละสี่พันบาทหรือไม่เกินจำนวนที่กำหนดในพระราชกฤษฎีกา",
        "การขอให้ผู้พิพากษาที่นั่งพิจารณาคดีในศาลชั้นต้นรับรองว่ามีเหตุอันควรอุทธรณ์ได้ ให้ผู้อุทธรณ์ยื่นคำร้องถึงผู้พิพากษานั้นพร้อมกับคำฟ้องอุทธรณ์ต่อศาลชั้นต้น เมื่อศาลได้รับคำร้องเช่นว่านั้น ให้ศาลส่งคำร้องพร้อมด้วยสำนวนความไปยังผู้พิพากษาดังกล่าวเพื่อพิจารณารับรอง”",
        "",
        "มาตรา ๑๕ ให้ยกเลิกความในมาตรา ๒๒๕ แห่งประมวลกฎหมายวิธีพิจารณาความแพ่ง ซึ่งแก้ไขเพิ่มเติมโดยพระราชบัญญัติแก้ไขเพิ่มเติมประมวลกฎหมายวิธีพิจารณาความแพ่ง (ฉบับที่ ๖) พ.ศ. ๒๕๑๘ และให้ใช้ความต่อไปนี้แทน",
        "“มาตรา ๒๒๕ ข้อเท็จจริงหรือข้อกฎหมายที่จะยกขึ้นอ้างในการยื่นอุทธรณ์นั้นคู่ความจะต้องกล่าวไว้โดยชัดแจ้งในอุทธรณ์และต้องเป็นข้อที่ได้ยกขึ้นว่ากันมาแล้วโดยชอบในศาลชั้นต้น ทั้งจะต้องเป็นสาระแก่คดีอันควรได้รับการวินิจฉัยด้วย",
        "ถ้าคู่ความฝ่ายใดมิได้ยกปัญหาข้อใดอันเกี่ยวด้วยความสงบเรียบร้อยของประชาชนขึ้นกล่าวในศาลชั้นต้นหรือคู่ความฝ่ายใดไม่สามารถยกปัญหาข้อกฎหมายใด ๆ ขึ้นกล่าวในศาลชั้นต้น เพราะพฤติการณ์ไม่เปิดช่องให้กระทำได้ หรือเพราะเหตุเป็นเรื่องที่ไม่ปฏิบัติตามบทบัญญัติว่าด้วยกระบวนพิจารณาชั้นอุทธรณ์ คู่ความที่เกี่ยวข้องย่อมมีสิทธิที่จะยกขึ้นอ้างซึ่งปัญหาเช่นว่านั้นได้”",
        "",
        "มาตรา ๑๖ ให้เพิ่มความต่อไปนี้เป็นวรรคสองของมาตรา ๒๒๖ แห่งประมวลกฎหมายวิธีพิจารณาความแพ่ง",
        "“เพื่อประโยชน์แห่งมาตรานี้ ไม่ว่าศาลจะได้มีคำสั่งให้รับคำฟ้องไว้แล้วหรือไม่ ให้ถือว่าคำสั่งอย่างใดอย่างหนึ่งของศาลนับตั้งแต่มีการยื่นคำฟ้องต่อศาลนอกจากที่ระบุไว้ในมาตรา ๒๒๗ และ ๒๒๘ เป็นคำสั่งระหว่างพิจารณา”",
        "",
        "มาตรา ๑๗ ให้ยกเลิกความในมาตรา ๒๓๔ แห่งประมวลกฎหมายวิธีพิจารณาความแพ่ง และให้ใช้ความต่อไปนี้แทน",
        "“มาตรา ๒๓๔ ถ้าศาลชั้นต้นไม่รับอุทธรณ์ ผู้อุทธรณ์อาจอุทธรณ์คำสั่งศาลนั้น ไปยังศาลอุทธรณ์โดยยื่นคำขอเป็นคำร้องต่อศาลชั้นต้น และนำค่าฤชาธรรมเนียมทั้งปวงมาวางศาลและนำเงินมาชำระตามคำพิพากษาหรือหาประกันให้ไว้ต่อศาลภายในกำหนดสิบห้าวันนับแต่วันที่ศาลได้มีคำสั่ง”",
        "",
        "มาตรา ๑๘ ให้ยกเลิกความในมาตรา ๒๔๘ แห่งประมวลกฎหมายวิธีพิจารณาความแพ่ง ซึ่งแก้ไขเพิ่มเติมโดยพระราชบัญญัติแก้ไขเพิ่มเติมประมวลกฎหมายวิธีพิจารณาความแพ่ง (ฉบับที่ ๖) พ.ศ. ๒๕๑๘ และให้ใช้ความต่อไปนี้แทน",
        "“มาตรา ๒๔๘ ในคดีที่ราคาทรัพย์สินหรือจำนวนทุนทรัพย์ที่พิพาทกันในชั้นฎีกาไม่เกินสองแสนบาทหรือไม่เกินจำนวนที่กำหนดในพระราชกฤษฎีกา ห้ามมิให้คู่ความฎีกาในข้อเท็จจริง เว้นแต่ผู้พิพากษาที่ได้นั่งพิจารณาคดีนั้นในศาลอุทธรณ์ได้มีความเห็นแย้งหรือผู้พิพากษาที่ได้นั่งพิจารณาคดีในศาลชั้นต้นก็ดี ศาลอุทธรณ์ก็ดี ได้รับรองไว้หรือรับรองในเวลาตรวจฎีกาว่ามีเหตุสมควรที่จะฎีกาได้ ถ้าไม่มีความเห็นแย้งหรือคำรับรองเช่นว่านี้ต้องได้รับอนุญาตให้ฎีกาเป็นหนังสือจากอธิบดีผู้พิพากษาศาลอุทธรณ์",
        "บทบัญญัติในวรรคหนึ่งมิให้ใช้บังคับในคดีเกี่ยวด้วยสิทธิแห่งสภาพบุคคลหรือสิทธิในครอบครัว และคดีฟ้องขอให้ปลดเปลื้องทุกข์อันไม่อาจคำนวณเป็นราคาเงินได้ เว้นแต่ในคดีฟ้องขับไล่บุคคลใด ๆ ออกจากอสังหาริมทรัพย์อันมีค่าเช่าหรืออาจให้เช่าได้ในขณะยื่นคำฟ้องไม่เกินเดือนละหนึ่งหมื่นบาทหรือไม่เกินจำนวนที่กำหนดในพระราชกฤษฎีกา",
        "คดีเกี่ยวกับการบังคับวงศ์ญาติทั้งหลายและบริวารของผู้ถูกฟ้องขับไล่ ซึ่งอยู่บนอสังหาริมทรัพย์ซึ่งคู่ความในคดีฟ้องขับไล่นั้นต้องห้ามฎีกาข้อเท็จจริงตามวรรคสอง ถ้าศาลอุทธรณ์พิพากษายืนตามคำพิพากษาหรือคำสั่งศาลชั้นต้น หรือเพียงแต่แก้ไขเล็กน้อย ไม่ว่าศาลจะฟังว่าบุคคลดังกล่าวสามารถแสดงอำนาจพิเศษให้ศาลเห็นได้หรือไม่ ห้ามมิให้ฎีกาในข้อเท็จจริง เว้นแต่จะได้มีความเห็นแย้งหรือคำรับรอง หรือหนังสืออนุญาตให้ฎีกาตามที่บัญญัติไว้ในวรรคหนึ่ง",
        "การขอให้ผู้พิพากษาที่นั่งพิจารณาคดีในศาลชั้นต้นหรือศาลอุทธรณ์รับรองว่า มีเหตุสมควรที่จะฎีกาได้ ให้ผู้ฎีกายื่นคำร้องถึงผู้พิพากษานั้นพร้อมกับคำฟ้องฎีกาต่อศาลชั้นต้น เมื่อศาลได้รับคำร้องเช่นว่านั้น ให้ส่งคำร้องพร้อมด้วยสำนวนความไปยังผู้พิพากษาดังกล่าวเพื่อพิจารณารับรอง”",
        "",
        "มาตรา ๑๙ ให้ยกเลิกความในมาตรา ๒๔๙ แห่งประมวลกฎหมายวิธีพิจารณาความแพ่ง ซึ่งแก้ไขเพิ่มเติมโดยพระราชบัญญัติแก้ไขเพิ่มเติมประมวลกฎหมายวิธีพิจารณาความแพ่ง (ฉบับที่ ๖) พ.ศ. ๒๕๑๘ และให้ใช้ความต่อไปนี้แทน",
        "“มาตรา ๒๔๙ ข้อเท็จจริงหรือข้อกฎหมายที่จะยกขึ้นอ้างในการยื่นฎีกานั้น คู่ความจะต้องกล่าวไว้โดยชัดแจ้งในฎีกา และต้องเป็นข้อที่ได้ยกขึ้นว่ากันมาแล้วโดยชอบในศาลชั้นต้นและศาลอุทธรณ์ ทั้งจะต้องเป็นสาระแก่คดีอันควรได้รับการวินิจฉัยด้วย การวินิจฉัยว่าข้อเท็จจริงหรือข้อกฎหมายที่เป็นสาระแก่คดีข้อใดไม่ควรได้รับการวินิจฉัยจากศาลฎีกา ให้กระทำโดยความเห็นชอบของรองประธานศาลฎีกาซึ่งประธานศาลฎีกามอบหมาย แต่ทั้งนี้ไม่กระทบถึงอำนาจของประธานศาลฎีกาตามมาตรา ๑๔๐ วรรคสอง",
        "ถ้าคู่ความฝ่ายใดมิได้ยกปัญหาข้อใดอันเกี่ยวด้วยความสงบเรียบร้อยของประชาชนขึ้นกล่าวในศาลชั้นต้นหรือศาลอุทธรณ์หรือคู่ความฝ่ายใดไม่สามารถยกปัญหาข้อกฎหมายใด ๆ ขึ้นกล่าวในศาลชั้นต้นหรือศาลอุทธรณ์ เพราะพฤติการณ์ไม่เปิดช่องให้กระทำได้ หรือเพราะเหตุเป็นเรื่องที่ไม่ปฏิบัติตามบทบัญญัติว่าด้วยกระบวนพิจารณาชั้นฎีกา คู่ความที่เกี่ยวข้องย่อมมีสิทธิที่จะยกขึ้นอ้างซึ่งปัญหาเช่นว่านั้นได้”",
        "",
        "",
        "ผู้รับสนองพระบรมราชโองการ",
        "อานันท์ ปันยารชุน",
        "นายกรัฐมนตรี",
        "",
        "",
        "",
        "หมายเหตุ :- เหตุผลในการประกาศใช้พระราชบัญญัติฉบับนี้ คือ โดยที่บทบัญญัติว่าด้วยเขตอำนาจศาลในประมวลกฎหมายวิธีพิจารณาความแพ่งที่ใช้บังคับอยู่ในปัจจุบันได้ก่อให้เกิดปัญหาและความไม่เป็นธรรม เนื่องจากโจทก์ซึ่งมีภูมิลำเนาอยู่ในราชอาณาจักรไม่สามารถฟ้องคดีจำเลยซึ่งไม่มีภูมิลำเนาอยู่ในราชอาณาจักรได้ตราบใดที่ยังไม่สามารถส่งหมายเรียกให้แก่จำเลยในราชอาณาจักรได้ แต่ในทางกลับกันโจทก์หรือจำเลยซึ่งมีภูมิลำเนาอยู่ในต่างประเทศสามารถฟ้องจำเลยหรือฟ้องแย้งโจทก์ซึ่งมีภูมิลำเนาอยู่ในราชอาณาจักรได้ และบทบัญญัติเรื่องเขตอำนาจศาลโดยทั่วไปยังไม่เหมาะสม ก่อให้เกิดความไม่สะดวกในการดำเนินคดีในศาลประกอบกับในปัจจุบันยังไม่มีบทบัญญัติเกี่ยวกับการส่งคำคู่ความและเอกสารให้แก่จำเลยหรือบุคคลภายนอกที่เกี่ยวข้องซึ่งไม่มีภูมิลำเนาอยู่ในราชอาณาจักรไว้โดยตรงคงอาศัยวิธีปฏิบัติของกระทรวงยุติธรรมและกระทรวงการต่างประเทศเป็นสำคัญซึ่งต้องใช้เวลานานมากและในบางครั้งก็ไม่อาจส่งให้แก่บุคคลดังกล่าวได้ ทำให้การดำเนินคดีเป็นไปได้ด้วยความล่าช้าและยุ่งยาก นอกจากนี้ การพิจารณาคดีของศาลชั้นต้นบางคดีได้ประสบความล่าช้าเนื่องจากการประวิงคดีของคู่ความบางฝ่ายทั้งหลักเกณฑ์การฟ้องคดีมโนสาเร่และคดีไม่มีข้อยุ่งยากที่ใช้บังคับอยู่มีข้อบกพร่องไม่สามารถนำมาบังคับใช้กับสภาพเศรษฐกิจและสังคมขณะนี้ได้อย่างเหมาะสมและมีประสิทธิภาพ และคดีที่ขึ้นสู่การพิจารณาของศาลอุทธรณ์และศาลฎีกาก็ได้เพิ่มจำนวนขึ้นเป็นอย่างมากทำให้ศาลอุทธรณ์และศาลฎีกาไม่สามารถพิจารณาพิพากษาคดีให้เสร็จลุล่วงไปได้โดยรวดเร็วทำให้คดีค้างพิจารณาอยู่เป็นจำนวนมาก เพื่อแก้ไขปัญหาดังกล่าวข้างต้น สมควรปรับปรุงบทบัญญัติว่าด้วยเขตอำนาจศาลโดยกำหนดให้โจทก์สามารถฟ้องคดีจำเลยซึ่งไม่ภูมิลำเนาอยู่ในราชอาณาจักรได้ง่ายขึ้นกว่าเดิม และกำหนดให้การฟ้องคดีหรือการร้องขอต่อศาลโดยทั่วไปเป็นไปโดยสะดวกและเป็นธรรมยิ่งขึ้น และสมควรเพิ่มเติมบทบัญญัติว่าด้วยการส่งคำคู่ความและเอกสารให้แก่จำเลยซึ่งไม่มีภูมิลำเนาอยู่ในราชอาณาจักร โดยกำหนดให้การส่งคำคู่ความและเอกสารดังกล่าวเป็นไปได้โดยสะดวกและรวดเร็วยิ่งขึ้น กับแก้ไขปรับปรุงให้ศาลมีดุลพินิจในการกำหนดอัตราดอกเบี้ยสูงกว่าอัตราที่โจทก์มีสิทธิได้รับตามกฎหมายในกรณีที่ จำเลยต้องชำระเงินพร้อมดอกเบี้ยแก่โจทก์ในกรณีที่ศาลเห็นว่าจำเลยมีพฤติการณ์ประวิงคดีให้ล่าช้าโดยไม่สุจริต ปรับปรุงหลักเกณฑ์ในการฟ้องคดีมโนสาเร่และคดีไม่มีข้อยุ่งยากให้ทำได้กว้างขวางและสะดวกรวดเร็วขึ้น และปรับปรุงหลักเกณฑ์ในการอุทธรณ์ฎีกาให้ทำได้เฉพาะคดีที่มีเหตุผลสมควรที่จะขึ้นสู่การพิจารณาของศาลอุทธรณ์และศาลฎีการวมทั้งแก้ไขบทบัญญัติอื่นที่เกี่ยวข้องให้สอดคล้องกันด้วย จึงจำเป็นต้องตราพระราชบัญญัตินี้",
        "",
        "",
        "",
        "ภคินี/แก้ไข",
        "๑๓/๓/๒๕๔๕",
        "A+B",
        "",
        "วชิระ/ปรับปรุง",
        "๗ เมษายน ๒๕๕๓"
      ]
    ],
    []
  ],
  "metadata": {
    "date_header": "2534-08-20",
    "date_modified": "2534-08-27",
    "date_original": "2534-08-27",
    "doctype": "พระราชบัญญัติ",
    "editors": [],
    "tag": "bb04-20-2534-012",
    "title": "แก้ไขเพิ่มเติมประมวลกฎหมายวิธีพิจารณาความแพ่ง (ฉบับที่ ๑๒)"
  }
}