{
  "pages": [
    [
      [
        "พระราชบัญญัติ",
        "คณะกรรมการนโยบายพลังงานแห่งชาติ",
        "พ.ศ. ๒๕๓๕",
        "",
        "",
        "ภูมิพลอดุลยเดช ป.ร.",
        "ให้ไว้ ณ วันที่ ๓ กุมภาพันธ์ พ.ศ. ๒๕๓๕",
        "เป็นปีที่ ๔๗ ในรัชกาลปัจจุบัน"
      ]
    ],
    []
  ],
  "metadata": {
    "date_header": "2535-02-03",
    "date_modified": "2550-10-16",
    "date_original": "2535-02-12",
    "doctype": "พระราชบัญญัติ",
    "editors": [
      {
        "name": "วศิน",
        "role": "ผู้จัดทำ",
        "date": "2552-05-19"
      }
    ],
    "tag": "a463-20-2550-a0002",
    "title": "คณะกรรมการนโยบายพลังงานแห่งชาติ"
  }
}