{
  "pages": [
    [
      [
        "พระราชบัญญัติ",
        "ว่าด้วยความผิดเกี่ยวกับสถานที่ผลิตปิโตรเลียมในทะเล",
        "พ.ศ. ๒๕๓๐",
        "",
        "",
        "ภูมิพลอดุลยเดช ป.ร.",
        "ให้ไว้ ณ วันที่ ๓๑ ตุลาคม พ.ศ. ๒๕๓๐",
        "เป็นปีที่ ๔๒ ในรัชกาลปัจจุบัน"
      ]
    ],
    []
  ],
  "metadata": {
    "date_header": "2530-10-31",
    "date_modified": "2545-10-08",
    "date_original": "2530-11-06",
    "doctype": "พระราชบัญญัติ",
    "editors": [
      {
        "name": "ศุภสรณ์/อภิสิทธิ์",
        "role": "ผู้จัดทำ",
        "date": "2546-03-19"
      },
      {
        "name": "พชร/อรดา",
        "role": "จัดทำ",
        "date": "2546-07-25"
      },
      {
        "name": "สัญชัย",
        "role": "ปรับปรุง",
        "date": "2549-08-07"
      }
    ],
    "tag": "c742-20-9999-update",
    "title": "ความผิดเกี่ยวกับสถานที่ผลิตปิโตรเลียมในทะเล"
  }
}