{
  "pages": [
    [
      [
        "ประกาศกรมสอบสวนคดีพิเศษ",
        "เรื่อง มติคณะกรรมการคดีพิเศษ",
        "ในการประชุมครั้งที่ ๒/๒๕๔๙ เมื่อวันที่ ๓ มีนาคม ๒๕๔๙"
      ]
    ],
    []
  ],
  "metadata": {
    "date_backmatter": "2549-03-07",
    "date_header": "2549-03-03",
    "date_modified": "2549-03-31",
    "date_original": "2549-03-31",
    "doctype": "ประกาศ",
    "editors": [
      {
        "name": "พรรณิศา",
        "role": "ผู้จัดทำ",
        "date": "2553-11-08"
      }
    ],
    "tag": "a1114-2e-2549-a0002"
  }
}