{
  "pages": [
    [
      [
        "ประกาศกรมสอบสวนคดีพิเศษ",
        "เรื่อง หลักเกณฑ์และวิธีการขายทอดตลาดของกลาง",
        "ตามระเบียบกระทรวงยุติธรรมว่าด้วยการนำของกลางออกขายทอดตลาด",
        "หรือนำไปใช้ประโยชน์ของทางราชการ พ.ศ. ๒๕๔๗"
      ]
    ],
    []
  ],
  "metadata": {
    "date_backmatter": "2549-07-20",
    "date_modified": "2549-08-21",
    "date_original": "2549-08-21",
    "doctype": "ประกาศ",
    "editors": [
      {
        "name": "พรรณิศา",
        "role": "ผู้จัดทำ",
        "date": "2553-10-27"
      }
    ],
    "tag": "a1114-2e-2549-a0003"
  }
}