{
  "pages": [
    [
      [
        "ประกาศ กคพ.",
        "เรื่อง หลักเกณฑ์และวิธีการในการร้องขอและเสนอให้ กคพ. มีมติ",
        "ให้คดีความผิดทางอาญาใดเป็นคดีพิเศษ",
        "พ.ศ. ๒๕๔๗"
      ]
    ],
    []
  ],
  "metadata": {
    "date_backmatter": "2547-08-20",
    "date_modified": "2547-08-31",
    "date_original": "2547-08-31",
    "doctype": "ประกาศ",
    "editors": [
      {
        "name": "พรรณิศา",
        "role": "ผู้จัดทำ",
        "date": "2553-10-27"
      },
      {
        "name": "เลิศศักดิ์",
        "role": "ผู้ตรวจ",
        "date": "2553-11-04"
      }
    ],
    "tag": "a1114-2e-2547-a0002"
  }
}