{
  "pages": [
    [
      [
        "ประกาศ กคพ.",
        "(ฉบับที่ ๖) พ.ศ. ๒๕๕๙",
        "เรื่อง กำหนดรายละเอียดของลักษณะของการกระทำความผิดที่เป็นคดีพิเศษ",
        "ตามมาตรา ๒๑ วรรคหนึ่ง (๑) แห่งพระราชบัญญัติการสอบสวนคดีพิเศษ พ.ศ. ๒๕๔๗"
      ]
    ],
    []
  ],
  "metadata": {
    "date_backmatter": "2559-06-24",
    "date_modified": "2559-07-29",
    "date_original": "2559-07-29",
    "doctype": "ประกาศ",
    "editors": [
      {
        "name": "ปุณิกา/ปริยานุช",
        "role": "จัดทำ",
        "date": "2559-08-01"
      },
      {
        "name": "นุสรา",
        "role": "ตรวจ",
        "date": "2559-11-08"
      }
    ],
    "tag": "a1114-2e-2559-a0002"
  }
}