{
  "pages": [
    [
      [
        "ประกาศ กคพ.",
        "(ฉบับที่ ๒) พ.ศ. ๒๕๔๗",
        "เรื่อง การกำหนดรายละเอียดของลักษณะของการกระทำความผิด ตามมาตรา ๒๑ วรรคหนึ่ง (๑)",
        "แห่งพระราชบัญญัติการสอบสวนคดีพิเศษ พ.ศ. ๒๕๔๗"
      ]
    ],
    []
  ],
  "metadata": {
    "date_backmatter": "2547-12-25",
    "date_modified": "2548-11-30",
    "date_original": "2548-01-28",
    "doctype": "ประกาศ",
    "editors": [
      {
        "name": "พรรณิศา",
        "role": "ผู้จัดทำ",
        "date": "2553-11-02"
      },
      {
        "name": "เลิศศักดิ์",
        "role": "ผู้ตรวจ",
        "date": "2553-11-04"
      }
    ],
    "tag": "a1114-2e-9998-update"
  }
}