{
  "pages": [
    [
      [
        "ประกาศกรมสอบสวนคดีพิเศษ",
        "เรื่อง มติคณะกรรมการคดีพิเศษให้คดีความผิดทางอาญาอื่นเป็นคดีพิเศษ"
      ]
    ],
    []
  ],
  "metadata": {
    "date_backmatter": "2553-05-07",
    "date_modified": "2553-05-19",
    "date_original": "2553-05-19",
    "doctype": "ประกาศ",
    "editors": [
      {
        "name": "พรรณิศา",
        "role": "ผู้จัดทำ",
        "date": "2553-11-09"
      }
    ],
    "tag": "a1114-2e-2553-a0002"
  }
}