{
  "pages": [
    [
      [
        "ระเบียบกระทรวงยุติธรรม",
        "ว่าด้วยเงินเพิ่มสำหรับตำแหน่งพนักงานสอบสวนคดีพิเศษและเจ้าหน้าที่คดีพิเศษ",
        "พ.ศ. ๒๕๔๗ (ฉบับที่ ๒)",
        "พ.ศ. ๒๕๕๔"
      ]
    ],
    []
  ],
  "metadata": {
    "date_backmatter": "2554-05-04",
    "date_modified": "2554-06-01",
    "date_original": "2554-06-01",
    "editors": [
      {
        "name": "ปริยานุช",
        "role": "ผู้จัดทำ",
        "date": "2554-06-13"
      },
      {
        "name": "ณัฐวดี",
        "role": "ตรวจ",
        "date": "2554-06-13"
      }
    ],
    "tag": "a1114-2g-2554-a0001"
  }
}