{
  "pages": [
    [
      [
        "ประกาศกรมสอบสวนคดีพิเศษ",
        "เรื่อง มติคณะกรรมการคดีพิเศษให้คดีความผิดทางอาญาอื่นเป็นคดีพิเศษ"
      ]
    ],
    []
  ],
  "metadata": {
    "date_backmatter": "2559-06-14",
    "date_modified": "2559-07-06",
    "date_original": "2559-07-06",
    "doctype": "ประกาศ",
    "editors": [
      {
        "name": "ปริยานุช",
        "role": "จัดทำ",
        "date": "2559-07-11"
      },
      {
        "name": "กัญฑรัตน์",
        "role": "ตรวจ",
        "date": "2559-07-29"
      }
    ],
    "tag": "a1114-2e-2559-a0001"
  }
}