{
  "pages": [
    [
      [
        "ระเบียบกระทรวงพาณิชย์",
        "ว่าด้วยการส่งข้าวออกไปนอกราชอาณาจักร",
        "(ฉบับที่ ๑๗)",
        "พ.ศ. ๒๕๕๖"
      ]
    ],
    []
  ],
  "metadata": {
    "date_backmatter": "2556-03-14",
    "date_modified": "2556-04-17",
    "date_original": "2556-04-17",
    "editors": [
      {
        "name": "ปริยานุช",
        "role": "ผู้จัดทำ",
        "date": "2556-04-24"
      },
      {
        "name": "โชติกานต์",
        "role": "ผู้ตรวจ",
        "date": "2556-05-16"
      }
    ],
    "tag": "c123-2g-2556-a0001"
  }
}