{
  "pages": [
    [
      [
        "กฎกระทรวง",
        "ฉบับที่ ๙ (พ.ศ. ๒๕๑๙)",
        "ออกตามความในพระราชบัญญัติมาตรฐานสินค้าขาออก พ.ศ. ๒๕๐๓"
      ]
    ],
    []
  ],
  "metadata": {
    "date_backmatter": "2519-03-26",
    "date_modified": "2519-04-09",
    "date_original": "2519-04-09",
    "doctype": "กฎกระทรวง",
    "editors": [
      {
        "name": "อุษมล",
        "role": "ผู้จัดทำ",
        "date": "2554-06-23"
      }
    ],
    "tag": "c123-2b-2519-009"
  }
}