{
  "pages": [
    [
      [
        "กฎกระทรวง",
        "ฉบับที่ ๑๒ (พ.ศ. ๒๕๓๔)",
        "ออกตามความในพระราชบัญญัติมาตรฐานสินค้าขาออก",
        "พ.ศ. ๒๕๐๓"
      ]
    ],
    []
  ],
  "metadata": {
    "date_backmatter": "2534-08-17",
    "date_modified": "2534-08-29",
    "date_original": "2534-08-29",
    "doctype": "กฎกระทรวง",
    "editors": [
      {
        "name": "อุษมล",
        "role": "ผู้จัดทำ",
        "date": "2554-06-24"
      }
    ],
    "tag": "c123-2b-2534-012"
  }
}