{
  "pages": [
    [
      [
        "คำสั่งกรมการขนส่งทางน้ำและพาณิชยนาวี",
        "ที่ ๘/๒๕๔๗",
        "เรื่อง มอบหมายการปฏิบัติหน้าที่นายทะเบียนเรือ"
      ]
    ],
    []
  ],
  "metadata": {
    "date_backmatter": "2547-01-12",
    "date_modified": "2547-09-15",
    "date_original": "2547-09-15",
    "editors": [
      {
        "name": "สุภาพร",
        "role": "พิมพ์",
        "date": "2548-01-05"
      },
      {
        "name": "ธัญกมล/ศุภสรณ์",
        "role": "ตรวจ",
        "date": "2548-01-26"
      },
      {
        "name": "สุเมธ",
        "role": "ปรับปรุง",
        "date": "2558-05-11"
      }
    ],
    "tag": "a116-2f-2547-a0007"
  }
}