{
  "pages": [
    [
      [
        "กฎกระทรวง",
        "ฉบับที่ ๖๕ (พ.ศ. ๒๕๓๗)",
        "ออกตามความในพระราชบัญญัติการเดินเรือในน่านน้ำไทย",
        "พระพุทธศักราช ๒๔๕๖"
      ]
    ],
    []
  ],
  "metadata": {
    "date_backmatter": "2537-08-10",
    "date_modified": "2537-08-24",
    "date_original": "2537-08-24",
    "doctype": "กฎกระทรวง",
    "editors": [
      {
        "name": "ฐาปนี",
        "role": "แก้ไข",
        "date": "2545-08-30"
      },
      {
        "name": "สุเมธ",
        "role": "ปรับปรุง",
        "date": "2558-05-25"
      }
    ],
    "tag": "a116-2b-2537-065"
  }
}