{
  "pages": [
    [
      [
        "กฎกระทรวง",
        "ฉบับที่ ๓๗ (พ.ศ. ๒๕๒๑)",
        "ออกตามความในพระราชบัญญัติการเดินเรือในน่านน้ำไทย",
        "พระพุทธศักราช ๒๔๕๖"
      ]
    ],
    []
  ],
  "metadata": {
    "date_backmatter": "2521-05-29",
    "date_modified": "2521-06-20",
    "date_original": "2521-06-20",
    "doctype": "กฎกระทรวง",
    "editors": [
      {
        "name": "นฤดล",
        "role": "ผู้จัดทำ",
        "date": "2552-01-05"
      }
    ],
    "tag": "a116-2b-2521-037"
  }
}