{
  "pages": [
    [
      [
        "ข้อบังคับกรมเจ้าท่า",
        "ว่าด้วยหลักเกณฑ์ วิธีการ เงื่อนไข และค่าธรรมเนียมการตรวจและการออกใบสำคัญรับรองการตรวจเรือ",
        "เพื่ออนุญาตให้ใช้เรือและใบสำคัญแสดงการตรวจเรือเพื่อจดทะเบียนเรือไทย",
        "สำหรับเรือเดินทะเลเฉพาะเขตและเดินชายแดน",
        "พ.ศ. ๒๕๖๑"
      ]
    ],
    []
  ],
  "metadata": {
    "date_backmatter": "2561-06-06",
    "date_modified": "2561-06-15",
    "date_original": "2561-06-15",
    "editors": [
      {
        "name": "วิวรรธน์",
        "role": "จัดทำ",
        "date": "2561-06-21"
      }
    ],
    "tag": "a116-2i-2561-a0001"
  }
}