{
  "pages": [
    [
      [
        "กฎข้อบังคับสำหรับการตรวจเรือ",
        "(ฉบับที่ ๑๕)",
        "พ.ศ.๒๕๒๘"
      ]
    ],
    []
  ],
  "metadata": {
    "date_backmatter": "2528-09-17",
    "date_modified": "2546-05-01",
    "date_original": "2528-11-28",
    "editors": [
      {
        "name": "นฤดล",
        "role": "ผู้จัดทำ",
        "date": "2552-02-02"
      }
    ],
    "tag": "a116-2c-2546-a0003"
  }
}