{
  "pages": [
    [
      [
        "ข้อบังคับกรมเจ้าท่า",
        "ว่าด้วยหลักเกณฑ์ วิธีการ และเงื่อนไขในการติดตั้งระบบสำแดงข้อมูลเรืออัตโนมัติ",
        "ในการออกใบสำคัญรับรองการตรวจเรือเพื่อออกใบอนุญาตให้ใช้เรือ",
        "พ.ศ. ๒๕๖๑"
      ]
    ],
    []
  ],
  "metadata": {
    "date_backmatter": "2561-07-02",
    "date_modified": "2561-07-02",
    "date_original": "2561-07-02",
    "editors": [
      {
        "name": "พัชรภรณ์",
        "role": "จัดทำ",
        "date": "2561-10-22"
      }
    ],
    "tag": "a116-2i-2561-a0004"
  }
}