{
  "pages": [
    [
      [
        "กฎกระทรวง",
        "ฉบับที่ ๖๐ (พ.ศ. ๒๕๓๖)",
        "ออกตามความในพระราชบัญญัติการเดินเรือในน่านน้ำไทย",
        "แก้ไขเพิ่มเติม พุทธศักราช ๒๔๗๗ (ฉบับที่ ๒)"
      ]
    ],
    []
  ],
  "metadata": {
    "date_backmatter": "2536-08-25",
    "date_modified": "2536-09-10",
    "date_original": "2536-09-10",
    "doctype": "กฎกระทรวง",
    "editors": [
      {
        "name": "ธิดาวรรณ",
        "role": "แก้ไข",
        "date": "2545-09-09"
      },
      {
        "name": "สุเมธ",
        "role": "ปรับปรุง",
        "date": "2558-05-25"
      }
    ],
    "tag": "a116-2b-2536-060"
  }
}