{
  "pages": [
    [
      [
        "กฎข้อบังคับสำหรับการตรวจเรือ",
        "(ฉบับที่ ๓๘)",
        "พ.ศ. ๒๕๕๔"
      ]
    ],
    []
  ],
  "metadata": {
    "date_backmatter": "2554-01-12",
    "date_modified": "2555-07-13",
    "date_original": "2554-02-04",
    "editors": [
      {
        "name": "ปริยานุช",
        "role": "ผู้จัดทำ",
        "date": "2554-02-07"
      },
      {
        "name": "ดำรง",
        "role": "ตรวจ",
        "date": "2554-02-07"
      },
      {
        "name": "สุเมธ",
        "role": "ปรับปรุง",
        "date": "2558-05-28"
      }
    ],
    "tag": "a116-2c-2555-a0002"
  }
}