{
  "pages": [
    [
      [
        "ประกาศกรมเจ้าท่า",
        "ที่ ๓/๒๕๕๖",
        "เรื่อง กำหนดให้แม่น้ำเจ้าพระยาและแม่น้ำป่าสักเป็นพื้นที่ควบคุมการเดินเรือเป็นการเฉพาะคราว"
      ]
    ],
    []
  ],
  "metadata": {
    "date_backmatter": "2556-01-03",
    "date_modified": "2556-03-11",
    "date_original": "2556-03-11",
    "doctype": "ประกาศ",
    "editors": [
      {
        "name": "ปริยานุช",
        "role": "ผู้จัดทำ",
        "date": "2556-03-14"
      },
      {
        "name": "อุษมล",
        "role": "ผู้ตรวจ",
        "date": "2556-03-18"
      }
    ],
    "tag": "a116-2e-2556-a0001"
  }
}