{
  "pages": [
    [
      [
        "ข้อบังคับกรมเจ้าท่า",
        "ว่าด้วยหลักเกณฑ์การออกใบสำคัญรับรองมาตรฐานเสื้อชูชีพสำหรับเรือเดินภายในประเทศ",
        "พ.ศ. ๒๕๖๐"
      ]
    ],
    []
  ],
  "metadata": {
    "date_backmatter": "2560-10-12",
    "date_modified": "2560-11-23",
    "date_original": "2560-11-23",
    "editors": [
      {
        "name": "ภวรรณตรี",
        "role": "จัดทำ",
        "date": "2560-12-08"
      },
      {
        "name": "ปวันวิทย์",
        "role": "ตรวจ",
        "date": "2560-12-28"
      }
    ],
    "tag": "a116-2i-2560-a0002"
  }
}