{
  "pages": [
    [
      [
        "ระเบียบกรมเจ้าท่า",
        "ว่าด้วยหลักเกณฑ์และวิธีการรับรองผู้ให้บริการจัดเก็บและบำบัดของเสียจากเรือประเภทขยะ",
        "และกากของเสียต่าง ๆ พ.ศ. ๒๕๖๐"
      ]
    ],
    []
  ],
  "metadata": {
    "date_backmatter": "2560-07-27",
    "date_modified": "2560-09-28",
    "date_original": "2560-09-28",
    "editors": [
      {
        "name": "ภวรรณตรี",
        "role": "จัดทำ",
        "date": "2560-10-05"
      },
      {
        "name": "ปุณิกา",
        "role": "ตรวจ",
        "date": "2560-10-05"
      }
    ],
    "tag": "a116-2g-2560-a0003"
  }
}