{
  "pages": [
    [
      [
        "ประกาศกรมเจ้าท่า",
        "เรื่อง ข้อปฏิบัติของผู้เข้าสอบประเมินความรู้ความสามารถ",
        "เพื่อขอรับประกาศนียบัตรแสดงความรู้ความสามารถผู้ทำการในเรือ",
        "พ.ศ. ๒๕๕๘"
      ]
    ],
    []
  ],
  "metadata": {
    "date_backmatter": "2558-08-05",
    "date_modified": "2558-10-02",
    "date_original": "2558-10-02",
    "doctype": "ประกาศ",
    "editors": [
      {
        "name": "ปริยานุช",
        "role": "ผู้จัดทำ",
        "date": "2558-10-05"
      },
      {
        "name": "ปริญสินีย์",
        "role": "ผู้ตรวจ",
        "date": "2558-10-15"
      }
    ],
    "tag": "a116-2e-2558-a0004"
  }
}