{
  "pages": [
    [
      [
        "ประกาศกรมการขนส่งทางน้ำและพาณิชยนาวี",
        "ที่ ๓๔๖/๒๕๕๒",
        "เรื่อง กำหนดแนวแม่น้ำเป็นเขตห้ามจอดเรือหรือแพ"
      ]
    ],
    []
  ],
  "metadata": {
    "date_backmatter": "2552-09-16",
    "date_modified": "2552-11-23",
    "date_original": "2552-11-23",
    "doctype": "ประกาศ",
    "editors": [
      {
        "name": "ปริยานุช",
        "role": "ผู้จัดทำ",
        "date": "2552-12-01"
      },
      {
        "name": "นันท์นภัสร์",
        "role": "ตรวจ",
        "date": "2552-12-01"
      },
      {
        "name": "สุเมธ",
        "role": "ปรับปรุง",
        "date": "2558-05-01"
      }
    ],
    "tag": "a116-2e-2552-a0001"
  }
}