{
  "pages": [
    [
      [
        "กฎกระทรวงคมนาคม",
        "(ฉะบับที่ ๖) ออกตามความในมาตรา ๔",
        "แห่งพระราชบัญญัติ การเดินเรือในน่านน้ำไทย แก้ไขเพิ่มเติม",
        "พุทธศักราช ๒๔๗๗ (ฉะบับที่ ๒) ว่าด้วยการนำร่อง"
      ]
    ],
    []
  ],
  "metadata": {
    "date_backmatter": "2488-11-06",
    "date_modified": "2488-11-20",
    "date_original": "2488-11-20",
    "doctype": "กฎกระทรวง",
    "editors": [
      {
        "name": "สุเมธ",
        "role": "ผู้จัดทำ",
        "date": "2558-05-20"
      }
    ],
    "tag": "a116-2b-2488-006"
  }
}