{
  "pages": [
    [
      [
        "ข้อบังคับกรมเจ้าท่า",
        "ว่าด้วยการสอบความรู้ผู้ทำการในเรือ",
        "พ.ศ. ๒๕๓๒"
      ]
    ],
    []
  ],
  "metadata": {
    "date_backmatter": "2532-04-20",
    "date_modified": "2532-05-22",
    "date_original": "2532-05-22",
    "editors": [
      {
        "name": "นฤดล",
        "role": "ผู้จัดทำ",
        "date": "2551-01-28"
      },
      {
        "name": "สุเมธ",
        "role": "ปรับปรุง",
        "date": "2558-05-15"
      }
    ],
    "tag": "a116-2i-2532-a0001"
  }
}