{
  "pages": [
    [
      [
        "ประกาศกรมเจ้าท่า",
        "ที่ ๒๗๙/๒๕๔๒",
        "เรื่อง การอนุญาตให้ขนถ่ายสิ่งของที่อาจทำให้เกิดอันตรายได้"
      ]
    ],
    []
  ],
  "metadata": {
    "date_backmatter": "2542-08-30",
    "date_modified": "2542-09-09",
    "date_original": "2542-09-09",
    "doctype": "ประกาศ",
    "editors": [
      {
        "name": "พรพิมล",
        "role": "แก้ไข",
        "date": "2545-05-24"
      },
      {
        "name": "สุเมธ",
        "role": "ปรับปรุง",
        "date": "2558-04-30"
      }
    ],
    "tag": "a116-2e-2542-a003"
  }
}