{
  "pages": [
    [
      [
        "กฎข้อบังคับสำหรับการตรวจเรือ",
        "(ฉบับที่ ๒๒)",
        "พ.ศ. ๒๕๓๙"
      ]
    ],
    []
  ],
  "metadata": {
    "date_backmatter": "2539-08-09",
    "date_modified": "2539-10-14",
    "date_original": "2539-10-14",
    "editors": [
      {
        "name": "สุเมธ",
        "role": "ผู้จัดทำ",
        "date": "2558-04-21"
      }
    ],
    "tag": "a116-2c-2539-a0001"
  }
}