{
  "pages": [
    [
      [
        "กฎข้อบังคับสำหรับการตรวจเรือ",
        "(ฉบับที่ ๔๕)",
        "พ.ศ. ๒๕๕๘"
      ]
    ],
    []
  ],
  "metadata": {
    "date_backmatter": "2558-05-01",
    "date_modified": "2558-06-03",
    "date_original": "2558-06-03",
    "editors": [
      {
        "name": "ปริยานุช",
        "role": "ผู้จัดทำ",
        "date": "2558-06-08"
      },
      {
        "name": "วิศนี - วิชพงษ์",
        "role": "ผู้ตรวจ",
        "date": "2558-06-09"
      }
    ],
    "tag": "a116-2c-2558-a0004"
  }
}