{
  "pages": [
    [
      [
        "คำสั่งกรมเจ้าท่า",
        "ที่ ๖๙๘/๒๕๓๐",
        "เรื่อง มอบหมายอำนาจ “เจ้าท่า” ตามพระราชบัญญัติ",
        "การเดินเรือในน่านน้ำไทย"
      ]
    ],
    []
  ],
  "metadata": {
    "date_backmatter": "2530-07-31",
    "date_modified": "2530-08-20",
    "date_original": "2530-08-20",
    "editors": [
      {
        "name": "พรพิมล",
        "role": "พิมพ์",
        "date": "2544-07-24"
      },
      {
        "name": "สุเมธ",
        "role": "ปรับปรุง",
        "date": "2558-05-07"
      }
    ],
    "tag": "a116-2f-2530-04"
  }
}