{
  "pages": [
    [
      [
        "กฎกระทรวงเศรษฐการ",
        "ออกตามความในมาตรา ๓ และ มาตรา ๑๔",
        "แห่งพระราชบัญญัติการเดินเรือในน่านน้ำสยาม",
        "แก้ไขเพิ่มเติม",
        "พุทธศักราช ๒๔๗๗"
      ]
    ],
    []
  ],
  "metadata": {
    "date_backmatter": "2477-11-01",
    "date_modified": "2477-11-01",
    "date_original": "2477-11-01",
    "doctype": "กฎกระทรวง",
    "editors": [
      {
        "name": "สุเมธ",
        "role": "ผู้จัดทำ",
        "date": "2558-05-19"
      }
    ],
    "tag": "a116-2b-2477-001"
  }
}