{
  "pages": [
    [
      [
        "คำสั่งกรมเจ้าท่า",
        "ที่ ๘๕๖/๒๕๕๙",
        "เรื่อง มอบหมายและมอบอำนาจ “เจ้าท่า” ตามพระราชบัญญัติการเดินเรือในน่านน้ำไทย",
        "พระพุทธศักราช ๒๔๕๖ และที่แก้ไขเพิ่มเติม ให้กับข้าราชการในสำนักงานเจ้าท่าภูมิภาค",
        "และสำนักงานเจ้าท่าภูมิภาคสาขา"
      ]
    ],
    []
  ],
  "metadata": {
    "date_backmatter": "2559-10-10",
    "date_modified": "2559-11-18",
    "date_original": "2559-11-18",
    "editors": [
      {
        "name": "ปริยานุช",
        "role": "จัดทำ",
        "date": "2559-11-22"
      },
      {
        "name": "วิศนี",
        "role": "ตรวจ",
        "date": "2559-11-22"
      }
    ],
    "tag": "a116-2f-2559-a0004"
  }
}