{
  "pages": [
    [
      [
        "กฎกระทรวง",
        "ฉบับที่ ๒๔ (พ.ศ. ๒๕๑๕)",
        "ออกตามความในพระราชบัญญัติการเดินเรือในน่านน้ำไทย",
        "พระพุทธศักราช ๒๔๕๖"
      ]
    ],
    []
  ],
  "metadata": {
    "date_backmatter": "2515-08-11",
    "date_modified": "2523-07-21",
    "date_original": "2515-09-05",
    "doctype": "กฎกระทรวง",
    "editors": [
      {
        "name": "นฤดล",
        "role": "ผู้จัดทำ",
        "date": "2551-12-30"
      },
      {
        "name": "สุเมธ",
        "role": "ปรับปรุง",
        "date": "2558-05-27"
      }
    ],
    "tag": "a116-2b-9993-update"
  }
}