{
  "pages": [
    [
      [
        "พระราชบัญญัติ",
        "การเดินเรือในน่านน้ำไทย",
        "พระพุทธศักราช ๒๔๕๖"
      ]
    ],
    []
  ],
  "metadata": {
    "date_backmatter": "2456-07-16",
    "date_modified": "2478-04-28",
    "date_original": "2456-08-05",
    "editors": [
      {
        "name": "วศิน",
        "role": "แก้ไข",
        "date": "2552-08-18"
      }
    ],
    "tag": "a116-20-2478-003u"
  }
}