{
  "pages": [
    [
      [
        "ข้อบังคับควบคุมการเดินเรือท้องถิ่น",
        "แห่ง",
        "จังหวัดสุโขทัย (ฉบับที่ ๒)"
      ]
    ],
    []
  ],
  "metadata": {
    "date_backmatter": "2487-09-18",
    "date_modified": "2487-10-24",
    "date_original": "2487-10-24",
    "editors": [
      {
        "name": "สุเมธ",
        "role": "ผู้จัดทำ",
        "date": "2558-05-15"
      }
    ],
    "tag": "a116-2i-2487-a0001"
  }
}