{
  "pages": [
    [
      [
        "ระเบียบกรมโยธาธิการและผังเมือง",
        "ว่าด้วยหลักเกณฑ์ และวิธีปฏิบัติในการให้บริการแผนที่ดิจิตอล",
        "พ.ศ. ๒๕๔๗"
      ]
    ],
    []
  ],
  "metadata": {
    "date_backmatter": "2547-06-09",
    "date_modified": "2547-08-11",
    "date_original": "2547-08-11",
    "editors": [
      {
        "name": "มยุรี",
        "role": "พิมพ์",
        "date": "2547-10-20"
      },
      {
        "name": "สุนันทา/นวพร",
        "role": "ตรวจ",
        "date": "2547-11-03"
      },
      {
        "name": "สุเมธ",
        "role": "ปรับปรุง",
        "date": "2558-05-14"
      }
    ],
    "tag": "a116-2g-2547-a0001"
  }
}