{
  "pages": [
    [
      [
        "กฎข้อบังคับสำหรับการตรวจเรือ",
        "(ฉบับที่ ๓๙)",
        "พ.ศ. ๒๕๕๔"
      ]
    ],
    []
  ],
  "metadata": {
    "date_backmatter": "2554-09-21",
    "date_modified": "2554-09-30",
    "date_original": "2554-09-30",
    "editors": [
      {
        "name": "ปริยานุช",
        "role": "ผู้จัดทำ",
        "date": "2554-10-07"
      },
      {
        "name": "ปณตภร",
        "role": "ตรวจ",
        "date": "2554-10-07"
      },
      {
        "name": "สุเมธ",
        "role": "ปรับปรุง",
        "date": "2558-04-28"
      }
    ],
    "tag": "a116-2c-2554-a0003"
  }
}