{
  "pages": [
    [
      [
        "ข้อบังคับกรมเจ้าท่า",
        "ว่าด้วยการฝึกอบรม การสอบความรู้และการออกประกาศนียบัตร",
        "ผู้ทำการในเรือ พ.ศ. ๒๕๔๑"
      ]
    ],
    []
  ],
  "metadata": {
    "date_backmatter": "2541-10-21",
    "date_modified": "2549-10-20",
    "date_original": "2542-01-15",
    "editors": [
      {
        "name": "นฤดล",
        "role": "ผู้จัดทำ",
        "date": "2552-01-08"
      }
    ],
    "tag": "a116-2i-2549-a0003"
  }
}