{
  "pages": [
    [
      [
        "คำสั่งกระทรวงยุติธรรม",
        "ที่ ๑๑๕/๒๕๔๘",
        "เรื่อง กำหนดอาณาเขตเรือนจำกลางปัตตานีและเรือนจำพิเศษปัตตานี"
      ]
    ],
    []
  ],
  "metadata": {
    "date_backmatter": "2548-03-09",
    "date_modified": "2548-05-17",
    "date_original": null,
    "editors": [
      {
        "name": "อุกฤต",
        "role": "ผู้จัดทำ",
        "date": "2553-12-27"
      }
    ],
    "tag": "c318-2f-2548-a0006"
  }
}