{
  "pages": [
    [
      [
        "คำสั่งกระทรวงยุติธรรม",
        "ที่ ๓๓๑/๒๕๕๒",
        "เรื่อง กำหนดอาณาเขตเรือนจำกลางราชบุรี และเรือนจำพิเศษราชบุรี"
      ]
    ],
    []
  ],
  "metadata": {
    "date_backmatter": "2552-12-08",
    "date_modified": "2553-02-01",
    "date_original": "2553-02-01",
    "editors": [
      {
        "name": "อุกฤต",
        "role": "ผู้จัดทำ",
        "date": "2553-12-28"
      }
    ],
    "tag": "c318-2f-2553-a0011"
  }
}