{
  "pages": [
    [
      [
        "คำสั่งกระทรวงยุติธรรม",
        "ที่ ๘๐๐/๒๕๔๙",
        "เรื่อง กำหนดอาณาเขตเรือนจำกลางพัทลุง และเรือนจำพิเศษพัทลุง"
      ]
    ],
    []
  ],
  "metadata": {
    "date_backmatter": "2549-11-16",
    "date_modified": "2549-12-26",
    "date_original": "2549-12-26",
    "editors": [
      {
        "name": "อุกฤต",
        "role": "ผู้จัดทำ",
        "date": "2553-12-28"
      }
    ],
    "tag": "c318-2f-2549-a0127"
  }
}