{
  "pages": [
    [
      [
        "ประกาศกระทรวงยุติธรรม",
        "เรื่อง การเปลี่ยนชื่อเรือนจำชั่วคราวบ้านดอยราง"
      ]
    ],
    []
  ],
  "metadata": {
    "date_backmatter": "2561-05-23",
    "date_modified": "2561-06-19",
    "date_original": "2561-06-19",
    "doctype": "ประกาศ",
    "editors": [
      {
        "name": "พิมพ์มาดา",
        "role": "จัดทำ",
        "date": "2561-08-14"
      }
    ],
    "tag": "c318-2e-2561-a0003"
  }
}