{
  "pages": [
    [
      [
        "คำสั่งกระทรวงยุติธรรม",
        "ที่ ๕๒/๒๕๔๙",
        "เรื่อง กำหนดอาณาเขตเรือนจำอำเภอทุ่งสง"
      ]
    ],
    []
  ],
  "metadata": {
    "date_backmatter": "2549-01-16",
    "date_modified": "2549-01-23",
    "date_original": "2549-01-23",
    "editors": [
      {
        "name": "อุกฤต",
        "role": "ผู้จัดทำ",
        "date": "2553-12-27"
      }
    ],
    "tag": "c318-2f-2549-a0014"
  }
}