{
  "pages": [
    [
      [
        "คำสั่งกระทรวงยุติธรรม",
        "ที่ ๔๙๓/๒๕๔๖",
        "เรื่อง กำหนดอาณาเขตเรือนจำชั่วคราวหนองลาด"
      ]
    ],
    []
  ],
  "metadata": {
    "date_backmatter": "2546-11-17",
    "date_modified": "2546-12-17",
    "date_original": "2546-12-17",
    "editors": [
      {
        "name": "อุกฤต",
        "role": "ผู้จัดทำ",
        "date": "2553-12-28"
      },
      {
        "name": "ดลธี",
        "role": "พิมพ์",
        "date": "2553-11-16"
      }
    ],
    "tag": "c318-2f-2546-a0001"
  }
}