{
  "pages": [
    [
      [
        "กฎกระทรวงมหาดไทย",
        "ออกตามความในพระราชบัญญัติราชทัณฑ์",
        "พุทธศักราช ๒๔๗๙ (ฉบับที่ ๔)"
      ]
    ],
    []
  ],
  "metadata": {
    "date_backmatter": "2485-01-27",
    "date_modified": "2485-02-03",
    "date_original": "2485-02-03",
    "doctype": "กฎกระทรวง",
    "editors": [
      {
        "name": "อุกฤต",
        "role": "ผู้จัดทำ",
        "date": "2553-12-28"
      },
      {
        "name": "นนทพล",
        "role": "ปรับปรุง",
        "date": "2558-01-16"
      }
    ],
    "tag": "c318-2b-2485-004"
  }
}