{
  "pages": [
    [
      [
        "คำสั่งกระทรวงยุติธรรม",
        "ที่ ๑๙/๒๕๕๓",
        "เรื่อง ยุบเลิกเรือนจำชั่วคราวหลักสี่"
      ]
    ],
    []
  ],
  "metadata": {
    "date_backmatter": "2553-01-22",
    "date_modified": "2553-02-24",
    "date_original": "2553-02-24",
    "editors": [
      {
        "name": "อุกฤต",
        "role": "ผู้จัดทำ",
        "date": "2553-12-28"
      }
    ],
    "tag": "c318-2f-2553-a0012"
  }
}