{
  "pages": [
    [
      [
        "คำสั่งกระทรวงยุติธรรม",
        "ที่ ๒๙๐/๒๕๔๖",
        "เรื่อง กำหนดอาณาเขตเรือนจำกลางนครราชสีมา",
        "และเรือนจำพิเศษนครราชสีมา"
      ]
    ],
    []
  ],
  "metadata": {
    "date_backmatter": "2546-08-13",
    "date_modified": "2546-09-03",
    "date_original": "2546-09-03",
    "editors": [
      {
        "name": "ดลธี",
        "role": "พิมพ์",
        "date": "2553-12-23"
      },
      {
        "name": "อุกฤต",
        "role": "ผู้จัดทำ",
        "date": "2553-12-28"
      }
    ],
    "tag": "c318-2f-2546-a0012"
  }
}