{
  "pages": [
    [
      [
        "คำสั่งกระทรวงยุติธรรม",
        "ที่ ๓๗๕/๒๕๔๗",
        "เรื่อง กำหนดอาณาเขตทัณฑสถานเกษตรอุตสาหกรรมเขาพริก"
      ]
    ],
    []
  ],
  "metadata": {
    "date_backmatter": "2547-08-20",
    "date_modified": "2547-09-03",
    "date_original": "2547-09-03",
    "editors": [
      {
        "name": "ดลธี",
        "role": "พิมพ์",
        "date": "2553-12-23"
      },
      {
        "name": "อุกฤต",
        "role": "ผู้จัดทำ",
        "date": "2553-12-28"
      }
    ],
    "tag": "c318-2f-2547-a0018"
  }
}