{
  "pages": [
    [
      [
        "ประกาศกระทรวงยุติธรรม",
        "เรื่อง การกำหนดอำนาจการคุมขังของเรือนจำ",
        "ฉบับที่ ๘"
      ]
    ],
    []
  ],
  "metadata": {
    "date_backmatter": "2556-07-31",
    "date_modified": "2556-08-23",
    "date_original": "2556-08-23",
    "doctype": "ประกาศ",
    "editors": [
      {
        "name": "ปริยานุช",
        "role": "ผู้จัดทำ",
        "date": "2556-08-27"
      },
      {
        "name": "โชติกานต์",
        "role": "ผู้ตรวจ",
        "date": "2556-08-30"
      }
    ],
    "tag": "c318-2e-2556-a0004"
  }
}