{
  "pages": [
    [
      [
        "คำสั่งกระทรวงยุติธรรม",
        "ที่ ๑๖๑/๒๕๕๒",
        "เรื่อง กำหนดอาณาเขตทัณฑสถานบำบัดพิเศษหญิง"
      ]
    ],
    []
  ],
  "metadata": {
    "date_backmatter": "2552-07-28",
    "date_modified": "2552-09-21",
    "date_original": "2552-09-21",
    "editors": [
      {
        "name": "อุกฤต",
        "role": "ผู้จัดทำ",
        "date": "2553-12-28"
      }
    ],
    "tag": "c318-2f-2552-a0007"
  }
}