{
  "pages": [
    [
      [
        "กฎกระทรวงมหาดไทย",
        "ออกตามความใน มาตรา ๕๘ แห่งพระราชบัญญัติราชทัณฑ์",
        "พุทธศักราช ๒๔๗๙"
      ]
    ],
    []
  ],
  "metadata": {
    "date_backmatter": "2480-04-21",
    "date_modified": "2558-06-24",
    "date_original": "2480-04-26",
    "doctype": "กฎกระทรวง",
    "editors": [
      {
        "name": "อุกฤต",
        "role": "ผู้จัดทำ",
        "date": "2553-12-28"
      },
      {
        "name": "นนทพล",
        "role": "ปรับปรุง",
        "date": "2558-01-16"
      },
      {
        "name": "ปริญสินีย์",
        "role": "ปรับปรุง",
        "date": "2558-07-09"
      }
    ],
    "tag": "c318-2b-9999-update"
  }
}