{
  "pages": [
    [
      [
        "ประกาศกระทรวงยุติธรรม",
        "เรื่อง การกำหนดอำนาจการคุมขังของเรือนจำ",
        "พ.ศ. ๒๕๕๔"
      ]
    ],
    []
  ],
  "metadata": {
    "date_backmatter": "2554-03-29",
    "date_modified": "2557-11-03",
    "date_original": "2554-05-11",
    "doctype": "ประกาศ",
    "editors": [
      {
        "name": "ปณตภร",
        "role": "ผู้จัดทำ",
        "date": "2555-04-10"
      },
      {
        "name": "อุษมล",
        "role": "เพิ่มเติม",
        "date": "2556-01-14"
      },
      {
        "name": "ปณตภร",
        "role": "ผู้ตรวจ",
        "date": "2556-01-30"
      },
      {
        "name": "ปณตภร",
        "role": "เพิ่มเติม",
        "date": "2556-10-02"
      },
      {
        "name": "จุฑามาศ",
        "role": "เพิ่มเติม",
        "date": "2557-06-23"
      },
      {
        "name": "ภีราพร",
        "role": "เพิ่มเติม",
        "date": "2557-11-13"
      }
    ],
    "tag": "c318-2e-2557-a0004"
  }
}