{
  "pages": [
    [
      [
        "คำสั่งกระทรวงยุติธรรม",
        "ที่ ๘๗/๒๕๔๙",
        "เรื่อง กำหนดอาณาเขตเรือนจำอำเภอรัตนบุรี"
      ]
    ],
    []
  ],
  "metadata": {
    "date_backmatter": "2549-01-20",
    "date_modified": "2549-01-30",
    "date_original": "2549-01-30",
    "editors": [
      {
        "name": "อุกฤต",
        "role": "ผู้จัดทำ",
        "date": "2553-12-28"
      }
    ],
    "tag": "c318-2f-2549-a0030"
  }
}