{
  "pages": [
    [
      [
        "คำสั่งกระทรวงยุติธรรม",
        "ที่ ๕/๒๕๕๕",
        "เรื่อง กำหนดอาณาเขตเรือนจำจังหวัดสกลนคร"
      ]
    ],
    []
  ],
  "metadata": {
    "date_backmatter": "2555-01-10",
    "date_modified": "2555-02-07",
    "date_original": "2555-02-07",
    "editors": [
      {
        "name": "ปริยานุช",
        "role": "ผู้จัดทำ",
        "date": "2555-02-13"
      },
      {
        "name": "ณัฐพร",
        "role": "ผู้ตรวจ",
        "date": "2555-02-13"
      }
    ],
    "tag": "c318-2f-2555-a0004"
  }
}