{
  "pages": [
    [
      [
        "คำสั่งกระทรวงยุติธรรม",
        "ที่ ๓๐๑/๒๕๔๘",
        "เรื่อง กำหนดอาณาเขตทัณฑสถานหญิงพิษณุโลก",
        "",
        "",
        "ตาม คำสั่งกระทรวงยุติธรรมที่ ๑๒๐/๒๕๔๗ ลงวันที่ ๑๙ มีนาคม ๒๕๔๗ กำหนดอาณาเขตทัณฑสถานหญิงหล่มสัก ขึ้นที่ตำบลวังทอง อำเภอวังทอง จังหวัดพิษณุโลก เนื้อที่ ๗ ไร่ ๓ งาน ๐๐ ตารางวา เพื่อคุมขัง อบรม และฝึกวิชาชีพผู้ต้องขังหญิงโดยเฉพาะ นั้น"
      ]
    ],
    []
  ],
  "metadata": {
    "date_backmatter": "2548-06-30",
    "date_header": "2547-03-19",
    "date_modified": "2548-08-25",
    "date_original": "2548-08-25",
    "editors": [
      {
        "name": "ดลธี",
        "role": "พิมพ์",
        "date": "2553-12-24"
      },
      {
        "name": "อุกฤต",
        "role": "ผู้จัดทำ",
        "date": "2553-12-28"
      }
    ],
    "tag": "c318-2f-2548-a0014"
  }
}