{
  "pages": [
    [
      [
        "คำสั่งกระทรวงยุติธรรม",
        "ที่ ๕๓๒/๒๕๕๙",
        "เรื่อง กำหนดอาณาเขตเรือนจำกลางขอนแก่น"
      ]
    ],
    []
  ],
  "metadata": {
    "date_backmatter": "2559-10-28",
    "date_modified": "2559-11-17",
    "date_original": "2559-11-17",
    "editors": [
      {
        "name": "ปริยานุช",
        "role": "จัดทำ",
        "date": "2559-11-21"
      },
      {
        "name": "วิศนี",
        "role": "ตรวจ",
        "date": "2559-11-21"
      }
    ],
    "tag": "c318-2f-2559-a0011"
  }
}