{
  "pages": [
    [
      [
        "คำสั่งกระทรวงยุติธรรม",
        "ที่ ๓๔๑/๒๕๔๙",
        "เรื่อง ยุบเลิกเรือนจำชั่วคราวบางกุ้ง"
      ]
    ],
    []
  ],
  "metadata": {
    "date_backmatter": "2549-04-24",
    "date_modified": "2549-05-29",
    "date_original": "2549-05-29",
    "editors": [
      {
        "name": "อุกฤต",
        "role": "ผู้จัดทำ",
        "date": "2553-12-28"
      }
    ],
    "tag": "c318-2f-2549-a0104"
  }
}