{
  "pages": [
    [
      [
        "กฎกระทรวงมหาดไทย",
        "ออกตามความใน มาตรา ๕๘ แห่งพระราชบัญญัติราชทัณฑ์",
        "พุทธศักราช ๒๔๗๙"
      ]
    ],
    []
  ],
  "metadata": {
    "date_backmatter": "2480-04-21",
    "date_modified": "2484-12-10",
    "date_original": "2480-04-26",
    "doctype": "กฎกระทรวง",
    "editors": [
      {
        "name": "อุกฤต",
        "role": "ผู้จัดทำ",
        "date": "2553-12-28"
      }
    ],
    "tag": "c318-2b-2484-003u"
  }
}