{
  "pages": [
    [
      [
        "คำสั่งกระทรวงยุติธรรม",
        "ที่ ๒๙๑/๒๕๔๙",
        "เรื่อง กำหนดอาณาเขตเรือนจำชั่วคราวหลักสี่"
      ]
    ],
    []
  ],
  "metadata": {
    "date_backmatter": "2549-03-08",
    "date_modified": "2549-03-13",
    "date_original": "2549-03-13",
    "editors": [
      {
        "name": "อุกฤต",
        "role": "ผู้จัดทำ",
        "date": "2553-12-28"
      }
    ],
    "tag": "c318-2f-2549-a0103"
  }
}