{
  "pages": [
    [
      [
        "พระราชบัญญัติ",
        "กำหนดความผิดเกี่ยวกับห้างหุ้นส่วนจดทะเบียน",
        "ห้างหุ้นส่วนจำกัด บริษัทจำกัด สมาคม และมูลนิธิ",
        "พ.ศ. ๒๔๙๙",
        "",
        "",
        "ภูมิพลอดุลยเดช ป.ร.",
        "ให้ไว้ ณ วันที่ ๑๓ พฤศจิกายน พ.ศ. ๒๔๙๙",
        "เป็นปีที่ ๑๑ ในรัชกาลปัจจุบัน"
      ]
    ],
    []
  ],
  "metadata": {
    "date_header": "2499-11-13",
    "date_modified": "2560-02-11",
    "date_original": "2499-11-15",
    "doctype": "พระราชบัญญัติ",
    "editors": [
      {
        "name": "ชวัลพร",
        "role": "ปรับปรุง",
        "date": "2560-02-15"
      },
      {
        "name": "นุสรา",
        "role": "ตรวจ",
        "date": "2560-02-15"
      }
    ],
    "tag": "a139-20-9998-update",
    "title": "กำหนดความผิดเกี่ยวกับห้างหุ้นส่วนจดทะเบียนห้างหุ้นส่วนจำกัด บริษัทจำกัด สมาคม และมูลนิธิ"
  }
}