{
  "pages": [
    [
      [
        "ประกาศกรมวิชาการเกษตร",
        "เรื่อง หลักเกณฑ์ วิธีการ และเงื่อนไขการขอและการออกใบรับรองสุขอนามัยพืช",
        "และใบรับรองสุขอนามัยพืชสำหรับการส่งต่อ (ฉบับที่ ๒)",
        "พ.ศ. ๒๕๕๓"
      ]
    ],
    []
  ],
  "metadata": {
    "date_backmatter": "2553-06-07",
    "date_modified": "2553-06-23",
    "date_original": "2553-06-23",
    "doctype": "ประกาศ",
    "editors": [
      {
        "name": "ปริยานุช",
        "role": "ผู้จัดทำ",
        "date": "2553-07-01"
      },
      {
        "name": "นันท์นภัสร์",
        "role": "ตรวจ",
        "date": "2553-07-01"
      },
      {
        "name": "พิมลกร",
        "role": "ปรับปรุง",
        "date": "2556-10-04"
      },
      {
        "name": "พลัฐวัษ",
        "role": "ตรวจ",
        "date": "2556-10-04"
      }
    ],
    "tag": "a107-2e-2553-a0006"
  }
}