{
  "pages": [
    [
      [
        "พระราชบัญญัติ",
        "กักพืช",
        "พ.ศ. ๒๕๐๗",
        "",
        "",
        "ภูมิพลอดุลยเดช ป.ร.",
        "ให้ไว้ ณ วันที่ ๑๓ มีนาคม พ.ศ. ๒๕๐๗",
        "เป็นปีที่ ๑๙ ในรัชกาลปัจจุบัน"
      ]
    ],
    []
  ],
  "metadata": {
    "date_header": "2507-03-13",
    "date_modified": "2507-03-21",
    "date_original": "2507-03-21",
    "doctype": "พระราชบัญญัติ",
    "editors": [
      {
        "name": "พรพิมล",
        "role": "แก้ไข",
        "date": "2544-08-29"
      },
      {
        "name": "พัชรินทร์",
        "role": "แก้ไข",
        "date": "2548-01-05"
      },
      {
        "name": "วศิน",
        "role": "แก้ไข",
        "date": "2552-03-09"
      },
      {
        "name": "จุฑามาศ",
        "role": "ปรับปรุง",
        "date": "2559-12-02"
      }
    ],
    "tag": "a107-20-2507-001",
    "title": "กักพืช"
  }
}