{
  "pages": [
    [
      [
        "ประกาศกรมวิชาการเกษตร",
        "เรื่อง เงื่อนไขการนำเข้าผลเชอรี่สดจากเครือรัฐออสเตรเลีย",
        "พ.ศ. ๒๕๕๘"
      ]
    ],
    []
  ],
  "metadata": {
    "date_backmatter": "2558-09-22",
    "date_modified": "2558-10-20",
    "date_original": "2558-10-20",
    "doctype": "ประกาศ",
    "editors": [
      {
        "name": "ปริยานุช",
        "role": "จัดทำ",
        "date": "2558-10-22"
      },
      {
        "name": "วริญา",
        "role": "ตรวจ",
        "date": "2558-10-22"
      }
    ],
    "tag": "a107-2e-2558-a0007"
  }
}