{
  "pages": [
    [
      [
        "ประกาศกระทรวงเกษตรและสหกรณ์",
        "เรื่อง แต่งตั้งกรรมการผู้ทรงคุณวุฒิในคณะกรรมการกักพืช"
      ]
    ],
    []
  ],
  "metadata": {
    "date_backmatter": "2545-01-22",
    "date_modified": "2545-02-19",
    "date_original": "2545-02-19",
    "doctype": "ประกาศ",
    "editors": [
      {
        "name": "พิมลกร",
        "role": "ผู้จัดทำ",
        "date": "2556-09-30"
      },
      {
        "name": "พลัฐวัษ",
        "role": "ตรวจ",
        "date": "2556-09-30"
      },
      {
        "name": "จุฑามาศ",
        "role": "ปรับปรุง",
        "date": "2558-05-28"
      }
    ],
    "tag": "a107-2e-2545-a0001"
  }
}