{
  "pages": [
    [
      [
        "ประกาศกรมวิชาการเกษตร",
        "เรื่อง เงื่อนไขการนำเข้าผลสาลี่สดจากสาธารณรัฐเกาหลี",
        "พ.ศ. ๒๕๖๑"
      ]
    ],
    []
  ],
  "metadata": {
    "date_backmatter": "2561-08-29",
    "date_modified": "2561-09-27",
    "date_original": "2561-09-27",
    "doctype": "ประกาศ",
    "editors": [
      {
        "name": "พัชรภรณ์",
        "role": "จัดทำ",
        "date": "2562-02-08"
      }
    ],
    "tag": "a107-2e-2561-a0004"
  }
}