{
  "pages": [
    [
      [
        "ประกาศกรมวิชาการเกษตร",
        "เรื่อง เงื่อนไขการนำเข้าอ้อยจากสาธารณรัฐแห่งสหภาพพม่า",
        "พ.ศ. ๒๕๕๕"
      ]
    ],
    []
  ],
  "metadata": {
    "date_backmatter": "2555-05-08",
    "date_modified": "2555-05-30",
    "date_original": "2555-05-30",
    "doctype": "ประกาศ",
    "editors": [
      {
        "name": "ปริยานุช",
        "role": "ผู้จัดทำ",
        "date": "2555-06-07"
      },
      {
        "name": "ชาญ",
        "role": "ผู้ตรวจ",
        "date": "2555-06-08"
      },
      {
        "name": "พิมลกร",
        "role": "ปรับปรุง",
        "date": "2556-10-04"
      },
      {
        "name": "พลัฐวัษ",
        "role": "ตรวจ",
        "date": "2556-10-04"
      }
    ],
    "tag": "a107-2e-2555-a0003"
  }
}