{
  "pages": [
    [
      [
        "ประกาศกรมวิชาการเกษตร",
        "เรื่อง เงื่อนไขการนำเข้าหัวมันฝรั่งเพื่อการแปรรูปจากสหพันธ์สาธารณรัฐเยอรมนี",
        "พ.ศ. ๒๕๕๒"
      ]
    ],
    []
  ],
  "metadata": {
    "date_backmatter": "2552-12-21",
    "date_modified": "2553-01-27",
    "date_original": "2553-01-27",
    "doctype": "ประกาศ",
    "editors": [
      {
        "name": "ปริยานุช",
        "role": "ผู้จัดทำ",
        "date": "2553-02-04"
      },
      {
        "name": "นันท์นภัสร์",
        "role": "ตรวจ",
        "date": "2553-02-04"
      },
      {
        "name": "พิมลกร",
        "role": "ปรับปรุง",
        "date": "2556-10-04"
      },
      {
        "name": "พลัฐวัษ",
        "role": "ตรวจ",
        "date": "2556-10-04"
      }
    ],
    "tag": "a107-2e-2553-a0002"
  }
}