{
  "pages": [
    [
      [
        "พระราชบัญญัติ",
        "กักพืช",
        "พ.ศ. ๒๕๐๗",
        "",
        "",
        "ภูมิพลอดุลยเดช ป.ร.",
        "ให้ไว้ ณ วันที่ ๑๓ มีนาคม พ.ศ. ๒๕๐๗",
        "เป็นปีที่ ๑๙ ในรัชกาลปัจจุบัน"
      ]
    ],
    []
  ],
  "metadata": {
    "date_header": "2507-03-13",
    "date_modified": "2542-05-18",
    "date_original": "2507-03-21",
    "doctype": "พระราชบัญญัติ",
    "editors": [
      {
        "name": "วศิน",
        "role": "ผู้จัดทำ",
        "date": "2552-03-09"
      }
    ],
    "tag": "a107-20-2542-a0002",
    "title": "กักพืช"
  }
}