{
  "pages": [
    [
      [
        "ประกาศกระทรวงเกษตรและสหกรณ์",
        "เรื่อง แต่งตั้งกรรมการผู้ทรงคุณวุฒิในคณะกรรมการกักพืช"
      ]
    ],
    []
  ],
  "metadata": {
    "date_backmatter": "2549-12-15",
    "date_modified": "2550-01-11",
    "date_original": "2550-01-11",
    "doctype": "ประกาศ",
    "editors": [
      {
        "name": "พิมลกร",
        "role": "ผู้จัดทำ",
        "date": "2556-10-03"
      },
      {
        "name": "พลัฐวัษ",
        "role": "ตรวจ",
        "date": "2556-10-03"
      }
    ],
    "tag": "a107-2e-2550-a0011"
  }
}