{
  "pages": [
    [
      [
        "ประกาศกรมวิชาการเกษตร",
        "เรื่อง เงื่อนไขการนำเข้าหัวมันฝรั่งเพื่อการแปรรูปจากสหรัฐอเมริกา",
        "พ.ศ. ๒๕๕๒"
      ]
    ],
    []
  ],
  "metadata": {
    "date_backmatter": "2552-07-15",
    "date_modified": "2552-08-14",
    "date_original": "2552-08-14",
    "doctype": "ประกาศ",
    "editors": [
      {
        "name": "ปริยานุช",
        "role": "ผู้จัดทำ",
        "date": "2552-08-24"
      },
      {
        "name": "พิมลกร",
        "role": "ปรับปรุง",
        "date": "2556-10-08"
      },
      {
        "name": "พลัฐวัษ",
        "role": "ตรวจ",
        "date": "2556-10-08"
      }
    ],
    "tag": "a107-2e-2552-a0016"
  }
}