{
  "pages": [
    [
      [
        "ประกาศกรมวิชาการเกษตร",
        "เรื่อง หลักเกณฑ์ วิธีการ และเงื่อนไขการนำเข้าหรือนำผ่าน",
        "ซึ่งสิ่งต้องห้าม สิ่งกำกัด และสิ่งไม่ต้องห้าม",
        "พ.ศ. ๒๕๕๑"
      ]
    ],
    []
  ],
  "metadata": {
    "date_backmatter": "2551-09-12",
    "date_modified": "2551-10-13",
    "date_original": "2551-10-13",
    "doctype": "ประกาศ",
    "editors": [
      {
        "name": "วัชศักดิ์",
        "role": "ผู้จัดทำ",
        "date": "2551-10-15"
      },
      {
        "name": "พิมลกร",
        "role": "ปรับปรุง",
        "date": "2556-10-04"
      },
      {
        "name": "พลัฐวัษ",
        "role": "ตรวจ",
        "date": "2556-10-04"
      }
    ],
    "tag": "a107-2e-2551-a0005"
  }
}