{
  "pages": [
    [
      [
        "พระราชกฤษฎีกา",
        "ให้นำราคาปานกลางของที่ดินที่ใช้อยู่ในการประเมินภาษีบำรุงท้องที่",
        "ประจำปี พ.ศ. ๒๕๒๑ ถึง พ.ศ. ๒๕๒๔ มาใช้ในการประเมินภาษี",
        "บำรุงท้องที่สำหรับปี พ.ศ. ๒๕๔๒",
        "พ.ศ. ๒๕๔๑",
        "",
        "",
        "ภูมิพลอดุลยเดช ป.ร.",
        "ให้ไว้ ณ วันที่ ๓๐ ธันวาคม พ.ศ. ๒๕๔๑",
        "เป็นปีที่ ๕๓ ในรัชกาลปัจจุบัน"
      ]
    ],
    []
  ],
  "metadata": {
    "date_header": "2541-12-30",
    "date_modified": "2541-12-30",
    "date_original": "2541-12-30",
    "doctype": "พระราชกฤษฎีกา",
    "editors": [
      {
        "name": "ก้องเกียรติ",
        "role": "จัดทำ",
        "date": "2552-01-06"
      },
      {
        "name": "จุฑามาศ",
        "role": "ปรับปรุง",
        "date": "2559-01-06"
      }
    ],
    "tag": "a180-2a-2541-a0001",
    "title": "ให้นำราคาปานกลางของที่ดินที่ใช้อยู่ในการประเมินภาษีบำรุงท้องที่ประจำปี พ.ศ. ๒๕๒๑ ถึง พ.ศ. ๒๕๒๔ มาใช้ในการประเมินภาษีบำรุงท้องที่สำหรับปี พ.ศ. ๒๕๔๒"
  }
}