{
  "pages": [
    [
      [
        "พระราชกฤษฎีกา",
        "ให้นำราคาปานกลางของที่ดินที่ใช้อยู่",
        "ในการประเมินภาษีบำรุงท้องที่ประจำปี พ.ศ. ๒๕๒๑ ถึง พ.ศ. ๒๕๒๔",
        "มาใช้ในการประเมินภาษีบำรุงท้องที่สำหรับปี พ.ศ. ๒๕๕๔",
        "พ.ศ. ๒๕๕๔",
        "",
        "",
        "ภูมิพลอดุลยเดช ป.ร.",
        "ให้ไว้ ณ วันที่ ๔ กุมภาพันธ์ พ.ศ. ๒๕๕๔",
        "เป็นปีที่ ๖๖ ในรัชกาลปัจจุบัน"
      ]
    ],
    []
  ],
  "metadata": {
    "date_header": "2554-02-04",
    "date_modified": "2554-02-16",
    "date_original": "2554-02-16",
    "doctype": "พระราชกฤษฎีกา",
    "editors": [
      {
        "name": "ปริยานุช",
        "role": "ผู้จัดทำ",
        "date": "2554-02-17"
      },
      {
        "name": "ณัฐวดี",
        "role": "ตรวจ",
        "date": "2554-02-17"
      }
    ],
    "tag": "a180-2a-2554-a0001",
    "title": "ให้นำราคาปานกลางของที่ดินที่ใช้อยู่ในการประเมินภาษีบำรุงท้องที่ประจำปี พ.ศ. ๒๕๒๑ ถึง พ.ศ. ๒๕๒๔มาใช้ในการประเมินภาษีบำรุงท้องที่สำหรับปี พ.ศ. ๒๕๕๔"
  }
}