{
  "pages": [
    [
      [
        "พระราชกฤษฎีกา",
        "ให้นำราคาปานกลางของที่ดินที่ใช้อยู่ในการประเมิน",
        "ภาษีบำรุงท้องที่ประจำปี พ.ศ. ๒๕๒๑ ถึง พ.ศ. ๒๕๒๔",
        "มาใช้ในการประเมินภาษีบำรุงท้องที่",
        "สำหรับปี พ.ศ. ๒๕๕๙",
        "พ.ศ. ๒๕๕๙",
        "",
        "",
        "ภูมิพลอดุลยเดช ป.ร.",
        "ให้ไว้ ณ วันที่ ๒๕ มกราคม พ.ศ. ๒๕๕๙",
        "เป็นปีที่ ๗๑ ในรัชกาลปัจจุบัน"
      ]
    ],
    []
  ],
  "metadata": {
    "date_header": "2559-01-25",
    "date_modified": "2559-01-29",
    "date_original": "2559-01-29",
    "doctype": "พระราชกฤษฎีกา",
    "editors": [
      {
        "name": "ชวัลพร/ปริยานุช",
        "role": "จัดทำ",
        "date": "2559-02-03"
      }
    ],
    "tag": "a180-2a-2559-a0001",
    "title": "ให้นำราคาปานกลางของที่ดินที่ใช้อยู่ในการประเมินภาษีบำรุงท้องที่ประจำปี พ.ศ. ๒๕๒๑ ถึง พ.ศ. ๒๕๒๔มาใช้ในการประเมินภาษีบำรุงท้องที่สำหรับปี พ.ศ. ๒๕๕๙"
  }
}