{
  "pages": [
    [
      [
        "พระราชกฤษฎีกา",
        "ให้นำราคาปานกลางของที่ดินที่ใช้อยู่ในการประเมินภาษีบำรุงท้องที่",
        "ประจำปี พ.ศ. ๒๕๒๑ ถึง พ.ศ. ๒๕๒๔",
        "มาใช้ในการประเมินภาษีบำรุงท้องที่",
        "สำหรับปี พ.ศ. ๒๕๕๗",
        "พ.ศ. ๒๕๕๘",
        "",
        "",
        "ภูมิพลอดุลยเดช ป.ร.",
        "ให้ไว้ ณ วันที่ ๑๖ มกราคม พ.ศ. ๒๕๕๘",
        "เป็นปีที่ ๗๐ ในรัชกาลปัจจุบัน"
      ]
    ],
    []
  ],
  "metadata": {
    "date_header": "2558-01-16",
    "date_modified": "2558-01-22",
    "date_original": "2558-01-22",
    "doctype": "พระราชกฤษฎีกา",
    "editors": [
      {
        "name": "ปริยานุช",
        "role": "ผู้จัดทำ",
        "date": "2558-01-26"
      },
      {
        "name": "ปริญสินีย์",
        "role": "ผู้ตรวจ",
        "date": "2558-01-26"
      }
    ],
    "tag": "a180-2a-2558-a0001",
    "title": "ให้นำราคาปานกลางของที่ดินที่ใช้อยู่ในการประเมินภาษีบำรุงท้องที่ประจำปี พ.ศ. ๒๕๒๑ ถึง พ.ศ. ๒๕๒๔มาใช้ในการประเมินภาษีบำรุงท้องที่สำหรับปี พ.ศ. ๒๕๕๗"
  }
}