{
  "pages": [
    [
      [
        "พระราชกฤษฎีกา",
        "ให้ใช้พระราชบัญญัติจัดระเบียบการจอดยานยนตร์ในเขต",
        "เทศบาลและสุขาภิบาล พ.ศ. 2503 ในเขตเทศบาลเมืองขอนแก่น",
        "จังหวัดขอนแก่น เทศบาลเมืองจันทบุรี จังหวัดจันทบุรี",
        "เทศบาลเมืองนครปฐม จังหวัดนครปฐม และเทศบาลเมืองภูเก็ต",
        "จังหวัดภูเก็ต",
        "พ.ศ. 2526",
        "------------------",
        "",
        "ภูมิพลอดุลยเดช ป.ร.",
        "ให้ไว้ ณ วันที่ 18 มกราคม พ.ศ. 2526",
        "เป็นปีที่ 38 ในรัชกาลปัจจุบัน"
      ]
    ],
    []
  ],
  "metadata": {
    "date_header": "2526-01-18",
    "editors": [],
    "tag": "a810-2a-2526-a0001"
  }
}