{
  "pages": [
    [
      [
        "ข้อบัญญัติกรุงเทพมหานคร",
        "ว่าด้วยการจัดระเบียบการจอดยานยนต์",
        "พุทธศักราช ๒๕๑๖"
      ]
    ],
    []
  ],
  "metadata": {
    "date_backmatter": "2516-06-02",
    "date_modified": "2516-08-06",
    "date_original": "2516-08-06",
    "editors": [
      {
        "name": "ดลธี",
        "role": "พิมพ์",
        "date": "2551-07-09"
      }
    ],
    "tag": "a810-2j-2516-a0001"
  }
}