{
  "pages": [
    [
      [
        "พระราชกฤษฎีกา",
        "ให้ใช้พระราชบัญญัติจัดระเบียบการจอดยานยนตร์",
        "ในเขตเทศบาลและสุขาภิบาล พ.ศ. ๒๕๐๓",
        "ในเขตเทศบาลนครเชียงใหม่ จังหวัดเชียงใหม่",
        "พ.ศ. ๒๕๑๗",
        "",
        "",
        "ภูมิพลอดุลยเดช ป.ร.",
        "ให้ไว้ ณ วันที่ ๘ กุมภาพันธ์ พ.ศ. ๒๕๑๗",
        "เป็นปีที่ ๒๙ ในรัชกาลปัจจุบัน"
      ]
    ],
    []
  ],
  "metadata": {
    "date_header": "2517-02-08",
    "date_modified": "2517-02-21",
    "date_original": "2517-02-21",
    "doctype": "พระราชกฤษฎีกา",
    "editors": [
      {
        "name": "ดลธี",
        "role": "พิมพ์",
        "date": "2551-07-10"
      }
    ],
    "tag": "a810-2a-2517-a0001",
    "title": "ให้ใช้พระราชบัญญัติจัดระเบียบการจอดยานยนตร์ในเขตเทศบาลและสุขาภิบาล พ.ศ. ๒๕๐๓ในเขตเทศบาลนครเชียงใหม่ จังหวัดเชียงใหม่"
  }
}