{
  "pages": [
    [
      [
        "ระเบียบกรมพินิจและคุ้มครองเด็กและเยาวชน",
        "ว่าด้วยการปล่อยชั่วคราว",
        "พ.ศ. ๒๕๔๗"
      ]
    ],
    []
  ],
  "metadata": {
    "date_backmatter": "2547-01-09",
    "date_modified": "2548-08-18",
    "date_original": "2548-08-18",
    "editors": [
      {
        "name": "ปริญสินีย์",
        "role": "ผู้จัดทำ",
        "date": "2553-10-29"
      },
      {
        "name": "นฤดล",
        "role": "ผู้ตรวจ",
        "date": "2553-12-02"
      }
    ],
    "tag": "a806-2g-9999-update"
  }
}