{
  "pages": [
    [
      [
        "ประกาศสำนักนายกรัฐมนตรี",
        "เรื่อง พระราชทานพระบรมราชานุญาตให้ใช้ตราประจำชาด"
      ]
    ],
    []
  ],
  "metadata": {
    "date_backmatter": "2549-03-07",
    "date_modified": "2549-04-20",
    "date_original": "2549-04-20",
    "doctype": "ประกาศ",
    "editors": [
      {
        "name": "ปริญสินีย์",
        "role": "ผู้จัดทำ",
        "date": "2553-10-28"
      },
      {
        "name": "นฤดล",
        "role": "ผู้ตรวจ",
        "date": "2553-12-02"
      }
    ],
    "tag": "a806-2e-2549-a0001"
  }
}