{
  "pages": [
    [
      [
        "พระราชกฤษฎีกา",
        "กำหนดวันเปิดทำการแผนกคดีเยาวชนและครอบครัว",
        "ในศาลจังหวัดจันทบุรี ศาลจังหวัดบุรีรัมย์ ศาลจังหวัดภูเก็ต",
        "ศาลจังหวัดลำปาง ศาลจังหวัดสระบุรี และศาลจังหวัดสุพรรณบุรี",
        "พ.ศ. ๒๕๔๐",
        "",
        "",
        "ภูมิพลอดุลยเดช ป.ร.",
        "ให้ไว้ ณ วันที่ ๑๗ กุมภาพันธ์ ๒๕๔๐",
        "เป็นปีที่ ๕๒ ในรัชกาลปัจจุบัน"
      ]
    ],
    []
  ],
  "metadata": {
    "date_backmatter": "2540-04-02",
    "date_header": "2540-02-17",
    "date_modified": "2540-03-07",
    "date_original": "2540-03-07",
    "doctype": "พระราชกฤษฎีกา",
    "editors": [
      {
        "name": "สุกัญญา",
        "role": "พิมพ์",
        "date": "2553-11-08"
      },
      {
        "name": "ปริญสินีย์",
        "role": "ผู้จัดทำ",
        "date": "2553-11-09"
      },
      {
        "name": "นฤดล",
        "role": "ผู้ตรวจ",
        "date": "2553-12-02"
      }
    ],
    "tag": "a806-2a-2540-a0003",
    "title": "กำหนดวันเปิดทำการแผนกคดีเยาวชนและครอบครัวในศาลจังหวัดจันทบุรี ศาลจังหวัดบุรีรัมย์ ศาลจังหวัดภูเก็ตศาลจังหวัดลำปาง ศาลจังหวัดสระบุรี และศาลจังหวัดสุพรรณบุรี"
  }
}