{
  "pages": [
    [
      [
        "พระราชกฤษฎีกา",
        "กำหนดวันเปิดทำการแผนกคดีเยาวชนและครอบครัว",
        "ในศาลจังหวัดฉะเชิงเทรา ศาลจังหวัดเพชรบุรี ศาลจังหวัดเพชรบูรณ์ ศาลจังหวัดลำพูน",
        "ศาลจังหวัดศรีสะเกษ ศาลจังหวัดสุโขทัย และศาลจังหวัดอ่างทอง",
        "พ.ศ. ๒๕๔๕",
        "",
        "",
        "ภูมิพลอดุลยเดช ป.ร.",
        "ให้ไว้ ณ วันที่ ๒๘ มีนาคม พ.ศ. ๒๕๔๕",
        "เป็นปีที่ ๕๗ ในรัชกาลปัจจุบัน"
      ]
    ],
    []
  ],
  "metadata": {
    "date_backmatter": "2545-04-01",
    "date_header": "2545-03-28",
    "date_modified": "2545-03-29",
    "date_original": "2545-03-29",
    "doctype": "พระราชกฤษฎีกา",
    "editors": [
      {
        "name": "ปริญสินีย์",
        "role": "ผู้จัดทำ",
        "date": "2553-10-22"
      },
      {
        "name": "นฤดล",
        "role": "ผู้ตรวจ",
        "date": "2553-12-02"
      }
    ],
    "tag": "a806-2a-2545-a002",
    "title": "กำหนดวันเปิดทำการแผนกคดีเยาวชนและครอบครัวในศาลจังหวัดฉะเชิงเทรา ศาลจังหวัดเพชรบุรี ศาลจังหวัดเพชรบูรณ์ ศาลจังหวัดลำพูนศาลจังหวัดศรีสะเกษ ศาลจังหวัดสุโขทัย และศาลจังหวัดอ่างทอง"
  }
}