{
  "pages": [
    [
      [
        "พระราชกฤษฎีกา",
        "กำหนดวันเปิดทำการแผนกคดีเยาวชนและครอบครัว",
        "ในศาลจังหวัดบึงกาฬ",
        "พ.ศ. ๒๕๕๔",
        "",
        "",
        "ภูมิพลอดุลยเดช ป.ร.",
        "ให้ไว้ ณ วันที่ ๒๓ พฤษภาคม พ.ศ. ๒๕๕๔",
        "เป็นปีที่ ๖๖ ในรัชกาลปัจจุบัน"
      ]
    ],
    []
  ],
  "metadata": {
    "date_header": "2554-05-23",
    "date_modified": "2554-05-23",
    "date_original": "2554-05-23",
    "doctype": "พระราชกฤษฎีกา",
    "editors": [
      {
        "name": "ปริยานุช",
        "role": "ผู้จัดทำ",
        "date": "2554-05-26"
      },
      {
        "name": "ณัฐวดี",
        "role": "ตรวจ",
        "date": "2554-05-26"
      }
    ],
    "tag": "a806-2a-2554-a0001",
    "title": "กำหนดวันเปิดทำการแผนกคดีเยาวชนและครอบครัวในศาลจังหวัดบึงกาฬ"
  }
}