{
  "pages": [
    [
      [
        "ประกาศสำนักนายกรัฐมนตรี",
        "เรื่อง พระราชทานพระบรมราชานุญาตให้ใช้ตราประจำชาด",
        "สำหรับศาลจังหวัดแผนกคดีเยาวชนและครอบครัว",
        "และสถานพินิจและคุ้มครองเด็กและเยาวชน"
      ]
    ],
    []
  ],
  "metadata": {
    "date_backmatter": "2538-08-29",
    "date_modified": "2538-09-06",
    "date_original": "2538-09-06",
    "doctype": "ประกาศ",
    "editors": [
      {
        "name": "สุกัญญา",
        "role": "พิมพ์",
        "date": "2553-11-11"
      },
      {
        "name": "ปริญสินีย์",
        "role": "ผู้จัดทำ",
        "date": "2553-11-11"
      },
      {
        "name": "นฤดล",
        "role": "ผู้ตรวจ",
        "date": "2553-12-02"
      }
    ],
    "tag": "a806-2e-2538-a0001"
  }
}