{
  "pages": [
    [
      [
        "พระราชกฤษฎีกา",
        "จัดตั้งสถานพินิจและคุ้มครองเด็กและเยาวชนของแผนกคดีเยาวชน",
        "และครอบครัวในศาลจังหวัดพระนครศรีอยุธยา ศาลจังหวัดพิษณุโลก",
        "และศาลจังหวัดพระนครศรีธรรมราช",
        "พ.ศ. ๒๕๓๗",
        "",
        "",
        "ภูมิพลอดุลยเดช ป.ร.",
        "ให้ไว้ ณ วันที่ ๑๙ ตุลาคม พ.ศ. ๒๕๓๗",
        "เป็นปีที่ ๔๙ ในรัชกาลปัจจุบัน"
      ]
    ],
    []
  ],
  "metadata": {
    "date_header": "2537-10-19",
    "date_modified": "2537-10-21",
    "date_original": "2537-10-21",
    "doctype": "พระราชกฤษฎีกา",
    "editors": [
      {
        "name": "ปริญสินีย์",
        "role": "พิมพ์",
        "date": "2553-10-26"
      },
      {
        "name": "นฤดล",
        "role": "ผู้ตรวจ",
        "date": "2553-12-02"
      }
    ],
    "tag": "a806-2a-2537-a002",
    "title": "จัดตั้งสถานพินิจและคุ้มครองเด็กและเยาวชนของแผนกคดีเยาวชนและครอบครัวในศาลจังหวัดพระนครศรีอยุธยา ศาลจังหวัดพิษณุโลกและศาลจังหวัดพระนครศรีธรรมราช"
  }
}