{
  "pages": [
    [
      [
        "ระเบียบกระทรวงยุติธรรม",
        "ว่าด้วยค่าป่วยการที่ปรึกษากฎหมายที่ศาลแต่งตั้งให้แก่เด็ก",
        "หรือเยาวชนที่เป็นจำเลย",
        "พ.ศ. ๒๕๓๙"
      ]
    ],
    []
  ],
  "metadata": {
    "date_backmatter": "2539-06-17",
    "date_modified": "2540-01-16",
    "date_original": "2540-01-16",
    "editors": [
      {
        "name": "ปริญสินีย์",
        "role": "ผ้จัดทำ",
        "date": "2553-10-29"
      },
      {
        "name": "นฤดล",
        "role": "ผู้ตรวจ",
        "date": "2553-12-02"
      }
    ],
    "tag": "a806-2g-2540-001"
  }
}