{
  "pages": [
    [
      [
        "พระราชบัญญัติ",
        "โคนมและผลิตภัณฑ์นม",
        "พ.ศ. ๒๕๕๑",
        "",
        "",
        "ภูมิพลอดุลยเดช ป.ร.",
        "ให้ไว้ ณ วันที่ ๓๑ มกราคม พ.ศ. ๒๕๕๑",
        "เป็นปีที่ ๖๓ ในรัชกาลปัจจุบัน"
      ]
    ],
    []
  ],
  "metadata": {
    "date_header": "2551-01-31",
    "date_modified": "2551-02-05",
    "date_original": "2551-02-05",
    "doctype": "พระราชบัญญัติ",
    "editors": [
      {
        "name": "อมรรัตน์",
        "role": "แก้ไข",
        "date": "2553-03-29"
      },
      {
        "name": "วศิน",
        "role": "ตรวจ",
        "date": "2553-03-29"
      },
      {
        "name": "คณิตา",
        "role": "ปรับปรุง",
        "date": "2555-12-26"
      },
      {
        "name": "วิชพงษ์",
        "role": "ตรวจ",
        "date": "2556-01-07"
      }
    ],
    "tag": "a4104-20-2551-a0001",
    "title": "โคนมและผลิตภัณฑ์นม"
  }
}