{
  "pages": [
    [
      [
        "ประกาศกระทรวงพาณิชย์",
        "เรื่อง หลักเกณฑ์ วิธีการ และเงื่อนไขการขอรับใบอนุญาต การขอต่ออายุใบอนุญาต",
        "และการขอรับใบแทนใบอนุญาตเป็นผู้บังคับหลักประกัน",
        "พ.ศ. ๒๕๕๙"
      ]
    ],
    []
  ],
  "metadata": {
    "date_backmatter": "2559-04-18",
    "date_modified": "2559-05-13",
    "date_original": "2559-05-13",
    "doctype": "ประกาศ",
    "editors": [
      {
        "name": "ปริยานุช",
        "role": "จัดทำ",
        "date": "2559-05-16"
      },
      {
        "name": "วริญา",
        "role": "ตรวจ",
        "date": "2559-05-26"
      }
    ],
    "tag": "cb60-2e-2559-a0001"
  }
}