{
  "pages": [
    [
      [
        "ข้อบังคับสถาบันพระปกเกล้า",
        "ว่าด้วยการศึกษาในสถาบันพระปกเกล้า",
        "พ.ศ. ๒๕๔๓"
      ]
    ],
    []
  ],
  "metadata": {
    "date_backmatter": "2543-04-25",
    "date_modified": "2544-06-08",
    "date_original": "2544-06-08",
    "editors": [
      {
        "name": "ปริญสินีย์",
        "role": "ผู้จัดทำ",
        "date": "2554-05-09"
      },
      {
        "name": "คุณากร",
        "role": "ผู้ตรวจ",
        "date": "2554-06-27"
      }
    ],
    "tag": "ca55-2i-2544-a0012"
  }
}