{
  "pages": [
    [
      [
        "พระราชบัญญัติ",
        "สถาบันพระปกเกล้า",
        "พ.ศ. ๒๕๔๑",
        "",
        "",
        "ภูมิพลอดุลยเดช ป.ร.",
        "ให้ไว้ ณ วันที่ ๓๐ สิงหาคม พ.ศ. ๒๕๔๑",
        "เป็นปีที่ ๕๓ ในรัชกาลปัจจุบัน"
      ]
    ],
    []
  ],
  "metadata": {
    "date_header": "2541-08-30",
    "date_modified": "2541-09-04",
    "date_original": "2541-09-04",
    "doctype": "พระราชบัญญัติ",
    "editors": [
      {
        "name": "วชิระ",
        "role": "ปรับปรุง",
        "date": "2552-05-26"
      },
      {
        "name": "ภีรภัทร",
        "role": "ปรับปรุง",
        "date": "2554-01-21"
      },
      {
        "name": "ปณตภร",
        "role": "ปรับปรุง",
        "date": "2557-04-15"
      },
      {
        "name": "กุลชาติ",
        "role": "ตรวจ",
        "date": "2557-04-17"
      }
    ],
    "tag": "ca55-20-2541-a0001",
    "title": "สถาบันพระปกเกล้า"
  }
}