{
  "pages": [
    [
      [
        "พระราชบัญญัติ",
        "สถาบันพระปกเกล้า (ฉบับที่ ๒)",
        "พ.ศ. ๒๕๔๓",
        "",
        "",
        "ภูมิพลอดุลยเดช ป.ร.",
        "ให้ไว้ ณ วันที่ ๑๕ พฤศจิกายน พ.ศ. ๒๕๔๓",
        "เป็นปีที่ ๕๕ ในรัชกาลปัจจุบัน"
      ]
    ],
    []
  ],
  "metadata": {
    "date_header": "2543-11-15",
    "date_modified": "2543-11-29",
    "date_original": "2543-11-29",
    "doctype": "พระราชบัญญัติ",
    "editors": [
      {
        "name": "วชิระ",
        "role": "ปรับปรุง",
        "date": "2552-05-26"
      },
      {
        "name": "ภีรภัทร",
        "role": "ปรับปรุง",
        "date": "2554-01-21"
      },
      {
        "name": "ปณตภร",
        "role": "ปรับปรุง",
        "date": "2557-04-15"
      },
      {
        "name": "กุลชาติ",
        "role": "ตรวจ",
        "date": "2557-04-17"
      }
    ],
    "tag": "ca55-20-2543-a0001",
    "title": "สถาบันพระปกเกล้า (ฉบับที่ ๒)"
  }
}