{
  "pages": [
    [
      [
        "กฎกระทรวง",
        "ฉบับที่ ๗ (พ.ศ. ๒๕๐๗)",
        "ออกตามความในพระราชบัญญัติกำหนดค่าธรรมเนียม",
        "การใช้ยานยนตร์บนทางหลวงและสะพาน",
        "พ.ศ. ๒๔๙๗"
      ]
    ],
    []
  ],
  "metadata": {
    "date_backmatter": "2507-01-22",
    "date_modified": "2515-06-22",
    "date_original": "2507-01-28",
    "doctype": "กฎกระทรวง",
    "editors": [
      {
        "name": "จุฑามาศ",
        "role": "ปรับปรุง",
        "date": "2558-07-08"
      }
    ],
    "tag": "a140-2b-9998-update"
  }
}