{
  "pages": [
    [
      [
        "พระราชบัญญัติ",
        "กำหนดค่าธรรมเนียมการใช้ยานยนตร์",
        "บนทางหลวงและสะพาน (ฉบับที่ ๓)",
        "พ.ศ. ๒๕๓๔",
        "",
        "",
        "ภูมิพลอดุลยเดช ป.ร.",
        "ให้ไว้ ณ วันที่ ๒๘ ธันวาคม พ.ศ. ๒๕๓๔",
        "เป็นปีที่ ๔๖ ในรัชกาลปัจจุบัน"
      ]
    ],
    []
  ],
  "metadata": {
    "date_header": "2534-12-28",
    "date_modified": "2534-12-29",
    "date_original": "2534-12-29",
    "doctype": "พระราชบัญญัติ",
    "editors": [
      {
        "name": "พรพิมล",
        "role": "แก้ไข",
        "date": "2544-09-11"
      },
      {
        "name": "พัชรินทร์",
        "role": "แก้ไข",
        "date": "2548-01-17"
      },
      {
        "name": "วศิน",
        "role": "แก้ไข",
        "date": "2552-05-15"
      }
    ],
    "tag": "a140-20-2534-003",
    "title": "กำหนดค่าธรรมเนียมการใช้ยานยนตร์บนทางหลวงและสะพาน (ฉบับที่ ๓)"
  }
}