{
  "pages": [
    [
      [
        "พระราชบัญญัติ",
        "กำหนดค่าธรรมเนียมการใช้ยานยนตร์",
        "บนทางหลวงและสะพาน (ฉบับที่ ๒)",
        "พ.ศ. ๒๕๑๖",
        "",
        "",
        "ภูมิพลอดุลยเดช ป.ร.",
        "ให้ไว้ ณ วันที่ ๑๗ พฤษภาคม พ.ศ. ๒๕๑๖",
        "เป็นปีที่ ๒๘ ในรัชกาลปัจจุบัน"
      ]
    ],
    []
  ],
  "metadata": {
    "date_backmatter": "2515-11-28",
    "date_header": "2516-05-17",
    "date_modified": "2516-05-28",
    "date_original": "2516-05-28",
    "doctype": "พระราชบัญญัติ",
    "editors": [
      {
        "name": "พรพิมล",
        "role": "แก้ไข",
        "date": "2544-09-11"
      },
      {
        "name": "พัชรินทร์",
        "role": "แก้ไข",
        "date": "2548-01-17"
      },
      {
        "name": "วศิน",
        "role": "แก้ไข",
        "date": "2552-05-15"
      }
    ],
    "tag": "a140-20-2516-002",
    "title": "กำหนดค่าธรรมเนียมการใช้ยานยนตร์บนทางหลวงและสะพาน (ฉบับที่ ๒)"
  }
}