{
  "pages": [
    [
      [
        "พระราชบัญญัติ",
        "กำหนดค่าธรรมเนียมการใช้ยานยนตร์บนทางหลวงและสะพาน",
        "พ.ศ. ๒๔๙๗",
        "",
        "",
        "ภูมิพลอดุลยเดช ป.ร.",
        "ให้ไว้ ณ วันที่ ๑๐ กุมภาพันธ์ พ.ศ. ๒๔๙๗",
        "เป็นปีที่ ๙ ในรัชกาลปัจจุบัน"
      ]
    ],
    []
  ],
  "metadata": {
    "date_header": "2497-02-10",
    "date_modified": "2497-02-23",
    "date_original": "2497-02-23",
    "doctype": "พระราชบัญญัติ",
    "editors": [
      {
        "name": "พรพิมล",
        "role": "แก้ไข",
        "date": "2544-09-11"
      },
      {
        "name": "พัชรินทร์",
        "role": "แก้ไข",
        "date": "2548-01-17"
      },
      {
        "name": "วศิน",
        "role": "แก้ไข",
        "date": "2552-05-15"
      }
    ],
    "tag": "a140-20-2497-001",
    "title": "กำหนดค่าธรรมเนียมการใช้ยานยนตร์บนทางหลวงและสะพาน"
  }
}