{
  "pages": [
    [
      [
        "กฎกระทรวง",
        "ฉบับที่ ๑๖ (พ.ศ. ๒๕๓๗)",
        "ออกตามความในพระราชบัญญัติกำหนดค่าธรรมเนียม",
        "การใช้ยานยนตร์บนทางหลวงและสะพาน พ.ศ. ๒๔๙๗"
      ]
    ],
    []
  ],
  "metadata": {
    "date_backmatter": "2537-06-20",
    "date_modified": "2537-06-30",
    "date_original": "2537-06-30",
    "doctype": "กฎกระทรวง",
    "editors": [
      {
        "name": "จุฑามาศ",
        "role": "ปรับปรุง",
        "date": "2558-07-08"
      }
    ],
    "tag": "a140-2b-2537-016"
  }
}