{
  "pages": [
    [
      [
        "กฎกระทรวง",
        "ยกเว้นค่าธรรมเนียมการใช้ยานยนตร์บนทางหลวงพิเศษหมายเลข ๗",
        "และทางหลวงพิเศษหมายเลข ๙ ภายในระยะเวลาที่กำหนด",
        "พ.ศ. ๒๕๕๒"
      ]
    ],
    []
  ],
  "metadata": {
    "date_backmatter": "2552-04-08",
    "date_modified": "2552-04-09",
    "date_original": "2552-04-09",
    "doctype": "กฎกระทรวง",
    "editors": [
      {
        "name": "ปริยานุช",
        "role": "ผู้จัดทำ",
        "date": "2552-04-21"
      },
      {
        "name": "ปณตภร",
        "role": "ปรับปรุง",
        "date": "2555-09-10"
      }
    ],
    "tag": "a140-2b-2552-a0001"
  }
}