{
  "pages": [
    [
      [
        "กฎกระทรวง",
        "ฉบับที่ ๒๓ (พ.ศ. ๒๕๖๐)",
        "ออกตามความในพระราชบัญญัติกำหนดค่าธรรมเนียมการใช้ยานยนตร์",
        "บนทางหลวงและสะพาน พ.ศ. ๒๔๙๗"
      ]
    ],
    []
  ],
  "metadata": {
    "date_backmatter": "2560-05-23",
    "date_modified": "2560-05-31",
    "date_original": "2560-05-31",
    "doctype": "กฎกระทรวง",
    "editors": [
      {
        "name": "ปุณิกา/ภวรรณตรี",
        "role": "จัดทำ",
        "date": "2560-06-02"
      },
      {
        "name": "นุสรา",
        "role": "ตรวจ",
        "date": "2560-07-07"
      }
    ],
    "tag": "a140-2b-2560-a0002"
  }
}