{
  "pages": [
    [
      [
        "พระราชบัญญัติ",
        "โรงเรียนนายร้อยตำรวจ",
        "พ.ศ. ๒๕๕๑",
        "",
        "",
        "ภูมิพลอดุลยเดช ป.ร.",
        "ให้ไว้ ณ วันที่ ๑๕ กุมภาพันธ์ พ.ศ. ๒๕๕๑",
        "เป็นปีที่ ๖๓ ในรัชกาลปัจจุบัน"
      ]
    ],
    []
  ],
  "metadata": {
    "date_header": "2551-02-15",
    "date_modified": "2551-02-25",
    "date_original": "2551-02-25",
    "doctype": "พระราชบัญญัติ",
    "editors": [
      {
        "name": "ณัฐพร",
        "role": "แก้ไข",
        "date": "2553-10-05"
      },
      {
        "name": "วศิน",
        "role": "ตรวจ",
        "date": "2553-10-05"
      },
      {
        "name": "สุทธนา",
        "role": "ผู้ปรับปรุง",
        "date": "2556-02-05"
      },
      {
        "name": "กุลชาติ",
        "role": "ผู้ตรวจ",
        "date": "2556-02-05"
      }
    ],
    "tag": "c351-20-2551-a0001",
    "title": "โรงเรียนนายร้อยตำรวจ"
  }
}