{
  "pages": [
    [
      [
        "ระเบียบรัฐสภา",
        "ว่าด้วยการแต่งตั้งบุคคลเพื่อปฏิบัติหน้าที่อันจะเป็นประโยชน์ต่อการปฏิบัติงาน",
        "ของรัฐสภา สภาผู้แทนราษฎร วุฒิสภา สมาชิกสภาผู้แทนราษฎร สมาชิกวุฒิสภา",
        "และกรรมาธิการของสภาผู้แทนราษฎรหรือวุฒิสภา",
        "พ.ศ. ๒๕๕๔"
      ]
    ],
    []
  ],
  "metadata": {
    "date_backmatter": "2554-12-02",
    "date_modified": "2555-10-24",
    "date_original": "2554-12-08",
    "editors": [
      {
        "name": "ชาญ",
        "role": "ผู้จัดทำ",
        "date": "2555-11-09"
      },
      {
        "name": "ปณตภร",
        "role": "ปรับปรุง",
        "date": "2557-01-07"
      }
    ],
    "tag": "c352-2g-2555-a0007"
  }
}