{
  "pages": [
    [
      [
        "ระเบียบรัฐสภา",
        "ว่าด้วยการแต่งตั้งบุคคลเพื่อปฏิบัติหน้าที่อันจะเป็นประโยชน์ต่อการปฏิบัติงาน",
        "ของสภานิติบัญญัติแห่งชาติ สมาชิกสภานิติบัญญัติแห่งชาติ",
        "และกรรมาธิการของสภานิติบัญญัติแห่งชาติ",
        "พ.ศ. ๒๕๕๗"
      ]
    ],
    []
  ],
  "metadata": {
    "date_backmatter": "2557-09-10",
    "date_modified": "2557-09-11",
    "date_original": "2557-09-11",
    "editors": [
      {
        "name": "ปริยานุช",
        "role": "ผู้จัดทำ",
        "date": "2557-11-04"
      },
      {
        "name": "ปริญสินีย์",
        "role": "ผู้ตรวจ",
        "date": "2557-11-04"
      }
    ],
    "tag": "c352-2g-2557-a0007"
  }
}