{
  "pages": [
    [
      [
        "ระเบียบรัฐสภา",
        "ว่าด้วยการเบิกจ่ายค่าใช้จ่ายในการบริหารงานของส่วนราชการสังกัดรัฐสภา",
        "พ.ศ. ๒๕๕๗"
      ]
    ],
    []
  ],
  "metadata": {
    "date_backmatter": "2557-01-07",
    "date_modified": "2557-01-15",
    "date_original": "2557-01-15",
    "editors": [
      {
        "name": "ปริยานุช",
        "role": "ผู้จัดทำ",
        "date": "2557-01-29"
      },
      {
        "name": "โชติกานต์",
        "role": "ผู้ตรวจ",
        "date": "2557-03-06"
      }
    ],
    "tag": "c352-2g-2557-a0003"
  }
}