{
  "pages": [
    [
      [
        "ระเบียบรัฐสภา",
        "ว่าด้วยเงินค่าตอบแทนพิเศษของลูกจ้างประจำของส่วนราชการสังกัดรัฐสภา (ฉบับที่ ๓)",
        "พ.ศ. ๒๕๕๕"
      ]
    ],
    []
  ],
  "metadata": {
    "date_backmatter": "2555-05-21",
    "date_modified": "2555-06-22",
    "date_original": "2555-06-22",
    "editors": [
      {
        "name": "ปริยานุช",
        "role": "ผู้จัดทำ",
        "date": "2555-06-27"
      },
      {
        "name": "ชาญ",
        "role": "ผู้ตรวจ",
        "date": "2555-07-02"
      }
    ],
    "tag": "c352-2g-2555-a0002"
  }
}