{
  "pages": [
    [
      [
        "ระเบียบรัฐสภา",
        "ว่าด้วยการเบิกจ่ายเงินจากคลัง การเก็บรักษาเงินและการนำเงินส่งคลัง (ฉบับที่ ๒)",
        "พ.ศ. ๒๕๕๗"
      ]
    ],
    []
  ],
  "metadata": {
    "date_backmatter": "2557-02-20",
    "date_modified": "2557-02-24",
    "date_original": "2557-02-24",
    "editors": [
      {
        "name": "ปริยานุช",
        "role": "ผู้จัดทำ",
        "date": "2557-03-03"
      },
      {
        "name": "อังศุมาลี",
        "role": "ผู้ตรวจ",
        "date": "2557-03-06"
      }
    ],
    "tag": "c352-2g-2557-a0005"
  }
}