{
  "pages": [
    [
      [
        "ระเบียบรัฐสภา",
        "ว่าด้วยการงบประมาณ",
        "พ.ศ. ๒๕๕๗"
      ]
    ],
    []
  ],
  "metadata": {
    "date_backmatter": "2557-01-07",
    "date_modified": "2557-02-24",
    "date_original": "2557-01-15",
    "editors": [
      {
        "name": "ปริยานุช",
        "role": "ผู้จัดทำ",
        "date": "2557-01-29"
      },
      {
        "name": "โชติกานต์",
        "role": "ผู้ตรวจ",
        "date": "2557-03-05"
      },
      {
        "name": "อังศุมาลี",
        "role": "ปรับปรุง",
        "date": "2557-04-10"
      }
    ],
    "tag": "c352-2g-9997-update"
  }
}