{
  "pages": [
    [
      [
        "ประกาศคณะกรรมการข้าราชการศาลยุติธรรม",
        "ที่ ๓/๒๕๔๔",
        "เรื่อง การกำหนดหลักเกณฑ์การเลื่อนและแต่งตั้งข้าราชการศาลยุติธรรม",
        "ให้ดำรงตำแหน่งในระดับที่สูงขึ้นตั้งแต่ระดับ ๑๐ ลงมา"
      ]
    ],
    []
  ],
  "metadata": {
    "date_backmatter": "2544-05-11",
    "date_modified": "2544-07-03",
    "date_original": "2544-07-03",
    "doctype": "ประกาศ",
    "editors": [
      {
        "name": "พัสสน",
        "role": "ผู้จัดทำ",
        "date": "2554-04-28"
      }
    ],
    "tag": "c345-2e-2544-a005"
  }
}