{
  "pages": [
    [
      [
        "ระเบียบคณะกรรมการข้าราชการศาลยุติธรรม",
        "ว่าด้วยลูกจ้างของสำนักงานศาลยุติธรรม",
        "พ.ศ. ๒๕๔๔"
      ]
    ],
    []
  ],
  "metadata": {
    "date_backmatter": "2544-05-30",
    "date_modified": "2544-09-05",
    "date_original": "2544-09-05",
    "editors": [
      {
        "name": "พัสสน",
        "role": "ผู้ตรวจ",
        "date": "2554-04-28"
      }
    ],
    "tag": "c345-2g-2544-a009"
  }
}