{
  "pages": [
    [
      [
        "ประกาศคณะกรรมการบริหารศาลยุติธรรม",
        "เรื่อง การแบ่งส่วนราชการภายในและกำหนดอำนาจหน้าที่ของส่วนราชการ",
        "ในสังกัดสำนักงานศาลยุติธรรม (ฉบับที่ ๔)",
        "พ.ศ. ๒๕๖๑"
      ]
    ],
    []
  ],
  "metadata": {
    "date_backmatter": "2561-07-20",
    "date_modified": "2561-08-01",
    "date_original": "2561-08-01",
    "doctype": "ประกาศ",
    "editors": [
      {
        "name": "พิมพ์มาดา",
        "role": "จัดทำ",
        "date": "2561-10-16"
      }
    ],
    "tag": "c345-2e-2561-a0003"
  }
}