{
  "pages": [
    [
      [
        "ระเบียบคณะกรรมการข้าราชการศาลยุติธรรม",
        "ว่าด้วยการรักษาราชการแทนและการปฏิบัติราชการแทนในตำแหน่ง",
        "ของข้าราชการศาลยุติธรรม",
        "พ.ศ. ๒๕๔๔"
      ]
    ],
    []
  ],
  "metadata": {
    "date_backmatter": "2544-04-04",
    "date_modified": "2544-04-18",
    "date_original": "2544-04-18",
    "editors": [
      {
        "name": "พัสสน",
        "role": "ผู้ตรวจ",
        "date": "2554-04-28"
      }
    ],
    "tag": "c345-2g-2544-a002"
  }
}