{
  "pages": [
    [
      [
        "ประกาศสำนักงานศาลยุติธรรม",
        "เรื่อง หลักเกณฑ์และวิธีการจ่ายค่าป่วยการและค่าใช้จ่ายของผู้ประนีประนอม",
        "พ.ศ. ๒๕๔๗"
      ]
    ],
    []
  ],
  "metadata": {
    "date_backmatter": "2547-08-25",
    "date_modified": "2547-10-07",
    "date_original": "2547-10-07",
    "doctype": "ประกาศ",
    "editors": [
      {
        "name": "พัสสน",
        "role": "ผู้ตรวจ",
        "date": "2554-04-22"
      }
    ],
    "tag": "c345-2e-2547-a0003"
  }
}