{
  "pages": [
    [
      [
        "ระเบียบคณะกรรมการบริหารศาลยุติธรรม",
        "ว่าด้วยหลักเกณฑ์และวิธีการในการทำและใช้เครื่องหมายราชการสำนักงานศาลยุติธรรม",
        "ตราสัญลักษณ์ศาลยุติธรรม และตราสัญลักษณ์สำนักงานศาลยุติธรรม",
        "พ.ศ. ๒๕๔๗"
      ]
    ],
    []
  ],
  "metadata": {
    "date_backmatter": "2547-08-10",
    "date_modified": "2547-10-07",
    "date_original": "2547-10-07",
    "editors": [
      {
        "name": "พัสสน",
        "role": "ผู้ตรวจ",
        "date": "2554-04-25"
      }
    ],
    "tag": "c345-2g-2547-a0001"
  }
}