{
  "pages": [
    [
      [
        "ประกาศคณะกรรมการบริหารศาลยุติธรรม",
        "เรื่อง กำหนดให้มีสำนักอำนวยการประจำศาลและสำนักงานประจำศาล (ฉบับที่ ๒๐)"
      ]
    ],
    []
  ],
  "metadata": {
    "date_backmatter": "2554-06-10",
    "date_modified": "2554-06-24",
    "date_original": "2554-06-24",
    "doctype": "ประกาศ",
    "editors": [
      {
        "name": "ปริยานุช",
        "role": "ผู้จัดทำ",
        "date": "2554-06-27"
      },
      {
        "name": "ณัฐวดี",
        "role": "ตรวจ",
        "date": "2554-06-27"
      }
    ],
    "tag": "c345-2e-2554-a0002"
  }
}