{
  "pages": [
    [
      [
        "ประกาศคณะกรรมการข้าราชการศาลยุติธรรม",
        "เรื่อง การจัดทำมาตรฐานกำหนดตำแหน่ง และจัดตำแหน่งข้าราชการศาลยุติธรรม",
        "เข้าประเภทตำแหน่ง สายงาน และระดับตำแหน่งตามมาตรฐานกำหนดตำแหน่ง"
      ]
    ],
    []
  ],
  "metadata": {
    "date_backmatter": "2552-09-08",
    "date_modified": "2559-01-28",
    "date_original": "2552-11-13",
    "doctype": "ประกาศ",
    "editors": [
      {
        "name": "ปริญสินีย์",
        "role": "ผู้จัดทำ",
        "date": "2558-03-02"
      },
      {
        "name": "ชวัลพร",
        "role": "เพิ่มเติม",
        "date": "2559-02-18"
      }
    ],
    "tag": "c345-2e-2559-a0007"
  }
}