{
  "pages": [
    [
      [
        "ประกาศคณะกรรมการข้าราชการศาลยุติธรรม",
        "เรื่อง การจัดทำมาตรฐานกำหนดตำแหน่ง และจัดตำแหน่งข้าราชการศาลยุติธรรม",
        "เข้าประเภทตำแหน่ง สายงาน และระดับตำแหน่งตามมาตรฐานกำหนดตำแหน่ง (ฉบับที่ ๒)"
      ]
    ],
    []
  ],
  "metadata": {
    "date_backmatter": "2554-06-03",
    "date_modified": "2554-07-04",
    "date_original": "2554-07-04",
    "doctype": "ประกาศ",
    "editors": [
      {
        "name": "ปริยานุช",
        "role": "ผู้จัดทำ",
        "date": "2554-07-06"
      },
      {
        "name": "ณัฐวดี",
        "role": "ตรวจ",
        "date": "2554-07-06"
      }
    ],
    "tag": "c345-2e-2554-a0004"
  }
}