{
  "pages": [
    [
      [
        "ประกาศคณะกรรมการบริหารศาลยุติธรรม",
        "เรื่อง กำหนดให้มีสำนักอำนวยการประจำศาล",
        "และสำนักงานประจำศาล"
      ]
    ],
    []
  ],
  "metadata": {
    "date_backmatter": "2544-03-02",
    "date_modified": "2544-05-01",
    "date_original": "2544-05-01",
    "doctype": "ประกาศ",
    "editors": [
      {
        "name": "พัสสน",
        "role": "ผู้ตรวจ",
        "date": "2544-04-22"
      }
    ],
    "tag": "c345-2e-2544-a003"
  }
}