{
  "pages": [
    [
      [
        "ระเบียบคณะกรรมการข้าราชการศาลยุติธรรม",
        "ว่าด้วยคณะอนุกรรมการข้าราชการศาลยุติธรรมเกี่ยวกับการดำเนินการ",
        "ทางวินัยและการออกจากราชการ",
        "พ.ศ. ๒๕๕๐"
      ]
    ],
    []
  ],
  "metadata": {
    "date_backmatter": "2550-06-29",
    "date_modified": "2550-07-25",
    "date_original": "2550-07-25",
    "editors": [
      {
        "name": "พัสสน",
        "role": "ผู้ตรวจ",
        "date": "2554-04-25"
      }
    ],
    "tag": "c345-2g-2550-a0003"
  }
}