{
  "pages": [
    [
      [
        "ประกาศกรมการจัดหางาน",
        "เรื่อง การต่ออายุใบอนุญาตทำงานของคนต่างด้าวหลบหนีเข้าเมือง",
        "สัญชาติพม่า ลาว และกัมพูชา ที่อยู่ระหว่างรอรับหลักฐาน",
        "ใบรับรองของผู้ประกอบวิชาชีพเวชกรรมจากสถานพยาบาล",
        "หรือมีเหตุจำเป็นอื่น ๆ อันสมควร"
      ]
    ],
    []
  ],
  "metadata": {
    "date_backmatter": "2545-03-15",
    "date_gz_old": "2545-03-22",
    "doctype": "ประกาศ",
    "editors": [
      {
        "name": "พรพิมล/พิมพ์",
        "role": "แก้ไข",
        "date": "2545-08-14"
      }
    ],
    "tag": "c728-2e-2545-a0001"
  }
}