{
  "pages": [
    [
      [
        "กฎกระทรวง",
        "กำหนดวัตถุอันตรายและสัตว์ซึ่งอาจเป็นอันตราย",
        "ต่อความปลอดภัยของอากาศยานหรือบุคคลในอากาศยาน",
        "พ.ศ. ๒๕๕๐"
      ]
    ],
    []
  ],
  "metadata": {
    "date_backmatter": "2487-12-07",
    "date_modified": "2550-10-24",
    "date_original": "2550-10-24",
    "doctype": "กฎกระทรวง",
    "editors": [
      {
        "name": "ปริยานุช",
        "role": "ผู้จัดทำ",
        "date": "2550-11-06"
      },
      {
        "name": "ปุณิกา",
        "role": "ปรับปรุง",
        "date": "2558-03-19"
      }
    ],
    "tag": "a117-2b-2550-a0005"
  }
}