{
  "pages": [
    [
      [
        "ข้อบังคับของคณะกรรมการการบินพลเรือน",
        "ฉบับที่ ๖๕",
        "ว่าด้วยการรักษาความปลอดภัยในบริเวณส่วนของผู้ประจำหน้าที่ภาคอากาศ"
      ]
    ],
    []
  ],
  "metadata": {
    "date_backmatter": "2549-05-02",
    "date_modified": "2549-05-26",
    "date_original": "2549-05-26",
    "editors": [
      {
        "name": "นันทนา",
        "role": "ผู้จัดทำ",
        "date": "2549-06-01"
      },
      {
        "name": "ปุณิกา",
        "role": "ปรับปรุง",
        "date": "2558-02-12"
      }
    ],
    "tag": "a117-2i-2549-a0001"
  }
}