{
  "pages": [
    [
      [
        "ข้อบังคับของคณะกรรมการการบินพลเรือน",
        "ฉบับที่ ๘๒",
        "ว่าด้วยระบบการจัดการด้านนิรภัยของสนามบิน"
      ]
    ],
    []
  ],
  "metadata": {
    "date_backmatter": "2551-01-29",
    "date_modified": "2551-03-19",
    "date_original": "2551-03-19",
    "editors": [
      {
        "name": "วัชศักดิ์",
        "role": "ผู้จัดทำ",
        "date": "2551-03-20"
      },
      {
        "name": "ปุณิกา",
        "role": "ปรับปรุง",
        "date": "2558-03-12"
      }
    ],
    "tag": "a117-2i-2551-a0009"
  }
}