{
  "pages": [
    [
      [
        "ข้อบังคับคณะกรรมการการบินพลเรือน",
        "ฉบับที่ ๔ การออกใบอนุญาตแก่ผู้ประจำหน้าที่ กฎทาง",
        "อากาศ การอุตุนิยมวิทยา แผนภูมิเดินอากาศ การดำเนิน",
        "บริการเดินอากาศระหว่างประเทศของอากาศยาน",
        "ประจำมีกำหนด เครื่องหมายสัญชาติและเครื่องหมาย",
        "การจดทะเบียนของอากาศยาน ความสมควร",
        "เดินอากาศของอากาศยาน การอำนวยความสะดวก",
        "ของการขนส่งทางอากาศระหว่างประเทศ การสื่อสาร",
        "ทางไกลสำหรับการเดินอากาศ บริการจราจรทางอากาศ",
        "การค้นหาและช่วยให้พ้นภัย สนามบินและบริการ",
        "ข่าวสารการเดินอากาศ"
      ]
    ],
    []
  ],
  "metadata": {
    "date_backmatter": "2500-05-17",
    "date_modified": "2558-06-08",
    "date_original": "2500-06-11",
    "editors": [
      {
        "name": "ปุณิกา",
        "role": "ผู้จัดทำ",
        "date": "2558-06-19"
      }
    ],
    "tag": "a117-2i-2558-a0008"
  }
}