{
  "pages": [
    [
      [
        "ประกาศกระทรวงคมนาคม",
        "เรื่อง หลักเกณฑ์และเงื่อนไขในการอนุญาตให้ประกอบกิจการค้าขายในการเดินอากาศ",
        "พ.ศ. ๒๕๕๙"
      ]
    ],
    []
  ],
  "metadata": {
    "date_backmatter": "2559-11-09",
    "date_modified": "2559-12-21",
    "date_original": "2559-12-21",
    "doctype": "ประกาศ",
    "editors": [
      {
        "name": "นุสรา",
        "role": "ปรับปรุง",
        "date": "2561-11-13"
      }
    ],
    "tag": "a117-2e-2561-a0006"
  }
}