{
  "pages": [
    [
      [
        "พระราชบัญญัติ",
        "การเดินอากาศ",
        "พ.ศ. ๒๔๙๗",
        "",
        "",
        "ภูมิพลอดุลยเดช ป.ร.",
        "ให้ไว้ ณ วันที่ ๑ กันยายน พ.ศ. ๒๔๙๗",
        "เป็นปีที่ ๙ ในรัชกาลปัจจุบัน"
      ]
    ],
    []
  ],
  "metadata": {
    "date_backmatter": "2487-12-07",
    "date_header": "2497-09-01",
    "date_modified": "2553-06-02",
    "date_original": "2497-09-14",
    "doctype": "พระราชบัญญัติ",
    "editors": [
      {
        "name": "กมลฤทัย",
        "role": "ปรับปรุง",
        "date": "2556-04-04"
      },
      {
        "name": "สุพิชชา",
        "role": "ตรวจ",
        "date": "2556-04-18"
      }
    ],
    "tag": "a117-20-2553-a0002",
    "title": "การเดินอากาศ"
  }
}