{
  "pages": [
    [
      [
        "พระราชกฤษฎีกา",
        "กำหนดค่าบริการ ค่าภาระ หรือเงินตอบแทน",
        "เพื่อการใช้สนามบินอนุญาตที่ให้บริการแก่สาธารณะ",
        "ซึ่งเจ้าของหรือผู้ดำเนินการจะเรียกเก็บได้",
        "พ.ศ. ๒๕๕๓",
        "",
        "",
        "ภูมิพลอดุลยเดช ป.ร.",
        "ให้ไว้ ณ วันที่ ๑๖ กุมภาพันธ์ พ.ศ. ๒๕๕๓",
        "เป็นปีที่ ๖๕ ในรัชกาลปัจจุบัน"
      ]
    ],
    []
  ],
  "metadata": {
    "date_header": "2553-02-16",
    "date_modified": "2553-03-05",
    "date_original": "2553-03-05",
    "doctype": "พระราชกฤษฎีกา",
    "editors": [
      {
        "name": "ปริยานุช",
        "role": "ผู้จัดทำ",
        "date": "2553-03-08"
      },
      {
        "name": "นันท์นภัสร์",
        "role": "ตรวจ",
        "date": "2553-03-08"
      },
      {
        "name": "อภิญญา",
        "role": "ปรับปรุง",
        "date": "2557-10-31"
      }
    ],
    "tag": "a117-2a-2553-a0001",
    "title": "กำหนดค่าบริการ ค่าภาระ หรือเงินตอบแทนเพื่อการใช้สนามบินอนุญาตที่ให้บริการแก่สาธารณะซึ่งเจ้าของหรือผู้ดำเนินการจะเรียกเก็บได้"
  }
}