{
  "pages": [
    [
      [
        "ระเบียบกรมการบินพลเรือน",
        "ว่าด้วยหนังสือรับรองแบบเฉพาะการ",
        "พ.ศ. ๒๕๕๓"
      ]
    ],
    []
  ],
  "metadata": {
    "date_backmatter": "2553-02-12",
    "date_modified": "2553-04-02",
    "date_original": "2553-04-02",
    "editors": [
      {
        "name": "ปริยานุช",
        "role": "ผู้จัดทำ",
        "date": "2553-06-17"
      },
      {
        "name": "นันท์นภัสร์",
        "role": "ตรวจ",
        "date": "2553-06-17"
      },
      {
        "name": "ปุณิกา",
        "role": "ปรับปรุง",
        "date": "2558-01-26"
      }
    ],
    "tag": "a117-2g-2553-a0001"
  }
}