{
  "pages": [
    [
      [
        "กฎกระทรวง",
        "กำหนดหลักเกณฑ์และวิธีการในการขอและการต่ออายุใบสำคัญสมควรเดินอากาศ",
        "พ.ศ. ๒๕๕๕"
      ]
    ],
    []
  ],
  "metadata": {
    "date_backmatter": "2555-08-05",
    "date_modified": "2555-08-21",
    "date_original": "2555-08-21",
    "doctype": "กฎกระทรวง",
    "editors": [
      {
        "name": "ปริยานุช",
        "role": "ผู้จัดทำ",
        "date": "2555-08-24"
      },
      {
        "name": "ชาญ",
        "role": "ผู้ตรวจ",
        "date": "2555-08-29"
      }
    ],
    "tag": "a117-2b-2555-a0003"
  }
}