{
  "pages": [
    [
      [
        "กฎกระทรวง",
        "ฉบับที่ ๑๙ (พ.ศ. ๒๕๒๐)",
        "ออกตามความในพระราชบัญญัติการเดินอากาศ",
        "พ.ศ. ๒๔๙๗"
      ]
    ],
    []
  ],
  "metadata": {
    "date_backmatter": "2520-08-02",
    "date_modified": "2520-08-09",
    "date_original": "2520-08-09",
    "doctype": "กฎกระทรวง",
    "editors": [
      {
        "name": "อภิญญา",
        "role": "ปรับปรุง",
        "date": "2557-11-11"
      }
    ],
    "tag": "a117-2b-2520-019"
  }
}