{
  "pages": [
    [
      [
        "ข้อกำหนดของสำนักงานการบินพลเรือนแห่งประเทศไทย",
        "ฉบับที่ ๑๐",
        "ว่าด้วยหลักเกณฑ์และวิธีการขอเปลี่ยนแปลงการดำเนินงานให้แตกต่างไปจากที่กำหนดไว้",
        "ในใบรับรองการดำเนินงานสนามบินสาธารณะ"
      ]
    ],
    []
  ],
  "metadata": {
    "date_backmatter": "2561-02-26",
    "date_modified": "2561-04-10",
    "date_original": "2561-04-10",
    "editors": [
      {
        "name": "พัชรภรณ์",
        "role": "จัดทำ",
        "date": "2561-06-11"
      }
    ],
    "tag": "a117-2h-2561-a0003"
  }
}