{
  "pages": [
    [
      [
        "ข้อบังคับของคณะกรรมการการบินพลเรือน",
        "ฉบับที่ ๒๔",
        "ค่าธรรมเนียมขึ้นลงและค่าธรรมเนียมที่เก็บอากาศยาน"
      ]
    ],
    []
  ],
  "metadata": {
    "date_backmatter": "2523-06-23",
    "date_modified": "2523-06-27",
    "date_original": "2523-06-27",
    "editors": [
      {
        "name": "ปุณิกา",
        "role": "ปรับปรุง",
        "date": "2558-02-05"
      }
    ],
    "tag": "a117-2i-2523-024"
  }
}