{
  "pages": [
    [
      [
        "พระราชบัญญัติ",
        "การเดินอากาศ (ฉบับที่ ๖)",
        "พ.ศ. ๒๕๑๔",
        "",
        "",
        "ภูมิพลอดุลยเดช ป.ร.",
        "ให้ไว้ ณ วันที่ ๒๒ กันยายน พ.ศ. ๒๕๑๔",
        "เป็นปีที่ ๒๖ ในรัชกาลปัจจุบัน"
      ]
    ],
    []
  ],
  "metadata": {
    "date_header": "2514-09-22",
    "date_modified": "2514-10-05",
    "date_original": "2514-10-05",
    "doctype": "พระราชบัญญัติ",
    "editors": [],
    "tag": "a117-20-2514-006",
    "title": "การเดินอากาศ (ฉบับที่ ๖)"
  }
}