{
  "pages": [
    [
      [
        "ข้อบังคับของคณะกรรมการการบินพลเรือน",
        "ฉบับที่ ๒๗ มาตรการรักษาความปลอดภัย"
      ]
    ],
    []
  ],
  "metadata": {
    "date_backmatter": "2527-12-06",
    "date_modified": "2527-12-28",
    "date_original": "2527-12-28",
    "editors": [
      {
        "name": "ปุณิกา",
        "role": "ปรับปรุง",
        "date": "2558-02-06"
      }
    ],
    "tag": "a117-2i-2527-027"
  }
}