{
  "pages": [
    [
      [
        "กฎกระทรวง",
        "(พ.ศ. 2497)",
        "ออกตามความในพระราชบัญญัติการเดินอากาศ",
        "พ.ศ. 2497"
      ]
    ],
    []
  ],
  "metadata": {
    "date_backmatter": "2497-12-13",
    "doctype": "กฎกระทรวง",
    "editors": [],
    "tag": "a117-2b-2523-024u"
  }
}