{
  "pages": [
    [
      [
        "ประกาศคณะกรรมการควบคุมการขนส่งทางบกกลาง",
        "ฉบับที่ ๑๘๒๖ (พ.ศ. ๒๕๕๐)",
        "เรื่อง กำหนด (ปรับปรุง) แก้ไขรายละเอียดเส้นทางสำหรับการขนส่งประจำทางด้วยรถโดยสาร",
        "หมวด ๓ ภาคกลางและภาคเหนือ จำนวน ๓ เส้นทาง"
      ]
    ],
    []
  ],
  "metadata": {
    "date_backmatter": "2550-08-21",
    "date_modified": "2550-11-08",
    "date_original": "2550-11-08",
    "doctype": "ประกาศ",
    "editors": [
      {
        "name": "ปริยานุช",
        "role": "ผู้จัดทำ",
        "date": "2550-11-20"
      }
    ],
    "tag": "a117-2e-2550-a0010"
  }
}