{
  "pages": [
    [
      [
        "ประกาศกระทรวงคมนาคม",
        "เรื่อง ยกเว้นค่าบริการในการขึ้นลงของอากาศยานและค่าบริการที่เก็บอากาศยาน",
        "ณ ท่าอากาศยานในความรับผิดชอบของกรมการบินพลเรือน",
        "พ.ศ. ๒๕๕๕"
      ]
    ],
    []
  ],
  "metadata": {
    "date_backmatter": "2555-04-19",
    "date_modified": "2555-04-27",
    "date_original": "2555-04-27",
    "doctype": "ประกาศ",
    "editors": [
      {
        "name": "ปริยานุช",
        "role": "ผู้จัดทำ",
        "date": "2555-05-01"
      },
      {
        "name": "ปณตภร",
        "role": "ผู้ตรวจ",
        "date": "2555-05-03"
      }
    ],
    "tag": "a117-2e-2555-a0001"
  }
}