{
  "pages": [
    [
      [
        "ข้อบังคับของคณะกรรมการการบินพลเรือน",
        "ฉบับที่ ๙๓",
        "ว่าด้วยการรักษาความปลอดภัยสินค้าและไปรษณียภัณฑ์ทางอากาศ"
      ]
    ],
    []
  ],
  "metadata": {
    "date_backmatter": "2558-05-22",
    "date_modified": "2558-06-12",
    "date_original": "2558-06-12",
    "editors": [
      {
        "name": "ปริยานุช",
        "role": "ผู้จัดทำ",
        "date": "2558-06-15"
      },
      {
        "name": "ปุณิกา",
        "role": "ผู้ตรวจ",
        "date": "2558-07-07"
      }
    ],
    "tag": "a117-2i-2558-a0004"
  }
}