{
  "pages": [
    [
      [
        "พระราชบัญญัติ",
        "จัดตั้งศาลแขวงและวิธีพิจารณาความอาญาในศาลแขวง (ฉบับที่ ๕)",
        "พ.ศ. ๒๕๓๙",
        "",
        "",
        "ภูมิพลอดุลยเดช ป.ร.",
        "ให้ไว้ ณ วันที่ ๒๖ กันยายน พ.ศ. ๒๕๓๙",
        "เป็นปีที่ ๕๑ ในรัชกาลปัจจุบัน"
      ]
    ],
    []
  ],
  "metadata": {
    "date_header": "2539-09-26",
    "date_modified": "2539-11-17",
    "date_original": "2539-11-17",
    "doctype": "พระราชบัญญัติ",
    "editors": [
      {
        "name": "สัญชัย",
        "role": "ผู้จัดทำ",
        "date": "2552-03-04"
      },
      {
        "name": "ฐิติพร",
        "role": "ปรับปรุง",
        "date": "2556-11-22"
      },
      {
        "name": "ปณตภร",
        "role": "ตรวจ",
        "date": "2557-03-28"
      }
    ],
    "tag": "a805-20-2539-005",
    "title": "จัดตั้งศาลแขวงและวิธีพิจารณาความอาญาในศาลแขวง (ฉบับที่ ๕)"
  }
}