{
  "pages": [
    [
      [
        "พระราชกฤษฎีกา",
        "เปลี่ยนแปลงเขตอำนาจศาลแขวงอุบลราชธานี",
        "พ.ศ. ๒๕๓๗",
        "",
        "",
        "ภูมิพลอดุลยเดช ป.ร.",
        "ให้ไว้ ณ วันที่ ๓๐ พฤศจิกายน พ.ศ. ๒๕๓๗",
        "เป็นปีที่ ๔๙ ในรัชกาลปัจจุบัน"
      ]
    ],
    []
  ],
  "metadata": {
    "date_header": "2537-11-30",
    "date_modified": "2537-12-26",
    "date_original": "2537-12-26",
    "doctype": "พระราชกฤษฎีกา",
    "editors": [
      {
        "name": "ศุภกรณ",
        "role": "ผู้จัดทำ",
        "date": "2553-10-26"
      },
      {
        "name": "เอกฤทธิ์",
        "role": "ผู้ตรวจ",
        "date": "2553-11-04"
      }
    ],
    "tag": "a805-2a-2537-002",
    "title": "เปลี่ยนแปลงเขตอำนาจศาลแขวงอุบลราชธานี"
  }
}