{
  "pages": [
    [
      [
        "ระเบียบคณะกรรมการกิจการกระจายเสียง กิจการโทรทัศน์",
        "และกิจการโทรคมนาคมแห่งชาติ",
        "ว่าด้วยค่าตอบแทนและค่าใช้จ่ายอื่นในการปฏิบัติงานของ",
        "คณะกรรมการติดตามและประเมินผลการปฏิบัติงาน",
        "พ.ศ. ๒๕๕๔"
      ]
    ],
    []
  ],
  "metadata": {
    "date_backmatter": "2554-12-30",
    "date_modified": "2557-05-30",
    "date_original": "2555-01-23",
    "editors": [
      {
        "name": "กฤษดายุทธ",
        "role": "ผู้จัดทำ",
        "date": "2557-06-18"
      }
    ],
    "tag": "cd18-2g-2557-a0009"
  }
}