{
  "pages": [
    [
      [
        "ประกาศสำนักงานคณะกรรมการกิจการกระจายเสียง",
        "กิจการโทรทัศน์ และกิจการโทรคมนาคมแห่งชาติ",
        "เรื่อง เครื่องโทรคมนาคมและอุปกรณ์ที่ผ่านการตรวจสอบและรับรองมาตรฐาน",
        "(ฉบับที่ ๑/๒๕๕๙)"
      ]
    ],
    []
  ],
  "metadata": {
    "date_backmatter": "2559-04-22",
    "date_modified": "2559-06-02",
    "date_original": "2559-06-02",
    "doctype": "ประกาศ",
    "editors": [
      {
        "name": "กัญฑรัตน์/ปริยานุช",
        "role": "จัดทำ",
        "date": "2559-06-06"
      },
      {
        "name": "นุสรา",
        "role": "ตรวจ",
        "date": "2559-07-13"
      }
    ],
    "tag": "cd18-2e-2559-a0018"
  }
}