{
  "pages": [
    [
      [
        "ระเบียบวุฒิสภา",
        "ว่าด้วยหลักเกณฑ์และวิธีการดำเนินการคัดเลือกบุคคล",
        "ผู้สมควรได้รับการเสนอชื่อเป็นกรรมการติดตามและประเมินผลการปฏิบัติงาน",
        "ตามพระราชบัญญัติองค์กรจัดสรรคลื่นความถี่และกำกับการประกอบกิจการวิทยุกระจายเสียง",
        "วิทยุโทรทัศน์ และกิจการโทรคมนาคม พ.ศ. ๒๕๕๓",
        "พ.ศ. ๒๕๕๕"
      ]
    ],
    []
  ],
  "metadata": {
    "date_backmatter": "2555-06-27",
    "date_modified": "2555-07-12",
    "date_original": "2555-07-12",
    "editors": [
      {
        "name": "ปริยานุช",
        "role": "ผู้จัดทำ",
        "date": "2555-07-18"
      },
      {
        "name": "ชาญ",
        "role": "ผู้ตรวจ",
        "date": "2555-07-24"
      }
    ],
    "tag": "cd18-2g-2555-a0013"
  }
}