{
  "pages": [
    [
      [
        "คำสั่งหัวหน้าคณะรักษาความสงบแห่งชาติ",
        "ที่ ๘/๒๕๕๘",
        "เรื่อง การเลือกกรรมการแทนตำแหน่งที่ว่างในคณะกรรมการกิจการกระจายเสียง",
        "กิจการโทรทัศน์ และกิจการโทรคมนาคมแห่งชาติ"
      ]
    ],
    []
  ],
  "metadata": {
    "date_backmatter": "2558-04-24",
    "date_modified": "2558-04-24",
    "date_original": "2558-04-24",
    "editors": [
      {
        "name": "ปริยานุช",
        "role": "ผู้จัดทำ",
        "date": "2558-04-27"
      },
      {
        "name": "ปริญสินีย์",
        "role": "ผู้ตรวจ",
        "date": "2558-04-27"
      }
    ],
    "tag": "cd18-20-2558-a0001"
  }
}