{
  "pages": [
    [
      [
        "ประกาศคณะกรรมการกิจการโทรคมนาคมแห่งชาติ",
        "เรื่อง แผนความถี่วิทยุกิจการ Broadband Wireless Access (BWA)",
        "ย่านความถี่วิทยุ ๒๓๐๐-๒๔๐๐ เมกะเฮิรตซ์ (MHz)"
      ]
    ],
    []
  ],
  "metadata": {
    "date_backmatter": "2552-09-24",
    "date_modified": "2552-10-16",
    "date_original": "2552-10-16",
    "doctype": "ประกาศ",
    "editors": [
      {
        "name": "ปริยานุช",
        "role": "ผู้จัดทำ",
        "date": "2552-10-20"
      },
      {
        "name": "นันท์นภัสร์",
        "role": "ตรวจ",
        "date": "2552-10-20"
      }
    ],
    "tag": "cd18-2e-2552-a0017"
  }
}