{
  "pages": [
    [
      [
        "ประกาศคณะกรรมการกิจการโทรคมนาคมแห่งชาติ",
        "เรื่อง มาตรการชั่วคราวเพื่อจัดสรรคลื่นความถี่วิทยุ"
      ]
    ],
    []
  ],
  "metadata": {
    "date_backmatter": "2548-01-07",
    "date_modified": "2548-03-31",
    "date_original": "2548-03-31",
    "doctype": "ประกาศ",
    "editors": [
      {
        "name": "สุนันทา",
        "role": "ผู้จัดทำ",
        "date": "2548-06-10"
      },
      {
        "name": "ปิติวรรณ",
        "role": "ปรับปรุง",
        "date": "2561-06-18"
      }
    ],
    "tag": "cd18-2e-2548-a0001"
  }
}