{
  "pages": [
    [
      [
        "ประกาศคณะกรรมการกิจการกระจายเสียง กิจการโทรทัศน์",
        "และกิจการโทรคมนาคมแห่งชาติ",
        "เรื่อง การส่งเสริมและคุ้มครองสิทธิของคนพิการ",
        "ให้เข้าถึงหรือรับรู้และใช้ประโยชน์จากรายการของกิจการโทรทัศน์"
      ]
    ],
    []
  ],
  "metadata": {
    "date_backmatter": "2559-01-04",
    "date_modified": "2559-02-05",
    "date_original": "2559-02-05",
    "doctype": "ประกาศ",
    "editors": [
      {
        "name": "ปริยานุช",
        "role": "จัดทำ",
        "date": "2559-02-08"
      },
      {
        "name": "ปุณิกา",
        "role": "ตรวจ",
        "date": "2559-02-08"
      }
    ],
    "tag": "cd18-2e-2559-a0003"
  }
}