{
  "pages": [
    [
      [
        "ประกาศสำนักงานคณะกรรมการกิจการกระจายเสียง",
        "กิจการโทรทัศน์ และกิจการโทรคมนาคมแห่งชาติ",
        "เรื่อง เครื่องโทรคมนาคมและอุปกรณ์ที่ผ่านการตรวจสอบและรับรองมาตรฐาน",
        "(ฉบับที่ ๘/๒๕๖๐)"
      ]
    ],
    []
  ],
  "metadata": {
    "date_backmatter": "2561-01-15",
    "date_modified": "2561-02-22",
    "date_original": "2561-02-22",
    "doctype": "ประกาศ",
    "editors": [
      {
        "name": "ปุณิกา",
        "role": "จัดทำ",
        "date": "2561-03-09"
      }
    ],
    "tag": "cd18-2e-2561-a0007"
  }
}