{
  "pages": [
    [
      [
        "ประกาศคณะกรรมการกิจการโทรคมนาคมแห่งชาติ",
        "ว่าด้วย แผนความถี่วิทยุ",
        "เรื่อง แผนความถี่วิทยุ กิจการประจำที่ ความถี่วิทยุย่าน 6.7 GHz"
      ]
    ],
    []
  ],
  "metadata": {
    "date_backmatter": "2550-09-20",
    "date_modified": "2550-10-22",
    "date_original": "2550-10-22",
    "doctype": "ประกาศ",
    "editors": [
      {
        "name": "วัชศักดิ์",
        "role": "ผู้จัดทำ",
        "date": "2550-11-06"
      }
    ],
    "tag": "cd18-2e-2550-a0033"
  }
}