{
  "pages": [
    [
      [
        "ระเบียบคณะกรรมการกิจการกระจายเสียง กิจการโทรทัศน์",
        "และกิจการโทรคมนาคมแห่งชาติ",
        "ว่าด้วยการจ่ายค่าตอบแทนการปฏิบัติงานนอกเวลาทำการ",
        "พ.ศ. ๒๕๖๐"
      ]
    ],
    []
  ],
  "metadata": {
    "date_backmatter": "2560-07-27",
    "date_modified": "2560-08-08",
    "date_original": "2560-08-08",
    "editors": [
      {
        "name": "ปวันวิทย์/อัญชลี",
        "role": "จัดทำ",
        "date": "2560-08-10"
      }
    ],
    "tag": "cd18-2g-2560-a0001"
  }
}