{
  "pages": [
    [
      [
        "ประกาศคณะกรรมการกิจการกระจายเสียง กิจการโทรทัศน์",
        "และกิจการโทรคมนาคมแห่งชาติ",
        "เรื่อง แผนความถี่วิทยุ กิจการเคลื่อนที่ทางบกและกิจการประจำที่",
        "ย่านความถี่ ๑๓๗  ๑๗๔ เมกะเฮิรตซ์ (MHz)"
      ]
    ],
    []
  ],
  "metadata": {
    "date_backmatter": "2559-03-01",
    "date_modified": "2559-03-30",
    "date_original": "2559-03-30",
    "doctype": "ประกาศ",
    "editors": [
      {
        "name": "ปริยานุช",
        "role": "จัดทำ",
        "date": "2559-04-04"
      },
      {
        "name": "ชวัลพร",
        "role": "ตรวจ",
        "date": "2559-04-04"
      }
    ],
    "tag": "cd18-2e-2559-a0011"
  }
}