{
  "pages": [
    [
      [
        "ประกาศประธานกรรมการกิจการกระจายเสียง กิจการโทรทัศน์",
        "และกิจการโทรคมนาคมแห่งชาติ",
        "เรื่อง หลักเกณฑ์ วิธีการคัดเลือกพนักงานประเภทตำแหน่งปฏิบัติการ",
        "และลูกจ้างของสำนักงาน กสทช. และเกณฑ์การตัดสิน (ฉบับที่ ๓)",
        "พ.ศ. ๒๕๖๐"
      ]
    ],
    []
  ],
  "metadata": {
    "date_backmatter": "2560-10-04",
    "date_modified": "2560-10-25",
    "date_original": "2560-10-25",
    "doctype": "ประกาศ",
    "editors": [
      {
        "name": "พิมพ์มาดา/ภวรรณตรี",
        "role": "จัดทำ",
        "date": "2560-11-08"
      },
      {
        "name": "วิชพงษ์",
        "role": "ตรวจ",
        "date": "2560-11-20"
      }
    ],
    "tag": "cd18-2e-2560-a0039"
  }
}