{
  "pages": [
    [
      [
        "ประกาศคณะกรรมการกิจการโทรคมนาคมแห่งชาติ",
        "ว่าด้วยมาตรฐานทางเทคนิคของเครื่องโทรคมนาคมและอุปกรณ์",
        "เรื่อง มาตรฐานทางเทคนิคด้านความปลอดภัยทางไฟฟ้า"
      ]
    ],
    []
  ],
  "metadata": {
    "date_backmatter": "2550-12-27",
    "date_modified": "2551-01-18",
    "date_original": "2551-01-18",
    "doctype": "ประกาศ",
    "editors": [
      {
        "name": "ปริยานุช",
        "role": "ผู้จัดทำ",
        "date": "2551-02-06"
      }
    ],
    "tag": "cd18-2e-2551-a0009"
  }
}