{
  "pages": [
    [
      [
        "ประกาศคณะกรรมการกิจการกระจายเสียง กิจการโทรทัศน์ และกิจการโทรคมนาคมแห่งชาติ",
        "เรื่อง หลักเกณฑ์การปรับปรุงการใช้คลื่นความถี่ ย่านความถี่ ๓๘๐ - ๕๑๐ เมกะเฮิรตซ์ (MHz)"
      ]
    ],
    []
  ],
  "metadata": {
    "date_backmatter": "2558-05-28",
    "date_modified": "2558-06-25",
    "date_original": "2558-06-25",
    "doctype": "ประกาศ",
    "editors": [
      {
        "name": "ปริยานุช",
        "role": "ผู้จัดทำ",
        "date": "2558-06-30"
      },
      {
        "name": "ปริญสินีย์",
        "role": "ผู้ตรวจ",
        "date": "2558-06-30"
      }
    ],
    "tag": "cd18-2e-2558-a0055"
  }
}