{
  "pages": [
    [
      [
        "ประกาศคณะกรรมการกิจการกระจายเสียง กิจการโทรทัศน์",
        "และกิจการโทรคมนาคมแห่งชาติ",
        "เรื่อง การแต่งตั้งพนักงานเจ้าหน้าที่และการมอบหมายให้ปฏิบัติการแทน",
        "คณะกรรมการกิจการกระจายเสียง กิจการโทรทัศน์ และกิจการโทรคมนาคมแห่งชาติ",
        "ในการกำกับดูแลการประกอบกิจการกระจายเสียงและกิจการโทรทัศน์"
      ]
    ],
    []
  ],
  "metadata": {
    "date_backmatter": "2557-10-30",
    "date_modified": "2557-11-21",
    "date_original": "2557-11-21",
    "doctype": "ประกาศ",
    "editors": [
      {
        "name": "ปริยานุช",
        "role": "ผู้จัดทำ",
        "date": "2557-11-24"
      },
      {
        "name": "กฤษดายุทธ",
        "role": "ผู้ตรวจ",
        "date": "2557-11-24"
      }
    ],
    "tag": "cd18-2e-2557-a0035"
  }
}