{
  "pages": [
    [
      [
        "ระเบียบคณะกรรมการกิจการกระจายเสียง กิจการโทรทัศน์",
        "และกิจการโทรคมนาคมแห่งชาติ",
        "ว่าด้วยค่าตอบแทนและค่าใช้จ่ายอื่นในการปฏิบัติงานของ",
        "คณะกรรมการติดตามและประเมินผลการปฏิบัติงาน (ฉบับที่ ๒)",
        "พ.ศ. ๒๕๕๗"
      ]
    ],
    []
  ],
  "metadata": {
    "date_backmatter": "2557-05-20",
    "date_modified": "2557-05-30",
    "date_original": "2557-05-30",
    "editors": [
      {
        "name": "ปริยานุช",
        "role": "ผู้จัดทำ",
        "date": "2557-05-30"
      },
      {
        "name": "พจนา",
        "role": "ผู้ตรวจ",
        "date": "2557-07-02"
      }
    ],
    "tag": "cd18-2g-2557-a0004"
  }
}