{
  "pages": [
    [
      [
        "ประกาศคณะกรรมการกิจการโทรคมนาคมแห่งชาติ",
        "เรื่อง กระบวนการออกใบอนุญาตแบบอัตโนมัติ (Automatic License) (ฉบับที่ ๓)"
      ]
    ],
    []
  ],
  "metadata": {
    "date_backmatter": "2553-09-21",
    "date_modified": "2553-10-14",
    "date_original": "2553-10-14",
    "doctype": "ประกาศ",
    "editors": [
      {
        "name": "ปริยานุช",
        "role": "ผู้จัดทำ",
        "date": "2553-10-21"
      },
      {
        "name": "ณัฐวดี",
        "role": "ตรวจ",
        "date": "2553-10-21"
      }
    ],
    "tag": "cd18-2e-2553-a0017"
  }
}