{
  "pages": [
    [
      [
        "คำสั่งคณะกรรมการกิจการกระจายเสียงกิจการโทรทัศน์",
        "และกิจการโทรคมนาคมแห่งชาติ",
        "ที่ ๒๐/๒๕๕๔",
        "เรื่อง แต่งตั้งคณะกรรมการกิจการกระจายเสียงและกิจการโทรทัศน์",
        "และคณะกรรมการกิจการโทรคมนาคม"
      ]
    ],
    []
  ],
  "metadata": {
    "date_backmatter": "2554-10-17",
    "date_modified": "2554-10-20",
    "date_original": "2554-10-20",
    "editors": [
      {
        "name": "ปริยานุช",
        "role": "ผู้จัดทำ",
        "date": "2554-10-26"
      },
      {
        "name": "ปณตภร",
        "role": "ผู้ตรวจ",
        "date": "2554-11-10"
      }
    ],
    "tag": "cd18-2f-2554-a0003"
  }
}