{
  "pages": [
    [
      [
        "ประกาศคณะกรรมการกิจการกระจายเสียง กิจการโทรทัศน์",
        "และกิจการโทรคมนาคมแห่งชาติ",
        "เรื่อง กำหนดให้เครื่องวิทยุคมนาคมและสถานีวิทยุคมนาคมในกิจการกระจายเสียง",
        "และกิจการโทรทัศน์ได้รับยกเว้นไม่ต้องได้รับใบอนุญาต",
        "ตามพระราชบัญญัติวิทยุคมนาคม พ.ศ. ๒๔๙๘",
        "พ.ศ. ๒๕๕๖"
      ]
    ],
    []
  ],
  "metadata": {
    "date_backmatter": "2556-07-04",
    "date_modified": "2556-07-31",
    "date_original": "2556-07-31",
    "doctype": "ประกาศ",
    "editors": [
      {
        "name": "ปริยานุช",
        "role": "ผู้จัดทำ",
        "date": "2556-08-05"
      },
      {
        "name": "อุษมล",
        "role": "ผู้ตรวจ",
        "date": "2556-08-08"
      }
    ],
    "tag": "cd18-2e-2556-a0027"
  }
}