{
  "pages": [
    [
      [
        "ประกาศคณะกรรมการกิจการโทรคมนาคมแห่งชาติ",
        "เรื่อง หลักเกณฑ์และเงื่อนไขการพิจารณามาตรฐานบริการที่ดีสำหรับการเชื่อมต่อ",
        "โครงข่ายโทรคมนาคม"
      ]
    ],
    []
  ],
  "metadata": {
    "date_backmatter": "2551-03-04",
    "date_modified": "2551-03-28",
    "date_original": "2551-03-28",
    "doctype": "ประกาศ",
    "editors": [
      {
        "name": "ปริยานุช",
        "role": "ผู้จัดทำ",
        "date": "2551-04-01"
      }
    ],
    "tag": "cd18-2e-2551-a0013"
  }
}