{
  "pages": [
    [
      [
        "ประกาศคณะกรรมการกิจการโทรคมนาคมแห่งชาติ",
        "เรื่อง หลักเกณฑ์ในการจัดสรรเลขหมายโทรคมนาคมชั่วคราว"
      ]
    ],
    []
  ],
  "metadata": {
    "date_backmatter": "2548-08-02",
    "date_modified": "2548-08-04",
    "date_original": "2548-08-04",
    "doctype": "ประกาศ",
    "editors": [
      {
        "name": "ฐิติพงษ์",
        "role": "ผู้จัดทำ",
        "date": "2548-08-18"
      }
    ],
    "tag": "cd18-2e-2548-a0015"
  }
}