{
  "pages": [
    [
      [
        "ประกาศคณะกรรมการกิจการกระจายเสียง กิจการโทรทัศน์",
        "และกิจการโทรคมนาคมแห่งชาติ",
        "เรื่อง หลักเกณฑ์การจัดทำผังรายการสำหรับการให้บริการกระจายเสียงหรือโทรทัศน์ (ฉบับที่ ๒)",
        "พ.ศ. ๒๕๕๗"
      ]
    ],
    []
  ],
  "metadata": {
    "date_backmatter": "2557-01-30",
    "date_modified": "2557-02-17",
    "date_original": "2557-02-17",
    "doctype": "ประกาศ",
    "editors": [
      {
        "name": "ปริยานุช",
        "role": "ผู้จัดทำ",
        "date": "2557-02-25"
      },
      {
        "name": "อุษมล",
        "role": "ผู้ตรวจ",
        "date": "2557-02-27"
      }
    ],
    "tag": "cd18-2e-2557-a0005"
  }
}