{
  "pages": [
    [
      [
        "ระเบียบคณะกรรมการกิจการกระจายเสียง กิจการโทรทัศน์",
        "และกิจการโทรคมนาคมแห่งชาติ",
        "ว่าด้วยเครื่องแบบและการแต่งกายของเลขาธิการ กสทช. พนักงาน ลูกจ้าง",
        "และผู้ปฏิบัติงานของสำนักงาน กสทช.",
        "พ.ศ. ๒๕๕๕"
      ]
    ],
    []
  ],
  "metadata": {
    "date_backmatter": "2555-11-30",
    "date_modified": "2561-06-19",
    "date_original": "2555-12-26",
    "editors": [
      {
        "name": "พิมพ์มาดา",
        "role": "จัดทำ",
        "date": "2561-09-03"
      }
    ],
    "tag": "cd18-2g-9989-update"
  }
}