{
  "pages": [
    [
      [
        "ประกาศคณะกรรมการกิจการกระจายเสียง กิจการโทรทัศน์",
        "และกิจการโทรคมนาคมแห่งชาติ",
        "เรื่อง หลักเกณฑ์การอนุญาตให้ใช้เครื่องวิทยุคมนาคมในกิจการประจำที่",
        "ย่านความถี่ ๕๗ - ๖๖ กิกะเฮิรตซ์"
      ]
    ],
    []
  ],
  "metadata": {
    "date_backmatter": "2559-10-13",
    "date_modified": "2559-11-24",
    "date_original": "2559-11-24",
    "doctype": "ประกาศ",
    "editors": [
      {
        "name": "ปริยานุช",
        "role": "จัดทำ",
        "date": "2559-11-28"
      },
      {
        "name": "ชนิกา",
        "role": "ตรวจ",
        "date": "2559-11-30"
      }
    ],
    "tag": "cd18-2e-2559-a0036"
  }
}