{
  "pages": [
    [
      [
        "ประกาศคณะกรรมการกิจการโทรคมนาคมแห่งชาติ",
        "ว่าด้วยมาตรฐานทางเทคนิคของเครื่องโทรคมนาคมและอุปกรณ์",
        "เรื่อง เครื่องวิทยุคมนาคมที่ใช้เทคโนโลยี Broadband Wireless Access",
        "ในลักษณะ Metropolitan Area Network (MAN)"
      ]
    ],
    []
  ],
  "metadata": {
    "date_backmatter": "2549-12-28",
    "date_modified": "2550-01-26",
    "date_original": "2550-01-26",
    "doctype": "ประกาศ",
    "editors": [
      {
        "name": "วัชศักดิ์",
        "role": "ผู้จัดทำ",
        "date": "2550-01-30"
      }
    ],
    "tag": "cd18-2e-2550-a0006"
  }
}