{
  "pages": [
    [
      [
        "ประกาศสำนักงานคณะกรรมการกิจการกระจายเสียง",
        "กิจการโทรทัศน์และกิจการโทรคมนาคมแห่งชาติ",
        "เรื่อง ขอบข่ายการให้บริการทดสอบเครื่องโทรคมนาคมและอุปกรณ์"
      ]
    ],
    []
  ],
  "metadata": {
    "date_backmatter": "2557-10-06",
    "date_modified": "2557-11-20",
    "date_original": "2557-11-20",
    "doctype": "ประกาศ",
    "editors": [
      {
        "name": "ปริยานุช",
        "role": "ผู้จัดทำ",
        "date": "2557-11-24"
      },
      {
        "name": "กฤษดายุทธ",
        "role": "ผู้ตรวจ",
        "date": "2557-11-24"
      }
    ],
    "tag": "cd18-2e-2558-a0047"
  }
}