{
  "pages": [
    [
      [
        "ระเบียบคณะกรรมการกิจการกระจายเสียง กิจการโทรทัศน์",
        "และกิจการโทรคมนาคมแห่งชาติ",
        "ว่าด้วยเครื่องแบบและการแต่งกายของเลขาธิการ กสทช. พนักงาน ลูกจ้าง",
        "และผู้ปฏิบัติงานของสำนักงาน กสทช.",
        "พ.ศ. ๒๕๕๕"
      ]
    ],
    []
  ],
  "metadata": {
    "date_backmatter": "2555-11-30",
    "date_modified": "2555-12-26",
    "date_original": "2555-12-26",
    "editors": [
      {
        "name": "อุษมล",
        "role": "ผู้จัดทำ",
        "date": "2556-01-08"
      },
      {
        "name": "เอกฤทธิ์",
        "role": "ผู้ตรวจ",
        "date": "2556-01-08"
      }
    ],
    "tag": "cd18-2g-2555-a0024"
  }
}