{
  "pages": [
    [
      [
        "ประกาศคณะกรรมการกิจการกระจายเสียง กิจการโทรทัศน์",
        "และกิจการโทรคมนาคมแห่งชาติ",
        "เรื่อง แผนแม่บทการบริหารคลื่นความถี่ (พ.ศ. ๒๕๕๕)",
        "แผนแม่บทกิจการกระจายเสียง และกิจการโทรทัศน์ ฉบับที่ ๑ (พ.ศ. ๒๕๕๕ - ๒๕๕๙)",
        "และแผนแม่บทกิจการโทรคมนาคม ฉบับที่ ๑ (พ.ศ. ๒๕๕๕ - ๒๕๕๙)"
      ]
    ],
    []
  ],
  "metadata": {
    "date_backmatter": "2555-04-03",
    "date_modified": "2560-09-06",
    "date_original": "2555-04-04",
    "doctype": "ประกาศ",
    "editors": [
      {
        "name": "ปุณิกา",
        "role": "ผู้จัดทำ",
        "date": "2558-10-09"
      },
      {
        "name": "ปัญญา",
        "role": "ตรวจ",
        "date": "2558-10-09"
      },
      {
        "name": "ปริญสินีย์",
        "role": "เพิ่มเติม",
        "date": "2560-10-30"
      }
    ],
    "tag": "cd18-2e-9993-update"
  }
}