{
  "pages": [
    [
      [
        "ประกาศคณะกรรมการกิจการกระจายเสียง กิจการโทรทัศน์",
        "และกิจการโทรคมนาคมแห่งชาติ",
        "เรื่อง หลักเกณฑ์การพิจารณากำหนดผู้มีอำนาจเหนือตลาดอย่างมีนัยสำคัญในตลาดที่เกี่ยวข้อง",
        "ในกิจการกระจายเสียงและกิจการโทรทัศน์ และมาตรการเฉพาะเพื่อป้องกันมิให้มีการกระทำอันเป็น",
        "การผูกขาดหรือก่อให้เกิดความไม่เป็นธรรมในการแข่งขัน",
        "พ.ศ. ๒๕๕๗"
      ]
    ],
    []
  ],
  "metadata": {
    "date_backmatter": "2557-07-30",
    "date_modified": "2557-08-15",
    "date_original": "2557-08-15",
    "doctype": "ประกาศ",
    "editors": [
      {
        "name": "ปริยานุช",
        "role": "ผู้จัดทำ",
        "date": "2557-09-11"
      },
      {
        "name": "จุฑามาศ",
        "role": "ผู้ตรวจ",
        "date": "2557-09-15"
      }
    ],
    "tag": "cd18-2e-2557-a0028"
  }
}