{
  "pages": [
    [
      [
        "ระเบียบคณะกรรมการกิจการโทรคมนาคมแห่งชาติ",
        "ว่าด้วยการรับเงินหรือทรัพย์สินที่มีผู้บริจาคให้",
        "สำนักงานคณะกรรมการกิจการโทรคมนาคมแห่งชาติ",
        "พ.ศ. ๒๕๔๙"
      ]
    ],
    []
  ],
  "metadata": {
    "date_backmatter": "2549-03-15",
    "date_modified": "2549-04-07",
    "date_original": "2549-04-07",
    "editors": [
      {
        "name": "ชัชสรัญ",
        "role": "ผู้จัดทำ",
        "date": "2549-04-17"
      },
      {
        "name": "ปิติวรรณ",
        "role": "ปรับปรุง",
        "date": "2561-06-26"
      }
    ],
    "tag": "cd18-2g-2549-a0001"
  }
}