{
  "pages": [
    [
      [
        "ประกาศคณะกรรมการกิจการกระจายเสียง กิจการโทรทัศน์",
        "และกิจการโทรคมนาคมแห่งชาติ",
        "เรื่อง การนำเข้าเครื่องวิทยุคมนาคม"
      ]
    ],
    []
  ],
  "metadata": {
    "date_backmatter": "2554-03-15",
    "date_modified": "2554-05-18",
    "date_original": "2554-05-18",
    "doctype": "ประกาศ",
    "editors": [
      {
        "name": "ปริยานุช",
        "role": "ผู้จัดทำ",
        "date": "2554-05-31"
      },
      {
        "name": "ณัฐวดี",
        "role": "ตรวจ",
        "date": "2554-05-31"
      }
    ],
    "tag": "cd18-2e-2554-a0009"
  }
}