{
  "pages": [
    [
      [
        "ประกาศคณะกรรมการกิจการกระจายเสียง กิจการโทรทัศน์",
        "และกิจการโทรคมนาคมแห่งชาติ",
        "เรื่อง หลักเกณฑ์การปรับปรุงการใช้คลื่นความถี่ กิจการเคลื่อนที่ทางบกและกิจการประจำที่",
        "ย่านความถี่ ๑๓๗ - ๑๗๔ เมกะเฮิรตซ์ (MHz)"
      ]
    ],
    []
  ],
  "metadata": {
    "date_backmatter": "2559-03-01",
    "date_modified": "2560-09-06",
    "date_original": "2559-03-30",
    "doctype": "ประกาศ",
    "editors": [
      {
        "name": "พรวิภา",
        "role": "จัดทำ",
        "date": "2560-10-20"
      },
      {
        "name": "ปริญสินีย์",
        "role": "ตรวจ",
        "date": "2560-10-30"
      }
    ],
    "tag": "cd18-2e-9985-update"
  }
}