{
  "pages": [
    [
      [
        "ระเบียบคณะกรรมการกิจการโทรคมนาคมแห่งชาติ",
        "ว่าด้วยค่าตอบแทน และค่าใช้จ่ายสำหรับการปฏิบัติงานของ",
        "คณะอนุกรรมการวิทยุกระจายเสียงและวิทยุโทรทัศน์ พ.ศ. ๒๕๕๒"
      ]
    ],
    []
  ],
  "metadata": {
    "date_backmatter": "2552-01-26",
    "date_modified": "2553-03-23",
    "date_original": "2553-03-23",
    "editors": [
      {
        "name": "ปริยานุช",
        "role": "พิมพ์",
        "date": "2553-04-05"
      },
      {
        "name": "นันท์นภัสร์",
        "role": "ตรวจ",
        "date": "2553-04-05"
      },
      {
        "name": "ปิติวรรณ",
        "role": "ปรับปรุง",
        "date": "2561-06-27"
      }
    ],
    "tag": "cd18-2g-2553-a0001"
  }
}