{
  "pages": [
    [
      [
        "ประกาศสำนักงานคณะกรรมการกิจการกระจายเสียง กิจการโทรทัศน์",
        "และกิจการโทรคมนาคมแห่งชาติ",
        "เรื่อง แนวทางการจัดทำล่ามภาษามือ คำบรรยายแทนเสียง",
        "และเสียงบรรยายภาพสำหรับการให้บริการโทรทัศน์",
        "ตามประกาศคณะกรรมการกิจการกระจายเสียง กิจการโทรทัศน์",
        "และกิจการโทรคมนาคมแห่งชาติ เรื่อง การส่งเสริมและคุ้มครองสิทธิของ",
        "คนพิการให้เข้าถึงหรือรับรู้และใช้ประโยชน์จากรายการของกิจการโทรทัศน์"
      ]
    ],
    []
  ],
  "metadata": {
    "date_backmatter": "2560-11-27",
    "date_modified": "2560-12-27",
    "date_original": "2560-12-27",
    "doctype": "ประกาศ",
    "editors": [
      {
        "name": "ปวันวิทย์/อัญชลี",
        "role": "จัดทำ",
        "date": "2561-01-05"
      }
    ],
    "tag": "cd18-2e-2560-a0222"
  }
}