{
  "pages": [
    [
      [
        "ระเบียบคณะกรรมการกิจการกระจายเสียง กิจการโทรทัศน์",
        "และกิจการโทรคมนาคมแห่งชาติ",
        "ว่าด้วยค่าตอบแทนและค่าใช้จ่ายอื่นในการปฏิบัติงานของ",
        "คณะกรรมการติดตามและประเมินผลการปฏิบัติงาน",
        "พ.ศ. ๒๕๕๔"
      ]
    ],
    []
  ],
  "metadata": {
    "date_backmatter": "2554-12-30",
    "date_modified": "2555-01-23",
    "date_original": "2555-01-23",
    "editors": [
      {
        "name": "ปริยานุช",
        "role": "ผู้จัดทำ",
        "date": "2555-01-26"
      },
      {
        "name": "ชาญ",
        "role": "ผู้ตรวจ",
        "date": "2555-02-03"
      }
    ],
    "tag": "cd18-2g-2555-a0005"
  }
}