{
  "pages": [
    [
      [
        "ระเบียบคณะกรรมการกิจการกระจายเสียง กิจการโทรทัศน์",
        "และกิจการโทรคมนาคมแห่งชาติ",
        "ว่าด้วยการงบประมาณของสำนักงาน กสทช. (ฉบับที่ ๒)",
        "พ.ศ. ๒๕๖๑"
      ]
    ],
    []
  ],
  "metadata": {
    "date_backmatter": "2561-01-30",
    "date_modified": "2561-02-05",
    "date_original": "2561-02-05",
    "editors": [
      {
        "name": "ภูมิกิติ",
        "role": "จัดทำ",
        "date": "2561-02-12"
      },
      {
        "name": "นุสรา",
        "role": "ตรวจ",
        "date": "2561-03-16"
      }
    ],
    "tag": "cd18-2g-2561-a0002"
  }
}