{
  "pages": [
    [
      [
        "ประกาศสำนักงานคณะกรรมการกิจการกระจายเสียง",
        "กิจการโทรทัศน์ และกิจการโทรคมนาคมแห่งชาติ",
        "เรื่อง เครื่องโทรคมนาคมและอุปกรณ์ที่ผ่านการตรวจสอบและรับรองมาตรฐาน (ฉบับที่ ๘/๒๕๕๗)"
      ]
    ],
    []
  ],
  "metadata": {
    "date_backmatter": "2557-11-07",
    "date_modified": "2557-12-30",
    "date_original": "2557-12-30",
    "doctype": "ประกาศ",
    "editors": [
      {
        "name": "ปริยานุช",
        "role": "ผู้จัดทำ",
        "date": "2558-01-08"
      },
      {
        "name": "วิศนี",
        "role": "ผู้ตรวจ",
        "date": "2558-01-13"
      }
    ],
    "tag": "cd18-2e-2557-a0040"
  }
}