{
  "pages": [
    [
      [
        "ประกาศคณะกรรมการกิจการกระจายเสียง กิจการโทรทัศน์",
        "และกิจการโทรคมนาคมแห่งชาติ",
        "เรื่อง แผนความถี่วิทยุกิจการกระจายเสียงระบบดิจิตอลเพื่อการทดลองหรือทดสอบ"
      ]
    ],
    []
  ],
  "metadata": {
    "date_backmatter": "2561-01-29",
    "date_modified": "2561-02-27",
    "date_original": "2561-02-27",
    "doctype": "ประกาศ",
    "editors": [
      {
        "name": "พัชรภรณ์",
        "role": "จัดทำ",
        "date": "2561-04-20"
      }
    ],
    "tag": "cd18-2e-2561-a0013"
  }
}