{
  "pages": [
    [
      [
        "ประกาศคณะกรรมการกิจการกระจายเสียง กิจการโทรทัศน์ และกิจการโทรคมนาคมแห่งชาติ",
        "เรื่อง หลักเกณฑ์และเงื่อนไขการอนุญาตให้ใช้คลื่นความถี่สำหรับอากาศยานซึ่งไม่มีนักบิน",
        "สำหรับใช้งานเป็นการทั่วไป"
      ]
    ],
    []
  ],
  "metadata": {
    "date_backmatter": "2561-01-12",
    "date_modified": "2561-01-18",
    "date_original": "2561-01-18",
    "doctype": "ประกาศ",
    "editors": [
      {
        "name": "พัชรภรณ์",
        "role": "จัดทำ",
        "date": "2561-01-29"
      }
    ],
    "tag": "cd18-2e-2561-a0001"
  }
}