{
  "pages": [
    [
      [
        "ระเบียบคณะกรรมการกิจการโทรคมนาคมแห่งชาติ",
        "ว่าด้วย เครื่องแบบปฏิบัติการและเครื่องแบบประจำสำนักงาน",
        "ของสำนักงานคณะกรรมการกิจการโทรคมนาคมแห่งชาติ (ฉบับที่ ๓)",
        "พ.ศ. ๒๕๕๒"
      ]
    ],
    []
  ],
  "metadata": {
    "date_backmatter": "2552-04-27",
    "date_modified": "2552-06-08",
    "date_original": "2552-06-08",
    "editors": [
      {
        "name": "ปริยานุช",
        "role": "ผู้จัดทำ",
        "date": "2552-06-16"
      },
      {
        "name": "ปิติวรรณ",
        "role": "ปรับปรุง",
        "date": "2561-06-26"
      }
    ],
    "tag": "cd18-2g-2552-a0006"
  }
}