{
  "pages": [
    [
      [
        "ประกาศคณะกรรมการกิจการโทรคมนาคมแห่งชาติ",
        "เรื่อง หลักเกณฑ์และวิธีการให้บริการโครงข่ายสายแบบแยกส่วน",
        "พ.ศ. ๒๕๕๓"
      ]
    ],
    []
  ],
  "metadata": {
    "date_backmatter": "2553-08-20",
    "date_modified": "2553-09-08",
    "date_original": "2553-09-08",
    "doctype": "ประกาศ",
    "editors": [
      {
        "name": "ปริยานุช",
        "role": "ผู้จัดทำ",
        "date": "2553-09-14"
      },
      {
        "name": "นันท์นภัสร์",
        "role": "ตรวจ",
        "date": "2553-09-14"
      }
    ],
    "tag": "cd18-2e-2553-a0016"
  }
}