{
  "pages": [
    [
      [
        "ประกาศคณะกรรมการกิจการกระจายเสียง กิจการโทรทัศน์",
        "และกิจการโทรคมนาคมแห่งชาติ",
        "เรื่อง การอนุญาตให้ใช้เครื่องวิทยุคมนาคมสื่อสารระยะสั้น (Short Range Devices) ย่านความถี่วิทยุ",
        "๕๗ - ๖๖ GHz ในลักษณะ Wireless Local Area Network (WLAN)",
        "หรือ Wireless Personal Area Network (WPAN)",
        "พ.ศ. ๒๕๕๗"
      ]
    ],
    []
  ],
  "metadata": {
    "date_backmatter": "2557-02-28",
    "date_modified": "2557-03-18",
    "date_original": "2557-03-18",
    "doctype": "ประกาศ",
    "editors": [
      {
        "name": "ปริยานุช",
        "role": "ผู้จัดทำ",
        "date": "2557-03-25"
      },
      {
        "name": "กฤษดายุทธ",
        "role": "ผู้ตรวจ",
        "date": "2557-03-25"
      }
    ],
    "tag": "cd18-2e-2557-a0009"
  }
}