{
  "pages": [
    [
      [
        "ประกาศคณะกรรมการกิจการกระจายเสียง กิจการโทรทัศน์",
        "และกิจการโทรคมนาคมแห่งชาติ",
        "เรื่อง มาตรฐานของคุณภาพการให้บริการโทรคมนาคมประเภทเสียง"
      ]
    ],
    []
  ],
  "metadata": {
    "date_backmatter": "2560-05-15",
    "date_modified": "2560-06-29",
    "date_original": "2560-06-29",
    "doctype": "ประกาศ",
    "editors": [
      {
        "name": "ปุณิกา/อัญชลี",
        "role": "จัดทำ",
        "date": "2560-07-03"
      },
      {
        "name": "นุสรา",
        "role": "ตรวจ",
        "date": "2560-11-13"
      }
    ],
    "tag": "cd18-2e-2560-a0016"
  }
}