{
  "pages": [
    [
      [
        "ประกาศคณะกรรมการกิจการโทรคมนาคมแห่งชาติ",
        "เรื่อง มาตรฐานทางเทคนิคสำหรับการเชื่อมต่อโครงข่ายโทรคมนาคม",
        "แบบ Next Generation Network (NGN)"
      ]
    ],
    []
  ],
  "metadata": {
    "date_backmatter": "2550-11-14",
    "date_modified": "2551-01-17",
    "date_original": "2551-01-17",
    "doctype": "ประกาศ",
    "editors": [
      {
        "name": "ปริยานุช",
        "role": "ผู้จัดทำ",
        "date": "2551-02-06"
      }
    ],
    "tag": "cd18-2e-2551-a0004"
  }
}