{
  "pages": [
    [
      [
        "ประกาศคณะกรรมการกิจการกระจายเสียง กิจการโทรทัศน์",
        "และกิจการโทรคมนาคมแห่งชาติ",
        "เรื่อง ประกาศใช้แผนแม่บทกิจการโทรคมนาคมชั่วคราว"
      ]
    ],
    []
  ],
  "metadata": {
    "date_backmatter": "2554-02-17",
    "date_modified": "2554-03-31",
    "date_original": "2554-03-31",
    "doctype": "ประกาศ",
    "editors": [
      {
        "name": "ปริยานุช",
        "role": "ผู้จัดทำ",
        "date": "2554-04-20"
      },
      {
        "name": "ณัฐวดี",
        "role": "ตรวจ",
        "date": "2554-04-20"
      }
    ],
    "tag": "cd18-2e-2554-a0002"
  }
}