{
  "pages": [
    [
      [
        "ประกาศคณะกรรมการควบคุมการขนส่งทางบก",
        "ประจำจังหวัดร้อยเอ็ด",
        "ฉบับที่ ๒๘ (พ.ศ. ๒๕๕๐)",
        "เรื่อง ยกเลิกเส้นทางสำหรับการขนส่งโดยรถขนาดเล็ก"
      ]
    ],
    []
  ],
  "metadata": {
    "date_backmatter": "2550-02-08",
    "date_modified": "2550-04-05",
    "date_original": "2550-04-05",
    "doctype": "ประกาศ",
    "editors": [
      {
        "name": "โสรศ",
        "role": "ผู้จัดทำ",
        "date": "2550-04-10"
      }
    ],
    "tag": "a111-2e-2550-a0143"
  }
}