{
  "pages": [
    [
      [
        "ประกาศคณะกรรมการควบคุมการขนส่งทางบกกลาง",
        "ฉบับที่ ๑๗๕๐ (พ.ศ. ๒๕๔๙)",
        "เรื่อง กำหนด (ปรับปรุง) เส้นทางสำหรับการขนส่งประจำทางด้วยรถโดยสาร",
        "หมวด ๓ สายที่ ๕๑๓ ชุมแพ-เขื่อนจุฬาภรณ์ โดยให้ยกเลิกรายละเอียดเส้นทางแยก",
        "ช่วงชุมแพ-บ้านปากช่อง"
      ]
    ],
    []
  ],
  "metadata": {
    "date_backmatter": "2550-01-10",
    "date_modified": "2550-02-08",
    "date_original": "2550-02-08",
    "doctype": "ประกาศ",
    "editors": [
      {
        "name": "วัชศักดิ์",
        "role": "ผู้จัดทำ",
        "date": "2550-02-14"
      }
    ],
    "tag": "a111-2e-2550-a0056"
  }
}