{
  "pages": [
    [
      [
        "ประกาศคณะกรรมการควบคุมการขนส่งทางบก",
        "ประจำจังหวัดขอนแก่น",
        "ฉบับที่ ๑๖๑ (พ.ศ. ๒๕๔๙)",
        "เรื่อง การกำหนด (ปรับปรุง) รายละเอียดเส้นทางรถโดยสารประจำทาง",
        "หมวด ๑ จังหวัดขอนแก่น สายที่ ๒๐ หมู่บ้านแลนด์แอนด์เฮ้าส์พาร์ค-บ้านโนนพยอม",
        "เป็น ตลาดหนองไผ่ล้อม-บ้านกางฮุง"
      ]
    ],
    []
  ],
  "metadata": {
    "date_backmatter": "2549-08-31",
    "date_modified": "2549-10-26",
    "date_original": "2549-10-26",
    "doctype": "ประกาศ",
    "editors": [
      {
        "name": "โสรศ",
        "role": "ผู้จัดทำ",
        "date": "2549-11-03"
      }
    ],
    "tag": "a111-2e-2549-a0225"
  }
}