{
  "pages": [
    [
      [
        "ประกาศคณะกรรมการควบคุมการขนส่งทางบก",
        "ประจำจังหวัดอุดรธานี",
        "ฉบับที่ ๑๒๘ (พ.ศ. ๒๕๕๐)",
        "เรื่อง กำหนด (ปรับปรุง) เส้นทางสำหรับการขนส่งด้วยรถโดยสาร",
        "หมวด ๑ จังหวัดอุดรธานี สายที่ ๑๖ บ้านหนองนาคำ-บ้านเชียงพัง",
        "ให้มีรายละเอียดเส้นทางแยกช่วงเพิ่มอีก ๒ ช่วง คือ",
        "ช่วงสถานีรถไฟอุดรธานี-บ้านนาทาม และช่วงสถานีรถไฟอุดรธานี-บ้านดอนสะแบง"
      ]
    ],
    []
  ],
  "metadata": {
    "date_backmatter": "2550-03-12",
    "date_modified": "2550-07-05",
    "date_original": "2550-07-05",
    "doctype": "ประกาศ",
    "editors": [
      {
        "name": "โสรศ",
        "role": "ผู้จัดทำ",
        "date": "2550-07-17"
      }
    ],
    "tag": "a111-2e-2550-a0267"
  }
}