{
  "pages": [
    [
      [
        "ประกาศคณะกรรมการควบคุมการขนส่งทางบก",
        "ประจำจังหวัดอุดรธานี",
        "ฉบับที่ ๑๒๗ (พ.ศ. ๒๕๕๐)",
        "เรื่อง กำหนดเส้นทางสำหรับการขนส่งประจำทางด้วยรถโดยสาร"
      ]
    ],
    []
  ],
  "metadata": {
    "date_backmatter": "2550-03-12",
    "date_modified": "2550-07-05",
    "date_original": "2550-07-05",
    "doctype": "ประกาศ",
    "editors": [
      {
        "name": "โสรศ",
        "role": "ผู้จัดทำ",
        "date": "2550-07-17"
      }
    ],
    "tag": "a111-2e-2550-a0265"
  }
}