{
  "pages": [
    [
      [
        "ประกาศคณะกรรมการควบคุมการขนส่งทางบก",
        "ประจำจังหวัดนครราชสีมา",
        "ฉบับที่ ๒๒๙ (พ.ศ. ๒๕๕๑)",
        "เรื่อง กำหนดเส้นทางและรายละเอียดเส้นทางสำหรับ",
        "การขนส่งประจำทางด้วยรถโดยสาร หมวด ๔ จังหวัดนครราชสีมา",
        "สายที่ ๔๗๐๐ ด่านขุนทด-บ้านปะคำ"
      ]
    ],
    []
  ],
  "metadata": {
    "date_backmatter": "2551-10-30",
    "date_modified": "2552-03-05",
    "date_original": "2552-03-05",
    "doctype": "ประกาศ",
    "editors": [
      {
        "name": "ปริยานุช",
        "role": "ผู้จัดทำ",
        "date": "2552-03-11"
      }
    ],
    "tag": "a111-2e-2552-a0072"
  }
}