{
  "pages": [
    [
      [
        "ประกาศคณะกรรมการควบคุมการขนส่งทางบก",
        "ประจำจังหวัดขอนแก่น",
        "ฉบับที่ ๑๘๕ (พ.ศ. ๒๕๕๖)",
        "เรื่อง กำหนด (ปรับปรุง) เส้นทางและรายละเอียดเส้นทาง",
        "สำหรับการขนส่งประจำทางด้วยรถโดยสาร",
        "หมวด ๑ จังหวัดขอนแก่น สายที่ ๔ สนามม้าจังหวัดขอนแก่น - บ้านหนองน้ำเกลี้ยง เป็น",
        "สถานีขนส่งผู้โดยสารจังหวัดขอนแก่น แห่งที่ ๓ - บ้านหนองน้ำเกลี้ยง"
      ]
    ],
    []
  ],
  "metadata": {
    "date_backmatter": "2556-07-31",
    "date_modified": "2557-06-03",
    "date_original": "2557-06-03",
    "doctype": "ประกาศ",
    "editors": [
      {
        "name": "ปริยานุช",
        "role": "ผู้จัดทำ",
        "date": "2557-06-09"
      },
      {
        "name": "นุสรา",
        "role": "ผู้ตรวจ",
        "date": "2557-07-15"
      }
    ],
    "tag": "a111-2e-2557-a0015"
  }
}