{
  "pages": [
    [
      [
        "ประกาศคณะกรรมการควบคุมการขนส่งทางบกกลาง",
        "ฉบับที่ ๑๖๒๘ (พ.ศ. ๒๕๔๙)",
        "เรื่อง กำหนด (ปรับปรุง) แก้ไขรายละเอียดเส้นทางสำหรับการขนส่งประจำทางด้วยรถโดยสาร",
        "หมวด ๓ สายที่ ๒๒๒ อุบลราชธานี-อำนาจเจริญ"
      ]
    ],
    []
  ],
  "metadata": {
    "date_backmatter": "2549-02-10",
    "date_modified": "2549-03-16",
    "date_original": "2549-03-16",
    "doctype": "ประกาศ",
    "editors": [
      {
        "name": "ชัชสรัญ",
        "role": "ผู้จัดทำ",
        "date": "2549-03-23"
      },
      {
        "name": "โชติกานต์",
        "role": "ปรับปรุง",
        "date": "2558-07-20"
      }
    ],
    "tag": "a111-2e-2549-a0026"
  }
}