{
  "pages": [
    [
      [
        "ประกาศกรมการขนส่งทางบก",
        "เรื่อง ให้ความเห็นชอบโทรศัพท์เคลื่อนที่เป็นเครื่องสื่อสารสำหรับรถยนต์รับจ้าง",
        "(รถแท็กซี่มิเตอร์) ที่จดทะเบียนในเขตกรุงเทพมหานคร"
      ]
    ],
    []
  ],
  "metadata": {
    "date_backmatter": "2553-02-11",
    "date_modified": "2553-04-02",
    "date_original": "2553-04-02",
    "doctype": "ประกาศ",
    "editors": [
      {
        "name": "ปริยานุช",
        "role": "ผู้จัดทำ",
        "date": "2553-06-17"
      },
      {
        "name": "นันท์นภัสร์",
        "role": "ตรวจ",
        "date": "2553-06-17"
      },
      {
        "name": "โชติกานต์",
        "role": "ปรับปรุง",
        "date": "2558-08-28"
      }
    ],
    "tag": "a111-2e-2553-a0042"
  }
}