{
  "pages": [
    [
      [
        "ประกาศคณะกรรมการควบคุมการขนส่งทางบกกลาง",
        "ฉบับที่ ๑๙๑๒ (พ.ศ. ๒๕๕๑)",
        "เรื่อง กำหนด (ปรับปรุง) เส้นทางสำหรับการขนส่งประจำทางด้วยรถโดยสาร",
        "หมวด ๓ สายที่ ๕๕๒ ขอนแก่น-บ้านดอนโมง-คอนสวรรค์"
      ]
    ],
    []
  ],
  "metadata": {
    "date_backmatter": "2551-11-20",
    "date_modified": "2552-03-05",
    "date_original": "2552-03-05",
    "doctype": "ประกาศ",
    "editors": [
      {
        "name": "ปริยานุช",
        "role": "ผู้จัดทำ",
        "date": "2552-03-11"
      }
    ],
    "tag": "a111-2e-2552-a0051"
  }
}