{
  "pages": [
    [
      [
        "ประกาศคณะกรรมการควบคุมการขนส่งทางบก",
        "ประจำจังหวัดนครราชสีมา",
        "ฉบับที่ ๒๔๑ (พ.ศ. ๒๕๕๙)",
        "เรื่อง กำหนด (ปรับปรุง) เส้นทางสำหรับการขนส่งประจำทางด้วยรถโดยสาร",
        "หมวด ๔ จังหวัดนครราชสีมา สายที่ ๔๔๑๕ นครราชสีมา  บ้านหนองประดู่",
        "ให้มีรายละเอียดเส้นทางแยกช่วง นครราชสีมา  บ้านโพธิ์ เพิ่มอีก ๑ ช่วง"
      ]
    ],
    []
  ],
  "metadata": {
    "date_backmatter": "2559-09-22",
    "date_modified": "2559-11-17",
    "date_original": "2559-11-17",
    "doctype": "ประกาศ",
    "editors": [
      {
        "name": "ปริยานุช",
        "role": "จัดทำ",
        "date": "2559-11-21"
      },
      {
        "name": "วิศนี",
        "role": "ตรวจ",
        "date": "2559-11-21"
      }
    ],
    "tag": "a111-2e-2559-a0032"
  }
}