{
  "pages": [
    [
      [
        "กฎกระทรวง",
        "ฉบับที่ ๖๑ (พ.ศ. ๒๕๕๕)",
        "ออกตามความในพระราชบัญญัติการขนส่งทางบก พ.ศ. ๒๕๒๒"
      ]
    ],
    []
  ],
  "metadata": {
    "date_backmatter": "2555-10-24",
    "date_modified": "2555-11-09",
    "date_original": "2555-11-09",
    "doctype": "กฎกระทรวง",
    "editors": [
      {
        "name": "ปริยานุช",
        "role": "ผู้จัดทำ",
        "date": "2555-11-12"
      },
      {
        "name": "ณัฐพร",
        "role": "ผู้ตรวจ",
        "date": "2555-11-12"
      }
    ],
    "tag": "a111-2b-2555-a0003"
  }
}