{
  "pages": [
    [
      [
        "พระราชบัญญัติ",
        "การขนส่งทางบก (ฉบับที่ ๓)",
        "พ.ศ. ๒๕๓๐",
        "",
        "",
        "ภูมิพลอดุลยเดช ป.ร.",
        "ให้ไว้ ณ วันที่ ๒๕ ธันวาคม พ.ศ. ๒๕๓๐",
        "เป็นปีที่ ๔๒ ในรัชกาลปัจจุบัน"
      ]
    ],
    []
  ],
  "metadata": {
    "date_header": "2530-12-25",
    "date_modified": "2530-12-28",
    "date_original": "2530-12-28",
    "doctype": "พระราชบัญญัติ",
    "editors": [
      {
        "name": "วศิน",
        "role": "ผู้จัดทำ",
        "date": "2552-03-11"
      }
    ],
    "tag": "a111-20-2530-003",
    "title": "การขนส่งทางบก (ฉบับที่ ๓)"
  }
}