{
  "pages": [
    [
      [
        "ประกาศนายทะเบียนกลาง",
        "เรื่อง มอบหมายกิจการอันอยู่ในอำนาจหน้าที่ของนายทะเบียนกลาง",
        "พ.ศ. ๒๕๕๗"
      ]
    ],
    []
  ],
  "metadata": {
    "date_backmatter": "2557-01-10",
    "date_modified": "2557-02-05",
    "date_original": "2557-02-05",
    "doctype": "ประกาศ",
    "editors": [
      {
        "name": "ปริยานุช",
        "role": "ผู้จัดทำ",
        "date": "2557-02-17"
      },
      {
        "name": "อังศุมาลี",
        "role": "ผู้ตรวจ",
        "date": "2557-02-17"
      }
    ],
    "tag": "a111-2e-2557-a0007"
  }
}