{
  "pages": [
    [
      [
        "ประกาศกระทรวงคมนาคม",
        "เรื่อง การจัดให้มีสถานีขนส่งผู้โดยสารจังหวัดยโสธร"
      ]
    ],
    []
  ],
  "metadata": {
    "date_backmatter": "2553-02-16",
    "date_modified": "2553-04-01",
    "date_original": "2553-04-01",
    "doctype": "ประกาศ",
    "editors": [
      {
        "name": "ปริยานุช",
        "role": "พิมพ์",
        "date": "2553-04-20"
      },
      {
        "name": "นันท์นภัสร์",
        "role": "ตรวจ",
        "date": "2553-04-20"
      }
    ],
    "tag": "a111-2e-2553-a0021"
  }
}