{
  "pages": [
    [
      [
        "ประกาศคณะกรรมการควบคุมการขนส่งทางบก",
        "ประจำจังหวัดพิจิตร",
        "ฉบับที่ ๒๘ (พ.ศ. ๒๕๕๐)",
        "เรื่อง กำหนดเส้นทางสำหรับการขนส่งประจำทางด้วยรถโดยสาร"
      ]
    ],
    []
  ],
  "metadata": {
    "date_backmatter": "2550-10-19",
    "date_modified": "2551-02-14",
    "date_original": null,
    "doctype": "ประกาศ",
    "editors": [
      {
        "name": "วัชศักดิ์",
        "role": "ผู้จัดทำ",
        "date": "2551-02-19"
      }
    ],
    "tag": "a111-2e-2551-a0008"
  }
}