{
  "pages": [
    [
      [
        "ประกาศกรมการขนส่งทางบก",
        "เรื่อง กำหนดหลักเกณฑ์ วิธีการ และเงื่อนไขในการให้ความเห็นชอบและ",
        "การยกเลิกการให้ความเห็นชอบการเป็นผู้ติดตั้งเครื่องอุปกรณ์และส่วนควบของรถ",
        "ที่ใช้ก๊าซธรรมชาติอัดเป็นเชื้อเพลิงตามกฎหมายว่าด้วยการขนส่งทางบก",
        "(ฉบับที่ ๒)",
        "พ.ศ. ๒๕๕๑"
      ]
    ],
    []
  ],
  "metadata": {
    "date_backmatter": "2551-08-20",
    "date_modified": "2551-09-12",
    "date_original": "2551-09-12",
    "doctype": "ประกาศ",
    "editors": [
      {
        "name": "วัชศักดิ์",
        "role": "ผู้จัดทำ",
        "date": "2551-09-15"
      },
      {
        "name": "โชติกานต์",
        "role": "ปรับปรุง",
        "date": "2558-08-13"
      }
    ],
    "tag": "a111-2e-2551-a0093"
  }
}