{
  "pages": [
    [
      [
        "ประกาศกระทรวงคมนาคม",
        "เรื่อง การจัดให้มีสถานีขนส่งผู้โดยสารอำเภอสุไหงโก - ลก จังหวัดนราธิวาส"
      ]
    ],
    []
  ],
  "metadata": {
    "date_backmatter": "2555-08-05",
    "date_modified": "2555-09-19",
    "date_original": "2555-09-19",
    "doctype": "ประกาศ",
    "editors": [
      {
        "name": "ปริยานุช",
        "role": "ผู้จัดทำ",
        "date": "2555-09-24"
      },
      {
        "name": "ปณตภร",
        "role": "ผู้ตรวจ",
        "date": "2555-10-02"
      }
    ],
    "tag": "a111-2e-2555-a0039"
  }
}