{
  "pages": [
    [
      [
        "ประกาศนายทะเบียนประจำจังหวัดชัยภูมิ",
        "เรื่อง มอบหมายอำนาจหน้าที่ให้ข้าราชการทำการแทนนายทะเบียนประจำจังหวัดชัยภูมิ"
      ]
    ],
    []
  ],
  "metadata": {
    "date_backmatter": "2558-08-24",
    "date_modified": "2558-11-09",
    "date_original": "2558-11-09",
    "doctype": "ประกาศ",
    "editors": [
      {
        "name": "ปริยานุช",
        "role": "จัดทำ",
        "date": "2558-11-27"
      },
      {
        "name": "ปุณิกา",
        "role": "ตรวจ",
        "date": "2558-11-27"
      }
    ],
    "tag": "a111-2e-2558-a0048"
  }
}