{
  "pages": [
    [
      [
        "ประกาศกรมการขนส่งทางบก",
        "เรื่อง หลักเกณฑ์การพิจารณาให้ความเห็นชอบคัสซีรถ",
        "ที่ใช้ในการขนส่งผู้โดยสาร มาตรฐาน ๔ (รถสองชั้น)"
      ]
    ],
    []
  ],
  "metadata": {
    "date_backmatter": "2545-08-06",
    "date_modified": "2545-09-24",
    "date_original": "2545-09-24",
    "doctype": "ประกาศ",
    "editors": [
      {
        "name": "โชติกานต์",
        "role": "ปรับปรุง",
        "date": "2558-04-27"
      }
    ],
    "tag": "a111-2e-2545-a0002"
  }
}