{
  "pages": [
    [
      [
        "ระเบียบกรมการขนส่งทางบก",
        "ว่าด้วยการพักใช้หรือเพิกถอนใบอนุญาตเป็นผู้ขับรถตามกฎหมายว่าด้วยการขนส่งทางบก",
        "(ฉบับที่ ๒)",
        "พ.ศ. ๒๕๕๙"
      ]
    ],
    []
  ],
  "metadata": {
    "date_backmatter": "2559-01-22",
    "date_modified": "2559-04-07",
    "date_original": "2559-04-07",
    "editors": [
      {
        "name": "วริญา/ปริยานุช",
        "role": "จัดทำ",
        "date": "2559-04-08"
      },
      {
        "name": "นุสรา",
        "role": "ตรวจ",
        "date": "2559-05-11"
      }
    ],
    "tag": "a111-2g-2559-a0002"
  }
}