{
  "pages": [
    [
      [
        "ประกาศกรมการขนส่งทางบก",
        "เรื่อง แบบ ขนาด มาตรฐาน และคุณลักษณะของเครื่องทดสอบห้ามล้อ",
        "สำหรับใช้ในการตรวจสภาพรถของสถานตรวจสภาพรถ",
        "พ.ศ. ๒๕๕๕"
      ]
    ],
    []
  ],
  "metadata": {
    "date_backmatter": "2555-10-31",
    "date_modified": "2555-12-25",
    "date_original": "2555-12-25",
    "doctype": "ประกาศ",
    "editors": [
      {
        "name": "โชติกานต์",
        "role": "ผู้จัดทำ",
        "date": "2556-01-18"
      },
      {
        "name": "เอกฤทธิ์",
        "role": "ผู้ตรวจ",
        "date": "2556-01-18"
      }
    ],
    "tag": "a111-2e-2555-a0058"
  }
}