{
  "pages": [
    [
      [
        "ประกาศคณะกรรมการควบคุมการขนส่งทางบก",
        "ประจำจังหวัดปทุมธานี",
        "ฉบับที่ ๔๒ (พ.ศ. ๒๕๕๒)",
        "เรื่อง การปรับปรุงเส้นทางและรายละเอียดเส้นทางสำหรับ",
        "การขนส่งประจำทางด้วยรถโดยสาร หมวด ๔ จังหวัดปทุมธานี",
        "สายที่ ๖๐๔๕ แยกบางเตย-คลองส่งน้ำ เป็น",
        "ปทุมธานี-วัดเจดีย์หอย"
      ]
    ],
    []
  ],
  "metadata": {
    "date_backmatter": "2552-01-30",
    "date_modified": "2552-05-28",
    "date_original": "2552-05-28",
    "doctype": "ประกาศ",
    "editors": [
      {
        "name": "ปริยานุช",
        "role": "ผู้จัดทำ",
        "date": "2552-06-02"
      }
    ],
    "tag": "a111-2e-2552-a0135"
  }
}