{
  "pages": [
    [
      [
        "ประกาศคณะกรรมการควบคุมการขนส่งทางบกกลาง",
        "ฉบับที่ ๑๗๘๔ (พ.ศ. ๒๕๕๐)",
        "เรื่อง กำหนดเส้นทางสำหรับการขนส่งประจำทางด้วยรถโดยสาร",
        "หมวด ๔ กรุงเทพมหานคร สายที่ ๑๕๓๘ ปากซอยเสรีไทย ๔๓  หมู่บ้านเอื้ออาทรบึงกุ่ม"
      ]
    ],
    []
  ],
  "metadata": {
    "date_backmatter": "2550-03-18",
    "date_modified": "2550-04-19",
    "date_original": "2550-04-19",
    "doctype": "ประกาศ",
    "editors": [
      {
        "name": "วัชศักดิ์",
        "role": "ผู้จัดทำ",
        "date": "2550-05-04"
      }
    ],
    "tag": "a111-2e-2550-a0157"
  }
}