{
  "pages": [
    [
      [
        "ประกาศคณะกรรมการควบคุมการขนส่งทางบกกลาง",
        "ฉบับที่ ๑๙๐๓ (พ.ศ. ๒๕๕๑)",
        "เรื่อง กำหนดเส้นทางสำหรับการขนส่งประจำทางด้วยรถโดยสาร",
        "หมวด ๓ สายที่ ๗๗๕ ภูเก็ต-เบตง"
      ]
    ],
    []
  ],
  "metadata": {
    "date_backmatter": "2551-09-11",
    "date_modified": "2552-03-05",
    "date_original": "2552-03-05",
    "doctype": "ประกาศ",
    "editors": [
      {
        "name": "ปริยานุช",
        "role": "ผู้จัดทำ",
        "date": "2552-03-11"
      }
    ],
    "tag": "a111-2e-2552-a0042"
  }
}