{
  "pages": [
    [
      [
        "ประกาศคณะกรรมการควบคุมการขนส่งทางบก",
        "ประจำจังหวัดตาก",
        "ฉบับที่ ๖๑ (พ.ศ. ๒๕๕๓)",
        "เรื่อง ยกเลิกเส้นทางสำหรับการขนส่งด้วยรถขนาดเล็ก"
      ]
    ],
    []
  ],
  "metadata": {
    "date_backmatter": "2553-02-26",
    "date_modified": "2553-05-06",
    "date_original": "2553-05-06",
    "doctype": "ประกาศ",
    "editors": [
      {
        "name": "ปริยานุช",
        "role": "ผู้จัดทำ",
        "date": "2553-06-01"
      },
      {
        "name": "นันท์นภัสร์",
        "role": "ตรวจ",
        "date": "2553-06-01"
      }
    ],
    "tag": "a111-2e-2553-a0035"
  }
}