{
  "pages": [
    [
      [
        "ประกาศคณะกรรมการควบคุมการขนส่งทางบก",
        "ประจำจังหวัดนครราชสีมา",
        "ฉบับที่ ๒๒๖ (พ.ศ. ๒๕๕๑)",
        "เรื่อง กำหนดเส้นทางและรายละเอียดเส้นทางสำหรับการขนส่งประจำทาง",
        "ด้วยรถโดยสาร หมวด ๔ จังหวัดนครราชสีมา สายที่ ๔๖๙๙ นครราชสีมา-บ้านลองตอง (ข)"
      ]
    ],
    []
  ],
  "metadata": {
    "date_backmatter": "2551-02-28",
    "date_modified": "2551-05-01",
    "date_original": "2551-05-01",
    "doctype": "ประกาศ",
    "editors": [
      {
        "name": "วัชศักดิ์",
        "role": "ผู้จัดทำ",
        "date": "2551-05-06"
      }
    ],
    "tag": "a111-2e-2551-a0050"
  }
}