{
  "pages": [
    [
      [
        "ประกาศกรมการขนส่งทางบก",
        "เรื่อง กำหนดแบบ ขนาด มาตรฐาน และคุณลักษณะของเครื่องวัดควันดำ",
        "เครื่องวิเคราะห์ก๊าซ เครื่องวัดก๊าซรั่ว เครื่องวัดระดับเสียง เครื่องวัดความเร็วรอบเครื่องยนต์",
        "และเครื่องวัดความเข้มของฟิล์มกรองแสง สำหรับใช้ในการตรวจสภาพรถ",
        "ของสถานตรวจสภาพรถ",
        "พ.ศ. ๒๕๕๖"
      ]
    ],
    []
  ],
  "metadata": {
    "date_backmatter": "2556-01-07",
    "date_modified": "2556-07-25",
    "date_original": "2556-02-01",
    "doctype": "ประกาศ",
    "editors": [
      {
        "name": "ปณตภร",
        "role": "ผู้จัดทำ",
        "date": "2556-08-14"
      }
    ],
    "tag": "a111-2e-9997-update"
  }
}