{
  "pages": [
    [
      [
        "ประกาศกรมการขนส่งทางบก",
        "เรื่อง ประตูทางขึ้นลงและประตูฉุกเฉินสำหรับรถที่ใช้ในการขนส่งผู้โดยสาร (ฉบับที่ ๒)",
        "พ.ศ. ๒๕๕๐"
      ]
    ],
    []
  ],
  "metadata": {
    "date_backmatter": "2550-08-09",
    "date_modified": "2550-08-30",
    "date_original": "2550-08-30",
    "doctype": "ประกาศ",
    "editors": [
      {
        "name": "วัชศักดิ์",
        "role": "ผู้จัดทำ",
        "date": "2550-09-12"
      },
      {
        "name": "โชติกานต์",
        "role": "ปรับปรุง",
        "date": "2558-08-13"
      }
    ],
    "tag": "a111-2e-2550-a0299"
  }
}