{
  "pages": [
    [
      [
        "ประกาศกรมการขนส่งทางบก",
        "เรื่อง กำหนดหลักเกณฑ์ วิธีการ และเงื่อนไขในการให้ความเห็นชอบ",
        "การเป็นผู้ตรวจและทดสอบส่วนควบและเครื่องอุปกรณ์ของรถที่ใช้ก๊าซธรรมชาติอัด",
        "เป็นเชื้อเพลิงตามกฎหมายว่าด้วยรถยนต์",
        "พ.ศ. ๒๕๖๐"
      ]
    ],
    []
  ],
  "metadata": {
    "date_backmatter": "2560-09-29",
    "date_modified": "2560-12-04",
    "date_original": "2560-12-04",
    "doctype": "ประกาศ",
    "editors": [
      {
        "name": "ภวรรณตรี",
        "role": "จัดทำ",
        "date": "2560-12-20"
      },
      {
        "name": "ปุณิกา",
        "role": "ตรวจ",
        "date": "2560-12-30"
      }
    ],
    "tag": "a111-2e-2560-a0038"
  }
}