{
  "pages": [
    [
      [
        "ประกาศกระทรวงคมนาคม",
        "เรื่อง การจัดให้มีสถานีขนส่งผู้โดยสารจังหวัดระยอง แห่งที่ ๒"
      ]
    ],
    []
  ],
  "metadata": {
    "date_backmatter": "2551-05-31",
    "date_modified": "2551-06-17",
    "date_original": "2551-06-17",
    "doctype": "ประกาศ",
    "editors": [
      {
        "name": "ปริยานุช",
        "role": "ผู้จัดทำ",
        "date": "2551-06-25"
      }
    ],
    "tag": "a111-2e-2551-a0063"
  }
}