{
  "pages": [
    [
      [
        "ประกาศกรมการขนส่งทางบก",
        "เรื่อง การกำหนดเกณฑ์กำลังของเครื่องกำเนิดพลังงานของรถ",
        "ที่ใช้ในการขนส่งสำหรับการให้ความเห็นชอบแบบคัสซีรถ"
      ]
    ],
    []
  ],
  "metadata": {
    "date_backmatter": "2549-09-13",
    "date_modified": "2549-09-29",
    "date_original": "2549-09-29",
    "doctype": "ประกาศ",
    "editors": [
      {
        "name": "นันทนา",
        "role": "ผู้จัดทำ",
        "date": "2549-10-06"
      },
      {
        "name": "โชติกานต์",
        "role": "ปรับปรุง",
        "date": "2558-06-29"
      }
    ],
    "tag": "a111-2e-2549-a0201"
  }
}