{
  "pages": [
    [
      [
        "ประกาศคณะกรรมการควบคุมการขนส่งทางบก",
        "ประจำจังหวัดมหาสารคาม",
        "ฉบับที่ ๔๑ (พ.ศ. ๒๕๔๙)",
        "เรื่อง กำหนดเส้นทางสำหรับการขนส่งประจำทางด้วยรถโดยสาร"
      ]
    ],
    []
  ],
  "metadata": {
    "date_backmatter": "2549-10-26",
    "date_modified": "2550-01-25",
    "date_original": "2550-01-25",
    "doctype": "ประกาศ",
    "editors": [
      {
        "name": "โสรศ",
        "role": "ผู้จัดทำ",
        "date": "2550-02-02"
      }
    ],
    "tag": "a111-2e-2550-a0034"
  }
}