{
  "pages": [
    [
      [
        "ประกาศคณะกรรมการควบคุมการขนส่งทางบก",
        "ประจำจังหวัดนครราชสีมา",
        "ฉบับที่ ๑๙๑ (พ.ศ. ๒๕๔๖)",
        "เรื่อง กำหนด (ปรับปรุง) เส้นทางและรายละเอียดเส้นทาง",
        "สำหรับการขนส่งประจำทางด้วยรถโดยสาร หมวด ๔ จังหวัดนครราชสีมา",
        "สายที่ ๔๔๑๖ นครราชสีมา-บ้านพันดุง เป็น นครราชสีมา-บ้านหนองกก"
      ]
    ],
    []
  ],
  "metadata": {
    "date_backmatter": "2546-09-25",
    "date_modified": "2546-11-20",
    "date_original": "2546-11-20",
    "doctype": "ประกาศ",
    "editors": [
      {
        "name": "พรพิมล",
        "role": "พิมพ์",
        "date": "2547-01-12"
      },
      {
        "name": "ทรงยศ/อรรถชัย",
        "role": "ตรวจ",
        "date": "2547-01-15"
      },
      {
        "name": "โชติกานต์",
        "role": "ปรับปรุง",
        "date": "2558-04-30"
      }
    ],
    "tag": "a111-2e-2546-a0025"
  }
}