{
  "pages": [
    [
      [
        "ประกาศคณะกรรมการควบคุมการขนส่งทางบก",
        "ประจำจังหวัดบุรีรัมย์",
        "ฉบับที่ ๖๖ (พ.ศ. ๒๕๕๑)",
        "เรื่อง ปรับปรุงเส้นทางและรายละเอียดเส้นทางสำหรับ",
        "การขนส่งประจำทางด้วยรถโดยสาร หมวด ๔ จังหวัดบุรีรัมย์",
        "สายที่ ๔๓๗๔ ประโคนชัย-บ้านศรีสุข -นิคมสร้างตนเองบ้านกรวด",
        "เป็น นางรอง-บ้านศรีสุข-นิคมสร้างตนเองบ้านกรวด"
      ]
    ],
    []
  ],
  "metadata": {
    "date_backmatter": "2551-04-29",
    "date_modified": "2551-07-17",
    "date_original": "2551-07-17",
    "doctype": "ประกาศ",
    "editors": [
      {
        "name": "วัชศักดิ์",
        "role": "ผู้จัดทำ",
        "date": "2551-07-21"
      }
    ],
    "tag": "a111-2e-2551-a0070"
  }
}