{
  "pages": [
    [
      [
        "ประกาศคณะกรรมการควบคุมการขนส่งทางบก",
        "ประจำจังหวัดนครราชสีมา",
        "ฉบับที่ ๒๑๒ (พ.ศ. ๒๕๔๙)",
        "เรื่อง กำหนด (ปรับปรุง) เส้นทางและรายละเอียดเส้นทางสำหรับการขนส่ง",
        "ประจำทางด้วยรถโดยสาร หมวด ๔ จังหวัดนครราชสีมา",
        "สายที่ ๔๑๓๑ นครราชสีมา-สูงเนิน (ข)",
        "ให้มีรายละเอียดเส้นทางแยกช่วง"
      ]
    ],
    []
  ],
  "metadata": {
    "date_backmatter": "2549-03-30",
    "date_modified": "2549-06-01",
    "date_original": "2549-06-01",
    "doctype": "ประกาศ",
    "editors": [
      {
        "name": "นันทนา",
        "role": "ผู้จัดทำ",
        "date": "2549-06-07"
      }
    ],
    "tag": "a111-2e-2549-a0103"
  }
}