{
  "pages": [
    [
      [
        "ประกาศคณะกรรมการควบคุมการขนส่งทางบก",
        "ประจำจังหวัดสมุทรสาคร",
        "ฉบับที่ ๘๘ (พ.ศ. ๒๕๕๑)",
        "เรื่อง การกำหนด (ปรับปรุง) เส้นทางและรายละเอียดเส้นทางสำหรับ",
        "การขนส่งประจำทางด้วยรถโดยสาร หมวด ๔ จังหวัดสมุทรสาคร",
        "สายที่ ๘๓๒๘ สมุทรสาคร-ศาลพันท้ายนรสิงห์ เป็น",
        "สมุทรสาคร-การเคหะแห่งชาติธนบุรี"
      ]
    ],
    []
  ],
  "metadata": {
    "date_backmatter": "2551-07-07",
    "date_modified": "2552-03-05",
    "date_original": "2552-03-05",
    "doctype": "ประกาศ",
    "editors": [
      {
        "name": "ปริยานุช",
        "role": "ผู้จัดทำ",
        "date": "2552-03-11"
      }
    ],
    "tag": "a111-2e-2552-a0086"
  }
}