{
  "pages": [
    [
      [
        "ประกาศคณะกรรมการควบคุมการขนส่งทางบกกลาง",
        "ฉบับที่ ๑๔๓๓ (พ.ศ. ๒๕๔๗)",
        "เรื่อง กำหนด (ปรับปรุง) เส้นทางสำหรับการขนส่งประจำทางด้วยรถโดยสาร",
        "ระหว่างประเทศ จำนวน ๒ เส้นทาง"
      ]
    ],
    []
  ],
  "metadata": {
    "date_backmatter": "2547-01-30",
    "date_modified": "2547-02-26",
    "date_original": "2547-02-26",
    "doctype": "ประกาศ",
    "editors": [
      {
        "name": "ศุภชัย",
        "role": "พิมพ์",
        "date": "2547-05-26"
      },
      {
        "name": "พัชรินทร์/สุมลรัตน์",
        "role": "ตรวจ",
        "date": "2547-06-15"
      },
      {
        "name": "โชติกานต์",
        "role": "ปรับปรุง",
        "date": "2558-05-08"
      }
    ],
    "tag": "a111-2e-2547-a0010"
  }
}