{
  "pages": [
    [
      [
        "ประกาศคณะกรรมการควบคุมการขนส่งทางบกประจำจังหวัดชุมพร",
        "ฉบับที่ ๖๖ (พ.ศ. ๒๕๖๑)",
        "เรื่อง ปรับปรุงเส้นทางและรายละเอียดเส้นทางสำหรับการขนส่งประจำทางด้วยรถโดยสาร",
        "หมวด ๔ จังหวัดชุมพร สายที่ ๘๓๕๖ ชุมพร  สะพลี  ปะทิว",
        "เป็น ชุมพร  ปะทิว  ท่าอากาศยานชุมพร"
      ]
    ],
    []
  ],
  "metadata": {
    "date_backmatter": "2561-03-05",
    "date_modified": "2561-04-26",
    "date_original": "2561-04-26",
    "doctype": "ประกาศ",
    "editors": [
      {
        "name": "ปวันวิทย์",
        "role": "จัดทำ",
        "date": "2561-06-01"
      }
    ],
    "tag": "a111-2e-2561-a0018"
  }
}