{
  "pages": [
    [
      [
        "ประกาศคณะกรรมการควบคุมการขนส่งทางบกกลาง",
        "ฉบับที่ ๑๖๗๗ (พ.ศ. ๒๕๔๙)",
        "เรื่อง กำหนด (ปรับปรุง) เส้นทางสำหรับการขนส่งประจำทางด้วยรถโดยสาร",
        "หมวด ๓ สายที่ ๔๗๐ ยะลา-จะนะ-หาดใหญ่ ให้มีรายละเอียดเส้นทางแยก",
        "ช่วงยะลา-แม่ลาน-หาดใหญ่ เพิ่มขึ้นอีกหนึ่งช่วง และสายที่ ๗๑๓",
        "ยะลา-ปัตตานี-สงขลา เป็น ยะลา-แม่ลาน-สงขลา"
      ]
    ],
    []
  ],
  "metadata": {
    "date_backmatter": "2549-06-08",
    "date_modified": "2549-07-20",
    "date_original": "2549-07-20",
    "doctype": "ประกาศ",
    "editors": [
      {
        "name": "นันทนา",
        "role": "ผู้จัดทำ",
        "date": "2549-07-26"
      }
    ],
    "tag": "a111-2e-2549-a0120"
  }
}