{
  "pages": [
    [
      [
        "ประกาศคณะกรรมการควบคุมการขนส่งทางบก",
        "ประจำจังหวัดอุดรธานี",
        "ฉบับที่ ๑๑๓ (พ.ศ. ๒๕๔๘)",
        "เรื่อง กำหนดเส้นทางสำหรับการขนส่งประจำทางด้วยรถโดยสาร"
      ]
    ],
    []
  ],
  "metadata": {
    "date_backmatter": "2548-08-30",
    "date_modified": "2548-11-17",
    "date_original": "2548-11-17",
    "doctype": "ประกาศ",
    "editors": [
      {
        "name": "พชร",
        "role": "ผู้จัดทำ",
        "date": "2548-11-22"
      },
      {
        "name": "โชติกานต์",
        "role": "ปรับปรุง",
        "date": "2558-06-18"
      }
    ],
    "tag": "a111-2e-2548-a0033"
  }
}