{
  "pages": [
    [
      [
        "ประกาศกระทรวงคมนาคม",
        "เรื่อง ยกเลิกการจัดตั้งสถานีขนส่งผู้โดยสารจังหวัดปราจีนบุรี"
      ]
    ],
    []
  ],
  "metadata": {
    "date_backmatter": "2559-02-23",
    "date_modified": "2559-03-17",
    "date_original": "2559-03-17",
    "doctype": "ประกาศ",
    "editors": [
      {
        "name": "ปริยานุช",
        "role": "จัดทำ",
        "date": "2559-03-25"
      },
      {
        "name": "วิศนี",
        "role": "ตรวจ",
        "date": "2559-03-31"
      }
    ],
    "tag": "a111-2e-2559-a0012"
  }
}