{
  "pages": [
    [
      [
        "ประกาศกรมการขนส่งทางบก",
        "เรื่อง กำหนดหลักเกณฑ์ วิธีการติดตั้ง และการออกหนังสือรับรองการติดตั้งเครื่องอุปกรณ์และส่วนควบ",
        "ของรถที่ใช้ในการขนส่งที่ใช้ก๊าซปิโตรเลียมเหลวเป็นเชื้อเพลิงตามกฎหมายว่าด้วยการขนส่งทางบก",
        "พ.ศ. ๒๕๖๐"
      ]
    ],
    []
  ],
  "metadata": {
    "date_backmatter": "2560-09-29",
    "date_modified": "2560-12-04",
    "date_original": "2560-12-04",
    "doctype": "ประกาศ",
    "editors": [
      {
        "name": "ภวรรณตรี",
        "role": "จัดทำ",
        "date": "2560-12-19"
      },
      {
        "name": "ปุณิกา",
        "role": "ตรวจ",
        "date": "2560-12-30"
      }
    ],
    "tag": "a111-2e-2560-a0024"
  }
}