{
  "pages": [
    [
      [
        "ประกาศคณะกรรมการควบคุมการขนส่งทางบก",
        "ประจำจังหวัดนครศรีธรรมราช",
        "ฉบับที่ ๗๔ (พ.ศ. ๒๕๔๙)",
        "เรื่อง กำหนดเส้นทางสำหรับการขนส่งประจำทางด้วยรถโดยสาร",
        "ที่ทดแทนเส้นทางการขนส่งโดยรถขนาดเล็ก"
      ]
    ],
    []
  ],
  "metadata": {
    "date_backmatter": "2549-10-31",
    "date_modified": "2550-03-22",
    "date_original": "2550-03-22",
    "doctype": "ประกาศ",
    "editors": [
      {
        "name": "วัชศักดิ์",
        "role": "ผู้จัดทำ",
        "date": "2550-03-27"
      }
    ],
    "tag": "a111-2e-2550-a0133"
  }
}