{
  "pages": [
    [
      [
        "พระราชบัญญัติ",
        "การขนส่งทางบก (ฉบับที่ ๙)",
        "พ.ศ. ๒๕๔๒",
        "",
        "",
        "ภูมิพลอดุลยเดช ป.ร.",
        "ให้ไว้ ณ วันที่ ๒๗ กุมภาพันธ์ พ.ศ. ๒๕๔๒",
        "เป็นปีที่ ๕๔ ในรัชกาลปัจจุบัน"
      ]
    ],
    []
  ],
  "metadata": {
    "date_header": "2542-02-27",
    "date_modified": "2542-03-25",
    "date_original": "2542-03-25",
    "doctype": "พระราชบัญญัติ",
    "editors": [
      {
        "name": "วศิน",
        "role": "ผู้จัดทำ",
        "date": "2552-03-12"
      }
    ],
    "tag": "a111-20-2542-a002",
    "title": "การขนส่งทางบก (ฉบับที่ ๙)"
  }
}