{
  "pages": [
    [
      [
        "ประกาศคณะกรรมการควบคุมการขนส่งทางบกกลาง",
        "เรื่อง ปรับปรุงคณะอนุกรรมการพิจารณากำหนดและปรับปรุงเงื่อนไข",
        "ในใบอนุญาตประกอบการขนส่งไม่ประจำทางด้วยรถที่ใช้ในการขนส่งผู้โดยสาร",
        "ซึ่งมีท้องที่ทำการขนส่งภายในเขตกรุงเทพมหานครและระหว่างจังหวัด"
      ]
    ],
    []
  ],
  "metadata": {
    "date_backmatter": "2552-12-11",
    "date_modified": "2553-01-14",
    "date_original": "2553-01-14",
    "doctype": "ประกาศ",
    "editors": [
      {
        "name": "ปริยานุช",
        "role": "ผู้จัดทำ",
        "date": "2553-01-19"
      },
      {
        "name": "นันท์นภัสร์",
        "role": "ตรวจ",
        "date": "2553-01-19"
      }
    ],
    "tag": "a111-2e-2553-a0003"
  }
}