{
  "pages": [
    [
      [
        "ประกาศคณะกรรมการควบคุมการขนส่งทางบกกลาง",
        "เรื่อง การกำหนด (ปรับปรุง) อัตราค่าขนส่ง (ค่าโดยสาร) รถโดยสารประจำทาง",
        "หมวด ๒ หมวด ๓ หมวด ๑ ในเขตกรุงเทพมหานครและจังหวัดที่มีเส้นทางต่อเนื่อง",
        "และหมวด ๔ กรุงเทพมหานคร พ.ศ. ๒๕๔๙",
        "(ฉบับที่ ๓)"
      ]
    ],
    []
  ],
  "metadata": {
    "date_backmatter": "2549-12-15",
    "date_modified": "2550-01-18",
    "date_original": "2550-01-18",
    "doctype": "ประกาศ",
    "editors": [
      {
        "name": "โสรศ",
        "role": "ผู้จัดทำ",
        "date": "2550-01-31"
      }
    ],
    "tag": "a111-2e-2550-a0044"
  }
}