{
  "pages": [
    [
      [
        "ประกาศกรมการขนส่งทางบก",
        "เรื่อง มอบอำนาจให้เจ้าพนักงานตำรวจเปรียบเทียบความผิด",
        "ตามพระราชบัญญัติการขนส่งทางบก พ.ศ. ๒๕๒๒ และพระราชบัญญัติรถยนต์ พ.ศ. ๒๕๒๒",
        "ที่มีโทษปรับสถานเดียว"
      ]
    ],
    []
  ],
  "metadata": {
    "date_backmatter": "2561-03-05",
    "date_modified": "2561-04-25",
    "date_original": "2561-04-25",
    "doctype": "ประกาศ",
    "editors": [
      {
        "name": "ปวันวิทย์",
        "role": "จัดทำ",
        "date": "2561-06-01"
      }
    ],
    "tag": "a111-2e-2561-a0017"
  }
}