{
  "pages": [
    [
      [
        "ประกาศคณะกรรมการควบคุมการขนส่งทางบก",
        "ประจำจังหวัดนนทบุรี",
        "ฉบับที่ ๗๙ (พ.ศ. ๒๕๕๓)",
        "เรื่อง กำหนด (ปรับปรุง) เส้นทางสำหรับการขนส่งประจำทางด้วยรถโดยสาร",
        "หมวด ๔ จังหวัดนนทบุรี สายที่ ๖๐๕๔ วงกลมวัดส้มเกลี้ยง-วัดพระเงิน",
        "ให้มีรายละเอียดเส้นทางแยกช่วงปากทางวัดสุนทรธรรมิการาม-บางใหญ่ซิตี้"
      ]
    ],
    []
  ],
  "metadata": {
    "date_backmatter": "2553-01-28",
    "date_modified": "2553-06-17",
    "date_original": "2553-06-17",
    "doctype": "ประกาศ",
    "editors": [
      {
        "name": "ปริยานุช",
        "role": "ผู้จัดทำ",
        "date": "2553-06-22"
      },
      {
        "name": "นันท์นภัสร์",
        "role": "ตรวจ",
        "date": "2553-06-22"
      }
    ],
    "tag": "a111-2e-2553-a0044"
  }
}