{
  "pages": [
    [
      [
        "ประกาศคณะกรรมการควบคุมการขนส่งทางบก",
        "ประจำจังหวัดพระนครศรีอยุธยา",
        "ฉบับที่ ๗๙ (พ.ศ. ๒๕๕๐)",
        "เรื่อง กำหนดเส้นทางสำหรับการขนส่งประจำทางด้วยรถโดยสาร"
      ]
    ],
    []
  ],
  "metadata": {
    "date_backmatter": "2550-02-26",
    "date_modified": "2550-04-26",
    "date_original": "2550-04-26",
    "doctype": "ประกาศ",
    "editors": [
      {
        "name": "วัชศักดิ์",
        "role": "ผู้จัดทำ",
        "date": "2550-05-02"
      }
    ],
    "tag": "a111-2e-2550-a0184"
  }
}