{
  "pages": [
    [
      [
        "ประกาศคณะกรรมการควบคุมการขนส่งทางบก",
        "ประจำจังหวัดลำพูน",
        "ฉบับที่ ๔๕ (พ.ศ. ๒๕๕๕)",
        "เรื่อง กำหนด (ปรับปรุง) แก้ไขชื่อเส้นทาง, รายละเอียดเส้นทาง (ชื่อถนน, ชื่อสถานที่, หมายเลข",
        "ทางหลวง หรือทางหลวงจังหวัดเป็นทางหลวงแผ่นดิน) สำหรับการขนส่งประจำทางด้วย",
        "รถโดยสาร หมวด ๔ จังหวัดลำพูน สายที่ ๒๔๑๒ วงกลมลี้ - บ้านห้วยหญ้าไทร"
      ]
    ],
    []
  ],
  "metadata": {
    "date_backmatter": "2555-05-16",
    "date_modified": "2555-10-18",
    "date_original": "2555-10-18",
    "doctype": "ประกาศ",
    "editors": [
      {
        "name": "ปริยานุช",
        "role": "ผู้จัดทำ",
        "date": "2555-10-25"
      },
      {
        "name": "ณัฐพร",
        "role": "ผู้ตรวจ",
        "date": "2555-10-25"
      }
    ],
    "tag": "a111-2e-2555-a0050"
  }
}