{
  "pages": [
    [
      [
        "พระราชบัญญัติ",
        "การขนส่งทางบก (ฉบับที่ ๒)",
        "พ.ศ. ๒๕๒๓",
        "",
        "",
        "ภูมิพลอดุลยเดช ป.ร.",
        "ให้ไว้ ณ วันที่ ๙ ตุลาคม พ.ศ. ๒๕๒๓",
        "เป็นปีที่ ๓๕ ในรัชกาลปัจจุบัน"
      ]
    ],
    []
  ],
  "metadata": {
    "date_header": "2523-10-09",
    "date_modified": "2523-10-15",
    "date_original": "2523-10-15",
    "doctype": "พระราชบัญญัติ",
    "editors": [
      {
        "name": "วศิน",
        "role": "ผู้จัดทำ",
        "date": "2552-03-11"
      }
    ],
    "tag": "a111-20-2523-002",
    "title": "การขนส่งทางบก (ฉบับที่ ๒)"
  }
}