{
  "pages": [
    [
      [
        "ประกาศคณะกรรมการควบคุมการขนส่งทางบก",
        "ประจำจังหวัดนครสวรรค์",
        "ฉบับที่ ๘๒ (พ.ศ. ๒๕๕๔)",
        "เรื่อง ปรับปรุงเส้นทางสำหรับการขนส่งประจำทางด้วยรถโดยสาร",
        "หมวด ๑ จังหวัดนครสวรรค์ สายที่ ๑๑ สถานีขนส่งผู้โดยสารจังหวัดนครสวรรค์ ",
        "องค์การบริหารส่วนตำบลบึงเสนาท เป็น สถานีขนส่งผู้โดยสารจังหวัดนครสวรรค์ แห่งที่ ๑ ",
        "เชิงสะพานนิมมานรดี (สะพานป้อม ๑ ถนนโกสีย์)"
      ]
    ],
    []
  ],
  "metadata": {
    "date_backmatter": "2554-07-21",
    "date_modified": "2554-11-03",
    "date_original": "2554-11-03",
    "doctype": "ประกาศ",
    "editors": [
      {
        "name": "ปริยานุช",
        "role": "ผู้จัดทำ",
        "date": "2554-11-08"
      },
      {
        "name": "ปณตภร",
        "role": "ผู้ตรวจ",
        "date": "2554-11-08"
      }
    ],
    "tag": "a111-2e-2554-a0044"
  }
}