{
  "pages": [
    [
      [
        "คำสั่งนายทะเบียนประจำจังหวัดพัทลุง",
        "ที่ ๑๓/๒๕๕๘",
        "เรื่อง มอบหมายให้ข้าราชการทำการแทนนายทะเบียนประจำจังหวัดพัทลุง"
      ]
    ],
    []
  ],
  "metadata": {
    "date_backmatter": "2558-09-01",
    "date_modified": "2558-11-02",
    "date_original": "2558-11-02",
    "editors": [
      {
        "name": "ปริยานุช/กัญฑรัตน์",
        "role": "จัดทำ",
        "date": "2558-11-11"
      },
      {
        "name": "",
        "role": "ตรวจ",
        "date": "2558-11-11"
      }
    ],
    "tag": "a111-2f-2558-a0003"
  }
}