{
  "pages": [
    [
      [
        "ประกาศคณะกรรมการควบคุมการขนส่งทางบก",
        "ประจำจังหวัดนครนายก",
        "ฉบับที่ ๒๐ (พ.ศ. ๒๕๔๙)",
        "เรื่อง ยกเลิกเส้นทางสำหรับการขนส่งโดยรถขนาดเล็ก"
      ]
    ],
    []
  ],
  "metadata": {
    "date_backmatter": "2549-08-24",
    "date_modified": "2549-10-26",
    "date_original": "2549-10-26",
    "doctype": "ประกาศ",
    "editors": [
      {
        "name": "โสรศ",
        "role": "ผู้จัดทำ",
        "date": "2549-11-03"
      }
    ],
    "tag": "a111-2e-2549-a0229"
  }
}