{
  "pages": [
    [
      [
        "ประกาศกรมการขนส่งทางบก",
        "เรื่อง การกำหนดแบบสนามฝึกหัดขับรถมาตรฐานของโรงเรียนสอนขับรถ"
      ]
    ],
    []
  ],
  "metadata": {
    "date_backmatter": "2548-01-11",
    "date_modified": "2548-03-24",
    "date_original": "2548-03-24",
    "doctype": "ประกาศ",
    "editors": [
      {
        "name": "โชติกานต์",
        "role": "ปรับปรุง",
        "date": "2558-05-18"
      }
    ],
    "tag": "a111-2e-2548-a0003"
  }
}