{
  "pages": [
    [
      [
        "ประกาศคณะกรรมการควบคุมการขนส่งทางบก",
        "ประจำจังหวัดอุดรธานี",
        "ฉบับที่ ๑๓๓ (พ.ศ. ๒๕๕๓)",
        "เรื่อง ยกเลิกเส้นทางการขนส่งโดยรถขนาดเล็ก"
      ]
    ],
    []
  ],
  "metadata": {
    "date_backmatter": "2553-09-10",
    "date_modified": "2553-12-02",
    "date_original": "2553-12-02",
    "doctype": "ประกาศ",
    "editors": [
      {
        "name": "ปริยานุช",
        "role": "ผู้จัดทำ",
        "date": "2553-12-16"
      },
      {
        "name": "ณัฐวดี",
        "role": "ตรวจ",
        "date": "2553-12-16"
      }
    ],
    "tag": "a111-2e-2553-a0095"
  }
}