{
  "pages": [
    [
      [
        "ประกาศกรมการขนส่งทางบก",
        "เรื่อง กำหนดประเภทรถและวงเงินที่ผู้ได้รับใบอนุญาตประกอบการขนส่งหรือเจ้าของรถ",
        "ต้องจัดทำประกันภัยเพิ่มเติมจากกฎหมายว่าด้วยคุ้มครองผู้ประสบภัยจากรถ",
        "พ.ศ. ๒๕๖๐"
      ]
    ],
    []
  ],
  "metadata": {
    "date_backmatter": "2560-03-31",
    "date_modified": "2560-05-29",
    "date_original": "2560-04-05",
    "doctype": "ประกาศ",
    "editors": [
      {
        "name": "พรวิภา/ภวรรณตรี",
        "role": "จัดทำ",
        "date": "2560-04-10"
      },
      {
        "name": "ปุณิกา",
        "role": "เพิ่มเติม",
        "date": "2560-06-28"
      },
      {
        "name": "นุสรา",
        "role": "ตรวจ",
        "date": "2560-09-04"
      }
    ],
    "tag": "a111-2e-9989-update"
  }
}