{
  "pages": [
    [
      [
        "ประกาศกรมการขนส่งทางบก",
        "เรื่อง หลักสูตรการสอน การอบรมและฝึกหัดขับรถมาตรฐานของโรงเรียนสอนขับรถ",
        "พ.ศ. ๒๕๕๕"
      ]
    ],
    []
  ],
  "metadata": {
    "date_backmatter": "2555-07-12",
    "date_modified": "2555-09-14",
    "date_original": "2555-09-14",
    "doctype": "ประกาศ",
    "editors": [
      {
        "name": "ปริยานุช",
        "role": "ผู้จัดทำ",
        "date": "2555-09-18"
      },
      {
        "name": "ชาญ",
        "role": "ผู้ตรวจ",
        "date": "2555-09-26"
      }
    ],
    "tag": "a111-2e-2555-a0031"
  }
}