{
  "pages": [
    [
      [
        "ประกาศกรมการขนส่งทางบก",
        "เรื่อง กำหนดประเภทและลักษณะของรถที่ใช้ในการขนส่งผู้โดยสาร",
        "ที่ต้องติดตั้งเครื่องบันทึกข้อมูลการเดินทางของรถก่อนการตรวจสภาพรถเพื่อต่ออายุทะเบียน",
        "พ.ศ. ๒๕๕๘"
      ]
    ],
    []
  ],
  "metadata": {
    "date_backmatter": "2558-12-25",
    "date_modified": "2559-01-13",
    "date_original": "2559-01-13",
    "doctype": "ประกาศ",
    "editors": [
      {
        "name": "กัญฑรัตน์/ปริยานุช",
        "role": "จัดทำ",
        "date": "2559-01-15"
      },
      {
        "name": "นุสรา",
        "role": "ตรวจ",
        "date": "2559-04-29"
      }
    ],
    "tag": "a111-2e-2559-a0005"
  }
}