{
  "pages": [
    [
      [
        "ประกาศคณะกรรมการควบคุมการขนส่งทางบกประจำจังหวัดอุดรธานี",
        "ฉบับที่ ๑๓๖ (พ.ศ. ๒๕๖๐)",
        "เรื่อง กำหนดเส้นทางสำหรับการขนส่งประจำทางด้วยรถโดยสาร"
      ]
    ],
    []
  ],
  "metadata": {
    "date_backmatter": "2560-08-08",
    "date_modified": "2560-10-05",
    "date_original": "2560-10-05",
    "doctype": "ประกาศ",
    "editors": [
      {
        "name": "พัชรภรณ์/อัญชลี",
        "role": "จัดทำ",
        "date": "2560-10-06"
      }
    ],
    "tag": "a111-2e-2560-a0023"
  }
}