{
  "pages": [
    [
      [
        "ประกาศคณะกรรมการควบคุมการขนส่งทางบกกลาง",
        "ฉบับที่ ๑๗๒๑ (พ.ศ. ๒๕๔๙)",
        "เรื่อง กำหนด (ปรับปรุง) เส้นทางสำหรับการขนส่งประจำทางด้วยรถโดยสาร",
        "หมวด ๑ ในเขตกรุงเทพมหานครและจังหวัดที่มีเส้นทางต่อเนื่อง",
        "สายที่ ๕๕๒ ท่าอากาศยานสุวรรณภูมิ - สถานีรถไฟฟ้าอ่อนนุช",
        "เป็น ท่าอากาศยานสุวรรณภูมิ - คลองเตย",
        "และให้มีรายละเอียดเส้นทางแยกช่วงเพิ่มขึ้นอีก ๑ ช่วง"
      ]
    ],
    []
  ],
  "metadata": {
    "date_backmatter": "2549-11-20",
    "date_modified": "2550-01-04",
    "date_original": "2550-01-04",
    "doctype": "ประกาศ",
    "editors": [
      {
        "name": "วัชศักดิ์",
        "role": "ผู้จัดทำ",
        "date": "2550-01-15"
      }
    ],
    "tag": "a111-2e-2550-a0004"
  }
}