{
  "pages": [
    [
      [
        "ระเบียบกรมการขนส่งทางบก",
        "ว่าด้วยการดำเนินการเกี่ยวกับทะเบียนและภาษีรถ",
        "ตามกฎหมายว่าด้วยรถยนต์ (ฉบับที่ ๑๘)",
        "พ.ศ. ๒๕๕๑"
      ]
    ],
    []
  ],
  "metadata": {
    "date_backmatter": "2551-07-15",
    "date_modified": "2552-03-12",
    "date_original": "2552-03-12",
    "editors": [
      {
        "name": "ปริยานุช",
        "role": "ผู้จัดทำ",
        "date": "2552-03-18"
      },
      {
        "name": "โชติกานต์",
        "role": "ปรับปรุง",
        "date": "2558-10-28"
      }
    ],
    "tag": "a111-2g-2552-a0001"
  }
}