{
  "pages": [
    [
      [
        "ประกาศคณะกรรมการควบคุมการขนส่งทางบกกลาง",
        "ฉบับที่ ๑๙๖๕ (พ.ศ. ๒๕๕๒)",
        "เรื่อง กำหนดเส้นทางสำหรับการขนส่งประจำทางด้วยรถโดยสารระหว่างประเทศ",
        "สายที่ ๖ จังหวัดนครราชสีมา-นครหลวงเวียงจันทน์"
      ]
    ],
    []
  ],
  "metadata": {
    "date_backmatter": "2552-12-14",
    "date_modified": "2553-01-14",
    "date_original": "2553-01-14",
    "doctype": "ประกาศ",
    "editors": [
      {
        "name": "ปริยานุช",
        "role": "ผู้จัดทำ",
        "date": "2553-01-19"
      },
      {
        "name": "นันท์นภัสร์",
        "role": "ตรวจ",
        "date": "2553-01-19"
      }
    ],
    "tag": "a111-2e-2553-a0008"
  }
}