{
  "pages": [
    [
      [
        "ประกาศนายทะเบียนกลาง",
        "เรื่อง บริษัทประกันภัยที่นายทะเบียนกลางให้ความเห็นชอบ",
        "พ.ศ. ๒๕๕๗"
      ]
    ],
    []
  ],
  "metadata": {
    "date_backmatter": "2557-04-29",
    "date_modified": "2557-05-27",
    "date_original": "2557-05-27",
    "doctype": "ประกาศ",
    "editors": [
      {
        "name": "ปริยานุช",
        "role": "ผู้จัดทำ",
        "date": "2557-05-29"
      },
      {
        "name": "พจนา",
        "role": "ผู้ตรวจ",
        "date": "2557-06-30"
      }
    ],
    "tag": "a111-2e-2557-a0012"
  }
}