{
  "pages": [
    [
      [
        "ประกาศกรมการขนส่งทางบก",
        "เรื่อง เอกสารการขนส่งที่ต้องจัดให้มีไว้ประจำรถที่ใช้ในการขนส่งวัตถุอันตราย",
        "พ.ศ. ๒๕๕๙"
      ]
    ],
    []
  ],
  "metadata": {
    "date_backmatter": "2559-08-08",
    "date_modified": "2559-09-19",
    "date_original": "2559-09-19",
    "doctype": "ประกาศ",
    "editors": [
      {
        "name": "ชวัลพร/ปริยานุช",
        "role": "จัดทำ",
        "date": "2559-09-20"
      },
      {
        "name": "นุสรา",
        "role": "ตรวจ",
        "date": "2559-12-01"
      }
    ],
    "tag": "a111-2e-2559-a0027"
  }
}