{
  "pages": [
    [
      [
        "ประกาศกรมการขนส่งทางบก",
        "เรื่อง กำหนดประเภทหรือชนิดของวัตถุอันตราย"
      ]
    ],
    []
  ],
  "metadata": {
    "date_backmatter": "2543-03-29",
    "date_modified": "2543-06-27",
    "date_original": "2543-06-27",
    "doctype": "ประกาศ",
    "editors": [
      {
        "name": "ดลธี",
        "role": "พิมพ์",
        "date": "2551-05-01"
      },
      {
        "name": "รัศม์วรรณวลัย",
        "role": "ตรวจ",
        "date": "2551-05-02"
      },
      {
        "name": "โชติกานต์",
        "role": "ปรับปรุง",
        "date": "2558-03-24"
      }
    ],
    "tag": "a111-2e-2543-a029"
  }
}