{
  "pages": [
    [
      [
        "กฎกระทรวง",
        "ฉบับที่ ๙ (พ.ศ. ๒๕๒๔)",
        "ออกตามความในพระราชบัญญัติการขนส่งทางบก",
        "พ.ศ. ๒๕๒๒"
      ]
    ],
    []
  ],
  "metadata": {
    "date_backmatter": "2524-12-18",
    "date_modified": "2549-06-21",
    "date_original": "2525-02-11",
    "doctype": "กฎกระทรวง",
    "editors": [
      {
        "name": "พัสสน",
        "role": "ผู้จัดทำ",
        "date": "2552-09-23"
      },
      {
        "name": "โชติกานต์",
        "role": "ปรับปรุง",
        "date": "2557-10-08"
      }
    ],
    "tag": "a111-2b-2549-a0006"
  }
}