{
  "pages": [
    [
      [
        "ประกาศคณะกรรมการควบคุมการขนส่งทางบกกลาง",
        "ฉบับที่ ๑๖๕๔ (พ.ศ. ๒๕๔๙)",
        "เรื่อง กำหนด (ปรับปรุง) แก้ไขรายละเอียดเส้นทางสำหรับการขนส่งประจำทางด้วยรถโดยสาร",
        "หมวด ๓ สายที่ ๑๓๗ พิษณุโลก-หล่มสัก"
      ]
    ],
    []
  ],
  "metadata": {
    "date_backmatter": "2549-03-08",
    "date_modified": "2549-03-30",
    "date_original": "2549-03-30",
    "doctype": "ประกาศ",
    "editors": [
      {
        "name": "นันทนา",
        "role": "ผู้จัดทำ",
        "date": "2549-04-05"
      },
      {
        "name": "โชติกานต์",
        "role": "ปรับปรุง",
        "date": "2558-07-23"
      }
    ],
    "tag": "a111-2e-2549-a0065"
  }
}