{
  "pages": [
    [
      [
        "ประกาศคณะกรรมการควบคุมการขนส่งทางบกกลาง",
        "ฉบับที่ ๑๙๖๙ (พ.ศ. ๒๕๕๒)",
        "เรื่อง กำหนด (ปรับปรุง) รายละเอียดเส้นทางสำหรับการขนส่งประจำทางด้วยรถโดยสาร",
        "หมวด ๑ ในเขตกรุงเทพมหานครและจังหวัดที่มีเส้นทางต่อเนื่อง",
        "สายที่ ต. ๘๕ อนุสาวรีย์ชัยสมรภูมิ-มหาวิทยาลัยธรรมศาสตร์ (ศูนย์รังสิต)"
      ]
    ],
    []
  ],
  "metadata": {
    "date_backmatter": "2552-12-14",
    "date_modified": "2553-01-14",
    "date_original": "2553-01-14",
    "doctype": "ประกาศ",
    "editors": [
      {
        "name": "ปริยานุช",
        "role": "ผู้จัดทำ",
        "date": "2553-01-19"
      },
      {
        "name": "นันท์นภัสร์",
        "role": "ตรวจ",
        "date": "2553-01-19"
      }
    ],
    "tag": "a111-2e-2553-a0012"
  }
}