{
  "pages": [
    [
      [
        "ประกาศคณะกรรมการควบคุมการขนส่งทางบกกลาง",
        "ฉบับที่ ๑๗๑๙ (พ.ศ. ๒๕๔๙)",
        "เรื่อง กำหนดเส้นทางสำหรับการขนส่งประจำทางด้วยรถโดยสาร",
        "หมวด ๑ ในเขตกรุงเทพมหานครและจังหวัดมีเส้นทางต่อเนื่อง",
        "จำนวน ๔ เส้นทาง"
      ]
    ],
    []
  ],
  "metadata": {
    "date_backmatter": "2549-11-20",
    "date_modified": "2550-01-04",
    "date_original": "2550-01-04",
    "doctype": "ประกาศ",
    "editors": [
      {
        "name": "วัชศักดิ์",
        "role": "ผู้จัดทำ",
        "date": "2550-01-15"
      }
    ],
    "tag": "a111-2e-2550-a0002"
  }
}