{
  "pages": [
    [
      [
        "ประกาศคณะกรรมการควบคุมการขนส่งทางบกกลาง",
        "ฉบับที่ ๑๓๖๐ (พ.ศ. ๒๕๔๕)",
        "เรื่อง กำหนด (ปรับปรุง) เส้นทางสำหรับการขนส่งประจำทางด้วยรถโดยสาร",
        "หมวด ๑ ในเขตกรุงเทพมหานครและจังหวัดที่มีเส้นทางต่อเนื่อง",
        "สายที่ ๑๗๕ ท่าน้ำภาษีเจริญ-นนทบุรี เป็น ท่าน้ำภาษีเจริญ-",
        "ตลาดองค์การตลาดเพื่อเกษตรกร ๓ ให้มีเส้นทางแยกช่วง",
        "สำนักงานเขตบางกอกใหญ่-ตลอดองค์การตลาดเพื่อเกษตรกร ๓"
      ]
    ],
    []
  ],
  "metadata": {
    "date_backmatter": "2545-12-16",
    "date_modified": "2546-02-06",
    "date_original": "2546-02-06",
    "doctype": "ประกาศ",
    "editors": [
      {
        "name": "พรพิมล",
        "role": "พิมพ์",
        "date": "2546-04-22"
      },
      {
        "name": "ทรงยศ/สราวุฒิ",
        "role": "จัดทำ",
        "date": "2546-04-22"
      },
      {
        "name": "โชติกานต์",
        "role": "ปรับปรุง",
        "date": "2558-05-01"
      }
    ],
    "tag": "a111-2e-2546-a0057"
  }
}