{
  "pages": [
    [
      [
        "ประกาศคณะกรรมการควบคุมการขนส่งทางบก",
        "ประจำจังหวัดสงขลา",
        "ฉบับที่ ๕๕ (พ.ศ. ๒๕๕๐)",
        "เรื่อง การกำหนดเส้นทางสำหรับการขนส่งประจำทางด้วยรถโดยสาร"
      ]
    ],
    []
  ],
  "metadata": {
    "date_backmatter": "2550-11-01",
    "date_modified": "2551-02-14",
    "date_original": "2551-02-14",
    "doctype": "ประกาศ",
    "editors": [
      {
        "name": "วัชศักดิ์",
        "role": "ผู้จัดทำ",
        "date": "2551-02-19"
      }
    ],
    "tag": "a111-2e-2551-a0009"
  }
}