{
  "pages": [
    [
      [
        "ประกาศนายทะเบียนประจำจังหวัดกาฬสินธุ์",
        "เรื่อง มอบหมายอำนาจหน้าที่ของนายทะเบียนประจำจังหวัดกาฬสินธุ์",
        "ให้ข้าราชการกรมการขนส่งทางบกทำการแทน",
        "พ.ศ. ๒๕๕๘"
      ]
    ],
    []
  ],
  "metadata": {
    "date_backmatter": "2558-08-28",
    "date_modified": "2558-10-29",
    "date_original": "2558-10-29",
    "doctype": "ประกาศ",
    "editors": [
      {
        "name": "ปริยานุช",
        "role": "จัดทำ",
        "date": "2558-11-03"
      },
      {
        "name": "ปริญสินีย์",
        "role": "ตรวจ",
        "date": "2558-11-30"
      }
    ],
    "tag": "a111-2e-2558-a0044"
  }
}