{
  "pages": [
    [
      [
        "ประกาศคณะกรรมการควบคุมการขนส่งทางบก",
        "ประจำจังหวัดนครปฐม",
        "ฉบับที่ ๙๘ (พ.ศ. ๒๕๕๑)",
        "เรื่อง ยกเลิกเส้นทางสำหรับการขนส่งโดยรถขนาดเล็ก"
      ]
    ],
    []
  ],
  "metadata": {
    "date_backmatter": "2551-06-11",
    "date_modified": "2552-02-12",
    "date_original": "2552-02-12",
    "doctype": "ประกาศ",
    "editors": [
      {
        "name": "วัชศักดิ์",
        "role": "ผู้จัดทำ",
        "date": "2552-02-18"
      }
    ],
    "tag": "a111-2e-2552-a0026"
  }
}