{
  "pages": [
    [
      [
        "ประกาศกระทรวงคมนาคม",
        "เรื่อง ยกเลิกสถานีขนส่งผู้โดยสารจังหวัดเลย"
      ]
    ],
    []
  ],
  "metadata": {
    "date_backmatter": "2561-02-16",
    "date_modified": "2561-03-16",
    "date_original": "2561-03-16",
    "doctype": "ประกาศ",
    "editors": [
      {
        "name": "ปวันวิทย์",
        "role": "จัดทำ",
        "date": "2561-05-10"
      }
    ],
    "tag": "a111-2e-2561-a0013"
  }
}