{
  "pages": [
    [
      [
        "กฎกระทรวง",
        "ฉบับที่ ๖๒ (พ.ศ. ๒๕๕๙)",
        "ออกตามความในพระราชบัญญัติการขนส่งทางบก พ.ศ. ๒๕๒๒"
      ]
    ],
    []
  ],
  "metadata": {
    "date_backmatter": "2559-03-04",
    "date_modified": "2559-03-18",
    "date_original": "2559-03-18",
    "doctype": "กฎกระทรวง",
    "editors": [
      {
        "name": "วิศนี/ปริยานุช",
        "role": "จัดทำ",
        "date": "2559-03-31"
      },
      {
        "name": "วิชพงษ์",
        "role": "ตรวจ",
        "date": "2559-04-05"
      }
    ],
    "tag": "a111-2b-2559-a0001"
  }
}