{
  "pages": [
    [
      [
        "กฎกระทรวง",
        "ฉบับที่ ๓๙ (พ.ศ. ๒๕๓๕)",
        "ออกตามความในพระราชบัญญัติการขนส่งทางบก",
        "พ.ศ. ๒๕๒๒"
      ]
    ],
    []
  ],
  "metadata": {
    "date_backmatter": "2535-09-29",
    "date_modified": "2535-11-06",
    "date_original": "2535-11-06",
    "doctype": "กฎกระทรวง",
    "editors": [
      {
        "name": "โชติกานต์",
        "role": "ปรับปรุง",
        "date": "2557-09-23"
      },
      {
        "name": "อังศุมาลี",
        "role": "ปรับปรุง",
        "date": "2558-01-20"
      }
    ],
    "tag": "a111-2b-2535-039"
  }
}