{
  "pages": [
    [
      [
        "กฎกระทรวง",
        "ฉบับที่ ๑๑ (พ.ศ. ๒๕๐๙)",
        "ออกตามความในพระราชบัญญัติการขนส่ง",
        "พ.ศ. ๒๔๙๗",
        "ว่าด้วยการขนส่งทางบก"
      ]
    ],
    []
  ],
  "metadata": {
    "date_backmatter": "2509-09-19",
    "date_modified": "2509-10-18",
    "date_original": "2509-10-18",
    "doctype": "กฎกระทรวง",
    "editors": [
      {
        "name": "ธิดาวรรณ",
        "role": "ปรับปรุง",
        "date": "2545-10-30"
      },
      {
        "name": "โชติกานต์",
        "role": "ปรับปรุง",
        "date": "2559-01-07"
      }
    ],
    "tag": "a111-2b-2509-a0001"
  }
}