{
  "pages": [
    [
      [
        "ประกาศคณะกรรมการควบคุมการขนส่งทางบกกลาง",
        "ฉบับที่ ๒๐๐๓ (พ.ศ. ๒๕๕๔)",
        "เรื่อง กำหนดเส้นทางสำหรับการขนส่งประจำทางด้วยรถโดยสาร",
        "หมวด ๑ ในเขตกรุงเทพมหานครและจังหวัดที่มีเส้นทางต่อเนื่อง",
        "สายที่ ๕๕๖ สถานีรถไฟฟ้ามักกะสัน-สถานีขนส่งผู้โดยสารกรุงเทพมหานคร (ตลิ่งชัน)"
      ]
    ],
    []
  ],
  "metadata": {
    "date_backmatter": "2554-01-27",
    "date_modified": "2554-03-31",
    "date_original": "2554-03-31",
    "doctype": "ประกาศ",
    "editors": [
      {
        "name": "ปริยานุช",
        "role": "ผู้จัดทำ",
        "date": "2554-04-19"
      },
      {
        "name": "ณัฐวดี",
        "role": "ตรวจ",
        "date": "2554-04-19"
      }
    ],
    "tag": "a111-2e-2554-a0002"
  }
}