{
  "pages": [
    [
      [
        "ประกาศคณะกรรมการควบคุมการขนส่งทางบกกลาง",
        "ฉบับที่ ๑๖๕๓ (พ.ศ. ๒๕๔๙)",
        "เรื่อง กำหนด (ปรับปรุง) เส้นทางสำหรับการขนส่งประจำทางด้วยรถโดยสาร",
        "หมวด ๓ สายที่ ๒๕๘ ประโคนชัย-ปราสาท โดยยกเลิกรายละเอียดเส้นทางแยก",
        "ช่วงประโคนชัย-บ้านละเวี้ย-บ้านตรุง"
      ]
    ],
    []
  ],
  "metadata": {
    "date_backmatter": "2549-03-09",
    "date_modified": "2549-03-30",
    "date_original": "2549-03-30",
    "doctype": "ประกาศ",
    "editors": [
      {
        "name": "นันทนา",
        "role": "ผู้จัดทำ",
        "date": "2549-04-05"
      },
      {
        "name": "โชติกานต์",
        "role": "ปรับปรุง",
        "date": "2558-07-23"
      }
    ],
    "tag": "a111-2e-2549-a0064"
  }
}