{
  "pages": [
    [
      [
        "ประกาศคณะกรรมการควบคุมการขนส่งทางบกกลาง",
        "ฉบับที่ ๑๗๗๑ (พ.ศ. ๒๕๕๐)",
        "เรื่อง กำหนด (ปรับปรุง) แก้ไขรายละเอียดเส้นทางสำหรับการขนส่งประจำทางด้วยรถโดยสาร",
        "หมวด ๓ สายที่ ๕๘๒ สกลนคร  ปลาปาก"
      ]
    ],
    []
  ],
  "metadata": {
    "date_backmatter": "2550-02-07",
    "date_modified": "2550-03-08",
    "date_original": "2550-03-08",
    "doctype": "ประกาศ",
    "editors": [
      {
        "name": "วัชศักดิ์",
        "role": "ผู้จัดทำ",
        "date": "2550-03-13"
      }
    ],
    "tag": "a111-2e-2550-a0080"
  }
}