{
  "pages": [
    [
      [
        "ประกาศคณะกรรมการควบคุมการขนส่งทางบก",
        "ประจำจังหวัดหนองบัวลำภู",
        "ฉบับที่ ๒๔ (พ.ศ. ๒๕๖๐)",
        "เรื่อง กำหนด (ปรับปรุง) เส้นทางสำหรับการขนส่งประจำทางด้วยรถโดยสาร",
        "หมวด ๓ สายที่ ๕๒๘ ศรีบุญเรือง  อุบลรัตน์ เป็น หมวด ๔ จังหวัดหนองบัวลำภู",
        "สายที่ ๔๗๑๙ ศรีบุญเรือง  บ้านท่าศิลา"
      ]
    ],
    []
  ],
  "metadata": {
    "date_backmatter": "2560-10-16",
    "date_modified": "2561-01-25",
    "date_original": "2561-01-25",
    "doctype": "ประกาศ",
    "editors": [
      {
        "name": "พรวิภา",
        "role": "จัดทำ",
        "date": "2561-01-23"
      }
    ],
    "tag": "a111-2e-2561-a0006"
  }
}