{
  "pages": [
    [
      [
        "ประกาศกรมการขนส่งทางบก",
        "เรื่อง กำหนดหลักเกณฑ์ วิธีการและเงื่อนไขการให้ความเห็นชอบคัสซีและตัวถังรถ",
        "ที่ใช้ในการขนส่งสัตว์หรือสิ่งของ ลักษณะ ๖ ลักษณะ ๗ และลักษณะ ๘",
        "พ.ศ. ๒๕๕๓"
      ]
    ],
    []
  ],
  "metadata": {
    "date_backmatter": "2553-07-06",
    "date_modified": "2553-08-10",
    "date_original": "2553-08-10",
    "doctype": "ประกาศ",
    "editors": [
      {
        "name": "ปริยานุช",
        "role": "ผู้จัดทำ",
        "date": "2553-08-23"
      },
      {
        "name": "ณัฐวดี",
        "role": "ตรวจ",
        "date": "2553-08-23"
      },
      {
        "name": "โชติกานต์",
        "role": "ปรับปรุง",
        "date": "2558-08-28"
      }
    ],
    "tag": "a111-2e-2553-a0075"
  }
}