{
  "pages": [
    [
      [
        "ประกาศนายทะเบียนประจำจังหวัดสระแก้ว",
        "เรื่อง มอบหมายอำนาจหน้าที่ของนายทะเบียนประจำจังหวัด",
        "ให้ข้าราชการในสังกัดกรมการขนส่งทางบกกระทำการแทน",
        "พ.ศ. ๒๕๕๘"
      ]
    ],
    []
  ],
  "metadata": {
    "date_backmatter": "2558-09-01",
    "date_modified": "2558-12-16",
    "date_original": "2558-12-16",
    "doctype": "ประกาศ",
    "editors": [
      {
        "name": "ปริยานุช ,กัญฑรัตน์",
        "role": "จัดทำ",
        "date": "2558-12-22"
      },
      {
        "name": "นุสรา",
        "role": "ตรวจ",
        "date": "2558-12-22"
      }
    ],
    "tag": "a111-2e-2558-a0058"
  }
}