{
  "pages": [
    [
      [
        "ประกาศคณะกรรมการควบคุมการขนส่งทางบกกลาง",
        "ฉบับที่ ๑๗๓๔ (พ.ศ. ๒๕๔๙)",
        "เรื่อง กำหนดเส้นทางสำหรับการขนส่งประจำทางด้วยรถโดยสาร",
        "หมวด ๓ สายที่ ๗๗๓ หาดใหญ่  กงหรา"
      ]
    ],
    []
  ],
  "metadata": {
    "date_backmatter": "2549-12-22",
    "date_modified": "2550-01-25",
    "date_original": "2550-01-25",
    "doctype": "ประกาศ",
    "editors": [
      {
        "name": "โสรศ",
        "role": "ผู้จัดทำ",
        "date": "2550-02-02"
      }
    ],
    "tag": "a111-2e-2550-a0021"
  }
}