{
  "pages": [
    [
      [
        "ประกาศกรมการขนส่งทางบก",
        "เรื่อง การกำหนดรูปแบบรายละเอียดและสีของเครื่องหมายแสดงการเสียภาษีประจำปี",
        "สำหรับรถตามกฎหมายว่าด้วยการขนส่งทางบก"
      ]
    ],
    []
  ],
  "metadata": {
    "date_backmatter": "2558-06-23",
    "date_modified": "2558-08-20",
    "date_original": "2558-08-20",
    "doctype": "ประกาศ",
    "editors": [
      {
        "name": "ปริยานุช",
        "role": "ผู้จัดทำ",
        "date": "2558-08-26"
      },
      {
        "name": "วริญา",
        "role": "ผู้ตรวจ",
        "date": "2558-08-26"
      }
    ],
    "tag": "a111-2e-2558-a0017"
  }
}