{
  "pages": [
    [
      [
        "ประกาศคณะกรรมการควบคุมการขนส่งทางบก",
        "ประจำจังหวัดนครปฐม",
        "ฉบับที่ ๘๐ (พ.ศ. ๒๕๕๐)",
        "เรื่อง กำหนด (ปรับปรุง) เส้นทางสำหรับการขนส่งประจำทางด้วยรถโดยสาร",
        "หมวด ๔ จังหวัดนครปฐม สายที่ ๘๓๓๕ บ้านคลองยม - สามพราน",
        "เป็น บ้านคลองยม - ปากซอยเพชรเกษม ๑๓๐ - ตลาดหมู่บ้านสามพราน"
      ]
    ],
    []
  ],
  "metadata": {
    "date_backmatter": "2550-01-23",
    "date_modified": "2550-05-03",
    "date_original": "2550-05-03",
    "doctype": "ประกาศ",
    "editors": [
      {
        "name": "โสรศ",
        "role": "ผู้จัดทำ",
        "date": "2550-05-17"
      }
    ],
    "tag": "a111-2e-2550-a0197"
  }
}