{
  "pages": [
    [
      [
        "ประกาศนายทะเบียนประจำจังหวัดนราธิวาส",
        "เรื่อง มอบหมายอำนาจหน้าที่ของนายทะเบียนประจำจังหวัดนราธิวาส",
        "ให้ข้าราชการสังกัดสำนักงานขนส่งจังหวัดนราธิวาส กระทำการแทน",
        "พ.ศ. ๒๕๕๘"
      ]
    ],
    []
  ],
  "metadata": {
    "date_backmatter": "2558-08-17",
    "date_modified": "2558-09-15",
    "date_original": "2558-09-15",
    "doctype": "ประกาศ",
    "editors": [
      {
        "name": "ปริยานุช",
        "role": "ผู้จัดทำ",
        "date": "2558-09-16"
      },
      {
        "name": "ปัญจพร",
        "role": "ผู้ตรวจ",
        "date": "2558-09-16"
      }
    ],
    "tag": "a111-2e-2558-a0027"
  }
}