{
  "pages": [
    [
      [
        "ประกาศกรมการขนส่งทางบก",
        "เรื่อง กำหนดลักษณะ ขนาด และคุณสมบัติของเครื่องอุปกรณ์",
        "สำหรับรถที่จะมีไว้ใช้อำนวยความสะดวกแก่คนพิการ",
        "พ.ศ. ๒๕๕๕"
      ]
    ],
    []
  ],
  "metadata": {
    "date_backmatter": "2555-01-20",
    "date_modified": "2555-02-23",
    "date_original": "2555-02-23",
    "doctype": "ประกาศ",
    "editors": [
      {
        "name": "ปริยานุช",
        "role": "ผู้จัดทำ",
        "date": "2555-02-27"
      },
      {
        "name": "ปณตภร",
        "role": "ผู้ตรวจ",
        "date": "2555-03-07"
      }
    ],
    "tag": "a111-2e-2555-a0006"
  }
}