{
  "pages": [
    [
      [
        "ประกาศคณะกรรมการควบคุมการขนส่งทางบก",
        "ประจำจังหวัดลพบุรี",
        "ฉบับที่ ๖๖ (พ.ศ. ๒๕๕๐)",
        "เรื่อง ยกเลิกเส้นทางสำหรับการขนส่งโดยรถขนาดเล็ก"
      ]
    ],
    []
  ],
  "metadata": {
    "date_backmatter": "2550-06-12",
    "date_modified": "2550-08-23",
    "date_original": "2550-08-23",
    "doctype": "ประกาศ",
    "editors": [
      {
        "name": "วัชศักดิ์",
        "role": "ผู้จัดทำ",
        "date": "2550-08-30"
      }
    ],
    "tag": "a111-2e-2550-a0286"
  }
}