{
  "pages": [
    [
      [
        "ประกาศคณะกรรมการควบคุมการขนส่งทางบกกลาง",
        "ฉบับที่ ๑๙๘๙ (พ.ศ. ๒๕๕๓)",
        "เรื่อง กำหนด (ปรับปรุง) เส้นทางสำหรับการขนส่งประจำทางด้วยรถโดยสาร",
        "หมวด ๒ สายที่ ๙๖๕ กรุงเทพฯ - อุทยานประวัติศาสตร์สุโขทัย เป็น",
        "กรุงเทพฯ - บ้านด่านลานหอย"
      ]
    ],
    []
  ],
  "metadata": {
    "date_backmatter": "2553-09-24",
    "date_modified": "2553-11-18",
    "date_original": "2553-11-18",
    "doctype": "ประกาศ",
    "editors": [
      {
        "name": "ปริยานุช",
        "role": "ผู้จัดทำ",
        "date": "2553-11-23"
      },
      {
        "name": "ณัฐวดี",
        "role": "ตรวจ",
        "date": "2553-11-23"
      }
    ],
    "tag": "a111-2e-2553-a0087"
  }
}