{
  "pages": [
    [
      [
        "ประกาศคณะกรรมการควบคุมการขนส่งทางบกกลาง",
        "ฉบับที่ ๑๘๔๖ (พ.ศ. ๒๕๕๐)",
        "เรื่อง กำหนด (ปรับปรุง) เส้นทางสำหรับการขนส่งประจำทางด้วยรถโดยสาร",
        "หมวด ๓ สายที่ ๒๘๓ บ้านไผ่-แก้งคร้อ โดยยกเลิกรายละเอียดเส้นทางแยกช่วง",
        "จำนวน ๒ ช่วง"
      ]
    ],
    []
  ],
  "metadata": {
    "date_backmatter": "2551-01-15",
    "date_modified": "2551-02-21",
    "date_original": "2551-02-21",
    "doctype": "ประกาศ",
    "editors": [
      {
        "name": "วัชศักดิ์",
        "role": "ผู้จัดทำ",
        "date": "2551-02-25"
      }
    ],
    "tag": "a111-2e-2551-a0014"
  }
}