{
  "pages": [
    [
      [
        "ประกาศคณะกรรมการควบคุมการขนส่งทางบก",
        "ประจำจังหวัดสมุทรสงคราม",
        "ฉบับที่ ๕๑ (พ.ศ. ๒๕๕๐)",
        "เรื่อง กำหนดเส้นทางสำหรับการขนส่งประจำทางด้วยรถโดยสารจังหวัดสมุทรสงคราม",
        "หมวด ๔ สายที่ ๘๕๔๗ สมุทรสงคราม-วัดคู้สนามจันทร์"
      ]
    ],
    []
  ],
  "metadata": {
    "date_backmatter": "2550-07-24",
    "date_modified": "2550-11-08",
    "date_original": "2550-11-08",
    "doctype": "ประกาศ",
    "editors": [
      {
        "name": "ปริยานุช",
        "role": "ผู้จัดทำ",
        "date": "2550-11-20"
      }
    ],
    "tag": "a111-2e-2550-a0329"
  }
}