{
  "pages": [
    [
      [
        "ประกาศกรมการขนส่งทางบก",
        "เรื่อง กำหนดมาตรฐานเครื่องอุปกรณ์และส่วนควบของรถ",
        "ที่ใช้ก๊าซธรรมชาติอัดเป็นเชื้อเพลิงตามกฎหมายว่าด้วยการขนส่งทางบก",
        "พ.ศ. ๒๕๕๐"
      ]
    ],
    []
  ],
  "metadata": {
    "date_backmatter": "2550-11-05",
    "date_modified": "2551-01-29",
    "date_original": "2551-01-29",
    "doctype": "ประกาศ",
    "editors": [
      {
        "name": "วัชศักดิ์",
        "role": "ผู้จัดทำ",
        "date": "2551-02-05"
      },
      {
        "name": "โชติกานต์",
        "role": "ปรับปรุง",
        "date": "2558-08-13"
      }
    ],
    "tag": "a111-2e-2551-a0004"
  }
}