{
  "pages": [
    [
      [
        "กฎกระทรวง",
        "ฉบับที่ ๓๓ (พ.ศ. ๒๕๓๔)",
        "ออกตามความในพระราชบัญญัติการขนส่งทางบก",
        "พ.ศ. ๒๕๒๒"
      ]
    ],
    []
  ],
  "metadata": {
    "date_backmatter": "2534-06-14",
    "date_modified": "2534-07-02",
    "date_original": "2534-07-02",
    "doctype": "กฎกระทรวง",
    "editors": [
      {
        "name": "โชติกานต์",
        "role": "ปรับปรุง",
        "date": "2559-01-20"
      }
    ],
    "tag": "a111-2b-2534-033"
  }
}