{
  "pages": [
    [
      [
        "ประกาศคณะกรรมการควบคุมการขนส่งทางบก",
        "ประจำจังหวัดนครราชสีมา",
        "ฉบับที่ ๒๓๓ (พ.ศ. ๒๕๕๓)",
        "เรื่อง กำหนดเส้นทางสำหรับการขนส่งประจำทางด้วยรถโดยสาร"
      ]
    ],
    []
  ],
  "metadata": {
    "date_backmatter": "2553-03-18",
    "date_modified": "2553-07-15",
    "date_original": "2553-07-15",
    "doctype": "ประกาศ",
    "editors": [
      {
        "name": "ปริยานุช",
        "role": "ผู้จัดทำ",
        "date": "2553-07-21"
      },
      {
        "name": "นันท์นภัสร์",
        "role": "ตรวจ",
        "date": "2553-07-21"
      }
    ],
    "tag": "a111-2e-2553-a0068"
  }
}