{
  "pages": [
    [
      [
        "ประกาศคณะกรรมการควบคุมการขนส่งทางบกกลาง",
        "ฉบับที่ ๑๗๕๓ (พ.ศ. ๒๕๔๙)",
        "เรื่อง กำหนด (ปรับปรุง) เส้นทางสำหรับการขนส่งประจำทางด้วยรถโดยสาร",
        "หมวด ๑ ในเขตกรุงเทพมหานครและจังหวัดที่มีเส้นทางต่อเนื่อง",
        "สายที่ ๑ ถนนตก-ท่าเตียน ให้มีรายละเอียดเส้นทางแยก",
        "ช่วงถนนตก-สถานีรถไฟหัวลำโพง"
      ]
    ],
    []
  ],
  "metadata": {
    "date_backmatter": "2550-01-15",
    "date_modified": "2550-02-15",
    "date_original": "2550-02-15",
    "doctype": "ประกาศ",
    "editors": [
      {
        "name": "วัชศักดิ์",
        "role": "ผู้จัดทำ",
        "date": "2550-02-28"
      }
    ],
    "tag": "a111-2e-2550-a0060"
  }
}