{
  "pages": [
    [
      [
        "ระเบียบกรมการขนส่งทางบก",
        "ว่าด้วยการดำเนินการเกี่ยวกับทะเบียนและภาษีรถ",
        "ตามกฎหมายว่าด้วยการขนส่งทางบก (ฉบับที่ ๓)",
        "พ.ศ. ๒๕๕๗"
      ]
    ],
    []
  ],
  "metadata": {
    "date_backmatter": "2557-07-10",
    "date_modified": "2557-09-04",
    "date_original": "2557-09-04",
    "editors": [
      {
        "name": "ปริยานุช",
        "role": "ผู้จัดทำ",
        "date": "2557-09-25"
      },
      {
        "name": "จุฑามาศ",
        "role": "ผู้ตรวจ",
        "date": "2557-10-14"
      }
    ],
    "tag": "a111-2g-2557-a0001"
  }
}