{
  "pages": [
    [
      [
        "ประกาศกรมการขนส่งทางบก",
        "เรื่อง กำหนดแบบใบอนุญาตประกอบการขนส่งระหว่างประเทศ",
        "(ฉบับที่ ๒)"
      ]
    ],
    []
  ],
  "metadata": {
    "date_backmatter": "2547-03-29",
    "date_modified": "2547-05-01",
    "date_original": "2547-05-01",
    "doctype": "ประกาศ",
    "editors": [
      {
        "name": "มยุรี",
        "role": "พิมพ์",
        "date": "2547-07-19"
      },
      {
        "name": "สุนันทา/ศุภสรณ์",
        "role": "ตรวจ",
        "date": "2547-08-09"
      },
      {
        "name": "โชติกานต์",
        "role": "ปรับปรุง",
        "date": "2558-05-11"
      }
    ],
    "tag": "a111-2e-2547-a0021"
  }
}