{
  "pages": [
    [
      [
        "ประกาศคณะกรรมการควบคุมการขนส่งทางบกกลาง",
        "ฉบับที่ ๑๘๔๓ (พ.ศ. ๒๕๕๐)",
        "เรื่อง กำหนด (ปรับปรุง) เส้นทางสำหรับการขนส่งประจำทางด้วยรถโดยสาร",
        "หมวด ๑ ในเขตกรุงเทพมหานครและจังหวัดที่มีเส้นทางต่อเนื่อง",
        "สายที่ ๑๖๕ พุทธมณฑลสาย ๒-ถนนศาลาธรรมสพน์-สำนักงานเขตบางกอกใหญ่",
        "เป็น พุทธมณฑลสาย ๒-ถนนศาลาธรรมสพน์-สำนักงานเขตบางกอกใหญ่",
        "และให้มีรายละเอียดเส้นทางแยกช่วงสำนักงานเขตทวีวัฒนา-สำนักงานเขตบางกอกใหญ่",
        "เพิ่มขึ้นหนึ่งช่วง"
      ]
    ],
    []
  ],
  "metadata": {
    "date_backmatter": "2551-01-15",
    "date_modified": "2551-02-21",
    "date_original": "2551-02-21",
    "doctype": "ประกาศ",
    "editors": [
      {
        "name": "วัชศักดิ์",
        "role": "ผู้จัดทำ",
        "date": "2551-02-25"
      }
    ],
    "tag": "a111-2e-2551-a0011"
  }
}