{
  "pages": [
    [
      [
        "ประกาศคณะกรรมการควบคุมการขนส่งทางบกกลาง",
        "ฉบับที่ ๑๖๐๔ (พ.ศ. ๒๕๔๘)",
        "เรื่อง ยกเลิกเส้นทางสำหรับการขนส่งประจำทางด้วยรถโดยสาร",
        "หมวด ๓ สายที่ ๕๔๒ บ้านผือ-สังคม"
      ]
    ],
    []
  ],
  "metadata": {
    "date_backmatter": "2548-08-31",
    "date_modified": "2548-11-03",
    "date_original": "2548-11-03",
    "doctype": "ประกาศ",
    "editors": [
      {
        "name": "พชร",
        "role": "ผู้จัดทำ",
        "date": "2548-11-08"
      },
      {
        "name": "โชติกานต์",
        "role": "ปรับปรุง",
        "date": "2558-06-17"
      }
    ],
    "tag": "a111-2e-2548-a0030"
  }
}