{
  "pages": [
    [
      [
        "ประกาศคณะกรรมการควบคุมการขนส่งทางบกกลาง",
        "ฉบับที่ ๑๘๙๒ (พ.ศ. ๒๕๕๑)",
        "เรื่อง กำหนด (ปรับปรุง) เส้นทางสำหรับการขนส่งประจำทางด้วยรถโดยสาร",
        "หมวด ๓ สายที่ ๒๑๗ ขอนแก่น-เลย โดยยกเลิกรายละเอียดเส้นทางแยก",
        "ช่วงชุมแพ-บ้านนาน้อย"
      ]
    ],
    []
  ],
  "metadata": {
    "date_backmatter": "2551-07-03",
    "date_modified": "2552-02-12",
    "date_original": "2552-02-12",
    "doctype": "ประกาศ",
    "editors": [
      {
        "name": "ปริยานุช",
        "role": "ผู้จัดทำ",
        "date": "2552-02-19"
      }
    ],
    "tag": "a111-2e-2552-a0018"
  }
}