{
  "pages": [
    [
      [
        "ประกาศคณะกรรมการควบคุมการขนส่งทางบก",
        "ประจำจังหวัดเชียงราย",
        "ฉบับที่ ๖๕ (พ.ศ. ๒๕๕๑)",
        "เรื่อง ยกเลิกเส้นทางสำหรับการขนส่งโดยรถขนาดเล็ก"
      ]
    ],
    []
  ],
  "metadata": {
    "date_backmatter": "2551-12-25",
    "date_modified": "2552-04-09",
    "date_original": "2552-04-09",
    "doctype": "ประกาศ",
    "editors": [
      {
        "name": "ปริยานุช",
        "role": "ผู้จัดทำ",
        "date": "2552-04-24"
      }
    ],
    "tag": "a111-2e-2552-a0114"
  }
}