{
  "pages": [
    [
      [
        "กฎกระทรวง",
        "ฉบับที่ ๙ (พ.ศ. ๒๕๒๔)",
        "ออกตามความในพระราชบัญญัติการขนส่งทางบก",
        "พ.ศ. ๒๕๒๒"
      ]
    ],
    []
  ],
  "metadata": {
    "date_backmatter": "2524-12-18",
    "date_modified": "2552-05-18",
    "date_original": "2525-02-11",
    "doctype": "กฎกระทรวง",
    "editors": [
      {
        "name": "ณัฐพร",
        "role": "จัดทำ",
        "date": "2555-11-16"
      }
    ],
    "tag": "a111-2b-2552-a0002"
  }
}