{
  "pages": [
    [
      [
        "ประกาศกรมการขนส่งทางบก",
        "เรื่อง หลักเกณฑ์ วิธีการตรวจสภาพรถ และข้อปฏิบัติของผู้ได้รับใบอนุญาตจัดตั้งสถานตรวจสภาพรถ",
        "(ฉบับที่ ๒)",
        "พ.ศ. ๒๕๕๙"
      ]
    ],
    []
  ],
  "metadata": {
    "date_backmatter": "2559-06-27",
    "date_modified": "2559-07-28",
    "date_original": "2559-07-28",
    "doctype": "ประกาศ",
    "editors": [
      {
        "name": "ปุณิกา/ปริยานุช",
        "role": "จัดทำ",
        "date": "2559-08-01"
      },
      {
        "name": "นุสรา",
        "role": "ตรวจ",
        "date": "2559-11-01"
      }
    ],
    "tag": "a111-2e-2559-a0018"
  }
}