{
  "pages": [
    [
      [
        "ประกาศกรมการขนส่งทางบก",
        "เรื่อง กำหนดประเภทผู้ได้รับใบอนุญาตประกอบการขนส่ง",
        "และหลักเกณฑ์ วิธีการ เงื่อนไขการจัดให้มีสมุดประจำรถ ประวัติผู้ประจำรถ",
        "การตรวจสอบสภาพและความพร้อมของรถและผู้ขับรถ และรายงานอุบัติเหตุที่เกิดจากการขนส่ง",
        "พ.ศ. ๒๕๖๐"
      ]
    ],
    []
  ],
  "metadata": {
    "date_backmatter": "2560-03-31",
    "date_modified": "2560-04-05",
    "date_original": "2560-04-05",
    "doctype": "ประกาศ",
    "editors": [
      {
        "name": "พรวิภา/ภวรรณตรี",
        "role": "จัดทำ",
        "date": "2560-04-10"
      },
      {
        "name": "นุสรา",
        "role": "ตรวจ",
        "date": "2560-05-24"
      }
    ],
    "tag": "a111-2e-2560-a0010"
  }
}