{
  "pages": [
    [
      [
        "ประกาศคณะกรรมการควบคุมการขนส่งทางบก",
        "ประจำจังหวัดสมุทรปราการ",
        "ฉบับที่ ๑๐๓ (พ.ศ. ๒๕๔๙)",
        "เรื่อง กำหนด (ปรับปรุง) เส้นทางและรายละเอียดเส้นทางสำหรับการขนส่งประจำทาง",
        "ด้วยรถโดยสาร หมวด ๔ จังหวัดสมุทรปราการ สายที่ ๑๑๔๐ สำโรง - ปากน้ำ  คลองด่าน"
      ]
    ],
    []
  ],
  "metadata": {
    "date_backmatter": "2549-10-20",
    "date_modified": "2550-01-04",
    "date_original": "2550-01-04",
    "doctype": "ประกาศ",
    "editors": [
      {
        "name": "วัชศักดิ์",
        "role": "ผู้จัดทำ",
        "date": "2550-01-12"
      }
    ],
    "tag": "a111-2e-2550-a0011"
  }
}