{
  "pages": [
    [
      [
        "ประกาศนายทะเบียนประจำจังหวัดชุมพร",
        "เรื่อง มอบหมายอำนาจหน้าที่ของนายทะเบียนประจำจังหวัดชุมพร",
        "ให้ข้าราชการสังกัดสำนักงานขนส่งจังหวัดชุมพรกระทำการแทน",
        "พ.ศ. ๒๕๕๙"
      ]
    ],
    []
  ],
  "metadata": {
    "date_backmatter": "2559-07-12",
    "date_modified": "2559-09-01",
    "date_original": "2559-09-01",
    "doctype": "ประกาศ",
    "editors": [
      {
        "name": "ปริยานุช",
        "role": "จัดทำ",
        "date": "2559-09-05"
      },
      {
        "name": "ปุณิกา",
        "role": "ตรวจ",
        "date": "2559-10-05"
      }
    ],
    "tag": "a111-2e-2559-a0022"
  }
}