{
  "pages": [
    [
      [
        "ประกาศคณะกรรมการควบคุมการขนส่งทางบกกลาง",
        "ฉบับที่ ๑๘๒๐ (พ.ศ. ๒๕๕๐)",
        "เรื่อง กำหนด (ปรับปรุง) เส้นทางสำหรับการขนส่งประจำทางด้วยรถโดยสาร",
        "หมวด ๑ ในเขตกรุงเทพมหานครและจังหวัดที่มีเส้นทางต่อเนื่อง จำนวน ๒ เส้นทาง",
        "ให้มีรายละเอียดเส้นทางผ่านห้างสรรพสินค้าเทสโก้โลตัสและห้างสรรพสินค้าฟิวเจอร์พาร์ค"
      ]
    ],
    []
  ],
  "metadata": {
    "date_backmatter": "2550-08-28",
    "date_modified": "2550-10-18",
    "date_original": "2550-10-18",
    "doctype": "ประกาศ",
    "editors": [
      {
        "name": "ปริยานุช",
        "role": "ผู้จัดทำ",
        "date": "2550-10-30"
      }
    ],
    "tag": "a111-2e-2550-a0316"
  }
}