{
  "pages": [
    [
      [
        "ประกาศกรมการขนส่งทางบก",
        "เรื่อง การจัดเก็บค่าใช้จ่ายในการขอดำเนินการต่ออายุใบอนุญาต",
        "เป็นผู้ขับรถ และการออกใบแทนใบอนุญาตที่ชำรุด",
        "ในสาระสำคัญสำหรับผู้ได้รับใบอนุญาตเป็นผู้ขับรถ",
        "ตามพระราชบัญญัติการขนส่งทางบก พ.ศ. ๒๕๒๒",
        "ที่ทำงานในต่างประเทศ"
      ]
    ],
    []
  ],
  "metadata": {
    "date_backmatter": "2538-02-24",
    "date_modified": "2541-06-02",
    "date_original": "2541-06-02",
    "doctype": "ประกาศ",
    "editors": [
      {
        "name": "โชติกานต์",
        "role": "ปรับปรุง",
        "date": "2558-03-23"
      }
    ],
    "tag": "a111-2e-2541-001"
  }
}