{
  "pages": [
    [
      [
        "ประกาศคณะกรรมการควบคุมการขนส่งทางบก",
        "ประจำจังหวัดเชียงใหม่",
        "ฉบับที่ ๖๓ (พ.ศ. ๒๕๔๙)",
        "เรื่อง ยกเลิกเส้นทางการขนส่งโดยรถขนาดเล็ก"
      ]
    ],
    []
  ],
  "metadata": {
    "date_backmatter": "2549-06-25",
    "date_modified": "2549-08-31",
    "date_original": "2549-08-31",
    "doctype": "ประกาศ",
    "editors": [
      {
        "name": "นันทนา",
        "role": "ผู้จัดทำ",
        "date": "2549-09-07"
      }
    ],
    "tag": "a111-2e-2549-a0188"
  }
}