{
  "pages": [
    [
      [
        "ประกาศคณะกรรมการควบคุมการขนส่งทางบก",
        "ประจำจังหวัดฉะเชิงเทรา",
        "ฉบับที่ ๕๕ (พ.ศ. ๒๕๕๐)",
        "เรื่อง กำหนดเส้นทางสำหรับการขนส่งประจำทางด้วยรถโดยสาร"
      ]
    ],
    []
  ],
  "metadata": {
    "date_backmatter": "2550-01-11",
    "date_modified": "2550-03-08",
    "date_original": "2550-03-08",
    "doctype": "ประกาศ",
    "editors": [
      {
        "name": "วัชศักดิ์",
        "role": "ผู้จัดทำ",
        "date": "2550-03-13"
      }
    ],
    "tag": "a111-2e-2550-a0094"
  }
}