{
  "pages": [
    [
      [
        "ประกาศนายทะเบียนประจำจังหวัดสระบุรี",
        "เรื่อง มอบหมายอำนาจหน้าที่ให้ข้าราชการทำการแทนนายทะเบียนประจำจังหวัดสระบุรี"
      ]
    ],
    []
  ],
  "metadata": {
    "date_backmatter": "2560-10-04",
    "date_modified": "2560-12-18",
    "date_original": "2560-12-18",
    "doctype": "ประกาศ",
    "editors": [
      {
        "name": "พรวิภา/ภวรรณตรี",
        "role": "จัดทำ",
        "date": "2561-01-09"
      }
    ],
    "tag": "a111-2e-2560-a0041"
  }
}