{
  "pages": [
    [
      [
        "ประกาศกรมการขนส่งทางบก",
        "เรื่อง กำหนดหลักเกณฑ์ วิธีการ และเงื่อนไขในการให้ความเห็นชอบและการยกเลิก",
        "การให้ความเห็นชอบการเป็นผู้ติดตั้งเครื่องอุปกรณ์และส่วนควบ",
        "ของรถที่ใช้ในการขนส่งที่ใช้ก๊าซปิโตรเลียมเหลวเป็นเชื้อเพลิง",
        "พ.ศ. ๒๕๕๑"
      ]
    ],
    []
  ],
  "metadata": {
    "date_backmatter": "2551-10-21",
    "date_modified": "2551-12-17",
    "date_original": "2551-12-17",
    "doctype": "ประกาศ",
    "editors": [
      {
        "name": "ปริยานุช",
        "role": "ผู้จัดทำ",
        "date": "2551-12-23"
      },
      {
        "name": "โชติกานต์",
        "role": "ปรับปรุง",
        "date": "2558-08-13"
      }
    ],
    "tag": "a111-2e-2551-a0100"
  }
}