{
  "pages": [
    [
      [
        "ประกาศคณะกรรมการควบคุมการขนส่งทางบก",
        "ประจำจังหวัดอุดรธานี",
        "ฉบับที่ ๑๓๐ (พ.ศ. ๒๕๕๑)",
        "เรื่อง กำหนดเส้นทางสำหรับการขนส่งประจำทางด้วยรถโดยสาร"
      ]
    ],
    []
  ],
  "metadata": {
    "date_backmatter": "2551-06-02",
    "date_modified": "2552-02-05",
    "date_original": "2552-02-05",
    "doctype": "ประกาศ",
    "editors": [
      {
        "name": "วัชศักดิ์",
        "role": "ผู้จัดทำ",
        "date": "2552-02-11"
      }
    ],
    "tag": "a111-2e-2552-a0014"
  }
}