{
  "pages": [
    [
      [
        "ประกาศคณะกรรมการควบคุมการขนส่งทางบก",
        "ประจำจังหวัดน่าน",
        "ฉบับที่ ๒๙ (พ.ศ. ๒๕๔๙)",
        "เรื่อง กำหนดเส้นทางสำหรับการขนส่งประจำทางด้วยรถโดยสาร"
      ]
    ],
    []
  ],
  "metadata": {
    "date_backmatter": "2549-10-24",
    "date_modified": "2550-08-23",
    "date_original": "2550-08-23",
    "doctype": "ประกาศ",
    "editors": [
      {
        "name": "วัชศักดิ์",
        "role": "ผู้จัดทำ",
        "date": "2550-08-30"
      }
    ],
    "tag": "a111-2e-2550-a0279"
  }
}