{
  "pages": [
    [
      [
        "ประกาศคณะกรรมการควบคุมการขนส่งทางบก",
        "ประจำจังหวัดนครราชสีมา",
        "ฉบับที่ ๒๓๕ (พ.ศ. ๒๕๕๕)",
        "เรื่อง กำหนด (ปรับปรุง) เส้นทางรถโดยสารประจำทาง",
        "หมวด ๔ จังหวัดนครราชสีมา สายที่ ๔๑๙๗",
        "นครราชสีมา - หมู่บ้านร่มฟ้าคุรุสภา - ด่านขุนทด",
        "ให้มีรายละเอียดเส้นทางแยกช่วงนครราชสีมา-ทางแยกบ้านดอน"
      ]
    ],
    []
  ],
  "metadata": {
    "date_backmatter": "2555-05-03",
    "date_modified": "2555-08-23",
    "date_original": "2555-08-23",
    "doctype": "ประกาศ",
    "editors": [
      {
        "name": "ปริยานุช",
        "role": "ผู้จัดทำ",
        "date": "2555-08-28"
      },
      {
        "name": "ชาญ",
        "role": "ผู้ตรวจ",
        "date": "2555-09-04"
      }
    ],
    "tag": "a111-2e-2555-a0027"
  }
}