{
  "pages": [
    [
      [
        "กฎกระทรวง",
        "ฉบับที่ ๒๘ (พ.ศ. ๒๕๓๐)",
        "ออกตามความในพระราชบัญญัติการขนส่งทางบก",
        "พ.ศ. ๒๕๒๒"
      ]
    ],
    []
  ],
  "metadata": {
    "date_backmatter": "2530-09-17",
    "date_modified": "2530-09-25",
    "date_original": "2530-09-25",
    "doctype": "กฎกระทรวง",
    "editors": [
      {
        "name": "โชติกานต์",
        "role": "ปรับปรุง",
        "date": "2559-01-19"
      }
    ],
    "tag": "a111-2b-2530-028"
  }
}