{
  "pages": [
    [
      [
        "ประกาศคณะกรรมการควบคุมการขนส่งทางบก",
        "ประจำจังหวัดกำแพงเพชร",
        "ฉบับที่ ๔๗ (พ.ศ. ๒๕๕๕)",
        "เรื่อง กำหนด (ปรับปรุง) เส้นทางสำหรับการขนส่งประจำทางด้วยรถโดยสาร",
        "หมวด ๓ สายที่ ๖๗๐ กำแพงเพชร - บ้านวังเจ้า เป็น",
        "หมวด ๔ จังหวัดกำแพงเพชร สายที่ ๒๖๖๔ กำแพงเพชร - บ้านหนองเตาอิฐ"
      ]
    ],
    []
  ],
  "metadata": {
    "date_backmatter": "2555-03-06",
    "date_modified": "2555-05-31",
    "date_original": "2555-05-31",
    "doctype": "ประกาศ",
    "editors": [
      {
        "name": "ปริยานุช",
        "role": "ผู้จัดทำ",
        "date": "2555-06-05"
      },
      {
        "name": "ชาญ",
        "role": "ผู้ตรวจ",
        "date": "2555-06-08"
      }
    ],
    "tag": "a111-2e-2555-a0020"
  }
}