{
  "pages": [
    [
      [
        "ประกาศคณะกรรมการควบคุมการขนส่งทางบก",
        "ประจำจังหวัดสระแก้ว",
        "ฉบับที่ ๘ (พ.ศ. ๒๕๔๖)",
        "เรื่อง การปรับปรุงเส้นทางและรายละเอียดเส้นทางสำหรับการขนส่ง",
        "ประจำทางด้วยรถโดยสาร หมวด ๔ จังหวัดสระแก้ว",
        "สายที่ ๑๖๗๕ (ข) อรัญประเทศ-กิ่งอำเภอโคกสูง ให้มีรายละเอียดเส้นทางแยก",
        "ช่วงอรัญประเทศ-บ้านโคกสามัคคี เพิ่มขึ้นอีก ๑ ช่วง"
      ]
    ],
    []
  ],
  "metadata": {
    "date_backmatter": "2546-11-05",
    "date_modified": "2547-01-29",
    "date_original": "2547-01-29",
    "doctype": "ประกาศ",
    "editors": [
      {
        "name": "โชติกานต์",
        "role": "ปรับปรุง",
        "date": "2558-04-30"
      }
    ],
    "tag": "a111-2e-2547-a0004"
  }
}