{
  "pages": [
    [
      [
        "ประกาศคณะกรรมการควบคุมการขนส่งทางบกกลาง",
        "ฉบับที่ ๑๖๒๐ (พ.ศ. ๒๕๔๙)",
        "เรื่อง กำหนด (ปรับปรุง) เส้นทางสำหรับการขนส่งประจำทางด้วยรถโดยสาร",
        "หมวด ๓ สายที่ ๔๕๗ ปัตตานี-สุไหงโกลก",
        "ให้มีรายละเอียดเส้นทางแยกช่วงสุไหงโกลก-ยะลา"
      ]
    ],
    []
  ],
  "metadata": {
    "date_backmatter": "2549-01-12",
    "date_modified": "2549-03-09",
    "date_original": "2549-03-09",
    "doctype": "ประกาศ",
    "editors": [
      {
        "name": "ชัชสรัญ",
        "role": "ผู้จัดทำ",
        "date": "2549-03-17"
      },
      {
        "name": "โชติกานต์",
        "role": "ปรับปรุง",
        "date": "2558-07-17"
      }
    ],
    "tag": "a111-2e-2549-a0015"
  }
}