{
  "pages": [
    [
      [
        "ประกาศกระทรวงคมนาคม",
        "เรื่อง การจัดให้มีสถานีขนส่งผู้โดยสารจังหวัดสตูล"
      ]
    ],
    []
  ],
  "metadata": {
    "date_backmatter": "2550-07-10",
    "date_modified": "2550-08-17",
    "date_original": "2550-08-17",
    "doctype": "ประกาศ",
    "editors": [
      {
        "name": "วัชศักดิ์",
        "role": "ผู้จัดทำ",
        "date": "2550-08-28"
      }
    ],
    "tag": "a111-2e-2550-a0291"
  }
}