{
  "pages": [
    [
      [
        "ประกาศคณะกรรมการควบคุมการขนส่งทางบก",
        "ประจำจังหวัดพิษณุโลก",
        "ฉบับที่ ๔๖ (พ.ศ. ๒๕๕๖)",
        "เรื่อง กำหนด (ปรับปรุง) เส้นทางและรายละเอียดเส้นทาง",
        "สำหรับการขนส่งประจำทางด้วยรถโดยสาร หมวด ๑ จังหวัดพิษณุโลก สายที่ ๑๔",
        "สำนักงานขนส่งจังหวัดพิษณุโลก แห่งที่ ๑ - สำนักงานขนส่งจังหวัดพิษณุโลก แห่งที่ ๒",
        "เป็นห้างเซ็นทรัลพลาซาพิษณุโลก - สำนักงานขนส่งจังหวัดพิษณุโลก แห่งที่ ๒"
      ]
    ],
    []
  ],
  "metadata": {
    "date_backmatter": "2556-09-24",
    "date_modified": "2557-01-09",
    "date_original": "2557-01-09",
    "doctype": "ประกาศ",
    "editors": [
      {
        "name": "ปริยานุช",
        "role": "ผู้จัดทำ",
        "date": "2557-01-14"
      },
      {
        "name": "อุษมล",
        "role": "ผู้ตรวจ",
        "date": "2557-02-13"
      }
    ],
    "tag": "a111-2e-2557-a0002"
  }
}