{
  "pages": [
    [
      [
        "ประกาศคณะกรรมการควบคุมการขนส่งทางบกประจำจังหวัดมหาสารคาม",
        "ฉบับที่ ๕๑ (พ.ศ. ๒๕๖๐)",
        "เรื่อง กำหนด (ปรับปรุง) เส้นทางสำหรับการขนส่งประจำทางด้วยรถโดยสาร หมวด ๔",
        "จังหวัดมหาสารคาม สายที่ ๔๕๓๖ บรบือ  โกสุมพิสัย ให้มีรายละเอียดเส้นทางแยก",
        "ช่วงบรบือ  บ้านปอแดง"
      ]
    ],
    []
  ],
  "metadata": {
    "date_backmatter": "2560-11-07",
    "date_modified": "2561-02-01",
    "date_original": "2561-02-01",
    "doctype": "ประกาศ",
    "editors": [
      {
        "name": "ปวันวิทย์",
        "role": "จัดทำ",
        "date": "2561-02-20"
      }
    ],
    "tag": "a111-2e-2561-a0009"
  }
}