{
  "pages": [
    [
      [
        "ประกาศคณะกรรมการควบคุมการขนส่งทางบกกลาง",
        "ฉบับที่ ๑๙๔๘ (พ.ศ. ๒๕๕๒)",
        "เรื่อง กำหนด (ปรับปรุง) เส้นทางสำหรับการขนส่งประจำทางด้วยรถโดยสาร",
        "หมวด ๑ ในเขตกรุงเทพมหานครและจังหวัดที่มีเส้นทางต่อเนื่อง",
        "สายที่ ๙๘ ห้วยขวาง-กล้วยน้ำไท"
      ]
    ],
    []
  ],
  "metadata": {
    "date_backmatter": "2552-08-20",
    "date_modified": "2552-10-22",
    "date_original": "2552-10-22",
    "doctype": "ประกาศ",
    "editors": [
      {
        "name": "ปริยานุช",
        "role": "ผู้จัดทำ",
        "date": "2552-10-27"
      },
      {
        "name": "นันท์นภัสร์",
        "role": "ตรวจ",
        "date": "2552-10-27"
      }
    ],
    "tag": "a111-2e-2552-a0162"
  }
}