{
  "pages": [
    [
      [
        "ประกาศการกีฬาแห่งประเทศไทย",
        "ฉบับที่ ๑",
        "เรื่อง กำหนดชนิดกีฬาที่สมาคมซึ่งมีวัตถุประสงค์",
        "หลักเกี่ยวกับการกีฬาหรือการส่งเสริมการกีฬาดังกล่าว",
        "จะต้องขอรับใบอนุญาตจาก กกท. ตามมาตรา ๕๓",
        "แห่งพระราชบัญญัติการกีฬาแห่งประเทศไทย",
        "พ.ศ. ๒๕๒๘"
      ]
    ],
    []
  ],
  "metadata": {
    "date_backmatter": "2529-01-06",
    "date_modified": "2529-01-09",
    "date_original": "2529-01-09",
    "doctype": "ประกาศ",
    "editors": [
      {
        "name": "ปัทมา",
        "role": "จัดทำ",
        "date": "2553-12-13"
      },
      {
        "name": "พัสสน",
        "role": "ผู้ตรวจ",
        "date": "2554-03-29"
      },
      {
        "name": "อภิญญา",
        "role": "ปรับปรุง",
        "date": "2557-09-03"
      }
    ],
    "tag": "a147-2e-2529-001"
  }
}