{
  "pages": [
    [
      [
        "ระเบียบกระทรวงการท่องเที่ยวและกีฬา",
        "ว่าด้วยหลักเกณฑ์และวิธีการเลือกกรรมการการกีฬาแห่งประเทศไทย",
        "ประเภทผู้แทนสมาคมกีฬาแห่งจังหวัด",
        "พ.ศ. ๒๕๕๘"
      ]
    ],
    []
  ],
  "metadata": {
    "date_backmatter": "2558-09-04",
    "date_modified": "2558-09-10",
    "date_original": "2558-09-10",
    "editors": [
      {
        "name": "ปริยานุช",
        "role": "ผู้จัดทำ",
        "date": "2558-09-17"
      },
      {
        "name": "ปุณิกา",
        "role": "ผู้ตรวจ",
        "date": "2558-09-17"
      }
    ],
    "tag": "a147-2g-2558-a0003"
  }
}