{
  "pages": [
    [
      [
        "ประกาศการกีฬาแห่งประเทศไทย",
        "เรื่อง กำหนดชนิดกีฬาที่สมาคมซึ่งมีวัตถุประสงค์หลักเกี่ยวกับการกีฬา",
        "หรือการส่งเสริมกีฬาดังกล่าวจะต้องขอรับใบอนุญาตจาก กกท.",
        "ตามมาตรา ๕๓ แห่งพระราชบัญญัติการกีฬาแห่งประเทศไทย",
        "พ.ศ. ๒๕๒๘ เพิ่มเติม"
      ]
    ],
    []
  ],
  "metadata": {
    "date_backmatter": "2550-08-09",
    "date_modified": "2550-10-11",
    "date_original": "2550-10-11",
    "doctype": "ประกาศ",
    "editors": [
      {
        "name": "ปัทมา",
        "role": "จัดทำ",
        "date": "2553-12-13"
      },
      {
        "name": "พัสสน",
        "role": "ผู้ตรวจ",
        "date": "2554-03-29"
      },
      {
        "name": "อภิญญา",
        "role": "ปรับปรุง",
        "date": "2557-09-04"
      }
    ],
    "tag": "a147-2e-2550-a0001"
  }
}