{
  "pages": [
    [
      [
        "พระราชบัญญัติ",
        "การกีฬาแห่งประเทศไทย",
        "พ.ศ. ๒๕๕๘",
        "",
        "",
        "ภูมิพลอดุลยเดช ป.ร.",
        "ให้ไว้ ณ วันที่ ๒๐ มีนาคม พ.ศ. ๒๕๕๘",
        "เป็นปีที่ ๗๐ ในรัชกาลปัจจุบัน"
      ]
    ],
    []
  ],
  "metadata": {
    "date_header": "2558-03-20",
    "date_modified": "2558-03-26",
    "date_original": "2558-03-26",
    "doctype": "พระราชบัญญัติ",
    "editors": [
      {
        "name": "ปริยานุช",
        "role": "ผู้จัดทำ",
        "date": "2558-03-27"
      },
      {
        "name": "เอกฤทธิ์",
        "role": "ผู้ตรวจ",
        "date": "2558-04-09"
      }
    ],
    "tag": "a147-20-2558-a0001",
    "title": "การกีฬาแห่งประเทศไทย"
  }
}