{
  "pages": [
    [
      [
        "กฎกระทรวง",
        "ฉบับที่ ๒ (พ.ศ. ๒๕๒๙)",
        "ออกตามความในพระราชบัญญัติการกีฬาแห่งประเทศไทย",
        "พ.ศ. ๒๕๒๘"
      ]
    ],
    []
  ],
  "metadata": {
    "date_backmatter": "2529-01-02",
    "date_modified": "2529-01-09",
    "date_original": "2529-01-09",
    "doctype": "กฎกระทรวง",
    "editors": [
      {
        "name": "ปัทมา",
        "role": "จัดทำ",
        "date": "2553-12-13"
      },
      {
        "name": "พัสสน",
        "role": "ผู้ตรวจ",
        "date": "2554-03-29"
      },
      {
        "name": "อภิญญา",
        "role": "ปรับปรุง",
        "date": "2557-09-03"
      }
    ],
    "tag": "a147-2b-2529-002"
  }
}