{
  "pages": [
    [
      [
        "ระเบียบคณะกรรมการกองทุนเพื่อส่งเสริมการอนุรักษ์พลังงาน",
        "ว่าด้วยการบริหารกองทุนเพื่อส่งเสริมการอนุรักษ์พลังงาน",
        "พ.ศ. ๒๕๖๐"
      ]
    ],
    []
  ],
  "metadata": {
    "date_backmatter": "2560-06-22",
    "date_modified": "2560-07-19",
    "date_original": "2560-07-19",
    "editors": [
      {
        "name": "ภวรรณตรี",
        "role": "จัดทำ",
        "date": "2560-07-24"
      },
      {
        "name": "ชวัลพร",
        "role": "ตรวจ",
        "date": "2560-07-24"
      }
    ],
    "tag": "a1153-2g-2560-a0001"
  }
}