{
  "pages": [
    [
      [
        "ประกาศกระทรวงการคลัง",
        "เรื่อง ผลการกู้เงินระยะสั้นเพื่อการปรับโครงสร้างหนี้ (พ.ร.ก. ช่วยเหลือกองทุนเพื่อการฟื้นฟูฯ",
        "ระยะที่สอง)",
        "ในปีงบประมาณ พ.ศ. ๒๕๖๑ ครั้งที่ ๒"
      ]
    ],
    []
  ],
  "metadata": {
    "date_backmatter": "2561-01-19",
    "date_modified": "2561-03-23",
    "date_original": "2561-03-23",
    "doctype": "ประกาศ",
    "editors": [
      {
        "name": "ภูมิกิติ",
        "role": "จัดทำ",
        "date": "2561-04-20"
      }
    ],
    "tag": "cb35-2e-2561-a0004"
  }
}