{
  "pages": [
    [
      [
        "ประกาศกระทรวงการคลัง",
        "เรื่อง ผลการออกตั๋วสัญญาใช้เงินเพื่อการปรับโครงสร้างหนี้",
        "(พ.ร.ก.ช่วยเหลือกองทุนเพื่อการฟื้นฟูฯ ระยะที่สอง)",
        "ในปีงบประมาณ พ.ศ. ๒๕๕๕ ครั้งที่ ๒"
      ]
    ],
    []
  ],
  "metadata": {
    "date_backmatter": "2555-08-23",
    "date_modified": "2555-08-24",
    "date_original": "2555-08-24",
    "doctype": "ประกาศ",
    "editors": [
      {
        "name": "ปริยานุช",
        "role": "ผู้จัดทำ",
        "date": "2555-08-28"
      },
      {
        "name": "ชาญ",
        "role": "ผู้ตรวจ",
        "date": "2555-09-05"
      }
    ],
    "tag": "cb35-2e-2555-a0013"
  }
}