{
  "pages": [
    [
      [
        "ประกาศกระทรวงการคลัง",
        "เรื่อง การจำหน่ายพันธบัตรรัฐบาลเพื่อการปรับโครงสร้างหนี้ ประเภทอัตราดอกเบี้ยลอยตัว",
        "(พ.ร.ก. ช่วยเหลือกองทุนเพื่อการฟื้นฟูฯ ระยะที่สอง)",
        "ในปีงบประมาณ พ.ศ. ๒๕๕๕ ครั้งที่ ๑"
      ]
    ],
    []
  ],
  "metadata": {
    "date_backmatter": "2554-10-26",
    "date_modified": "2554-12-08",
    "date_original": "2554-12-08",
    "doctype": "ประกาศ",
    "editors": [
      {
        "name": "ปริยานุช",
        "role": "ผู้จัดทำ",
        "date": "2554-12-14"
      },
      {
        "name": "ณัฐพร",
        "role": "ผู้ตรวจ",
        "date": "2554-12-14"
      }
    ],
    "tag": "cb35-2e-2554-a0011"
  }
}