{
  "pages": [
    [
      [
        "ประกาศกระทรวงการคลัง",
        "เรื่อง การกู้เงินเพื่อการปรับโครงสร้างหนี้ โดยตั๋วสัญญาใช้เงิน",
        "(พ.ร.ก. ช่วยเหลือกองทุนเพื่อการฟื้นฟูฯ ระยะที่สอง)",
        "ในปีงบประมาณ พ.ศ. ๒๕๕๗",
        "ครั้งที่ ๓"
      ]
    ],
    []
  ],
  "metadata": {
    "date_backmatter": "2557-08-21",
    "date_modified": "2557-09-05",
    "date_original": "2557-09-05",
    "doctype": "ประกาศ",
    "editors": [
      {
        "name": "ปริยานุช",
        "role": "ผู้จัดทำ",
        "date": "2557-09-25"
      },
      {
        "name": "จุฑามาศ",
        "role": "ผู้ตรวจ",
        "date": "2557-10-14"
      }
    ],
    "tag": "cb35-2e-2557-a0004"
  }
}