{
  "pages": [
    [
      [
        "ประกาศกระทรวงการคลัง",
        "เรื่อง ผลการจำหน่ายตั๋วสัญญาใช้เงินเพื่อการปรับโครงสร้างหนี้",
        "(พ.ร.ก. ช่วยเหลือกองทุนเพื่อการฟื้นฟูฯ ระยะที่สอง)",
        "ในปีงบประมาณ พ.ศ. ๒๕๖๐ ครั้งที่ ๑"
      ]
    ],
    []
  ],
  "metadata": {
    "date_backmatter": "2559-11-21",
    "date_modified": "2559-12-26",
    "date_original": "2559-12-26",
    "doctype": "ประกาศ",
    "editors": [
      {
        "name": "ชนิกา/ปริยานุช",
        "role": "จัดทำ",
        "date": "2560-01-05"
      }
    ],
    "tag": "cb35-2e-2559-a0014"
  }
}