{
  "pages": [
    [
      [
        "ประกาศกระทรวงการคลัง",
        "เรื่อง การกู้เงินเพื่อการปรับโครงสร้างหนี้ โดยตั๋วสัญญาใช้เงิน",
        "ในปีงบประมาณ พ.ศ. ๒๕๕๓ ครั้งที่ ๓"
      ]
    ],
    []
  ],
  "metadata": {
    "date_backmatter": "2553-08-09",
    "date_modified": "2553-09-03",
    "date_original": "2553-09-03",
    "doctype": "ประกาศ",
    "editors": [
      {
        "name": "ปริยานุช",
        "role": "ผู้จัดทำ",
        "date": "2553-09-15"
      },
      {
        "name": "นันท์นภัสร์",
        "role": "ตรวจ",
        "date": "2553-09-15"
      }
    ],
    "tag": "cb35-2e-2553-a0002"
  }
}