{
  "pages": [
    [
      [
        "ข้อบังคับทันตแพทยสภา",
        "ว่าด้วยราชวิทยาลัยทันตแพทย์แห่งประเทศไทย",
        "พ.ศ. ๒๕๕๐"
      ]
    ],
    []
  ],
  "metadata": {
    "date_backmatter": "2550-01-25",
    "date_modified": "2558-04-16",
    "date_original": "2550-04-27",
    "editors": [
      {
        "name": "วริญา",
        "role": "ผู้จัดทำ",
        "date": "2558-04-27"
      },
      {
        "name": "วิชพงษ์",
        "role": "ผู้ตรวจ",
        "date": "2558-05-14"
      }
    ],
    "tag": "c744-2i-9997-update"
  }
}