{
  "pages": [
    [
      [
        "ข้อบังคับทันตแพทยสภา",
        "ว่าด้วยการรับรองปริญญา ประกาศนียบัตรในวิชาทันตแพทยศาสตร์",
        "หรือวุฒิบัตรในวิชาชีพทันตกรรมของสถาบันต่าง ๆ เพื่อประโยชน์ในการสมัคร",
        "เป็นสมาชิกทันตแพทยสภา",
        "พ.ศ. ๒๕๕๓"
      ]
    ],
    []
  ],
  "metadata": {
    "date_backmatter": "2553-02-01",
    "date_modified": "2558-04-16",
    "date_original": "2553-04-02",
    "editors": [
      {
        "name": "วริญา",
        "role": "ผู้จัดทำ",
        "date": "2558-04-27"
      },
      {
        "name": "วิชพงษ์",
        "role": "ผู้ตรวจ",
        "date": "2558-05-14"
      }
    ],
    "tag": "c744-2i-9999-update"
  }
}