{
  "pages": [
    [
      [
        "ประกาศสำนักนายกรัฐมนตรี",
        "เรื่อง กำหนดรายชื่อนิติบุคคลที่ส่วนราชการรับรองผลงานของผู้กระทำ",
        "ความดีความชอบต่อนิติบุคคลนั้น ๆ ได้ และรายชื่อนิติบุคคล",
        "ที่สามารถออกหนังสือรับรองแสดงรายการการบริจาคทรัพย์สินให้แก่",
        "นิติบุคคล ผู้มีอำนาจลงลายมือชื่อในหนังสือรับรอง และหน่วยงาน",
        "ที่เสนอขอพระราชทาน ตามพระราชกฤษฎีกาว่าด้วยการขอพระราชทาน",
        "เครื่องราชอิสริยาภรณ์อันเป็นที่สรรเสริญยิ่งดิเรกคุณาภรณ์",
        "พ.ศ. ๒๕๓๘ (ฉบับที่ ๑๐)"
      ]
    ],
    []
  ],
  "metadata": {
    "date_backmatter": "2547-07-19",
    "date_modified": "2547-07-21",
    "date_original": "2547-07-21",
    "doctype": "ประกาศ",
    "editors": [
      {
        "name": "วิมล",
        "role": "ผู้จัดทำ",
        "date": "2553-03-30"
      },
      {
        "name": "กวินทราดา",
        "role": "ผู้ตรวจ",
        "date": "2554-02-28"
      }
    ],
    "tag": "a461-2e-2547-a0001"
  }
}