{
  "pages": [
    [
      [
        "ประกาศสำนักนายกรัฐมนตรี",
        "เรื่อง กำหนดรายชื่อนิติบุคคลที่ส่วนราชการรับรองผลงานของผู้กระทำความดี",
        "ความชอบต่อนิติบุคคลนั้น ๆ ได้ และรายชื่อนิติบุคคลที่สามารถออกหนังสือ",
        "รับรองแสดงรายการบริจาคทรัพย์สินให้แก่นิติบุคคล ผู้มีอำนาจลงลายมือชื่อ",
        "ในหนังสือรับรอง และหน่วยงานที่เสนอขอพระราชทาน ตามพระราชกฤษฎีกา",
        "ว่าด้วยการขอพระราชทานเครื่องราชอิสริยาภรณ์อันเป็นที่สรรเสริญยิ่งดิเรกคุณาภรณ์",
        "พ.ศ. ๒๕๓๘ (ฉบับที่ ๒)"
      ]
    ],
    []
  ],
  "metadata": {
    "date_backmatter": "2541-10-07",
    "date_modified": "2541-10-09",
    "date_original": "2541-10-09",
    "doctype": "ประกาศ",
    "editors": [
      {
        "name": "ดลธี",
        "role": "พิมพ์",
        "date": "2554-03-04"
      },
      {
        "name": "กวินทราดา",
        "role": "ผู้ตรวจ",
        "date": "2554-03-04"
      }
    ],
    "tag": "a461-2e-2541-a0001"
  }
}