{
  "pages": [
    [
      [
        "พระราชกฤษฎีกา",
        "ว่าด้วยการขอพระราชทานเครื่องราชอิสริยาภรณ์",
        "อันเป็นที่สรรเสริญยิ่งดิเรกคุณาภรณ์ (ฉบับที่ ๒)",
        "พ.ศ. ๒๕๔๙",
        "",
        "",
        "ภูมิพลอดุลยเดช ป.ร.",
        "ให้ไว้ ณ วันที่ ๒๓ พฤษภาคม พ.ศ. ๒๕๔๙",
        "เป็นปีที่ ๖๑ ในรัชกาลปัจจุบัน"
      ]
    ],
    []
  ],
  "metadata": {
    "date_header": "2549-05-23",
    "date_modified": "2549-06-14",
    "date_original": "2549-06-14",
    "doctype": "พระราชกฤษฎีกา",
    "editors": [
      {
        "name": "นันทนา",
        "role": "ผู้จัดทำ",
        "date": "2549-06-19"
      },
      {
        "name": "กวินทราดา",
        "role": "ผู้ตรวจ",
        "date": "2554-03-02"
      }
    ],
    "tag": "a461-2a-2549-a0001",
    "title": "ว่าด้วยการขอพระราชทานเครื่องราชอิสริยาภรณ์อันเป็นที่สรรเสริญยิ่งดิเรกคุณาภรณ์ (ฉบับที่ ๒)"
  }
}