{
  "pages": [
    [
      [
        "ประกาศสำนักนายกรัฐมนตรี",
        "เรื่อง กำหนดรายชื่อนิติบุคคลที่ส่วนราชการรับรอง",
        "ผลงานของผู้กระทำความดีความชอบต่อนิติบุคคลนั้น ๆ ได้",
        "และรายชื่อนิติบุคคลที่สามารถออกหนังสือรับรองแสดงรายการ",
        "การบริจาคทรัพย์สินให้แก่นิติบุคคล ผู้มีอำนาจลงลายมือชื่อในหนังสือรับรอง",
        "และหน่วยงานที่เสนอขอพระราชทาน ตามพระราชกฤษฎีกาว่าด้วยการขอพระราชทาน",
        "เครื่องราชอิสริยาภรณ์อันเป็นที่สรรเสริญยิ่งดิเรกคุณาภรณ์ พ.ศ. ๒๕๓๘ (ฉบับที่ ๑๕)"
      ]
    ],
    []
  ],
  "metadata": {
    "date_backmatter": "2549-06-14",
    "date_modified": "2549-06-27",
    "date_original": "2549-06-27",
    "doctype": "ประกาศ",
    "editors": [
      {
        "name": "นันทนา",
        "role": "ผู้จัดทำ",
        "date": "2549-07-04"
      },
      {
        "name": "กวินทราดา",
        "role": "ผู้ตรวจ",
        "date": "2554-03-03"
      }
    ],
    "tag": "a461-2e-2549-a0001"
  }
}