{
  "pages": [
    [
      [
        "ประกาศสำนักนายกรัฐมนตรี",
        "เรื่อง หลักเกณฑ์ วิธีการ และเงื่อนไขในการพิจารณาว่านิติบุคคลใดมีวัตถุประสงค์",
        "ในการประกอบกิจการอันเป็นสาธารณประโยชน์ เพื่อขอพระราชทาน",
        "เครื่องราชอิสริยาภรณ์อันเป็นที่สรรเสริญยิ่งดิเรกคุณาภรณ์"
      ]
    ],
    []
  ],
  "metadata": {
    "date_backmatter": "2554-04-28",
    "date_modified": "2554-05-20",
    "date_original": "2554-05-20",
    "doctype": "ประกาศ",
    "editors": [
      {
        "name": "ปริยานุช",
        "role": "ผู้จัดทำ",
        "date": "2554-06-07"
      },
      {
        "name": "ณัฐวดี",
        "role": "ตรวจ",
        "date": "2554-06-07"
      }
    ],
    "tag": "a461-2e-2554-a0003"
  }
}