{
  "pages": [
    [
      [
        "พระราชบัญญัติ",
        "การประดับเครื่องราชอิสริยาภรณ์และเหรียญของทหารหญิง",
        "พ.ศ. ๒๕๑๐",
        "",
        "",
        "ภูมิพลอดุลยเดช ป.ร.",
        "ให้ไว้ ณ วันที่ ๒๐ มกราคม พ.ศ. ๒๕๑๐",
        "เป็นปีที่ ๒๒ ในรัชกาลปัจจุบัน"
      ]
    ],
    []
  ],
  "metadata": {
    "date_header": "2510-01-20",
    "date_modified": "2510-02-01",
    "date_original": "2510-02-01",
    "doctype": "พระราชบัญญัติ",
    "editors": [
      {
        "name": null,
        "role": null,
        "date": "2554-02-00"
      }
    ],
    "tag": "a182-20-2510-001",
    "title": "การประดับเครื่องราชอิสริยาภรณ์และเหรียญของทหารหญิง"
  }
}