{
  "pages": [
    [
      [
        "ประกาศกรมการขนส่งทางบก",
        "เรื่อง กำหนดสีและรูปภาพเสมือนของแท้จริง (Graphic) รูปแบบใหม่ ของแผ่นป้ายทะเบียน",
        "รถยนต์นั่งส่วนบุคคลไม่เกิน ๗ คน ที่ใช้หมายเลขทะเบียนที่กำหนดให้เป็นหมายเลข",
        "ทะเบียนซึ่งเป็นที่ต้องการหรือเป็นที่นิยมที่จดทะเบียนในจังหวัดขอนแก่น"
      ]
    ],
    []
  ],
  "metadata": {
    "date_backmatter": "2555-11-27",
    "date_modified": "2556-01-09",
    "date_original": "2556-01-09",
    "doctype": "ประกาศ",
    "editors": [
      {
        "name": "ปริยานุช",
        "role": "ผู้จัดทำ",
        "date": "2556-01-10"
      },
      {
        "name": "อุษมล",
        "role": "ผู้ตรวจ",
        "date": "2556-01-10"
      }
    ],
    "tag": "c301-2e-2556-a0001"
  }
}