{
  "pages": [
    [
      [
        "ประกาศกรมการขนส่งทางบก",
        "เรื่อง กำหนดแบบคำสั่งผู้ตรวจการตามพระราชบัญญัติรถยนตร์",
        "พ.ศ. ๒๕๒๒"
      ]
    ],
    []
  ],
  "metadata": {
    "date_backmatter": "2543-08-02",
    "date_modified": "2544-03-16",
    "date_original": "2544-03-16",
    "doctype": "ประกาศ",
    "editors": [
      {
        "name": "อัมภิญา",
        "role": "พิมพ์",
        "date": "2551-02-18"
      }
    ],
    "tag": "c301-2e-2544-a0001"
  }
}