{
  "pages": [
    [
      [
        "ประกาศสำนักนายกรัฐมนตรี",
        "เรื่อง การไม่อนุมัติพระราชกำหนดแก้ไขเพิ่มเติม",
        "พระราชบัญญัติรถยนตร์ พ.ศ. 2522 พ.ศ. 2529"
      ]
    ],
    []
  ],
  "metadata": {
    "date_backmatter": "2529-09-10",
    "doctype": "ประกาศ",
    "editors": [],
    "tag": "c301-2e-2529-001"
  }
}