{
  "pages": [
    [
      [
        "กฎกระทรวง",
        "กำหนดค่าธรรมเนียมตามกฎหมายว่าด้วยรถยนต์ (ฉบับที่ ๕)",
        "พ.ศ. ๒๕๕๗"
      ]
    ],
    []
  ],
  "metadata": {
    "date_backmatter": "2557-03-04",
    "date_modified": "2557-03-17",
    "date_original": "2557-03-17",
    "doctype": "กฎกระทรวง",
    "editors": [
      {
        "name": "ปริยานุช",
        "role": "ผู้จัดทำ",
        "date": "2557-03-25"
      },
      {
        "name": "เอกฤทธิ์",
        "role": "ผู้ตรวจ",
        "date": "2557-04-09"
      }
    ],
    "tag": "c301-2b-2557-a0001"
  }
}