{
  "pages": [
    [
      [
        "ประกาศกรมการขนส่งทางบก",
        "เรื่อง กำหนดหลักเกณฑ์และวิธีการขอใช้หรือเปลี่ยนหมายเลขทะเบียนรถ",
        "ตามพระราชบัญญัติรถยนต์ พ.ศ. ๒๕๒๒"
      ]
    ],
    []
  ],
  "metadata": {
    "date_backmatter": "2555-05-29",
    "date_modified": "2555-12-25",
    "date_original": "2555-12-25",
    "doctype": "ประกาศ",
    "editors": [
      {
        "name": "โชติกานต์",
        "role": "ผู้จัดทำ",
        "date": "2556-01-18"
      },
      {
        "name": "เอกฤทธิ์",
        "role": "ผู้ตรวจ",
        "date": "2556-01-18"
      }
    ],
    "tag": "c301-2e-9996-update"
  }
}