{
  "pages": [
    [
      [
        "ประกาศกรมการขนส่งทางบก",
        "เรื่อง กำหนดสีและรูปภาพเสมือนของแท้จริง (Graphic) รูปแบบใหม่ ของแผ่นป้ายทะเบียน",
        "รถยนต์นั่งส่วนบุคคลไม่เกิน ๗ คน ที่ใช้หมายเลขทะเบียนที่กำหนดให้เป็นหมายเลข",
        "ทะเบียนซึ่งเป็นที่ต้องการหรือเป็นที่นิยมที่จดทะเบียนในจังหวัดพิษณุโลก"
      ]
    ],
    []
  ],
  "metadata": {
    "date_backmatter": "2553-06-24",
    "date_modified": "2553-08-10",
    "date_original": "2553-08-10",
    "doctype": "ประกาศ",
    "editors": [
      {
        "name": "ปริยานุช",
        "role": "ผู้จัดทำ",
        "date": "2553-08-20"
      },
      {
        "name": "ณัฐวดี",
        "role": "ตรวจ",
        "date": "2553-08-20"
      }
    ],
    "tag": "c301-2e-2553-a0011"
  }
}