{
  "pages": [
    [
      [
        "กฎกระทรวง",
        "ฉบับที่ ๓๙ (พ.ศ. ๒๕๒๒)",
        "ออกตามความในพระราชบัญญัติรถยนตร์",
        "พุทธศักราช ๒๔๗๓"
      ]
    ],
    []
  ],
  "metadata": {
    "date_backmatter": "2522-05-23",
    "date_gz_old": "2522-07-17",
    "doctype": "กฎกระทรวง",
    "editors": [
      {
        "name": "พุทธชาด",
        "role": "แก้ไข",
        "date": "2545-10-16"
      }
    ],
    "tag": "c301-2b-2522-a0001"
  }
}