{
  "pages": [
    [
      [
        "ประกาศกรมการขนส่งทางบก",
        "เรื่อง กำหนดสีและรูปภาพเสมือนจริง (Graphic) ของแผ่นป้ายทะเบียนรถยนต์นั่งส่วนบุคคลไม่เกิน ๗ คน",
        "ที่ใช้หมายเลขทะเบียนที่กำหนดให้เป็นหมายเลขทะเบียนซึ่งเป็นที่ต้องการหรือเป็นที่นิยม",
        "ที่จดทะเบียนในจังหวัดยะลา"
      ]
    ],
    []
  ],
  "metadata": {
    "date_backmatter": "2560-09-11",
    "date_modified": "2560-11-27",
    "date_original": "2560-11-27",
    "doctype": "ประกาศ",
    "editors": [
      {
        "name": "พิมพ์มาดา/อัญชลี",
        "role": "จัดทำ",
        "date": "2560-12-04"
      }
    ],
    "tag": "c301-2e-2560-a0011"
  }
}