{
  "pages": [
    [
      [
        "กฎกระทรวง",
        "ฉบับที่ ๓๐ (พ.ศ. ๒๕๐๔)",
        "ออกตามความในพระราชบัญญัติรถยนตร์",
        "พุทธศักราช ๒๔๗๓"
      ]
    ],
    []
  ],
  "metadata": {
    "date_backmatter": "2504-12-27",
    "date_gz_old": "2504-12-29",
    "doctype": "กฎกระทรวง",
    "editors": [
      {
        "name": "จารุวรรณ",
        "role": "พิมพ์",
        "date": "2545-10-30"
      }
    ],
    "tag": "c301-2b-2504-a003"
  }
}