{
  "pages": [
    [
      [
        "ระเบียบกรมการขนส่งทางบก",
        "ว่าด้วยการผ่อนชำระภาษีค้าง",
        "ตามกฎหมายว่าด้วยรถยนต์ (ฉบับที่ ๒)",
        "พ.ศ. ๒๕๔๗"
      ]
    ],
    []
  ],
  "metadata": {
    "date_backmatter": "2547-02-20",
    "date_modified": "2547-06-24",
    "date_original": "2547-06-24",
    "editors": [
      {
        "name": "ญาณี",
        "role": "พิมพ์",
        "date": "2547-09-22"
      },
      {
        "name": "นวพร/สุนันทา",
        "role": "ตรวจ",
        "date": "2547-10-14"
      }
    ],
    "tag": "c301-2g-2547-a0002"
  }
}