{
  "pages": [
    [
      [
        "ระเบียบกรมการขนส่งทางบก",
        "ว่าด้วยหลักเกณฑ์และวิธีการให้ความเห็นชอบมาตรค่าโดยสารสำหรับรถยนต์รับจ้าง (TAXI METER)",
        "พ.ศ. ๒๕๕๙"
      ]
    ],
    []
  ],
  "metadata": {
    "date_backmatter": "2559-03-17",
    "date_modified": "2559-04-21",
    "date_original": "2559-04-21",
    "editors": [
      {
        "name": "วิศนี/ปริยานุช",
        "role": "จัดทำ",
        "date": "2559-05-18"
      }
    ],
    "tag": "c301-2g-2559-a0001"
  }
}