{
  "pages": [
    [
      [
        "ประกาศนายทะเบียนทั่วราชอาณาจักร",
        "เรื่อง ให้เจ้าของรถที่จะเสียภาษีประจำปีนำรถไปตรวจสภาพ",
        "(ฉบับที่ ๑๙)",
        "พ.ศ. ๒๕๔๘"
      ]
    ],
    []
  ],
  "metadata": {
    "date_backmatter": "2548-03-31",
    "date_modified": "2548-08-18",
    "date_original": "2548-08-18",
    "doctype": "ประกาศ",
    "editors": [
      {
        "name": "ฐิติพงษ์",
        "role": "ผู้จัดทำ",
        "date": "2548-08-24"
      }
    ],
    "tag": "c301-2e-2548-a0004"
  }
}