{
  "pages": [
    [
      [
        "ระเบียบกรมการขนส่งทางบก",
        "ว่าด้วยการเสียภาษีรถประจำปีผ่านจุดบริการ (ฉบับที่ ๒)",
        "พ.ศ. ๒๕๔๗"
      ]
    ],
    []
  ],
  "metadata": {
    "date_backmatter": "2547-08-13",
    "date_modified": "2547-10-14",
    "date_original": "2547-10-14",
    "editors": [
      {
        "name": "พรพิมล",
        "role": "พิมพ์",
        "date": "2548-06-14"
      },
      {
        "name": "ธัญกมล/พัชรินทร์",
        "role": "ตรวจ",
        "date": "2548-06-29"
      }
    ],
    "tag": "c301-2g-2547-a0015"
  }
}