{
  "pages": [
    [
      [
        "ประกาศกรมการขนส่งทางบก",
        "เรื่อง กำหนดสีและรูปภาพเสมือนของแท้จริง (Graphic) รูปแบบใหม่",
        "ของแผ่นป้ายทะเบียนรถยนต์นั่งส่วนบุคคลไม่เกิน ๗ คน ที่ใช้หมายเลขทะเบียนที่กำหนดให้เป็น",
        "หมายเลขทะเบียนซึ่งเป็นที่ต้องการหรือเป็นที่นิยมที่จดทะเบียนในจังหวัดอุดรธานี"
      ]
    ],
    []
  ],
  "metadata": {
    "date_backmatter": "2555-09-12",
    "date_modified": "2555-11-12",
    "date_original": "2555-11-12",
    "doctype": "ประกาศ",
    "editors": [
      {
        "name": "ปริยานุช",
        "role": "ผู้จัดทำ",
        "date": "2555-11-16"
      },
      {
        "name": "ชาญ",
        "role": "ผู้ตรวจ",
        "date": "2555-11-23"
      }
    ],
    "tag": "c301-2e-2555-a0016"
  }
}