{
  "pages": [
    [
      [
        "ประกาศกรมการขนส่งทางบก",
        "เรื่อง กำหนดสีและรูปภาพเสมือนของแท้จริง (Graphic)",
        "ของแผ่นป้ายทะเบียนรถยนต์นั่งส่วนบุคคลไม่เกิน ๗ คน",
        "ที่ใช้หมายเลขทะเบียนที่กำหนดให้เป็นหมายเลขทะเบียน",
        "ซึ่งเป็นที่ต้องการหรือเป็นที่นิยมที่จดทะเบียนในจังหวัดเพชรบุรี",
        "(แผ่นป้ายทะเบียนรถที่ได้จากการประมูล)"
      ]
    ],
    []
  ],
  "metadata": {
    "date_backmatter": "2548-06-06",
    "date_modified": "2548-08-04",
    "date_original": "2548-08-04",
    "doctype": "ประกาศ",
    "editors": [
      {
        "name": "ฐิติพงษ์",
        "role": "ผู้จัดทำ",
        "date": "2548-08-18"
      }
    ],
    "tag": "c301-2e-2548-a0002"
  }
}