{
  "pages": [
    [
      [
        "ระเบียบกรมการขนส่งทางบก",
        "ว่าด้วยการดำเนินการเกี่ยวกับทะเบียน",
        "และภาษีรถตามกฎหมายว่าด้วยรถยนตร์ (ฉบับที่ ๙)",
        "พ.ศ. ๒๕๔๕"
      ]
    ],
    []
  ],
  "metadata": {
    "date_backmatter": "2545-08-20",
    "date_modified": "2545-09-02",
    "date_original": "2545-09-02",
    "editors": [
      {
        "name": "อัมภิญา",
        "role": "พิมพ์",
        "date": "2550-09-18"
      },
      {
        "name": "ปฐมพร",
        "role": "ตรวจ",
        "date": "2550-10-04"
      }
    ],
    "tag": "c301-2g-2545-a0001"
  }
}