{
  "pages": [
    [
      [
        "ประกาศนายทะเบียนทั่วราชอาณาจักร",
        "เรื่อง การออกเครื่องหมายการเสียภาษีประจำปี",
        "ตามกฎหมายว่าด้วยรถยนตร์"
      ]
    ],
    []
  ],
  "metadata": {
    "date_backmatter": "2542-12-15",
    "date_gz_old": "2543-01-25",
    "doctype": "ประกาศ",
    "editors": [
      {
        "name": "อัมพิกา",
        "role": "แก้ไข",
        "date": "2545-05-03"
      }
    ],
    "tag": "c301-2e-2543-a002"
  }
}