{
  "pages": [
    [
      [
        "กฎกระทรวง",
        "ฉบับที่ ๑๖ (พ.ศ. ๒๕๒๖)",
        "ออกตามความในพระราชบัญญัติรถยนต์",
        "พ.ศ. ๒๕๒๒"
      ]
    ],
    []
  ],
  "metadata": {
    "date_backmatter": "2526-11-07",
    "date_modified": "2531-07-22",
    "date_original": "2526-11-21",
    "doctype": "กฎกระทรวง",
    "editors": [
      {
        "name": "ปฐมพร",
        "role": "อัปเดท",
        "date": "2550-09-17"
      }
    ],
    "tag": "c301-2b-9992-update"
  }
}