{
  "pages": [
    [
      [
        "ระเบียบกรมการขนส่งทางบก",
        "ว่าด้วยการจดทะเบียนรถยนต์สี่ล้อเล็กทดแทนรถยนต์สี่ล้อเล็กรับจ้างคันเดิม",
        "พ.ศ. ๒๕๔๘"
      ]
    ],
    []
  ],
  "metadata": {
    "date_backmatter": "2548-10-26",
    "date_modified": "2549-01-05",
    "date_original": "2549-01-05",
    "editors": [
      {
        "name": "ชัชสรัญ",
        "role": "ผู้จัดทำ",
        "date": "2549-01-11"
      }
    ],
    "tag": "c301-2g-2549-a0001"
  }
}