{
  "pages": [
    [
      [
        "กฎกระทรวง",
        "ฉบับที่ ๓ (พ.ศ. ๒๕๓๑)",
        "ออกตามความในพระราชบัญญัติรถยนตร์",
        "พ.ศ. ๒๕๒๒"
      ]
    ],
    []
  ],
  "metadata": {
    "date_backmatter": "2531-07-22",
    "date_gz_old": "2531-07-22",
    "doctype": "กฎกระทรวง",
    "editors": [],
    "tag": "c301-2b-2531-a005"
  }
}