{
  "pages": [
    [
      [
        "ระเบียบกรมการขนส่งทางบก",
        "ว่าด้วยการเสียภาษีรถประจำปีผ่านจุดบริการ พ.ศ. ๒๕๔๒"
      ]
    ],
    []
  ],
  "metadata": {
    "date_backmatter": "2542-10-11",
    "date_modified": "2547-11-05",
    "date_original": "2542-11-15",
    "editors": [
      {
        "name": "ณัฐดนัย",
        "role": "พิมพ์",
        "date": "2550-10-01"
      },
      {
        "name": "ปฐมพร/ตรวจ",
        "role": "อัปเดท",
        "date": "2550-10-04"
      }
    ],
    "tag": "c301-2g-9996-update"
  }
}