{
  "pages": [
    [
      [
        "ประกาศกรมการขนส่งทางบก",
        "เรื่อง กำหนดแบบคำสั่งผู้ตรวจการตามพระราชบัญญัติรถยนต์ พ.ศ. ๒๕๒๒",
        "ตามที่ได้มีประกาศกระทรวงคมนาคม เรื่อง กำหนดแบบคำสั่งผู้ตรวจการตามพระราชบัญญัติรถยนต์",
        "พ.ศ. ๒๕๒๒ ลงวันที่ ๑๐ มีนาคม พ.ศ. ๒๕๕๔ ไว้แล้ว นั้น"
      ]
    ],
    []
  ],
  "metadata": {
    "date_backmatter": "2559-03-28",
    "date_header": "2554-03-10",
    "date_modified": "2559-04-22",
    "date_original": "2559-04-22",
    "doctype": "ประกาศ",
    "editors": [
      {
        "name": "วิศนี/ปริยานุช",
        "role": "จัดทำ",
        "date": "2559-05-19"
      }
    ],
    "tag": "c301-2e-2559-a0001"
  }
}