{
  "pages": [
    [
      [
        "ระเบียบกรมการขนส่งทางบก",
        "ว่าด้วยการกำหนดสีและลักษณะของรถ",
        "ตามกฎหมายว่าด้วยรถยนต์",
        "พ.ศ. ๒๕๔๙"
      ]
    ],
    []
  ],
  "metadata": {
    "date_backmatter": "2549-07-04",
    "date_modified": "2560-11-24",
    "date_original": "2549-11-23",
    "editors": [
      {
        "name": "วัชศักดิ์",
        "role": "ผู้จัดทำ",
        "date": "2549-12-06"
      },
      {
        "name": "ปวันวิทย์",
        "role": "เพิ่มเติม",
        "date": "2560-12-18"
      }
    ],
    "tag": "c301-2g-9986-update"
  }
}