{
  "pages": [
    [
      [
        "ประกาศกระทรวงคมนาคม",
        "เรื่อง หลักเกณฑ์ วิธีการ และเงื่อนไขการจดทะเบียนรถยนต์รับจ้างสามล้อ",
        "ในท้องที่กรุงเทพมหานคร (ฉบับที่ ๒)"
      ]
    ],
    []
  ],
  "metadata": {
    "date_backmatter": "2550-06-15",
    "date_modified": "2550-07-02",
    "date_original": "2550-07-02",
    "doctype": "ประกาศ",
    "editors": [
      {
        "name": "โสรศ",
        "role": "ผู้จัดทำ",
        "date": "2550-07-09"
      }
    ],
    "tag": "c301-2e-2550-a0009"
  }
}