{
  "pages": [
    [
      [
        "ระเบียบกรมการขนส่งทางบก",
        "ว่าด้วยหลักเกณฑ์ วิธีการ และเงื่อนไขในการอบรมและทดสอบผู้ขอรับใบอนุญาตขับรถ",
        "ผู้ขอต่ออายุใบอนุญาตขับรถ และผู้ขอรับบัตรประจำตัวคนขับรถตามกฎหมายว่าด้วยรถยนต์ (ฉบับที่ ๒)",
        "พ.ศ. ๒๕๕๔"
      ]
    ],
    []
  ],
  "metadata": {
    "date_backmatter": "2554-07-27",
    "date_modified": "2554-08-26",
    "date_original": "2554-08-26",
    "editors": [
      {
        "name": "ปริยานุช",
        "role": "ผู้จัดทำ",
        "date": "2554-09-15"
      },
      {
        "name": "ปณตภร",
        "role": "ผู้ตรวจ",
        "date": "2554-10-10"
      }
    ],
    "tag": "c301-2g-2554-a0004"
  }
}