{
  "pages": [
    [
      [
        "ประกาศกระทรวงคมนาคม",
        "เรื่อง กำหนดอัตราค่าจ้างบรรทุกคนโดยสารและค่าบริการอื่น",
        "สำหรับรถยนต์รับจ้างบรรทุกคนโดยสารไม่เกินเจ็ดคน (TAXI - METER)",
        "ที่จดทะเบียนในจังหวัดอื่นนอกจากกรุงเทพมหานคร"
      ]
    ],
    []
  ],
  "metadata": {
    "date_backmatter": "2560-02-02",
    "date_modified": "2560-03-07",
    "date_original": "2560-03-07",
    "doctype": "ประกาศ",
    "editors": [
      {
        "name": "ปริยานุช",
        "role": "จัดทำ",
        "date": "2560-03-09"
      },
      {
        "name": "พิมพ์มาดา",
        "role": "ตรวจ",
        "date": "2560-04-11"
      }
    ],
    "tag": "c301-2e-2560-a0003"
  }
}