{
  "pages": [
    [
      [
        "ประกาศนายทะเบียนทั่วราชอาณาจักร",
        "เรื่อง ให้เจ้าของรถที่นำรถไปปรับเปลี่ยนเครื่องยนต์มาใช้ก๊าซธรรมชาติอัด CNG",
        "หรือก๊าซปิโตรเลียมเหลว LPG นำรถไปตรวจสภาพ"
      ]
    ],
    []
  ],
  "metadata": {
    "date_backmatter": "2551-07-11",
    "date_modified": "2551-08-01",
    "date_original": "2551-08-01",
    "doctype": "ประกาศ",
    "editors": [
      {
        "name": "ปริยานุช",
        "role": "ผู้จัดทำ",
        "date": "2551-08-04"
      }
    ],
    "tag": "c301-2e-2551-a0011"
  }
}