{
  "pages": [
    [
      [
        "กฎกระทรวง",
        "กำหนดค่าธรรมเนียมและค่าใช้จ่ายเกี่ยวกับอาคารชุด",
        "พ.ศ. ๒๕๕๓"
      ]
    ],
    []
  ],
  "metadata": {
    "date_backmatter": "2553-09-01",
    "date_modified": "2559-12-28",
    "date_original": "2553-09-15",
    "doctype": "กฎกระทรวง",
    "editors": [
      {
        "name": "ปริญสินีย์",
        "role": "จัดทำ",
        "date": "2560-01-19"
      }
    ],
    "tag": "cd11-2b-9999-update"
  }
}