{
  "pages": [
    [
      [
        "กฎกระทรวง",
        "กำหนดหลักเกณฑ์ วิธีการ และเงื่อนไขการจดทะเบียนอาคารชุด",
        "การออกหนังสือกรรมสิทธิ์ห้องชุด และการจดทะเบียนนิติบุคคลอาคารชุด",
        "พ.ศ. ๒๕๕๓"
      ]
    ],
    []
  ],
  "metadata": {
    "date_backmatter": "2553-09-01",
    "date_modified": "2553-09-15",
    "date_original": "2553-09-15",
    "doctype": "กฎกระทรวง",
    "editors": [
      {
        "name": "อุษมล",
        "role": "ปรับปรุง",
        "date": "2555-05-24"
      }
    ],
    "tag": "cd11-2b-2553-a0001"
  }
}