{
  "pages": [
    [
      [
        "ประกาศกระทรวงมหาดไทย",
        "เรื่อง การเรียกเก็บค่าธรรมเนียมจดทะเบียนสิทธิและนิติกรรม",
        "ตามกฎหมายว่าด้วยอาคารชุด กรณีสนับสนุนการซื้อขายห้องชุด",
        "ตามหลักเกณฑ์ที่คณะรัฐมนตรีกำหนด"
      ]
    ],
    []
  ],
  "metadata": {
    "date_backmatter": "2551-03-24",
    "date_modified": "2551-03-28",
    "date_original": "2551-03-28",
    "doctype": "ประกาศ",
    "editors": [
      {
        "name": "อุษมล",
        "role": "จัดทำ",
        "date": "2555-05-29"
      }
    ],
    "tag": "cd11-2e-2551-a0001"
  }
}