{
  "pages": [
    [
      [
        "พระราชบัญญัติ",
        "อาคารชุด",
        "พ.ศ. ๒๕๒๒",
        "",
        "",
        "ภูมิพลอดุลยเดช ป.ร.",
        "ให้ไว้ ณ วันที่ ๒๑ เมษายน พ.ศ. ๒๕๒๒",
        "เป็นปีที่ ๓๔ ในรัชกาลปัจจุบัน"
      ]
    ],
    []
  ],
  "metadata": {
    "date_header": "2522-04-21",
    "date_modified": "2534-09-30",
    "date_original": "2522-04-30",
    "doctype": "พระราชบัญญัติ",
    "editors": [
      {
        "name": "วสุ สรรกำเนิด",
        "role": "ผู้ปรับปรุง",
        "date": "2552-03-12"
      }
    ],
    "tag": "cd11-20-2534-a0001",
    "title": "อาคารชุด"
  }
}