{
  "pages": [
    [
      [
        "พระราชบัญญัติ",
        "อาคารชุด",
        "พ.ศ. ๒๕๒๒",
        "",
        "",
        "ภูมิพลอดุลยเดช ป.ร.",
        "ให้ไว้ ณ วันที่ ๒๑ เมษายน พ.ศ. ๒๕๒๒",
        "เป็นปีที่ ๓๔ ในรัชกาลปัจจุบัน"
      ]
    ],
    []
  ],
  "metadata": {
    "date_header": "2522-04-21",
    "date_modified": "2551-03-06",
    "date_original": "2522-04-30",
    "doctype": "พระราชบัญญัติ",
    "editors": [],
    "tag": "cd11-20-2551-a0002",
    "title": "อาคารชุด"
  }
}