{
  "pages": [
    [
      [
        "คำสั่งสำนักงานกลางทะเบียนพาณิชย์",
        "ที่ ๑/๒๕๕๓",
        "เรื่อง หลักเกณฑ์และวิธีการกำหนดเลขทะเบียนพาณิชย์และเลขคำขอจดทะเบียนพาณิชย์"
      ]
    ],
    []
  ],
  "metadata": {
    "date_backmatter": "2553-12-14",
    "date_modified": "2553-12-29",
    "date_original": "2553-12-29",
    "editors": [
      {
        "name": "ปริยานุช",
        "role": "ผู้จัดทำ",
        "date": "2554-01-13"
      },
      {
        "name": "ณัฐวดี",
        "role": "ตรวจ",
        "date": "2554-01-13"
      }
    ],
    "tag": "b702-2f-2553-a0001"
  }
}