{
  "pages": [
    [
      [
        "ข้อบังคับกรมพัฒนาธุรกิจการค้า",
        "ว่าด้วยการใช้เครื่องหมายรับรองความน่าเชื่อถือในการประกอบธุรกิจพาณิชย์อิเล็กทรอนิกส์",
        "พ.ศ. ๒๕๔๘"
      ]
    ],
    []
  ],
  "metadata": {
    "date_backmatter": "2548-04-11",
    "date_modified": "2548-06-23",
    "date_original": "2548-06-23",
    "editors": [
      {
        "name": "พัชรินทร์",
        "role": "ผู้จัดทำ",
        "date": "2548-07-28"
      },
      {
        "name": "ศิริยา",
        "role": "แก้ไข",
        "date": "2549-01-27"
      }
    ],
    "tag": "b702-2i-2548-a0003"
  }
}