{
  "pages": [
    [
      [
        "ประกาศกรมพัฒนาธุรกิจการค้า",
        "เรื่อง หลักเกณฑ์และวิธีการกำหนดเลขทะเบียนพาณิชย์",
        "เลขทะเบียนหนังสือบริคณห์สนธิและเลขทะเบียนนิติบุคคล"
      ]
    ],
    []
  ],
  "metadata": {
    "date_backmatter": "2546-09-26",
    "date_modified": "2546-11-14",
    "date_original": null,
    "doctype": "ประกาศ",
    "editors": [
      {
        "name": "ฐิติพงษ์",
        "role": "พิมพ์",
        "date": "2548-11-17"
      }
    ],
    "tag": "b702-2e-2546-a0017"
  }
}