{
  "pages": [
    [
      [
        "ข้อบัญญัติองค์การบริหารส่วนตำบลตะคุ",
        "เรื่อง การควบคุมการประกอบกิจการเลี้ยงไก่",
        "พ.ศ. ๒๕๖๐"
      ]
    ],
    []
  ],
  "metadata": {
    "date_backmatter": "2560-05-19",
    "date_modified": "2561-07-16",
    "date_original": "2561-07-16",
    "editors": [
      {
        "name": "ปวันวิทย์",
        "role": "จัดทำ",
        "date": "2561-09-03"
      }
    ],
    "tag": "ca52-2j-2561-a0450"
  }
}