{
  "pages": [
    [
      [
        "ข้อบัญญัติองค์การบริหารส่วนตำบลราชาเทวะ",
        "เรื่อง การลดหย่อนและการยกเว้นหรือลดภาษีบำรุงท้องที่",
        "พ.ศ. ๒๕๕๘"
      ]
    ],
    []
  ],
  "metadata": {
    "date_backmatter": "2558-02-27",
    "date_modified": "2558-10-07",
    "date_original": "2558-10-07",
    "editors": [
      {
        "name": "ปริยานุช",
        "role": "ผู้จัดทำ",
        "date": "2558-10-13"
      },
      {
        "name": "วิศนี",
        "role": "ผู้ตรวจ",
        "date": "2558-10-30"
      }
    ],
    "tag": "ca52-2j-2558-a0643"
  }
}