{
  "pages": [
    [
      [
        "ข้อบัญญัติองค์การบริหารส่วนตำบลพลูตาหลวง",
        "เรื่อง การกำหนดเรียกเก็บค่าตอบแทนจากผู้รับอนุญาต ตามมาตรา ๙ แห่งประมวลกฎหมายที่ดิน",
        "เป็นรายได้ขององค์การบริหารส่วนตำบลพลูตาหลวง พ.ศ. ๒๕๕๘"
      ]
    ],
    []
  ],
  "metadata": {
    "date_backmatter": "2558-08-03",
    "date_modified": "2558-11-10",
    "date_original": "2558-11-10",
    "editors": [
      {
        "name": "ปริยานุช",
        "role": "ผู้จัดทำ",
        "date": "2558-11-30"
      },
      {
        "name": "ปุณิกา",
        "role": "ตรวจ",
        "date": "2558-11-30"
      }
    ],
    "tag": "ca52-2j-2558-a0798"
  }
}