{
  "pages": [
    [
      [
        "ข้อบัญญัติองค์การบริหารส่วนตำบลลานกระบือ",
        "เรื่อง การกำจัดสิ่งปฏิกูลและมูลฝอย (ฉบับที่ ๒)",
        "พ.ศ. ๒๕๕๘"
      ]
    ],
    []
  ],
  "metadata": {
    "date_backmatter": "2558-03-30",
    "date_modified": "2558-10-07",
    "date_original": "2558-10-07",
    "editors": [
      {
        "name": "ปริยานุช",
        "role": "ผู้จัดทำ",
        "date": "2558-10-15"
      },
      {
        "name": "วิศนี",
        "role": "ผู้ตรวจ",
        "date": "2558-10-29"
      }
    ],
    "tag": "ca52-2j-2558-a0651"
  }
}