{
  "pages": [
    [
      [
        "ระเบียบกระทรวงมหาดไทย",
        "ว่าด้วยวิธีการงบประมาณขององค์กรปกครองส่วนท้องถิ่น (ฉบับที่ ๓)",
        "พ.ศ. ๒๕๔๓"
      ]
    ],
    []
  ],
  "metadata": {
    "date_backmatter": "2543-11-08",
    "date_modified": "2543-11-24",
    "date_original": "2543-11-24",
    "editors": [
      {
        "name": "ปณตภร",
        "role": "ผู้จัดทำ",
        "date": "2554-10-26"
      }
    ],
    "tag": "ca52-2g-2543-a007"
  }
}