{
  "pages": [
    [
      [
        "ประกาศกระทรวงมหาดไทย",
        "เรื่อง การยุบรวมสภาตำบลกับเทศบาลตำบล"
      ]
    ],
    []
  ],
  "metadata": {
    "date_backmatter": "2547-09-06",
    "date_modified": "2547-09-15",
    "date_original": "2547-09-15",
    "doctype": "ประกาศ",
    "editors": [
      {
        "name": "สรัลพร",
        "role": "พิมพ์",
        "date": "2551-02-22"
      },
      {
        "name": "ฐิติพงษ์",
        "role": "ตรวจ",
        "date": "2551-03-05"
      }
    ],
    "tag": "ca52-2e-2547-a0009"
  }
}