{
  "pages": [
    [
      [
        "ข้อบัญญัติองค์การบริหารส่วนตำบลโนนสำราญ",
        "เรื่อง การบริหารกิจการสถานีสูบน้ำด้วยไฟฟ้า พ.ศ. ๒๕๕๐"
      ]
    ],
    []
  ],
  "metadata": {
    "date_backmatter": "2550-10-29",
    "date_modified": "2551-04-30",
    "date_original": "2551-04-30",
    "editors": [
      {
        "name": "วัชศักดิ์",
        "role": "ผู้จัดทำ",
        "date": "2551-05-07"
      }
    ],
    "tag": "ca52-2j-2551-a0060"
  }
}