{
  "pages": [
    [
      [
        "ข้อบัญญัติองค์การบริหารส่วนตำบลหนองขยาด",
        "เรื่อง ตลาด พ.ศ. ๒๕๕๗"
      ]
    ],
    []
  ],
  "metadata": {
    "date_backmatter": "2558-01-22",
    "date_modified": "2558-08-28",
    "date_original": "2558-08-28",
    "editors": [
      {
        "name": "ปริยานุช",
        "role": "จัดทำ",
        "date": "2558-08-31"
      },
      {
        "name": "ปริญสินีย์",
        "role": "ตรวจ",
        "date": "2558-08-31"
      }
    ],
    "tag": "ca52-2j-2558-a0481"
  }
}