{
  "pages": [
    [
      [
        "ข้อบัญญัติองค์การบริหารส่วนตำบลคชสิทธิ์",
        "เรื่อง การใช้น้ำประปา",
        "พ.ศ. ๒๕๖๐"
      ]
    ],
    []
  ],
  "metadata": {
    "date_backmatter": "2561-03-07",
    "date_modified": "2561-07-04",
    "date_original": "2561-07-04",
    "editors": [
      {
        "name": "พัชรภรณ์",
        "role": "จัดทำ",
        "date": "2561-11-22"
      }
    ],
    "tag": "ca52-2j-2561-a0401"
  }
}