{
  "pages": [
    [
      [
        "ข้อบัญญัติองค์การบริหารส่วนตำบลทอนหงส์",
        "เรื่อง การจัดการสิ่งปฏิกูลและมูลฝอย",
        "พ.ศ. ๒๕๕๒"
      ]
    ],
    []
  ],
  "metadata": {
    "date_backmatter": "2552-11-09",
    "date_modified": "2552-12-03",
    "date_original": "2552-12-03",
    "editors": [
      {
        "name": "ปริยานุช",
        "role": "ผู้จัดทำ",
        "date": "2552-12-14"
      },
      {
        "name": "นันท์นภัสร์",
        "role": "ตรวจ",
        "date": "2552-12-14"
      }
    ],
    "tag": "ca52-2j-2552-a0354"
  }
}