{
  "pages": [
    [
      [
        "ข้อบัญญัติองค์การบริหารส่วนตำบลห้วยเตย",
        "เรื่อง การควบคุมเหตุรำคาญ",
        "พ.ศ. ๒๕๕๘"
      ]
    ],
    []
  ],
  "metadata": {
    "date_backmatter": "2558-12-30",
    "date_modified": "2559-03-16",
    "date_original": "2559-03-16",
    "editors": [
      {
        "name": "ปริยานุช",
        "role": "จัดทำ",
        "date": "2559-03-23"
      },
      {
        "name": "วิศนี",
        "role": "ตรวจ",
        "date": "2559-03-30"
      }
    ],
    "tag": "ca52-2j-2559-a0094"
  }
}