{
  "pages": [
    [
      [
        "ข้อบัญญัติองค์การบริหารส่วนตำบลวัดหลวง",
        "เรื่อง การควบคุมการเลี้ยงหรือปล่อยสุนัข",
        "พ.ศ. ๒๕๕๙"
      ]
    ],
    []
  ],
  "metadata": {
    "date_backmatter": "2559-06-30",
    "date_modified": "2560-07-20",
    "date_original": "2560-07-20",
    "editors": [
      {
        "name": "ภวรรณตรี",
        "role": "จัดทำ",
        "date": "2560-07-25"
      },
      {
        "name": "ชวัลพร",
        "role": "ตรวจ",
        "date": "2560-07-25"
      }
    ],
    "tag": "ca52-2j-2560-a0554"
  }
}