{
  "pages": [
    [
      [
        "ข้อบัญญัติองค์การบริหารส่วนตำบลสิงโตทอง",
        "เรื่อง การจำหน่ายสินค้าในที่หรือทางสาธารณะ พ.ศ. ๒๕๕๖"
      ]
    ],
    []
  ],
  "metadata": {
    "date_backmatter": "2556-03-18",
    "date_modified": "2557-03-11",
    "date_original": "2557-03-11",
    "editors": [
      {
        "name": "ปริยานุช",
        "role": "ผู้จัดทำ",
        "date": "2557-03-14"
      },
      {
        "name": "อุษมล",
        "role": "ผู้ตรวจ",
        "date": "2557-04-08"
      }
    ],
    "tag": "ca52-2j-2557-a0057"
  }
}