{
  "pages": [
    [
      [
        "ข้อบัญญัติองค์การบริหารส่วนตำบลต้นผึ้ง",
        "เรื่อง การกำจัดสิ่งปฏิกูลและมูลฝอย พ.ศ. ๒๕๕๗"
      ]
    ],
    []
  ],
  "metadata": {
    "date_backmatter": "2557-09-08",
    "date_modified": "2558-06-18",
    "date_original": "2558-06-18",
    "editors": [
      {
        "name": "ปริยานุช",
        "role": "ผู้จัดทำ",
        "date": "2558-06-24"
      },
      {
        "name": "วริญา",
        "role": "ผู้ตรวจ",
        "date": "2558-06-24"
      }
    ],
    "tag": "ca52-2j-2558-a0247"
  }
}