{
  "pages": [
    [
      [
        "ข้อบัญญัติองค์การบริหารส่วนตำบลนาวง",
        "เรื่อง การบริหารกิจการประปา",
        "พ.ศ. ๒๕๕๙"
      ]
    ],
    []
  ],
  "metadata": {
    "date_backmatter": "2559-05-30",
    "date_modified": "2560-01-17",
    "date_original": "2560-01-17",
    "editors": [
      {
        "name": "ปุณิกา/ปริยานุช",
        "role": "จัดทำ",
        "date": "2560-01-18"
      },
      {
        "name": "นุสรา",
        "role": "ตรวจ",
        "date": "2560-03-22"
      }
    ],
    "tag": "ca52-2j-2560-a0089"
  }
}