{
  "pages": [
    [
      [
        "ข้อบัญญัติองค์การบริหารส่วนตำบลลำเหย",
        "เรื่อง การบริหารงานประปา",
        "พ.ศ. ๒๕๔๘"
      ]
    ],
    []
  ],
  "metadata": {
    "date_backmatter": "2548-03-28",
    "date_modified": "2552-08-13",
    "date_original": "2552-08-13",
    "editors": [
      {
        "name": "ปริยานุช",
        "role": "ผู้จัดทำ",
        "date": "2552-08-25"
      }
    ],
    "tag": "ca52-2j-2552-a0211"
  }
}