{
  "pages": [
    [
      [
        "ข้อบัญญัติตำบลนิคมพัฒนา",
        "เรื่อง การควบคุมกิจการที่เป็นอันตรายต่อสุขภาพ (ฉบับที่ ๒)",
        "พ.ศ. ๒๕๕๑"
      ]
    ],
    []
  ],
  "metadata": {
    "date_backmatter": "2551-09-15",
    "date_modified": "2552-05-21",
    "date_original": "2552-05-21",
    "editors": [
      {
        "name": "ปริยานุช",
        "role": "ผู้จัดทำ",
        "date": "2552-05-27"
      }
    ],
    "tag": "ca52-2j-2552-a0201"
  }
}