{
  "pages": [
    [
      [
        "ข้อบัญญัติองค์การบริหารส่วนตำบลข่วงเปา",
        "เรื่อง สถานที่จำหน่ายอาหารและสถานที่สะสมอาหาร (ฉบับที่ ๒)",
        "พ.ศ. ๒๕๕๕"
      ]
    ],
    []
  ],
  "metadata": {
    "date_backmatter": "2555-02-24",
    "date_modified": "2555-07-05",
    "date_original": "2555-07-05",
    "editors": [
      {
        "name": "ปริยานุช",
        "role": "ผู้จัดทำ",
        "date": "2555-07-09"
      },
      {
        "name": "ณัฐพร",
        "role": "ผู้ตรวจ",
        "date": "2555-07-09"
      }
    ],
    "tag": "ca52-2j-2555-a0117"
  }
}