{
  "pages": [
    [
      [
        "ข้อบังคับตำบลบ้านโพธิ์",
        "เรื่อง การกำจัดสิ่งปฏิกูลและมูลฝอย",
        "พ.ศ. ๒๕๔๖"
      ]
    ],
    []
  ],
  "metadata": {
    "date_backmatter": "2546-04-04",
    "date_modified": "2551-05-14",
    "date_original": "2551-05-14",
    "editors": [
      {
        "name": "วัชศักดิ์",
        "role": "ผู้จัดทำ",
        "date": "2551-05-16"
      }
    ],
    "tag": "ca52-2i-2551-a0006"
  }
}