{
  "pages": [
    [
      [
        "ข้อบัญญัติองค์การบริหารส่วนตำบลทมนางาม",
        "เรื่อง กิจการที่เป็นอันตรายต่อสุขภาพ",
        "พ.ศ. ๒๕๕๙"
      ]
    ],
    []
  ],
  "metadata": {
    "date_backmatter": "2560-03-31",
    "date_modified": "2560-11-29",
    "date_original": "2560-11-29",
    "editors": [
      {
        "name": "พิมพ์มาดา/อัญชลี",
        "role": "จัดทำ",
        "date": "2560-12-06"
      }
    ],
    "tag": "ca52-2j-2560-a0853"
  }
}