{
  "pages": [
    [
      [
        "ข้อบัญญัติองค์การบริหารส่วนตำบลด่านช้าง",
        "เรื่อง กิจการที่เป็นอันตรายต่อสุขภาพ",
        "พ.ศ. ๒๕๕๕"
      ]
    ],
    []
  ],
  "metadata": {
    "date_backmatter": "2555-09-14",
    "date_modified": "2556-01-28",
    "date_original": "2556-01-28",
    "editors": [
      {
        "name": "ปริยานุช",
        "role": "ผู้จัดทำ",
        "date": "2556-01-30"
      },
      {
        "name": "อุษมล",
        "role": "ผู้ตรวจ",
        "date": "2556-02-06"
      }
    ],
    "tag": "ca52-2j-2556-a0010"
  }
}