{
  "pages": [
    [
      [
        "ข้อบัญญัติองค์การบริหารส่วนตำบลท่าแร้ง",
        "เรื่อง กิจการที่เป็นอันตรายต่อสุขภาพ",
        "พ.ศ. ๒๕๖๐"
      ]
    ],
    []
  ],
  "metadata": {
    "date_backmatter": "2560-07-06",
    "date_modified": "2561-06-04",
    "date_original": "2561-06-04",
    "editors": [
      {
        "name": "ปวันวิทย์",
        "role": "จัดทำ",
        "date": "2561-08-09"
      }
    ],
    "tag": "ca52-2j-2561-a0301"
  }
}