{
  "pages": [
    [
      [
        "ข้อบัญญัติองค์การบริหารส่วนตำบลชุมแสง",
        "เรื่อง การจัดการสิ่งปฏิกูลและมูลฝอย",
        "พ.ศ. ๒๕๖๐"
      ]
    ],
    []
  ],
  "metadata": {
    "date_backmatter": "2560-03-02",
    "date_modified": "2560-10-30",
    "date_original": "2560-10-30",
    "editors": [
      {
        "name": "ปุณิกา/อัญชลี",
        "role": "จัดทำ",
        "date": "2560-11-01"
      }
    ],
    "tag": "ca52-2j-2560-a0769"
  }
}