{
  "pages": [
    [
      [
        "ข้อบัญญัติองค์การบริหารส่วนตำบลหนองเพรางาย",
        "เรื่อง กำหนดบริเวณห้ามก่อสร้าง ดัดแปลง หรือเปลี่ยนแปลงการใช้อาคารบางชนิดหรือบางประเภท",
        "ในเขตองค์การบริหารส่วนตำบลหนองเพรางาย อำเภอไทรน้อย จังหวัดนนทบุรี",
        "พ.ศ. ๒๕๕๖"
      ]
    ],
    []
  ],
  "metadata": {
    "date_backmatter": "2556-01-28",
    "date_modified": "2556-03-01",
    "date_original": "2556-03-01",
    "editors": [
      {
        "name": "ปริยานุช",
        "role": "ผู้จัดทำ",
        "date": "2556-03-05"
      },
      {
        "name": "อุษมล",
        "role": "ผู้ตรวจ",
        "date": "2556-03-07"
      }
    ],
    "tag": "ca52-2j-2556-a0040"
  }
}