{
  "pages": [
    [
      [
        "ระเบียบกระทรวงมหาดไทย",
        "ว่าด้วยการพัสดุของหน่วยการบริหารราชการส่วนท้องถิ่น (ฉบับที่ ๖)",
        "พ.ศ. ๒๕๔๓"
      ]
    ],
    []
  ],
  "metadata": {
    "date_backmatter": "2543-08-07",
    "date_modified": "2543-08-22",
    "date_original": "2543-08-22",
    "editors": [
      {
        "name": "สุกัญญา",
        "role": "แก้ไข",
        "date": "2551-10-15"
      },
      {
        "name": "อุษมล",
        "role": "ปรับปรุง",
        "date": "2557-11-06"
      }
    ],
    "tag": "ca52-2g-2543-a011"
  }
}