{
  "pages": [
    [
      [
        "ข้อบัญญัติองค์การบริหารส่วนตำบลตาอ็อง",
        "เรื่อง กิจการที่เป็นอันตรายต่อสุขภาพ",
        "พ.ศ. ๒๕๕๗"
      ]
    ],
    []
  ],
  "metadata": {
    "date_backmatter": "2557-02-03",
    "date_modified": "2557-05-30",
    "date_original": "2557-05-30",
    "editors": [
      {
        "name": "ปริยานุช",
        "role": "ผู้จัดทำ",
        "date": "2557-05-30"
      },
      {
        "name": "พจนา",
        "role": "ผู้ตรวจ",
        "date": "2557-07-02"
      }
    ],
    "tag": "ca52-2j-2557-a0113"
  }
}