{
  "pages": [
    [
      [
        "ข้อบัญญัติองค์การบริหารส่วนตำบลนาแส่ง",
        "เรื่อง การกำหนดอัตราค่าตอบแทนการอนุญาตตามมาตรา ๙ แห่งประมวลกฎหมายที่ดิน"
      ]
    ],
    []
  ],
  "metadata": {
    "date_backmatter": "2552-03-12",
    "date_modified": "2552-05-14",
    "date_original": "2552-05-14",
    "editors": [
      {
        "name": "ปริยานุช",
        "role": "ผู้จัดทำ",
        "date": "2552-05-21"
      }
    ],
    "tag": "ca52-2j-2552-a0186"
  }
}