{
  "pages": [
    [
      [
        "ข้อบัญญัติองค์การบริหารส่วนตำบลแม่พริก",
        "เรื่อง การควบคุมโรคพิษสุนัขบ้า",
        "พ.ศ. ๒๕๕๙"
      ]
    ],
    []
  ],
  "metadata": {
    "date_backmatter": "2559-07-29",
    "date_modified": "2560-01-12",
    "date_original": "2560-01-12",
    "editors": [
      {
        "name": "วริญา/ปริยานุช",
        "role": "จัดทำ",
        "date": "2560-01-16"
      },
      {
        "name": "นุสรา",
        "role": "ตรวจ",
        "date": "2560-03-08"
      }
    ],
    "tag": "ca52-2j-2560-a0035"
  }
}