{
  "pages": [
    [
      [
        "ประกาศกระทรวงมหาดไทย",
        "เรื่อง จัดตั้งองค์การบริหารส่วนตำบล"
      ]
    ],
    []
  ],
  "metadata": {
    "date_backmatter": "2542-08-11",
    "date_modified": "2542-10-15",
    "date_original": "2542-10-15",
    "doctype": "ประกาศ",
    "editors": [
      {
        "name": "ชไมพร",
        "role": "แก้ไข",
        "date": "2545-05-28"
      },
      {
        "name": "นันทพล",
        "role": "ปรับปรุง",
        "date": "2550-01-09"
      }
    ],
    "tag": "ca52-2e-2542-a0001"
  }
}