{
  "pages": [
    [
      [
        "ข้อบัญญัติองค์การบริหารส่วนตำบลเขาค้อ",
        "เรื่อง การใช้น้ำประปา",
        "พ.ศ. ๒๕๕๘"
      ]
    ],
    []
  ],
  "metadata": {
    "date_backmatter": "2559-01-19",
    "date_modified": "2560-11-27",
    "date_original": "2560-11-27",
    "editors": [
      {
        "name": "พิมพ์มาดา/อัญชลี",
        "role": "จัดทำ",
        "date": "2560-12-06"
      }
    ],
    "tag": "ca52-2j-2560-a0830"
  }
}