{
  "pages": [
    [
      [
        "ข้อบัญญัติองค์การบริหารส่วนตำบลคือเวียง",
        "เรื่อง การควบคุมควันไฟและฝุ่นละอองจากการเผา",
        "พ.ศ. ๒๕๖๐"
      ]
    ],
    []
  ],
  "metadata": {
    "date_backmatter": "2560-02-28",
    "date_modified": "2560-10-12",
    "date_original": "2560-10-12",
    "editors": [
      {
        "name": "ภวรรณตรี",
        "role": "จัดทำ",
        "date": "2560-10-30"
      },
      {
        "name": "พรวิภา",
        "role": "ตรวจ",
        "date": "2560-10-30"
      }
    ],
    "tag": "ca52-2j-2560-a0753"
  }
}