{
  "pages": [
    [
      [
        "ข้อบัญญัติองค์การบริหารส่วนตำบลสังขะ",
        "เรื่อง ตลาด",
        "พ.ศ. ๒๕๕๙"
      ]
    ],
    []
  ],
  "metadata": {
    "date_backmatter": "2559-07-14",
    "date_modified": "2560-03-23",
    "date_original": "2560-03-23",
    "editors": [
      {
        "name": "วริญา/ภวรรณตรี",
        "role": "จัดทำ",
        "date": "2560-03-29"
      }
    ],
    "tag": "ca52-2j-2560-a0281"
  }
}