{
  "pages": [
    [
      [
        "ข้อบังคับตำบลห้วยป่าหวาย",
        "เรื่อง การจำหน่ายสินค้าในที่หรือทางสาธารณะ",
        "พุทธศักราช ๒๕๔๓"
      ]
    ],
    []
  ],
  "metadata": {
    "date_backmatter": "2544-03-29",
    "date_modified": "2552-04-09",
    "date_original": "2552-04-09",
    "editors": [
      {
        "name": "ปริยานุช",
        "role": "ผู้จัดทำ",
        "date": "2552-04-28"
      }
    ],
    "tag": "ca52-2i-2552-a0009"
  }
}