{
  "pages": [
    [
      [
        "ข้อบัญญัติองค์การบริหารส่วนตำบลโคกเคียน",
        "เรื่อง กำหนดบริเวณห้ามก่อสร้าง ดัดแปลง",
        "หรือเปลี่ยนการใช้อาคารบางชนิดหรือบางประเภท",
        "ในพื้นที่บางส่วนในท้องที่องค์การบริหารส่วนตำบลโคกเคียน",
        "อำเภอเมืองนราธิวาส จังหวัดนราธิวาส",
        "พ.ศ. ๒๕๕๘"
      ]
    ],
    []
  ],
  "metadata": {
    "date_backmatter": "2558-03-31",
    "date_modified": "2558-07-16",
    "date_original": "2558-07-16",
    "editors": [
      {
        "name": "ปริยานุช",
        "role": "ผู้จัดทำ",
        "date": "2558-07-21"
      },
      {
        "name": "ปัญจพร",
        "role": "ผู้ตรวจ",
        "date": "2558-07-21"
      }
    ],
    "tag": "ca52-2j-2558-a0346"
  }
}