{
  "pages": [
    [
      [
        "ข้อบัญญัติองค์การบริหารส่วนตำบลศรีนคร",
        "เรื่อง การควบคุมกิจการที่เป็นอันตรายต่อสุขภาพ พ.ศ. ๒๕๕๗"
      ]
    ],
    []
  ],
  "metadata": {
    "date_backmatter": "2557-07-15",
    "date_modified": "2557-12-18",
    "date_original": "2557-12-18",
    "editors": [
      {
        "name": "ปริยานุช",
        "role": "ผู้จัดทำ",
        "date": "2558-01-06"
      },
      {
        "name": "ภีราพร",
        "role": "ผู้ตรวจ",
        "date": "2558-01-28"
      }
    ],
    "tag": "ca52-2j-2557-a0269"
  }
}