{
  "pages": [
    [
      [
        "ข้อบัญญัติองค์การบริหารส่วนตำบลนาบัว",
        "เรื่อง การลดหย่อน หรือยกเว้น หรือลดภาษีบำรุงท้องที่ พ.ศ. ๒๕๕๘"
      ]
    ],
    []
  ],
  "metadata": {
    "date_backmatter": "2558-05-28",
    "date_modified": "2558-08-20",
    "date_original": "2558-08-20",
    "editors": [
      {
        "name": "ปริยานุช",
        "role": "ผู้จัดทำ",
        "date": "2558-08-26"
      },
      {
        "name": "วริญา",
        "role": "ผู้ตรวจ",
        "date": "2558-08-26"
      }
    ],
    "tag": "ca52-2j-2558-a0445"
  }
}