{
  "pages": [
    [
      [
        "ข้อบัญญัติองค์การบริหารส่วนตำบลวังหลวง",
        "เรื่อง สถานที่จำหน่ายอาหารและสถานที่สะสมอาหาร",
        "พ.ศ. ๒๕๕๙"
      ]
    ],
    []
  ],
  "metadata": {
    "date_backmatter": "2559-07-08",
    "date_modified": "2560-07-21",
    "date_original": "2560-07-21",
    "editors": [
      {
        "name": "ภวรรณตรี",
        "role": "จัดทำ",
        "date": "2560-07-27"
      },
      {
        "name": "ชวัลพร",
        "role": "ตรวจ",
        "date": "2560-07-27"
      }
    ],
    "tag": "ca52-2j-2560-a0576"
  }
}