{
  "pages": [
    [
      [
        "ข้อบัญญัติองค์การบริหารส่วนตำบลหนองโพรง",
        "เรื่อง การจำหน่ายสินค้าในที่หรือทางสาธารณะ",
        "พ.ศ. ๒๕๕๘"
      ]
    ],
    []
  ],
  "metadata": {
    "date_backmatter": "2558-07-06",
    "date_modified": "2558-11-12",
    "date_original": "2558-11-12",
    "editors": [
      {
        "name": "ปริยานุช",
        "role": "จัดทำ",
        "date": "2558-11-16"
      },
      {
        "name": "ปุณิกา",
        "role": "ตรวจ",
        "date": "2558-12-14"
      }
    ],
    "tag": "ca52-2j-2558-a0812"
  }
}