{
  "pages": [
    [
      [
        "ข้อบัญญัติองค์การบริหารส่วนตำบลเมืองคง",
        "เรื่อง การเก็บภาษีธุรกิจเฉพาะ ภาษีมูลค่าเพิ่ม ค่าธรรมเนียมใบอนุญาตขายสุรา",
        "และค่าธรรมเนียมใบอนุญาตในการเล่นการพนัน",
        "พ.ศ. ๒๕๕๙"
      ]
    ],
    []
  ],
  "metadata": {
    "date_backmatter": "2559-08-16",
    "date_modified": "2560-06-07",
    "date_original": "2560-06-07",
    "editors": [
      {
        "name": "พรวิภา/ภวรรณตรี",
        "role": "จัดทำ",
        "date": "2560-06-09"
      },
      {
        "name": "ปริญสินีย์",
        "role": "ตรวจ",
        "date": "2560-07-31"
      }
    ],
    "tag": "ca52-2j-2560-a0461"
  }
}