{
  "pages": [
    [
      [
        "ข้อบัญญัติองค์การบริหารส่วนตำบลเขาแร้ง",
        "เรื่อง กิจการที่เป็นอันตรายต่อสุขภาพ พ.ศ. ๒๕๕๗"
      ]
    ],
    []
  ],
  "metadata": {
    "date_backmatter": "2557-09-04",
    "date_modified": "2558-06-26",
    "date_original": "2558-06-26",
    "editors": [
      {
        "name": "ปริยานุช",
        "role": "ผู้จัดทำ",
        "date": "2558-06-30"
      },
      {
        "name": "ปริญสินีย์",
        "role": "ผู้ตรวจ",
        "date": "2558-06-30"
      }
    ],
    "tag": "ca52-2j-2558-a0272"
  }
}