{
  "pages": [
    [
      [
        "ข้อบัญญัติองค์การบริหารส่วนตำบลป่าสะแก",
        "เรื่อง การควบคุมการเลี้ยงหรือปล่อยสัตว์",
        "พ.ศ. ๒๕๖๐"
      ]
    ],
    []
  ],
  "metadata": {
    "date_backmatter": "2560-10-09",
    "date_modified": "2561-06-04",
    "date_original": "2561-06-04",
    "editors": [
      {
        "name": "ปวันวิทย์",
        "role": "จัดทำ",
        "date": "2561-08-02"
      }
    ],
    "tag": "ca52-2j-2561-a0312"
  }
}