{
  "pages": [
    [
      [
        "ข้อบัญญัติองค์การบริหารส่วนตำบลเมืองคอง",
        "เรื่อง การใช้น้ำประปาองค์การบริหารส่วนตำบลเมืองคอง",
        "พ.ศ. ๒๕๕๙"
      ]
    ],
    []
  ],
  "metadata": {
    "date_backmatter": "2559-07-25",
    "date_modified": "2560-01-11",
    "date_original": "2560-01-11",
    "editors": [
      {
        "name": "วริญา/ปริยานุช",
        "role": "จัดทำ",
        "date": "2560-01-13"
      },
      {
        "name": "นุสรา",
        "role": "ตรวจ",
        "date": "2560-03-08"
      }
    ],
    "tag": "ca52-2j-2560-a0029"
  }
}