{
  "pages": [
    [
      [
        "ระเบียบองค์การบริหารส่วนตำบลบ้านหว้า",
        "ว่าด้วยข้อมูลข่าวสารของราชการ",
        "พ.ศ. ๒๕๕๔"
      ]
    ],
    []
  ],
  "metadata": {
    "date_backmatter": "2554-01-11",
    "date_modified": "2554-03-30",
    "date_original": "2554-03-30",
    "editors": [
      {
        "name": "ปริยานุช",
        "role": "ผู้จัดทำ",
        "date": "2554-04-20"
      },
      {
        "name": "ณัฐวดี",
        "role": "ตรวจ",
        "date": "2554-04-20"
      }
    ],
    "tag": "ca52-2g-2554-a0002"
  }
}