{
  "pages": [
    [
      [
        "ข้อบัญญัติองค์การบริหารส่วนตำบลเกาะแก้ว",
        "เรื่อง การควบคุมการเลี้ยงหรือปล่อยสัตว์",
        "พ.ศ. ๒๕๕๘"
      ]
    ],
    []
  ],
  "metadata": {
    "date_backmatter": "2558-10-14",
    "date_modified": "2559-02-08",
    "date_original": "2559-02-08",
    "editors": [
      {
        "name": "วิศนี/ปริยานุช",
        "role": "จัดทำ",
        "date": "2559-02-24"
      },
      {
        "name": "นุสรา",
        "role": "ตรวจ",
        "date": "2559-05-02"
      }
    ],
    "tag": "ca52-2j-2559-a0057"
  }
}