{
  "pages": [
    [
      [
        "ข้อบัญญัติองค์การบริหารส่วนตำบลแม่รำพึง",
        "เรื่อง กำหนดบริเวณห้ามก่อสร้าง ดัดแปลง ใช้หรือเปลี่ยนการใช้อาคารบางชนิด หรือบางประเภท",
        "ในท้องที่เขตองค์การบริหารส่วนตำบลแม่รำพึง อำเภอบางสะพาน จังหวัดประจวบคีรีขันธ์",
        "พ.ศ. ๒๕๕๓"
      ]
    ],
    []
  ],
  "metadata": {
    "date_backmatter": "2554-01-12",
    "date_modified": "2554-02-26",
    "date_original": "2554-02-26",
    "editors": [
      {
        "name": "ปริยานุช",
        "role": "ผู้จัดทำ",
        "date": "2554-03-09"
      },
      {
        "name": "ณัฐวดี",
        "role": "ตรวจ",
        "date": "2554-03-09"
      }
    ],
    "tag": "ca52-2j-2554-a0039"
  }
}