{
  "pages": [
    [
      [
        "ข้อบัญญัติองค์การบริหารส่วนตำบลนางาม",
        "เรื่อง การจัดการมูลฝอย",
        "พ.ศ. ๒๕๕๔"
      ]
    ],
    []
  ],
  "metadata": {
    "date_backmatter": "2554-08-05",
    "date_modified": "2554-11-21",
    "date_original": "2554-11-21",
    "editors": [
      {
        "name": "ปริยานุช",
        "role": "ผู้จัดทำ",
        "date": "2554-11-30"
      },
      {
        "name": "ปณตภร",
        "role": "ผู้ตรวจ",
        "date": "2554-12-10"
      }
    ],
    "tag": "ca52-2j-2554-a0277"
  }
}