{
  "pages": [
    [
      [
        "ข้อบัญญัติองค์การบริหารส่วนตำบลคลองไก่เถื่อน",
        "เรื่อง กิจการที่เป็นอันตรายต่อสุขภาพ",
        "พ.ศ. ๒๕๕๘"
      ]
    ],
    []
  ],
  "metadata": {
    "date_backmatter": "2558-09-18",
    "date_modified": "2558-11-26",
    "date_original": "2558-11-26",
    "editors": [
      {
        "name": "ปริยานุช",
        "role": "จัดทำ",
        "date": "2558-12-01"
      },
      {
        "name": "วริญา",
        "role": "ตรวจ",
        "date": "2558-12-18"
      }
    ],
    "tag": "ca52-2j-2558-a0880"
  }
}