{
  "pages": [
    [
      [
        "ข้อบัญญัติองค์การบริหารส่วนตำบลสันผีเสื้อ",
        "เรื่อง การควบคุมควันไฟและฝุ่นละอองจากการเผา",
        "พ.ศ. ๒๕๕๑"
      ]
    ],
    []
  ],
  "metadata": {
    "date_backmatter": "2551-02-26",
    "date_modified": "2552-04-30",
    "date_original": "2552-04-30",
    "editors": [
      {
        "name": "ปริยานุช",
        "role": "ผู้จัดทำ",
        "date": "2552-05-06"
      }
    ],
    "tag": "ca52-2j-2552-a0167"
  }
}