{
  "pages": [
    [
      [
        "ข้อบัญญัติองค์การบริหารส่วนตำบลเขาทอง",
        "เรื่อง การให้บริการท่องเที่ยวศึกษาธรรมชาติเชิงอนุรักษ์",
        "บริเวณป่าชุมชนบ้านท่าพรุ - อ่าวท่าเลน",
        "พ.ศ. ๒๕๕๗"
      ]
    ],
    []
  ],
  "metadata": {
    "date_backmatter": "2557-12-24",
    "date_modified": "2558-10-07",
    "date_original": "2558-10-07",
    "editors": [
      {
        "name": "ปริยานุช",
        "role": "ผู้จัดทำ",
        "date": "2558-10-16"
      },
      {
        "name": "วิศนี",
        "role": "ผู้ตรวจ",
        "date": "2558-10-29"
      }
    ],
    "tag": "ca52-2j-2558-a0631"
  }
}