{
  "pages": [
    [
      [
        "ข้อบัญญัติองค์การบริหารส่วนตำบลบางหมาก",
        "เรื่อง การกำจัดสิ่งปฏิกูลและมูลฝอย",
        "พ.ศ. ๒๕๕๘"
      ]
    ],
    []
  ],
  "metadata": {
    "date_backmatter": "2558-10-01",
    "date_modified": "2559-06-08",
    "date_original": "2559-06-08",
    "editors": [
      {
        "name": "ปริยานุช",
        "role": "จัดทำ",
        "date": "2559-06-10"
      },
      {
        "name": "ชวัลพร",
        "role": "ตรวจ",
        "date": "2559-06-20"
      }
    ],
    "tag": "ca52-2j-2559-a0203"
  }
}