{
  "pages": [
    [
      [
        "ข้อบัญญัติองค์การบริหารส่วนตำบลจำปาหล่อ",
        "เรื่อง การกำจัดสิ่งปฏิกูลและมูลฝอย พ.ศ. ๒๕๕๘"
      ]
    ],
    []
  ],
  "metadata": {
    "date_backmatter": "2558-07-08",
    "date_modified": "2558-09-03",
    "date_original": "2558-09-03",
    "editors": [
      {
        "name": "ปริยานุช",
        "role": "ผู้จัดทำ",
        "date": "2558-09-09"
      },
      {
        "name": "วิศนี",
        "role": "ผู้ตรวจ",
        "date": "2558-09-25"
      }
    ],
    "tag": "ca52-2j-2558-a0501"
  }
}