{
  "pages": [
    [
      [
        "ข้อบัญญัติองค์การบริหารส่วนตำบลกลัดหลวง",
        "เรื่อง การควบคุมการประกอบกิจการที่เป็นอันตรายต่อสุขภาพ",
        "พ.ศ. ๒๕๕๙"
      ]
    ],
    []
  ],
  "metadata": {
    "date_backmatter": "2559-08-02",
    "date_modified": "2559-09-29",
    "date_original": "2559-09-29",
    "editors": [
      {
        "name": "ปริยานุช",
        "role": "จัดทำ",
        "date": "2559-10-04"
      },
      {
        "name": "วริญา",
        "role": "ตรวจ",
        "date": "2559-10-17"
      }
    ],
    "tag": "ca52-2j-2559-a0376"
  }
}