{
  "pages": [
    [
      [
        "ข้อบัญญัติองค์การบริหารส่วนตำบลโสธร",
        "เรื่อง การเก็บขนและกำจัดสิ่งปฏิกูลและมูลฝอย",
        "พ.ศ. ๒๕๔๙"
      ]
    ],
    []
  ],
  "metadata": {
    "date_backmatter": "2549-04-25",
    "date_modified": "2561-06-08",
    "date_original": "2558-07-16",
    "editors": [
      {
        "name": "ปริยานุช",
        "role": "ผู้จัดทำ",
        "date": "2558-07-22"
      },
      {
        "name": "ปัญจพร",
        "role": "ผู้ตรวจ",
        "date": "2558-07-22"
      },
      {
        "name": "ปวันวิทย์",
        "role": "เพิ่มเติม",
        "date": "2561-07-09"
      },
      {
        "name": "วิชพงษ์",
        "role": "ตรวจ",
        "date": "2561-07-11"
      }
    ],
    "tag": "ca52-2j-9958-update"
  }
}