{
  "pages": [
    [
      [
        "ข้อบัญญัติองค์การบริหารส่วนตำบลท่าไห",
        "เรื่อง การอนุรักษ์ทรัพยากรป่าไม้และแหล่งน้ำสาธารณะ",
        "พ.ศ. ๒๕๕๓"
      ]
    ],
    []
  ],
  "metadata": {
    "date_backmatter": "2553-08-16",
    "date_modified": "2553-12-09",
    "date_original": "2553-12-09",
    "editors": [
      {
        "name": "ปริยานุช",
        "role": "ผู้จัดทำ",
        "date": "2553-12-20"
      },
      {
        "name": "ณัฐวดี",
        "role": "ตรวจ",
        "date": "2553-12-20"
      }
    ],
    "tag": "ca52-2j-2553-a0127"
  }
}