{
  "pages": [
    [
      [
        "ข้อบัญญัติองค์การบริหารส่วนตำบลแสนชาติ",
        "เรื่อง การควบคุมแหล่งเพาะพันธุ์ยุงลาย เพื่อป้องกันโรคไข้เลือดออก",
        "พ.ศ. ๒๕๖๐"
      ]
    ],
    []
  ],
  "metadata": {
    "date_backmatter": "2560-08-10",
    "date_modified": "2561-06-22",
    "date_original": "2561-06-22",
    "editors": [
      {
        "name": "พิมพ์มาดา",
        "role": "จัดทำ",
        "date": "2561-09-11"
      }
    ],
    "tag": "ca52-2j-2561-a0376"
  }
}