{
  "pages": [
    [
      [
        "ข้อบัญญัติองค์การบริหารส่วนตำบลตะพง",
        "เรื่อง กำหนดค่าตอบแทนการตรวจแบบแปลนก่อสร้างหรือดัดแปลงอาคาร",
        "พ.ศ. ๒๕๕๘"
      ]
    ],
    []
  ],
  "metadata": {
    "date_backmatter": "2558-03-31",
    "date_modified": "2558-05-11",
    "date_original": "2558-05-11",
    "editors": [
      {
        "name": "ปริยานุช",
        "role": "ผู้จัดทำ",
        "date": "2558-05-14"
      },
      {
        "name": "ปุณิกา",
        "role": "ผู้ตรวจ",
        "date": "2558-05-20"
      }
    ],
    "tag": "ca52-2j-2558-a0174"
  }
}