{
  "pages": [
    [
      [
        "ข้อบัญญัติองค์การบริหารส่วนตำบลฆะมัง",
        "เรื่อง การควบคุมกิจการที่เป็นอันตรายต่อสุขภาพ พ.ศ. ๒๕๕๗"
      ]
    ],
    []
  ],
  "metadata": {
    "date_backmatter": "2557-03-05",
    "date_modified": "2557-09-04",
    "date_original": "2557-09-04",
    "editors": [
      {
        "name": "ปริยานุช",
        "role": "ผู้จัดทำ",
        "date": "2557-09-26"
      },
      {
        "name": "จุฑามาศ",
        "role": "ผู้ตรวจ",
        "date": "2557-10-14"
      }
    ],
    "tag": "ca52-2j-2557-a0198"
  }
}