{
  "pages": [
    [
      [
        "ประกาศกระทรวงมหาดไทย",
        "เรื่อง จัดตั้งองค์การบริหารส่วนตำบลงิ้วงาม อำเภอเมืองอุตรดิตถ์ จังหวัดอุตรดิตถ์",
        "เป็นเทศบาลตำบลงิ้วงาม"
      ]
    ],
    []
  ],
  "metadata": {
    "date_backmatter": "2555-06-00",
    "date_modified": "2557-01-27",
    "date_original": "2557-01-27",
    "doctype": "ประกาศ",
    "editors": [
      {
        "name": "ปริยานุช",
        "role": "ผู้จัดทำ",
        "date": "2557-02-11"
      },
      {
        "name": "อุษมล",
        "role": "ผู้ตรวจ",
        "date": "2557-02-25"
      }
    ],
    "tag": "ca52-2e-2557-a0023"
  }
}