{
  "pages": [
    [
      [
        "ข้อบัญญัติองค์การบริหารส่วนตำบลหนองเหล็ก",
        "เรื่อง การควบคุมการเลี้ยงสุกร",
        "พ.ศ. ๒๕๖๑"
      ]
    ],
    []
  ],
  "metadata": {
    "date_backmatter": "2561-03-07",
    "date_modified": "2561-07-11",
    "date_original": "2561-07-11",
    "editors": [
      {
        "name": "พรวิภา",
        "role": "จัดทำ",
        "date": "2561-10-02"
      }
    ],
    "tag": "ca52-2j-2561-a0433"
  }
}