{
  "pages": [
    [
      [
        "ระเบียบกระทรวงมหาดไทย",
        "ว่าด้วยการดำเนินงานหอกระจายข่าวประจำหมู่บ้านและชุมชน",
        "พ.ศ. ๒๕๔๗"
      ]
    ],
    []
  ],
  "metadata": {
    "date_backmatter": "2547-09-01",
    "date_modified": "2547-09-15",
    "date_original": "2547-09-15",
    "editors": [
      {
        "name": "พรพิมล",
        "role": "พิมพ์",
        "date": "2548-01-06"
      },
      {
        "name": "อมราลักษณ์/พัชรินทร์",
        "role": "ตรวจ",
        "date": "2548-01-26"
      },
      {
        "name": "นันทพล",
        "role": "ปรับปรุง",
        "date": "2550-01-11"
      }
    ],
    "tag": "ca52-2g-2547-a0004"
  }
}