{
  "pages": [
    [
      [
        "ประกาศกระทรวงมหาดไทย",
        "เรื่อง องค์การบริหารส่วนตำบลรำมะสัก อำเภอโพธิ์ทอง จังหวัดอ่างทอง",
        "แยกพื้นที่บางส่วนไปรวมกับเทศบาลตำบลรำมะสัก อำเภอโพธิ์ทอง จังหวัดอ่างทอง"
      ]
    ],
    []
  ],
  "metadata": {
    "date_backmatter": "2552-01-15",
    "date_modified": "2552-03-02",
    "date_original": "2552-03-02",
    "doctype": "ประกาศ",
    "editors": [
      {
        "name": "ปริยานุช",
        "role": "ผู้จัดทำ",
        "date": "2552-03-10"
      }
    ],
    "tag": "ca52-2e-2552-a0001"
  }
}