{
  "pages": [
    [
      [
        "ข้อบัญญัติองค์การบริหารส่วนตำบลดอนแก้ว",
        "เรื่อง การควบคุมการประกอบกิจการที่เป็นอันตรายต่อสุขภาพ",
        "แก้ไขเพิ่มเติม (ฉบับที่ ๒) พ.ศ. ๒๕๕๐"
      ]
    ],
    []
  ],
  "metadata": {
    "date_backmatter": "2550-03-29",
    "date_modified": "2551-04-10",
    "date_original": "2551-04-10",
    "editors": [
      {
        "name": "ปริยานุช",
        "role": "ผู้จัดทำ",
        "date": "2551-04-18"
      }
    ],
    "tag": "ca52-2j-2551-a0034"
  }
}