{
  "pages": [
    [
      [
        "ข้อบัญญัติองค์การบริหารส่วนตำบลท่าวุ้ง",
        "เรื่อง กิจการที่เป็นอันตรายต่อสุขภาพ พ.ศ. ๒๕๕๗"
      ]
    ],
    []
  ],
  "metadata": {
    "date_backmatter": "2557-03-03",
    "date_modified": "2558-08-19",
    "date_original": "2558-08-19",
    "editors": [
      {
        "name": "ปริยานุช",
        "role": "ผู้จัดทำ",
        "date": "2558-08-25"
      },
      {
        "name": "วริญา",
        "role": "ผู้ตรวจ",
        "date": "2558-08-25"
      }
    ],
    "tag": "ca52-2j-2558-a0424"
  }
}