{
  "pages": [
    [
      [
        "ข้อบัญญัติองค์การบริหารส่วนตำบลบางเพรียง",
        "เรื่อง กำหนดบริเวณห้ามก่อสร้าง ดัดแปลง ใช้หรือเปลี่ยนการใช้อาคารบางชนิดหรือบางประเภท",
        "ในท้องที่องค์การบริหารส่วนตำบลบางเพรียง อำเภอบางบ่อ จังหวัดสมุทรปราการ",
        "พ.ศ. ๒๕๕๑"
      ]
    ],
    []
  ],
  "metadata": {
    "date_backmatter": "2551-06-25",
    "date_modified": "2551-08-08",
    "date_original": "2551-08-08",
    "editors": [
      {
        "name": "ปริยานุช",
        "role": "ผู้จัดทำ",
        "date": "2551-08-14"
      }
    ],
    "tag": "ca52-2j-2551-a0098"
  }
}