{
  "pages": [
    [
      [
        "ประกาศกระทรวงมหาดไทย",
        "เรื่อง การยุบรวมสภาตำบลกับองค์การบริหารส่วนตำบล"
      ]
    ],
    []
  ],
  "metadata": {
    "date_backmatter": "2547-09-24",
    "date_modified": "2547-09-29",
    "date_original": "2547-09-29",
    "doctype": "ประกาศ",
    "editors": [
      {
        "name": "ญาณี",
        "role": "พิมพ์",
        "date": "2548-01-05"
      },
      {
        "name": "สุนันทา/นวพร",
        "role": "ตรวจ",
        "date": "2548-01-26"
      },
      {
        "name": "นันทพล",
        "role": "ปรับปรุง",
        "date": "2550-01-09"
      }
    ],
    "tag": "ca52-2e-2547-a0013"
  }
}