{
  "pages": [
    [
      [
        "ข้อบัญญัติองค์การบริหารส่วนตำบลแก่งเลิงจาน",
        "เรื่อง กำหนดค่าตอบแทนการขออนุญาตใช้ประโยชน์ในที่ดินของรัฐ",
        "พ.ศ. ๒๕๕๓"
      ]
    ],
    []
  ],
  "metadata": {
    "date_backmatter": "2553-06-08",
    "date_modified": "2554-02-10",
    "date_original": "2554-02-10",
    "editors": [
      {
        "name": "ปริยานุช",
        "role": "ผู้จัดทำ",
        "date": "2554-02-23"
      },
      {
        "name": "ณัฐวดี",
        "role": "ตรวจ",
        "date": "2554-02-23"
      }
    ],
    "tag": "ca52-2j-2554-a0035"
  }
}