{
  "pages": [
    [
      [
        "ข้อบัญญัติองค์การบริหารส่วนตำบลบุ่งไหม",
        "เรื่อง กำหนดบริเวณห้ามก่อสร้าง ดัดแปลง หรือเปลี่ยนการใช้อาคารบางชนิดหรือบางประเภท",
        "ในพื้นที่บางส่วนขององค์การบริหารส่วนตำบลบุ่งไหม อำเภอวารินชำราบ จังหวัดอุบลราชธานี",
        "พ.ศ. ๒๕๕๖"
      ]
    ],
    []
  ],
  "metadata": {
    "date_backmatter": "2556-02-01",
    "date_modified": "2556-04-29",
    "date_original": "2556-04-29",
    "editors": [
      {
        "name": "ปริยานุช",
        "role": "ผู้จัดทำ",
        "date": "2556-05-02"
      },
      {
        "name": "โชติกานต์",
        "role": "ผู้ตรวจ",
        "date": "2556-05-09"
      }
    ],
    "tag": "ca52-2j-2556-a0067"
  }
}