{
  "pages": [
    [
      [
        "ข้อบังคับตำบล",
        "เรื่อง การควบคุมกิจการที่เป็นอันตรายต่อสุขภาพ",
        "พุทธศักราช ๒๕๓๙"
      ]
    ],
    []
  ],
  "metadata": {
    "date_backmatter": "2539-12-29",
    "date_modified": "2548-12-29",
    "date_original": "2548-12-29",
    "editors": [
      {
        "name": "สรัลพร",
        "role": "พิมพ์",
        "date": "2551-03-18"
      },
      {
        "name": "ฐิติพงษ์",
        "role": "ตรวจ",
        "date": "2551-03-24"
      }
    ],
    "tag": "ca52-2i-2548-a0003"
  }
}