{
  "pages": [
    [
      [
        "ข้อบัญญัติองค์การบริหารส่วนตำบลป่งไฮ",
        "เรื่อง ตลาด",
        "พ.ศ. ๒๕๕๙"
      ]
    ],
    []
  ],
  "metadata": {
    "date_backmatter": "2559-08-11",
    "date_modified": "2560-03-31",
    "date_original": "2560-03-31",
    "editors": [
      {
        "name": "ภวรรณตรี",
        "role": "จัดทำ",
        "date": "2560-04-05"
      },
      {
        "name": "ปุณิกา",
        "role": "ตรวจ",
        "date": "2560-04-05"
      }
    ],
    "tag": "ca52-2j-2560-a0294"
  }
}