{
  "pages": [
    [
      [
        "ข้อบัญญัติองค์การบริหารส่วนตำบลดอนดู่",
        "เรื่อง การควบคุมการค้าซึ่งเป็นที่น่ารังเกียจ หรืออาจเป็นอันตรายต่อสุขภาพ",
        "พ.ศ. ๒๕๕๑"
      ]
    ],
    []
  ],
  "metadata": {
    "date_backmatter": "2551-12-01",
    "date_modified": "2552-12-03",
    "date_original": "2552-12-03",
    "editors": [
      {
        "name": "ปริยานุช",
        "role": "ผู้จัดทำ",
        "date": "2552-12-15"
      },
      {
        "name": "นันท์นภัสร์",
        "role": "ตรวจ",
        "date": "2552-12-15"
      }
    ],
    "tag": "ca52-2j-2552-a0355"
  }
}