{
  "pages": [
    [
      [
        "ข้อบัญญัติองค์การบริหารส่วนตำบลเขื่องคำ",
        "เรื่อง การควบคุมการกำจัดสิ่งปฏิกูลและมูลฝอย พ.ศ. ๒๕๕๖"
      ]
    ],
    []
  ],
  "metadata": {
    "date_backmatter": "2556-11-01",
    "date_modified": "2558-07-13",
    "date_original": "2558-07-13",
    "editors": [
      {
        "name": "ปริยานุช",
        "role": "ผู้จัดทำ",
        "date": "2558-07-22"
      },
      {
        "name": "ปัญจพร",
        "role": "ผู้ตรวจ",
        "date": "2558-07-22"
      }
    ],
    "tag": "ca52-2j-2558-a0320"
  }
}