{
  "pages": [
    [
      [
        "ข้อบัญญัติองค์การบริหารส่วนตำบลกะเปียด",
        "เรื่อง การควบคุมการจัดเก็บ ขนถ่าย และการกำจัดสิ่งปฏิกูลหรือมูลฝอย พ.ศ. ๒๕๕๗"
      ]
    ],
    []
  ],
  "metadata": {
    "date_backmatter": "2557-07-30",
    "date_modified": "2557-12-25",
    "date_original": "2557-12-25",
    "editors": [
      {
        "name": "ปริยานุช",
        "role": "ผู้จัดทำ",
        "date": "2558-01-08"
      },
      {
        "name": "วิศนี",
        "role": "ผู้ตรวจ",
        "date": "2558-01-13"
      }
    ],
    "tag": "ca52-2j-2557-a0289"
  }
}