{
  "pages": [
    [
      [
        "ข้อบัญญัติองค์การบริหารส่วนตำบลป่าขะ",
        "เรื่อง หลักเกณฑ์การลดหย่อนภาษีบำรุงท้องที่",
        "พ.ศ. ๒๕๕๙"
      ]
    ],
    []
  ],
  "metadata": {
    "date_backmatter": "2559-10-10",
    "date_modified": "2560-05-25",
    "date_original": "2560-05-25",
    "editors": [
      {
        "name": "ภวรรณตรี",
        "role": "จัดทำ",
        "date": "2560-05-29"
      },
      {
        "name": "ชวัลพร",
        "role": "ตรวจ",
        "date": "2560-05-29"
      }
    ],
    "tag": "ca52-2j-2560-a0447"
  }
}