{
  "pages": [
    [
      [
        "ข้อบัญญัติองค์การบริหารส่วนตำบลป่าสัก",
        "เรื่อง การควบคุมแหล่งเพาะพันธุ์ยุงลาย",
        "พ.ศ. ๒๕๔๗"
      ]
    ],
    []
  ],
  "metadata": {
    "date_backmatter": "2547-03-12",
    "date_modified": "2554-12-01",
    "date_original": "2554-12-01",
    "editors": [
      {
        "name": "ปริยานุช",
        "role": "ผู้จัดทำ",
        "date": "2554-12-08"
      },
      {
        "name": "ณัฐพร",
        "role": "ผู้ตรวจ",
        "date": "2554-12-08"
      }
    ],
    "tag": "ca52-2j-2554-a0299"
  }
}