{
  "pages": [
    [
      [
        "ข้อบัญญัติองค์การบริหารส่วนตำบลพังเทียม",
        "เรื่อง การลดหย่อนภาษีบำรุงท้องที่",
        "พ.ศ. ๒๕๕๕"
      ]
    ],
    []
  ],
  "metadata": {
    "date_backmatter": "2555-02-16",
    "date_modified": "2555-03-21",
    "date_original": "2555-03-21",
    "editors": [
      {
        "name": "ปริยานุช",
        "role": "ผู้จัดทำ",
        "date": "2555-03-26"
      },
      {
        "name": "ณัฐพร",
        "role": "ผู้ตรวจ",
        "date": "2555-03-26"
      }
    ],
    "tag": "ca52-2j-2555-a0041"
  }
}