{
  "pages": [
    [
      [
        "ข้อบัญญัติองค์การบริหารส่วนตำบลบางโทรัด",
        "เรื่อง การใช้น้ำประปา",
        "พ.ศ. ๒๕๕๖"
      ]
    ],
    []
  ],
  "metadata": {
    "date_backmatter": "2556-01-14",
    "date_modified": "2556-08-29",
    "date_original": "2556-08-29",
    "editors": [
      {
        "name": "ปริยานุช",
        "role": "ผู้จัดทำ",
        "date": "2556-08-30"
      },
      {
        "name": "อุษมล",
        "role": "ผู้ตรวจ",
        "date": "2556-09-02"
      }
    ],
    "tag": "ca52-2j-2556-a0129"
  }
}