{
  "pages": [
    [
      [
        "ข้อบัญญัติองค์การบริหารส่วนตำบลบ้านหว้า",
        "เรื่อง การบริหารจัดการตลาดสดองค์การบริหารส่วนตำบลบ้านหว้า",
        "พ.ศ. ๒๕๕๘"
      ]
    ],
    []
  ],
  "metadata": {
    "date_backmatter": "2558-07-24",
    "date_modified": "2558-10-08",
    "date_original": "2558-10-08",
    "editors": [
      {
        "name": "ปริยานุช",
        "role": "ผู้จัดทำ",
        "date": "2558-10-14"
      },
      {
        "name": "วิศนี",
        "role": "ผู้ตรวจ",
        "date": "2558-10-19"
      }
    ],
    "tag": "ca52-2j-2558-a0654"
  }
}