{
  "pages": [
    [
      [
        "ข้อบัญญัติองค์การบริหารส่วนตำบลทับสวาย",
        "เรื่อง การควบคุมแหล่งเพาะพันธุ์ยุงลาย",
        "พ.ศ. ๒๕๕๙"
      ]
    ],
    []
  ],
  "metadata": {
    "date_backmatter": "2559-09-22",
    "date_modified": "2560-05-09",
    "date_original": "2560-05-09",
    "editors": [
      {
        "name": "ภวรรณตรี",
        "role": "จัดทำ",
        "date": "2560-05-16"
      },
      {
        "name": "พรวิภา",
        "role": "ตรวจ",
        "date": "2560-06-09"
      }
    ],
    "tag": "ca52-2j-2560-a0408"
  }
}