{
  "pages": [
    [
      [
        "ระเบียบกระทรวงมหาดไทย",
        "ว่าด้วยการพัสดุขององค์กรปกครองส่วนท้องถิ่น",
        "พ.ศ. ๒๕๔๘"
      ]
    ],
    []
  ],
  "metadata": {
    "date_backmatter": "2548-08-31",
    "date_modified": "2548-10-17",
    "date_original": "2548-10-17",
    "editors": [
      {
        "name": "พชร",
        "role": "ผู้จัดทำ",
        "date": "2548-10-21"
      },
      {
        "name": "นันทพล",
        "role": "ปรับปรุง",
        "date": "2550-01-11"
      }
    ],
    "tag": "ca52-2g-2548-a0005"
  }
}