{
  "pages": [
    [
      [
        "ข้อบัญญัติองค์การบริหารส่วนตำบลสบเปิง",
        "เรื่อง การควบคุมแหล่งเพาะพันธุ์ยุงลาย",
        "พ.ศ. ๒๕๕๘"
      ]
    ],
    []
  ],
  "metadata": {
    "date_backmatter": "2558-12-22",
    "date_modified": "2559-04-04",
    "date_original": "2559-04-04",
    "editors": [
      {
        "name": "วริญา/ปริยานุช",
        "role": "จัดทำ",
        "date": "2559-04-05"
      },
      {
        "name": "นุสรา",
        "role": "ตรวจ",
        "date": "2559-06-01"
      }
    ],
    "tag": "ca52-2j-2559-a0133"
  }
}