{
  "pages": [
    [
      [
        "ข้อบัญญัติองค์การบริหารส่วนตำบลท่าหาดยาว",
        "เรื่อง การบริหารจัดการสถานีสูบน้ำด้วยไฟฟ้าบ้านหมากยาง พ.ศ. ๒๕๕๗"
      ]
    ],
    []
  ],
  "metadata": {
    "date_backmatter": "2557-09-11",
    "date_modified": "2558-01-22",
    "date_original": "2558-01-22",
    "editors": [
      {
        "name": "ปริยานุช",
        "role": "ผู้จัดทำ",
        "date": "2558-01-28"
      },
      {
        "name": "ปริญสินีย์",
        "role": "ผู้ตรวจ",
        "date": "2558-01-28"
      }
    ],
    "tag": "ca52-2j-2558-a0045"
  }
}