{
  "pages": [
    [
      [
        "ข้อบัญญัติองค์การบริหารส่วนตำบลธนู",
        "เรื่อง กำหนดบริเวณห้ามก่อสร้าง ดัดแปลง หรือเปลี่ยนการใช้อาคารบางชนิดหรือบางประเภท",
        "ในพื้นที่บางส่วนในเขตองค์การบริหารส่วนตำบลธนู อำเภออุทัย",
        "จังหวัดพระนครศรีอยุธยา (ฉบับที่ ๒) พ.ศ. ๒๕๕๙"
      ]
    ],
    []
  ],
  "metadata": {
    "date_backmatter": "2559-03-15",
    "date_modified": "2559-06-30",
    "date_original": "2559-06-30",
    "editors": [
      {
        "name": "วิศนี/ปริยานุช",
        "role": "จัดทำ",
        "date": "2559-07-04"
      },
      {
        "name": "นุสรา",
        "role": "ตรวจ",
        "date": "2559-08-01"
      }
    ],
    "tag": "ca52-2j-2559-a0246"
  }
}