{
  "pages": [
    [
      [
        "ข้อบัญญัติองค์การบริหารส่วนตำบลดงเจน",
        "เรื่อง การติดตั้งบ่อดักไขมันบำบัดน้ำเสียในอาคาร",
        "พ.ศ. ๒๕๔๙"
      ]
    ],
    []
  ],
  "metadata": {
    "date_backmatter": "2549-11-17",
    "date_modified": "2552-10-08",
    "date_original": "2552-10-08",
    "editors": [
      {
        "name": "ปริยานุช",
        "role": "ผู้จัดทำ",
        "date": "2552-10-14"
      },
      {
        "name": "นันท์นภัสร์",
        "role": "ตรวจ",
        "date": "2552-10-14"
      }
    ],
    "tag": "ca52-2j-2552-a0274"
  }
}