{
  "pages": [
    [
      [
        "ข้อบัญญัติองค์การบริหารส่วนตำบลบ้านชวน",
        "เรื่อง การจัดการสิ่งปฏิกูลและมูลฝอย",
        "พ.ศ. ๒๕๕๙"
      ]
    ],
    []
  ],
  "metadata": {
    "date_backmatter": "2559-07-01",
    "date_modified": "2559-12-15",
    "date_original": "2559-12-15",
    "editors": [
      {
        "name": "ปุณิกา/ปริยานุช",
        "role": "จัดทำ",
        "date": "2559-12-19"
      },
      {
        "name": "นุสรา",
        "role": "ตรวจ",
        "date": "2560-01-11"
      }
    ],
    "tag": "ca52-2j-2559-a0511"
  }
}