{
  "pages": [
    [
      [
        "ข้อบัญญัติองค์การบริหารส่วนตำบลธงชัยเหนือ",
        "เรื่อง การจัดการสิ่งปฏิกูลและมูลฝอย พ.ศ. ๒๕๕๘"
      ]
    ],
    []
  ],
  "metadata": {
    "date_backmatter": "2558-04-02",
    "date_modified": "2558-05-21",
    "date_original": "2558-05-21",
    "editors": [
      {
        "name": "ปริยานุช",
        "role": "ผู้จัดทำ",
        "date": "2558-05-29"
      },
      {
        "name": "วริญา",
        "role": "ผู้ตรวจ",
        "date": "2558-06-02"
      }
    ],
    "tag": "ca52-2j-2558-a0213"
  }
}