{
  "pages": [
    [
      [
        "ข้อบัญญัติองค์การบริหารส่วนตำบลสร้อยละคร",
        "เรื่อง การเก็บ ขน และกำจัดสิ่งปฏิกูลและหรือขยะมูลฝอย",
        "พ.ศ. ๒๕๖๐"
      ]
    ],
    []
  ],
  "metadata": {
    "date_backmatter": "2560-05-09",
    "date_modified": "2561-02-01",
    "date_original": "2561-02-01",
    "editors": [
      {
        "name": "ปวันวิทย์",
        "role": "จัดทำ",
        "date": "2561-02-26"
      }
    ],
    "tag": "ca52-2j-2561-a0040"
  }
}