{
  "pages": [
    [
      [
        "ข้อบัญญัติองค์การบริหารส่วนตำบลตะคร้ำเอน",
        "เรื่อง กำหนดบริเวณห้ามก่อสร้าง ดัดแปลง หรือเปลี่ยนการใช้อาคารบางชนิด หรือบางประเภท",
        "ในท้องที่องค์การบริหารส่วนตำบลตะคร้ำเอน อำเภอท่ามะกา จังหวัดกาญจนบุรี",
        "พ.ศ. ๒๕๕๕"
      ]
    ],
    []
  ],
  "metadata": {
    "date_backmatter": "2555-11-15",
    "date_modified": "2556-01-25",
    "date_original": "2556-01-25",
    "editors": [
      {
        "name": "ปริยานุช",
        "role": "ผู้จัดทำ",
        "date": "2556-02-01"
      },
      {
        "name": "โชติกานต์",
        "role": "ผู้ตรวจ",
        "date": "2556-03-12"
      }
    ],
    "tag": "ca52-2j-2556-a0016"
  }
}