{
  "pages": [
    [
      [
        "ข้อบัญญัติองค์การบริหารส่วนตำบลไทยชนะศึก",
        "เรื่อง สถานที่จำหน่ายอาหารและสถานที่สะสมอาหาร",
        "พ.ศ. ๒๕๕๓"
      ]
    ],
    []
  ],
  "metadata": {
    "date_backmatter": "2553-06-30",
    "date_modified": "2553-09-23",
    "date_original": "2553-09-23",
    "editors": [
      {
        "name": "ปริยานุช",
        "role": "ผู้จัดทำ",
        "date": "2553-09-29"
      },
      {
        "name": "นันท์นภัสร์",
        "role": "ตรวจ",
        "date": "2553-09-29"
      }
    ],
    "tag": "ca52-2j-2553-a0084"
  }
}