{
  "pages": [
    [
      [
        "ข้อบัญญัติตำบลป่าคลอก",
        "เรื่อง ท่าเทียบเรือ",
        "พุทธศักราช ๒๕๔๖"
      ]
    ],
    []
  ],
  "metadata": {
    "date_backmatter": "2547-01-22",
    "date_modified": "2548-12-29",
    "date_original": "2548-12-29",
    "editors": [
      {
        "name": "สรัลพร",
        "role": "พิมพ์",
        "date": "2551-03-20"
      },
      {
        "name": "ฐิติพงษ์",
        "role": "ตรวจ",
        "date": "2551-04-03"
      }
    ],
    "tag": "ca52-2j-2548-a0004"
  }
}