{
  "pages": [
    [
      [
        "ข้อบัญญัติองค์การบริหารส่วนตำบลน้ำร้อน",
        "เรื่อง การติดตั้งบ่อดักไขมันบำบัดน้ำเสียในอาคาร",
        "พ.ศ. ๒๕๖๐"
      ]
    ],
    []
  ],
  "metadata": {
    "date_backmatter": "2560-09-26",
    "date_modified": "2561-04-20",
    "date_original": "2561-04-20",
    "editors": [
      {
        "name": "พรวิภา",
        "role": "จัดทำ",
        "date": "2561-04-20"
      }
    ],
    "tag": "ca52-2j-2561-a0192"
  }
}