{
  "pages": [
    [
      [
        "ข้อบัญญัติองค์การบริหารส่วนตำบลขุนแม่ลาน้อย",
        "เรื่อง การกำจัดสิ่งปฏิกูลและมูลฝอย",
        "พ.ศ. ๒๕๕๗"
      ]
    ],
    []
  ],
  "metadata": {
    "date_backmatter": "2557-07-23",
    "date_modified": "2558-10-07",
    "date_original": "2558-10-07",
    "editors": [
      {
        "name": "ปริยานุช",
        "role": "ผู้จัดทำ",
        "date": "2558-10-16"
      },
      {
        "name": "วิศนี",
        "role": "ผู้ตรวจ",
        "date": "2558-10-28"
      }
    ],
    "tag": "ca52-2j-2558-a0629"
  }
}