{
  "pages": [
    [
      [
        "ข้อบัญญัติองค์การบริหารส่วนตำบลหนองปรือ",
        "เรื่อง การจัดการสิ่งปฏิกูล",
        "พ.ศ. ๒๕๕๙"
      ]
    ],
    []
  ],
  "metadata": {
    "date_backmatter": "2559-11-29",
    "date_modified": "2560-06-14",
    "date_original": "2560-06-14",
    "editors": [
      {
        "name": "อัญชลี",
        "role": "จัดทำ",
        "date": "2560-06-15"
      },
      {
        "name": "พิมพ์มาดา",
        "role": "ตรวจ",
        "date": "2560-07-25"
      }
    ],
    "tag": "ca52-2j-2560-a0490"
  }
}