{
  "pages": [
    [
      [
        "ข้อบัญญัติองค์การบริหารส่วนตำบลเหนือเมือง",
        "เรื่อง กำหนดบริเวณห้ามก่อสร้าง ดัดแปลง หรือเปลี่ยนการใช้อาคารบางชนิด หรือบางประเภท",
        "ในพื้นที่บางส่วนในเขตองค์การบริหารส่วนตำบลเหนือเมือง อำเภอเมืองร้อยเอ็ด จังหวัดร้อยเอ็ด",
        "พ.ศ. ๒๕๕๔"
      ]
    ],
    []
  ],
  "metadata": {
    "date_backmatter": "2554-11-17",
    "date_modified": "2554-11-25",
    "date_original": "2554-11-25",
    "editors": [
      {
        "name": "ปริยานุช",
        "role": "ผู้จัดทำ",
        "date": "2554-11-29"
      },
      {
        "name": "อุษมล",
        "role": "ผู้ตรวจ",
        "date": "2554-12-02"
      }
    ],
    "tag": "ca52-2j-2554-a0295"
  }
}