{
  "pages": [
    [
      [
        "ข้อบัญญัติองค์การบริหารส่วนตำบลช่องสะแก",
        "เรื่อง กำหนดบริเวณห้ามก่อสร้าง ดัดแปลง หรือเปลี่ยนการใช้อาคารบางชนิดหรือบางประเภท",
        "ในท้องที่เขตองค์การบริหารส่วนตำบลช่องสะแก อำเภอเมืองเพชรบุรี จังหวัดเพชรบุรี",
        "พ.ศ. ๒๕๕๘"
      ]
    ],
    []
  ],
  "metadata": {
    "date_backmatter": "2558-04-24",
    "date_modified": "2560-05-08",
    "date_original": "2560-05-08",
    "editors": [
      {
        "name": "ภวรรณตรี",
        "role": "จัดทำ",
        "date": "2560-05-16"
      },
      {
        "name": "พรวิภา",
        "role": "ตรวจ",
        "date": "2560-06-09"
      }
    ],
    "tag": "ca52-2j-2560-a0394"
  }
}