{
  "pages": [
    [
      [
        "ข้อบัญญัติองค์การบริหารส่วนตำบลนาป่า",
        "เรื่อง การบริหารจัดการโครงการเร่งรัดขยายบริการไฟฟ้าโดยระบบผลิตกระแสไฟฟ้า",
        "ด้วยพลังงานแสงอาทิตย์ พ.ศ. ๒๕๕๐"
      ]
    ],
    []
  ],
  "metadata": {
    "date_backmatter": "2551-02-20",
    "date_modified": "2552-03-11",
    "date_original": "2552-03-11",
    "editors": [
      {
        "name": "ปริยานุช",
        "role": "ผู้จัดทำ",
        "date": "2552-03-17"
      }
    ],
    "tag": "ca52-2j-2552-a0072"
  }
}