{
  "pages": [
    [
      [
        "ข้อบัญญัติองค์การบริหารส่วนตำบลห้วยม้า",
        "เรื่อง การเรียกเก็บค่าตอบแทนการอนุญาตให้ใช้ประโยชน์ในที่ดินของรัฐ",
        "พ.ศ. ๒๕๕๓"
      ]
    ],
    []
  ],
  "metadata": {
    "date_backmatter": "2553-09-01",
    "date_modified": "2555-03-29",
    "date_original": "2555-03-29",
    "editors": [
      {
        "name": "ปริยานุช",
        "role": "ผู้จัดทำ",
        "date": "2555-04-05"
      },
      {
        "name": "ชาญ",
        "role": "ผู้ตรวจ",
        "date": "2555-04-10"
      }
    ],
    "tag": "ca52-2j-2555-a0046"
  }
}