{
  "pages": [
    [
      [
        "ข้อบัญญัติองค์การบริหารส่วนตำบลบุ่งหวาย",
        "เรื่อง กิจการที่เป็นอันตรายต่อสุขภาพ พ.ศ. ๒๕๕๖"
      ]
    ],
    []
  ],
  "metadata": {
    "date_backmatter": "2557-02-26",
    "date_modified": "2557-06-19",
    "date_original": "2557-06-19",
    "editors": [
      {
        "name": "ปริยานุช",
        "role": "ผู้จัดทำ",
        "date": "2557-06-23"
      },
      {
        "name": "กฤษดายุทธ",
        "role": "ผู้ตรวจ",
        "date": "2557-06-23"
      }
    ],
    "tag": "ca52-2j-2557-a0135"
  }
}