{
  "pages": [
    [
      [
        "ข้อบัญญัติองค์การบริหารส่วนตำบลชัยนาม",
        "เรื่อง การลดหย่อนภาษีบำรุงท้องที่",
        "พ.ศ. ๒๕๕๘"
      ]
    ],
    []
  ],
  "metadata": {
    "date_backmatter": "2558-10-16",
    "date_modified": "2558-12-17",
    "date_original": "2558-12-17",
    "editors": [
      {
        "name": "ปริยานุช",
        "role": "จัดทำ",
        "date": "2558-12-23"
      },
      {
        "name": "กัญฑรัตน์",
        "role": "ตรวจ",
        "date": "2558-12-23"
      }
    ],
    "tag": "ca52-2j-2558-a0954"
  }
}