{
  "pages": [
    [
      [
        "ข้อบัญญัติองค์การบริหารส่วนตำบลวัดเพลง",
        "เรื่อง การควบคุมเหตุรำคาญ",
        "พ.ศ. ๒๕๕๙"
      ]
    ],
    []
  ],
  "metadata": {
    "date_backmatter": "2559-01-20",
    "date_modified": "2559-08-11",
    "date_original": "2559-08-11",
    "editors": [
      {
        "name": "กัญฑรัตน์/ปริยานุช",
        "role": "จัดทำ",
        "date": "2559-08-16"
      }
    ],
    "tag": "ca52-2j-2559-a0307"
  }
}