{
  "pages": [
    [
      [
        "ข้อบัญญัติองค์การบริหารส่วนตำบลสันป่าตอง",
        "เรื่อง การจัดการสิ่งปฏิกูลและมูลฝอย",
        "พ.ศ. ๒๕๕๖"
      ]
    ],
    []
  ],
  "metadata": {
    "date_backmatter": "2556-08-29",
    "date_modified": "2556-11-28",
    "date_original": "2556-11-28",
    "editors": [
      {
        "name": "ปริยานุช",
        "role": "ผู้จัดทำ",
        "date": "2556-12-03"
      },
      {
        "name": "อังศุมาลี",
        "role": "ผู้ตรวจ",
        "date": "2556-12-03"
      }
    ],
    "tag": "ca52-2j-2556-a0203"
  }
}