{
  "pages": [
    [
      [
        "ระเบียบกระทรวงมหาดไทย",
        "ว่าด้วยเงินช่วยค่าครองชีพผู้รับบำนาญ",
        "ของราชการส่วนท้องถิ่น",
        "พ.ศ. ๒๕๒๒"
      ]
    ],
    []
  ],
  "metadata": {
    "date_backmatter": "2522-01-11",
    "date_modified": "2548-12-13",
    "date_original": "2548-12-13",
    "editors": [
      {
        "name": "รัศม์วรรณวลัย",
        "role": "ผู้จัดทำ",
        "date": "2551-08-08"
      }
    ],
    "tag": "ca52-2g-2548-a0016"
  }
}