{
  "pages": [
    [
      [
        "ข้อบัญญัติองค์การบริหารส่วนตำบลเมืองทุ่ง",
        "เรื่อง เกณฑ์การลดหย่อนที่ดินที่ไม่ต้องเสียภาษีบำรุงท้องที่ พ.ศ. ๒๕๕๐",
        "แก้ไขเพิ่มเติม (ฉบับที่ ๒) พ.ศ. ๒๕๕๖"
      ]
    ],
    []
  ],
  "metadata": {
    "date_backmatter": "2556-12-26",
    "date_modified": "2557-02-20",
    "date_original": "2557-02-20",
    "editors": [
      {
        "name": "ปริยานุช",
        "role": "ผู้จัดทำ",
        "date": "2557-02-26"
      },
      {
        "name": "อุษมล",
        "role": "ผู้ตรวจ",
        "date": "2557-02-28"
      }
    ],
    "tag": "ca52-2j-2557-a0053"
  }
}