{
  "pages": [
    [
      [
        "ข้อบัญญัติองค์การบริหารส่วนตำบลยางขาว",
        "เรื่อง ห้ามจับสัตว์น้ำในแหล่งน้ำสาธารณะ",
        "พ.ศ. ๒๕๕๘"
      ]
    ],
    []
  ],
  "metadata": {
    "date_backmatter": "2558-10-22",
    "date_modified": "2559-02-08",
    "date_original": "2559-02-08",
    "editors": [
      {
        "name": "วิศนี/ปริยานุช",
        "role": "จัดทำ",
        "date": "2559-02-24"
      },
      {
        "name": "นุสรา",
        "role": "ตรวจ",
        "date": "2559-05-02"
      }
    ],
    "tag": "ca52-2j-2559-a0054"
  }
}