{
  "pages": [
    [
      [
        "ระเบียบกระทรวงมหาดไทย",
        "ว่าด้วยการกำหนดให้เงินประโยชน์ตอบแทนอื่นเป็นรายจ่าย",
        "ที่องค์กรปกครองส่วนท้องถิ่นอาจจ่ายได้",
        "พ.ศ. ๒๕๕๙"
      ]
    ],
    []
  ],
  "metadata": {
    "date_backmatter": "2559-12-07",
    "date_modified": "2560-01-13",
    "date_original": "2560-01-13",
    "editors": [
      {
        "name": "วริญา/ปริยานุช",
        "role": "จัดทำ",
        "date": "2560-01-17"
      },
      {
        "name": "นุสรา",
        "role": "ตรวจ",
        "date": "2560-03-10"
      }
    ],
    "tag": "ca52-2g-2560-a0001"
  }
}