{
  "pages": [
    [
      [
        "ระเบียบกระทรวงมหาดไทย",
        "ว่าด้วยค่าใช้จ่ายการคัดเลือกพนักงานและลูกจ้างขององค์กรปกครองส่วนท้องถิ่น",
        "พ.ศ. ๒๕๕๕"
      ]
    ],
    []
  ],
  "metadata": {
    "date_backmatter": "2555-11-09",
    "date_modified": "2558-07-07",
    "date_original": "2556-01-07",
    "editors": [
      {
        "name": "ปุณิกา",
        "role": "ผู้จัดทำ",
        "date": "2558-07-16"
      }
    ],
    "tag": "ca52-2g-9977-update"
  }
}