{
  "pages": [
    [
      [
        "ข้อบัญญัติองค์การบริหารส่วนตำบลผึ้งรวง",
        "เรื่อง ตลาด พ.ศ. ๒๕๕๗"
      ]
    ],
    []
  ],
  "metadata": {
    "date_backmatter": "2557-12-30",
    "date_modified": "2558-05-21",
    "date_original": "2558-05-21",
    "editors": [
      {
        "name": "ปริยานุช",
        "role": "ผู้จัดทำ",
        "date": "2558-05-29"
      },
      {
        "name": "วริญา",
        "role": "ผู้ตรวจ",
        "date": "2558-06-02"
      }
    ],
    "tag": "ca52-2j-2558-a0208"
  }
}