{
  "pages": [
    [
      [
        "ข้อบัญญัติองค์การบริหารส่วนตำบลบางกุ้ง",
        "เรื่อง การประปาองค์การบริหารส่วนตำบลบางกุ้ง",
        "พ.ศ. ๒๕๕๓"
      ]
    ],
    []
  ],
  "metadata": {
    "date_backmatter": "2553-05-11",
    "date_modified": "2553-10-28",
    "date_original": "2553-10-28",
    "editors": [
      {
        "name": "ปริยานุช",
        "role": "ผู้จัดทำ",
        "date": "2553-11-03"
      },
      {
        "name": "ณัฐวดี",
        "role": "ตรวจ",
        "date": "2553-11-03"
      }
    ],
    "tag": "ca52-2j-2553-a0098"
  }
}