{
  "pages": [
    [
      [
        "ข้อบัญญัติองค์การบริหารส่วนตำบลดอนตาเพชร",
        "เรื่อง การจัดการสิ่งปฏิกูลและมูลฝอย",
        "พ.ศ. ๒๕๕๓"
      ]
    ],
    []
  ],
  "metadata": {
    "date_backmatter": "2553-02-26",
    "date_modified": "2554-04-26",
    "date_original": "2554-04-26",
    "editors": [
      {
        "name": "ปริยานุช",
        "role": "ผู้จัดทำ",
        "date": "2554-05-09"
      },
      {
        "name": "ณัฐวดี",
        "role": "ตรวจ",
        "date": "2554-05-09"
      }
    ],
    "tag": "ca52-2j-2554-a0173"
  }
}