{
  "pages": [
    [
      [
        "ข้อบัญญัติองค์การบริหารส่วนตำบลลานดอกไม้",
        "เรื่อง ตลาด",
        "พ.ศ. ๒๕๖๐"
      ]
    ],
    []
  ],
  "metadata": {
    "date_backmatter": "2560-04-24",
    "date_modified": "2560-12-20",
    "date_original": "2560-12-20",
    "editors": [
      {
        "name": "พรวิภา/ภวรรณตรี",
        "role": "จัดทำ",
        "date": "2561-01-04"
      }
    ],
    "tag": "ca52-2j-2560-a0888"
  }
}