{
  "pages": [
    [
      [
        "ข้อบัญญัติองค์การบริหารส่วนตำบลวังยาว",
        "เรื่อง สถานที่จำหน่ายอาหารและสถานที่สะสมอาหาร",
        "พ.ศ. ๒๕๕๙"
      ]
    ],
    []
  ],
  "metadata": {
    "date_backmatter": "2559-06-30",
    "date_modified": "2560-02-06",
    "date_original": "2560-02-06",
    "editors": [
      {
        "name": "ชวัลพร/ปริยานุช",
        "role": "จัดทำ",
        "date": "2560-02-07"
      },
      {
        "name": "นุสรา",
        "role": "ตรวจ",
        "date": "2560-03-23"
      }
    ],
    "tag": "ca52-2j-2560-a0160"
  }
}