{
  "pages": [
    [
      [
        "ข้อบัญญัติองค์การบริหารส่วนตำบลบางใหญ่",
        "เรื่อง กำหนดบริเวณห้ามก่อสร้าง ดัดแปลง หรือเปลี่ยนการใช้อาคารบางชนิดหรือบางประเภท",
        "ในเขตองค์การบริหารส่วนตำบลบางใหญ่ อำเภอบางใหญ่ จังหวัดนนทบุรี",
        "พ.ศ. ๒๕๕๕"
      ]
    ],
    []
  ],
  "metadata": {
    "date_backmatter": "2555-03-14",
    "date_modified": "2555-05-14",
    "date_original": "2555-05-14",
    "editors": [
      {
        "name": "ปริยานุช",
        "role": "ผู้จัดทำ",
        "date": "2555-05-17"
      },
      {
        "name": "ปณตภร",
        "role": "ผู้ตรวจ",
        "date": "2555-05-22"
      }
    ],
    "tag": "ca52-2j-2555-a0085"
  }
}