{
  "pages": [
    [
      [
        "ข้อบัญญัติองค์การบริหารส่วนตำบลลำพญา",
        "เรื่อง การควบคุมการประกอบกิจการตู้น้ำดื่มหยอดเหรียญ",
        "พ.ศ. ๒๕๕๘"
      ]
    ],
    []
  ],
  "metadata": {
    "date_backmatter": "2558-03-24",
    "date_modified": "2558-05-28",
    "date_original": "2558-05-28",
    "editors": [
      {
        "name": "ปริยานุช",
        "role": "ผู้จัดทำ",
        "date": "2558-06-03"
      },
      {
        "name": "ปริญสินีย์",
        "role": "ผู้ตรวจ",
        "date": "2558-06-03"
      }
    ],
    "tag": "ca52-2j-2558-a0217"
  }
}