{
  "pages": [
    [
      [
        "ข้อบัญญัติองค์การบริหารส่วนตำบลศาลาด่าน",
        "เรื่อง การกำจัดสิ่งปฏิกูลและมูลฝอย พ.ศ. ๒๕๕๘"
      ]
    ],
    []
  ],
  "metadata": {
    "date_backmatter": "2558-01-12",
    "date_modified": "2559-02-04",
    "date_original": "2559-02-04",
    "editors": [
      {
        "name": "ปริยานุช",
        "role": "จัดทำ",
        "date": "2559-02-09"
      },
      {
        "name": "ปุณิกา",
        "role": "ตรวจ",
        "date": "2559-02-09"
      }
    ],
    "tag": "ca52-2j-2559-a0027"
  }
}