{
  "pages": [
    [
      [
        "ข้อบัญญัติองค์การบริหารส่วนตำบลหนองบัว",
        "เรื่อง การควบคุมแหล่งเพาะพันธุ์ยุงลาย พ.ศ. ๒๕๕๖"
      ]
    ],
    []
  ],
  "metadata": {
    "date_backmatter": "2556-11-20",
    "date_modified": "2558-09-10",
    "date_original": "2558-09-10",
    "editors": [
      {
        "name": "ปริยานุช",
        "role": "ผู้จัดทำ",
        "date": "2558-09-16"
      },
      {
        "name": "ปุณิกา",
        "role": "ผู้ตรวจ",
        "date": "2558-10-09"
      }
    ],
    "tag": "ca52-2j-2558-a0543"
  }
}