{
  "pages": [
    [
      [
        "ระเบียบกระทรวงมหาดไทย",
        "ว่าด้วยค่าเช่าบ้านของข้าราชการส่วนท้องถิ่น (ฉบับที่ ๓)",
        "พ.ศ. ๒๕๕๙"
      ]
    ],
    []
  ],
  "metadata": {
    "date_backmatter": "2559-07-08",
    "date_modified": "2559-08-16",
    "date_original": "2559-08-16",
    "editors": [
      {
        "name": "ปริยานุช",
        "role": "จัดทำ",
        "date": "2559-08-22"
      },
      {
        "name": "ชวัลพร",
        "role": "ตรวจ",
        "date": "2559-08-22"
      }
    ],
    "tag": "ca52-2g-2559-a0003"
  }
}