{
  "pages": [
    [
      [
        "ข้อบัญญัติองค์การบริหารส่วนตำบลฟากท่า",
        "เรื่อง การควบคุมกิจการที่เป็นอันตรายต่อสุขภาพ",
        "พ.ศ. ๒๕๕๗"
      ]
    ],
    []
  ],
  "metadata": {
    "date_backmatter": "2558-01-21",
    "date_modified": "2558-10-13",
    "date_original": "2558-10-13",
    "editors": [
      {
        "name": "ปริยานุช",
        "role": "ผู้จัดทำ",
        "date": "2558-10-16"
      },
      {
        "name": "ปุณิกา",
        "role": "ผู้ตรวจ",
        "date": "2558-11-09"
      }
    ],
    "tag": "ca52-2j-2558-a0658"
  }
}