{
  "pages": [
    [
      [
        "ระเบียบกระทรวงมหาดไทย",
        "ว่าด้วยการพัสดุของหน่วยการบริหารราชการส่วนท้องถิ่นในเขตพัฒนาพิเศษเฉพาะกิจ",
        "พ.ศ. ๒๕๕๔"
      ]
    ],
    []
  ],
  "metadata": {
    "date_backmatter": "2554-10-05",
    "date_modified": "2554-10-19",
    "date_original": "2554-10-19",
    "editors": [
      {
        "name": "ปริยานุช",
        "role": "ผู้จัดทำ",
        "date": "2554-11-02"
      },
      {
        "name": "ชาญ",
        "role": "ผู้ตรวจ",
        "date": "2554-11-11"
      },
      {
        "name": "อุษมล",
        "role": "ปรับปรุง",
        "date": "2558-04-07"
      }
    ],
    "tag": "ca52-2g-2554-a0007"
  }
}