{
  "pages": [
    [
      [
        "ข้อบัญญัติองค์การบริหารส่วนตำบลโคกแย้",
        "เรื่อง การบริหารกิจการสถานีสูบน้ำด้วยไฟฟ้า",
        "พ.ศ. ๒๕๕๙"
      ]
    ],
    []
  ],
  "metadata": {
    "date_backmatter": "2559-12-06",
    "date_modified": "2560-05-25",
    "date_original": "2560-05-25",
    "editors": [
      {
        "name": "ภวรรณตรี",
        "role": "จัดทำ",
        "date": "2560-05-29"
      },
      {
        "name": "ชวัลพร",
        "role": "ตรวจ",
        "date": "2560-05-29"
      }
    ],
    "tag": "ca52-2j-2560-a0454"
  }
}