{
  "pages": [
    [
      [
        "ข้อบัญญัติองค์การบริหารส่วนตำบลไสไทย",
        "เรื่อง กิจการที่เป็นอันตรายต่อสุขภาพ",
        "พ.ศ. ๒๕๕๙"
      ]
    ],
    []
  ],
  "metadata": {
    "date_backmatter": "2559-08-19",
    "date_modified": "2560-03-13",
    "date_original": "2560-03-13",
    "editors": [
      {
        "name": "ภวรรณตรี",
        "role": "จัดทำ",
        "date": "2560-03-14"
      },
      {
        "name": "ชวัลพร",
        "role": "ตรวจ",
        "date": "2560-04-04"
      }
    ],
    "tag": "ca52-2j-2560-a0266"
  }
}