{
  "pages": [
    [
      [
        "ข้อบัญญัติองค์การบริหารส่วนตำบลหนองปลาไหล",
        "เรื่อง การควบคุมกิจการที่เป็นอันตรายต่อสุขภาพ (ฉบับที่ ๒)",
        "พ.ศ. ๒๕๕๓"
      ]
    ],
    []
  ],
  "metadata": {
    "date_backmatter": "2553-10-21",
    "date_modified": "2554-08-11",
    "date_original": "2554-08-11",
    "editors": [
      {
        "name": "ปริยานุช",
        "role": "ผู้จัดทำ",
        "date": "2554-09-07"
      },
      {
        "name": "ณัฐวดี",
        "role": "ตรวจ",
        "date": "2554-09-07"
      }
    ],
    "tag": "ca52-2j-2554-a0232"
  }
}