{
  "pages": [
    [
      [
        "ข้อบัญญัติองค์การบริหารส่วนตำบลโนนแดง",
        "เรื่อง การควบคุมกิจการที่เป็นอันตรายต่อสุขภาพ",
        "พ.ศ. ๒๕๕๗"
      ]
    ],
    []
  ],
  "metadata": {
    "date_backmatter": "2557-03-28",
    "date_modified": "2557-12-09",
    "date_original": "2557-12-09",
    "editors": [
      {
        "name": "ปริยานุช",
        "role": "ผู้จัดทำ",
        "date": "2557-12-12"
      },
      {
        "name": "ปริญสินีย์",
        "role": "ผู้ตรวจ",
        "date": "2557-12-12"
      }
    ],
    "tag": "ca52-2j-2557-a0216"
  }
}