{
  "pages": [
    [
      [
        "ข้อบัญญัติองค์การบริหารส่วนตำบลด่านชุมพล",
        "เรื่อง สถานที่จำหน่ายอาหารและสถานที่สะสมอาหาร พ.ศ. ๒๕๕๗"
      ]
    ],
    []
  ],
  "metadata": {
    "date_backmatter": "2557-08-04",
    "date_modified": "2557-12-17",
    "date_original": "2557-12-17",
    "editors": [
      {
        "name": "ปริยานุช",
        "role": "ผู้จัดทำ",
        "date": "2558-01-05"
      },
      {
        "name": "ภีราพร",
        "role": "ผู้ตรวจ",
        "date": "2558-01-28"
      },
      {
        "name": "จุฑามาศ",
        "role": "ปรับปรุง",
        "date": "2558-11-19"
      }
    ],
    "tag": "ca52-2j-2557-a0240"
  }
}