{
  "pages": [
    [
      [
        "ข้อบัญญัติองค์การบริหารส่วนตำบลเขวาไร่",
        "เรื่อง กิจการที่เป็นอันตรายต่อสุขภาพ",
        "พ.ศ. ๒๕๕๙"
      ]
    ],
    []
  ],
  "metadata": {
    "date_backmatter": "2559-07-27",
    "date_modified": "2560-01-17",
    "date_original": "2560-01-17",
    "editors": [
      {
        "name": "ปุณิกา/ปริยานุช",
        "role": "จัดทำ",
        "date": "2560-01-19"
      },
      {
        "name": "นุสรา",
        "role": "ตรวจ",
        "date": "2560-03-22"
      }
    ],
    "tag": "ca52-2j-2560-a0092"
  }
}