{
  "pages": [
    [
      [
        "ข้อบัญญัติองค์การบริหารส่วนตำบลสามตำบล",
        "เรื่อง กำหนดค่าลดหย่อนภาษีบำรุงท้องที่",
        "พ.ศ. ๒๕๕๒"
      ]
    ],
    []
  ],
  "metadata": {
    "date_backmatter": "2552-10-12",
    "date_modified": "2552-11-09",
    "date_original": "2552-11-09",
    "editors": [
      {
        "name": "ปริยานุช",
        "role": "ผู้จัดทำ",
        "date": "2552-11-12"
      },
      {
        "name": "นันท์นภัสร์",
        "role": "ตรวจ",
        "date": "2552-11-12"
      }
    ],
    "tag": "ca52-2j-2552-a0331"
  }
}