{
  "pages": [
    [
      [
        "ข้อบัญญัติองค์การบริหารส่วนตำบลบึงชำอ้อ",
        "เรื่อง กำหนดบริเวณห้ามก่อสร้าง ดัดแปลง หรือเปลี่ยนการใช้อาคารบางชนิดหรือบางประเภท",
        "ในเขตองค์การบริหารส่วนตำบลบึงชำอ้อ อำเภอหนองเสือ จังหวัดปทุมธานี",
        "พ.ศ. ๒๕๕๗"
      ]
    ],
    []
  ],
  "metadata": {
    "date_backmatter": "2557-06-10",
    "date_modified": "2558-04-21",
    "date_original": "2557-08-07",
    "editors": [
      {
        "name": "ปริญสินีย์",
        "role": "ผู้จัดทำ",
        "date": "2558-05-18"
      }
    ],
    "tag": "ca52-2j-9991-update"
  }
}