{
  "pages": [
    [
      [
        "ข้อบัญญัติองค์การบริหารส่วนตำบลนอกเมือง",
        "เรื่อง กำหนดบริเวณห้ามก่อสร้าง ดัดแปลง หรือเปลี่ยนการใช้อาคารบางชนิดหรือบางประเภท",
        "ในท้องที่องค์การบริหารส่วนตำบลนอกเมือง อำเภอเมืองสุรินทร์ จังหวัดสุรินทร์",
        "(ฉบับที่ ๒) พ.ศ. ๒๕๖๑"
      ]
    ],
    []
  ],
  "metadata": {
    "date_backmatter": "2561-06-08",
    "date_modified": "2561-07-18",
    "date_original": "2561-07-18",
    "editors": [
      {
        "name": "ปวันวิทย์",
        "role": "จัดทำ",
        "date": "2561-09-03"
      }
    ],
    "tag": "ca52-2j-2561-a0471"
  }
}