{
  "pages": [
    [
      [
        "ข้อบัญญัติองค์การบริหารส่วนตำบลดอนไผ่",
        "เรื่อง กำหนดลดหย่อนภาษีบำรุงท้องที่",
        "พ.ศ. ๒๕๕๙"
      ]
    ],
    []
  ],
  "metadata": {
    "date_backmatter": "2559-06-09",
    "date_modified": "2559-09-29",
    "date_original": "2559-09-29",
    "editors": [
      {
        "name": "ปริยานุช",
        "role": "จัดทำ",
        "date": "2559-10-04"
      },
      {
        "name": "วริญา",
        "role": "ตรวจ",
        "date": "2559-10-17"
      }
    ],
    "tag": "ca52-2j-2559-a0373"
  }
}