{
  "pages": [
    [
      [
        "ข้อบัญญัติองค์การบริหารส่วนตำบลชัยเกษม",
        "เรื่อง การควบคุมแหล่งเพาะพันธุ์ยุงลาย",
        "พ.ศ. ๒๕๖๐"
      ]
    ],
    []
  ],
  "metadata": {
    "date_backmatter": "2560-09-14",
    "date_modified": "2561-05-18",
    "date_original": "2561-05-18",
    "editors": [
      {
        "name": "ปุณิกา",
        "role": "จัดทำ",
        "date": "2562-02-12"
      }
    ],
    "tag": "ca52-2j-2561-a0243"
  }
}