{
  "pages": [
    [
      [
        "ข้อบัญญัติองค์การบริหารส่วนตำบลลำห้วยหลัว",
        "เรื่อง ตลาด",
        "พ.ศ. ๒๕๔๘"
      ]
    ],
    []
  ],
  "metadata": {
    "date_backmatter": "2548-12-07",
    "date_modified": "2554-03-10",
    "date_original": "2554-03-10",
    "editors": [
      {
        "name": "ปริยานุช",
        "role": "ผู้จัดทำ",
        "date": "2554-03-24"
      },
      {
        "name": "ณัฐวดี",
        "role": "ตรวจ",
        "date": "2554-03-24"
      }
    ],
    "tag": "ca52-2j-2554-a0041"
  }
}