{
  "pages": [
    [
      [
        "ข้อบัญญัติองค์การบริหารส่วนตำบลนาขาม",
        "เรื่อง การกำหนดอัตราค่าตอบแทนการอนุญาตตามมาตรา ๙ แห่งประมวลกฎหมายที่ดิน",
        "พ.ศ. ๒๕๕๔"
      ]
    ],
    []
  ],
  "metadata": {
    "date_backmatter": "2554-10-31",
    "date_modified": "2555-02-07",
    "date_original": "2555-02-07",
    "editors": [
      {
        "name": "ปริยานุช",
        "role": "ผู้จัดทำ",
        "date": "2555-02-13"
      },
      {
        "name": "ณัฐพร",
        "role": "ผู้ตรวจ",
        "date": "2555-02-13"
      }
    ],
    "tag": "ca52-2j-2555-a0022"
  }
}