{
  "pages": [
    [
      [
        "ข้อบัญญัติองค์การบริหารส่วนตำบลไม้ฝาด",
        "เรื่อง กิจการที่เป็นอันตรายต่อสุขภาพ ประเภทการเลี้ยงสุกร",
        "พ.ศ. ๒๕๕๙"
      ]
    ],
    []
  ],
  "metadata": {
    "date_backmatter": "2559-03-07",
    "date_modified": "2559-08-24",
    "date_original": "2559-08-24",
    "editors": [
      {
        "name": "วริญา/ปริยานุช",
        "role": "จัดทำ",
        "date": "2559-08-26"
      },
      {
        "name": "นุสรา",
        "role": "ตรวจ",
        "date": "2559-11-24"
      }
    ],
    "tag": "ca52-2j-2559-a0324"
  }
}