{
  "pages": [
    [
      [
        "ข้อบัญญัติองค์การบริหารส่วนตำบลสันกลาง",
        "เรื่อง การควบคุมควันไฟและฝุ่นละอองจากการเผา",
        "พ.ศ. ๒๕๕๐"
      ]
    ],
    []
  ],
  "metadata": {
    "date_backmatter": "2550-06-20",
    "date_modified": "2552-02-04",
    "date_original": "2552-02-04",
    "editors": [
      {
        "name": "วัชศักดิ์",
        "role": "ผู้จัดทำ",
        "date": "2552-02-11"
      }
    ],
    "tag": "ca52-2j-2552-a0017"
  }
}