{
  "pages": [
    [
      [
        "ข้อบัญญัติองค์การบริหารส่วนตำบลถ้ำพรรณรา",
        "เรื่อง การจำหน่ายสินค้าในที่หรือทางสาธารณะ",
        "พ.ศ. ๒๕๕๒"
      ]
    ],
    []
  ],
  "metadata": {
    "date_backmatter": "2552-02-11",
    "date_modified": "2553-01-20",
    "date_original": "2553-01-20",
    "editors": [
      {
        "name": "ปริยานุช",
        "role": "ผู้จัดทำ",
        "date": "2553-01-28"
      },
      {
        "name": "นันท์นภัสร์",
        "role": "ตรวจ",
        "date": "2553-01-28"
      }
    ],
    "tag": "ca52-2j-2553-a0014"
  }
}