{
  "pages": [
    [
      [
        "ข้อบัญญัติองค์การบริหารส่วนตำบลท่าไข่",
        "เรื่อง การจัดการสิ่งปฏิกูลและมูลฝอย",
        "พ.ศ. ๒๕๕๙"
      ]
    ],
    []
  ],
  "metadata": {
    "date_backmatter": "2560-02-21",
    "date_modified": "2560-11-21",
    "date_original": "2560-11-21",
    "editors": [
      {
        "name": "ภวรรณตรี",
        "role": "จัดทำ",
        "date": "2560-11-29"
      },
      {
        "name": "ปวันวิทย์",
        "role": "ตรวจ",
        "date": "2560-12-26"
      }
    ],
    "tag": "ca52-2j-2560-a0798"
  }
}