{
  "pages": [
    [
      [
        "ข้อบัญญัติองค์การบริหารส่วนตำบลกุดสระ",
        "เรื่อง กำหนดวิธีการและอัตราค่าตอบแทนการอนุญาตให้ใช้ประโยชน์ในที่ดินของรัฐ",
        "ตามมาตรา ๙ แห่งประมวลกฎหมายที่ดิน",
        "พ.ศ. ๒๕๕๕"
      ]
    ],
    []
  ],
  "metadata": {
    "date_backmatter": "2555-02-14",
    "date_modified": "2555-03-21",
    "date_original": "2555-03-21",
    "editors": [
      {
        "name": "ปริยานุช",
        "role": "ผู้จัดทำ",
        "date": "2555-03-26"
      },
      {
        "name": "ณัฐพร",
        "role": "ผู้ตรวจ",
        "date": "2555-03-26"
      }
    ],
    "tag": "ca52-2j-2555-a0040"
  }
}