{
  "pages": [
    [
      [
        "ข้อบัญญัติองค์การบริหารส่วนตำบลท่าบ่อ",
        "เรื่อง การจัดการมูลฝอยติดเชื้อ",
        "พ.ศ. ๒๕๕๙"
      ]
    ],
    []
  ],
  "metadata": {
    "date_backmatter": "2559-07-21",
    "date_modified": "2560-09-04",
    "date_original": "2560-09-04",
    "editors": [
      {
        "name": "พรวิภา/อัญชลี",
        "role": "จัดทำ",
        "date": "2560-09-06"
      }
    ],
    "tag": "ca52-2j-2560-a0661"
  }
}