{
  "pages": [
    [
      [
        "ประกาศกระทรวงมหาดไทย",
        "เรื่อง การยุบรวมองค์การบริหารส่วนตำบลวังเหนือกับเทศบาลตำบลวังเหนือ อำเภอวังเหนือ",
        "จังหวัดลำปาง เป็นเทศบาลตำบลวังเหนือ"
      ]
    ],
    []
  ],
  "metadata": {
    "date_backmatter": "2560-10-06",
    "date_modified": "2560-11-03",
    "date_original": "2560-11-03",
    "doctype": "ประกาศ",
    "editors": [
      {
        "name": "ปุณิกา/อัญชลี",
        "role": "จัดทำ",
        "date": "2560-11-06"
      }
    ],
    "tag": "ca52-2e-2560-a0001"
  }
}