{
  "pages": [
    [
      [
        "ข้อบัญญัติองค์การบริหารส่วนตำบลบางเจ้าฉ่า",
        "เรื่อง การควบคุมการเลี้ยงหรือปล่อยสัตว์",
        "พ.ศ. ๒๕๕๘"
      ]
    ],
    []
  ],
  "metadata": {
    "date_backmatter": "2558-07-21",
    "date_modified": "2558-12-22",
    "date_original": "2558-12-22",
    "editors": [
      {
        "name": "ปริยานุช",
        "role": "จัดทำ",
        "date": "2558-12-28"
      },
      {
        "name": "วริญา",
        "role": "ตรวจ",
        "date": "2559-01-04"
      }
    ],
    "tag": "ca52-2j-2558-a0966"
  }
}