{
  "pages": [
    [
      [
        "ข้อบัญญัติองค์การบริหารส่วนตำบลบ้านราษฎร์",
        "เรื่อง สถานที่จำหน่ายอาหารและสถานที่สะสมอาหาร",
        "พ.ศ. ๒๕๕๖"
      ]
    ],
    []
  ],
  "metadata": {
    "date_backmatter": "2556-09-11",
    "date_modified": "2556-11-20",
    "date_original": "2556-11-20",
    "editors": [
      {
        "name": "ปริยานุช",
        "role": "ผู้จัดทำ",
        "date": "2556-11-22"
      },
      {
        "name": "อุษมล",
        "role": "ผู้ตรวจ",
        "date": "2556-12-03"
      }
    ],
    "tag": "ca52-2j-2556-a0194"
  }
}