{
  "pages": [
    [
      [
        "ข้อบัญญัติองค์การบริหารส่วนตำบลพังยาง",
        "เรื่อง การบริหารกิจการประปา พ.ศ. ๒๕๕๗"
      ]
    ],
    []
  ],
  "metadata": {
    "date_backmatter": "2557-08-07",
    "date_modified": "2558-02-19",
    "date_original": "2558-02-19",
    "editors": [
      {
        "name": "ปริยานุช",
        "role": "ผู้จัดทำ",
        "date": "2558-02-24"
      },
      {
        "name": "ปริญสินีย์",
        "role": "ผู้ตรวจ",
        "date": "2558-02-26"
      }
    ],
    "tag": "ca52-2j-2558-a0083"
  }
}