{
  "pages": [
    [
      [
        "ข้อบัญญัติองค์การบริหารส่วนตำบลแม่คะ",
        "เรื่อง การควบคุมแหล่งเพาะพันธุ์ยุงลาย",
        "พ.ศ. ๒๕๕๓"
      ]
    ],
    []
  ],
  "metadata": {
    "date_backmatter": "2553-10-20",
    "date_modified": "2554-03-30",
    "date_original": "2554-03-30",
    "editors": [
      {
        "name": "ปริยานุช",
        "role": "ผู้จัดทำ",
        "date": "2554-04-20"
      },
      {
        "name": "ณัฐวดี",
        "role": "ตรวจ",
        "date": "2554-04-20"
      }
    ],
    "tag": "ca52-2j-2554-a0155"
  }
}