{
  "pages": [
    [
      [
        "ข้อบัญญัติองค์การบริหารส่วนตำบลด่าน",
        "เรื่อง ตลาด พ.ศ. ๒๕๕๘"
      ]
    ],
    []
  ],
  "metadata": {
    "date_backmatter": "2558-01-21",
    "date_modified": "2558-04-17",
    "date_original": "2558-04-17",
    "editors": [
      {
        "name": "ปริยานุช",
        "role": "ผู้จัดทำ",
        "date": "2558-04-21"
      },
      {
        "name": "วริญา",
        "role": "ผู้ตรวจ",
        "date": "2558-04-29"
      }
    ],
    "tag": "ca52-2j-2558-a0143"
  }
}