{
  "pages": [
    [
      [
        "ประกาศกระทรวงมหาดไทย",
        "เรื่อง รวมสภาตำบลกับองค์การบริหารส่วนตำบล"
      ]
    ],
    []
  ],
  "metadata": {
    "date_backmatter": "2544-03-26",
    "date_modified": "2544-04-02",
    "date_original": "2544-04-02",
    "doctype": "ประกาศ",
    "editors": [
      {
        "name": null,
        "role": null,
        "date": "2544-07-20"
      },
      {
        "name": "นันทพล",
        "role": "ปรับปรุง",
        "date": "2550-01-09"
      }
    ],
    "tag": "ca52-2e-2544-a0001"
  }
}