{
  "pages": [
    [
      [
        "ข้อบัญญัติองค์การบริหารส่วนตำบลดงขวาง",
        "เรื่อง การบริหารกิจการและบำรุงรักษาระบบประปาหมู่บ้าน พ.ศ. ๒๕๕๘"
      ]
    ],
    []
  ],
  "metadata": {
    "date_backmatter": "2558-06-26",
    "date_modified": "2558-10-30",
    "date_original": "2558-10-30",
    "editors": [
      {
        "name": "ปริยานุช",
        "role": "จัดทำ",
        "date": "2558-11-03"
      },
      {
        "name": "ปริญสินีย์",
        "role": "ตรวจ",
        "date": "2558-11-30"
      }
    ],
    "tag": "ca52-2j-2558-a0769"
  }
}