{
  "pages": [
    [
      [
        "ข้อบัญญัติองค์การบริหารส่วนตำบลหนองลาน",
        "เรื่อง การขุดดินและถมดิน และการควบคุมการบรรทุก การเคลื่อนย้าย และการขนดิน",
        "พ.ศ. ๒๕๕๑"
      ]
    ],
    []
  ],
  "metadata": {
    "date_backmatter": "2551-05-15",
    "date_modified": "2551-08-04",
    "date_original": "2551-08-04",
    "editors": [
      {
        "name": "ปริยานุช",
        "role": "ผู้จัดทำ",
        "date": "2551-08-07"
      }
    ],
    "tag": "ca52-2j-2551-a0095"
  }
}