{
  "pages": [
    [
      [
        "ข้อบัญญัติองค์การบริหารส่วนตำบลหนองเหล่า",
        "เรื่อง การควบคุมกิจการสถานที่จำหน่ายและสะสมอาหาร",
        "พ.ศ. ๒๕๕๐"
      ]
    ],
    []
  ],
  "metadata": {
    "date_backmatter": "2550-04-20",
    "date_modified": "2552-03-26",
    "date_original": "2552-03-26",
    "editors": [
      {
        "name": "ปริยานุช",
        "role": "ผู้จัดทำ",
        "date": "2552-04-03"
      }
    ],
    "tag": "ca52-2j-2552-a0129"
  }
}