{
  "pages": [
    [
      [
        "ข้อบัญญัติองค์การบริหารส่วนตำบลบ้านพลับ",
        "เรื่อง การใช้น้ำประปา",
        "พ.ศ. ๒๕๕๘"
      ]
    ],
    []
  ],
  "metadata": {
    "date_backmatter": "2558-09-21",
    "date_modified": "2558-11-19",
    "date_original": "2558-11-19",
    "editors": [
      {
        "name": "ปริยานุช",
        "role": "จัดทำ",
        "date": "2558-11-23"
      },
      {
        "name": "วิศนี",
        "role": "ตรวจ",
        "date": "2559-01-08"
      }
    ],
    "tag": "ca52-2j-2558-a0861"
  }
}