{
  "pages": [
    [
      [
        "ประกาศกระทรวงมหาดไทย",
        "เรื่อง องค์การบริหารส่วนตำบลป่าก่อดำ อำเภอแม่ลาว จังหวัดเชียงราย",
        "แยกพื้นที่บางส่วนไปรวมกับเทศบาลตำบลป่าก่อดำ อำเภอแม่ลาว จังหวัดเชียงราย"
      ]
    ],
    []
  ],
  "metadata": {
    "date_backmatter": "2555-10-02",
    "date_modified": "2555-11-26",
    "date_original": "2555-11-26",
    "doctype": "ประกาศ",
    "editors": [
      {
        "name": "ปริยานุช",
        "role": "ผู้จัดทำ",
        "date": "2555-11-28"
      },
      {
        "name": "ณัฐพร",
        "role": "ผู้ตรวจ",
        "date": "2555-11-28"
      }
    ],
    "tag": "ca52-2e-2555-a0009"
  }
}