{
  "pages": [
    [
      [
        "ประกาศกระทรวงมหาดไทย",
        "เรื่อง เปลี่ยนชื่อองค์การบริหารส่วนตำบลบ้านโคก อำเภอโคกโพธิ์ไชย จังหวัดขอนแก่น",
        "เป็นองค์การบริหารส่วนตำบลภูผาแดง และจัดตั้งเป็นเทศบาลตำบลภูผาแดง"
      ]
    ],
    []
  ],
  "metadata": {
    "date_backmatter": "2552-10-27",
    "date_modified": "2554-02-11",
    "date_original": "2554-02-11",
    "doctype": "ประกาศ",
    "editors": [
      {
        "name": "ปริยานุช",
        "role": "ผู้จัดทำ",
        "date": "2554-02-28"
      },
      {
        "name": "ณัฐวดี",
        "role": "ตรวจ",
        "date": "2554-02-28"
      }
    ],
    "tag": "ca52-2e-2554-a0061"
  }
}