{
  "pages": [
    [
      [
        "ประกาศกระทรวงมหาดไทย",
        "เรื่อง รวมสภาตำบลกับองค์การบริหารส่วนตำบล"
      ]
    ],
    []
  ],
  "metadata": {
    "date_backmatter": "2547-07-01",
    "date_modified": "2547-07-09",
    "date_original": "2547-07-09",
    "doctype": "ประกาศ",
    "editors": [
      {
        "name": "พรพิมล",
        "role": "พิมพ์",
        "date": "2547-09-13"
      },
      {
        "name": "ศุภสรณ์/ธัญกมล",
        "role": "ตรวจ",
        "date": "2547-10-20"
      },
      {
        "name": "นันทพล",
        "role": "ปรับปรุง",
        "date": "2550-01-09"
      }
    ],
    "tag": "ca52-2e-2547-a0004"
  }
}