{
  "pages": [
    [
      [
        "ข้อบัญญัติองค์การบริหารส่วนตำบลดอนแก้ว",
        "เรื่อง การลดหย่อนไม่ต้องเสียภาษีบำรุงท้องที่ในเขตพื้นที่ตำบลดอนแก้ว",
        "พ.ศ. ๒๕๕๐"
      ]
    ],
    []
  ],
  "metadata": {
    "date_backmatter": "2550-08-07",
    "date_modified": "2551-04-10",
    "date_original": "2551-04-10",
    "editors": [
      {
        "name": "ปริยานุช",
        "role": "ผู้จัดทำ",
        "date": "2551-04-18"
      }
    ],
    "tag": "ca52-2j-2551-a0031"
  }
}