{
  "pages": [
    [
      [
        "ข้อบัญญัติองค์การบริหารส่วนตำบลกุดน้ำใส",
        "เรื่อง การจัดการสิ่งปฏิกูลและมูลฝอย",
        "พ.ศ. ๒๕๕๙"
      ]
    ],
    []
  ],
  "metadata": {
    "date_backmatter": "2559-07-08",
    "date_modified": "2560-02-06",
    "date_original": "2560-02-06",
    "editors": [
      {
        "name": "ชวัลพร/ปริยานุช",
        "role": "จัดทำ",
        "date": "2560-02-08"
      },
      {
        "name": "นุสรา",
        "role": "ตรวจ",
        "date": "2560-03-23"
      }
    ],
    "tag": "ca52-2j-2560-a0150"
  }
}