{
  "pages": [
    [
      [
        "ระเบียบกระทรวงมหาดไทย",
        "ว่าด้วยเงินค่าตอบแทนประธานกรรมการบริหาร สมาชิกสภาองค์การ",
        "บริหารส่วนตำบล เลขานุการสภาองค์การบริหารส่วนตำบล",
        "กรรมการบริหาร และเลขานุการคณะกรรมการบริหาร",
        "(ฉบับที่ ๒) พ.ศ. ๒๕๔๔"
      ]
    ],
    []
  ],
  "metadata": {
    "date_backmatter": "2544-03-30",
    "date_modified": "2544-04-04",
    "date_original": "2544-04-04",
    "editors": [
      {
        "name": "ละออง",
        "role": "พิมพ์",
        "date": "2544-07-20"
      },
      {
        "name": "นันทพล",
        "role": "ปรับปรุง",
        "date": "2550-01-10"
      }
    ],
    "tag": "ca52-2g-2544-a0001"
  }
}