{
  "pages": [
    [
      [
        "ข้อบัญญัติองค์การบริหารส่วนตำบลบ้านสวน",
        "เรื่อง การขุดดินและถมดิน",
        "พ.ศ. ๒๕๕๘"
      ]
    ],
    []
  ],
  "metadata": {
    "date_backmatter": "2558-05-28",
    "date_modified": "2558-11-16",
    "date_original": "2558-11-16",
    "editors": [
      {
        "name": "ปริยานุช",
        "role": "จัดทำ",
        "date": "2558-11-18"
      },
      {
        "name": "วิศนี",
        "role": "ตรวจ",
        "date": "2558-12-15"
      }
    ],
    "tag": "ca52-2j-2558-a0841"
  }
}