{
  "pages": [
    [
      [
        "ข้อบัญญัติองค์การบริหารส่วนตำบลห้วยขวาง",
        "เรื่อง การบริหารกิจการประปา",
        "พ.ศ. ๒๕๕๙"
      ]
    ],
    []
  ],
  "metadata": {
    "date_backmatter": "2559-10-10",
    "date_modified": "2560-04-25",
    "date_original": "2560-04-25",
    "editors": [
      {
        "name": "ภวรรณตรี",
        "role": "จัดทำ",
        "date": "2560-05-03"
      },
      {
        "name": "วริญา",
        "role": "ตรวจ",
        "date": "2560-05-03"
      }
    ],
    "tag": "ca52-2j-2560-a0351"
  }
}