{
  "pages": [
    [
      [
        "ข้อบัญญัติองค์การบริหารส่วนตำบลจาน",
        "เรื่อง การควบคุมการเลี้ยงสัตว์หรือปล่อยสัตว์",
        "พ.ศ. ๒๕๖๐"
      ]
    ],
    []
  ],
  "metadata": {
    "date_backmatter": "2560-08-04",
    "date_modified": "2561-06-08",
    "date_original": "2561-06-08",
    "editors": [
      {
        "name": "ปวันวิทย์",
        "role": "จัดทำ",
        "date": "2561-08-20"
      }
    ],
    "tag": "ca52-2j-2561-a0348"
  }
}