{
  "pages": [
    [
      [
        "ข้อบัญญัติองค์การบริหารส่วนตำบลศรีสุข",
        "เรื่อง การบริหารกิจการประปาองค์การบริหารส่วนตำบลศรีสุข พ.ศ. ๒๕๕๘"
      ]
    ],
    []
  ],
  "metadata": {
    "date_backmatter": "2558-06-05",
    "date_modified": "2558-11-20",
    "date_original": "2558-11-20",
    "editors": [
      {
        "name": "ปริยานุช",
        "role": "จัดทำ",
        "date": "2558-11-24"
      },
      {
        "name": "วิศนี",
        "role": "ตรวจ",
        "date": "2559-01-05"
      }
    ],
    "tag": "ca52-2j-2558-a0867"
  }
}