{
  "pages": [
    [
      [
        "ข้อบัญญัติองค์การบริหารส่วนตำบลนาเลียง",
        "เรื่อง การกำจัดสิ่งปฏิกูลและขยะมูลฝอย",
        "พ.ศ. ๒๕๕๖"
      ]
    ],
    []
  ],
  "metadata": {
    "date_backmatter": "2556-08-01",
    "date_modified": "2558-03-27",
    "date_original": "2558-03-27",
    "editors": [
      {
        "name": "ปริยานุช",
        "role": "ผู้จัดทำ",
        "date": "2558-03-30"
      },
      {
        "name": "ปริญสินีย์",
        "role": "ผู้ตรวจ",
        "date": "2558-03-30"
      }
    ],
    "tag": "ca52-2j-2558-a0126"
  }
}