{
  "pages": [
    [
      [
        "ข้อบัญญัติองค์การบริหารส่วนตำบลพนมวังก์",
        "เรื่อง สถานที่จำหน่ายอาหารและสถานที่สะสมอาหาร",
        "พ.ศ. ๒๕๕๙"
      ]
    ],
    []
  ],
  "metadata": {
    "date_backmatter": "2559-09-14",
    "date_modified": "2560-04-11",
    "date_original": "2560-04-11",
    "editors": [
      {
        "name": "ภวรรณตรี",
        "role": "จัดทำ",
        "date": "2560-04-18"
      },
      {
        "name": "พิมพ์มาดา",
        "role": "ตรวจ",
        "date": "2560-05-08"
      }
    ],
    "tag": "ca52-2j-2560-a0318"
  }
}