{
  "pages": [
    [
      [
        "ข้อบัญญัติองค์การบริหารส่วนตำบลจอมประทัด",
        "เรื่อง การกำจัดสิ่งปฏิกูลและขยะมูลฝอย",
        "พ.ศ. ๒๕๕๗"
      ]
    ],
    []
  ],
  "metadata": {
    "date_backmatter": "2557-04-09",
    "date_modified": "2558-11-26",
    "date_original": "2558-11-26",
    "editors": [
      {
        "name": "ปริยานุช",
        "role": "จัดทำ",
        "date": "2558-12-01"
      },
      {
        "name": "วริญา",
        "role": "ตรวจ",
        "date": "2558-12-18"
      }
    ],
    "tag": "ca52-2j-2558-a0875"
  }
}