{
  "pages": [
    [
      [
        "ข้อบัญญัติองค์การบริหารส่วนตำบลบ้านโสก",
        "เรื่อง กำหนดบริเวณห้ามก่อสร้าง ดัดแปลง หรือเปลี่ยนการใช้อาคารบางชนิด หรือบางประเภท",
        "ในท้องที่เขตองค์การบริหารส่วนตำบลบ้านโสก อำเภอหล่มสัก จังหวัดเพชรบูรณ์",
        "พ.ศ. ๒๕๕๘"
      ]
    ],
    []
  ],
  "metadata": {
    "date_backmatter": "2558-09-30",
    "date_modified": "2558-10-18",
    "date_original": "2558-10-18",
    "editors": [
      {
        "name": "ปริยานุช",
        "role": "จัดทำ",
        "date": "2558-10-20"
      },
      {
        "name": "วริญา",
        "role": "ตรวจ",
        "date": "2558-10-20"
      }
    ],
    "tag": "ca52-2j-2558-a0678"
  }
}