{
  "pages": [
    [
      [
        "ข้อบัญญัติองค์การบริหารส่วนตำบลดอนยาง",
        "เรื่อง การควบคุมการประกอบกิจการเลี้ยงไก่",
        "พ.ศ. ๒๕๕๗"
      ]
    ],
    []
  ],
  "metadata": {
    "date_backmatter": "2557-09-10",
    "date_modified": "2559-08-24",
    "date_original": "2559-08-24",
    "editors": [
      {
        "name": "วริญา/ปริยานุช",
        "role": "จัดทำ",
        "date": "2559-08-25"
      },
      {
        "name": "นุสรา",
        "role": "ตรวจ",
        "date": "2559-11-23"
      }
    ],
    "tag": "ca52-2j-2559-a0317"
  }
}