{
  "pages": [
    [
      [
        "ข้อบัญญัติองค์การบริหารส่วนตำบลปากทะเล",
        "เรื่อง การควบคุมกิจการที่เป็นอันตรายต่อสุขภาพ",
        "พ.ศ. ๒๕๕๘"
      ]
    ],
    []
  ],
  "metadata": {
    "date_backmatter": "2558-12-30",
    "date_modified": "2559-04-04",
    "date_original": "2559-04-04",
    "editors": [
      {
        "name": "วริญา/ปริยานุช",
        "role": "จัดทำ",
        "date": "2559-04-05"
      },
      {
        "name": "นุสรา",
        "role": "ตรวจ",
        "date": "2559-06-01"
      }
    ],
    "tag": "ca52-2j-2559-a0137"
  }
}