{
  "pages": [
    [
      [
        "ข้อบัญญัติองค์การบริหารส่วนตำบลองค์พระ",
        "เรื่อง การควบคุมกิจการที่เป็นอันตรายต่อสุขภาพ",
        "พ.ศ. ๒๕๕๖"
      ]
    ],
    []
  ],
  "metadata": {
    "date_backmatter": "2556-06-07",
    "date_modified": "2556-08-21",
    "date_original": "2556-08-21",
    "editors": [
      {
        "name": "ปริยานุช",
        "role": "ผู้จัดทำ",
        "date": "2556-08-23"
      },
      {
        "name": "โชติกานต์",
        "role": "ผู้ตรวจ",
        "date": "2556-09-06"
      }
    ],
    "tag": "ca52-2j-2556-a0112"
  }
}