{
  "pages": [
    [
      [
        "ข้อบัญญัติองค์การบริหารส่วนตำบลคำเนียม",
        "เรื่อง การกำจัดสิ่งปฏิกูลมูลฝอย",
        "พ.ศ. ๒๕๕๔"
      ]
    ],
    []
  ],
  "metadata": {
    "date_backmatter": "2554-03-07",
    "date_modified": "2554-08-18",
    "date_original": "2554-08-18",
    "editors": [
      {
        "name": "ปริยานุช",
        "role": "ผู้จัดทำ",
        "date": "2554-09-07"
      },
      {
        "name": "ณัฐวดี ดำรง",
        "role": "ตรวจ",
        "date": "2554-09-07"
      }
    ],
    "tag": "ca52-2j-2554-a0245"
  }
}