{
  "pages": [
    [
      [
        "ข้อบัญญัติองค์การบริหารส่วนตำบลชัยนาม",
        "เรื่อง การบริหารกิจการและบำรุงรักษาระบบประปาหมู่บ้าน",
        "พ.ศ. ๒๕๖๐"
      ]
    ],
    []
  ],
  "metadata": {
    "date_backmatter": "2560-04-28",
    "date_modified": "2561-05-18",
    "date_original": "2561-05-18",
    "editors": [
      {
        "name": "ปุณิกา",
        "role": "จัดทำ",
        "date": "2562-02-28"
      }
    ],
    "tag": "ca52-2j-2561-a0224"
  }
}