{
  "pages": [
    [
      [
        "ข้อบัญญัติองค์การบริหารส่วนตำบลหนองปรือ",
        "เรื่อง กำหนดหลักเกณฑ์การลดหย่อนที่ดินไม่ต้องเสียภาษีบำรุงท้องที่",
        "พ.ศ. ๒๕๕๙"
      ]
    ],
    []
  ],
  "metadata": {
    "date_backmatter": "2559-04-27",
    "date_modified": "2559-12-22",
    "date_original": "2559-12-22",
    "editors": [
      {
        "name": "ปริยานุช",
        "role": "จัดทำ",
        "date": "2559-12-27"
      },
      {
        "name": "ชวัลพร",
        "role": "ตรวจ",
        "date": "2560-01-31"
      }
    ],
    "tag": "ca52-2j-2559-a0529"
  }
}