{
  "pages": [
    [
      [
        "ข้อบัญญัติองค์การบริหารส่วนตำบลโคกก่อง",
        "เรื่อง การควบคุมแหล่งเพาะพันธุ์ยุงลาย",
        "พ.ศ. ๒๕๕๙"
      ]
    ],
    []
  ],
  "metadata": {
    "date_backmatter": "2559-09-16",
    "date_modified": "2560-04-28",
    "date_original": "2560-04-28",
    "editors": [
      {
        "name": "ภวรรณตรี",
        "role": "จัดทำ",
        "date": "2560-05-01"
      },
      {
        "name": "วริญา",
        "role": "ตรวจ",
        "date": "2560-05-01"
      }
    ],
    "tag": "ca52-2j-2560-a0356"
  }
}