{
  "pages": [
    [
      [
        "ประกาศกระทรวงมหาดไทย",
        "เรื่อง จัดตั้งองค์การบริหารส่วนตำบลโพนางดำออก อำเภอสรรพยา จังหวัดชัยนาท",
        "เป็นเทศบาลตำบลโพนางดำออก"
      ]
    ],
    []
  ],
  "metadata": {
    "date_backmatter": "2552-03-16",
    "date_modified": "2553-03-23",
    "date_original": "2553-03-23",
    "doctype": "ประกาศ",
    "editors": [
      {
        "name": "ปริยานุช",
        "role": "พิมพ์",
        "date": "2553-04-05"
      },
      {
        "name": "นันท์นภัสร์",
        "role": "ตรวจ",
        "date": "2553-04-05"
      }
    ],
    "tag": "ca52-2e-2553-a0007"
  }
}