{
  "pages": [
    [
      [
        "ข้อบัญญัติองค์การบริหารส่วนตำบลคำโตนด",
        "เรื่อง การควบคุมกิจการที่เป็นอันตรายต่อสุขภาพ",
        "พ.ศ. ๒๕๕๑",
        "ประเภทดิสโกเทก และคาราโอเกะ"
      ]
    ],
    []
  ],
  "metadata": {
    "date_backmatter": "2551-08-20",
    "date_modified": "2552-08-13",
    "date_original": "2552-08-13",
    "editors": [
      {
        "name": "ปริยานุช",
        "role": "ผู้จัดทำ",
        "date": "2552-08-25"
      }
    ],
    "tag": "ca52-2j-2552-a0223"
  }
}