{
  "pages": [
    [
      [
        "ข้อบัญญัติองค์การบริหารส่วนตำบลบ้านใหม่ไชยมงคล",
        "เรื่อง การควบคุมแหล่งเพาะพันธุ์ยุงลาย พ.ศ. ๒๕๕๗"
      ]
    ],
    []
  ],
  "metadata": {
    "date_backmatter": "2557-08-28",
    "date_modified": "2557-12-22",
    "date_original": "2557-12-22",
    "editors": [
      {
        "name": "ปริยานุช",
        "role": "ผู้จัดทำ",
        "date": "2558-01-07"
      },
      {
        "name": "วิศนี",
        "role": "ผู้ตรวจ",
        "date": "2558-01-14"
      }
    ],
    "tag": "ca52-2j-2557-a0307"
  }
}