{
  "pages": [
    [
      [
        "ข้อบัญญัติองค์การบริหารส่วนตำบลศรีฐาน",
        "เรื่อง สถานที่จำหน่ายอาหารและสถานที่สะสมอาหาร",
        "พ.ศ. ๒๕๕๙"
      ]
    ],
    []
  ],
  "metadata": {
    "date_backmatter": "2559-04-01",
    "date_modified": "2560-04-28",
    "date_original": "2560-04-28",
    "editors": [
      {
        "name": "ภวรรณตรี",
        "role": "จัดทำ",
        "date": "2560-05-02"
      },
      {
        "name": "วริญา",
        "role": "ตรวจ",
        "date": "2560-05-02"
      }
    ],
    "tag": "ca52-2j-2560-a0354"
  }
}