{
  "pages": [
    [
      [
        "ข้อบัญญัติองค์การบริหารส่วนตำบลท่าสองคอน",
        "เรื่อง กำหนดบริเวณห้ามก่อสร้าง ดัดแปลง หรือเปลี่ยนการใช้อาคารบางชนิด หรือบางประเภทในท้องที่",
        "องค์การบริหารส่วนตำบลท่าสองคอน อำเภอเมืองมหาสารคาม จังหวัดมหาสารคาม",
        "(ฉบับที่ ๒) พ.ศ. ๒๕๕๕"
      ]
    ],
    []
  ],
  "metadata": {
    "date_backmatter": "2555-02-16",
    "date_modified": "2555-03-09",
    "date_original": "2555-03-09",
    "editors": [
      {
        "name": "ปริยานุช",
        "role": "ผู้จัดทำ",
        "date": "2555-03-12"
      },
      {
        "name": "ชาญ",
        "role": "ผู้ตรวจ",
        "date": "2555-03-19"
      }
    ],
    "tag": "ca52-2j-2555-a0031"
  }
}