{
  "pages": [
    [
      [
        "ข้อบัญญัติองค์การบริหารส่วนตำบลคำด้วง",
        "เรื่อง การกำจัดสิ่งปฏิกูลและมูลฝอย พ.ศ. ๒๕๕๖"
      ]
    ],
    []
  ],
  "metadata": {
    "date_backmatter": "2556-09-05",
    "date_modified": "2558-08-26",
    "date_original": "2558-08-26",
    "editors": [
      {
        "name": "ปริยานุช",
        "role": "จัดทำ",
        "date": "2558-08-28"
      },
      {
        "name": "ปริญสินีย์",
        "role": "ตรวจ",
        "date": "2558-08-28"
      }
    ],
    "tag": "ca52-2j-2558-a0449"
  }
}