{
  "pages": [
    [
      [
        "ข้อบัญญัติองค์การบริหารส่วนตำบลเกาะศาลพระ",
        "เรื่อง การกำจัดสิ่งปฏิกูลและขยะมูลฝอย พ.ศ. ๒๕๕๖"
      ]
    ],
    []
  ],
  "metadata": {
    "date_backmatter": "2556-11-13",
    "date_modified": "2557-05-27",
    "date_original": "2557-05-27",
    "editors": [
      {
        "name": "ปริยานุช",
        "role": "ผู้จัดทำ",
        "date": "2557-05-29"
      },
      {
        "name": "พจนา",
        "role": "ผู้ตรวจ",
        "date": "2557-06-30"
      }
    ],
    "tag": "ca52-2j-2557-a0110"
  }
}