{
  "pages": [
    [
      [
        "ข้อบัญญัติองค์การบริหารส่วนตำบลพังตรุ",
        "เรื่อง กิจการประปาองค์การบริหารส่วนตำบลพังตรุ",
        "พ.ศ. ๒๕๕๒"
      ]
    ],
    []
  ],
  "metadata": {
    "date_backmatter": "2552-10-01",
    "date_modified": "2552-12-03",
    "date_original": "2552-12-03",
    "editors": [
      {
        "name": "ปริยานุช",
        "role": "ผู้จัดทำ",
        "date": "2552-12-15"
      },
      {
        "name": "นันท์นภัสร์",
        "role": "ตรวจ",
        "date": "2552-12-15"
      }
    ],
    "tag": "ca52-2j-2552-a0367"
  }
}