{
  "pages": [
    [
      [
        "ระเบียบกระทรวงมหาดไทย",
        "ว่าด้วยการพัสดุขององค์กรปกครองส่วนท้องถิ่น (ฉบับที่ ๒)",
        "พ.ศ. ๒๕๔๙"
      ]
    ],
    []
  ],
  "metadata": {
    "date_backmatter": "2549-02-02",
    "date_modified": "2549-02-06",
    "date_original": "2549-02-06",
    "editors": [
      {
        "name": "นันทนา",
        "role": "ผู้จัดทำ",
        "date": "2549-02-10"
      }
    ],
    "tag": "ca52-2g-2549-a0003"
  }
}