{
  "pages": [
    [
      [
        "ข้อบัญญัติองค์การบริหารส่วนตำบลปงน้อย",
        "เรื่อง กิจการที่เป็นอันตรายต่อสุขภาพ",
        "พ.ศ. ๒๕๕๙"
      ]
    ],
    []
  ],
  "metadata": {
    "date_backmatter": "2559-10-25",
    "date_modified": "2560-04-11",
    "date_original": "2560-04-11",
    "editors": [
      {
        "name": "ภวรรณตรี",
        "role": "จัดทำ",
        "date": "2560-04-18"
      },
      {
        "name": "พิมพ์มาดา",
        "role": "ตรวจ",
        "date": "2560-05-08"
      }
    ],
    "tag": "ca52-2j-2560-a0314"
  }
}