{
  "pages": [
    [
      [
        "ข้อบัญญัติองค์การบริหารส่วนตำบลด่านช้าง",
        "เรื่อง การลดหย่อนภาษีบำรุงท้องที่ พ.ศ. ๒๕๕๗"
      ]
    ],
    []
  ],
  "metadata": {
    "date_backmatter": "2557-05-08",
    "date_modified": "2559-02-04",
    "date_original": "2559-02-04",
    "editors": [
      {
        "name": "ปริยานุช",
        "role": "จัดทำ",
        "date": "2559-02-09"
      },
      {
        "name": "ปุณิกา",
        "role": "ตรวจ",
        "date": "2559-02-09"
      }
    ],
    "tag": "ca52-2j-2559-a0026"
  }
}