{
  "pages": [
    [
      [
        "ข้อบัญญัติองค์การบริหารส่วนตำบลส้มป่อย",
        "เรื่อง การควบคุมกิจการที่เป็นอันตรายต่อสุขภาพ ประเภทดิสโก้เทค และคาราโอเกะ",
        "พ.ศ. ๒๕๕๑"
      ]
    ],
    []
  ],
  "metadata": {
    "date_backmatter": "2551-05-21",
    "date_modified": "2551-08-22",
    "date_original": "2551-08-22",
    "editors": [
      {
        "name": "ปริยานุช",
        "role": "ผู้จัดทำ",
        "date": "2551-08-26"
      }
    ],
    "tag": "ca52-2j-2551-a0110"
  }
}