{
  "pages": [
    [
      [
        "ข้อบัญญัติองค์การบริหารส่วนตำบลบ้านแหลม",
        "เรื่อง ตลาด",
        "พ.ศ. ๒๕๖๐"
      ]
    ],
    []
  ],
  "metadata": {
    "date_backmatter": "2560-02-28",
    "date_modified": "2561-02-19",
    "date_original": "2561-02-19",
    "editors": [
      {
        "name": "ปุณิกา",
        "role": "จัดทำ",
        "date": "2561-05-19"
      }
    ],
    "tag": "ca52-2j-2561-a0067"
  }
}