{
  "pages": [
    [
      [
        "ข้อบัญญัติองค์การบริหารส่วนตำบลบุฝ้าย",
        "เรื่อง การควบคุมการประกอบกิจการเลี้ยงสุกร",
        "พ.ศ. ๒๕๕๔"
      ]
    ],
    []
  ],
  "metadata": {
    "date_backmatter": "2554-02-02",
    "date_modified": "2554-09-09",
    "date_original": "2554-09-09",
    "editors": [
      {
        "name": "ปริยานุช",
        "role": "ผู้จัดทำ",
        "date": "2554-09-27"
      },
      {
        "name": "ปณตภร",
        "role": "ผู้ตรวจ",
        "date": "2554-10-12"
      }
    ],
    "tag": "ca52-2j-2554-a0255"
  }
}