{
  "pages": [
    [
      [
        "ข้อบัญญัติองค์การบริหารส่วนตำบลหนองบัว",
        "เรื่อง การควบคุมแหล่งเพาะพันธุ์ยุงลาย",
        "พ.ศ. ๒๕๕๕"
      ]
    ],
    []
  ],
  "metadata": {
    "date_backmatter": "2555-02-17",
    "date_modified": "2555-04-12",
    "date_original": "2555-04-12",
    "editors": [
      {
        "name": "ปริยานุช",
        "role": "ผู้จัดทำ",
        "date": "2555-04-20"
      },
      {
        "name": "ณัฐพร",
        "role": "ผู้ตรวจ",
        "date": "2555-04-20"
      }
    ],
    "tag": "ca52-2j-2555-a0059"
  }
}