{
  "pages": [
    [
      [
        "ข้อบัญญัติองค์การบริหารส่วนตำบลไทรโยค",
        "เรื่อง ตลาด",
        "พ.ศ. ๒๕๕๓"
      ]
    ],
    []
  ],
  "metadata": {
    "date_backmatter": "2553-11-04",
    "date_modified": "2554-08-18",
    "date_original": "2554-08-18",
    "editors": [
      {
        "name": "ปริยานุช",
        "role": "ผู้จัดทำ",
        "date": "2554-09-09"
      },
      {
        "name": "ณัฐวดี ดำรง",
        "role": "ตรวจ",
        "date": "2554-09-09"
      }
    ],
    "tag": "ca52-2j-2554-a0236"
  }
}