{
  "pages": [
    [
      [
        "ข้อบัญญัติองค์การบริหารส่วนตำบลจำป่าหวาย",
        "เรื่อง สถานที่จำหน่ายอาหารและสถานที่สะสมอาหาร พ.ศ. ๒๕๕๗"
      ]
    ],
    []
  ],
  "metadata": {
    "date_backmatter": "2557-11-12",
    "date_modified": "2558-08-07",
    "date_original": "2558-08-07",
    "editors": [
      {
        "name": "ปริยานุช",
        "role": "ผู้จัดทำ",
        "date": "2558-08-10"
      },
      {
        "name": "นุสรา",
        "role": "ผู้ตรวจ",
        "date": "2558-10-19"
      },
      {
        "name": "จุฑามาศ",
        "role": "ปรับปรุง",
        "date": "2558-11-19"
      }
    ],
    "tag": "ca52-2j-2558-a0410"
  }
}