{
  "pages": [
    [
      [
        "ข้อบัญญัติองค์การบริหารส่วนตำบลคลองนิยมยาตรา",
        "เรื่อง กำหนดบริเวณห้ามก่อสร้าง ดัดแปลง ใช้หรือเปลี่ยนการใช้อาคารบางชนิด หรือบางประเภท",
        "ในท้องที่องค์การบริหารส่วนตำบลคลองนิยมยาตรา อำเภอบางบ่อ จังหวัดสมุทรปราการ",
        "พ.ศ. ๒๕๕๑"
      ]
    ],
    []
  ],
  "metadata": {
    "date_backmatter": "2551-06-24",
    "date_modified": "2552-05-07",
    "date_original": "2552-05-07",
    "editors": [
      {
        "name": "ปริยานุช",
        "role": "ผู้จัดทำ",
        "date": "2552-05-13"
      }
    ],
    "tag": "ca52-2j-2552-a0179"
  }
}