{
  "pages": [
    [
      [
        "ข้อบัญญัติองค์การบริหารส่วนตำบลบ้านแอ่น",
        "เรื่อง การขุดดินและถมดิน",
        "พ.ศ. ๒๕๕๕"
      ]
    ],
    []
  ],
  "metadata": {
    "date_backmatter": "2555-07-23",
    "date_modified": "2555-11-22",
    "date_original": "2555-11-22",
    "editors": [
      {
        "name": "ปริยานุช",
        "role": "ผู้จัดทำ",
        "date": "2555-11-26"
      },
      {
        "name": "ปณตภร",
        "role": "ผู้ตรวจ",
        "date": "2556-01-09"
      }
    ],
    "tag": "ca52-2j-2555-a0203"
  }
}