{
  "pages": [
    [
      [
        "ระเบียบองค์การบริหารส่วนตำบลวัดหลวง",
        "ว่าด้วยการดำเนินงานศูนย์พัฒนาเด็กเล็ก",
        "พ.ศ. ๒๕๕๐"
      ]
    ],
    []
  ],
  "metadata": {
    "date_backmatter": "2550-10-31",
    "date_modified": "2550-10-31",
    "date_original": "2550-10-31",
    "editors": [
      {
        "name": "วัชศักดิ์",
        "role": "ผู้จัดทำ",
        "date": "2550-11-20"
      }
    ],
    "tag": "ca52-2g-2550-a0002"
  }
}