{
  "pages": [
    [
      [
        "ระเบียบกระทรวงมหาดไทย",
        "ว่าด้วยบำเหน็จลูกจ้างของหน่วยการบริหารราชการส่วนท้องถิ่น",
        "พ.ศ. ๒๕๔๒"
      ]
    ],
    []
  ],
  "metadata": {
    "date_backmatter": "2542-09-17",
    "date_modified": "2542-10-01",
    "date_original": "2542-10-01",
    "editors": [
      {
        "name": "อาภรณ์",
        "role": "พิมพ์",
        "date": "2544-12-28"
      },
      {
        "name": "นันทพล",
        "role": "ปรับปรุง",
        "date": "2550-01-10"
      }
    ],
    "tag": "ca52-2g-2542-a006"
  }
}