{
  "pages": [
    [
      [
        "ข้อบังคับตำบลหนองบุนนาก",
        "เรื่อง การควบคุมสถานที่จำหน่ายอาหารและสถานที่สะสมอาหาร พ.ศ. ๒๕๓๙"
      ]
    ],
    []
  ],
  "metadata": {
    "date_backmatter": "2539-12-20",
    "date_modified": "2552-05-04",
    "date_original": "2552-05-04",
    "editors": [
      {
        "name": "ปริยานุช",
        "role": "ผู้จัดทำ",
        "date": "2552-05-14"
      }
    ],
    "tag": "ca52-2i-2552-a0019"
  }
}