{
  "pages": [
    [
      [
        "ข้อบัญญัติองค์การบริหารส่วนตำบลบ้านเนิน",
        "เรื่อง กิจการที่เป็นอันตรายต่อสุขภาพ พ.ศ. ๒๕๕๗"
      ]
    ],
    []
  ],
  "metadata": {
    "date_backmatter": "2558-02-16",
    "date_modified": "2558-09-18",
    "date_original": "2558-09-18",
    "editors": [
      {
        "name": "ปริยานุช",
        "role": "ผู้จัดทำ",
        "date": "2558-09-22"
      },
      {
        "name": "ปัญจพร",
        "role": "ผู้ตรวจ",
        "date": "2558-09-22"
      }
    ],
    "tag": "ca52-2j-2558-a0577"
  }
}