{
  "pages": [
    [
      [
        "ข้อบัญญัติองค์การบริหารส่วนตำบลท่าไม้",
        "เรื่อง ตลาด",
        "พ.ศ. ๒๕๕๘"
      ]
    ],
    []
  ],
  "metadata": {
    "date_backmatter": "2559-09-13",
    "date_modified": "2560-01-18",
    "date_original": "2560-01-18",
    "editors": [
      {
        "name": "ปุณิกา/ปริยานุช",
        "role": "จัดทำ",
        "date": "2560-01-20"
      },
      {
        "name": "นุสรา",
        "role": "ตรวจ",
        "date": "2560-03-22"
      }
    ],
    "tag": "ca52-2j-2560-a0107"
  }
}