{
  "pages": [
    [
      [
        "ข้อบัญญัติองค์การบริหารส่วนตำบลห้วยโจด",
        "เรื่อง การควบคุมการเลี้ยงหรือปล่อยสัตว์",
        "พ.ศ. ๒๕๖๐"
      ]
    ],
    []
  ],
  "metadata": {
    "date_backmatter": "2560-06-09",
    "date_modified": "2561-02-01",
    "date_original": "2561-02-01",
    "editors": [
      {
        "name": "ปวันวิทย์",
        "role": "จัดทำ",
        "date": "2561-02-26"
      }
    ],
    "tag": "ca52-2j-2561-a0048"
  }
}