{
  "pages": [
    [
      [
        "ข้อบัญญัติองค์การบริหารส่วนตำบลสามพราน",
        "เรื่อง สถานที่จำหน่ายอาหารและสถานที่สะสมอาหาร",
        "พ.ศ. ๒๕๕๙"
      ]
    ],
    []
  ],
  "metadata": {
    "date_backmatter": "2559-12-30",
    "date_modified": "2560-06-26",
    "date_original": "2560-06-26",
    "editors": [
      {
        "name": "ปุณิกา/อัญชลี",
        "role": "จัดทำ",
        "date": "2560-06-27"
      },
      {
        "name": "นุสรา",
        "role": "ตรวจ",
        "date": "2560-09-10"
      }
    ],
    "tag": "ca52-2j-2560-a0530"
  }
}