{
  "pages": [
    [
      [
        "ข้อบัญญัติองค์การบริหารส่วนตำบลแพรกหนามแดง",
        "เรื่อง การกำจัดสิ่งปฏิกูลและมูลฝอย",
        "พ.ศ. ๒๕๕๘"
      ]
    ],
    []
  ],
  "metadata": {
    "date_backmatter": "2558-02-20",
    "date_modified": "2558-11-09",
    "date_original": "2558-11-09",
    "editors": [
      {
        "name": "ปริยานุช ปุณิกา",
        "role": "จัดทำ",
        "date": "2558-11-24"
      },
      {
        "name": "ปุณิกา",
        "role": "ตรวจ",
        "date": "2558-11-24"
      }
    ],
    "tag": "ca52-2j-2558-a0778"
  }
}