{
  "pages": [
    [
      [
        "ข้อบัญญัติองค์การบริหารส่วนตำบลบ้านใหม่",
        "เรื่อง การกำจัดสิ่งปฏิกูลและมูลฝอย",
        "พ.ศ. ๒๕๕๗"
      ]
    ],
    []
  ],
  "metadata": {
    "date_backmatter": "2557-12-15",
    "date_modified": "2558-08-03",
    "date_original": "2558-08-03",
    "editors": [
      {
        "name": "ปริยานุช",
        "role": "ผู้จัดทำ",
        "date": "2558-08-05"
      },
      {
        "name": "นุสรา",
        "role": "ผู้ตรวจ",
        "date": "2558-10-14"
      }
    ],
    "tag": "ca52-2j-2558-a0393"
  }
}