{
  "pages": [
    [
      [
        "ข้อบัญญัติองค์การบริหารส่วนตำบลตะพง",
        "เรื่อง การควบคุมการจัดตั้งตลาด",
        "พ.ศ. ๒๕๕๘"
      ]
    ],
    []
  ],
  "metadata": {
    "date_backmatter": "2558-03-31",
    "date_modified": "2558-10-13",
    "date_original": "2558-10-13",
    "editors": [
      {
        "name": "ปริยานุช",
        "role": "ผู้จัดทำ",
        "date": "2558-10-16"
      },
      {
        "name": "ปุณิกา",
        "role": "ผู้ตรวจ",
        "date": "2558-11-03"
      }
    ],
    "tag": "ca52-2j-2558-a0667"
  }
}