{
  "pages": [
    [
      [
        "ข้อบัญญัติองค์การบริหารส่วนตำบลแม่กุ",
        "เรื่อง การประปาองค์การบริหารส่วนตำบลแม่กุ หมู่ที่ ๘ บ้านแม่กุเหนือ",
        "พ.ศ. ๒๕๕๘"
      ]
    ],
    []
  ],
  "metadata": {
    "date_backmatter": "2558-09-21",
    "date_modified": "2558-11-26",
    "date_original": "2558-11-26",
    "editors": [
      {
        "name": "ปริยานุช",
        "role": "จัดทำ",
        "date": "2558-12-01"
      },
      {
        "name": "วริญา",
        "role": "ตรวจ",
        "date": "2558-12-18"
      }
    ],
    "tag": "ca52-2j-2558-a0881"
  }
}