{
  "pages": [
    [
      [
        "ข้อบัญญัติองค์การบริหารส่วนตำบลหินโงม",
        "เรื่อง การจัดการสิ่งปฏิกูล",
        "พ.ศ. ๒๕๕๙"
      ]
    ],
    []
  ],
  "metadata": {
    "date_backmatter": "2559-06-30",
    "date_modified": "2561-02-19",
    "date_original": "2561-02-19",
    "editors": [],
    "tag": "ca52-2j-2561-a0055"
  }
}