{
  "pages": [
    [
      [
        "ข้อบัญญัติองค์การบริหารส่วนตำบลพระบาทนาสิงห์",
        "เรื่อง การควบคุมการเลี้ยงหรือปล่อยสัตว์",
        "พ.ศ. ๒๕๕๙"
      ]
    ],
    []
  ],
  "metadata": {
    "date_backmatter": "2559-07-12",
    "date_modified": "2560-03-02",
    "date_original": "2560-03-02",
    "editors": [
      {
        "name": "ปริยานุช",
        "role": "จัดทำ",
        "date": "2560-03-07"
      },
      {
        "name": "พรวิภา",
        "role": "ตรวจ",
        "date": "2560-03-07"
      }
    ],
    "tag": "ca52-2j-2560-a0221"
  }
}