{
  "pages": [
    [
      [
        "ข้อบัญญัติองค์การบริหารส่วนตำบลขุนศรี",
        "เรื่อง กำหนดบริเวณห้ามก่อสร้าง ดัดแปลงหรือเปลี่ยนการใช้อาคารบางชนิดหรือบางประเภท",
        "ในเขตองค์การบริหารส่วนตำบลขุนศรี อำเภอไทรน้อย จังหวัดนนทบุรี",
        "พ.ศ. ๒๕๕๕"
      ]
    ],
    []
  ],
  "metadata": {
    "date_backmatter": "2555-11-19",
    "date_modified": "2556-02-15",
    "date_original": "2556-02-15",
    "editors": [
      {
        "name": "ปริยานุช",
        "role": "ผู้จัดทำ",
        "date": "2556-02-19"
      },
      {
        "name": "อุษมล",
        "role": "ผู้ตรวจ",
        "date": "2556-02-28"
      }
    ],
    "tag": "ca52-2j-2556-a0034"
  }
}