{
  "pages": [
    [
      [
        "ข้อบัญญัติองค์การบริหารส่วนตำบลบ้านแพ้ว",
        "เรื่อง การจัดการมูลฝอยติดเชื้อ",
        "พ.ศ. ๒๕๕๙"
      ]
    ],
    []
  ],
  "metadata": {
    "date_backmatter": "2560-01-09",
    "date_modified": "2561-04-20",
    "date_original": "2561-04-20",
    "editors": [
      {
        "name": "พรวิภา",
        "role": "จัดทำ",
        "date": "2561-04-20"
      }
    ],
    "tag": "ca52-2j-2561-a0164"
  }
}