{
  "pages": [
    [
      [
        "ข้อบัญญัติองค์การบริหารส่วนตำบลหอมศีล",
        "เรื่อง การควบคุมกิจการที่เป็นอันตรายต่อสุขภาพ",
        "พ.ศ. ๒๕๕๙"
      ]
    ],
    []
  ],
  "metadata": {
    "date_backmatter": "2559-06-15",
    "date_modified": "2559-12-08",
    "date_original": "2559-12-08",
    "editors": [
      {
        "name": "ปริยานุช",
        "role": "จัดทำ",
        "date": "2559-12-13"
      },
      {
        "name": "วริญา",
        "role": "ตรวจ",
        "date": "2559-12-13"
      }
    ],
    "tag": "ca52-2j-2559-a0488"
  }
}