{
  "pages": [
    [
      [
        "ข้อบัญญัติองค์การบริหารส่วนตำบลยางช้าย",
        "เรื่อง การควบคุมแหล่งเพาะพันธุ์ยุงลาย",
        "พ.ศ. ๒๕๕๙"
      ]
    ],
    []
  ],
  "metadata": {
    "date_backmatter": "2559-06-21",
    "date_modified": "2561-08-01",
    "date_original": "2561-08-01",
    "editors": [
      {
        "name": "พิมพ์มาดา",
        "role": "จัดทำ",
        "date": "2561-11-09"
      }
    ],
    "tag": "ca52-2j-2561-a0472"
  }
}