{
  "pages": [
    [
      [
        "ข้อบัญญัติองค์การบริหารส่วนตำบลทอนหงส์",
        "เรื่อง การใช้น้ำประปาขององค์การบริหารส่วนตำบลทอนหงส์",
        "พ.ศ. ๒๕๕๐"
      ]
    ],
    []
  ],
  "metadata": {
    "date_backmatter": "2550-11-15",
    "date_modified": "2558-07-03",
    "date_original": "2553-02-04",
    "editors": [
      {
        "name": "ปริยานุช",
        "role": "ผู้จัดทำ",
        "date": "2553-02-09"
      },
      {
        "name": "นันท์นภัสร์",
        "role": "ตรวจ",
        "date": "2553-02-09"
      },
      {
        "name": "นุสรา",
        "role": "ปรับปรุง",
        "date": "2558-07-15"
      }
    ],
    "tag": "ca52-2j-9990-update"
  }
}