{
  "pages": [
    [
      [
        "ข้อบัญญัติองค์การบริหารส่วนตำบลย่านซื่อ",
        "เรื่อง สถานที่จำหน่ายอาหารและสถานที่สะสมอาหาร",
        "พ.ศ. ๒๕๖๑"
      ]
    ],
    []
  ],
  "metadata": {
    "date_backmatter": "2561-03-08",
    "date_modified": "2561-07-04",
    "date_original": "2561-07-04",
    "editors": [
      {
        "name": "พัชรภรณ์",
        "role": "จัดทำ",
        "date": "2561-11-27"
      }
    ],
    "tag": "ca52-2j-2561-a0415"
  }
}