{
  "pages": [
    [
      [
        "ข้อบัญญัติองค์การบริหารส่วนตำบลแม่สอย",
        "เรื่อง การติดตั้งบ่อดักไขมันน้ำเสียในอาคาร",
        "พ.ศ. ๒๕๔๙"
      ]
    ],
    []
  ],
  "metadata": {
    "date_backmatter": "2549-06-01",
    "date_modified": "2549-06-22",
    "date_original": "2549-06-22",
    "editors": [
      {
        "name": "นันทนา",
        "role": "ผู้จัดทำ",
        "date": "2549-06-26"
      }
    ],
    "tag": "ca52-2j-2549-a0006"
  }
}