{
  "pages": [
    [
      [
        "ข้อบัญญัติองค์การบริหารส่วนตำบลตำบลนากอก",
        "เรื่อง สถานที่จำหน่ายอาหารและสถานที่สะสมอาหาร",
        "พ.ศ. ๒๕๕๘"
      ]
    ],
    []
  ],
  "metadata": {
    "date_backmatter": "2558-11-17",
    "date_modified": "2559-03-08",
    "date_original": "2559-03-08",
    "editors": [
      {
        "name": "ปุณิกา/ปริยานุช",
        "role": "จัดทำ",
        "date": "2559-03-09"
      },
      {
        "name": "นุสรา",
        "role": "ตรวจ",
        "date": "2559-05-03"
      }
    ],
    "tag": "ca52-2j-2559-a0065"
  }
}