{
  "pages": [
    [
      [
        "ข้อบัญญัติองค์การบริหารส่วนตำบลนาสาร",
        "เรื่อง การควบคุมการเลี้ยงสัตว์และปล่อยสัตว์",
        "พ.ศ. ๒๕๕๔"
      ]
    ],
    []
  ],
  "metadata": {
    "date_backmatter": "2554-11-21",
    "date_modified": "2555-03-14",
    "date_original": "2555-03-14",
    "editors": [
      {
        "name": "ปริยานุช",
        "role": "ผู้จัดทำ",
        "date": "2555-03-20"
      },
      {
        "name": "ปณตภร",
        "role": "ผู้ตรวจ",
        "date": "2555-03-27"
      }
    ],
    "tag": "ca52-2j-2555-a0038"
  }
}