{
  "pages": [
    [
      [
        "ข้อบัญญัติองค์การบริหารส่วนตำบลย่านยาว",
        "เรื่อง การควบคุมกิจการที่เป็นอันตรายต่อสุขภาพ",
        "ประเภทกลุ่มบริการสุขภาพ พ.ศ. ๒๕๕๗"
      ]
    ],
    []
  ],
  "metadata": {
    "date_backmatter": "2557-06-17",
    "date_modified": "2557-08-21",
    "date_original": "2557-08-21",
    "editors": [
      {
        "name": "ปริยานุช",
        "role": "ผู้จัดทำ",
        "date": "2557-08-22"
      },
      {
        "name": "ปริญสินีย์",
        "role": "ผู้ตรวจ",
        "date": "2557-08-22"
      }
    ],
    "tag": "ca52-2j-2557-a0164"
  }
}