{
  "pages": [
    [
      [
        "ข้อบัญญัติองการบริหารส่วนตำบลสระตะเคียน",
        "เรื่อง การควบคุมแหล่งเพาะพันธุ์ยุงลาย",
        "พ.ศ. ๒๕๕๗"
      ]
    ],
    []
  ],
  "metadata": {
    "date_backmatter": "2557-03-31",
    "date_modified": "2557-04-18",
    "date_original": "2557-04-18",
    "editors": [
      {
        "name": "ปริยานุช",
        "role": "ผู้จัดทำ",
        "date": "2557-04-21"
      },
      {
        "name": "โชติกานต์",
        "role": "ผู้ตรวจ",
        "date": "2557-04-21"
      }
    ],
    "tag": "ca52-2j-2557-a0084"
  }
}