{
  "pages": [
    [
      [
        "ข้อบัญญัติองค์การบริหารส่วนตำบลทุ่งนนทรี",
        "เรื่อง การควบคุมกิจการที่เป็นอันตรายต่อสุขภาพ (ฉบับที่ ๒)",
        "พ.ศ. ๒๕๕๓"
      ]
    ],
    []
  ],
  "metadata": {
    "date_backmatter": "2554-03-03",
    "date_modified": "2554-06-16",
    "date_original": "2554-06-16",
    "editors": [
      {
        "name": "โชติกานต์",
        "role": "ผู้จัดทำ",
        "date": "2556-08-23"
      }
    ],
    "tag": "ca52-2j-2554-a0325"
  }
}