{
  "pages": [
    [
      [
        "ข้อบัญญัติองค์การบริหารส่วนตำบลเมืองยาง",
        "เรื่อง การควบคุมแหล่งเพาะพันธุ์ยุงลาย",
        "พ.ศ. ๒๕๕๘"
      ]
    ],
    []
  ],
  "metadata": {
    "date_backmatter": "2558-08-18",
    "date_modified": "2559-05-04",
    "date_original": "2559-05-04",
    "editors": [
      {
        "name": "ชวัลพร/ปริยานุช",
        "role": "จัดทำ",
        "date": "2559-05-10"
      },
      {
        "name": "นุสรา",
        "role": "ตรวจ",
        "date": "2559-06-15"
      }
    ],
    "tag": "ca52-2j-2559-a0158"
  }
}