{
  "pages": [
    [
      [
        "ข้อบัญญัติองค์การบริหารส่วนตำบลคุ้งกระถิน",
        "เรื่อง การจัดการสิ่งปฏิกูลและมูลฝอย",
        "พ.ศ. ๒๕๕๙"
      ]
    ],
    []
  ],
  "metadata": {
    "date_backmatter": "2559-07-06",
    "date_modified": "2559-12-27",
    "date_original": "2559-12-27",
    "editors": [
      {
        "name": "ชนิกา/ปริยานุช",
        "role": "จัดทำ",
        "date": "2560-01-05"
      }
    ],
    "tag": "ca52-2j-2559-a0549"
  }
}