{
  "pages": [
    [
      [
        "ข้อบัญญัติองค์การบริหารส่วนตำบลหนองบุนนาก",
        "เรื่อง การกำหนดเขตควบคุมการเลี้ยงหรือปล่อยสัตว์ พ.ศ. ๒๕๕๐"
      ]
    ],
    []
  ],
  "metadata": {
    "date_backmatter": "2550-08-07",
    "date_modified": "2552-05-04",
    "date_original": "2552-05-04",
    "editors": [
      {
        "name": "ปริยานุช",
        "role": "ผู้จัดทำ",
        "date": "2552-05-14"
      }
    ],
    "tag": "ca52-2j-2552-a0172"
  }
}