{
  "pages": [
    [
      [
        "ข้อบัญญัติองค์การบริหารส่วนตำบลชุมแพ",
        "เรื่อง การจัดการมูลฝอย",
        "พ.ศ. ๒๕๖๐"
      ]
    ],
    []
  ],
  "metadata": {
    "date_backmatter": "2560-07-07",
    "date_modified": "2561-05-18",
    "date_original": "2561-05-18",
    "editors": [
      {
        "name": "ปุณิกา",
        "role": "จัดทำ",
        "date": "2562-01-29"
      }
    ],
    "tag": "ca52-2j-2561-a0236"
  }
}