{
  "pages": [
    [
      [
        "ข้อบัญญัติองค์การบริหารส่วนตำบลเทพราช",
        "เรื่อง การติดตั้งบ่อดักไขมันบำบัดน้ำเสียในอาคาร",
        "พ.ศ. ๒๕๔๙"
      ]
    ],
    []
  ],
  "metadata": {
    "date_backmatter": "2549-06-29",
    "date_modified": "2552-03-11",
    "date_original": "2552-03-11",
    "editors": [
      {
        "name": "ปริยานุช",
        "role": "ผู้จัดทำ",
        "date": "2552-03-17"
      }
    ],
    "tag": "ca52-2j-2552-a0067"
  }
}