{
  "pages": [
    [
      [
        "ข้อบัญญัติองค์การบริหารส่วนตำบลดอนแฝก",
        "เรื่อง การเก็บ ขน และกำจัดสิ่งปฏิกูลหรือมูลฝอย",
        "พ.ศ. ๒๕๕๙"
      ]
    ],
    []
  ],
  "metadata": {
    "date_backmatter": "2560-07-05",
    "date_modified": "2561-03-23",
    "date_original": "2561-03-23",
    "editors": [
      {
        "name": "ภูมิกิติ",
        "role": "จัดทำ",
        "date": "2561-04-23"
      }
    ],
    "tag": "ca52-2j-2561-a0158"
  }
}