{
  "pages": [
    [
      [
        "ข้อบัญญัติองค์การบริหารส่วนตำบลสันต้นหมื้อ",
        "เรื่อง สถานที่จำหน่ายอาหารและสถานที่สะสมอาหาร",
        "พ.ศ. ๒๕๕๒"
      ]
    ],
    []
  ],
  "metadata": {
    "date_backmatter": "2552-07-09",
    "date_modified": "2553-05-20",
    "date_original": "2553-05-20",
    "editors": [
      {
        "name": "ปริยานุช",
        "role": "ผู้จัดทำ",
        "date": "2553-06-02"
      },
      {
        "name": "นันท์นภัสร์",
        "role": "ตรวจ",
        "date": "2553-06-02"
      }
    ],
    "tag": "ca52-2j-2553-a0049"
  }
}