{
  "pages": [
    [
      [
        "ข้อบัญญัติองค์การบริหารส่วนตำบลสร้อยฟ้า",
        "เรื่อง การควบคุมกิจการที่เป็นอันตรายต่อสุขภาพ",
        "พ.ศ. ๒๕๕๗"
      ]
    ],
    []
  ],
  "metadata": {
    "date_backmatter": "2557-05-19",
    "date_modified": "2557-06-13",
    "date_original": "2557-06-13",
    "editors": [
      {
        "name": "ปริยานุช",
        "role": "ผู้จัดทำ",
        "date": "2557-06-18"
      },
      {
        "name": "ปริญสินีย์",
        "role": "ผู้ตรวจ",
        "date": "2557-06-18"
      }
    ],
    "tag": "ca52-2j-2557-a0128"
  }
}