{
  "pages": [
    [
      [
        "ข้อบัญญัติองค์การบริหารส่วนตำบลท่าคอย",
        "เรื่อง การบริหารกิจการสถานีสูบน้ำด้วยไฟฟ้า",
        "พ.ศ. ๒๕๕๙"
      ]
    ],
    []
  ],
  "metadata": {
    "date_backmatter": "2559-10-18",
    "date_modified": "2560-06-07",
    "date_original": "2560-06-07",
    "editors": [
      {
        "name": "พรวิภา/ภวรรณตรี",
        "role": "จัดทำ",
        "date": "2560-06-12"
      },
      {
        "name": "ปริญสินีย์",
        "role": "ตรวจ",
        "date": "2560-07-31"
      }
    ],
    "tag": "ca52-2j-2560-a0468"
  }
}