{
  "pages": [
    [
      [
        "ข้อบัญญัติองค์การบริหารส่วนตำบลหัวช้าง",
        "เรื่อง การใช้น้ำประปาขององค์การบริหารส่วนตำบลหัวช้าง พ.ศ. ๒๕๕๘"
      ]
    ],
    []
  ],
  "metadata": {
    "date_backmatter": "2558-01-29",
    "date_modified": "2558-09-08",
    "date_original": "2558-09-08",
    "editors": [
      {
        "name": "ปริยานุช",
        "role": "ผู้จัดทำ",
        "date": "2558-09-16"
      },
      {
        "name": "ปุณิกา",
        "role": "ผู้ตรวจ",
        "date": "2558-10-06"
      }
    ],
    "tag": "ca52-2j-2558-a0540"
  }
}