{
  "pages": [
    [
      [
        "ข้อบัญญัติองค์การบริหารส่วนตำบลหนองบุนนาก",
        "เรื่อง การควบคุมกิจการเกี่ยวกับไม้",
        "พ.ศ. ๒๕๕๘"
      ]
    ],
    []
  ],
  "metadata": {
    "date_backmatter": "2558-08-31",
    "date_modified": "2558-12-30",
    "date_original": "2558-12-30",
    "editors": [
      {
        "name": "ปุณิกา/ปริยานุช",
        "role": "จัดทำ",
        "date": "2559-01-11"
      }
    ],
    "tag": "ca52-2j-2558-a1033"
  }
}