{
  "pages": [
    [
      [
        "ข้อบัญญัติองค์การบริหารส่วนตำบลกุดบง",
        "เรื่อง การควบคุมแหล่งเพาะพันธุ์ยุงลาย",
        "พ.ศ. ๒๕๕๙"
      ]
    ],
    []
  ],
  "metadata": {
    "date_backmatter": "2559-03-01",
    "date_modified": "2560-09-14",
    "date_original": "2560-09-14",
    "editors": [
      {
        "name": "ปวันวิทย์/ภวรรณตรี",
        "role": "จัดทำ",
        "date": "2560-09-19"
      }
    ],
    "tag": "ca52-2j-2560-a0686"
  }
}