{
  "pages": [
    [
      [
        "ข้อบัญญัติองค์การบริหารส่วนตำบลจุมพล",
        "เรื่อง การจัดการสิ่งปฏิกูล",
        "พ.ศ. ๒๕๕๙"
      ]
    ],
    []
  ],
  "metadata": {
    "date_backmatter": "2559-06-03",
    "date_modified": "2560-01-04",
    "date_original": "2560-01-04",
    "editors": [
      {
        "name": "ปริยานุช",
        "role": "จัดทำ",
        "date": "2560-01-10"
      },
      {
        "name": "ชวัลพร",
        "role": "ตรวจ",
        "date": "2560-02-14"
      }
    ],
    "tag": "ca52-2j-2560-a0009"
  }
}