{
  "pages": [
    [
      [
        "ข้อบัญญัติองค์การบริหารส่วนตำบลบ้านร้อง",
        "เรื่อง การควบคุมการเลี้ยงสัตว์หรือปล่อยสัตว์",
        "พ.ศ. ๒๕๖๐"
      ]
    ],
    []
  ],
  "metadata": {
    "date_backmatter": "2560-04-03",
    "date_modified": "2561-01-19",
    "date_original": "2561-01-19",
    "editors": [
      {
        "name": "พัชรภรณ์",
        "role": "จัดทำ",
        "date": "2561-03-22"
      }
    ],
    "tag": "ca52-2j-2561-a0009"
  }
}