{
  "pages": [
    [
      [
        "ประกาศกระทรวงมหาดไทย",
        "เรื่อง องค์การบริหารส่วนตำบลบ้านผือ อำเภอบ้านผือ จังหวัดอุดรธานี",
        "แยกพื้นที่บางส่วนไปรวมกับเทศบาลตำบลบ้านผือ อำเภอบ้านผือ จังหวัดอุดรธานี"
      ]
    ],
    []
  ],
  "metadata": {
    "date_backmatter": "2555-08-06",
    "date_modified": "2555-09-01",
    "date_original": "2555-09-01",
    "doctype": "ประกาศ",
    "editors": [
      {
        "name": "ปริยานุช",
        "role": "ผู้จัดทำ",
        "date": "2555-09-04"
      },
      {
        "name": "ปณตภร",
        "role": "ผู้ตรวจ",
        "date": "2555-09-13"
      }
    ],
    "tag": "ca52-2e-2555-a0006"
  }
}