{
  "pages": [
    [
      [
        "ข้อบัญญัติองค์การบริหารส่วนตำบลห้วยทับมอญ",
        "เรื่อง การขุดดินและถมดิน",
        "พ.ศ. ๒๕๕๖"
      ]
    ],
    []
  ],
  "metadata": {
    "date_backmatter": "2556-05-27",
    "date_modified": "2556-12-26",
    "date_original": "2556-12-26",
    "editors": [
      {
        "name": "ปริยานุช",
        "role": "ผู้จัดทำ",
        "date": "2557-01-06"
      },
      {
        "name": "โชติกานต์",
        "role": "ผู้ตรวจ",
        "date": "2557-01-06"
      }
    ],
    "tag": "ca52-2j-2556-a0227"
  }
}