{
  "pages": [
    [
      [
        "ประกาศกระทรวงศึกษาธิการ",
        "เรื่อง การจัดตั้งส่วนราชการในสถาบันการอาชีวศึกษาภาคใต้ ๒",
        "สังกัดสำนักงานคณะกรรมการการอาชีวศึกษา"
      ]
    ],
    []
  ],
  "metadata": {
    "date_backmatter": "2556-10-22",
    "date_modified": "2556-11-22",
    "date_original": "2556-11-22",
    "doctype": "ประกาศ",
    "editors": [
      {
        "name": "ปริยานุช",
        "role": "ผู้จัดทำ",
        "date": "2556-11-26"
      },
      {
        "name": "อุษมล",
        "role": "ผู้ตรวจ",
        "date": "2556-12-04"
      },
      {
        "name": "ภัทรพล",
        "role": "ปรับปรุง",
        "date": "2561-01-03"
      }
    ],
    "tag": "a1130-2e-2556-a0021"
  }
}