{
  "pages": [
    [
      [
        "ประกาศกระทรวงศึกษาธิการ",
        "เรื่อง ตัวชี้วัด และระดับคุณภาพการประเมินความพร้อมในการจัดการอาชีวศึกษา",
        "ขององค์กรปกครองส่วนท้องถิ่น"
      ]
    ],
    []
  ],
  "metadata": {
    "date_backmatter": "2556-12-20",
    "date_modified": "2557-01-09",
    "date_original": "2557-01-09",
    "doctype": "ประกาศ",
    "editors": [
      {
        "name": "ปริยานุช",
        "role": "ผู้จัดทำ",
        "date": "2557-01-14"
      },
      {
        "name": "อุษมล",
        "role": "ผู้ตรวจ",
        "date": "2557-02-13"
      },
      {
        "name": "ภัทรพล",
        "role": "ปรับปรุง",
        "date": "2561-01-03"
      }
    ],
    "tag": "a1130-2e-2557-a0002"
  }
}