{
  "pages": [
    [
      [
        "ประกาศกระทรวงพลังงาน",
        "เรื่อง หลักเกณฑ์การป้องกันการสะสมของประจุไฟฟ้าสถิต",
        "พ.ศ. ๒๕๕๙"
      ]
    ],
    []
  ],
  "metadata": {
    "date_backmatter": "2559-05-03",
    "date_modified": "2559-06-02",
    "date_original": "2559-06-02",
    "doctype": "ประกาศ",
    "editors": [
      {
        "name": "กัญฑรัตน์/ปริยานุช",
        "role": "จัดทำ",
        "date": "2559-06-06"
      },
      {
        "name": "นุสรา",
        "role": "ตรวจ",
        "date": "2559-07-13"
      }
    ],
    "tag": "a485-2e-2559-a0004"
  }
}