{
  "pages": [
    [
      [
        "ประกาศกระทรวงพลังงาน",
        "เรื่อง ระบบรับและจ่ายน้ำมันเชื้อเพลิงเหนือถังสำหรับระบบควบคุมไอน้ำมันเชื้อเพลิง",
        "พ.ศ. ๒๕๕๓"
      ]
    ],
    []
  ],
  "metadata": {
    "date_backmatter": "2553-04-30",
    "date_modified": "2553-05-06",
    "date_original": "2553-05-06",
    "doctype": "ประกาศ",
    "editors": [
      {
        "name": "ปริยานุช",
        "role": "ผู้จัดทำ",
        "date": "2553-06-01"
      },
      {
        "name": "นันท์นภัสร์",
        "role": "ตรวจ",
        "date": "2553-06-01"
      }
    ],
    "tag": "a485-2e-2553-a0001"
  }
}