{
  "pages": [
    [
      [
        "ประกาศกระทรวงพลังงาน",
        "เรื่อง หลักเกณฑ์และวิธีการในการจัดให้มีการประกันภัยความรับผิดตามกฎหมายแก่ผู้ได้รับความเสียหาย",
        "จากภัยอันเกิดจากการประกอบกิจการควบคุมประเภทที่ ๓",
        "พ.ศ. ๒๕๕๗"
      ]
    ],
    []
  ],
  "metadata": {
    "date_backmatter": "2557-10-20",
    "date_modified": "2557-11-20",
    "date_original": "2557-11-20",
    "doctype": "ประกาศ",
    "editors": [
      {
        "name": "ปริยานุช",
        "role": "ผู้จัดทำ",
        "date": "2557-11-24"
      },
      {
        "name": "กฤษดายุทธ",
        "role": "ผู้ตรวจ",
        "date": "2557-11-24"
      }
    ],
    "tag": "a485-2e-2557-a0010"
  }
}