{
  "pages": [
    [
      [
        "กฎกระทรวง",
        "กำหนดคุณสมบัติของผู้ทดสอบและตรวจสอบน้ำมัน",
        "และผู้ปฏิบัติงานเกี่ยวกับการทดสอบและตรวจสอบน้ำมัน และหลักเกณฑ์ วิธีการ และเงื่อนไข",
        "ในการทดสอบและตรวจสอบน้ำมัน",
        "พ.ศ. ๒๕๕๖"
      ]
    ],
    []
  ],
  "metadata": {
    "date_backmatter": "2556-02-18",
    "date_modified": "2556-03-27",
    "date_original": "2556-03-27",
    "doctype": "กฎกระทรวง",
    "editors": [
      {
        "name": "ปริยานุช",
        "role": "ผู้จัดทำ",
        "date": "2556-03-28"
      },
      {
        "name": "ชาญ",
        "role": "ผู้ตรวจ",
        "date": "2556-04-11"
      }
    ],
    "tag": "a485-2b-2556-a0004"
  }
}