{
  "pages": [
    [
      [
        "พระราชบัญญัติ",
        "ควบคุมน้ำมันเชื้อเพลิง (ฉบับที่ ๒)",
        "พ.ศ. ๒๕๕๐",
        "",
        "",
        "ภูมิพลอดุลยเดช ป.ร.",
        "ให้ไว้ ณ วันที่ ๙ ตุลาคม พ.ศ. ๒๕๕๐",
        "เป็นปีที่ ๖๒ ในรัชกาลปัจจุบัน"
      ]
    ],
    []
  ],
  "metadata": {
    "date_backmatter": "2514-12-29",
    "date_header": "2550-10-09",
    "date_modified": "2550-10-18",
    "date_original": "2550-10-18",
    "doctype": "พระราชบัญญัติ",
    "editors": [
      {
        "name": "ปริยานุช",
        "role": "ผู้จัดทำ",
        "date": "2550-10-31"
      },
      {
        "name": "วศิน",
        "role": "แก้ไข",
        "date": "2552-06-15"
      },
      {
        "name": "ปณตภร",
        "role": "ปรับปรุง",
        "date": "2557-06-09"
      }
    ],
    "tag": "a485-20-2550-a0001",
    "title": "ควบคุมน้ำมันเชื้อเพลิง (ฉบับที่ ๒)"
  }
}