{
  "pages": [
    [
      [
        "กฎกระทรวง",
        "ระบบการขนส่งก๊าซปิโตรเลียมเหลวทางท่อ",
        "พ.ศ. ๒๕๖๐"
      ]
    ],
    []
  ],
  "metadata": {
    "date_backmatter": "2560-09-22",
    "date_modified": "2560-10-05",
    "date_original": "2560-10-05",
    "doctype": "กฎกระทรวง",
    "editors": [
      {
        "name": "พัชรภรณ์/อัญชลี",
        "role": "จัดทำ",
        "date": "2560-10-09"
      },
      {
        "name": "ปริญสินีย์",
        "role": "ตรวจ",
        "date": "2560-11-27"
      }
    ],
    "tag": "a485-2b-2560-a0063"
  }
}