{
  "pages": [
    [
      [
        "ประกาศการไฟฟ้านครหลวง",
        "ที่ ๖/๒๕๔๙",
        "เรื่อง โครงสร้างการจัดองค์กรในการดำเนินงาน สรุปอำนาจหน้าที่ที่สำคัญ",
        "วิธีการดำเนินงานและสถานที่ติดต่อเพื่อขอรับข้อมูลข่าวสาร",
        "ของการไฟฟ้านครหลวง"
      ]
    ],
    []
  ],
  "metadata": {
    "date_backmatter": "2549-02-17",
    "date_modified": "2550-04-19",
    "date_original": "2550-04-19",
    "doctype": "ประกาศ",
    "editors": [
      {
        "name": "วัชศักดิ์",
        "role": "ผู้จัดทำ",
        "date": "2550-05-08"
      }
    ],
    "tag": "a130-2e-2550-a0002"
  }
}