{
  "pages": [
    [
      [
        "ประกาศการไฟฟ้านครหลวง",
        "เรื่อง การออกพันธบัตรการไฟฟ้านครหลวง พ.ศ. ๒๕๕๖",
        "ครั้งที่ ๑"
      ]
    ],
    []
  ],
  "metadata": {
    "date_backmatter": "2556-09-11",
    "date_modified": "2556-10-01",
    "date_original": "2556-10-01",
    "doctype": "ประกาศ",
    "editors": [
      {
        "name": "ปริยานุช",
        "role": "ผู้จัดทำ",
        "date": "2556-10-08"
      },
      {
        "name": "โชติกานต์",
        "role": "ผู้ตรวจ",
        "date": "2556-10-14"
      }
    ],
    "tag": "a130-2e-2556-a0001"
  }
}