{
  "pages": [
    [
      [
        "พระราชบัญญัติ",
        "การไฟฟ้านครหลวง",
        "พ.ศ. ๒๕๐๑",
        "",
        "",
        "ภูมิพลอดุลยเดช ป.ร.",
        "ให้ไว้ ณ วันที่ ๓๐ กรกฎาคม พ.ศ. ๒๕๐๑",
        "เป็นปีที่ ๑๓ ในรัชกาลปัจจุบัน"
      ]
    ],
    []
  ],
  "metadata": {
    "date_header": "2501-07-30",
    "date_modified": "2530-08-19",
    "date_original": "2501-07-31",
    "doctype": "พระราชบัญญัติ",
    "editors": [
      {
        "name": "วศิน",
        "role": "ผู้จัดทำ",
        "date": "2552-04-28"
      }
    ],
    "tag": "a130-20-2530-002u",
    "title": "การไฟฟ้านครหลวง"
  }
}