{
  "pages": [
    [
      [
        "ข้อบังคับการไฟฟ้านครหลวง",
        "ว่าด้วยการมอบอำนาจที่เกี่ยวข้องกับบุคคลภายนอก",
        "พ.ศ. ๒๕๔๙"
      ]
    ],
    []
  ],
  "metadata": {
    "date_backmatter": "2549-11-03",
    "date_modified": "2550-12-12",
    "date_original": "2550-12-12",
    "editors": [
      {
        "name": "วัชศักดิ์",
        "role": "ผู้จัดทำ",
        "date": "2551-01-16"
      }
    ],
    "tag": "a130-2i-2550-a0010"
  }
}