{
  "pages": [
    [
      [
        "ข้อบังคับการไฟฟ้านครหลวง",
        "ว่าด้วยการใช้ไฟฟ้าและบริการ",
        "(ฉบับที่ ๕)",
        "พ.ศ. ๒๕๕๓"
      ]
    ],
    []
  ],
  "metadata": {
    "date_backmatter": "2553-08-09",
    "date_modified": "2553-12-13",
    "date_original": "2553-12-13",
    "editors": [
      {
        "name": "ปริยานุช",
        "role": "ผู้จัดทำ",
        "date": "2553-12-21"
      },
      {
        "name": "ณัฐวดี",
        "role": "ตรวจ",
        "date": "2553-12-21"
      }
    ],
    "tag": "a130-2i-2553-a0003"
  }
}