{
  "pages": [
    [
      [
        "ระเบียบกระทรวงมหาดไทย",
        "ว่าด้วยเงินเดือนของข้าราชการส่วนท้องถิ่นผู้ถูกสั่งพักราชการหรือพักงาน",
        "(ฉบับที่ ๒) พ.ศ. ๒๕๔๑"
      ]
    ],
    []
  ],
  "metadata": {
    "date_backmatter": "2541-07-03",
    "date_modified": "2541-07-14",
    "date_original": "2541-07-14",
    "editors": [
      {
        "name": "สถาพร",
        "role": "ปรับปรุง",
        "date": "2550-01-22"
      },
      {
        "name": "สุกัญญา",
        "role": "แก้ไข",
        "date": "2551-10-15"
      },
      {
        "name": "ศิรวัชร์",
        "role": "ปรับปรุง",
        "date": "2561-09-25"
      }
    ],
    "tag": "cd16-2g-2541-a009"
  }
}