{
  "pages": [
    [
      [
        "ระเบียบกระทรวงมหาดไทย",
        "ว่าด้วยค่าใช้จ่ายการคัดเลือกพนักงานและลูกจ้างขององค์กรปกครองส่วนท้องถิ่น (ฉบับที่ ๒)",
        "พ.ศ. ๒๕๕๘"
      ]
    ],
    []
  ],
  "metadata": {
    "date_backmatter": "2558-06-24",
    "date_modified": "2558-07-07",
    "date_original": "2558-07-07",
    "editors": [
      {
        "name": "ปริยานุช",
        "role": "ผู้จัดทำ",
        "date": "2558-07-09"
      },
      {
        "name": "ปุณิกา",
        "role": "ผู้ตรวจ",
        "date": "2558-07-15"
      }
    ],
    "tag": "cd16-2g-2558-a0006"
  }
}