{
  "pages": [
    [
      [
        "ระเบียบกระทรวงมหาดไทย",
        "ว่าด้วยการพัสดุของหน่วยการบริหารราชการส่วนท้องถิ่น (ฉบับที่ ๑๐)",
        "พ.ศ. ๒๕๕๘"
      ]
    ],
    []
  ],
  "metadata": {
    "date_backmatter": "2558-09-23",
    "date_modified": "2558-09-25",
    "date_original": "2558-09-25",
    "editors": [
      {
        "name": "ปริยานุช",
        "role": "จัดทำ",
        "date": "2558-09-30"
      },
      {
        "name": "วริญา",
        "role": "ตรวจ",
        "date": "2558-09-30"
      }
    ],
    "tag": "cd16-2g-2558-a0007"
  }
}