{
  "pages": [
    [
      [
        "ระเบียบกระทรวงมหาดไทย",
        "ว่าด้วยวิธีการงบประมาณขององค์กรปกครองส่วนท้องถิ่น",
        "พ.ศ. ๒๕๔๑"
      ]
    ],
    []
  ],
  "metadata": {
    "date_backmatter": "2541-07-03",
    "date_modified": "2541-07-14",
    "date_original": "2541-07-14",
    "editors": [
      {
        "name": "ปณตภร",
        "role": "ผู้จัดทำ",
        "date": "2554-10-26"
      }
    ],
    "tag": "cd16-2g-2541-a004"
  }
}