{
  "pages": [
    [
      [
        "ระเบียบกระทรวงมหาดไทย",
        "ว่าด้วยการกำหนดการสรรหาผู้ทรงคุณวุฒิ",
        "การเลือกผู้แทนนายกองค์การบริหารส่วนจังหวัด",
        "และผู้แทนปลัดองค์การบริหารส่วนจังหวัด",
        "พ.ศ. ๒๕๔๑"
      ]
    ],
    []
  ],
  "metadata": {
    "date_backmatter": "2541-04-23",
    "date_modified": "2541-04-30",
    "date_original": "2541-04-30",
    "editors": [
      {
        "name": "อัมภิญา",
        "role": "พิมพ์",
        "date": "2551-02-18"
      },
      {
        "name": "ศิรวัชร์",
        "role": "ปรับปรุง",
        "date": "2561-09-26"
      }
    ],
    "tag": "cd16-2g-2541-006"
  }
}