{
  "pages": [
    [
      [
        "ระเบียบกระทรวงมหาดไทย",
        "ว่าด้วยการลาของคณะผู้บริหารท้องถิ่นหรือผู้บริหารท้องถิ่น",
        "ประธานสภา รองประธานสภาและสมาชิกสภาท้องถิ่น",
        "พ.ศ. ๒๕๔๒"
      ]
    ],
    []
  ],
  "metadata": {
    "date_backmatter": "2542-05-12",
    "date_modified": "2542-05-21",
    "date_original": "2542-05-21",
    "editors": [
      {
        "name": "ดลธี",
        "role": "พิมพ์",
        "date": "2551-02-19"
      },
      {
        "name": "ศิรวัชร์",
        "role": "ปรับปรุง",
        "date": "2561-09-24"
      }
    ],
    "tag": "cd16-2g-2542-a002"
  }
}