{
  "pages": [
    [
      [
        "ระเบียบกระทรวงมหาดไทย",
        "ว่าด้วยการเบิกจ่ายค่าวัสดุเครื่องแต่งกายของเจ้าหน้าที่ท้องถิ่น",
        "พ.ศ. ๒๕๖๐"
      ]
    ],
    []
  ],
  "metadata": {
    "date_backmatter": "2560-08-30",
    "date_modified": "2560-09-29",
    "date_original": "2560-09-29",
    "editors": [
      {
        "name": "ภวรรณตรี",
        "role": "จัดทำ",
        "date": "2560-10-16"
      },
      {
        "name": "ปุณิกา",
        "role": "ตรวจ",
        "date": "2560-10-16"
      }
    ],
    "tag": "cd16-2g-2560-a0004"
  }
}