{
  "pages": [
    [
      [
        "ระเบียบกระทรวงมหาดไทย",
        "ว่าด้วยการแก้ไขเพิ่มเติมความในระเบียบกระทรวงมหาดไทย",
        "ให้สอดคล้องกับการโอนกิจการบริหารและอำนาจหน้าที่ของส่วนราชการ",
        "ตามพระราชกฤษฎีกาซึ่งออกตามพระราชบัญญัติปรับปรุงกระทรวง",
        "ทบวง กรม พ.ศ. ๒๕๔๕ พ.ศ. ๒๕๔๖"
      ]
    ],
    []
  ],
  "metadata": {
    "date_backmatter": "2546-05-28",
    "date_modified": "2546-06-09",
    "date_original": "2546-06-09",
    "editors": [
      {
        "name": "สุภาพร",
        "role": "พิมพ์",
        "date": "2546-09-17"
      },
      {
        "name": "สุภาพร",
        "role": "แก้ไข",
        "date": "2546-10-27"
      },
      {
        "name": "พัลลภ/สราวุฒิ",
        "role": "ตรวจ",
        "date": "2546-10-13"
      },
      {
        "name": "สุกัญญา",
        "role": "แก้ไข",
        "date": "2551-10-15"
      },
      {
        "name": "ศิรวัชร์",
        "role": "ปรับปรุง",
        "date": "2561-09-21"
      }
    ],
    "tag": "cd16-2g-2546-a0001"
  }
}