{
  "pages": [
    [
      [
        "ระเบียบกระทรวงมหาดไทย",
        "ว่าด้วยข้อบังคับการประชุมสภาท้องถิ่น พ.ศ. ๒๕๔๗"
      ]
    ],
    []
  ],
  "metadata": {
    "date_backmatter": "2547-09-17",
    "date_modified": "2547-11-01",
    "date_original": "2547-11-01",
    "editors": [
      {
        "name": "สุภาพร",
        "role": "พิมพ์",
        "date": "2548-03-30"
      },
      {
        "name": "สุนันทา/นวพร",
        "role": "ตรวจ",
        "date": "2548-04-22"
      },
      {
        "name": "สุกัญญา",
        "role": "แก้ไข",
        "date": "2551-10-15"
      }
    ],
    "tag": "cd16-2g-2547-a0003"
  }
}