{
  "pages": [
    [
      [
        "ระเบียบกระทรวงมหาดไทย",
        "ว่าด้วยการยึด อายัด และขายทอดตลาดทรัพย์สินขององค์กรปกครองส่วนท้องถิ่น",
        "พ.ศ. ๒๕๕๑"
      ]
    ],
    []
  ],
  "metadata": {
    "date_backmatter": "2551-04-11",
    "date_modified": "2555-04-30",
    "date_original": "2551-06-04",
    "editors": [
      {
        "name": "วัชศักดิ์",
        "role": "ผู้จัดทำ",
        "date": "2551-06-09"
      },
      {
        "name": "ณัฐพร",
        "role": "ปรับปรุง",
        "date": "2556-06-18"
      },
      {
        "name": "โชติกานต์",
        "role": "ปรับปรุง",
        "date": "2558-08-11"
      }
    ],
    "tag": "cd16-2g-9994-update"
  }
}