{
  "pages": [
    [
      [
        "ประกาศองค์การบริหารส่วนจังหวัดขอนแก่น",
        "เรื่อง การจัดแบ่งส่วนราชการองค์การบริหารส่วนจังหวัดขอนแก่น"
      ]
    ],
    []
  ],
  "metadata": {
    "date_backmatter": "2541-07-31",
    "date_modified": "2542-07-06",
    "date_original": "2542-07-06",
    "doctype": "ประกาศ",
    "editors": [
      {
        "name": "สุกัญญา",
        "role": "แก้ไข",
        "date": "2551-10-15"
      },
      {
        "name": "ศิรวัชร์",
        "role": "ปรับปรุง",
        "date": "2561-09-05"
      }
    ],
    "tag": "cd16-2e-2542-a0001"
  }
}