{
  "pages": [
    [
      [
        "ระเบียบสภาเทศบาลเมืองตราด",
        "ว่าด้วยหลักเกณฑ์และวิธีการสำหรับให้ประชาชนเข้าฟังการประชุมสภาเทศบาลเมืองตราด",
        "พ.ศ. ๒๕๕๐"
      ]
    ],
    []
  ],
  "metadata": {
    "date_backmatter": "2550-08-15",
    "date_modified": "2550-09-24",
    "date_original": "2550-09-24",
    "editors": [
      {
        "name": "ปริยานุช",
        "role": "จัดทำ",
        "date": "2550-10-08"
      },
      {
        "name": "ศิรวัชร์",
        "role": "ปรับปรุง",
        "date": "2561-09-14"
      }
    ],
    "tag": "cd16-2g-2550-a0003"
  }
}