{
  "pages": [
    [
      [
        "ระเบียบกระทรวงมหาดไทย",
        "ว่าด้วยการจ้างลูกจ้างของหน่วยการบริหารราชการส่วนท้องถิ่น",
        "(ฉบับที่ ๓) พ.ศ. ๒๕๔๑"
      ]
    ],
    []
  ],
  "metadata": {
    "date_backmatter": "2541-01-12",
    "date_modified": "2541-03-12",
    "date_original": "2541-03-12",
    "editors": [
      {
        "name": "นันทพล",
        "role": "ปรับปรุง",
        "date": "2550-01-22"
      }
    ],
    "tag": "cd16-2g-2541-a016"
  }
}