{
  "pages": [
    [
      [
        "ระเบียบกระทรวงมหาดไทย",
        "ว่าด้วยเงินสวัสดิการเกี่ยวกับการศึกษาของบุตรพนักงานส่วนท้องถิ่น",
        "พ.ศ. ๒๕๔๑"
      ]
    ],
    []
  ],
  "metadata": {
    "date_backmatter": "2541-07-03",
    "date_modified": "2541-10-09",
    "date_original": "2541-07-14",
    "editors": [],
    "tag": "cd16-2g-9996-update"
  }
}