{
  "pages": [
    [
      [
        "คำสั่งกระทรวงมหาดไทย",
        "ที่ ๓๙๓/๒๕๔๑",
        "เรื่อง การมอบอำนาจให้ผู้ว่าราชการจังหวัดปฏิบัติราชการแทน"
      ]
    ],
    []
  ],
  "metadata": {
    "date_backmatter": "2541-08-19",
    "editors": [
      {
        "name": "ณัฐดนัย",
        "role": "พิมพ์",
        "date": "2551-02-19"
      },
      {
        "name": "ศิรวัชร์",
        "role": "ปรับปรุง",
        "date": "2561-09-07"
      }
    ],
    "tag": "cd16-2f-2541-a002"
  }
}