{
  "pages": [
    [
      [
        "ระเบียบกระทรวงมหาดไทย",
        "ว่าด้วยการเบิกจ่ายเงินตอบแทนการปฏิบัติงานนอกเวลาราชการ",
        "ขององค์กรปกครองส่วนท้องถิ่น",
        "พ.ศ. ๒๕๕๙"
      ]
    ],
    []
  ],
  "metadata": {
    "date_backmatter": "2559-10-04",
    "date_modified": "2559-10-19",
    "date_original": "2559-10-19",
    "editors": [
      {
        "name": "ชนิกา/ปริยานุช",
        "role": "จัดทำ",
        "date": "2559-10-21"
      },
      {
        "name": "นุสรา",
        "role": "ตรวจ",
        "date": "2560-01-06"
      }
    ],
    "tag": "cd16-2g-2559-a0004"
  }
}