{
  "pages": [
    [
      [
        "ระเบียบของผู้ประสานงานกลาง",
        "ว่าด้วยการให้ความช่วยเหลือและการขอความช่วยเหลือ",
        "ตามกฎหมายว่าด้วยความร่วมมือระหว่างประเทศในทางแพ่ง",
        "เกี่ยวกับการละเมิดสิทธิควบคุมดูแลเด็ก",
        "พ.ศ. ๒๕๕๖"
      ]
    ],
    []
  ],
  "metadata": {
    "date_backmatter": "2556-09-25",
    "date_modified": "2556-10-09",
    "date_original": "2556-10-09",
    "editors": [
      {
        "name": "ปริยานุช",
        "role": "ผู้จัดทำ",
        "date": "2556-10-10"
      },
      {
        "name": "ชาญ",
        "role": "ผู้ตรวจ",
        "date": "2556-10-14"
      }
    ],
    "tag": "a4116-2g-2556-a0001"
  }
}