{
  "pages": [
    [
      [
        "ประกาศกระทรวงการคลัง",
        "เรื่อง กำหนดสถานที่ตั้งสำนักงานใหญ่กองทุนเงินให้กู้ยืมเพื่อการศึกษา"
      ]
    ],
    []
  ],
  "metadata": {
    "date_backmatter": "2541-05-01",
    "date_modified": "2541-05-19",
    "date_original": "2541-05-19",
    "doctype": "ประกาศ",
    "editors": [
      {
        "name": "ดลธี",
        "role": "พิมพ์",
        "date": "2553-11-18"
      }
    ],
    "tag": "c130-2e-2541-a0001"
  }
}