{
  "pages": [
    [
      [
        "พระราชบัญญัติ",
        "ระเบียบข้าราชการการเมือง (ฉบับที่ ๓)",
        "พ.ศ. ๒๕๕๐",
        "",
        "",
        "ภูมิพลอดุลยเดช ป.ร.",
        "ให้ไว้ ณ วันที่ ๑๕ กรกฎาคม พ.ศ. ๒๕๕๐",
        "เป็นปีที่ ๖๒ ในรัชกาลปัจจุบัน"
      ]
    ],
    []
  ],
  "metadata": {
    "date_header": "2550-07-15",
    "date_modified": "2550-08-01",
    "date_original": "2550-08-01",
    "doctype": "พระราชบัญญัติ",
    "editors": [
      {
        "name": "วันทิตา",
        "role": "แก้ไข",
        "date": "2556-11-26"
      },
      {
        "name": "วศิน",
        "role": "ตรวจ",
        "date": "2556-11-26"
      }
    ],
    "tag": "c307-20-2550-a0001",
    "title": "ระเบียบข้าราชการการเมือง (ฉบับที่ ๓)"
  }
}