{
  "pages": [
    [
      [
        "ประกาศธนาคารอาคารสงเคราะห์",
        "เรื่อง การจำหน่ายพันธบัตรของธนาคารอาคารสงเคราะห์",
        "พ.ศ. ๒๕๕๕ ครั้งที่ ๑๕/๓"
      ]
    ],
    []
  ],
  "metadata": {
    "date_backmatter": "2555-08-03",
    "date_modified": "2555-10-18",
    "date_original": "2555-10-18",
    "doctype": "ประกาศ",
    "editors": [
      {
        "name": "ปริยานุช",
        "role": "ผู้จัดทำ",
        "date": "2555-10-25"
      },
      {
        "name": "ณัฐพร",
        "role": "ผู้ตรวจ",
        "date": "2555-10-25"
      }
    ],
    "tag": "b806-2e-2555-a0017"
  }
}