{
  "pages": [
    [
      [
        "พระราชกฤษฎีกา",
        "เพิ่มทุนของธนาคารอาคารสงเคราะห์ (ฉบับที่ ๓)",
        "พ.ศ. ๒๕๔๒",
        "",
        "",
        "ภูมิพลอดุลยเดช ป.ร.",
        "ให้ไว้ ณ วันที่ ๗ เมษายน พ.ศ. ๒๕๔๒",
        "เป็นปีที่ ๕๔ ในรัชกาลปัจจุบัน"
      ]
    ],
    []
  ],
  "metadata": {
    "date_header": "2542-04-07",
    "date_modified": "2542-04-21",
    "date_original": "2542-04-21",
    "doctype": "พระราชกฤษฎีกา",
    "editors": [
      {
        "name": "พัสสน",
        "role": "ผู้จัดทำ",
        "date": "2552-11-26"
      }
    ],
    "tag": "b806-2a-2542-a0001",
    "title": "เพิ่มทุนของธนาคารอาคารสงเคราะห์ (ฉบับที่ ๓)"
  }
}