{
  "pages": [
    [
      [
        "ประกาศธนาคารอาคารสงเคราะห์",
        "เรื่อง การจำหน่ายพันธบัตรของธนาคารอาคารสงเคราะห์",
        "พ.ศ. ๒๕๕๗",
        "ครั้งที่ ๒"
      ]
    ],
    []
  ],
  "metadata": {
    "date_backmatter": "2557-09-23",
    "date_modified": "2557-11-10",
    "date_original": "2557-11-10",
    "doctype": "ประกาศ",
    "editors": [
      {
        "name": "ปริยานุช",
        "role": "ผู้จัดทำ",
        "date": "2557-11-13"
      },
      {
        "name": "วิศนี",
        "role": "ผู้ตรวจ",
        "date": "2557-11-17"
      }
    ],
    "tag": "b806-2e-2557-a0002"
  }
}