{
  "pages": [
    [
      [
        "กฎกระทรวง",
        "ฉบับที่ ๗ (พ.ศ. ๒๕๔๗)",
        "ออกตามความในพระราชบัญญัติธนาคารอาคารสงเคราะห์ พ.ศ. ๒๔๙๖"
      ]
    ],
    []
  ],
  "metadata": {
    "date_backmatter": "2515-12-13",
    "date_modified": "2547-05-06",
    "date_original": "2547-05-06",
    "doctype": "กฎกระทรวง",
    "editors": [
      {
        "name": "พัสสน",
        "role": "ตรวจ",
        "date": "2552-11-26"
      }
    ],
    "tag": "b806-2b-2547-a0001"
  }
}