{
  "pages": [
    [
      [
        "ประกาศธนาคารอาคารสงเคราะห์",
        "เรื่อง การจำหน่ายพันธบัตรของธนาคารอาคารสงเคราะห์",
        "พ.ศ. ๒๕๕๓ ครั้งที่ ๑๒"
      ]
    ],
    []
  ],
  "metadata": {
    "date_backmatter": "2553-06-17",
    "date_modified": "2553-07-16",
    "date_original": "2553-07-16",
    "doctype": "ประกาศ",
    "editors": [
      {
        "name": "ปริยานุช",
        "role": "ผู้จัดทำ",
        "date": "2553-07-23"
      },
      {
        "name": "นันท์นภัสร์",
        "role": "ตรวจ",
        "date": "2553-07-23"
      }
    ],
    "tag": "b806-2e-2553-a0013"
  }
}