{
  "pages": [
    [
      [
        "ประกาศกระทรวงทรัพยากรธรรมชาติและสิ่งแวดล้อม",
        "เรื่อง การแจ้งการครอบครอง การโอนการครอบครอง เปลี่ยนแปลงสถานที่ครอบครอง",
        "แปรสภาพ หรือเปลี่ยนรูปร่างงาช้าง",
        "พ.ศ. ๒๕๕๘"
      ]
    ],
    []
  ],
  "metadata": {
    "date_backmatter": "2558-01-29",
    "date_modified": "2558-02-05",
    "date_original": "2558-02-05",
    "doctype": "ประกาศ",
    "editors": [
      {
        "name": "ปริยานุช",
        "role": "ผู้จัดทำ",
        "date": "2558-02-10"
      },
      {
        "name": "กฤษดายุทธ",
        "role": "ผู้ตรวจ",
        "date": "2558-02-10"
      }
    ],
    "tag": "a710-2e-2558-a0008"
  }
}