{
  "pages": [
    [
      [
        "ประกาศบริษัท ไปรษณีย์ไทย จำกัด",
        "เรื่อง ตั้งที่ทำการไปรษณีย์สินธร"
      ]
    ],
    []
  ],
  "metadata": {
    "date_backmatter": "2550-01-31",
    "date_modified": "2550-03-08",
    "date_original": "2550-03-08",
    "doctype": "ประกาศ",
    "editors": [
      {
        "name": "โสรศ",
        "role": "ผู้จัดทำ",
        "date": "2550-03-14"
      }
    ],
    "tag": "bb31-2e-2550-a0009"
  }
}