{
  "pages": [
    [
      [
        "ประกาศกระทรวงคมนาคม",
        "เรื่อง ตั้งที่ทำการไปรษณีย์โทรเลขสำโรงใต้ และลานนา"
      ]
    ],
    []
  ],
  "metadata": {
    "date_backmatter": "2520-11-03",
    "date_modified": "2520-11-22",
    "date_original": "2520-11-22",
    "doctype": "ประกาศ",
    "editors": [
      {
        "name": "สุกัญญา",
        "role": "พิมพ์",
        "date": "2550-04-04"
      },
      {
        "name": "ฐิติพงษ์",
        "role": "ตรวจ",
        "date": "2550-04-24"
      }
    ],
    "tag": "bb31-2e-2520-a0009"
  }
}