{
  "pages": [
    [
      [
        "ประกาศคณะกรรมการกิจการไปรษณีย์",
        "เรื่อง การกำหนดวิธีปฏิบัติเกี่ยวกับการใช้ตราไปรษณียากร"
      ]
    ],
    []
  ],
  "metadata": {
    "date_backmatter": "2555-07-30",
    "date_modified": "2556-01-17",
    "date_original": "2556-01-17",
    "doctype": "ประกาศ",
    "editors": [
      {
        "name": "ปริยานุช",
        "role": "ผู้จัดทำ",
        "date": "2556-01-31"
      },
      {
        "name": "อุษมล",
        "role": "ผู้ตรวจ",
        "date": "2556-01-31"
      }
    ],
    "tag": "bb31-2e-2556-a0010"
  }
}