{
  "pages": [
    [
      [
        "ประกาศกระทรวงคมนาคม",
        "เรื่อง ตั้งที่ทำการไปรษณีย์โทรเลขดินแดง",
        "และที่ทำการไปรษณีย์โทรเลขบางอ้อ"
      ]
    ],
    []
  ],
  "metadata": {
    "date_backmatter": "2525-09-03",
    "date_modified": "2525-09-21",
    "date_original": "2525-09-21",
    "doctype": "ประกาศ",
    "editors": [
      {
        "name": "สุกัญญา",
        "role": "พิมพ์",
        "date": "2550-04-04"
      },
      {
        "name": "หทัยภัทร",
        "role": "ตรวจ",
        "date": "2550-04-26"
      }
    ],
    "tag": "bb31-2e-2525-a0003"
  }
}