{
  "pages": [
    [
      [
        "ประกาศกระทรวงเทคโนโลยีสารสนเทศและการสื่อสาร",
        "เรื่อง สร้างและจำหน่ายตราไปรษณียากรชุดพระโพธิสัตว์กวนอิม"
      ]
    ],
    []
  ],
  "metadata": {
    "date_backmatter": "2552-09-15",
    "date_modified": "2552-12-02",
    "date_original": "2552-12-02",
    "doctype": "ประกาศ",
    "editors": [
      {
        "name": "ปริยานุช",
        "role": "ผู้จัดทำ",
        "date": "2552-12-16"
      },
      {
        "name": "นันท์นภัสร์",
        "role": "ตรวจ",
        "date": "2552-12-16"
      }
    ],
    "tag": "bb31-2e-2552-a0035"
  }
}