{
  "pages": [
    [
      [
        "ประกาศกระทรวงเทคโนโลยีสารสนเทศและการสื่อสาร",
        "เรื่อง สร้างและจำหน่ายตราไปรษณียากรชุดนักษัตรประจำปี"
      ]
    ],
    []
  ],
  "metadata": {
    "date_backmatter": "2548-12-23",
    "date_modified": "2549-01-26",
    "date_original": "2549-01-26",
    "doctype": "ประกาศ",
    "editors": [
      {
        "name": "พชร",
        "role": "ผู้จัดทำ",
        "date": "2549-02-01"
      }
    ],
    "tag": "bb31-2e-2549-a0004"
  }
}