{
  "pages": [
    [
      [
        "ประกาศกระทรวงคมนาคม",
        "เรื่อง ตั้งที่ทำการไปรษณีย์โทรเลขตลาดใหญ่"
      ]
    ],
    []
  ],
  "metadata": {
    "date_backmatter": "2522-06-20",
    "date_modified": "2522-07-03",
    "date_original": "2522-07-03",
    "doctype": "ประกาศ",
    "editors": [
      {
        "name": "สุกัญญา",
        "role": "พิมพ์",
        "date": "2550-04-04"
      },
      {
        "name": "ฐิติพงษ์",
        "role": "ตรวจ",
        "date": "2550-04-25"
      }
    ],
    "tag": "bb31-2e-2522-a0004"
  }
}