{
  "pages": [
    [
      [
        "กฎกระทรวง",
        "ฉบับที่ ๑๖ (พ.ศ. ๒๕๑๖)",
        "ออกตามความในพระราชบัญญัติไปรษณีย์",
        "พุทธศักราช ๒๔๗๗"
      ]
    ],
    []
  ],
  "metadata": {
    "date_backmatter": "2516-01-08",
    "date_modified": "2516-01-16",
    "date_original": "2516-01-16",
    "doctype": "กฎกระทรวง",
    "editors": [
      {
        "name": "สุกัญญา",
        "role": "พิมพ์",
        "date": "2550-04-02"
      },
      {
        "name": "ฐิติพงษ์",
        "role": "ตรวจ",
        "date": "2550-04-02"
      }
    ],
    "tag": "bb31-2b-2516-017"
  }
}