{
  "pages": [
    [
      [
        "ประกาศ บริษัท ไปรษณีย์ไทย จำกัด",
        "เรื่อง จัดตั้งที่ทำการไปรษณีย์เมืองราชและตลาดเก้าแสน"
      ]
    ],
    []
  ],
  "metadata": {
    "date_backmatter": "2557-08-22",
    "date_modified": "2557-11-06",
    "date_original": "2557-11-06",
    "doctype": "ประกาศ",
    "editors": [
      {
        "name": "ปริยานุช",
        "role": "ผู้จัดทำ",
        "date": "2557-11-11"
      },
      {
        "name": "ภีราพร",
        "role": "ผู้ตรวจ",
        "date": "2557-11-12"
      }
    ],
    "tag": "bb31-2e-2557-a0033"
  }
}