{
  "pages": [
    [
      [
        "ประกาศกระทรวงเทคโนโลยีสารสนเทศและการสื่อสาร",
        "เรื่อง สร้างและจำหน่ายตราไปรษณียากรที่ระลึกงานเฉลิมพระเกียรติสมเด็จพระเทพรัตนราชสุดาฯ",
        "สยามบรมราชกุมารี ในโอกาสฉลองพระชนมายุ ๕ รอบ ๒ เมษายน ๒๕๕๘"
      ]
    ],
    []
  ],
  "metadata": {
    "date_backmatter": "2558-09-03",
    "date_header": "2558-04-02",
    "date_modified": "2558-10-07",
    "date_original": "2558-10-07",
    "doctype": "ประกาศ",
    "editors": [
      {
        "name": "ปริยานุช",
        "role": "ผู้จัดทำ",
        "date": "2558-10-15"
      },
      {
        "name": "วิศนี",
        "role": "ผู้ตรวจ",
        "date": "2558-10-26"
      }
    ],
    "tag": "bb31-2e-2558-a0002"
  }
}