{
  "pages": [
    [
      [
        "ประกาศกระทรวงเทคโนโลยีสารสนเทศและการสื่อสาร",
        "เรื่อง สร้างและจำหน่ายตราไปรษณียากรชุดพระเบญจภาคีเหรียญเกจิอาจารย์"
      ]
    ],
    []
  ],
  "metadata": {
    "date_backmatter": "2555-01-10",
    "date_modified": "2555-02-07",
    "date_original": "2555-02-07",
    "doctype": "ประกาศ",
    "editors": [
      {
        "name": "ปริยานุช",
        "role": "ผู้จัดทำ",
        "date": "2555-02-13"
      },
      {
        "name": "ณัฐพร",
        "role": "ผู้ตรวจ",
        "date": "2555-02-13"
      }
    ],
    "tag": "bb31-2e-2555-a0004"
  }
}