{
  "pages": [
    [
      [
        "ประกาศกระทรวงเทคโนโลยีสารสนเทศและการสื่อสาร",
        "เรื่อง สร้างและจำหน่ายตราไปรษณียากรชุดประเพณีไทย"
      ]
    ],
    []
  ],
  "metadata": {
    "date_backmatter": "2552-07-03",
    "date_modified": "2552-08-21",
    "date_original": "2552-08-21",
    "doctype": "ประกาศ",
    "editors": [
      {
        "name": "ปริยานุช",
        "role": "ผู้จัดทำ",
        "date": "2552-08-31"
      }
    ],
    "tag": "bb31-2e-2552-a0023"
  }
}