{
  "pages": [
    [
      [
        "ประกาศกระทรวงคมนาคม",
        "เรื่อง ตั้งที่ทำการไปรษณีย์โทรเลขสีลม",
        "และที่ทำการไปรษณีย์โทรเลขจิรประวัติ"
      ]
    ],
    []
  ],
  "metadata": {
    "date_backmatter": "2526-02-28",
    "date_modified": "2526-03-15",
    "date_original": "2526-03-15",
    "doctype": "ประกาศ",
    "editors": [
      {
        "name": "สุกัญญา",
        "role": "พิมพ์",
        "date": "2550-04-04"
      },
      {
        "name": "หทัยภัทร",
        "role": "ตรวจ",
        "date": "2550-04-26"
      }
    ],
    "tag": "bb31-2e-2526-a0002"
  }
}