{
  "pages": [
    [
      [
        "พระราชบัญญัติไปรษณีย์",
        "พุทธศักราช ๒๔๗๗",
        "",
        "",
        "นริศรานุวัดติวงศ์",
        "ผู้สำเร็จราชการแทนพระองค์",
        "(ตามพระราชกฤษฎีกาลงวันที่ ๑๑ มกราคม พ.ศ.๒๔๗๖)"
      ]
    ],
    []
  ],
  "metadata": {
    "date_backmatter": "2477-01-31",
    "date_header": "2476-01-11",
    "date_modified": "2477-02-10",
    "date_original": "2477-02-10",
    "doctype": "พระราชบัญญัติ",
    "editors": [
      {
        "name": "ชาญ",
        "role": "ผู้จัดทำ",
        "date": "2554-05-04"
      }
    ],
    "tag": "bb31-20-9999-update",
    "title": "ไปรษณีย์"
  }
}