{
  "pages": [
    [
      [
        "ประกาศกระทรวงเทคโนโลยีสารสนเทศและการสื่อสาร",
        "เรื่อง สร้างและจำหน่ายตราไปรษณียากรชุดพืชผักสวนครัว"
      ]
    ],
    []
  ],
  "metadata": {
    "date_backmatter": "2554-01-25",
    "date_modified": "2554-03-04",
    "date_original": "2554-03-04",
    "doctype": "ประกาศ",
    "editors": [
      {
        "name": "ปริยานุช",
        "role": "ผู้จัดทำ",
        "date": "2554-03-15"
      },
      {
        "name": "ณัฐวดี",
        "role": "ตรวจ",
        "date": "2554-03-15"
      }
    ],
    "tag": "bb31-2e-2554-a0006"
  }
}