{
  "pages": [
    [
      [
        "ประกาศบริษัท ไปรษณีย์ไทย จำกัด",
        "เรื่อง เปลี่ยนชื่อที่ทำการไปรษณีย์บ้านกาด เป็นที่ทำการไปรษณีย์แม่วาง"
      ]
    ],
    []
  ],
  "metadata": {
    "date_backmatter": "2555-02-16",
    "date_modified": "2555-03-29",
    "date_original": "2555-03-29",
    "doctype": "ประกาศ",
    "editors": [
      {
        "name": "ปริยานุช",
        "role": "ผู้จัดทำ",
        "date": "2555-04-05"
      },
      {
        "name": "ชาญ",
        "role": "ผู้ตรวจ",
        "date": "2555-04-10"
      }
    ],
    "tag": "bb31-2e-2555-a0006"
  }
}