{
  "pages": [
    [
      [
        "ประกาศกระทรวงเทคโนโลยีสารสนเทศและการสื่อสาร",
        "เรื่อง สร้างและจำหน่ายตราไปรษณียากรที่ระลึก ๑๕๐ ปี วันพระราชสมภพ",
        "สมเด็จพระศรีสวรินทิรา บรมราชเทวี พระพันวัสสาอัยยิกาเจ้า ชุดที่ ๓"
      ]
    ],
    []
  ],
  "metadata": {
    "date_backmatter": "2555-09-07",
    "date_modified": "2555-10-16",
    "date_original": "2555-10-16",
    "doctype": "ประกาศ",
    "editors": [
      {
        "name": "ปริยานุช",
        "role": "ผู้จัดทำ",
        "date": "2555-10-18"
      },
      {
        "name": "ณัฐพร",
        "role": "ผู้ตรวจ",
        "date": "2555-10-18"
      }
    ],
    "tag": "bb31-2e-2555-a0040"
  }
}