{
  "pages": [
    [
      [
        "ประกาศกระทรวงคมนาคม",
        "เรื่อง ตั้งที่ทำการไปรษณีย์โทรเลขสนามเป้า"
      ]
    ],
    []
  ],
  "metadata": {
    "date_backmatter": "2523-12-17",
    "date_modified": "2524-01-06",
    "date_original": "2524-01-06",
    "doctype": "ประกาศ",
    "editors": [
      {
        "name": "สุกัญญา",
        "role": "พิมพ์",
        "date": "2550-04-04"
      },
      {
        "name": "ฐิติพงษ์",
        "role": "ตรวจ",
        "date": "2550-04-25"
      }
    ],
    "tag": "bb31-2e-2524-a0001"
  }
}