{
  "pages": [
    [
      [
        "ประกาศกระทรวงเทคโนโลยีสารสนเทศและการสื่อสาร",
        "เรื่อง สร้างและจำหน่ายตราไปรษณียากรที่ระลึก ๖๐ ปี บรมราชาภิเษก"
      ]
    ],
    []
  ],
  "metadata": {
    "date_backmatter": "2553-06-25",
    "date_modified": "2553-08-18",
    "date_original": "2553-08-18",
    "doctype": "ประกาศ",
    "editors": [
      {
        "name": "ปริยานุช",
        "role": "ผู้จัดทำ",
        "date": "2553-08-23"
      },
      {
        "name": "นันทนภัสร์",
        "role": "ตรวจ",
        "date": "2553-08-23"
      }
    ],
    "tag": "bb31-2e-2553-a0020"
  }
}