{
  "pages": [
    [
      [
        "ประกาศกระทรวงเทคโนโลยีสารสนเทศและการสื่อสาร",
        "เรื่อง สร้างและจำหน่ายไปรษณียบัตรรูปแบบใหม่ ชนิดราคา ๕ บาท"
      ]
    ],
    []
  ],
  "metadata": {
    "date_backmatter": "2552-07-22",
    "date_modified": "2552-09-23",
    "date_original": "2552-09-23",
    "doctype": "ประกาศ",
    "editors": [
      {
        "name": "ปริยานุช",
        "role": "ผู้จัดทำ",
        "date": "2552-09-30"
      }
    ],
    "tag": "bb31-2e-2552-a0026"
  }
}