{
  "pages": [
    [
      [
        "ประกาศกระทรวงเทคโนโลยีสารสนเทศและการสื่อสาร",
        "เรื่อง สร้างและจำหน่ายตราไปรษณียากรที่ระลึกกรุงเทพฯ เมืองหนังสือโลก ๒๕๕๖"
      ]
    ],
    []
  ],
  "metadata": {
    "date_backmatter": "2556-06-06",
    "date_modified": "2556-06-28",
    "date_original": "2556-06-28",
    "doctype": "ประกาศ",
    "editors": [
      {
        "name": "ปริยานุช",
        "role": "ผู้จัดทำ",
        "date": "2556-07-02"
      },
      {
        "name": "โชติกานต์",
        "role": "ผู้ตรวจ",
        "date": "2556-07-18"
      }
    ],
    "tag": "bb31-2e-2556-a0028"
  }
}