{
  "pages": [
    [
      [
        "ประกาศกระทรวงเทคโนโลยีสารสนเทศและการสื่อสาร",
        "เรื่อง สร้างและจำหน่ายไปรษณียบัตร"
      ]
    ],
    []
  ],
  "metadata": {
    "date_backmatter": "2555-06-06",
    "date_modified": "2555-07-31",
    "date_original": "2555-07-31",
    "doctype": "ประกาศ",
    "editors": [
      {
        "name": "ปริยานุช",
        "role": "ผู้จัดทำ",
        "date": "2555-08-07"
      },
      {
        "name": "ชาญ",
        "role": "ผู้ตรวจ",
        "date": "2555-08-14"
      }
    ],
    "tag": "bb31-2e-2555-a0027"
  }
}