{
  "pages": [
    [
      [
        "ประกาศกระทรวงเทคโนโลยีสารสนเทศและการสื่อสาร",
        "เรื่อง สร้างและจำหน่ายไปรษณียบัตร"
      ]
    ],
    []
  ],
  "metadata": {
    "date_backmatter": "2554-09-20",
    "date_modified": "2554-11-10",
    "date_original": "2554-11-10",
    "doctype": "ประกาศ",
    "editors": [
      {
        "name": "ปริยานุช",
        "role": "ผู้จัดทำ",
        "date": "2554-11-15"
      },
      {
        "name": "ปณตภร",
        "role": "ผู้ตรวจ",
        "date": "2554-11-25"
      }
    ],
    "tag": "bb31-2e-2554-a0024"
  }
}