{
  "pages": [
    [
      [
        "ประกาศกระทรวงเทคโนโลยีสารสนเทศและการสื่อสาร",
        "เรื่อง สร้างและจำหน่ายตราไปรษณียากรที่ระลึก ๑๐๐ ปี กิจการปูนซีเมนต์แห่งแรกของไทย",
        "(บริษัทปูนซิเมนต์ไทย จำกัด (มหาชน))"
      ]
    ],
    []
  ],
  "metadata": {
    "date_backmatter": "2557-01-14",
    "date_modified": "2557-02-04",
    "date_original": "2557-02-04",
    "doctype": "ประกาศ",
    "editors": [
      {
        "name": "ปริยานุช",
        "role": "ผู้จัดทำ",
        "date": "2557-02-13"
      },
      {
        "name": "อังศุมาลี",
        "role": "ผู้ตรวจ",
        "date": "2557-02-13"
      }
    ],
    "tag": "bb31-2e-2557-a0004"
  }
}