{
  "pages": [
    [
      [
        "กฎกระทรวง",
        "ฉบับที่ ๑๕ (พ.ศ. ๒๕๑๔)",
        "ออกตามความในพระราชบัญญัติไปรษณีย์",
        "พุทธศักราช ๒๔๗๗"
      ]
    ],
    []
  ],
  "metadata": {
    "date_backmatter": "2514-07-01",
    "date_modified": "2514-06-08",
    "date_original": "2514-06-08",
    "doctype": "กฎกระทรวง",
    "editors": [
      {
        "name": "สุกัญญา",
        "role": "พิมพ์",
        "date": "2550-03-22"
      },
      {
        "name": "ฐิติพงษ์",
        "role": "ตรวจ",
        "date": "2550-03-28"
      }
    ],
    "tag": "bb31-2b-2514-015"
  }
}