{
  "pages": [
    [
      [
        "ประกาศกระทรวงเทคโนโลยีสารสนเทศและการสื่อสาร",
        "เรื่อง สร้างและจำหน่ายตราไปรษณียากรชุดวันสำคัญทางพุทธศาสนา (วันวิสาขบูชา)"
      ]
    ],
    []
  ],
  "metadata": {
    "date_backmatter": "2552-05-06",
    "date_modified": "2552-06-15",
    "date_original": "2552-06-15",
    "doctype": "ประกาศ",
    "editors": [
      {
        "name": "ปริยานุช",
        "role": "ผู้จัดทำ",
        "date": "2552-06-29"
      }
    ],
    "tag": "bb31-2e-2552-a0019"
  }
}