{
  "pages": [
    [
      [
        "พระราชบัญญัติ",
        "งบประมาณรายจ่ายประจำปีงบประมาณ",
        "พ.ศ. ๒๕๕๖",
        "",
        "",
        "ภูมิพลอดุลยเดช ป.ร.",
        "ให้ไว้ ณ วันที่ ๒๗ กันยายน พ.ศ. ๒๕๕๕",
        "เป็นปีที่ ๖๗ ในรัชกาลปัจจุบัน"
      ]
    ],
    []
  ],
  "metadata": {
    "date_header": "2555-09-27",
    "date_modified": "2555-09-30",
    "date_original": "2555-09-30",
    "doctype": "พระราชบัญญัติ",
    "editors": [
      {
        "name": "ปริยานุช",
        "role": "ผู้จัดทำ",
        "date": "2555-10-03"
      },
      {
        "name": "ชาญ",
        "role": "ผู้ตรวจ",
        "date": "2555-10-11"
      }
    ],
    "tag": "a708-20-2555-a0002",
    "title": "งบประมาณรายจ่ายประจำปีงบประมาณ"
  }
}