{
  "pages": [
    [
      [
        "พระราชบัญญัติ",
        "งบประมาณรายจ่ายประจำปีงบประมาณ",
        "พ.ศ. ๒๕๕๐",
        "",
        "",
        "ภูมิพลอดุลยเดช ป.ร.",
        "ให้ไว้ ณ วันที่ ๖ มกราคม พ.ศ. ๒๕๕๐",
        "เป็นปีที่ ๖๒ ในรัชกาลปัจจุบัน"
      ]
    ],
    []
  ],
  "metadata": {
    "date_header": "2550-01-06",
    "date_modified": "2550-01-09",
    "date_original": "2550-01-09",
    "doctype": "พระราชบัญญัติ",
    "editors": [
      {
        "name": "วัชศักดิ์",
        "role": "ผู้จัดทำ",
        "date": "2550-01-23"
      },
      {
        "name": "ปิติวรรณ",
        "role": "ปรับปรุง",
        "date": "2561-06-05"
      }
    ],
    "tag": "a708-20-2550-a0001",
    "title": "งบประมาณรายจ่ายประจำปีงบประมาณ"
  }
}