{
  "pages": [
    [
      [
        "พระราชบัญญัติ",
        "งบประมาณรายจ่ายประจำปีงบประมาณ",
        "พ.ศ. ๒๕๕๓",
        "",
        "",
        "ภูมิพลอดุลยเดช ป.ร.",
        "ให้ไว้ ณ วันที่ ๒๒ ตุลาคม พ.ศ. ๒๕๕๒",
        "เป็นปีที่ ๖๔ ในรัชกาลปัจจุบัน"
      ]
    ],
    []
  ],
  "metadata": {
    "date_header": "2552-10-22",
    "date_modified": "2552-10-22",
    "date_original": "2552-10-22",
    "doctype": "พระราชบัญญัติ",
    "editors": [
      {
        "name": "ปริยานุช",
        "role": "ผู้จัดทำ",
        "date": "2552-10-26"
      },
      {
        "name": "นันท์นภัสร์",
        "role": "ตรวจ",
        "date": "2552-10-26"
      },
      {
        "name": "ปิติวรรณ",
        "role": "ปรับปรุง",
        "date": "2561-06-05"
      }
    ],
    "tag": "a708-20-2552-a0002",
    "title": "งบประมาณรายจ่ายประจำปีงบประมาณ"
  }
}