{
  "pages": [
    [
      [
        "พระราชบัญญัติ",
        "แก้ไขเพิ่มเติมประกาศคณะปฏิรูปการปกครอง",
        "ในระบอบประชาธิปไตยอันมีพระมหากษัตริย์ทรงเป็นประมุข ฉบับที่ ๓๐",
        "เรื่อง การตรวจสอบการกระทำที่ก่อให้เกิดความเสียหายแก่รัฐ",
        "ลงวันที่ ๓๐ กันยายน พุทธศักราช ๒๕๔๙",
        "พ.ศ. ๒๕๕๐",
        "",
        "",
        "ภูมิพลอดุลยเดช ป.ร.",
        "ให้ไว้ ณ วันที่ ๒๘ สิงหาคม พ.ศ. ๒๕๕๐",
        "เป็นปีที่ ๖๒ ในรัชกาลปัจจุบัน"
      ]
    ],
    []
  ],
  "metadata": {
    "date_backmatter": "2549-09-30",
    "date_header": "2549-09-30",
    "date_modified": "2550-09-05",
    "date_original": "2550-09-05",
    "doctype": "พระราชบัญญัติ",
    "editors": [
      {
        "name": "วัชศักดิ์",
        "role": "ผู้จัดทำ",
        "date": "2550-09-12"
      }
    ],
    "tag": "a4bba403-20-2550-a0006",
    "title": "แก้ไขเพิ่มเติมประกาศคณะปฏิรูปการปกครองในระบอบประชาธิปไตยอันมีพระมหากษัตริย์ทรงเป็นประมุข ฉบับที่ ๓๐เรื่อง การตรวจสอบการกระทำที่ก่อให้เกิดความเสียหายแก่รัฐลงวันที่ ๓๐ กันยายน พุทธศักราช ๒๕๔๙"
  }
}