{
  "pages": [
    [
      [
        "ประกาศ",
        "แต่งตั้งหัวหน้าคณะปฏิรูปการปกครองในระบอบประชาธิปไตย",
        "อันมีพระมหากษัตริย์ทรงเป็นประมุข",
        "",
        "",
        "ภูมิพลอดุลยเดช ป.ร."
      ]
    ],
    []
  ],
  "metadata": {
    "date_backmatter": "2549-09-20",
    "date_modified": "2549-09-20",
    "date_original": "2549-09-20",
    "doctype": "ประกาศ",
    "editors": [
      {
        "name": "นันทนา",
        "role": "ผู้จัดทำ",
        "date": "2549-09-22"
      }
    ],
    "tag": "a4bba403-20-2549-a0001"
  }
}