{
  "pages": [
    [
      [
        "ประกาศคณะกรรมการบริหารกองทุนส่งเสริมความเท่าเทียมระหว่างเพศ",
        "เรื่อง หลักเกณฑ์ วิธีการ และเงื่อนไขการอนุมัติการใช้เงินและทรัพย์สิน",
        "ของกองทุนส่งเสริมความเท่าเทียมระหว่างเพศ"
      ]
    ],
    []
  ],
  "metadata": {
    "date_backmatter": "2560-12-29",
    "date_modified": "2561-01-30",
    "date_original": "2561-01-30",
    "doctype": "ประกาศ",
    "editors": [
      {
        "name": "ปวันวิทย์",
        "role": "จัดทำ",
        "date": "2561-02-13"
      }
    ],
    "tag": "a4119-2e-2561-a0001"
  }
}