{
  "pages": [
    [
      [
        "คำสั่งกระทรวงมหาดไทย",
        "ที่ ๗/๒๕๕๑",
        "เรื่อง การปฏิบัติตามพระราชบัญญัติสถานบริการ พ.ศ. ๒๕๐๙"
      ]
    ],
    []
  ],
  "metadata": {
    "date_backmatter": "2551-01-08",
    "date_modified": "2551-03-05",
    "date_original": "2551-03-05",
    "editors": [
      {
        "name": "วัชศักดิ์",
        "role": "ผู้จัดทำ",
        "date": "2551-03-12"
      }
    ],
    "tag": "ca10-2f-2551-a0001"
  }
}