{
  "pages": [
    [
      [
        "พระราชบัญญัติ",
        "สถานบริการ",
        "พ.ศ. ๒๕๐๙",
        "",
        "",
        "ในพระปรมาภิไธย",
        "พระบาทสมเด็จพระปรมินทรมหาภูมิพลอดุลยเดช",
        "สังวาลย์",
        "ผู้สำเร็จราชการแทนพระองค์",
        "ให้ไว้ ณ วันที่ ๓๐ สิงหาคม พ.ศ. ๒๕๐๙",
        "เป็นปีที่ ๒๑ ในรัชกาลปัจจุบัน"
      ]
    ],
    []
  ],
  "metadata": {
    "date_header": "2509-08-30",
    "date_modified": "2525-08-16",
    "date_original": "2509-10-04",
    "doctype": "พระราชบัญญัติ",
    "editors": [
      {
        "name": "วชิระ",
        "role": "ปรับปรุง",
        "date": "2552-05-18"
      },
      {
        "name": "ภีรภัทร",
        "role": "ปรับปรุง",
        "date": "2553-12-20"
      }
    ],
    "tag": "ca10-20-2525-a0001",
    "title": "สถานบริการ"
  }
}