{
  "pages": [
    [
      [
        "ประกาศกระทรวงการคลัง",
        "เรื่อง รายงานการรับ - จ่ายเงินกองทุนเพื่อการชำระคืนต้นเงินกู้",
        "ชดใช้ความเสียหายของกองทุนเพื่อการฟื้นฟูและพัฒนา",
        "ระบบสถาบันการเงิน",
        "ประจำปีงบประมาณ",
        "พ.ศ. ๒๕๕๔"
      ]
    ],
    []
  ],
  "metadata": {
    "date_backmatter": "2554-09-30",
    "date_modified": "2554-12-01",
    "date_original": "2554-12-01",
    "doctype": "ประกาศ",
    "editors": [
      {
        "name": "ปริยานุช",
        "role": "จัดทำ",
        "date": "2554-12-08"
      },
      {
        "name": "ณัฐพร",
        "role": "ตรวจ",
        "date": "2554-12-08"
      },
      {
        "name": "พรมนัส",
        "role": "ปรับปรุง",
        "date": "2561-06-21"
      }
    ],
    "tag": "cb22-2e-2554-a0004"
  }
}