{
  "pages": [
    [
      [
        "ประกาศกระทรวงการคลัง",
        "เรื่อง การประมูลตั๋วสัญญาใช้เงินเพื่อการปรับโครงสร้างหนี้"
      ]
    ],
    []
  ],
  "metadata": {
    "date_backmatter": "2544-11-23",
    "date_modified": "2544-11-30",
    "date_original": "2544-11-30",
    "doctype": "ประกาศ",
    "editors": [
      {
        "name": "สรัลพร",
        "role": "พิมพ์",
        "date": "2550-12-05"
      },
      {
        "name": "สุนันทา",
        "role": "ตรวจ",
        "date": "2550-12-27"
      },
      {
        "name": "พรมนัส",
        "role": "ปรับปรุง",
        "date": "2561-06-12"
      }
    ],
    "tag": "cb22-2e-2544-a011"
  }
}