{
  "pages": [
    [
      [
        "ประกาศกระทรวงการคลัง",
        "เรื่อง การประมูลตั๋วสัญญาใช้เงินเพื่อปรับโครงสร้างหนี้"
      ]
    ],
    []
  ],
  "metadata": {
    "date_backmatter": "2547-06-11",
    "date_modified": "2547-06-18",
    "date_original": "2547-06-18",
    "doctype": "ประกาศ",
    "editors": [
      {
        "name": "นันติญา",
        "role": "พิมพ์",
        "date": "2550-12-04"
      },
      {
        "name": "สุนันทา",
        "role": "ตรวจ",
        "date": "2550-12-28"
      }
    ],
    "tag": "cb22-2e-2547a0006"
  }
}