{
  "pages": [
    [
      [
        "ประกาศกระทรวงการคลัง",
        "เรื่อง การประมูลตั๋วสัญญาใช้เงินเพื่อปรับโครงสร้างหนี้",
        "ในปีงบประมาณ พ.ศ. ๒๕๕๐"
      ]
    ],
    []
  ],
  "metadata": {
    "date_backmatter": "2549-10-13",
    "date_modified": "2549-11-01",
    "date_original": "2549-11-01",
    "doctype": "ประกาศ",
    "editors": [
      {
        "name": "วัชศักดิ์",
        "role": "จัดทำ",
        "date": "2549-11-01"
      },
      {
        "name": "พรมนัส",
        "role": "ปรับปรุง",
        "date": "2561-06-18"
      }
    ],
    "tag": "cb22-2e-2549-a0015"
  }
}