{
  "pages": [
    [
      [
        "ประกาศกระทรวงการคลัง",
        "เรื่อง การกู้เงินระยะสั้นเพื่อการปรับโครงสร้างหนี้",
        "ในปีงบประมาณ พ.ศ. ๒๕๕๗ ครั้งที่ ๒"
      ]
    ],
    []
  ],
  "metadata": {
    "date_backmatter": "2557-02-26",
    "date_modified": "2557-03-07",
    "date_original": "2557-03-07",
    "doctype": "ประกาศ",
    "editors": [
      {
        "name": "ปริยานุช",
        "role": "จัดทำ",
        "date": "2557-03-11"
      },
      {
        "name": "โชติกานต์",
        "role": "ตรวจ",
        "date": "2557-03-26"
      },
      {
        "name": "พรมนัส",
        "role": "ปรับปรุง",
        "date": "2561-06-21"
      }
    ],
    "tag": "cb22-2e-2557-a0002"
  }
}