{
  "pages": [
    [
      [
        "ประกาศสำนักนายกรัฐมนตรี",
        "เรื่อง การอนุมัติพระราชกำหนดให้อำนาจกระทรวงการคลัง",
        "กู้เงินและจัดการเงินกู้เพื่อช่วยเหลือกองทุนเพื่อการฟื้นฟู",
        "และพัฒนาระบบสถาบันการเงิน",
        "พ.ศ. ๒๕๔๑"
      ]
    ],
    []
  ],
  "metadata": {
    "date_backmatter": "2541-05-27",
    "date_modified": "2541-05-31",
    "date_original": "2541-05-31",
    "doctype": "ประกาศ",
    "editors": [
      {
        "name": "พรมนัส",
        "role": "ปรับปรุง"
      }
    ],
    "tag": "cb22-2e-2541-001"
  }
}