{
  "pages": [
    [
      [
        "ประกาศกระทรวงการคลัง",
        "เรื่อง รายงานการรับ - จ่ายเงินกองทุนเพื่อการชำระคืนต้นเงินกู้",
        "ชดใช้ความเสียหายของกองทุนเพื่อการฟื้นฟูและพัฒนาระบบสถาบันการเงิน",
        "ประจำปีงบประมาณ",
        "พ.ศ. ๒๕๔๘"
      ]
    ],
    []
  ],
  "metadata": {
    "date_backmatter": "2548-09-30",
    "date_modified": "2548-12-22",
    "date_original": "2548-12-22",
    "doctype": "ประกาศ",
    "editors": [
      {
        "name": "พชร",
        "role": "จัดทำ",
        "date": "2548-12-27"
      },
      {
        "name": "พรมนัส",
        "role": "ปรับปรุง",
        "date": "2561-06-15"
      }
    ],
    "tag": "cb22-2e-2548-a0017"
  }
}