{
  "pages": [
    [
      [
        "ประกาศกระทรวงการคลัง",
        "เรื่อง การจำหน่ายพันธบัตรออมทรัพย์ ในปีงบประมาณ",
        "พ.ศ. ๒๕๕๐",
        "ครั้งที่ ๖"
      ]
    ],
    []
  ],
  "metadata": {
    "date_backmatter": "2550-04-26",
    "date_modified": "2550-06-07",
    "date_original": "2550-06-07",
    "doctype": "ประกาศ",
    "editors": [
      {
        "name": "วัชศักดิ์",
        "role": "จัดทำ",
        "date": "2550-06-13"
      },
      {
        "name": "พรมนัส",
        "role": "ปรับปรุง",
        "date": "2561-06-20"
      }
    ],
    "tag": "cb22-2e-2550-a0007"
  }
}