{
  "pages": [
    [
      [
        "ประกาศกระทรวงการคลัง",
        "เรื่อง การจำหน่ายพันธบัตรออมทรัพย์",
        "ในปีงบประมาณ พ.ศ. ๒๕๕๐ ครั้งที่ ๑๐"
      ]
    ],
    []
  ],
  "metadata": {
    "date_backmatter": "2550-08-30",
    "date_modified": "2550-09-20",
    "date_original": "2550-09-20",
    "doctype": "ประกาศ",
    "editors": [
      {
        "name": "วัชศักดิ์",
        "role": "จัดทำ",
        "date": "2550-09-27"
      },
      {
        "name": "พรมนัส",
        "role": "ปรับปรุง",
        "date": "2561-06-20"
      }
    ],
    "tag": "cb22-2e-2550-a0013"
  }
}