{
  "pages": [
    [
      [
        "ประกาศกระทรวงการคลัง",
        "เรื่อง การกู้เงินระยะยาวเพื่อการปรับโครงสร้างหนี้",
        "ในปีงบประมาณ พ.ศ. ๒๕๕๒ ครั้งที่ ๑"
      ]
    ],
    []
  ],
  "metadata": {
    "date_backmatter": "2552-08-27",
    "date_modified": "2552-09-21",
    "date_original": "2552-09-21",
    "doctype": "ประกาศ",
    "editors": [
      {
        "name": "ปริยานุช",
        "role": "จัดทำ",
        "date": "2552-09-29"
      },
      {
        "name": "พรมนัส",
        "role": "ปรับปรุง",
        "date": "2561-06-21"
      }
    ],
    "tag": "cb22-2e-2552-a0004"
  }
}