{
  "pages": [
    [
      [
        "ประกาศกระทรวงการคลัง",
        "เรื่อง การกู้เงินระยะสั้นเพื่อการปรับโครงสร้างหนี้",
        "ในปีงบประมาณ พ.ศ. ๒๕๕๐ ครั้งที่ ๒"
      ]
    ],
    []
  ],
  "metadata": {
    "date_backmatter": "2550-08-29",
    "date_modified": "2550-09-14",
    "date_original": "2550-09-14",
    "doctype": "ประกาศ",
    "editors": [
      {
        "name": "ปริยานุช",
        "role": "จัดทำ",
        "date": "2550-09-26"
      },
      {
        "name": "พรมนัส",
        "role": "ปรับปรุง",
        "date": "2561-06-20"
      }
    ],
    "tag": "cb22-2e-2550-a0010"
  }
}