{
  "pages": [
    [
      [
        "ประกาศกระทรวงการคลัง",
        "เรื่อง การกู้เงินระยะสั้นเพื่อการปรับโครงสร้างหนี้",
        "ในปีงบประมาณ",
        "พ.ศ. ๒๕๕๐"
      ]
    ],
    []
  ],
  "metadata": {
    "date_backmatter": "2549-12-04",
    "date_modified": "2550-01-04",
    "date_original": "2550-01-04",
    "doctype": "ประกาศ",
    "editors": [
      {
        "name": "วัชศักดิ์",
        "role": "ผู้จัดทำ",
        "date": "2550-01-15"
      }
    ],
    "tag": "cb22-2e-2550-a0002"
  }
}