{
  "pages": [
    [
      [
        "ประกาศกระทรวงการคลัง",
        "เรื่อง การจำหน่ายพันธบัตรออมทรัพย์",
        "ในปีงบประมาณ พ.ศ. ๒๕๔๙ ครั้งที่ ๑"
      ]
    ],
    []
  ],
  "metadata": {
    "date_backmatter": "2548-11-11",
    "date_modified": "2548-12-09",
    "date_original": "2548-12-09",
    "doctype": "ประกาศ",
    "editors": [
      {
        "name": "พชร",
        "role": "จัดทำ",
        "date": "2548-12-16"
      },
      {
        "name": "พรมนัส",
        "role": "ปรับปรุง",
        "date": "2561-06-15"
      }
    ],
    "tag": "cb22-2e-2548-a0013"
  }
}