{
  "pages": [
    [
      [
        "ประกาศกระทรวงการคลัง",
        "เรื่อง การจำหน่ายพันธบัตรรัฐบาลเพื่อการปรับโครงสร้างหนี้",
        "ในปีงบประมาณ พ.ศ. ๒๕๕๘",
        "ครั้งที่ ๒"
      ]
    ],
    []
  ],
  "metadata": {
    "date_backmatter": "2558-02-17",
    "date_modified": "2558-03-06",
    "date_original": "2558-03-06",
    "doctype": "ประกาศ",
    "editors": [
      {
        "name": "ปริยานุช",
        "role": "ผู้จัดทำ",
        "date": "2558-03-10"
      },
      {
        "name": "กฤษดายุทธ",
        "role": "ผู้ตรวจ",
        "date": "2558-03-10"
      }
    ],
    "tag": "cb22-2e-2558-a0001"
  }
}