{
  "pages": [
    [
      [
        "ประกาศกระทรวงการคลัง",
        "เรื่อง การจำหน่ายพันธบัตรออมทรัพย์",
        "ปีงบประมาณ พ.ศ. ๒๕๔๗ ครั้งที่ ๒"
      ]
    ],
    []
  ],
  "metadata": {
    "date_backmatter": "2547-10-21",
    "date_modified": "2547-10-27",
    "date_original": "2547-10-27",
    "doctype": "ประกาศ",
    "editors": [
      {
        "name": "สรัลพร",
        "role": "พิมพ์",
        "date": "2550-12-04"
      },
      {
        "name": "สุนันทา",
        "role": "ตรวจ",
        "date": "2550-12-28"
      },
      {
        "name": "พรมนัส",
        "role": "ปรับปรุง",
        "date": "2561-06-14"
      }
    ],
    "tag": "cb22-2e-2547-a0011"
  }
}