{
  "pages": [
    [
      [
        "ประกาศกระทรวงการคลัง",
        "เรื่อง การจำหน่ายพันธบัตรรัฐบาลกรณีพิเศษ",
        "ในปีงบประมาณ พ.ศ. ๒๕๔๘ ครั้งที่ ๒"
      ]
    ],
    []
  ],
  "metadata": {
    "date_backmatter": "2548-06-29",
    "date_modified": "2548-07-27",
    "date_original": "2548-07-27",
    "doctype": "ประกาศ",
    "editors": [
      {
        "name": "สรัลพร",
        "role": "พิมพ์",
        "date": "2550-12-04"
      },
      {
        "name": "สุนันทา",
        "role": "ตรวจ",
        "date": "2550-12-28"
      },
      {
        "name": "พรมนัส",
        "role": "ปรับปรุง",
        "date": "2561-06-15"
      }
    ],
    "tag": "cb22-2e-2548-a0014"
  }
}