{
  "pages": [
    [
      [
        "ประกาศกระทรวงการคลัง",
        "เรื่อง ผลการจำหน่ายตั๋วสัญญาใช้เงินเพื่อการปรับโครงสร้างหนี้",
        "(พ.ร.ก. ช่วยเหลือกองทุนเพื่อการฟื้นฟูฯ พ.ศ. ๒๕๔๑)",
        "ในปีงบประมาณ พ.ศ. ๒๕๕๙",
        "ครั้งที่ ๑"
      ]
    ],
    []
  ],
  "metadata": {
    "date_backmatter": "2559-03-11",
    "date_modified": "2559-03-31",
    "date_original": "2559-03-31",
    "doctype": "ประกาศ",
    "editors": [
      {
        "name": "ปริยานุช",
        "role": "จัดทำ",
        "date": "2559-04-04"
      },
      {
        "name": "ชวัลพร",
        "role": "ตรวจ",
        "date": "2559-04-04"
      }
    ],
    "tag": "cb22-2e-2559-a0002"
  }
}