{
  "pages": [
    [
      [
        "ประกาศกระทรวงการคลัง",
        "เรื่อง การกู้เงินเพื่อการปรับโครงสร้างหนี้ โดยตั๋วสัญญาใช้เงิน",
        "ในปีงบประมาณ พ.ศ. ๒๕๕๕ ครั้งที่ ๓"
      ]
    ],
    []
  ],
  "metadata": {
    "date_backmatter": "2555-03-08",
    "date_modified": "2555-03-19",
    "date_original": "2555-03-19",
    "doctype": "ประกาศ",
    "editors": [
      {
        "name": "ปริยานุช",
        "role": "ผู้จัดทำ",
        "date": "2555-03-22"
      },
      {
        "name": "ณัฐพร",
        "role": "ผู้ตรวจ",
        "date": "2555-03-22"
      }
    ],
    "tag": "cb22-2e-2555-a0001"
  }
}