{
  "pages": [
    [
      [
        "ประกาศกระทรวงการคลัง",
        "เรื่อง รายงานการรับ - จ่ายเงินกองทุนเพื่อการชำระคืนต้นเงินกู้",
        "ชดใช้ความเสียหายของกองทุนเพื่อการฟื้นฟูและพัฒนาระบบสถาบันการเงิน",
        "ประจำปีงบประมาณ พ.ศ. ๒๕๕๓"
      ]
    ],
    []
  ],
  "metadata": {
    "date_backmatter": "2553-12-14",
    "date_modified": "2554-01-20",
    "date_original": "2554-01-20",
    "doctype": "ประกาศ",
    "editors": [
      {
        "name": "ปริยานุช",
        "role": "ผู้จัดทำ",
        "date": "2554-01-27"
      },
      {
        "name": "ณัฐวดี",
        "role": "ตรวจ",
        "date": "2554-01-27"
      }
    ],
    "tag": "cb22-2e-2554-a0001"
  }
}